-0.074657
-0.22397
-0.29203
-0.32555
-0.34789
-0.33875
-0.25952
-0.07161
0.10411
0.44033
0.34992
0.2321
0.025901
-0.10513
-0.12849
-0.21077
-0.28187
-0.27273
-0.17217
-0.042153
0.17115
0.32047
0.55612
0.52463
0.47181
0.31031
0.22905
0.19451
0.10818
-0.020823
-0.17725
-0.29507
-0.30015
-0.22803
-0.12646
-0.10208
-0.17014
-0.28999
-0.40782
-0.47181
-0.49924
-0.49416
-0.47181
-0.4322
-0.3804
-0.32961
-0.29406
-0.23921
-0.14881
-0.029964
0.10615
0.25952
0.41087
0.72067
0.61808
0.55714
0.36922
0.1935
0.14474
0.01676
-0.069578
-0.041138
0.020823
0.094972
0.060437
-0.066531
-0.20772
-0.33367
-0.34789
-0.28999
-0.2067
-0.13966
-0.11529
-0.14068
-0.14678
-0.14678
-0.13966
-0.10818
-0.093956
-0.08583
-0.080752
-0.075673
-0.053327
-0.010665
0.039106
0.10513
0.14779
0.16201
0.16506
0.161
0.17014
0.18233
0.17522
0.17522
0.15693
0.10411
-0.010665
-0.20874
-0.39766
-0.56628
-0.6323
-0.62113
-0.55307
-0.51447
-0.50635
-0.48299
-0.37227
-0.1742
0.027933
0.16607
0.29203
0.25648
0.15693
-0.020823
-0.15389
-0.18233
-0.15693
-0.10615
-0.035043
0.026917
0.08583
0.1356
0.17928
0.20163
0.19248
0.17623
0.18436
0.18842
0.16811
0.12544
0.056374
-0.03098
-0.14271
-0.27781
-0.38852
-0.50432
-0.59269
-0.613
-0.62925
-0.5744
-0.49213
-0.36618
-0.17217
0.07872
0.30218
0.60488
0.69731
0.66785
0.41493
0.13459
-0.060437
-0.15592
-0.2067
-0.25343
-0.23921
-0.161
0.031996
0.2321
0.23108
0.17522
0.010665
-0.12037
-0.1874
-0.2514
-0.24124
-0.17318
-0.069578
0.056374
0.22194
0.27781
0.24124
0.013713
-0.23616
-0.42306
-0.48603
-0.48502
-0.51854
-0.55917
-0.56323
-0.46978
-0.3164
-0.12341
0.072626
0.20264
0.2067
0.18639
0.11732
0.099035
0.046216
-0.088878
-0.24632
-0.37024
-0.4322
-0.4454
-0.43321
-0.41595
-0.3936
-0.38649
-0.36618
-0.34789
-0.31742
-0.2839
-0.23007
-0.15998
-0.073641
0.012697
0.094972
0.161
0.20163
0.2453
0.27679
0.30218
0.2707
0.18436
-0.0025394
-0.20163
-0.38751
-0.5094
-0.54088
-0.55104
-0.52362
-0.46267
-0.41188
-0.36516
-0.31234
-0.16912
0.069578
0.24632
0.226
0.036059
-0.16709
-0.26359
-0.23108
-0.16709
-0.066531
0.044185
0.13052
0.26359
0.41087
0.5612
0.68106
0.71153
0.67598
0.58151
0.41696
0.21788
0.037075
-0.074657
-0.13763
-0.21889
-0.3611
-0.55815
-0.72575
-0.82529
-0.79584
-0.71153
-0.64551
-0.58558
-0.52463
-0.4322
-0.34688
-0.26663
-0.14982
0.024886
0.43728
0.45658
0.39665
0.18029
0.074657
0.14881
0.15592
0.16607
0.23819
0.36719
0.51955
0.6841
0.65058
0.52565
0.3418
0.20569
0.20163
0.22296
0.2321
0.25749
0.31437
0.37227
0.41899
0.44033
0.3997
0.3225
0.11021
-0.12544
-0.41087
-0.63027
-0.76028
-0.80802
-0.79279
-0.71051
-0.55206
-0.31234
-0.011681
0.27781
0.52565
0.63636
0.52869
0.2707
-0.01676
-0.23108
-0.31234
-0.33875
-0.33773
-0.31336
-0.28085
-0.23108
-0.18233
-0.11732
-0.062468
-0.017776
0.026917
0.065515
0.10005
0.12443
0.13966
0.14881
0.16404
0.16303
0.12748
0.059421
-0.067547
-0.2128
-0.3997
-0.55815
-0.70239
-0.78365
-0.73286
-0.64754
-0.49111
-0.31945
-0.14271
0.0076181
0.12037
0.26155
0.39055
0.4708
0.44134
0.30117
0.1874
0.10107
-0.0086338
-0.10818
-0.19655
-0.20061
-0.099035
0.0086338
0.27882
0.32453
0.34281
0.24124
0.10005
0.0055866
-0.082783
-0.13865
-0.15389
-0.22499
-0.37735
-0.55815
-0.71559
-0.77857
-0.79685
-0.79685
-0.77654
-0.75622
-0.69629
-0.61706
-0.54088
-0.41899
-0.28187
-0.14982
-0.051295
-0.0076181
0.012697
0.0025394
-0.0096496
-0.039106
-0.07161
-0.090909
-0.097004
-0.072626
-0.047232
-0.047232
-0.088878
-0.16201
-0.25038
-0.29507
-0.28999
-0.25343
-0.20467
-0.21483
-0.27984
-0.38751
-0.5033
-0.59269
-0.65566
-0.71559
-0.73794
-0.67902
-0.53885
-0.32047
-0.10818
0.34992
0.48197
0.60081
0.39259
0.12951
-0.077704
-0.19756
-0.25444
-0.24225
-0.20975
-0.15592
-0.081767
-0.075673
-0.0096496
-0.13154
-0.20975
-0.32656
-0.37227
-0.36516
-0.35602
-0.34281
-0.28695
-0.22296
-0.15795
-0.095988
-0.028949
0.060437
0.14779
0.19045
0.18233
0.15389
0.11427
0.093956
0.060437
0.040122
0.035043
0.0086338
-0.052311
-0.14576
-0.2453
-0.3164
-0.34078
-0.36618
-0.35805
-0.33672
-0.27273
-0.17217
-0.11326
-0.1031
-0.097004
-0.012697
0.24632
0.53479
0.58761
0.56425
0.32148
0.20163
0.14271
0.077704
0.092941
0.20061
0.33773
0.46369
0.64652
0.52869
0.32351
0.031996
-0.18436
-0.26968
-0.33266
-0.3997
-0.39665
-0.36414
-0.32351
-0.28085
-0.23108
-0.14576
-0.024886
0.094972
0.20772
0.25546
0.24429
0.1935
0.13255
0.095988
0.07872
0.097004
0.11833
0.15795
0.19655
0.2321
0.24124
0.22499
0.1935
0.16709
0.16404
0.17217
0.19045
0.1874
0.17115
0.14678
0.13763
0.14881
0.19553
0.29101
0.37227
0.43829
0.43829
0.40071
0.35196
0.18944
0.0066023
-0.31031
-0.52565
-0.65566
-0.65871
-0.55206
-0.45658
-0.26257
0.055358
0.31336
0.60386
0.67293
0.5998
0.3743
0.13459
-0.0015236
-0.013713
0.03098
0.070594
0.094972
0.15592
0.31945
0.47689
0.65363
0.43829
0.20975
-0.070594
-0.12748
-0.10107
-0.13763
-0.20874
-0.27984
-0.38243
-0.50025
-0.60488
-0.67699
-0.7095
-0.71965
-0.70442
-0.67395
-0.61605
-0.54292
-0.45455
-0.35297
-0.25444
-0.15185
-0.0025394
0.17725
0.35907
0.70645
0.62621
0.56425
0.34688
0.25343
0.17623
-0.0066023
-0.15287
-0.14373
-0.05739
0.11732
0.16404
0.10615
-0.044185
-0.28187
-0.48197
-0.63433
-0.76028
-0.76943
-0.71661
-0.63027
-0.5033
-0.35602
-0.17725
0.03809
0.24124
0.31133
0.29812
0.23921
0.22092
0.23311
0.19248
0.11529
0.028949
-0.041138
-0.097004
-0.12748
-0.13459
-0.13255
-0.11021
-0.084815
-0.049264
-0.033012
-0.047232
-0.086846
-0.13966
-0.19959
-0.26968
-0.37329
-0.46673
-0.53174
-0.51854
-0.45455
-0.34992
-0.19756
-0.052311
0.46978
0.49822
0.59472
0.32758
0.046216
-0.13662
-0.34586
-0.47283
-0.46877
-0.35907
-0.20366
-0.034027
0.048248
0.05739
-0.048248
-0.14271
-0.2128
-0.19553
-0.11529
-0.026917
0.0645
0.14779
0.19756
0.23616
0.24835
0.2646
0.28085
0.28085
0.2646
0.24632
0.23921
0.24937
0.25444
0.27679
0.27984
0.29203
0.26359
0.21483
0.17115
0.15389
0.16303
0.14678
0.091925
-0.019807
-0.1549
-0.30117
-0.45556
-0.62214
-0.79787
-0.8131
-0.79482
-0.65262
-0.49213
-0.31133
-0.15287
-0.0025394
0.20264
0.27476
0.30015
0.13357
-0.039106
-0.11732
-0.14373
-0.13662
-0.11326
-0.065515
0.03098
0.20061
0.3804
0.61097
0.48095
0.29914
0.13966
0.048248
0.11326
0.095988
-0.010665
-0.10005
-0.16303
-0.15389
-0.13052
-0.035043
0.07872
0.12849
0.10615
-0.048248
-0.23616
-0.36414
-0.43525
-0.45556
-0.37735
-0.17115
0.081767
0.40477
0.38446
0.21585
-0.083799
-0.30625
-0.3743
-0.37836
-0.36821
-0.34891
-0.32351
-0.30828
-0.28999
-0.27273
-0.27679
-0.31031
-0.38547
-0.46064
-0.53885
-0.57237
-0.55206
-0.49213
-0.40985
-0.33773
-0.28288
-0.23616
-0.19248
-0.12748
-0.046216
0.039106
0.1549
0.25038
0.33367
0.33977
0.27781
0.18131
0.083799
0.011681
-0.061453
-0.15389
-0.26663
-0.38344
-0.46877
-0.53174
-0.55714
-0.58151
-0.56628
-0.55307
-0.55307
-0.57034
-0.53073
-0.4454
-0.38344
-0.33875
-0.20467
0.17623
0.48705
0.53377
0.43626
0.16201
0.044185
-0.047232
-0.16912
-0.19248
-0.080752
0.097004
0.29507
0.43525
0.46877
0.40173
0.31234
0.21889
0.18436
0.16201
0.15389
0.17014
0.22092
0.28288
0.32758
0.35094
0.35602
0.36618
0.35703
0.30015
0.17623
0.0066023
-0.1874
-0.36211
-0.51549
-0.63535
-0.6648
-0.64957
-0.57847
-0.49822
-0.39462
-0.2839
-0.15896
-0.093956
-0.0015236
0.22296
0.25851
0.2839
0.15084
0.033012
-0.059421
-0.17826
-0.30422
-0.36414
-0.29711
-0.11732
0.0055866
0.35399
0.20163
0.037075
-0.21788
-0.31437
-0.2514
-0.34789
-0.5226
-0.64043
-0.63433
-0.52768
-0.39055
-0.28187
-0.18233
-0.087862
-0.0045708
0.067547
0.1163
0.14678
0.16506
0.18436
0.20569
0.22499
0.24022
0.2514
0.24937
0.21889
0.17826
0.15084
0.17217
0.21788
0.25749
0.22905
0.15795
0.073641
-0.018791
-0.10208
-0.18944
-0.26257
-0.33672
-0.39563
-0.43728
-0.4322
-0.37125
-0.32859
-0.3164
-0.32961
-0.32047
-0.22499
-0.026917
0.45861
0.53073
0.57034
0.34078
0.092941
0.043169
-0.01676
-0.039106
-0.024886
0.043169
0.1163
0.22194
0.20467
0.025901
-0.16912
-0.34281
-0.38243
-0.36211
-0.32453
-0.27273
-0.18233
-0.095988
-0.0045708
0.056374
0.10005
0.12951
0.083799
0.0086338
-0.12951
-0.23819
-0.31539
-0.36719
-0.3936
-0.38344
-0.3357
-0.24835
-0.1417
-0.037075
0.047232
0.10615
0.1417
0.14373
0.12037
0.094972
0.082783
0.10107
0.1163
0.13255
0.13966
0.14779
0.161
0.161
0.14678
0.14982
0.17522
0.23108
0.27577
0.29507
0.27476
0.21483
0.16607
0.095988
0.024886
-0.12849
-0.27374
-0.49822
-0.58456
-0.68309
-0.71356
-0.66988
-0.58456
-0.34383
-0.067547
0.18233
0.43626
0.55612
0.60995
0.45861
0.22702
0.065515
-0.0025394
0.0055866
0.024886
0.050279
0.13255
0.29711
0.42915
0.60081
0.41087
0.17522
-0.13763
-0.3611
-0.46166
-0.51447
-0.47892
-0.37532
-0.23921
-0.10005
0.053327
0.19248
0.30117
0.32656
0.29101
0.2453
0.21178
0.1935
0.15693
0.091925
-0.014728
-0.14779
-0.3032
-0.49721
-0.64551
-0.73184
-0.75622
-0.71356
-0.61706
-0.48095
-0.31539
-0.18842
-0.044185
0.1549
0.21788
0.21178
0.068563
-0.086846
-0.1935
-0.27781
-0.34688
-0.34891
-0.26866
-0.10411
0.090909
0.3225
0.2646
0.15287
0.025901
-0.07872
-0.029964
-0.017776
-0.029964
0.0035551
0.067547
0.11529
0.11427
0.082783
0.062468
0.074657
0.10818
0.11021
0.036059
-0.088878
-0.26663
-0.4261
-0.55612
-0.64957
-0.72676
-0.76536
-0.76333
-0.67801
-0.52666
-0.37125
-0.26765
-0.23514
-0.21178
-0.090909
0.18944
0.24327
0.16303
0.048248
-0.090909
-0.073641
-0.095988
-0.19959
-0.22296
-0.12646
0.014728
0.17826
0.2646
0.20569
0.093956
-0.027933
-0.075673
-0.091925
-0.1163
-0.11224
-0.048248
0.045201
0.1549
0.21686
0.24632
0.25648
0.26562
0.27984
0.25038
0.12443
-0.070594
-0.34485
-0.60792
-0.80599
-0.9228
-0.94109
-0.91569
-0.8324
-0.71356
-0.54799
-0.36618
-0.13662
0.054342
0.36414
0.39259
0.31133
0.14271
-0.014728
-0.0096496
-0.014728
-0.058405
-0.065515
-0.018791
0.017776
0.082783
0.15693
0.043169
-0.1417
-0.3997
-0.54495
-0.56323
-0.52565
-0.48908
-0.43931
-0.3997
-0.33469
-0.27984
-0.23311
-0.21991
-0.22803
-0.24632
-0.22905
-0.20264
-0.14373
-0.076689
-0.01676
0.015744
0.0096496
-0.018791
-0.036059
-0.03098
-0.015744
0.0015236
-0.010665
-0.025901
-0.040122
-0.040122
-0.046216
-0.044185
-0.041138
-0.026917
0.0025394
0.035043
0.063484
0.07161
0.047232
0.014728
-0.027933
-0.13052
-0.22296
-0.32453
-0.36821
-0.3804
-0.32047
-0.2839
-0.2067
-0.15592
-0.095988
-0.021838
0.087862
0.22702
0.55714
0.79279
1
0.88827
0.60386
0.29304
0.065515
-0.0025394
0.07872
0.28288
0.51752
0.5805
0.41595
0.049264
-0.32656
-0.64551
-0.87303
-0.98172
-0.9614
-0.8385
-0.6648
-0.47588
-0.26765
-0.089893
0.067547
0.16404
0.20366
0.14474
0.091925
0.0055866
-0.03098
-0.059421
-0.11122
-0.13052
-0.11224
-0.07161
-0.02387
0.03098
0.073641
0.1163
0.15795
0.20061
0.2321
0.25343
0.26257
0.26359
0.28288
0.29812
0.32047
0.32555
0.32758
0.32758
0.32859
0.31945
0.28999
0.24124
0.15795
0.034027
-0.12748
-0.28085
-0.3997
-0.50432
-0.55003
-0.60183
-0.57339
-0.47486
-0.33773
-0.17725
-0.069578
0.020823
0.10615
0.23718
0.33977
0.37532
0.33773
0.26054
0.20772
0.15896
0.084815
0.0035551
-0.055358
-0.081767
0.018791
0.13357
0.4129
0.41087
0.3743
0.22092
0.13662
0.083799
-0.066531
-0.23007
-0.31336
-0.27781
-0.18233
-0.080752
-0.076689
-0.15998
-0.30625
-0.45658
-0.57643
-0.66582
-0.7095
-0.69426
-0.61199
-0.47588
-0.31539
-0.161
-0.044185
0.040122
0.10107
0.1356
0.14678
0.12748
0.077704
0.024886
0.0055866
0.044185
0.12341
0.20772
0.26765
0.29711
0.30117
0.29203
0.27171
0.22092
0.14474
0.05739
-0.022854
-0.11935
-0.19756
-0.24835
-0.32656
-0.41188
-0.35907
-0.2839
-0.14474
-0.066531
-0.043169
0.10208
0.28695
0.40071
0.38547
0.28999
0.17318
0.060437
-0.062468
-0.19553
-0.26155
-0.21788
-0.060437
0.15389
0.38446
0.61199
0.77958
0.98578
0.83545
0.50635
0.080752
-0.23108
-0.38243
-0.52057
-0.62925
-0.68918
-0.69121
-0.66379
-0.60488
-0.51447
-0.42509
-0.39665
-0.41798
-0.44134
-0.41696
-0.355
-0.28796
-0.21991
-0.14373
-0.063484
0.0035551
0.05739
0.095988
0.11732
0.12849
0.12951
0.12544
0.11529
0.098019
0.086846
0.079736
0.073641
0.069578
0.069578
0.045201
0.02387
-0.015744
-0.053327
-0.0645
-0.020823
0.075673
0.19655
0.30828
0.37329
0.37836
0.31945
0.21889
0.11529
0.0066023
-0.056374
-0.13662
-0.27882
-0.4454
-0.54901
-0.57034
-0.5094
-0.3936
-0.29406
-0.1417
0.031996
0.22702
0.36313
0.41188
0.37024
0.23616
0.1163
0.0015236
-0.091925
-0.15389
-0.18233
-0.16506
-0.080752
0.036059
0.27476
0.32351
0.29914
0.13255
-0.062468
-0.16404
-0.25241
-0.32656
-0.3936
-0.40884
-0.37938
-0.27679
-0.15084
-0.012697
0.077704
0.13357
0.16303
0.20874
0.23718
0.33773
0.31234
0.20569
-0.043169
-0.28492
-0.45455
-0.55612
-0.55917
-0.45048
-0.29914
-0.14068
-0.055358
-0.051295
-0.067547
-0.15084
-0.26562
-0.38751
-0.45759
-0.44642
-0.3997
-0.34078
-0.28898
-0.24835
-0.19756
-0.1417
-0.087862
-0.041138
-0.0086338
0.0035551
0.015744
-0.0015236
-0.027933
-0.043169
-0.051295
-0.048248
-0.031996
-0.021838
-0.010665
0.014728
0.054342
0.095988
0.095988
0.19248
0.27273
0.47892
0.62519
0.70747
0.6709
0.46775
0.26155
0.10411
-0.021838
-0.044185
-0.22296
-0.3743
-0.5419
-0.65871
-0.72575
-0.76943
-0.77958
-0.73794
-0.66379
-0.58964
-0.48095
-0.3743
-0.31844
-0.28593
-0.28796
-0.27171
-0.2453
-0.25444
-0.2514
-0.2453
-0.19655
-0.10411
-0.02387
0.041138
0.074657
0.099035
0.10818
0.10818
0.090909
0.07161
0.043169
0.01676
-0.011681
-0.025901
-0.035043
-0.044185
-0.068563
-0.13459
-0.21483
-0.31844
-0.41696
-0.48197
-0.45556
-0.39665
-0.2646
-0.15185
-0.050279
0.074657
0.20975
0.38446
0.56628
0.86998
0.85678
0.85576
0.62621
0.37735
0.14881
-0.10716
-0.26562
-0.33062
-0.29914
-0.31133
-0.36618
-0.46775
-0.57136
-0.61605
-0.59472
-0.53276
-0.43626
-0.33367
-0.20467
-0.076689
0.031996
0.1224
0.16404
0.2128
0.23413
0.21381
0.15287
0.074657
0.024886
-0.0096496
-0.017776
-0.026917
-0.040122
-0.056374
-0.070594
-0.07872
-0.063484
0.0025394
0.082783
0.16303
0.21483
0.24429
0.26866
0.27171
0.2514
0.21381
0.15084
0.063484
-0.058405
-0.18233
-0.27171
-0.38446
-0.47283
-0.56018
-0.62621
-0.5744
-0.49721
-0.37735
-0.2839
-0.2128
-0.14271
-0.025901
0.15896
0.226
0.24124
0.10615
-0.054342
-0.17522
-0.24937
-0.29711
-0.32555
-0.31945
-0.24835
-0.10513
0.17522
0.23108
0.22092
0.054342
-0.17318
-0.29507
-0.38141
-0.39665
-0.37227
-0.3357
-0.30117
-0.20569
-0.075673
0.066531
0.17725
0.22296
0.25648
0.25546
0.25851
0.19248
0.037075
-0.18029
-0.38751
-0.54698
-0.6384
-0.68918
-0.73895
-0.77044
-0.78568
-0.77857
-0.742
-0.6709
-0.59066
-0.55714
-0.57339
-0.6709
-0.72981
-0.73591
-0.6841
-0.60386
-0.52869
-0.44134
-0.32859
-0.19147
-0.010665
0.226
0.46877
0.71965
0.6191
0.54698
0.42814
0.33875
0.34586
0.27476
0.23616
0.26968
0.34383
0.42001
0.4647
0.45759
0.37532
0.2707
0.11833
-0.02387
-0.16201
-0.26155
-0.31336
-0.34281
-0.38446
-0.43931
-0.51346
-0.56729
-0.60284
-0.56729
-0.5033
-0.41696
-0.33875
-0.24429
-0.13662
-0.052311
0.0015236
0.013713
0.022854
0.033012
0.044185
0.03809
0.040122
0.047232
0.070594
0.087862
0.098019
0.098019
0.08583
0.076689
0.075673
0.076689
0.076689
0.07872
0.072626
0.066531
0.051295
0.039106
0.024886
0.0086338
-0.0025394
0.02387
0.08583
0.15389
0.21889
0.25648
0.28187
0.29812
0.31945
0.33266
0.31336
0.23311
0.13662
-0.019807
-0.30015
-0.49518
-0.71051
-0.70645
-0.613
-0.50432
-0.30015
-0.070594
0.10513
0.2514
0.29507
0.226
0.05739
-0.1549
-0.25952
-0.24327
-0.17826
-0.11224
-0.053327
0.060437
0.25749
0.46673
0.68207
0.67191
0.54901
0.34688
0.13865
0.02387
-0.029964
-0.03098
-0.01676
0.011681
0.050279
0.090909
0.13459
0.15795
0.13154
0.063484
-0.0066023
-0.03098
0.00050787
0.065515
0.069578
-0.052311
-0.27781
-0.49416
-0.6191
-0.63738
-0.59167
-0.4515
-0.26562
0.029964
0.18131
0.35196
0.32148
0.12443
-0.086846
-0.24429
-0.31945
-0.32656
-0.30015
-0.25444
-0.1417
-0.058405
0.10615
-0.012697
-0.15185
-0.29812
-0.36414
-0.3611
-0.40274
-0.48299
-0.56425
-0.59878
-0.5805
-0.52463
-0.44642
-0.39157
-0.34688
-0.34383
-0.355
-0.36719
-0.37938
-0.36516
-0.31234
-0.23616
-0.11732
0.022854
0.16709
0.35399
0.49518
0.57745
0.75114
0.56729
0.37633
0.13357
-0.062468
-0.13459
-0.25241
-0.39665
-0.46978
-0.44337
-0.3418
-0.21991
-0.13865
-0.18334
-0.26866
-0.37633
-0.40376
-0.39157
-0.37938
-0.34485
-0.29711
-0.24429
-0.19858
-0.1417
-0.07872
-0.0076181
0.060437
0.12544
0.161
0.1935
0.21889
0.23819
0.25648
0.24733
0.226
0.21585
0.21889
0.22702
0.22194
0.20163
0.17623
0.19756
0.25648
0.34281
0.41595
0.43525
0.40274
0.34789
0.3032
0.30117
0.30828
0.28085
0.17725
0.0015236
-0.15693
-0.37227
-0.58659
-0.80295
-0.90046
-0.84358
-0.6323
-0.41188
-0.25241
-0.18233
-0.15795
-0.067547
0.0076181
0.028949
-0.07161
-0.19147
-0.25241
-0.21889
-0.14373
-0.05739
0.058405
0.20772
0.4129
0.58354
0.81209
0.72169
0.52971
0.23108
-0.017776
-0.16303
-0.28288
-0.38547
-0.4454
-0.47181
-0.46877
-0.44845
-0.41798
-0.38446
-0.34485
-0.31336
-0.2707
-0.23921
-0.21686
-0.19959
-0.17522
-0.13357
-0.073641
-0.0086338
0.034027
0.050279
0.10107
0.18029
0.31539
0.4454
0.42204
0.30523
0.063484
-0.11529
-0.24124
-0.32555
-0.37836
-0.39055
-0.36821
-0.31844
-0.34383
-0.37329
-0.41899
-0.4515
-0.44033
-0.39055
-0.32859
-0.26359
-0.2128
-0.14474
-0.10107
-0.0645
-0.056374
-0.033012
0.0035551
0.047232
0.073641
0.075673
0.053327
0.0096496
-0.03098
-0.062468
-0.051295
-0.033012
0.0025394
0.040122
0.076689
0.1031
0.1224
0.13154
0.11021
0.063484
-0.089893
-0.31133
-0.51041
-0.613
-0.63535
-0.54698
-0.4454
-0.30828
-0.20467
-0.12849
-0.031996
0.12443
0.19858
0.14982
-0.018791
-0.14271
-0.20366
-0.21585
-0.21178
-0.17826
-0.07161
0.066531
0.24835
0.40681
0.42509
0.31234
0.14474
-0.039106
-0.11833
-0.13154
-0.11326
-0.073641
-0.025901
0.01676
0.056374
0.097004
0.1417
0.19045
0.21077
0.19045
0.099035
-0.044185
-0.21077
-0.35602
-0.44642
-0.48095
-0.47689
-0.42814
-0.39665
-0.35805
-0.29101
-0.22092
-0.18029
-0.17826
-0.19959
-0.17115
-0.07872
0.065515
0.22803
0.45353
0.43626
0.35703
0.21381
0.1417
0.072626
-0.011681
-0.058405
-0.035043
0.084815
0.23311
0.21585
0.14881
-0.011681
-0.13357
-0.20264
-0.27476
-0.30726
-0.30726
-0.22296
-0.065515
0.13865
0.36313
0.52362
0.64449
0.56221
0.36313
0.049264
-0.23108
-0.49518
-0.742
-0.92585
-1
-0.96242
-0.8324
-0.65262
-0.45861
-0.28999
-0.13763
0.021838
0.16201
0.28492
0.40681
0.32961
0.21483
0.062468
-0.036059
-0.090909
-0.15287
-0.17522
-0.11529
0.012697
0.20061
0.34078
0.45759
0.4454
0.32758
0.15389
-0.015744
-0.13459
-0.20366
-0.23514
-0.25952
-0.29711
-0.37125
-0.43626
-0.46369
-0.43017
-0.3743
-0.32047
-0.32859
-0.37532
-0.4454
-0.48908
-0.50025
-0.48807
-0.46572
-0.41696
-0.31336
-0.14576
0.070594
0.33773
0.65262
0.75216
0.73286
0.63433
0.39665
0.24022
0.056374
-0.091925
-0.15287
-0.12748
-0.08583
-0.022854
0.025901
0.067547
0.07872
0.068563
0.068563
0.092941
0.11935
0.1356
0.14474
0.15287
0.17318
0.20061
0.23007
0.25343
0.24733
0.23311
0.23921
0.30218
0.42306
0.56221
0.6384
0.60488
0.46166
0.2707
0.1031
-0.01676
-0.099035
-0.15896
-0.19451
-0.20467
-0.20975
-0.23413
-0.28187
-0.27882
-0.33062
-0.3611
-0.46775
-0.55307
-0.5744
-0.45962
-0.2321
0.056374
0.32961
0.42001
0.38954
0.28492
0.1224
-0.0076181
-0.11427
-0.15896
-0.15084
-0.13865
-0.1356
-0.15084
-0.18537
-0.20163
-0.2067
-0.16811
-0.10005
-0.00050787
0.12037
0.23413
0.31336
0.35907
0.37024
0.29203
0.13763
-0.047232
-0.17623
-0.28085
-0.36618
-0.43321
-0.44439
-0.3743
-0.15693
-0.014728
0.1163
0.062468
-0.077704
-0.23514
-0.32047
-0.31336
-0.26359
-0.18131
-0.07161
0.076689
0.18029
0.21991
0.17318
0.084815
0.00050787
-0.070594
-0.11326
-0.14779
-0.16912
-0.17522
-0.16404
-0.12951
-0.083799
-0.021838
0.033012
0.072626
0.089893
0.089893
0.090909
0.090909
0.10615
0.1356
0.15592
0.1549
0.095988
-0.034027
-0.19553
-0.33977
-0.48299
-0.58354
-0.68614
-0.66684
-0.58354
-0.3997
-0.226
-0.11224
-0.041138
-0.010665
0.065515
0.19045
0.3357
0.37329
0.31945
0.1742
0.13255
0.12341
0.1224
0.13763
0.14779
0.14373
0.1417
0.16404
0.094972
0.059421
0.0076181
-0.081767
-0.20975
-0.46572
-0.73794
-0.90249
-0.93906
-0.88522
-0.79177
-0.71762
-0.62925
-0.54596
-0.4454
-0.32047
-0.19858
-0.079736
0.033012
0.15693
0.26866
0.26155
0.13357
-0.013713
-0.10818
-0.14576
-0.16303
-0.19756
-0.16506
-0.094972
-0.011681
0.056374
0.091925
0.077704
-0.014728
-0.14982
-0.28492
-0.37735
-0.45962
-0.49822
-0.4901
-0.4322
-0.32047
-0.18537
-0.033012
0.10005
0.21077
0.3032
0.37329
0.4647
0.51651
0.39766
0.17725
-0.070594
-0.27476
-0.33367
-0.35907
-0.38243
-0.39462
-0.38547
-0.34586
-0.29101
-0.25343
-0.25444
-0.27882
-0.28288
-0.2128
-0.061453
0.12138
0.28898
0.38954
0.40173
0.35805
0.27273
0.16811
0.05739
-0.049264
-0.14068
-0.20467
-0.24124
-0.25343
-0.24429
-0.22194
-0.1874
-0.16811
-0.18029
-0.23616
-0.30422
-0.39665
-0.44642
-0.46775
-0.46267
-0.42103
-0.3418
-0.21381
-0.046216
0.16404
0.35094
0.53174
0.76943
0.73286
0.68309
0.5033
0.30422
0.13763
-0.033012
-0.12341
-0.13459
-0.15998
-0.21077
-0.29812
-0.355
-0.40579
-0.4515
-0.49924
-0.53784
-0.52869
-0.44134
-0.27984
-0.11529
0.0015236
0.073641
0.12138
0.16404
0.15998
0.060437
-0.068563
-0.18944
-0.23514
-0.23108
-0.19045
-0.14474
-0.099035
-0.053327
-0.0066023
0.031996
0.055358
0.055358
0.053327
0.058405
0.069578
0.095988
0.12646
0.14271
0.1163
0.051295
-0.0015236
-0.046216
-0.019807
-0.019807
-0.024886
-0.084815
-0.17522
-0.27374
-0.3611
-0.39766
-0.37227
-0.31031
-0.098019
-0.010665
0.10005
-0.024886
-0.25648
-0.50533
-0.66988
-0.65566
-0.51143
-0.32148
-0.14678
0.0035551
0.095988
0.10818
0.041138
-0.065515
-0.19147
-0.26968
-0.29609
-0.25749
-0.16709
-0.068563
0.021838
0.075673
0.088878
0.073641
0.03098
0.021838
0.046216
0.13154
0.25241
0.37024
0.44439
0.45658
0.41595
0.32453
0.22702
0.12646
0.054342
0.013713
-0.03809
-0.10716
-0.18436
-0.27577
-0.24733
-0.34078
-0.45048
-0.56628
-0.58659
-0.49619
-0.31742
-0.13154
0.041138
0.2128
0.28085
0.24733
0.13459
-0.052311
-0.24327
-0.33164
-0.30625
-0.14373
0.075673
0.25952
0.36008
0.33672
0.22499
0.062468
-0.10513
-0.24429
-0.34485
-0.36922
-0.36821
-0.34078
-0.30117
-0.24733
-0.25749
-0.29304
-0.37227
-0.42204
-0.40884
-0.36516
-0.30625
-0.25546
-0.20061
-0.11224
0.010665
0.18233
0.33469
0.49416
0.58659
0.6323
0.613
0.53885
0.38344
0.23921
0.10818
0.043169
0.0066023
0.0086338
-0.041138
-0.17826
-0.33469
-0.51651
-0.63738
-0.69325
-0.74099
-0.74911
-0.6709
-0.51955
-0.38243
-0.2707
-0.20061
-0.12951
-0.073641
-0.041138
-0.03809
-0.045201
-0.036059
-0.0066023
0.066531
0.17826
0.25546
0.26054
0.20264
0.12443
0.060437
0.017776
-0.0086338
-0.012697
0.0096496
0.052311
0.1163
0.17014
0.20772
0.18436
0.11021
-0.010665
-0.15998
-0.25444
-0.27273
-0.30726
-0.35399
-0.42915
-0.44744
-0.3418
-0.13154
0.10208
0.29812
0.44947
0.50533
0.43321
0.30015
0.12951
-0.01676
-0.070594
-0.18233
-0.25038
-0.35602
-0.46978
-0.55307
-0.58456
-0.56425
-0.50838
-0.4454
-0.37735
-0.37125
-0.40477
-0.45455
-0.44236
-0.32656
-0.1549
0.0035551
0.12748
0.12951
0.10107
0.022854
-0.051295
-0.068563
-0.039106
0.037075
0.13459
0.20366
0.23616
0.19959
0.13052
0.0035551
-0.12951
-0.22499
-0.25241
-0.22092
-0.15998
-0.087862
-0.019807
0.042153
0.097004
0.14678
0.17115
0.19248
0.20569
0.21889
0.21788
0.17217
0.1031
-0.02387
-0.17522
-0.31133
-0.46064
-0.48299
-0.42306
-0.31945
-0.21686
-0.13865
-0.07161
-0.00050787
0.061453
0.13357
0.21178
0.37633
0.355
0.39868
0.28085
0.1549
0.02387
-0.063484
-0.12037
-0.1417
-0.15592
-0.1417
-0.15084
-0.17826
-0.2321
-0.28999
-0.35703
-0.40884
-0.44845
-0.45048
-0.3997
-0.30422
-0.22397
-0.16912
-0.13865
-0.10615
-0.056374
-0.025901
-0.0086338
-0.03809
-0.11833
-0.1874
-0.21381
-0.14881
-0.031996
0.094972
0.17217
0.18842
0.12646
0.021838
-0.07161
-0.12443
-0.10513
-0.12544
-0.13966
-0.2321
-0.29203
-0.31437
-0.21178
-0.059421
0.082783
0.17623
0.21889
0.23616
0.22905
0.23718
0.21788
0.11427
-0.03098
-0.17217
-0.25952
-0.22499
-0.1417
-0.029964
0.081767
0.16912
0.18944
0.14271
0.036059
-0.081767
-0.16912
-0.20772
-0.26359
-0.32148
-0.3997
-0.42306
-0.35196
-0.24124
-0.13154
-0.094972
-0.13662
-0.20264
-0.24632
-0.24022
-0.14373
-0.036059
0.10818
0.15592
0.1031
-0.027933
-0.17725
-0.22296
-0.1874
-0.13966
-0.051295
-0.03098
0.0015236
0.00050787
-0.05739
-0.18944
-0.31539
-0.44033
-0.4708
-0.52362
-0.51447
-0.4647
-0.32351
-0.1742
-0.061453
0.021838
0.083799
0.12849
0.14271
0.16506
0.17217
0.19553
0.18233
0.13154
0.070594
0.034027
0.066531
0.1549
0.28593
0.37227
0.43321
0.43423
0.38852
0.3357
0.26562
0.19451
0.12748
0.073641
0.045201
0.020823
0.0025394
-0.017776
-0.044185
-0.060437
-0.092941
-0.15896
-0.21483
-0.22397
-0.21889
-0.20366
-0.21381
-0.17623
-0.081767
0.0645
0.21381
0.30625
0.25038
0.14576
0.034027
-0.029964
-0.060437
-0.13357
-0.17623
-0.16506
-0.12951
-0.089893
-0.051295
-0.033012
-0.010665
0.0015236
0.077704
0.17725
0.2646
0.31336
0.35703
0.39563
0.42103
0.42407
0.29812
0.10005
-0.15185
-0.34688
-0.40071
-0.41392
-0.48197
-0.54799
-0.58558
-0.57847
-0.56425
-0.53885
-0.48197
-0.40274
-0.30117
-0.18436
-0.035043
0.10615
0.21788
0.30117
0.26663
0.17928
-0.013713
-0.17014
-0.30625
-0.36211
-0.38547
-0.3611
-0.27273
-0.16506
-0.069578
0.020823
0.089893
0.095988
0.12849
0.090909
0.083799
0.079736
0.056374
0.063484
0.076689
0.084815
0.10005
0.0645
0.0025394
-0.093956
-0.18233
-0.24022
-0.26866
-0.26054
-0.226
-0.16303
-0.13662
-0.10818
-0.15693
-0.17725
-0.18842
-0.16201
-0.10919
-0.046216
0.025901
0.098019
0.11224
0.086846
0.00050787
-0.092941
-0.14779
-0.16303
-0.12341
-0.080752
-0.020823
0.022854
0.066531
0.12544
0.20163
0.28085
0.34281
0.38344
0.39462
0.40477
0.41595
0.41798
0.42407
0.41188
0.37532
0.29914
0.18029
0.033012
-0.089893
-0.17115
-0.21686
-0.19858
-0.20163
-0.21077
-0.21788
-0.24937
-0.27679
-0.30218
-0.30929
-0.27577
-0.18029
-0.00050787
0.12544
0.15084
0.10716
0.014728
-0.024886
-0.087862
-0.14779
-0.20163
-0.18944
-0.13459
-0.053327
0.0076181
0.03098
-0.014728
-0.065515
-0.095988
-0.093956
-0.061453
-0.049264
-0.013713
-0.031996
-0.05739
-0.10818
-0.18029
-0.30625
-0.3997
-0.46369
-0.4261
-0.41188
-0.4322
-0.44337
-0.4322
-0.42814
-0.4261
-0.43321
-0.40376
-0.33469
-0.26054
-0.19553
-0.14678
-0.11427
-0.082783
-0.05739
-0.028949
0.01676
0.056374
0.088878
0.11326
0.14576
0.1874
0.23108
0.26054
0.27476
0.26562
0.23819
0.19248
0.14678
0.10615
0.070594
0.035043
0.012697
0.025901
0.075673
0.16506
0.2453
0.29914
0.30218
0.28898
0.26968
0.18131
0.055358
-0.14576
-0.34891
-0.50533
-0.55307
-0.56018
-0.53174
-0.57745
-0.54901
-0.50432
-0.43829
-0.3997
-0.36821
-0.31437
-0.226
-0.14678
-0.075673
0.0035551
0.095988
0.19655
0.25952
0.2067
0.074657
-0.095988
-0.22905
-0.26866
-0.26562
-0.2453
-0.26359
-0.27476
-0.26968
-0.24632
-0.2128
-0.19248
-0.1742
-0.15693
-0.1356
-0.067547
0.025901
0.161
0.2707
0.30523
0.29609
0.26359
0.20264
0.12544
0.00050787
-0.11732
-0.2514
-0.35297
-0.40274
-0.34789
-0.26765
-0.19248
-0.20467
-0.25749
-0.27984
-0.25952
-0.19655
-0.11427
0.0066023
0.099035
0.2128
0.3164
0.32656
0.31133
0.18029
0.0645
-0.053327
-0.12341
-0.17826
-0.19248
-0.17826
-0.14678
-0.11529
-0.11122
-0.11427
-0.19248
-0.24225
-0.30625
-0.25241
-0.08583
0.092941
0.25546
0.21788
0.16912
0.059421
-0.010665
-0.12037
-0.23819
-0.3418
-0.3936
-0.39259
-0.38446
-0.355
-0.34485
-0.35094
-0.32047
-0.27781
-0.20264
-0.12341
-0.11122
-0.14982
-0.27882
-0.40376
-0.4454
-0.40376
-0.3032
-0.18537
-0.08583
-0.0086338
0.043169
0.07161
0.10919
0.17928
0.31844
0.41696
0.49924
0.42204
0.3225
0.19756
0.14271
0.090909
-0.027933
-0.20467
-0.36211
-0.42509
-0.38243
-0.2839
-0.20061
-0.14881
-0.10716
-0.1417
-0.15389
-0.20874
-0.23413
-0.21585
-0.17725
-0.12544
-0.10005
-0.10818
-0.13966
-0.18131
-0.20061
-0.19756
-0.17623
-0.15896
-0.13966
-0.080752
0.010665
0.11732
0.21483
0.26155
0.24632
0.18334
0.081767
-0.017776
-0.099035
-0.11021
-0.092941
-0.063484
-0.084815
-0.082783
-0.13357
-0.15896
-0.24022
-0.32453
-0.36008
-0.32555
-0.23819
-0.13966
-0.046216
0.0066023
0.086846
0.14982
0.14068
0.055358
-0.068563
-0.19045
-0.21077
-0.20467
-0.099035
0.10005
0.32758
0.52158
0.64754
0.50025
0.29507
0.034027
-0.13255
-0.21178
-0.30117
-0.38243
-0.42915
-0.43829
-0.39055
-0.33062
-0.2646
-0.20772
-0.15287
-0.15185
-0.13662
-0.13763
-0.11833
-0.086846
-0.080752
-0.080752
-0.035043
0.03098
0.084815
0.1031
0.082783
0.037075
-0.015744
-0.03809
-0.026917
0.025901
0.095988
0.15998
0.1935
0.19553
0.18436
0.17928
0.1742
0.16303
0.15896
0.14576
0.13357
0.097004
0.010665
-0.08583
-0.18233
-0.24429
-0.27374
-0.30117
-0.3164
-0.33062
-0.34281
-0.33469
-0.35297
-0.35399
-0.31945
-0.25952
-0.14271
-0.0076181
0.11833
0.16201
0.13763
0.053327
-0.025901
-0.07872
-0.16811
-0.23616
-0.26765
-0.24429
-0.15389
0.0066023
0.12138
0.18131
0.16811
0.11326
0.054342
-0.0066023
-0.077704
-0.072626
-0.018791
0.049264
0.14373
0.15287
0.18131
-0.0096496
-0.19045
-0.41188
-0.50533
-0.50025
-0.49619
-0.46572
-0.41392
-0.36821
-0.28898
-0.20467
-0.11326
-0.050279
-0.0055866
0.040122
0.1224
0.21686
0.29812
0.34383
0.35094
0.32859
0.27679
0.20163
0.11935
0.012697
-0.089893
-0.18944
-0.27679
-0.33875
-0.37735
-0.41188
-0.39563
-0.44236
-0.42103
-0.44236
-0.38243
-0.32047
-0.2707
-0.26663
-0.28898
-0.28999
-0.24937
-0.17725
-0.093956
-0.0086338
0.07161
0.11529
0.099035
0.098019
0.060437
0.15287
0.22499
0.27984
0.28492
0.25546
0.28593
0.32758
0.44337
0.27882
0.10615
-0.12951
-0.27781
-0.32758
-0.41696
-0.45861
-0.47892
-0.45658
-0.40681
-0.33875
-0.27273
-0.22296
-0.19248
-0.13662
-0.0645
0.03098
0.10005
0.1163
0.081767
0.024886
-0.036059
-0.074657
-0.095988
-0.084815
-0.048248
-0.0045708
0.034027
0.081767
0.10005
0.1163
0.12646
0.14982
0.19553
0.23921
0.25952
0.24835
0.21788
0.16506
0.1031
0.05739
0.050279
0.024886
-0.03098
-0.20975
-0.35094
-0.47689
-0.52158
-0.5551
-0.57948
-0.57847
-0.52971
-0.44236
-0.31234
-0.20163
-0.074657
0.029964
0.047232
0.043169
-0.069578
-0.1417
-0.19858
-0.21077
-0.16303
-0.076689
0.029964
0.1742
0.23616
0.11732
-0.093956
-0.3032
-0.44642
-0.50229
-0.51752
-0.48299
-0.40782
-0.25851
-0.095988
0.07161
0.21077
0.30218
0.37532
0.35297
0.29711
0.083799
-0.076689
-0.18436
-0.17217
-0.087862
0.041138
0.16404
0.25241
0.26765
0.21788
0.11732
-0.0066023
-0.13255
-0.22499
-0.25241
-0.23413
-0.18131
-0.14881
-0.14881
-0.17725
-0.20264
-0.22905
-0.21483
-0.2128
-0.19756
-0.16404
-0.22803
-0.2453
-0.2839
-0.25851
-0.20874
-0.17217
-0.13154
-0.072626
-0.021838
0.040122
0.10716
0.18334
0.27273
0.36008
0.39766
0.40376
0.36922
0.32453
0.28999
0.25749
0.27781
0.32656
0.43525
0.45861
0.28085
0.07161
-0.12951
-0.1874
-0.11021
-0.074657
-0.093956
-0.1417
-0.18944
-0.22194
-0.24225
-0.26562
-0.31945
-0.34688
-0.37532
-0.36516
-0.28796
-0.2067
-0.13154
-0.1031
-0.082783
-0.079736
-0.077704
-0.090909
-0.11427
-0.12544
-0.14576
-0.15287
-0.17318
-0.20772
-0.22397
-0.22499
-0.20467
-0.16404
-0.12849
-0.088878
-0.045201
0.0015236
0.042153
0.073641
0.087862
0.091925
0.075673
0.03098
-0.03098
-0.095988
-0.15998
-0.17826
-0.17217
-0.10513
-0.044185
-0.046216
-0.10615
-0.161
-0.17725
-0.13154
-0.053327
0.079736
0.20975
0.28085
0.30117
0.20874
0.054342
-0.099035
-0.25038
-0.35805
-0.39766
-0.3611
-0.30523
-0.17115
-0.1163
-0.052311
-0.080752
-0.1224
-0.17928
-0.1935
-0.18436
-0.17826
-0.17725
-0.1549
-0.11427
-0.051295
-0.015744
0.014728
0.041138
0.088878
0.16811
0.23921
0.29609
0.32047
0.3164
0.29203
0.24835
0.20366
0.15185
0.080752
0.034027
-0.013713
-0.048248
-0.059421
-0.082783
-0.093956
-0.11021
-0.14271
-0.16404
-0.17826
-0.16811
-0.17115
-0.18842
-0.28492
-0.39868
-0.48299
-0.49314
-0.40274
-0.26866
-0.13357
-0.027933
0.068563
0.12544
0.18131
0.19248
0.22397
0.20772
0.20772
0.19451
0.18537
0.20061
0.2128
0.23819
0.24225
0.28085
0.23413
0.21178
0.060437
-0.11326
-0.29609
-0.39665
-0.42001
-0.42103
-0.42712
-0.41188
-0.32656
-0.14779
0.095988
0.31844
0.46064
0.48603
0.38852
0.18436
-0.062468
-0.28288
-0.43931
-0.52463
-0.5551
-0.53987
-0.48705
-0.4129
-0.33266
-0.28288
-0.26054
-0.28492
-0.28288
-0.31133
-0.33164
-0.40173
-0.42001
-0.38852
-0.33164
-0.28288
-0.29812
-0.31031
-0.28999
-0.18842
-0.0055866
0.20264
0.33773
0.38446
0.36414
0.26054
0.16303
0.018791
-0.068563
-0.1356
-0.16709
-0.19045
-0.17115
-0.080752
0.045201
0.16912
0.031996
-0.14982
-0.43321
-0.52362
-0.48095
-0.38141
-0.24124
-0.13255
-0.051295
0.026917
0.11529
0.22702
0.29101
0.32351
0.30117
0.28187
0.26257
0.21483
0.13865
0.056374
-0.0096496
-0.020823
-0.0076181
0.0076181
0.01676
0.021838
0.026917
0.042153
0.050279
0.069578
0.093956
0.12748
0.14678
0.13662
0.11935
0.046216
-0.040122
-0.20467
-0.3804
-0.49314
-0.53377
-0.52768
-0.49721
-0.49416
-0.43118
-0.35602
-0.25546
-0.18131
-0.12138
-0.0076181
0.11122
0.17826
0.17522
0.10107
0.029964
-0.042153
-0.11122
-0.17115
-0.20366
-0.21178
-0.19553
-0.14576
-0.039106
0.13763
0.30726
0.44845
0.51041
0.51244
0.49416
0.45962
0.38243
0.29101
0.16709
0.045201
-0.072626
-0.16506
-0.2321
-0.25749
-0.28288
-0.29406
-0.34078
-0.40376
-0.45455
-0.50127
-0.48908
-0.45962
-0.33773
-0.1874
-0.03809
0.083799
0.15287
0.21889
0.30523
0.38751
0.44134
0.39766
0.25648
0.095988
-0.051295
-0.15287
-0.18944
-0.14373
-0.062468
0.13459
0.31437
0.3804
0.30523
0.083799
-0.12037
-0.18436
-0.15795
-0.11021
-0.10919
-0.16709
-0.22702
-0.25749
-0.2453
-0.2453
-0.25749
-0.31742
-0.38649
-0.44236
-0.41696
-0.32555
-0.2453
-0.21381
-0.23819
-0.24632
-0.22092
-0.16607
-0.13966
-0.12748
-0.12748
-0.12646
-0.11021
-0.11529
-0.13966
-0.18334
-0.21991
-0.24124
-0.25648
-0.27171
-0.27984
-0.25648
-0.18639
-0.089893
0.013713
0.092941
0.14678
0.18537
0.21788
0.2453
0.2707
0.29101
0.30929
0.30828
0.28085
0.21077
0.082783
-0.073641
-0.20163
-0.27984
-0.2646
-0.19147
-0.12544
-0.094972
-0.24225
-0.44947
-0.6516
-0.71965
-0.67191
-0.52057
-0.34688
-0.12341
0.10208
0.23921
0.26866
0.14373
-0.043169
-0.17725
-0.24225
-0.24225
-0.23108
-0.21686
-0.14779
0.0076181
0.18944
0.34891
0.36618
0.24429
0.07161
-0.083799
-0.13966
-0.068563
0.00050787
0.058405
0.048248
-0.0055866
-0.03098
-0.040122
-0.022854
-0.0015236
-0.0086338
-0.014728
-0.018791
-0.03809
-0.084815
-0.13052
-0.19756
-0.24327
-0.26663
-0.2707
-0.27882
-0.25343
-0.25952
-0.27679
-0.28796
-0.28187
-0.22499
-0.14271
-0.10208
-0.074657
-0.037075
0.039106
0.1224
0.16811
0.19248
0.19451
0.16912
0.14678
0.20569
0.37735
0.60691
0.76638
0.65973
0.36211
0.026917
-0.18944
-0.2321
-0.20264
-0.19553
-0.21788
-0.26257
-0.30218
-0.33977
-0.35703
-0.35602
-0.33672
-0.24937
-0.19655
-0.16607
-0.25241
-0.39055
-0.44947
-0.4322
-0.36922
-0.33875
-0.31945
-0.33773
-0.32859
-0.29406
-0.23108
-0.19756
-0.1356
-0.15693
-0.14474
-0.2067
-0.21178
-0.1742
-0.060437
0.040122
0.12748
0.22092
0.34688
0.43829
0.46064
0.36313
0.15998
-0.0645
-0.23718
-0.32656
-0.33875
-0.31844
-0.27577
-0.22499
-0.18436
-0.17014
-0.22397
-0.30015
-0.37938
-0.39259
-0.34383
-0.26663
-0.18639
-0.14068
-0.11833
-0.11833
-0.1163
-0.079736
-0.012697
0.058405
0.10208
0.11529
0.14373
0.16709
0.161
0.099035
-0.012697
-0.11122
-0.13459
-0.088878
0.0015236
0.033012
-0.00050787
-0.074657
-0.13154
-0.11326
0.0015236
0.16912
0.30625
0.40173
0.42204
0.42001
0.33773
0.226
0.050279
-0.14982
-0.30523
-0.48197
-0.63738
-0.78568
-0.86287
-0.82529
-0.67395
-0.4647
-0.2321
-0.061453
0.065515
0.12341
0.068563
-0.0645
-0.21585
-0.27273
-0.24632
-0.20264
-0.18131
-0.13763
-0.073641
0.084815
0.26054
0.3936
0.484
0.40681
0.24429
0.048248
-0.13459
-0.26054
-0.36516
-0.4454
-0.48807
-0.4515
-0.36922
-0.26663
-0.18537
-0.13154
-0.087862
-0.046216
-0.0015236
0.05739
0.15185
0.27476
0.41798
0.48502
0.48197
0.37633
0.20163
0.034027
-0.10411
-0.14576
-0.13255
-0.063484
0.0096496
0.13052
0.26257
0.37735
0.32961
0.12646
-0.16811
-0.45556
-0.58456
-0.57643
-0.48095
-0.39766
-0.34078
-0.31336
-0.2707
-0.18334
-0.076689
0.037075
0.11427
0.1935
0.29101
0.37938
0.42509
0.34789
0.20061
-0.029964
-0.1742
-0.23413
-0.21178
-0.18029
-0.17014
-0.17115
-0.12748
-0.049264
0.01676
0.031996
0.0015236
-0.083799
-0.2321
-0.3418
-0.45962
-0.43728
-0.38649
-0.30726
-0.25952
-0.25444
-0.25749
-0.26765
-0.25241
-0.31844
-0.42306
-0.5744
-0.65262
-0.58151
-0.42407
-0.24022
-0.092941
0.044185
0.17725
0.30523
0.39766
0.42204
0.3997
0.31133
0.20874
0.14982
0.14678
0.21788
0.24124
0.18639
0.097004
0.0076181
-0.019807
-0.015744
0.00050787
0.027933
0.054342
0.059421
0.066531
0.065515
-0.017776
-0.20264
-0.47384
-0.75724
-0.95023
-0.99594
-0.93804
-0.77247
-0.59675
-0.4454
-0.32859
-0.22803
-0.10615
0.042153
0.16709
0.27577
0.33367
0.29711
0.21483
0.083799
-0.015744
-0.035043
0.015744
0.092941
0.19858
0.31844
0.45658
0.49416
0.4515
0.25851
0.054342
