-0.48365
-0.34912
-0.15596
0.020669
0.11236
0.1289
0.10334
0.10184
0.14168
0.19053
0.2236
0.20556
0.13717
-0.010898
-0.19654
-0.33859
-0.413
-0.39647
-0.36039
-0.35062
-0.3897
-0.4333
-0.52424
-0.64825
-0.76776
-0.91657
-0.98422
-1
-0.92033
-0.74821
-0.49418
-0.21082
0.070274
0.28824
0.44307
0.52574
0.5528
0.52123
0.4566
0.37918
0.30252
0.21007
0.098835
0.098835
-0.02593
-0.13566
-0.21834
-0.28147
-0.33033
-0.38144
-0.43254
-0.49568
-0.54754
-0.60165
-0.66328
-0.73393
-0.75799
-0.73995
-0.6475
-0.53702
-0.3882
-0.24389
-0.086058
0.050733
0.15596
0.22961
0.25667
0.28598
0.33183
0.39045
0.44156
0.46787
0.41451
0.28448
0.11387
-0.042465
-0.15295
-0.22661
-0.29425
-0.35814
-0.41826
-0.48516
-0.54829
-0.61819
-0.68734
-0.75949
-0.82337
-0.88125
-0.95265
-0.99775
-0.99624
-0.9286
-0.81736
-0.69485
-0.58737
-0.51146
-0.49042
-0.53626
-0.60992
-0.61218
-0.49793
-0.26719
0.032694
0.29876
0.49192
0.56858
0.49493
0.36039
0.2687
0.22736
0.26118
0.2935
0.28899
0.25968
0.20406
0.12289
-0.0003758
-0.16047
-0.30628
-0.37617
-0.40023
-0.40248
-0.45434
-0.54453
-0.6242
-0.66253
-0.646
-0.61218
-0.59113
-0.58286
-0.55054
-0.47839
-0.39722
-0.33108
-0.34235
-0.39421
-0.4566
-0.47539
-0.4363
-0.39572
-0.37542
-0.3431
-0.27095
-0.16422
-0.037204
0.059
0.10861
0.089816
0.028185
-0.03044
-0.033446
0.027433
0.089064
0.13266
0.14318
0.13717
0.12664
0.11086
0.070274
0.0063886
-0.085306
-0.17475
-0.27321
-0.37542
-0.47463
-0.56182
-0.61293
-0.63247
-0.63472
-0.62495
-0.61443
-0.5994
-0.57084
-0.52123
-0.45359
-0.38068
-0.35212
-0.41451
-0.50545
-0.55054
-0.47238
-0.28974
-0.075536
0.11312
0.26419
0.36716
0.44081
0.43179
0.34536
0.24991
0.17475
0.17324
0.19729
0.19429
0.16798
0.11462
0.001879
-0.15896
-0.34386
-0.48591
-0.55505
-0.57685
-0.59188
-0.6242
-0.67456
-0.72642
-0.74295
-0.72567
-0.67756
-0.63172
-0.60316
-0.60917
-0.69485
-0.8106
-0.86321
-0.76174
-0.5513
-0.26719
-0.038707
0.16272
0.30177
0.3897
0.44382
0.4581
0.3867
0.28222
0.22886
0.24014
0.31304
0.33784
0.25742
0.11838
-0.032694
-0.18301
-0.34085
-0.5062
-0.6257
-0.6475
-0.58362
-0.51146
-0.49568
-0.52198
-0.56633
-0.60541
-0.62044
-0.6475
-0.68433
-0.70312
-0.70688
-0.67456
-0.62721
-0.57084
-0.50319
-0.45584
-0.44532
-0.53326
-0.73995
-0.91507
-0.94664
-0.81511
-0.51597
-0.21984
0.1041
0.40248
0.64224
0.78504
0.83615
0.80383
0.68132
0.52123
0.35137
0.21383
0.11011
-0.0033822
-0.13416
-0.24239
-0.32882
-0.4115
-0.49042
-0.56558
-0.6227
-0.6723
-0.71064
-0.73243
-0.72717
-0.70838
-0.68583
-0.66855
-0.65502
-0.63623
-0.62044
-0.60316
-0.59489
-0.63698
-0.75874
-0.8572
-0.83089
-0.61067
-0.25517
0.084555
0.37843
0.60015
0.80158
0.86396
0.84592
0.75648
0.63472
0.53401
0.4348
0.34611
0.28824
0.2454
0.18452
0.085306
-0.033446
-0.12589
-0.19203
-0.22736
-0.26343
-0.3153
-0.37617
-0.41225
-0.43781
-0.42428
-0.39045
-0.36039
-0.34761
-0.37317
-0.45133
-0.52574
-0.48591
-0.26569
0.078542
0.42803
0.65126
0.73393
0.70462
0.60316
0.52875
0.49192
0.49418
0.47914
0.39797
0.26494
0.12514
0.013905
-0.050733
-0.087561
-0.1304
-0.18301
-0.25066
-0.32056
-0.3897
-0.45058
-0.49944
-0.54153
-0.56182
-0.56708
-0.56182
-0.58136
-0.61593
-0.66479
-0.75498
-0.88726
-0.92259
-0.85344
-0.57309
-0.20406
0.14619
0.44983
0.5776
0.55806
0.45133
0.32056
0.24991
0.24239
0.23412
0.23788
0.23487
0.21383
0.14919
0.056746
-0.034198
-0.059752
-0.033446
-0.0063886
-0.036452
-0.14243
-0.27396
-0.39722
-0.46862
-0.50094
-0.5062
-0.50169
-0.47914
-0.43781
-0.39722
-0.35889
-0.34837
-0.37542
-0.413
-0.4348
-0.44382
-0.43254
-0.41526
-0.36941
-0.30327
-0.2484
-0.2469
-0.30703
-0.36791
-0.39947
-0.37918
-0.31905
-0.23487
-0.14694
-0.035701
0.073281
0.19429
0.32431
0.44006
0.49117
0.47012
0.44457
0.40398
0.39196
0.32732
0.19053
0.034198
-0.098083
-0.22811
-0.34912
-0.47238
-0.54002
-0.53927
-0.51973
-0.56783
-0.67681
-0.78279
-0.80834
-0.74145
-0.62646
-0.5047
-0.37993
-0.23788
-0.057497
0.088313
0.18527
0.19579
0.1552
0.092071
0.032694
-0.010147
-0.037956
-0.046223
-0.045472
-0.04472
-0.059752
-0.11011
-0.18377
-0.28147
-0.38444
-0.46937
-0.54228
-0.59339
-0.63397
-0.65953
-0.67456
-0.68132
-0.6926
-0.70988
-0.73168
-0.75047
-0.7625
-0.76776
-0.77753
-0.78955
-0.80158
-0.80458
-0.7903
-0.75197
-0.68132
-0.58286
-0.45584
-0.34235
-0.27245
-0.33183
-0.41676
-0.37242
-0.21759
0.09658
0.36565
0.50996
0.59038
0.59714
0.60165
0.60165
0.53927
0.44532
0.33033
0.21082
0.075536
-0.051484
-0.12514
-0.12289
-0.09658
-0.087561
-0.13341
-0.25968
-0.40098
-0.51898
-0.55505
-0.53326
-0.50695
-0.528
-0.61218
-0.77527
-0.92183
-0.94513
-0.82187
-0.57309
-0.3168
-0.098083
0.10184
0.27546
0.40398
0.48365
0.47764
0.35814
0.19429
0.028936
-0.080797
-0.12589
-0.1274
-0.14844
-0.20556
-0.28072
-0.34085
-0.40398
-0.46937
-0.52649
-0.53326
-0.5062
-0.47388
-0.49718
-0.59414
-0.71214
-0.82262
-0.89778
-0.86396
-0.77527
-0.60241
-0.35964
-0.073281
0.17625
0.36941
0.45209
0.44006
0.3401
0.20481
0.080045
0.049981
0.093574
0.15746
0.19579
0.18452
0.13717
0.083051
0.018414
-0.046223
-0.11913
-0.1988
-0.27997
-0.35814
-0.42653
-0.49117
-0.56107
-0.62646
-0.70613
-0.80083
-0.85569
-0.83089
-0.6926
-0.49192
-0.29425
-0.17324
-0.15821
-0.18452
-0.14919
-0.034198
0.14017
0.24991
0.25893
0.20932
0.11988
-0.022924
-0.17926
-0.34536
-0.46486
-0.51297
-0.49643
-0.45735
-0.39947
-0.32056
-0.22661
-0.091319
0.031191
0.11687
0.14168
0.12138
0.078542
0.034198
-0.018414
-0.071026
-0.13266
-0.1988
-0.27396
-0.34912
-0.42428
-0.49117
-0.54528
-0.6009
-0.65577
-0.70838
-0.74521
-0.7655
-0.77978
-0.78129
-0.78053
-0.77151
-0.75648
-0.73544
-0.71965
-0.73995
-0.82337
-0.94363
-0.99474
-0.88125
-0.60842
-0.21909
0.14318
0.47839
0.71665
0.79782
0.74746
0.60165
0.44908
0.32882
0.2251
0.13641
0.064262
-0.0071402
-0.10334
-0.21233
-0.29951
-0.33033
-0.31229
-0.28899
-0.27321
-0.32657
-0.40098
-0.49042
-0.54528
-0.56933
-0.59188
-0.6257
-0.65201
-0.64449
-0.58737
-0.52349
-0.46411
-0.44758
-0.5077
-0.63472
-0.83089
-0.98647
-0.97745
-0.86847
-0.57234
-0.26043
0.080045
0.3867
0.59714
0.67381
0.62495
0.48967
0.33634
0.2018
0.0823
-0.041714
-0.14619
-0.19579
-0.17926
-0.10861
-0.035701
-0.0033822
-0.022924
-0.10259
-0.20857
-0.33033
-0.42653
-0.49944
-0.53025
-0.54002
-0.52649
-0.50019
-0.46186
-0.43104
-0.40624
-0.40774
-0.39947
-0.40474
-0.39045
-0.37091
-0.33709
-0.31079
-0.295
-0.29651
-0.3198
-0.33784
-0.35513
-0.3183
-0.26043
-0.20105
-0.19729
-0.23563
-0.28749
-0.30477
-0.30327
-0.2469
-0.16873
-0.06802
0.045472
0.085306
0.07779
0.092071
0.11762
0.18452
0.22585
0.18527
0.13115
0.090567
0.042465
-0.031943
-0.13792
-0.24314
-0.30477
-0.35438
-0.413
-0.49944
-0.57084
-0.60992
-0.60992
-0.57535
-0.56182
-0.55881
-0.57685
-0.60466
-0.63247
-0.64976
-0.64825
-0.6242
-0.57986
-0.54228
-0.50695
-0.53175
-0.6009
-0.72266
-0.82187
-0.81135
-0.71439
-0.50319
-0.26419
-0.0063886
0.25517
0.47689
0.66028
0.70763
0.67832
0.58136
0.50094
0.44758
0.37542
0.28598
0.20406
0.10259
-0.037204
-0.18828
-0.29951
-0.29124
-0.21233
-0.12063
-0.099587
-0.11312
-0.16949
-0.2018
-0.18452
-0.10259
0.016911
0.1552
0.23938
0.29275
0.29726
0.25517
0.19278
0.1289
0.071778
0.032694
-0.019917
-0.10334
-0.21834
-0.33634
-0.4333
-0.5077
-0.56783
-0.61293
-0.63998
-0.64825
-0.65502
-0.66629
-0.68358
-0.68809
-0.65427
-0.58587
-0.49117
-0.40849
-0.35513
-0.34235
-0.36189
-0.40023
-0.41902
-0.40849
-0.32657
-0.22585
-0.1056
0.0026306
0.095829
0.17926
0.22059
0.20331
0.21082
0.2221
0.27396
0.30252
0.2484
0.14919
0.059752
-0.027433
-0.13792
-0.26719
-0.38444
-0.41375
-0.36415
-0.31905
-0.32281
-0.39421
-0.47313
-0.53025
-0.56257
-0.5979
-0.646
-0.67832
-0.67381
-0.64224
-0.61443
-0.60466
-0.55505
-0.47388
-0.28072
-0.046223
0.23262
0.44983
0.5776
0.58512
0.49342
0.3416
0.177
0.02593
-0.095829
-0.17475
-0.21684
-0.22435
-0.21383
-0.18978
-0.16648
-0.16122
-0.18301
-0.23713
-0.32356
-0.41902
-0.50545
-0.56107
-0.59564
-0.61819
-0.63848
-0.66404
-0.68583
-0.70688
-0.72116
-0.72717
-0.70763
-0.66103
-0.58888
-0.51522
-0.46787
-0.46637
-0.52649
-0.61819
-0.67982
-0.57685
-0.28298
0.09658
0.46486
0.63698
0.63923
0.55581
0.44156
0.39045
0.37768
0.34611
0.31003
0.26043
0.19053
0.098083
-0.017663
-0.10034
-0.11462
-0.085306
-0.052236
-0.053739
-0.13191
-0.22736
-0.32281
-0.37542
-0.41826
-0.49267
-0.59263
-0.70613
-0.78579
-0.83465
-0.83916
-0.81887
-0.78504
-0.7407
-0.69034
-0.63097
-0.57009
-0.51146
-0.46862
-0.46787
-0.54904
-0.68358
-0.77678
-0.7189
-0.53927
-0.24239
0.059752
0.3634
0.59639
0.73018
0.70387
0.5746
0.40248
0.26644
0.21233
0.20782
0.21157
0.21383
0.19579
0.13641
0.013905
-0.13566
-0.25817
-0.31454
-0.30327
-0.28673
-0.30252
-0.36189
-0.43781
-0.48891
-0.5047
-0.50169
-0.49267
-0.48741
-0.46862
-0.45885
-0.45509
-0.45509
-0.45885
-0.46336
-0.46937
-0.49868
-0.5761
-0.6693
-0.71665
-0.68884
-0.57234
-0.42352
-0.24765
-0.019166
0.22285
0.45058
0.60691
0.68583
0.65502
0.54153
0.40624
0.292
0.23788
0.19955
0.12213
0.027433
-0.054491
-0.12815
-0.2236
-0.34837
-0.4596
-0.51071
-0.49267
-0.45885
-0.46411
-0.51071
-0.55881
-0.58587
-0.56858
-0.53476
-0.52048
-0.52499
-0.54979
-0.5761
-0.60767
-0.6227
-0.61744
-0.57986
-0.528
-0.46862
-0.44457
-0.45735
-0.54153
-0.67005
-0.77076
-0.7392
-0.62044
-0.39346
-0.16798
0.045472
0.23788
0.32807
0.36415
0.39271
0.44081
0.49944
0.5295
0.49192
0.39722
0.27245
0.14543
0.020669
-0.049981
-0.059
0.019917
0.13942
0.20631
0.18677
0.060504
-0.097332
-0.25667
-0.38144
-0.43254
-0.43705
-0.40248
-0.33709
-0.27321
-0.2236
-0.20481
-0.22059
-0.2484
-0.26118
-0.2469
-0.21984
-0.17249
-0.12439
-0.093574
-0.10334
-0.18527
-0.32056
-0.4115
-0.43405
-0.35363
-0.25517
-0.16197
-0.088313
-0.014656
0.019917
0.026682
-0.0011274
-0.038707
-0.079293
-0.10109
-0.1274
-0.15445
-0.20857
-0.26118
-0.31379
-0.34686
-0.35814
-0.3649
-0.37542
-0.39346
-0.40549
-0.41225
-0.40774
-0.38068
-0.35814
-0.33033
-0.35663
-0.43705
-0.50319
-0.51522
-0.45133
-0.35964
-0.33559
-0.37242
-0.43931
-0.51146
-0.54303
-0.51522
-0.42728
-0.32958
-0.25893
-0.26794
-0.3897
-0.5543
-0.65953
-0.58512
-0.37392
-0.071026
0.18452
0.3634
0.47914
0.53326
0.56708
0.59564
0.60917
0.57234
0.47313
0.32958
0.18377
0.080045
0.020669
-0.028185
-0.079293
-0.12364
-0.15746
-0.18151
-0.21233
-0.24239
-0.27245
-0.29876
-0.33258
-0.36866
-0.40248
-0.42578
-0.43405
-0.43179
-0.42428
-0.41375
-0.41902
-0.42879
-0.45434
-0.46411
-0.46186
-0.44006
-0.40624
-0.3867
-0.39647
-0.47388
-0.60541
-0.76475
-0.84667
-0.83014
-0.72492
-0.51672
-0.26644
0.029688
0.33709
0.57835
0.73619
0.73844
0.62796
0.46712
0.34085
0.28673
0.25517
0.23262
0.20932
0.17625
0.11762
0.046223
-0.021421
-0.052236
-0.074784
-0.10259
-0.1785
-0.31905
-0.46486
-0.58286
-0.60992
-0.57384
-0.51071
-0.4611
-0.43405
-0.42728
-0.43104
-0.44607
-0.48666
-0.58737
-0.70011
-0.69936
-0.62044
-0.38444
-0.13191
0.13641
0.35889
0.47839
0.48215
0.40624
0.29726
0.19504
0.11537
0.067268
0.034949
0.010147
-0.016159
-0.043968
-0.081548
-0.13115
-0.18677
-0.2469
-0.30327
-0.35363
-0.40098
-0.47012
-0.54378
-0.60241
-0.57234
-0.48591
-0.35814
-0.25216
-0.20105
-0.21383
-0.26118
-0.30477
-0.24164
-0.078542
0.15596
0.35363
0.4829
0.47163
0.3867
0.27095
0.19053
0.15596
0.13191
0.070274
-0.013905
-0.10936
-0.20331
-0.31003
-0.41751
-0.49568
-0.52349
-0.48591
-0.4348
-0.41375
-0.44607
-0.50019
-0.54979
-0.56407
-0.54378
-0.49192
-0.4333
-0.3634
-0.27922
-0.18527
-0.048478
0.1071
0.26569
0.39496
0.47238
0.4814
0.44983
0.39121
0.31079
0.22661
0.12138
0.0041338
-0.11988
-0.23187
-0.32356
-0.3867
-0.44081
-0.47989
-0.50846
-0.52875
-0.54228
-0.55881
-0.57159
-0.59339
-0.60541
-0.61894
-0.62195
-0.62044
-0.61518
-0.60917
-0.61293
-0.6227
-0.62796
-0.62796
-0.61293
-0.60316
-0.59339
-0.58888
-0.5746
-0.56933
-0.59188
-0.66855
-0.71364
-0.67907
-0.61819
-0.50244
-0.38144
-0.17625
0.086809
0.39722
0.62044
0.6956
0.63397
0.49944
0.3882
0.33859
0.29651
0.27621
0.2484
0.19805
0.12138
0.036452
-0.03044
-0.079293
-0.12589
-0.18828
-0.29049
-0.39045
-0.45434
-0.47163
-0.44382
-0.40398
-0.36039
-0.31304
-0.26945
-0.26719
-0.2935
-0.34235
-0.40173
-0.49493
-0.60015
-0.67306
-0.69711
-0.63923
-0.53852
-0.45509
-0.43781
-0.54077
-0.55581
-0.47012
-0.18978
0.1304
0.37166
0.55205
0.6723
0.68734
0.58587
0.44006
0.28072
0.16873
0.092071
0.019166
-0.049981
-0.10936
-0.14994
-0.18226
-0.20932
-0.24314
-0.28072
-0.33183
-0.38444
-0.43405
-0.47463
-0.50169
-0.51672
-0.51973
-0.52123
-0.51297
-0.49568
-0.47012
-0.44983
-0.43029
-0.44307
-0.46411
-0.47313
-0.4348
-0.34235
-0.24089
-0.17775
-0.18978
-0.26494
-0.37993
-0.49418
-0.53175
-0.46486
-0.31079
-0.16197
-0.052988
-0.019166
0.043217
0.12815
0.21458
0.2935
0.32807
0.34837
0.34837
0.34235
0.32356
0.30928
0.27546
0.24314
0.18001
0.067268
-0.095829
-0.2484
-0.33634
-0.33784
-0.28298
-0.23337
-0.19654
-0.17926
-0.16723
-0.16798
-0.18828
-0.21533
-0.24615
-0.27847
-0.29124
-0.29275
-0.28899
-0.29275
-0.30477
-0.32356
-0.3416
-0.36039
-0.38369
-0.39947
-0.40398
-0.39722
-0.37768
-0.3401
-0.32582
-0.31605
-0.37542
-0.47689
-0.59263
-0.64374
-0.63021
-0.54002
-0.45509
-0.40699
-0.44457
-0.55881
-0.70462
-0.79256
-0.73619
-0.58286
-0.37693
-0.20631
-0.10936
-0.042465
0.050733
0.18677
0.32582
0.40248
0.38444
0.32958
0.26794
0.22059
0.17926
0.12965
0.057497
-0.04923
-0.17174
-0.28448
-0.35663
-0.38369
-0.39121
-0.39947
-0.43029
-0.47689
-0.53476
-0.57309
-0.60165
-0.62195
-0.63247
-0.64074
-0.649
-0.65727
-0.66178
-0.65727
-0.63923
-0.61218
-0.58211
-0.55806
-0.54077
-0.56558
-0.63021
-0.70237
-0.70838
-0.65276
-0.53927
-0.39797
-0.25291
-0.061255
0.15145
0.35663
0.55355
0.64449
0.62796
0.54153
0.43705
0.36941
0.32281
0.25817
0.19729
0.14393
0.065013
-0.066516
-0.20782
-0.28974
-0.28974
-0.24464
-0.21458
-0.22435
-0.26193
-0.28899
-0.26569
-0.20857
-0.13792
-0.095077
-0.099587
-0.1304
-0.17926
-0.23788
-0.30327
-0.38068
-0.46035
-0.5295
-0.54528
-0.53401
-0.48591
-0.44457
-0.44156
-0.47689
-0.56483
-0.68358
-0.72642
-0.70011
-0.59489
-0.44908
-0.32206
-0.21007
-0.10184
-0.010147
0.093574
0.20707
0.30026
0.37467
0.41751
0.43781
0.41751
0.33559
0.18828
0.0041338
-0.18452
-0.33258
-0.40023
-0.39647
-0.3168
-0.20556
-0.1071
-0.091319
-0.14619
-0.23788
-0.36039
-0.49418
-0.5746
-0.60767
-0.56483
-0.49643
-0.49192
-0.51823
-0.55505
-0.57835
-0.55956
-0.52725
-0.49643
-0.49042
-0.48591
-0.4611
-0.41676
-0.35663
-0.32958
-0.28448
-0.16122
0.0078918
0.23788
0.39797
0.50019
0.53476
0.51447
0.45209
0.35814
0.24014
0.12589
0.029688
-0.053739
-0.1274
-0.19805
-0.27396
-0.34461
-0.41977
-0.47989
-0.51747
-0.54378
-0.54453
-0.56633
-0.58136
-0.60767
-0.62646
-0.63548
-0.63322
-0.6257
-0.61443
-0.60466
-0.59489
-0.59188
-0.59263
-0.59714
-0.61368
-0.62871
-0.646
-0.646
-0.6242
-0.58888
-0.54077
-0.50094
-0.47764
-0.49643
-0.58362
-0.7159
-0.80834
-0.79331
-0.62195
-0.32206
0.04021
0.41751
0.65351
0.75197
0.72642
0.66253
0.60917
0.5062
0.39647
0.26569
0.12815
-0.025179
-0.16422
-0.24239
-0.2469
-0.20782
-0.17475
-0.18226
-0.23187
-0.28222
-0.30552
-0.28598
-0.25817
-0.2484
-0.25141
-0.26268
-0.2687
-0.27245
-0.28072
-0.29876
-0.33859
-0.39271
-0.44983
-0.47914
-0.49267
-0.47989
-0.4566
-0.4363
-0.43555
-0.50545
-0.61293
-0.67907
-0.6693
-0.55956
-0.3416
-0.049981
0.26268
0.50169
0.55806
0.47088
0.33108
0.21082
0.16648
0.16347
0.15746
0.13341
0.10936
0.090567
0.07779
0.034949
-0.059752
-0.18677
-0.30477
-0.33935
-0.30252
-0.21082
-0.11988
-0.066516
-0.0086434
0.0071402
0.027433
0.042465
0.066516
0.10635
0.13341
0.12815
0.10936
0.074784
0.024427
-0.055242
-0.17775
-0.33559
-0.52274
-0.67155
-0.74671
-0.72717
-0.63472
-0.51973
-0.41601
-0.36415
-0.34987
-0.35964
-0.40699
-0.50395
-0.59489
-0.58812
-0.47012
-0.27546
-0.09658
0.031943
0.1056
0.14243
0.18377
0.23337
0.27321
0.27471
0.26118
0.23713
0.2018
0.13792
0.049981
-0.050733
-0.15145
-0.24915
-0.33333
-0.39722
-0.44607
-0.4829
-0.50545
-0.53175
-0.54979
-0.57309
-0.57911
-0.57911
-0.58362
-0.58812
-0.59188
-0.58061
-0.56332
-0.54829
-0.54979
-0.55656
-0.56858
-0.56483
-0.53175
-0.48365
-0.42052
-0.37091
-0.35663
-0.39797
-0.5062
-0.62946
-0.70537
-0.67907
-0.54829
-0.32131
-0.043217
0.2236
0.42954
0.53777
0.52198
0.46186
0.39121
0.37317
0.39496
0.3867
0.35287
0.28974
0.177
-0.0003758
-0.18226
-0.28523
-0.26569
-0.15445
-0.015408
0.071026
0.069523
0.01165
-0.067268
-0.13566
-0.18677
-0.23788
-0.26343
-0.22811
-0.14994
-0.061255
-0.0033822
-0.013153
-0.07779
-0.14994
-0.21383
-0.23863
-0.25517
-0.28824
-0.3198
-0.36941
-0.41676
-0.48666
-0.5746
-0.67606
-0.76099
-0.79632
-0.75723
-0.62345
-0.45209
-0.28974
-0.18076
-0.13867
-0.13792
-0.17625
-0.22285
-0.23187
-0.17324
-0.050733
0.12364
0.28824
0.37993
0.39196
0.34912
0.28899
0.24915
0.18226
0.10635
0.024427
-0.046223
-0.11687
-0.19654
-0.29275
-0.39572
-0.47989
-0.54754
-0.58662
-0.61894
-0.64976
-0.67531
-0.6926
-0.6926
-0.67681
-0.65727
-0.63998
-0.62796
-0.62495
-0.62044
-0.61142
-0.62195
-0.646
-0.69786
-0.69109
-0.61443
-0.38444
-0.070274
0.26644
0.51146
0.63322
0.60466
0.5047
0.40699
0.34085
0.34085
0.35588
0.3198
0.26794
0.19955
0.10936
0.0071402
-0.11687
-0.22135
-0.2702
-0.28899
-0.31755
-0.38369
-0.47839
-0.55505
-0.59339
-0.5761
-0.54453
-0.5295
-0.54077
-0.54754
-0.5513
-0.52725
-0.49342
-0.46035
-0.4363
-0.43029
-0.43254
-0.46035
-0.53251
-0.61293
-0.69185
-0.68884
-0.61593
-0.49042
-0.32807
-0.16723
-0.010898
0.13266
0.25742
0.36716
0.45434
0.49042
0.45509
0.36716
0.28899
0.24991
0.23112
0.2018
0.12364
0.0063886
-0.091319
-0.18677
-0.27696
-0.34987
-0.3882
-0.37166
-0.32732
-0.30402
-0.35964
-0.43781
-0.50695
-0.52349
-0.5077
-0.49192
-0.49868
-0.51522
-0.51447
-0.49267
-0.46035
-0.43254
-0.44607
-0.48591
-0.51597
-0.50545
-0.46561
-0.42503
-0.44758
-0.49868
-0.42127
-0.25066
0.03044
0.27546
0.37016
0.34085
0.22661
0.10109
0.061255
0.1056
0.19955
0.28824
0.30928
0.27471
0.20406
0.11462
0.022924
-0.066516
-0.1507
-0.19504
-0.2251
-0.23638
-0.25893
-0.28147
-0.29124
-0.28072
-0.24089
-0.21233
-0.2221
-0.27546
-0.35513
-0.44682
-0.52349
-0.56182
-0.55355
-0.50846
-0.44908
-0.39647
-0.37016
-0.36415
-0.36866
-0.3416
-0.29951
-0.26794
-0.27546
-0.23788
-0.20932
-0.14919
-0.095077
-0.078542
-0.016911
0.075536
0.18903
0.29275
0.32356
0.30402
0.23788
0.16798
0.11312
0.11011
0.11387
0.13717
0.085306
-0.015408
-0.14318
-0.26043
-0.33709
-0.36791
-0.38219
-0.39872
-0.413
-0.42803
-0.44307
-0.4596
-0.47614
-0.49643
-0.51221
-0.53025
-0.54679
-0.55806
-0.56407
-0.55956
-0.5543
-0.54528
-0.531
-0.50996
-0.47313
-0.45058
-0.50846
-0.62345
-0.68358
-0.68508
-0.56708
-0.41451
-0.2717
-0.11312
0.028936
0.1755
0.34386
0.49418
0.61293
0.58662
0.4844
0.36265
0.26193
0.21458
0.16648
0.095829
0.034198
-0.032694
-0.10259
-0.177
-0.24991
-0.3183
-0.35137
-0.36791
-0.38219
-0.39196
-0.41977
-0.46336
-0.52574
-0.58512
-0.62796
-0.63698
-0.6242
-0.59339
-0.54528
-0.49342
-0.44156
-0.40323
-0.41225
-0.49418
-0.60316
-0.67456
-0.63548
-0.48666
-0.28598
-0.11687
0.010898
0.043968
0.04021
0.041714
0.093574
0.16798
0.24314
0.30252
0.35438
0.38895
0.37918
0.3198
0.21759
0.12138
0.038707
-0.021421
-0.080797
-0.1537
-0.23487
-0.3153
-0.38895
-0.44833
-0.5047
-0.55054
-0.59188
-0.6212
-0.63773
-0.64449
-0.63397
-0.60992
-0.56783
-0.51898
-0.46787
-0.43179
-0.4363
-0.51297
-0.60917
-0.70237
-0.73018
-0.67306
-0.5761
-0.44607
-0.3168
-0.16347
-0.0003758
0.14919
0.23788
0.24991
0.25066
0.25291
0.28749
0.32507
0.28523
0.20556
0.10936
0.0078918
-0.083803
-0.1785
-0.23713
-0.23337
-0.18978
-0.13491
-0.12289
-0.18076
-0.27922
-0.39722
-0.47463
-0.54528
-0.63848
-0.7392
-0.78579
-0.73318
-0.58437
-0.34611
-0.085306
0.14543
0.295
0.35062
0.37317
0.36941
0.36265
0.35287
0.32281
0.26644
0.1522
0.015408
-0.098083
-0.17174
-0.23337
-0.30177
-0.35964
-0.37091
-0.35137
-0.32281
-0.3198
-0.37693
-0.44682
-0.52123
-0.54754
-0.53251
-0.50996
-0.49418
-0.49267
-0.49568
-0.49944
-0.50395
-0.51672
-0.53777
-0.58437
-0.64149
-0.69485
-0.69335
-0.63322
-0.54153
-0.4829
-0.48215
-0.49117
-0.49418
-0.5047
-0.49117
-0.44833
-0.2935
-0.043968
0.22059
0.44382
0.55581
0.57384
0.51297
0.43254
0.34461
0.21759
0.073281
-0.040962
-0.053739
0.005637
0.10334
0.18527
0.21157
0.19354
0.12965
0.034198
-0.075536
-0.20631
-0.33108
-0.43104
-0.48516
-0.49793
-0.46787
-0.41676
-0.36866
-0.32807
-0.31454
-0.31379
-0.30402
-0.30928
-0.32582
-0.36565
-0.48365
-0.61443
-0.7159
-0.70838
-0.6009
-0.45359
-0.3431
-0.28749
-0.28373
-0.33333
-0.47539
-0.63397
-0.72943
-0.68959
-0.49718
-0.28899
-0.12514
-0.046975
-0.016159
0.001879
0.080797
0.18377
0.26945
0.32882
0.36265
0.40098
0.42052
0.3897
0.295
0.14619
-0.018414
-0.16498
-0.24314
-0.27321
-0.26118
-0.23563
-0.21909
-0.21684
-0.23262
-0.25742
-0.29951
-0.35363
-0.40624
-0.44833
-0.47088
-0.4844
-0.48967
-0.49117
-0.47839
-0.45133
-0.40774
-0.35889
-0.31229
-0.27621
-0.26193
-0.27245
-0.33408
-0.40023
-0.49267
-0.5761
-0.56032
-0.54153
-0.40173
-0.1988
0.018414
0.22435
0.33559
0.35062
0.33108
0.31379
0.29049
0.29124
0.27621
0.26193
0.25592
0.23187
0.17249
0.062007
-0.049981
-0.14694
-0.20481
-0.25667
-0.32582
-0.40323
-0.47614
-0.52574
-0.55205
-0.56407
-0.57384
-0.58286
-0.58587
-0.57986
-0.56633
-0.5528
-0.53551
-0.52198
-0.51522
-0.50921
-0.51898
-0.58737
-0.70011
-0.76776
-0.80308
-0.70011
-0.5543
-0.37542
-0.20631
-0.086058
-0.0041338
0.1056
0.26945
0.4611
0.61819
0.65351
0.53025
0.37016
0.2221
0.14844
0.11762
0.069523
0.02593
-0.017663
-0.055994
-0.11387
-0.1988
-0.31605
-0.40774
-0.4348
-0.39045
-0.27546
-0.14919
-0.037956
0.022924
0.033446
-0.0003758
-0.069523
-0.16047
-0.21984
-0.19504
-0.098835
0.016159
0.10184
0.1289
0.11236
0.065013
0.0003758
-0.067268
-0.15295
-0.22961
-0.35588
-0.49793
-0.63021
-0.67606
-0.63923
-0.54228
-0.46561
-0.4333
-0.44607
-0.48215
-0.54002
-0.59865
-0.65276
-0.68057
-0.65877
-0.56933
-0.46637
-0.31905
-0.19429
-0.060504
-0.0048854
-0.009395
-0.04472
-0.022924
0.081548
0.21608
0.32431
0.34611
0.29651
0.20782
0.098835
0.013153
-0.053739
-0.11913
-0.19203
-0.2687
-0.3401
-0.41225
-0.45584
-0.49568
-0.51372
-0.528
-0.54153
-0.56407
-0.58286
-0.58136
-0.56858
-0.55581
-0.57234
-0.62871
-0.70763
-0.77001
-0.76926
-0.69635
-0.57911
-0.40398
-0.19955
0.048478
0.28598
0.48816
0.54604
0.47614
0.35062
0.2469
0.22661
0.23638
0.19504
0.12439
0.040962
-0.04472
-0.12664
-0.18752
-0.23638
-0.24164
-0.20782
-0.17324
-0.16272
-0.18452
-0.26043
-0.36941
-0.49418
-0.63923
-0.75122
-0.82864
-0.84216
-0.79707
-0.70237
-0.60691
-0.528
-0.4844
-0.48365
-0.52048
-0.53927
-0.52649
-0.45885
-0.33859
-0.19955
-0.079293
-0.023675
-0.10635
-0.2221
-0.30703
-0.25742
-0.11838
0.019917
0.086058
0.083803
0.038707
-0.0033822
-0.001879
0.035701
0.095077
0.16122
0.20707
0.23187
0.23788
0.2236
0.19654
0.14919
0.074032
-0.009395
-0.10485
-0.21007
-0.31379
-0.40774
-0.48516
-0.56332
-0.60992
-0.62044
-0.60466
-0.54754
-0.45133
-0.32056
-0.17024
-0.080797
-0.090567
-0.17475
-0.28899
-0.37016
-0.37918
-0.26644
-0.083051
0.14694
0.34235
0.43856
0.43856
0.38144
0.28147
0.16723
0.046223
-0.074032
-0.16422
-0.22135
-0.25216
-0.30928
-0.36791
-0.43781
-0.52349
-0.60241
-0.63247
-0.61744
-0.54153
-0.45735
-0.37317
-0.31304
-0.26268
-0.22961
-0.20331
-0.17024
-0.14619
-0.12965
-0.13566
-0.2018
-0.25442
-0.28222
-0.21759
-0.1041
0.022924
0.11086
0.1289
0.06351
-0.055994
-0.21007
-0.33634
-0.39647
-0.37843
-0.31379
-0.27546
-0.31454
-0.43405
-0.55731
-0.64149
-0.6475
-0.59865
-0.528
-0.43931
-0.3401
-0.22961
-0.12514
-0.031191
0.029688
0.043968
0.039459
0.053739
0.09658
0.15596
0.18151
0.16272
0.11011
0.043968
-0.017663
-0.092822
-0.1552
-0.24464
-0.34837
-0.45885
-0.52725
-0.54303
-0.531
-0.5047
-0.52499
-0.56257
-0.61744
-0.64224
-0.64224
-0.56558
-0.43179
-0.2469
-0.06802
0.053739
0.068771
0.026682
-0.018414
-0.010898
0.04923
0.10861
0.14168
0.16047
0.19429
0.23638
0.25968
0.24615
0.17174
0.056746
-0.083051
-0.20556
-0.30327
-0.36415
-0.41375
-0.44833
-0.48065
-0.52725
-0.58362
-0.65201
-0.72266
-0.77076
-0.7888
-0.7655
-0.71064
-0.64374
-0.58888
-0.55731
-0.53626
-0.52048
-0.56107
-0.67606
-0.76776
-0.8369
-0.77602
-0.62646
-0.42277
-0.18377
0.058249
0.30477
0.52649
0.71064
0.79632
0.73093
0.58211
0.42202
0.295
0.21082
0.13341
0.037956
-0.042465
-0.11312
-0.19354
-0.28147
-0.36265
-0.40924
-0.40924
-0.39271
-0.36791
-0.39872
-0.46261
-0.55505
-0.64525
-0.72341
-0.77978
-0.80458
-0.75949
-0.64675
-0.52123
-0.43781
-0.45209
-0.56182
-0.64449
-0.66178
-0.5513
-0.3882
-0.22135
-0.078542
0.080797
0.2469
0.41977
0.56708
0.63397
0.5746
0.44758
0.29425
0.18001
0.12289
0.094325
0.080797
0.037956
-0.052988
-0.18151
-0.28899
-0.34085
-0.3634
-0.37918
-0.40023
-0.39722
-0.39271
-0.39496
-0.42954
-0.47839
-0.56107
-0.6257
-0.6708
-0.66704
-0.62946
-0.58737
-0.5513
-0.51747
-0.49718
-0.49718
-0.5047
-0.55205
-0.61142
-0.72041
-0.74446
-0.67681
-0.4566
-0.16347
0.12589
0.34461
0.50996
0.61067
0.6708
0.64374
0.54077
0.41826
0.32882
0.29124
0.25291
0.17399
0.057497
-0.06351
-0.17475
-0.25968
-0.33634
-0.40023
-0.4814
-0.54604
-0.59564
-0.60992
-0.60015
-0.59113
-0.58812
-0.60015
-0.60241
-0.59414
-0.56783
-0.531
-0.49267
-0.46411
-0.44532
-0.43254
-0.4363
-0.4844
-0.54904
-0.5776
-0.54679
-0.45284
-0.33634
-0.22135
-0.078542
0.09658
0.28824
0.49643
0.62345
0.61443
0.51672
0.39346
0.31079
0.25817
0.18527
0.10635
0.016911
-0.054491
-0.14393
-0.2469
-0.34837
-0.39496
-0.37693
-0.3431
-0.31905
-0.37016
-0.46186
-0.55731
-0.63698
-0.70613
-0.74295
-0.76926
-0.74897
-0.71214
-0.65201
-0.51597
-0.3431
-0.17174
-0.017663
0.10635
0.23938
0.3416
0.39647
0.41225
0.3867
0.34611
0.28523
0.21383
0.14694
0.071026
-0.024427
-0.12289
-0.20631
-0.26419
-0.30327
-0.3431
-0.39271
-0.44382
-0.49267
-0.5295
-0.53326
-0.49643
-0.42954
-0.37166
-0.34085
-0.33183
-0.3416
-0.36039
-0.3867
-0.40699
-0.4333
-0.4596
-0.50019
-0.54754
-0.59263
-0.63021
-0.65051
-0.65427
-0.65351
-0.65427
-0.64675
-0.64149
-0.6212
-0.62345
-0.6009
-0.5528
-0.40098
-0.19354
-0.045472
0.098083
0.24389
0.38895
0.54754
0.61368
0.59263
0.51522
0.39196
0.25442
0.14318
0.049981
0.020669
0.02593
0.039459
0.014656
-0.065013
-0.16272
-0.24464
-0.28974
-0.30477
-0.32657
-0.36265
-0.39496
-0.41451
-0.41902
-0.4115
-0.40699
-0.41751
-0.4348
-0.47689
-0.52499
-0.56933
-0.58136
-0.5528
-0.52123
-0.52048
-0.56558
-0.66253
-0.78053
-0.78053
-0.7159
-0.53702
-0.34536
-0.18602
-0.072529
0.04021
0.18903
0.38369
0.56633
0.65201
0.60391
0.45584
0.24389
0.066516
-0.022172
-0.039459
-0.0041338
0.009395
-0.019166
-0.089064
-0.15746
-0.20932
-0.2251
-0.22961
-0.24464
-0.2687
-0.29575
-0.31605
-0.34235
-0.36866
-0.39647
-0.44758
-0.50169
-0.55581
-0.56708
-0.53702
-0.47989
-0.41676
-0.36866
-0.37317
-0.48591
-0.63848
-0.71289
-0.60241
-0.32958
-0.0041338
0.21984
0.31003
0.27772
0.18226
0.14243
0.13942
0.14468
0.11687
0.064262
0.024427
0.016159
0.0003758
-0.0071402
-0.036452
-0.091319
-0.16949
-0.26043
-0.33634
-0.38219
-0.42052
-0.4566
-0.49568
-0.51297
-0.48591
-0.44532
-0.40549
-0.41451
-0.48516
-0.57159
-0.62871
-0.58587
-0.4581
-0.30853
-0.1507
-0.074032
-0.038707
-0.041714
-0.029688
-0.0026306
0.046223
0.079293
0.12213
0.16798
0.20631
0.21007
0.18076
0.12289
0.06351
-0.010147
-0.095829
-0.18001
-0.26118
-0.31755
-0.3634
-0.40398
-0.42803
-0.43781
-0.45284
-0.47764
-0.53551
-0.61894
-0.68583
-0.69485
-0.63773
-0.53702
-0.4115
-0.30252
-0.19203
-0.089816
0.013153
0.12213
0.22285
0.30703
0.37843
0.42352
0.44607
0.40624
0.27997
0.10485
-0.039459
-0.091319
-0.062758
-0.034198
-0.065013
-0.1755
-0.31003
-0.42803
-0.51898
-0.60015
-0.65577
-0.66779
-0.61819
-0.54528
-0.49042
-0.47539
-0.46411
-0.4611
-0.47012
-0.50921
-0.54829
-0.5513
-0.48816
-0.37768
-0.25968
-0.15971
-0.051484
0.034949
0.1304
0.21608
0.28072
0.31905
0.35363
0.35964
0.33859
0.27471
0.18677
0.091319
0.001879
-0.07779
-0.14092
-0.17926
-0.21608
-0.24991
-0.32281
-0.40173
-0.47539
-0.52725
-0.55956
-0.58662
-0.60767
-0.61819
-0.61218
-0.58662
-0.56032
-0.5543
-0.5994
-0.65727
-0.67381
-0.60616
-0.49944
-0.3664
-0.27321
-0.2018
-0.11387
0.010147
0.18828
0.36791
0.49192
0.49342
0.41
0.31905
0.25592
0.24164
0.21984
0.12589
0.0071402
-0.11612
-0.21082
-0.28749
-0.36941
-0.44307
-0.46787
-0.4363
-0.37693
-0.32807
-0.30628
-0.33559
-0.37693
-0.40549
-0.41526
-0.44156
-0.53175
-0.66629
-0.76776
-0.78655
-0.69034
-0.54002
-0.38369
-0.27245
-0.23563
-0.25893
-0.25517
-0.21082
-0.062758
0.1056
0.27922
0.39346
0.45584
0.45584
0.37993
0.21157
0.025179
-0.13641
-0.2236
-0.23187
-0.22585
-0.21834
-0.2236
-0.24615
-0.27396
-0.29801
-0.3168
-0.35738
-0.40849
-0.45509
-0.47313
-0.4611
-0.42954
-0.40624
-0.39421
-0.39346
-0.37542
-0.31379
-0.20256
-0.042465
0.10861
0.21684
0.26719
0.25066
0.14844
0.017663
-0.068771
-0.095829
-0.074784
-0.074032
-0.14844
-0.25817
-0.35889
-0.42803
-0.47764
-0.52499
-0.5528
-0.53025
-0.46486
-0.39421
-0.35513
-0.35738
-0.35889
-0.35513
-0.29651
-0.2469
-0.24314
-0.29801
-0.35663
-0.37993
-0.33935
-0.24014
-0.10259
0.027433
0.10334
0.11537
0.083803
0.038707
-0.033446
-0.086058
-0.097332
-0.090567
-0.061255
-0.055242
-0.056746
-0.071026
-0.11161
-0.16347
-0.24239
-0.34611
-0.47914
-0.62495
-0.71214
-0.72567
-0.63548
-0.49944
-0.35062
-0.22961
-0.12589
-0.070274
-0.052988
-0.07779
-0.12364
-0.14168
-0.10936
-0.043217
0.046975
0.11086
0.14543
0.14318
0.098835
0.016159
-0.091319
-0.20556
-0.25291
-0.23563
-0.17174
-0.12589
-0.14318
-0.23262
-0.37542
-0.52198
-0.61218
-0.62646
-0.58737
-0.47238
-0.34837
-0.2484
-0.20556
-0.24164
-0.28598
-0.30327
-0.29425
-0.27396
-0.26118
-0.21909
-0.13491
-0.0041338
0.11687
0.1988
0.24239
0.23112
0.19203
0.14619
0.092822
0.053739
0.03044
-0.025179
-0.098835
-0.19805
-0.29575
-0.35513
-0.3867
-0.39572
-0.41676
-0.45209
-0.51146
-0.531
-0.528
-0.49868
-0.47463
-0.4581
-0.44607
-0.40398
-0.34912
-0.29425
-0.22661
-0.14994
-0.037204
0.09658
0.23187
0.33784
0.3897
0.39797
0.37542
0.33559
0.27471
0.20331
0.098835
-0.065013
-0.24164
-0.37091
-0.38595
-0.3198
-0.22135
-0.17174
-0.1785
-0.25817
-0.37843
-0.52274
-0.62796
-0.66028
-0.6227
-0.53476
-0.49418
-0.50019
-0.54604
-0.56407
-0.54679
-0.48666
-0.41826
-0.34987
-0.27847
-0.2454
-0.22961
-0.21984
-0.14318
-0.0086434
0.13266
0.19955
0.17099
0.087561
0.034198
0.029688
0.054491
0.076287
0.067268
0.026682
-0.034198
-0.11838
-0.20331
-0.30628
-0.3867
-0.42052
-0.37918
-0.29951
-0.24014
-0.20932
-0.22585
-0.25366
-0.30552
-0.35814
-0.39722
-0.42879
-0.45284
-0.47689
-0.49342
-0.50846
-0.52274
-0.51898
-0.4814
-0.39121
-0.26719
-0.14619
-0.069523
-0.049981
-0.069523
-0.11612
-0.177
-0.27396
-0.40098
-0.52123
-0.57159
-0.5513
-0.47839
-0.39496
-0.32882
-0.29651
-0.30327
-0.33033
-0.35738
-0.35212
-0.28974
-0.21533
-0.099587
0.012401
0.13115
0.22435
0.29651
0.29651
0.28147
0.23187
0.15746
0.06351
-0.02593
-0.084555
-0.10785
-0.10485
-0.094325
-0.10485
-0.1537
-0.23187
-0.3431
-0.42127
-0.46561
-0.47689
-0.48065
-0.5077
-0.52574
-0.50169
-0.44156
-0.34461
-0.2702
-0.21909
-0.19654
-0.19654
-0.21233
-0.24464
-0.28673
-0.33559
-0.37392
-0.39271
-0.3867
-0.34235
-0.26193
-0.16498
-0.074032
-0.017663
0.010147
0.0003758
-0.052236
-0.16197
-0.30327
-0.42202
-0.45359
-0.40774
-0.32807
-0.28373
-0.30026
-0.37016
-0.43856
-0.48365
-0.47163
-0.40849
-0.2935
-0.15971
-0.042465
0.022924
-0.0003758
-0.078542
-0.18527
-0.19354
-0.10109
0.037204
0.15596
0.19729
0.22285
0.25592
0.29651
0.30928
0.2454
0.13115
-0.029688
-0.17926
-0.31079
-0.41751
-0.52649
-0.60842
-0.60917
-0.56483
-0.43104
-0.28373
-0.16347
-0.06351
-0.022172
-0.027433
-0.059
-0.095829
-0.10936
-0.089816
-0.038707
0.034949
0.10034
0.12213
0.11913
0.074032
-0.016911
-0.17625
-0.35889
-0.49342
-0.531
-0.49868
-0.42954
-0.39421
-0.39647
-0.44682
-0.51146
-0.59113
-0.6693
-0.71364
-0.68734
-0.60691
-0.52123
-0.44983
-0.40924
-0.35814
-0.31003
-0.25141
-0.17024
-0.086809
0.0011274
0.092071
0.19203
0.28448
0.35212
0.39271
0.37016
0.28373
0.18752
0.093574
0.045472
0.0033822
-0.045472
-0.12664
-0.22435
-0.32507
-0.41375
-0.47463
-0.50319
-0.5062
-0.48741
-0.46712
-0.47012
-0.48065
-0.5047
-0.51973
-0.53927
-0.56933
-0.61518
-0.64299
-0.6475
-0.61969
-0.55656
-0.44307
-0.3153
-0.11687
0.074784
0.2687
0.43931
0.47388
0.42052
0.33033
0.2687
0.26419
0.27847
0.23337
0.15145
0.051484
-0.031943
-0.11312
-0.20932
-0.3416
-0.47238
-0.55054
-0.58963
-0.5979
-0.58437
-0.57911
-0.59038
-0.62044
-0.66855
-0.67531
-0.65201
-0.61142
-0.56182
-0.54904
-0.53251
-0.50921
-0.47012
-0.41826
-0.33935
-0.27396
-0.21909
-0.19579
-0.19955
-0.17399
-0.10785
0.010898
0.18301
0.34386
0.47914
0.51672
0.43705
0.29876
0.18527
0.14694
0.16798
0.18151
0.12815
0.024427
-0.098835
-0.2018
-0.29124
-0.37242
-0.46486
-0.52649
-0.54604
-0.51672
-0.49793
-0.5062
-0.54754
-0.61443
-0.66404
-0.67381
-0.65351
-0.62345
-0.60165
-0.58737
-0.59489
-0.57535
-0.54077
-0.48365
-0.40023
-0.32657
-0.29049
-0.26719
-0.23187
-0.11462
0.067268
0.28147
0.4829
0.61067
0.63472
0.54228
0.36941
0.17024
0.0071402
-0.12138
-0.20556
-0.26118
-0.29876
-0.30327
-0.30477
-0.30177
-0.3401
-0.39421
-0.45885
-0.52048
-0.56107
-0.58888
-0.60992
-0.62946
-0.64074
-0.64224
-0.62946
-0.59564
-0.54604
-0.49342
-0.44607
-0.40849
-0.38519
-0.36866
-0.38745
-0.45133
-0.56933
-0.67306
-0.73469
-0.70462
-0.56107
-0.34085
-0.062758
0.23112
0.49568
0.70387
0.79481
0.73318
0.58211
0.42954
0.32206
0.22811
0.15821
0.087561
0.078542
0.10936
0.12439
0.11086
0.053739
-0.0086434
-0.067268
-0.1289
-0.19654
-0.2935
-0.38895
-0.4566
-0.46637
-0.42803
-0.36114
-0.32657
-0.31454
-0.31605
-0.30177
-0.27471
-0.24915
-0.22661
-0.22285
-0.2236
-0.23863
-0.27772
-0.38519
-0.54754
-0.65727
-0.70011
-0.59038
-0.4333
-0.27997
-0.16122
-0.083803
-0.049981
-0.020669
0.0011274
0.019917
-0.028936
-0.10184
-0.15821
-0.12965
-0.043968
0.068771
0.13115
0.097332
-0.013153
-0.16798
-0.31454
-0.39797
-0.41601
-0.38068
-0.32056
-0.27621
-0.28673
-0.3401
-0.39947
-0.44081
-0.43856
-0.46937
-0.56332
-0.64374
-0.65727
-0.54979
-0.37693
-0.21909
-0.10184
-0.059
-0.052988
-0.054491
0.0071402
0.11612
0.23112
0.3168
0.36265
0.37542
0.36039
0.30101
0.21007
0.075536
-0.076287
-0.22135
-0.32356
-0.38745
-0.40699
-0.41375
-0.44682
-0.49718
-0.57986
-0.66178
-0.73393
-0.75348
-0.70237
-0.57986
-0.46637
-0.45058
-0.50319
-0.55054
-0.51597
-0.40098
-0.24164
-0.098835
-0.0026306
0.019917
-0.013905
-0.058249
-0.062007
-0.025179
0.035701
0.068771
0.078542
0.079293
0.086058
0.093574
0.092071
0.086809
0.075536
0.03044
-0.066516
-0.19203
-0.31755
-0.40849
-0.45584
-0.46937
-0.45058
-0.44532
-0.4581
-0.48591
-0.5077
-0.50244
-0.47839
-0.44006
-0.40098
-0.37918
-0.34761
-0.3153
-0.28899
-0.2702
-0.31079
-0.39947
-0.531
-0.68583
-0.80759
-0.87899
-0.87523
-0.77527
-0.63848
-0.39797
-0.11011
0.2454
0.58737
0.83991
0.97595
1
0.93085
0.74746
0.47989
0.20105
0.001879
-0.090567
-0.10485
-0.13641
-0.1785
-0.25291
-0.33634
-0.42277
-0.48516
-0.5077
-0.46862
-0.39872
-0.32206
-0.25442
-0.25366
-0.28448
-0.35062
-0.46862
-0.58737
-0.6693
-0.6723
-0.58211
-0.44607
-0.31079
-0.18226
-0.089816
-0.016159
0.059
0.14844
0.22059
0.23563
0.22661
0.2003
0.16197
0.11236
0.03044
-0.074032
-0.19579
-0.27396
-0.295
-0.28298
-0.28523
-0.30703
-0.31154
-0.31079
-0.32131
-0.35889
-0.46862
-0.58812
-0.67907
-0.69936
-0.646
-0.531
-0.40549
-0.27321
-0.13566
-0.001879
0.11762
0.21684
0.25216
0.23638
0.17399
0.12514
0.13266
0.16949
0.21157
0.18752
0.10334
-0.0026306
-0.11086
-0.2018
-0.2935
-0.39196
-0.45058
-0.45133
-0.42578
-0.42653
-0.45133
-0.49267
-0.50996
-0.46712
-0.37993
-0.30778
-0.27922
-0.30552
-0.33183
-0.34837
-0.33559
-0.26719
-0.19053
-0.10485
-0.054491
-0.062758
-0.12589
-0.22961
-0.34386
-0.42879
-0.47388
-0.4814
-0.42879
-0.35588
-0.27922
-0.26193
-0.32206
-0.4333
-0.53702
-0.56558
-0.53025
-0.46787
-0.40774
-0.34461
-0.30402
-0.27847
-0.25742
-0.22736
-0.16047
-0.10259
-0.070274
-0.031191
0.0071402
0.071026
0.12664
0.17174
0.19504
0.20631
0.21533
0.18978
0.15295
0.10034
0.047726
0.013905
-0.024427
-0.10334
-0.18677
-0.31605
-0.46561
-0.59188
-0.66629
-0.64976
-0.57986
-0.4829
-0.40849
-0.3867
-0.413
-0.4844
-0.56783
-0.63021
-0.64299
-0.59263
-0.4814
-0.3897
-0.34085
-0.37693
-0.43254
-0.47163
-0.47463
-0.42578
-0.37542
-0.32056
-0.2469
-0.18677
-0.12589
-0.094325
-0.075536
-0.068771
-0.03044
0.026682
0.1041
0.16347
0.2018
0.21759
0.22059
0.21834
0.20782
0.16648
0.1041
0.001879
-0.11687
-0.24164
-0.33108
-0.3664
-0.3649
-0.33183
-0.33709
-0.38595
-0.4829
-0.57535
-0.6242
-0.57911
-0.45133
0.48215
