0.15836
0.16422
0.16813
0.17302
0.17302
0.17204
0.16716
0.16618
0.15445
0.14858
0.13587
0.12121
0.1085
0.1085
0.11828
0.14858
0.2219
0.32747
0.40078
0.39198
0.27664
0.17009
0.052786
-0.038123
-0.13392
-0.21505
-0.24047
-0.22972
-0.22972
-0.20528
-0.17498
-0.13685
-0.099707
-0.071359
-0.051808
-0.040078
-0.042033
-0.057674
-0.074291
-0.092864
-0.1085
-0.12317
-0.13881
-0.1564
-0.18084
-0.19648
-0.21408
-0.22581
-0.23656
-0.23949
-0.23754
-0.2346
-0.22776
-0.22287
-0.21505
-0.20626
-0.18964
-0.17693
-0.16618
-0.15543
-0.15054
-0.14272
-0.13685
-0.12414
-0.10948
-0.096774
-0.089932
-0.079179
-0.02346
0.18964
0.51124
0.77908
0.80352
0.63734
0.42131
0.25513
0.1652
0.11241
0.10264
0.15249
0.17889
0.20039
0.21017
0.20919
0.19453
0.18084
0.17986
0.18768
0.20332
0.21505
0.22874
0.24145
0.25122
0.26882
0.28055
0.29228
0.29032
0.28446
0.27664
0.26002
0.23754
0.21994
0.20235
0.18084
0.16716
0.14565
0.13099
0.13294
0.15445
0.1828
0.2219
0.27273
0.29717
0.28837
0.23265
0.16716
0.10264
0.036168
-0.014663
-0.060606
-0.086999
-0.10459
-0.11144
-0.11828
-0.11926
-0.11339
-0.10948
-0.10557
-0.11144
-0.11437
-0.11926
-0.12414
-0.12805
-0.13685
-0.15054
-0.16618
-0.17693
-0.18964
-0.19355
-0.19453
-0.19355
-0.1955
-0.19746
-0.19453
-0.1955
-0.19355
-0.19159
-0.19062
-0.19257
-0.19159
-0.18866
-0.18768
-0.1828
-0.17693
-0.17204
-0.16716
-0.16227
-0.15347
-0.14858
-0.13783
-0.12708
-0.11437
-0.1085
-0.10166
-0.096774
-0.099707
-0.10166
-0.097752
-0.094819
-0.092864
-0.089932
-0.088954
-0.086022
-0.080156
-0.079179
-0.050831
0.1173
0.40665
0.67644
0.69306
0.48387
0.27175
0.11241
0.068426
0.039101
0.045943
0.091887
0.13001
0.13587
0.14565
0.15836
0.17204
0.18768
0.21114
0.24438
0.27761
0.29423
0.30792
0.31965
0.33333
0.34311
0.33822
0.33724
0.32258
0.31085
0.29814
0.28837
0.27859
0.27566
0.27566
0.26491
0.28543
0.29423
0.30499
0.28935
0.23754
0.18671
0.11828
0.049853
0.001955
-0.026393
-0.036168
-0.040078
-0.048876
-0.057674
-0.066471
-0.071359
-0.076246
-0.087977
-0.087977
-0.091887
-0.091887
-0.097752
-0.10459
-0.11241
-0.11926
-0.11535
-0.10459
-0.098729
-0.088954
-0.073314
-0.036168
0.038123
0.18768
0.40274
0.59531
0.65787
0.5914
0.35777
0.14467
-0.010753
-0.076246
-0.047898
0.010753
0.049853
0.068426
0.061584
0.059629
0.059629
0.051808
0.043988
0.043988
0.043011
0.048876
0.060606
0.067449
0.068426
0.067449
0.068426
0.085044
0.1261
0.18964
0.23265
0.29814
0.32845
0.35777
0.34213
0.28348
0.17009
0.064516
-0.01173
-0.031281
-0.0039101
0.012708
0.016618
0.014663
0.01564
0.029326
0.036168
0.038123
0.0097752
-0.01564
-0.038123
-0.055718
-0.078201
-0.090909
-0.10459
-0.12512
-0.14761
-0.16911
-0.19159
-0.21603
-0.23656
-0.261
-0.2825
-0.30205
-0.30792
-0.31574
-0.31867
-0.31867
-0.31769
-0.31574
-0.31085
-0.30205
-0.29814
-0.29326
-0.28641
-0.28055
-0.27077
-0.25709
-0.23949
-0.22581
-0.21017
-0.19355
-0.1828
-0.174
-0.11437
0.12708
0.46334
0.72239
0.72532
0.55425
0.36852
0.24829
0.174
0.076246
0.035191
0.053763
0.052786
0.065494
0.096774
0.13001
0.15152
0.16325
0.18377
0.20235
0.20821
0.21212
0.23069
0.23851
0.26588
0.27761
0.29326
0.29228
0.28739
0.2825
0.29521
0.31085
0.31672
0.31378
0.30792
0.30596
0.29228
0.25806
0.18866
0.10948
0.036168
-0.012708
-0.0039101
0.034213
0.072336
0.090909
0.099707
0.10068
0.092864
0.079179
0.043011
-0.0039101
-0.055718
-0.099707
-0.1349
-0.14467
-0.13196
-0.084066
-0.01564
0.064516
0.11437
0.13196
0.12219
0.074291
0.033236
-0.054741
-0.12708
-0.18182
-0.21603
-0.2131
-0.18671
-0.1564
-0.12903
-0.10459
-0.090909
-0.082111
-0.072336
-0.063539
-0.057674
-0.059629
-0.065494
-0.080156
-0.10362
-0.12708
-0.15054
-0.16813
-0.1828
-0.18377
-0.18182
-0.174
-0.16911
-0.16618
-0.16618
-0.16813
-0.16618
-0.17009
-0.17498
-0.1828
-0.18671
-0.19159
-0.19257
-0.19062
-0.19159
-0.19453
-0.19257
-0.19062
-0.18964
-0.19453
-0.19355
-0.12708
0.14272
0.49853
0.76442
0.74487
0.54545
0.36461
0.24927
0.17107
0.069404
0.024438
0.048876
0.069404
0.087977
0.089932
0.098729
0.11144
0.13783
0.16813
0.1955
0.21701
0.22581
0.24927
0.25806
0.27761
0.27468
0.2737
0.26882
0.26882
0.2825
0.30108
0.30303
0.3089
0.28152
0.28935
0.27761
0.25318
0.19844
0.087977
0.001955
-0.033236
0.0058651
0.072336
0.097752
0.12512
0.11535
0.092864
0.060606
0.0087977
-0.042033
-0.080156
-0.11144
-0.12512
-0.12414
-0.12219
-0.11926
-0.11828
-0.1261
-0.13099
-0.1349
-0.10459
-0.037146
0.073314
0.20528
0.31672
0.36461
0.32063
0.14858
-0.049853
-0.20332
-0.28543
-0.26882
-0.21799
-0.17498
-0.13001
-0.080156
-0.037146
-0.0097752
0.010753
0.033236
0.051808
0.064516
0.069404
0.063539
0.055718
0.047898
0.043988
0.035191
0.024438
0.0097752
0
-0.013685
-0.01955
-0.029326
-0.033236
-0.045943
-0.049853
-0.051808
-0.054741
-0.058651
-0.060606
-0.066471
-0.074291
-0.081134
-0.091887
-0.10362
-0.11535
-0.1261
-0.13978
-0.15934
-0.18182
-0.21994
-0.25806
-0.27957
-0.27468
-0.25513
-0.23656
-0.22776
-0.22776
-0.23656
-0.25806
-0.23167
-0.037146
0.29228
0.58749
0.64614
0.47703
0.29326
0.1564
0.080156
0.0068426
-0.01173
0.026393
0.049853
0.054741
0.048876
0.035191
0.042033
0.040078
0.043011
0.048876
0.049853
0.057674
0.075269
0.10753
0.14663
0.17498
0.19159
0.21017
0.23558
0.26686
0.28152
0.29912
0.28446
0.26784
0.30108
0.29717
0.28935
0.20528
0.11046
0.069404
0.082111
0.14565
0.17791
0.20626
0.19453
0.1828
0.14663
0.086999
0.030303
-0.022483
-0.071359
-0.10068
-0.12121
-0.12708
-0.12903
-0.12512
-0.12512
-0.1349
-0.14663
-0.15934
-0.174
-0.17986
-0.18475
-0.19062
-0.20528
-0.2219
-0.24145
-0.28543
-0.30596
-0.26491
-0.078201
0.21799
0.51808
0.65298
0.61095
0.47898
0.28446
0.13099
0.020528
-0.026393
0.014663
0.044966
0.050831
0.062561
0.058651
0.063539
0.059629
0.052786
0.050831
0.066471
0.086022
0.10166
0.10948
0.12317
0.13881
0.15249
0.16911
0.16618
0.15543
0.12805
0.11144
0.11241
0.11926
0.14565
0.17009
0.20919
0.25024
0.26979
0.25611
0.24242
0.19355
0.1564
0.085044
0.022483
0.014663
0.021505
0.022483
0.0087977
-0.0048876
-0.028348
-0.056696
-0.078201
-0.091887
-0.094819
-0.098729
-0.10948
-0.12708
-0.14272
-0.15934
-0.17986
-0.20821
-0.24927
-0.29032
-0.32649
-0.3392
-0.32845
-0.30596
-0.28837
-0.28055
-0.27566
-0.27664
-0.27273
-0.26979
-0.26588
-0.26588
-0.26295
-0.25513
-0.2522
-0.24829
-0.24731
-0.25024
-0.25709
-0.2825
-0.31867
-0.26393
0.044966
0.43793
0.72239
0.72336
0.55621
0.35484
0.23167
0.13099
0.075269
0.093842
0.15152
0.18182
0.21017
0.20137
0.19355
0.1828
0.17693
0.18084
0.18182
0.17693
0.17107
0.17595
0.18768
0.21114
0.22287
0.24536
0.24927
0.25904
0.27859
0.30987
0.31769
0.32649
0.29814
0.28152
0.28837
0.26491
0.24829
0.18964
0.13294
0.10655
0.10362
0.12121
0.14663
0.16031
0.16422
0.12023
0.070381
0.040078
0.0048876
-0.0029326
-0.028348
-0.078201
-0.098729
-0.1173
-0.11339
-0.095797
-0.078201
-0.068426
-0.069404
-0.077224
-0.084066
-0.089932
-0.097752
-0.10557
-0.11241
-0.1261
-0.13294
-0.13978
-0.15054
-0.16618
-0.19453
-0.20919
-0.1437
0.079179
0.41056
0.64516
0.75269
0.71261
0.56109
0.38416
0.19355
0.088954
0.079179
0.11632
0.1085
0.10068
0.092864
0.088954
0.099707
0.099707
0.10655
0.10753
0.10557
0.096774
0.096774
0.10166
0.10655
0.12219
0.13001
0.13392
0.13099
0.12414
0.12414
0.12414
0.13685
0.14565
0.15249
0.16129
0.15347
0.14565
0.12512
0.077224
0.01564
-0.056696
-0.091887
-0.078201
-0.043011
-0.034213
-0.036168
-0.043988
-0.061584
-0.091887
-0.11241
-0.12512
-0.13001
-0.13392
-0.14174
-0.14467
-0.1564
-0.15836
-0.16716
-0.17595
-0.18573
-0.19453
-0.20137
-0.21212
-0.21799
-0.23167
-0.261
-0.29619
-0.32551
-0.32845
-0.30792
-0.26979
-0.24633
-0.23167
-0.22483
-0.21408
-0.20919
-0.20332
-0.19648
-0.19355
-0.1955
-0.19648
-0.19453
-0.19453
-0.19062
-0.19159
-0.20919
-0.086999
0.23754
0.57869
0.78397
0.71848
0.56109
0.39589
0.26686
0.14565
0.11632
0.14174
0.19257
0.21505
0.22092
0.20332
0.20039
0.19453
0.19941
0.21114
0.21505
0.2131
0.20137
0.20137
0.20919
0.2131
0.22385
0.22678
0.22972
0.23949
0.24927
0.25611
0.24242
0.22287
0.17204
0.16911
0.1437
0.12414
0.092864
0.024438
-0.010753
-0.02346
-0.025415
-0.017595
0.0029326
0.0039101
-0.0097752
-0.028348
-0.069404
-0.089932
-0.11535
-0.14174
-0.16129
-0.20039
-0.22385
-0.22483
-0.2043
-0.17302
-0.14174
-0.1261
-0.12219
-0.1261
-0.13099
-0.13881
-0.14272
-0.14565
-0.15152
-0.15445
-0.16129
-0.15934
-0.1652
-0.16325
-0.16422
-0.16618
-0.17302
-0.17986
-0.1828
-0.19648
-0.22287
-0.24829
-0.26197
-0.24829
-0.21212
-0.17498
-0.15836
-0.15445
-0.15934
-0.16227
-0.17107
-0.18768
-0.13196
0.13587
0.47605
0.75758
0.84164
0.76735
0.6217
0.48094
0.32356
0.22483
0.2131
0.22776
0.22483
0.2219
0.21505
0.21505
0.20528
0.1955
0.18084
0.16618
0.15347
0.15054
0.15543
0.17009
0.18768
0.20137
0.21114
0.23069
0.25806
0.2825
0.29423
0.28837
0.25415
0.21799
0.19941
0.14761
0.087977
0.020528
0.0068426
0.030303
0.086999
0.11632
0.10948
0.099707
0.059629
0.032258
-0.0097752
-0.045943
-0.069404
-0.081134
-0.088954
-0.086999
-0.084066
-0.088954
-0.089932
-0.095797
-0.10459
-0.12317
-0.14272
-0.1652
-0.19062
-0.2131
-0.22776
-0.24047
-0.24927
-0.25709
-0.26197
-0.26686
-0.26491
-0.261
-0.25709
-0.25611
-0.25611
-0.27273
-0.3089
-0.34995
-0.36266
-0.34018
-0.29912
-0.25904
-0.24047
-0.23069
-0.22483
-0.21994
-0.22581
-0.2434
-0.26686
-0.28348
-0.29032
-0.18182
0.15836
0.50929
0.78006
0.8172
0.71652
0.55425
0.39101
0.22776
0.15249
0.174
0.23265
0.25709
0.26784
0.25415
0.2522
0.24242
0.23558
0.24145
0.24829
0.24536
0.25024
0.26295
0.26588
0.28348
0.2913
0.30401
0.30108
0.30401
0.31183
0.3304
0.32747
0.29814
0.25415
0.1955
0.16422
0.11144
0.054741
0.0097752
-0.014663
0.00097752
0.017595
0.02346
0.022483
0.012708
0.0029326
0.0029326
-0.001955
-0.01564
-0.036168
-0.070381
-0.095797
-0.13783
-0.19746
-0.25806
-0.29521
-0.27761
-0.22385
-0.17107
-0.13587
-0.11046
-0.094819
-0.086999
-0.080156
-0.087977
-0.092864
-0.097752
-0.094819
-0.096774
-0.097752
-0.098729
-0.10753
-0.11535
-0.12903
-0.13783
-0.15054
-0.15836
-0.16227
-0.1652
-0.1652
-0.1652
-0.1564
-0.15152
-0.14174
-0.1349
-0.13587
-0.17009
-0.2131
-0.25513
-0.27566
-0.25513
-0.22678
-0.21017
-0.20821
-0.21896
-0.23167
-0.23656
-0.21799
-0.11339
0.17498
0.52102
0.76442
0.8563
0.77517
0.6217
0.44673
0.24242
0.13587
0.14858
0.20626
0.21799
0.20528
0.1652
0.14761
0.1261
0.10362
0.079179
0.055718
0.033236
0.033236
0.038123
0.060606
0.097752
0.13001
0.15543
0.1828
0.22092
0.26686
0.3001
0.30303
0.27566
0.21505
0.18377
0.14858
0.097752
0.061584
0.060606
0.091887
0.13392
0.14174
0.13099
0.12023
0.11926
0.11046
0.081134
0.017595
-0.02737
-0.057674
-0.081134
-0.10264
-0.13978
-0.15347
-0.1564
-0.14174
-0.12219
-0.10753
-0.089932
-0.081134
-0.075269
-0.076246
-0.079179
-0.086022
-0.10068
-0.11437
-0.13196
-0.14565
-0.16031
-0.17009
-0.18084
-0.19159
-0.20039
-0.20723
-0.21114
-0.21603
-0.21896
-0.2219
-0.22483
-0.22678
-0.22581
-0.22483
-0.22581
-0.25024
-0.28446
-0.3304
-0.34702
-0.31476
-0.27175
-0.23656
-0.21799
-0.22287
-0.24047
-0.26197
-0.26295
-0.24633
-0.21212
-0.18573
-0.17302
-0.17498
-0.18084
-0.18084
-0.19453
-0.21799
-0.24927
-0.26882
-0.26882
-0.24633
-0.21799
-0.20332
-0.19453
-0.19648
-0.20137
-0.21408
-0.22385
-0.22972
-0.22092
-0.20039
-0.17107
-0.14956
-0.14663
-0.14174
-0.13685
-0.13685
-0.13783
-0.14565
-0.15249
-0.1652
-0.16618
-0.16325
-0.14761
-0.12512
-0.10362
-0.088954
-0.096774
-0.10068
-0.031281
0.27273
0.65787
0.91593
1
0.87488
0.73118
0.6129
0.49071
0.46725
0.49365
0.49169
0.45552
0.40176
0.35093
0.31574
0.29326
0.27761
0.26882
0.26882
0.29326
0.33431
0.40078
0.48387
0.5523
0.54839
0.51906
0.45748
0.42815
0.4086
0.40958
0.4086
0.41447
0.42717
0.4477
0.45357
0.42326
0.34018
0.27566
0.20137
0.16618
0.11828
0.098729
0.086999
0.10557
0.12708
0.13783
0.14467
0.1437
0.13783
0.11828
0.098729
0.074291
0.053763
0.040078
0.026393
0.02346
0.014663
0.01564
0.0048876
-0.0039101
-0.013685
-0.018573
-0.024438
-0.031281
-0.040078
-0.055718
-0.097752
-0.13978
-0.1828
-0.19746
-0.18573
-0.16031
-0.14076
-0.13392
-0.13685
-0.14174
-0.16422
-0.18866
-0.21603
-0.22581
-0.22776
-0.21505
-0.20235
-0.19648
-0.1955
-0.21408
-0.20137
0.0087977
0.34702
0.6393
0.79472
0.78788
0.64321
0.5044
0.29423
0.16129
0.14663
0.18377
0.19648
0.20137
0.18182
0.17986
0.15934
0.12317
0.075269
0.041056
0.033236
0.044966
0.076246
0.10557
0.14272
0.1828
0.23069
0.27957
0.29912
0.2825
0.23656
0.2043
0.17107
0.14076
0.12805
0.11535
0.1261
0.1349
0.12414
0.1085
0.097752
0.088954
0.062561
0.028348
-0.001955
-0.035191
-0.045943
-0.054741
-0.064516
-0.080156
-0.095797
-0.11241
-0.13392
-0.15347
-0.17595
-0.19453
-0.21408
-0.23167
-0.2434
-0.25709
-0.2737
-0.29717
-0.34311
-0.39003
-0.43011
-0.435
-0.40958
-0.37732
-0.35191
-0.3392
-0.35777
-0.37928
-0.4174
-0.43891
-0.44379
-0.43109
-0.42522
-0.39003
-0.16325
0.16325
0.43695
0.56012
0.55425
0.40567
0.28543
0.10557
0.010753
0.041056
0.089932
0.11437
0.11046
0.095797
0.079179
0.057674
0.01564
-0.01955
-0.035191
-0.033236
-0.01955
0.0058651
0.043011
0.082111
0.1349
0.20235
0.25709
0.30205
0.28152
0.25611
0.21114
0.18475
0.1652
0.15249
0.1437
0.15347
0.16716
0.15934
0.14858
0.14956
0.13294
0.1085
0.072336
0.049853
0.035191
0.037146
0.026393
0.017595
-0.001955
-0.021505
-0.039101
-0.064516
-0.086022
-0.10948
-0.13294
-0.1564
-0.17693
-0.18866
-0.20332
-0.21603
-0.22581
-0.2346
-0.2434
-0.25318
-0.28055
-0.32649
-0.37048
-0.39101
-0.37537
-0.34897
-0.31965
-0.30499
-0.31183
-0.33724
-0.35875
-0.31867
-0.062561
0.29521
0.56403
0.62952
0.56794
0.40958
0.32845
0.21017
0.15249
0.16618
0.18084
0.17498
0.17009
0.15836
0.14272
0.11926
0.087977
0.064516
0.054741
0.060606
0.076246
0.10459
0.13294
0.16227
0.20137
0.26588
0.34409
0.43206
0.48289
0.4653
0.41838
0.31281
0.2346
0.19257
0.16911
0.18084
0.19159
0.19453
0.19257
0.18671
0.18377
0.15836
0.13001
0.11144
0.099707
0.099707
0.087977
0.078201
0.057674
0.030303
0.01173
-0.01173
-0.037146
-0.057674
-0.077224
-0.094819
-0.10753
-0.11926
-0.13392
-0.15543
-0.17889
-0.22385
-0.25904
-0.28739
-0.2825
-0.25122
-0.21408
-0.18182
-0.17107
-0.18475
-0.19941
-0.2131
-0.20821
-0.1955
-0.17107
-0.15054
-0.1437
-0.14761
-0.15738
-0.17791
-0.20039
-0.21212
-0.2131
-0.20821
-0.19746
-0.18475
-0.17986
-0.18475
-0.20137
-0.2219
-0.24438
-0.25611
-0.25513
-0.25122
-0.23754
-0.22287
-0.21603
-0.22287
-0.23656
-0.24438
-0.24536
-0.23851
-0.22678
-0.21799
-0.20723
-0.18964
-0.18377
-0.19062
-0.1955
-0.1955
-0.18671
-0.18182
-0.18182
-0.19159
-0.19941
-0.20723
-0.20821
-0.19844
-0.18182
-0.15543
-0.1349
-0.12805
-0.12317
-0.11339
-0.10459
-0.099707
-0.089932
-0.083089
-0.078201
-0.070381
-0.063539
-0.056696
-0.056696
-0.048876
-0.046921
-0.045943
-0.045943
-0.043011
-0.037146
-0.029326
-0.017595
-0.0058651
-0.041056
-0.048876
0.16031
0.49365
0.76344
0.85826
0.75269
0.53861
0.41056
0.25709
0.18573
0.21114
0.27761
0.38416
0.49756
0.55327
0.52395
0.42033
0.31281
0.28446
0.35386
0.46139
0.54839
0.54741
0.4956
0.43597
0.41838
0.42913
0.42033
0.43206
0.46725
0.5347
0.57185
0.52004
0.40469
0.28641
0.2043
0.18377
0.17498
0.19355
0.22483
0.24438
0.24438
0.25024
0.28641
0.32747
0.30499
0.21408
0.081134
-0.016618
-0.091887
-0.14467
-0.17595
-0.15934
-0.10557
-0.042033
0.0078201
0.054741
0.084066
0.10753
0.12512
0.13881
0.14565
0.14663
0.14272
0.13587
0.12805
0.11828
0.11632
0.10753
0.099707
0.087977
0.078201
0.063539
0.047898
0.029326
0.00097752
-0.035191
-0.072336
-0.10068
-0.10948
-0.097752
-0.069404
-0.047898
-0.036168
-0.035191
-0.058651
-0.089932
-0.12121
-0.13881
-0.13881
-0.1261
-0.10557
-0.089932
-0.087977
-0.093842
-0.11437
-0.14663
-0.18182
-0.23167
-0.18182
0.082111
0.39296
0.61193
0.58456
0.39101
0.15738
-0.020528
-0.10166
-0.043988
0.034213
0.088954
0.10557
0.11828
0.11437
0.085044
0.054741
0.042033
0.039101
0.054741
0.084066
0.12512
0.16227
0.20332
0.27859
0.37048
0.42131
0.41935
0.34018
0.24731
0.20528
0.18377
0.18475
0.18671
0.1955
0.20626
0.21017
0.21505
0.20821
0.20137
0.19257
0.16716
0.1349
0.10068
0.080156
0.080156
0.079179
0.077224
0.076246
0.063539
0.052786
0.040078
0.029326
0.013685
-0.0087977
-0.042033
-0.080156
-0.12805
-0.15836
-0.18377
-0.17693
-0.15836
-0.13294
-0.1173
-0.11046
-0.11926
-0.1437
-0.174
-0.20332
-0.21701
-0.21896
-0.21017
-0.19355
-0.1828
-0.18084
-0.18182
-0.18768
-0.20235
-0.22678
-0.24731
-0.26882
-0.26588
-0.25611
-0.23558
-0.21994
-0.20235
-0.19159
-0.19159
-0.19453
-0.20919
-0.22776
-0.2434
-0.25318
-0.2434
-0.23069
-0.20626
-0.18573
-0.174
-0.17107
-0.17302
-0.17498
-0.17986
-0.18182
-0.17986
-0.17791
-0.17595
-0.17693
-0.17302
-0.17302
-0.16813
-0.16325
-0.16031
-0.15836
-0.15738
-0.15934
-0.17791
-0.20528
-0.2522
-0.29619
-0.3304
-0.3304
-0.29228
-0.24927
-0.21603
-0.1955
-0.20723
-0.22483
-0.17693
0.10264
0.46139
0.73998
0.80743
0.73118
0.56891
0.46237
0.29717
0.18573
0.18182
0.19844
0.22483
0.25709
0.34213
0.45455
0.5132
0.47507
0.37243
0.2737
0.21505
0.22092
0.30401
0.44673
0.58553
0.61877
0.56207
0.4653
0.41447
0.40176
0.40078
0.39198
0.3998
0.47116
0.55523
0.58162
0.49169
0.34409
0.21799
0.15738
0.12708
0.12414
0.14076
0.16325
0.18671
0.20039
0.2346
0.31867
0.35875
0.3089
0.17009
-0.017595
-0.10557
-0.16911
-0.22287
-0.24536
-0.22581
-0.15445
-0.086999
-0.041056
-0.010753
0.013685
0.048876
0.074291
0.094819
0.10459
0.11339
0.12805
0.13685
0.14076
0.13881
0.13881
0.13392
0.13001
0.12219
0.10655
0.086022
0.055718
0.020528
-0.026393
-0.048876
-0.061584
-0.051808
-0.034213
-0.01564
-0.0029326
-0.0039101
-0.0029326
-0.0097752
-0.018573
-0.030303
-0.035191
-0.043011
-0.049853
-0.058651
-0.079179
-0.11437
-0.14565
-0.01564
0.18671
0.37732
0.42033
0.30792
0.043011
-0.16325
-0.33138
-0.348
-0.25318
-0.11828
0.010753
0.12121
0.14761
0.11241
0.030303
-0.038123
-0.066471
-0.067449
-0.062561
-0.034213
0.0068426
0.050831
0.1564
0.26979
0.38416
0.41935
0.37341
0.27664
0.21114
0.16422
0.16618
0.16422
0.17693
0.17986
0.19648
0.19453
0.19159
0.19355
0.18768
0.18084
0.17498
0.16325
0.15249
0.14076
0.12708
0.10753
0.083089
0.061584
0.042033
0.018573
0.0029326
-0.02737
-0.063539
-0.11339
-0.14858
-0.174
-0.17498
-0.15934
-0.13196
-0.11535
-0.10068
-0.097752
-0.10753
-0.13783
-0.17889
-0.21994
-0.26784
-0.24242
-0.043988
0.174
0.34702
0.29912
0.14272
-0.14174
-0.33333
-0.47507
-0.42326
-0.23851
-0.058651
0.067449
0.15347
0.18182
0.16813
0.10655
0.030303
-0.018573
-0.036168
-0.034213
-0.016618
0.01173
0.043988
0.076246
0.12317
0.22972
0.32258
0.39785
0.38025
0.28055
0.17302
0.099707
0.071359
0.061584
0.067449
0.064516
0.074291
0.085044
0.097752
0.10362
0.10557
0.1085
0.1085
0.10655
0.10557
0.10068
0.085044
0.064516
0.041056
0.018573
-0.0029326
-0.029326
-0.060606
-0.10459
-0.15445
-0.21212
-0.2434
-0.26686
-0.25415
-0.22874
-0.19257
-0.16618
-0.15249
-0.14174
-0.1437
-0.14272
-0.14663
-0.14858
-0.16618
-0.12903
0.025415
0.20332
0.32747
0.24633
0.063539
-0.23363
-0.45259
-0.54643
-0.4565
-0.2346
-0.070381
0.039101
0.098729
0.14565
0.16031
0.11144
0.048876
0.0058651
-0.0097752
-0.0068426
0.0097752
0.035191
0.056696
0.082111
0.10459
0.1349
0.22874
0.32258
0.40567
0.38612
0.28739
0.16227
0.073314
0.021505
0.013685
0.01955
0.022483
0.030303
0.053763
0.065494
0.074291
0.082111
0.084066
0.085044
0.089932
0.086999
0.077224
0.053763
0.034213
0.0068426
-0.01173
-0.033236
-0.045943
-0.074291
-0.096774
-0.12708
-0.16325
-0.17791
-0.18377
-0.16422
-0.1437
-0.12317
-0.10166
-0.099707
-0.10068
-0.10557
-0.12023
-0.13881
-0.16129
-0.19062
-0.20626
-0.21994
-0.20528
-0.18671
-0.16716
-0.15054
-0.1437
-0.13587
-0.14858
-0.16618
-0.20528
-0.24927
-0.28152
-0.28837
-0.26686
-0.24633
-0.22092
-0.20039
-0.20039
-0.22678
-0.20723
-0.040078
0.16813
0.41153
0.43597
0.31769
0.017595
-0.21408
-0.35973
-0.30499
-0.10557
0.056696
0.10459
0.056696
-0.016618
-0.076246
-0.078201
-0.081134
-0.068426
-0.037146
0.069404
0.21212
0.3216
0.32551
0.26882
0.22483
0.22385
0.2434
0.24536
0.2434
0.25513
0.26979
0.28348
0.27761
0.29423
0.38221
0.46334
0.47801
0.35875
0.18573
0.041056
-0.017595
-0.044966
-0.045943
-0.038123
-0.0097752
0.022483
0.039101
0.053763
0.069404
0.066471
0.066471
0.059629
0.066471
0.074291
0.086999
0.087977
0.086999
0.078201
0.068426
0.043011
0.0078201
-0.025415
-0.073314
-0.10166
-0.1261
-0.13001
-0.12023
-0.1085
-0.089932
-0.081134
-0.084066
-0.096774
-0.11535
-0.13294
-0.15445
-0.17107
-0.17889
-0.18768
-0.18377
-0.19159
-0.086999
0.11828
0.30792
0.44379
0.36657
0.19453
-0.12219
-0.37146
-0.50147
-0.3998
-0.17693
0.00097752
0.11828
0.17302
0.1652
0.12805
0.071359
0.039101
0.030303
0.032258
0.039101
0.047898
0.068426
0.095797
0.1173
0.17791
0.26686
0.39198
0.42424
0.38514
0.29032
0.24145
0.2131
0.19844
0.16911
0.12512
0.10166
0.10557
0.11339
0.12708
0.13978
0.14565
0.15445
0.15738
0.16031
0.15543
0.14174
0.12805
0.10655
0.082111
0.054741
0.029326
0.00097752
-0.042033
-0.066471
-0.091887
-0.092864
-0.082111
-0.060606
-0.041056
-0.031281
-0.025415
-0.037146
-0.054741
-0.074291
-0.10362
-0.12805
-0.174
-0.16129
-0.02737
0.10166
0.23363
0.17204
0.039101
-0.17693
-0.36364
-0.47996
-0.46432
-0.3392
-0.2131
-0.15738
-0.10557
-0.042033
0.074291
0.13099
0.12708
0.070381
0.0058651
-0.029326
-0.039101
-0.033236
-0.01564
0.014663
0.043988
0.069404
0.086999
0.10459
0.11632
0.12512
0.13587
0.13881
0.13978
0.13685
0.13196
0.12023
0.096774
0.074291
0.042033
0.0087977
-0.017595
-0.032258
-0.036168
-0.037146
-0.030303
-0.032258
-0.046921
-0.072336
-0.095797
-0.12023
-0.15249
-0.17595
-0.21603
-0.24438
-0.18377
-0.064516
0.029326
0.095797
0.0097752
-0.12219
-0.38612
-0.54839
-0.58358
-0.4262
-0.21408
-0.064516
0.018573
0.048876
0.043988
0.013685
-0.043988
-0.10166
-0.12903
-0.13783
-0.14174
-0.13099
-0.095797
-0.050831
0.0078201
0.067449
0.12414
0.17009
0.20821
0.24242
0.25806
0.27566
0.28348
0.28641
0.28152
0.27468
0.26784
0.25513
0.24145
0.22483
0.20723
0.18475
0.16129
0.13294
0.090909
0.041056
-0.010753
-0.058651
-0.095797
-0.13001
-0.14565
-0.14663
-0.14565
-0.1437
-0.16129
-0.18866
-0.21701
-0.23949
-0.25415
-0.25904
-0.25024
-0.24438
-0.23949
-0.24047
-0.25513
-0.27859
-0.29619
-0.30792
-0.31867
-0.31574
-0.30596
-0.29912
-0.2913
-0.29032
-0.29326
-0.29814
-0.30596
-0.30792
-0.31574
-0.34506
-0.30108
-0.15445
-0.055718
0.14858
0.16618
0.12219
-0.13294
-0.39394
-0.56207
-0.48289
-0.29521
-0.15249
-0.089932
-0.088954
-0.089932
-0.086999
-0.091887
-0.086022
-0.050831
0.035191
0.098729
0.099707
0.11632
0.15934
0.26784
0.33822
0.32063
0.27566
0.261
0.27175
0.30108
0.33138
0.38221
0.45064
0.49462
0.42326
0.37048
0.32258
0.34213
0.34213
0.27273
0.19648
0.1564
0.14858
0.16129
0.17595
0.18573
0.1955
0.21114
0.23069
0.2434
0.24047
0.23363
0.21799
0.2043
0.19453
0.19159
0.18671
0.17791
0.16813
0.16129
0.14663
0.13294
0.11926
0.097752
0.064516
0.037146
0.0058651
-0.012708
-0.031281
-0.034213
-0.035191
-0.045943
-0.033236
0.017595
0.014663
0.084066
0.038123
-0.035191
-0.21603
-0.43597
-0.56403
-0.54252
-0.39198
-0.23167
-0.11046
-0.034213
0.050831
0.12317
0.11926
0.079179
0.063539
0.11339
0.19648
0.21017
0.15934
0.11632
0.11632
0.14174
0.18377
0.21505
0.24633
0.26588
0.27957
0.29032
0.3001
0.30108
0.29814
0.29619
0.28837
0.28055
0.27273
0.26588
0.25806
0.2522
0.24731
0.23851
0.22678
0.21603
0.20332
0.17889
0.14761
0.12317
0.090909
0.065494
0.038123
0.029326
0.032258
0.041056
0.049853
0.042033
0.02346
0.001955
-0.0097752
-0.028348
-0.038123
-0.043011
-0.043988
-0.049853
-0.069404
-0.076246
-0.094819
-0.10655
-0.11437
-0.12708
-0.13294
-0.13392
-0.14076
-0.15054
-0.16325
-0.17498
-0.18475
-0.19648
-0.20039
-0.2043
-0.20039
-0.19355
-0.19453
-0.19746
-0.20235
-0.20723
-0.20626
-0.20821
-0.20332
-0.19062
-0.18084
-0.17498
-0.17693
-0.1828
-0.18671
-0.18964
-0.19062
-0.19159
-0.19844
-0.1955
-0.18768
-0.060606
0.071359
0.21505
0.26882
0.23754
0.099707
-0.1173
-0.31378
-0.34506
-0.25415
-0.17791
-0.13881
-0.11046
-0.069404
-0.030303
0.041056
0.090909
0.062561
0.081134
0.091887
0.174
0.26588
0.30596
0.3216
0.33529
0.34506
0.3871
0.46823
0.52199
0.52004
0.5259
0.5259
0.565
0.53763
0.47703
0.40665
0.37243
0.36364
0.37146
0.38807
0.40176
0.40665
0.41838
0.46334
0.49071
0.39687
0.32649
0.23851
0.21505
0.21505
0.14956
0.086022
0.048876
0.052786
0.090909
0.12121
0.15543
0.18377
0.20626
0.22092
0.23167
0.2434
0.25709
0.26784
0.27664
0.27761
0.27175
0.26002
0.25415
0.23754
0.21799
0.20528
0.19355
0.19453
0.19746
0.20137
0.18964
0.17498
0.16031
0.15543
0.14565
0.13685
0.1261
0.1261
0.13099
0.12317
0.096774
0.059629
0.073314
0.093842
0.11437
0.16911
0.10362
0.0068426
-0.26197
-0.47605
-0.55034
-0.45455
-0.2913
-0.14956
-0.052786
0.021505
0.054741
0.012708
-0.001955
0.016618
0.075269
0.088954
0.043988
0.013685
0.016618
0.049853
0.097752
0.14761
0.18768
0.22092
0.24927
0.26588
0.28152
0.28935
0.29912
0.30303
0.30499
0.30303
0.29423
0.27957
0.26197
0.24536
0.21505
0.19159
0.16618
0.1564
0.15249
0.14956
0.13685
0.11339
0.094819
0.083089
0.066471
0.044966
0.024438
0.016618
0.014663
0.0048876
-0.010753
-0.031281
-0.044966
-0.055718
-0.060606
-0.073314
-0.084066
-0.078201
-0.073314
-0.078201
-0.098729
-0.12219
-0.14076
-0.15445
-0.15543
-0.15543
-0.15347
-0.14174
-0.10557
-0.15152
-0.069404
0.060606
0.19355
0.28935
0.13587
-0.12512
-0.4653
-0.72336
-0.81232
-0.73998
-0.58651
-0.46921
-0.40078
-0.348
-0.30108
-0.24438
-0.20235
-0.24927
-0.23069
-0.20723
-0.12512
-0.076246
-0.061584
-0.036168
0.0068426
0.035191
-0.0068426
-0.01564
0.033236
0.16325
0.27077
0.26784
0.23363
0.18573
0.19453
0.20332
0.17498
0.093842
0.073314
0.096774
0.17595
0.19257
0.12805
0.061584
0.020528
0.014663
0.032258
0.053763
0.073314
0.10459
0.12805
0.14565
0.16129
0.17107
0.18475
0.18475
0.17693
0.15054
0.12317
0.1085
0.095797
0.096774
0.084066
0.088954
0.093842
0.10459
0.10753
0.10264
0.090909
0.078201
0.061584
0.033236
0.010753
0.044966
0.026393
0.079179
0.010753
-0.095797
-0.29619
-0.51222
-0.61486
-0.5435
-0.38123
-0.22385
-0.099707
-0.033236
0.0097752
0.063539
0.092864
0.035191
0.012708
0.001955
0.080156
0.174
0.17107
0.12512
0.089932
0.086022
0.11632
0.15543
0.19746
0.22678
0.25415
0.26686
0.27957
0.28739
0.29032
0.28641
0.28152
0.27175
0.2522
0.23363
0.21896
0.20039
0.18768
0.17107
0.1652
0.16813
0.17302
0.17302
0.16129
0.14076
0.12805
0.12219
0.10948
0.093842
0.081134
0.086022
0.090909
0.093842
0.079179
0.053763
0.040078
0.036168
0.028348
0.01564
0.0048876
-0.0029326
0.001955
0.0039101
-0.0068426
-0.028348
-0.053763
-0.063539
-0.072336
-0.079179
-0.087977
-0.089932
-0.086022
-0.085044
-0.086022
-0.10655
-0.13685
-0.16325
-0.17498
-0.19062
-0.19941
-0.21505
-0.21114
-0.20235
-0.19159
-0.18475
-0.19159
-0.19844
-0.21212
-0.21603
-0.1261
-0.049853
0.073314
0.099707
0.050831
-0.10264
-0.4174
-0.70186
-0.75953
-0.59824
-0.39687
-0.29717
-0.30205
-0.30499
-0.28348
-0.24927
-0.20332
-0.13881
-0.14858
-0.068426
-0.054741
0.017595
0.064516
0.089932
0.10362
0.1261
0.15543
0.19941
0.23851
0.27957
0.3392
0.37928
0.3783
0.37537
0.36657
0.3871
0.36168
0.28837
0.23167
0.19355
0.20821
0.22385
0.25318
0.2737
0.29521
0.3089
0.3216
0.33529
0.34702
0.34311
0.33431
0.31085
0.28446
0.26588
0.25611
0.23656
0.22483
0.20919
0.20919
0.2131
0.21701
0.2131
0.19062
0.17595
0.16911
0.16227
0.14858
0.12903
0.12023
0.12219
0.13001
0.13001
0.11828
0.093842
0.076246
0.069404
0.057674
0.046921
0.035191
0.031281
0.034213
0.041056
0.042033
0.022483
0
-0.010753
-0.012708
-0.012708
-0.016618
-0.024438
-0.025415
-0.01955
-0.012708
-0.021505
-0.043988
-0.065494
-0.079179
-0.086999
-0.088954
-0.093842
-0.090909
-0.080156
-0.062561
-0.051808
-0.068426
-0.1173
-0.13392
-0.026393
0.029326
0.19257
0.19453
0.13978
-0.048876
-0.3695
-0.63832
-0.67351
-0.46823
-0.19257
-0.035191
-0.028348
-0.098729
-0.16031
-0.18377
-0.15249
-0.089932
-0.089932
0.0068426
0.045943
0.1437
0.21408
0.21701
0.20723
0.19746
0.20528
0.22385
0.25122
0.27468
0.31769
0.36559
0.33529
0.34115
0.32258
0.33431
0.31183
0.24047
0.15836
0.1085
0.099707
0.12121
0.14858
0.17009
0.18866
0.20039
0.21408
0.23363
0.2522
0.26197
0.26979
0.26882
0.261
0.24438
0.23167
0.21603
0.19844
0.17595
0.16618
0.1652
0.16716
0.17107
0.15738
0.13587
0.11828
0.11828
0.11241
0.10655
0.096774
0.086022
0.076246
0.061584
0.10264
0.099707
0.090909
0.097752
-0.0078201
-0.11339
-0.36657
-0.55034
-0.61095
-0.50929
-0.35191
-0.21799
-0.14663
-0.10362
-0.12219
-0.0048876
0.013685
0.090909
0.076246
0.02737
-0.0068426
-0.036168
-0.059629
-0.046921
-0.00097752
0.051808
0.097752
0.13685
0.1652
0.19159
0.21017
0.22678
0.23851
0.23754
0.23851
0.22581
0.20332
0.19062
0.1828
0.16911
0.15934
0.14467
0.1437
0.15249
0.15934
0.15934
0.14663
0.12903
0.12023
0.11632
0.10459
0.091887
0.080156
0.083089
0.087977
0.091887
0.066471
0.044966
0.096774
0.099707
0.16129
0.11046
-0.0048876
-0.19941
-0.47507
-0.67155
-0.71359
-0.58358
-0.40469
-0.26002
-0.11241
0.022483
0.13685
0.1437
0.063539
-0.029326
-0.068426
-0.072336
-0.062561
-0.043011
-0.001955
0.035191
0.080156
0.11437
0.14467
0.17302
0.19355
0.21017
0.21896
0.22972
0.23949
0.24536
0.2346
0.21603
0.19062
0.17107
0.14956
0.13783
0.12023
0.11437
0.12708
0.13587
0.14076
0.13099
0.11241
0.091887
0.084066
0.082111
0.068426
0.052786
0.041056
0.048876
0.060606
0.066471
0.060606
0.041056
0.010753
-0.0078201
-0.012708
-0.025415
-0.038123
-0.053763
-0.060606
-0.060606
-0.056696
-0.058651
-0.072336
-0.097752
-0.12023
-0.1349
-0.14174
-0.15738
-0.16325
-0.17693
-0.17498
-0.16129
-0.14956
-0.14663
-0.16716
-0.19355
-0.21994
-0.22385
-0.22483
-0.22776
-0.22874
-0.23069
-0.2131
-0.18964
-0.16227
-0.14565
-0.16618
-0.19159
-0.079179
0.024438
0.21114
0.24242
0.18573
0.025415
-0.29912
-0.59238
-0.64125
-0.49267
-0.2825
-0.2131
-0.25611
-0.29032
-0.26979
-0.24145
-0.15836
-0.1437
-0.0097752
0.02737
0.081134
0.064516
0.054741
0.064516
0.084066
0.12708
0.17107
0.22678
0.26882
0.30596
0.33236
0.32649
0.4741
0.53666
0.5259
0.3998
0.21896
0.14663
0.12219
0.12805
0.1349
0.16911
0.19453
0.21896
0.23851
0.25709
0.27175
0.2825
0.28837
0.29619
0.29521
0.29032
0.28446
0.26882
0.24047
0.21114
0.18964
0.17498
0.1564
0.1437
0.13001
0.1349
0.14467
0.15738
0.16129
0.14663
0.12708
0.11144
0.1085
0.10655
0.10068
0.087977
0.073314
0.067449
0.12317
0.18866
0.19746
0.22385
0.10655
-0.0048876
-0.22776
-0.45455
-0.58456
-0.55034
-0.41349
-0.26784
-0.17986
-0.2219
-0.062561
0.053763
0.19844
0.19746
0.040078
-0.057674
-0.069404
-0.071359
-0.073314
-0.059629
-0.012708
0.030303
0.071359
0.1085
0.1437
0.1652
0.18671
0.20332
0.2131
0.22287
0.23265
0.23558
0.22678
0.20919
0.18671
0.16716
0.15347
0.13392
0.12512
0.10948
0.11535
0.12805
0.13294
0.14076
0.13196
0.11046
0.087977
0.073314
0.066471
0.049853
0.032258
0.01955
0.028348
0.036168
0.049853
0.055718
0.047898
0.026393
-0.001955
-0.025415
-0.036168
-0.048876
-0.062561
-0.078201
-0.082111
-0.070381
-0.051808
-0.047898
-0.046921
-0.065494
-0.092864
-0.11046
-0.12023
-0.13294
-0.14467
-0.15738
-0.16813
-0.16031
-0.15249
-0.13978
-0.14272
-0.15836
-0.18671
-0.21701
-0.23851
-0.24927
-0.25122
-0.25611
-0.25904
-0.25122
-0.24047
-0.25122
-0.25122
-0.053763
0.056696
0.28446
0.28152
0.19159
-0.0029326
-0.31672
-0.57771
-0.5914
-0.42326
-0.22385
-0.17204
-0.22776
-0.2737
-0.26784
-0.21994
-0.14174
-0.066471
0.012708
0.020528
0.053763
0.034213
0.025415
0.026393
0.036168
0.068426
0.11241
0.16129
0.20235
0.23265
0.27077
0.25024
0.3695
0.47116
0.53372
0.46921
0.28935
0.16227
0.11828
0.12023
0.12317
0.14761
0.17791
0.19941
0.22092
0.24633
0.25709
0.26882
0.27859
0.28543
0.28641
0.27957
0.27664
0.26979
0.27077
0.26686
0.26295
0.25611
0.25024
0.24633
0.23754
0.21701
0.17986
0.14174
0.11046
0.079179
0.065494
0.050831
0.058651
0.079179
0.094819
0.10166
0.088954
0.066471
0.044966
0.02737
0.01955
0.0097752
-0.0097752
-0.013685
-0.0048876
0.0048876
0.012708
0.01173
-0.001955
-0.028348
-0.057674
-0.079179
-0.096774
-0.1173
-0.13294
-0.14858
-0.15152
-0.13587
-0.12219
-0.11828
-0.11926
-0.12903
-0.14858
-0.174
-0.18866
-0.19941
-0.21114
-0.22581
-0.2346
-0.22874
-0.21408
-0.19648
-0.17693
-0.17009
-0.16031
-0.14663
-0.13001
-0.11632
-0.10557
-0.099707
-0.043011
-0.0039101
0.15445
0.28837
0.3998
0.3304
0.025415
-0.38319
-0.71554
-0.65494
-0.48974
-0.24536
-0.1828
-0.24536
-0.2913
-0.29423
-0.29717
-0.26882
-0.21505
-0.01955
0.049853
0.10362
0.063539
0.00097752
-0.01564
0.0078201
0.036168
0.089932
0.13196
0.18377
0.2219
0.28152
0.28348
0.37732
0.45552
0.56598
0.53763
0.39101
0.21799
0.11437
0.10362
0.10655
0.11828
0.14272
0.16422
0.18866
0.21799
0.2346
0.24829
0.24829
0.26002
0.26491
0.26882
0.26784
0.27077
0.26393
0.26295
0.26197
0.25904
0.26002
0.25122
0.24927
0.23656
0.22972
0.21701
0.20528
0.1955
0.18182
0.17595
0.16618
0.15934
0.15445
0.14565
0.1349
0.12512
0.12023
0.11046
0.10655
0.10264
0.099707
0.089932
0.086022
0.081134
0.073314
0.070381
0.064516
0.062561
0.054741
0.053763
0.048876
0.038123
0.031281
0.02346
0.017595
0.010753
0.0078201
0
-0.0078201
-0.021505
-0.02346
-0.029326
-0.034213
-0.043988
-0.051808
-0.052786
-0.062561
-0.063539
-0.071359
-0.072336
-0.073314
-0.068426
-0.067449
-0.061584
-0.052786
-0.050831
-0.062561
-0.071359
0.01173
0.11828
0.19453
0.1652
0.044966
-0.11339
-0.39394
-0.68231
-0.84164
-0.75269
-0.565
-0.42424
-0.42522
-0.48974
-0.51613
-0.5132
-0.40958
-0.3392
-0.19062
-0.1085
-0.043988
-0.030303
-0.076246
-0.10655
-0.10459
-0.089932
-0.047898
0
0.067449
0.12903
0.1828
0.19355
0.34018
0.44673
0.56696
0.47019
0.30401
0.16031
0.091887
0.096774
0.097752
0.12121
0.1564
0.18964
0.22385
0.24731
0.28348
0.32063
0.3216
0.31085
0.34897
0.43304
0.44868
0.3089
0.084066
-0.077224
-0.10948
-0.080156
-0.044966
-0.0097752
0.014663
0.01955
0.062561
0.15054
0.29912
0.41642
0.39101
0.24633
0.043988
-0.078201
-0.13196
-0.10362
-0.047898
0.0029326
0.074291
0.1173
0.16227
0.19746
0.22874
0.24536
0.25122
0.2522
0.25318
0.26393
0.27077
0.27761
0.27957
0.27761
0.25513
0.22678
0.19355
0.17009
0.14076
0.12708
0.10459
0.099707
0.11632
0.1261
0.13001
0.12023
0.10655
0.092864
0.086999
0.076246
0.048876
0.026393
0.012708
0.024438
0.034213
0.037146
0.02346
-0.0039101
-0.032258
-0.047898
-0.054741
-0.073314
-0.093842
-0.11339
-0.11241
-0.10264
-0.089932
-0.076246
-0.080156
-0.096774
-0.11632
-0.13196
-0.13783
-0.14956
-0.15934
-0.17595
-0.18377
-0.17302
-0.1564
-0.14076
-0.14076
-0.1564
-0.18573
-0.20235
-0.20528
-0.21212
-0.22483
-0.2434
-0.24536
-0.23265
-0.20528
-0.17302
-0.13881
-0.1173
-0.10166
-0.11241
-0.15249
-0.073314
0.099707
0.21701
0.29032
0.22092
0.11144
-0.10459
-0.3695
-0.58065
-0.55523
-0.36364
-0.1564
-0.1085
-0.18573
-0.26784
-0.24633
-0.13196
-0.11144
-0.038123
-0.073314
-0.038123
0.0078201
0.020528
0.035191
0.068426
0.13587
0.24242
0.32063
0.33529
0.3695
0.3089
0.30596
0.24536
0.18084
0.12903
0.12317
0.13685
0.16618
0.19062
0.22092
0.24731
0.26588
0.28935
0.31281
0.34604
0.37243
0.35973
0.33236
0.35679
0.41349
0.3783
0.22483
0.0039101
-0.14076
-0.15445
-0.12121
-0.078201
-0.034213
-0.01564
-0.01173
0.02346
0.1261
0.26393
0.32845
0.22678
0.044966
-0.13196
-0.21114
-0.20723
-0.16911
-0.097752
-0.035191
0.037146
0.085044
0.12121
0.16618
0.1955
0.22092
0.23069
0.23069
0.23754
0.24731
0.25806
0.26393
0.26979
0.26393
0.25415
0.24438
0.23754
0.23069
0.22776
0.22483
0.21896
0.21114
0.20137
0.19355
0.18671
0.17693
0.174
0.16618
0.15934
0.15152
0.1437
0.13783
0.13001
0.12903
0.12708
0.11632
0.10655
0.098729
0.086999
0.081134
0.071359
0.062561
0.053763
0.043988
0.036168
0.026393
0.01955
0.0087977
0
-0.01564
-0.031281
-0.048876
-0.069404
-0.083089
-0.096774
-0.10753
-0.12121
-0.12805
-0.14174
-0.15152
-0.15934
-0.15934
-0.1564
-0.15152
-0.14467
-0.14076
-0.14174
-0.15445
-0.15934
-0.057674
0.031281
0.085044
0.00097752
-0.1437
-0.30401
-0.54643
-0.81232
-1
-0.99902
-0.76442
-0.53959
-0.42913
-0.46139
-0.56794
-0.5914
-0.57576
-0.50635
-0.37439
-0.30792
-0.10068
-0.054741
-0.0087977
-0.085044
-0.13001
-0.1173
-0.091887
-0.064516
-0.01173
0.032258
0.087977
0.14663
0.18377
0.37341
0.46628
0.46041
0.29423
0.086022
-0.001955
0.0078201
0.022483
0.034213
0.044966
0.064516
0.097752
0.13001
0.16618
0.20919
0.25904
0.27664
0.25709
0.25806
0.31085
0.34897
0.2522
0.079179
-0.10264
-0.18475
-0.16618
-0.13392
0.25806
