-0.12602
-0.22358
-0.3313
-0.51829
-0.64024
-0.69106
-0.67276
-0.56707
-0.43902
-0.35366
-0.26626
-0.18902
-0.089431
-0.0081301
0.038618
0.052846
0
-0.093496
-0.22967
-0.20122
0.058943
0.43089
0.65244
0.60366
0.33333
0.056911
-0.075203
-0.21748
-0.29878
-0.44919
-0.59553
-0.69309
-0.70122
-0.62805
-0.54675
-0.44106
-0.36789
-0.29878
-0.19309
-0.12805
-0.054878
-0.04065
-0.04878
-0.11179
-0.21951
-0.22358
-0.004065
0.3435
0.62195
0.62602
0.37602
0.095528
-0.050813
-0.23171
-0.35366
-0.5
-0.6626
-0.6626
-0.71545
-0.72154
-0.64024
-0.52846
-0.39024
-0.31911
-0.22764
-0.14837
-0.081301
-0.020325
0.01626
-0.014228
-0.065041
-0.19919
-0.26626
-0.15244
0.19309
0.52236
0.62602
0.45732
0.15041
-0.04065
-0.18902
-0.30894
-0.43699
-0.65244
-0.7378
-0.76829
-0.71748
-0.5874
-0.5061
-0.4187
-0.36382
-0.27236
-0.19309
-0.11992
-0.087398
-0.073171
-0.13618
-0.23171
-0.30894
-0.21951
0.087398
0.45935
0.64431
0.54675
0.26016
0.026423
-0.099593
-0.22561
-0.36179
-0.57927
-0.70325
-0.76016
-0.73374
-0.62805
-0.52439
-0.43089
-0.37195
-0.29472
-0.20732
-0.13008
-0.10569
-0.16057
-0.2439
-0.21138
0.014228
0.3374
0.57114
0.55691
0.31911
0.073171
-0.10569
-0.12602
-0.23374
-0.30691
-0.5
-0.65854
-0.69919
-0.67073
-0.55081
-0.43699
-0.28252
-0.20732
-0.10366
-0.018293
0.065041
0.14024
0.16667
0.14837
0.075203
-0.012195
-0.077236
0.063008
0.39837
0.70528
0.80285
0.59959
0.28862
0.060976
-0.11992
-0.29472
-0.45122
-0.62602
-0.70732
-0.73577
-0.68902
-0.59959
-0.5061
-0.43699
-0.35569
-0.27033
-0.16667
-0.091463
-0.13211
-0.20935
-0.23171
-0.11382
0.16667
0.44512
0.53252
0.40244
0.16463
-0.079268
-0.15041
-0.20528
-0.29878
-0.42683
-0.62602
-0.72154
-0.71748
-0.66463
-0.52236
-0.4065
-0.30081
-0.21545
-0.14024
-0.052846
0.018293
0.058943
0.073171
0.010163
-0.054878
-0.17073
-0.14634
0.12195
0.4939
0.73577
0.69309
0.42276
0.13211
0.018293
-0.17683
-0.30285
-0.51016
-0.6565
-0.7439
-0.73984
-0.6748
-0.60366
-0.52846
-0.44715
-0.36382
-0.26626
-0.17276
-0.13618
-0.15041
-0.20122
-0.27033
-0.19106
0.077236
0.4248
0.63618
0.59959
0.36992
0.11382
-0.022358
-0.056911
-0.18293
-0.31504
-0.55894
-0.73171
-0.7622
-0.71545
-0.61585
-0.50407
-0.42276
-0.31301
-0.20325
-0.10976
-0.046748
-0.01626
-0.010163
-0.050813
-0.12398
-0.21748
-0.12602
0.18902
0.55691
0.75
0.64837
0.35772
0.093496
-0.018293
-0.18089
-0.31301
-0.56911
-0.76423
-0.82114
-0.81911
-0.72358
-0.66463
-0.58537
-0.50203
-0.38821
-0.28659
-0.19919
-0.16463
-0.14431
-0.16667
-0.21748
-0.28252
-0.19919
0.10976
0.49797
0.75203
0.72764
0.44309
0.14837
0.028455
-0.069106
-0.17276
-0.39837
-0.63821
-0.74797
-0.74797
-0.6687
-0.60366
-0.52642
-0.43293
-0.32724
-0.21545
-0.13618
-0.10569
-0.085366
-0.10772
-0.14634
-0.22154
-0.18699
0.079268
0.46138
0.75
0.77236
0.53455
0.21341
0.034553
-0.034553
-0.18293
-0.33333
-0.60772
-0.75
-0.78455
-0.73984
-0.67683
-0.61585
-0.53862
-0.43089
-0.32114
-0.22358
-0.17276
-0.1626
-0.1748
-0.20935
-0.29675
-0.27642
-0.054878
0.33537
0.6687
0.7622
0.56707
0.26016
0.04878
-0.014228
-0.16057
-0.28252
-0.55691
-0.72967
-0.78455
-0.74593
-0.65854
-0.58537
-0.5
-0.40447
-0.30285
-0.20935
-0.14837
-0.13008
-0.12602
-0.16057
-0.25813
-0.27642
-0.13821
0.23984
0.61992
0.79675
0.66463
0.37398
0.10366
0.0020325
-0.12195
-0.24593
-0.5061
-0.71951
-0.78659
-0.77439
-0.66463
-0.61992
-0.54675
-0.44309
-0.32927
-0.22358
-0.15854
-0.11789
-0.11179
-0.11789
-0.15447
-0.16463
0.020325
0.4187
0.76829
0.82317
0.58333
0.22764
-0.052846
-0.25813
-0.49187
-0.68089
-0.80488
-0.80285
-0.69309
-0.56098
-0.41057
-0.29472
-0.18902
-0.081301
-0.0060976
0.083333
0.13008
0.17073
0.1748
0.12195
0.022358
-0.044715
0.071138
0.41463
0.7622
0.86789
0.6748
0.30081
-0.020325
-0.24593
-0.40854
-0.51829
-0.61789
-0.66057
-0.6687
-0.65244
-0.58333
-0.52846
-0.45122
-0.35569
-0.25407
-0.17073
-0.13415
-0.13211
-0.15041
-0.21138
-0.31301
-0.33537
-0.16057
0.22358
0.58943
0.72764
0.55081
0.23577
0.03252
-0.079268
-0.24187
-0.45528
-0.70732
-0.84553
-0.87195
-0.81098
-0.76016
-0.67073
-0.59756
-0.45732
-0.34553
-0.26423
-0.22764
-0.19919
-0.20122
-0.22561
-0.29878
-0.30691
-0.13211
0.2561
0.64228
0.78659
0.63415
0.31911
0.097561
0.0020325
-0.17683
-0.32724
-0.58943
-0.76016
-0.79065
-0.77846
-0.70122
-0.63008
-0.54065
-0.43496
-0.3252
-0.22154
-0.1748
-0.14837
-0.14837
-0.17073
-0.23577
-0.27642
-0.17276
0.15854
0.53659
0.77642
0.70732
0.43293
0.1748
0.044715
-0.10163
-0.2622
-0.50407
-0.72561
-0.80285
-0.78659
-0.71138
-0.64228
-0.56504
-0.45122
-0.34756
-0.23577
-0.19512
-0.20528
-0.23577
-0.28049
-0.21951
-0.0020325
0.34553
0.59756
0.60366
0.37602
0.071138
-0.11789
-0.17886
-0.27642
-0.41463
-0.64228
-0.74797
-0.76626
-0.70122
-0.5874
-0.46341
-0.36179
-0.24797
-0.15244
-0.042683
0.018293
0.044715
0.052846
0.028455
-0.018293
-0.11992
-0.11382
0.069106
0.44512
0.77439
0.84553
0.62398
0.33943
0.077236
-0.13821
-0.34959
-0.53659
-0.67683
-0.73577
-0.71545
-0.66057
-0.5813
-0.49593
-0.41057
-0.31301
-0.19715
-0.10976
-0.10366
-0.19715
-0.27236
-0.28049
-0.04878
0.28252
0.55488
0.60163
0.43293
0.17886
-0.02439
-0.11179
-0.18902
-0.26829
-0.47358
-0.67683
-0.73984
-0.74187
-0.63415
-0.55488
-0.4248
-0.31911
-0.21748
-0.10366
-0.022358
0.026423
0.02439
0.028455
-0.028455
-0.099593
-0.15447
-0.036585
0.30894
0.6687
0.84756
0.71748
0.39431
0.1565
-0.018293
-0.20935
-0.41463
-0.69106
-0.82724
-0.83943
-0.82724
-0.73984
-0.6748
-0.57114
-0.45325
-0.33943
-0.24187
-0.21341
-0.18902
-0.18293
-0.19309
-0.21748
-0.2622
-0.18089
0.13821
0.53049
0.79878
0.78455
0.52642
0.23171
0.046748
-0.11585
-0.30488
-0.55894
-0.79065
-0.87195
-0.86992
-0.79675
-0.71138
-0.62602
-0.49593
-0.38821
-0.27439
-0.20325
-0.1687
-0.15854
-0.15854
-0.19919
-0.26423
-0.24593
-0.004065
0.39431
0.73171
0.8313
0.60569
0.29268
0.083333
-0.02439
-0.20325
-0.40854
-0.68699
-0.83537
-0.85976
-0.80488
-0.71545
-0.64228
-0.52846
-0.41667
-0.30488
-0.21748
-0.18699
-0.1748
-0.17886
-0.1748
-0.23577
-0.25203
-0.13211
0.22561
0.61992
0.8313
0.77846
0.49797
0.23577
0.071138
-0.075203
-0.25813
-0.50407
-0.74797
-0.80691
-0.81098
-0.7378
-0.65447
-0.55488
-0.44309
-0.32317
-0.23577
-0.1748
-0.1626
-0.16667
-0.17886
-0.20528
-0.26016
-0.21951
0.04065
0.44106
0.77642
0.85163
0.66057
0.35163
0.14431
0.018293
-0.1626
-0.37805
-0.65244
-0.81707
-0.83333
-0.80691
-0.71951
-0.66057
-0.53862
-0.43699
-0.31707
-0.2378
-0.19715
-0.19715
-0.20935
-0.25407
-0.30081
-0.22154
0.069106
0.47967
0.7439
0.71138
0.40244
0.10976
-0.012195
-0.14634
-0.29268
-0.52642
-0.72967
-0.79675
-0.76829
-0.68496
-0.60163
-0.48984
-0.37602
-0.25203
-0.15244
-0.069106
-0.069106
-0.10569
-0.17073
-0.23171
-0.17683
0.073171
0.44919
0.72967
0.75813
0.54472
0.2561
0.063008
-0.014228
-0.13008
-0.29878
-0.54065
-0.73374
-0.75203
-0.73984
-0.63415
-0.54268
-0.42276
-0.31504
-0.19309
-0.10163
-0.036585
-0.014228
-0.020325
-0.04878
-0.099593
-0.20122
-0.20528
-0.044715
0.32724
0.69309
0.85772
0.72764
0.45122
0.22967
0.079268
-0.12195
-0.32114
-0.61789
-0.77846
-0.8313
-0.80691
-0.73171
-0.65041
-0.54878
-0.44309
-0.3374
-0.2439
-0.20325
-0.20935
-0.20528
-0.17886
-0.10772
0.050813
0.35772
0.63211
0.70935
0.50203
0.14634
-0.14228
-0.38618
-0.56707
-0.76829
-0.8374
-0.82114
-0.72764
-0.60366
-0.44106
-0.30488
-0.17073
-0.073171
0.036585
0.10569
0.14634
0.13821
0.14634
0.14634
0.091463
0.014228
-0.042683
0.054878
0.41667
0.76423
0.99797
0.88415
0.55691
0.20528
-0.054878
-0.27033
-0.35772
-0.52439
-0.5935
-0.64024
-0.64024
-0.60569
-0.54472
-0.45325
-0.31504
-0.20732
-0.10163
-0.083333
-0.13008
-0.20528
-0.27642
-0.28862
-0.18496
0.14024
0.45732
0.63618
0.53455
0.2439
0.030488
-0.056911
-0.23577
-0.39431
-0.6626
-0.79675
-0.80488
-0.77033
-0.6565
-0.56301
-0.4126
-0.30894
-0.20122
-0.10976
-0.044715
-0.030488
-0.020325
-0.030488
-0.071138
-0.12398
-0.20732
-0.19106
0.067073
0.44512
0.77033
0.81098
0.60366
0.31301
0.13008
-0.018293
-0.22561
-0.48374
-0.7378
-0.87195
-0.88211
-0.84756
-0.78049
-0.70325
-0.59146
-0.46341
-0.37805
-0.30488
-0.29472
-0.29268
-0.30081
-0.29878
-0.29878
-0.15041
0.17073
0.55285
0.74593
0.63008
0.32114
0.054878
-0.22154
-0.42886
-0.70528
-0.85163
-0.88821
-0.84959
-0.72154
-0.5813
-0.43293
-0.27439
-0.15854
-0.058943
0.03252
0.073171
0.097561
0.10569
0.097561
0.10772
0.13618
0.27439
0.54472
0.79472
0.8374
0.56504
0.11992
-0.27846
-0.53862
-0.73374
-0.78455
-0.79878
-0.72154
-0.60772
-0.44512
-0.32114
-0.17683
-0.091463
0.010163
0.11585
0.15854
0.17683
0.1626
0.14024
0.097561
0.04065
-0.067073
-0.11789
0.04065
0.42683
0.81911
1
0.81504
0.41463
0.081301
-0.13008
-0.29675
-0.36992
-0.52236
-0.62602
-0.70325
-0.72967
-0.71138
-0.63821
-0.54878
-0.43089
-0.33943
-0.28862
-0.27846
-0.3313
-0.36179
-0.40447
-0.37398
-0.19512
0.18089
0.54268
0.69715
0.54472
0.24187
0.030488
-0.079268
-0.21951
-0.42886
-0.68089
-0.78862
-0.80081
-0.76423
-0.64228
-0.52846
-0.38415
-0.2622
-0.17073
-0.079268
-0.04065
-0.014228
-0.034553
-0.022358
-0.046748
-0.10366
-0.18496
-0.19106
0.02439
0.41463
0.76829
0.88008
0.73171
0.43293
0.21138
0.081301
-0.11992
-0.34553
-0.64634
-0.81911
-0.88008
-0.84553
-0.78862
-0.69512
-0.57724
-0.48171
-0.36382
-0.31707
-0.28049
-0.27033
-0.22561
-0.23374
-0.25
-0.30894
-0.27642
-0.026423
0.35163
0.69919
0.80894
0.66667
0.38415
0.15244
0.04065
-0.10163
-0.25407
-0.53252
-0.78049
-0.85569
-0.84959
-0.74593
-0.67276
-0.55488
-0.44919
-0.32927
-0.2439
-0.21748
-0.22561
-0.21545
-0.22358
-0.23984
-0.29268
-0.27846
-0.095528
0.27236
0.63821
0.80081
0.70732
0.46138
0.20122
0.067073
-0.046748
-0.20732
-0.46341
-0.70325
-0.86382
-0.87602
-0.82317
-0.76016
-0.65041
-0.53862
-0.41667
-0.32927
-0.27642
-0.26423
-0.26626
-0.25
-0.25203
-0.29675
-0.29065
-0.16667
0.15854
0.56301
0.77033
0.77846
0.54065
0.27033
0.087398
0.0060976
-0.14228
-0.29675
-0.5935
-0.76016
-0.81504
-0.78455
-0.71748
-0.61585
-0.47764
-0.3435
-0.25813
-0.23984
-0.27642
-0.28659
-0.24593
-0.11789
0.10772
0.37398
0.47358
0.38008
0.04878
-0.19512
-0.32317
-0.38415
-0.45122
-0.61179
-0.70732
-0.71545
-0.68089
-0.52439
-0.38008
-0.21138
-0.071138
0.02439
0.13821
0.20732
0.27236
0.27846
0.28659
0.29472
0.3252
0.34146
0.38821
0.48984
0.53862
0.48171
0.18293
-0.19512
-0.55691
-0.77642
-0.89024
-0.87805
-0.77439
-0.65854
-0.49187
-0.34553
-0.23171
-0.12398
-0.020325
0.081301
0.16463
0.19919
0.21748
0.24593
0.27439
0.27439
0.27439
0.30081
0.46138
0.65244
0.58537
0.32114
-0.1687
-0.55691
-0.77439
-0.85163
-0.87398
-0.78049
-0.65854
-0.53049
-0.40447
-0.31911
-0.22561
-0.10976
0.004065
0.065041
0.077236
0.054878
0.046748
0.04065
0.02439
0.0060976
-0.004065
0.063008
0.26016
0.5752
0.74593
0.6565
0.32927
-0.060976
-0.32927
-0.53252
-0.70122
-0.82317
-0.82927
-0.79268
-0.69309
-0.60366
-0.47358
-0.36789
-0.28455
-0.23577
-0.22154
-0.21545
-0.1748
-0.13415
-0.089431
-0.081301
-0.087398
-0.069106
0.11789
0.43293
0.73374
0.79878
0.61585
0.26423
-0.0020325
-0.11789
-0.21545
-0.29268
-0.45528
-0.63211
-0.74797
-0.82317
-0.8435
-0.78455
-0.68293
-0.56301
-0.47358
-0.45325
-0.44919
-0.47358
-0.46951
-0.42276
-0.31098
-0.085366
0.2378
0.55894
0.64837
0.4878
0.18089
0.0081301
-0.17683
-0.31504
-0.60976
-0.81911
-0.9065
-0.88618
-0.79878
-0.69106
-0.57317
-0.40041
-0.27439
-0.17886
-0.12805
-0.13008
-0.099593
-0.018293
0.10163
0.25
0.37805
0.50407
0.56098
0.45122
0.20935
-0.11585
-0.4065
-0.64837
-0.82724
-0.9187
-0.86382
-0.80285
-0.64837
-0.5122
-0.36789
-0.26423
-0.17276
-0.091463
-0.012195
0.046748
0.04878
0.044715
0.02439
0.022358
0.01626
0.069106
0.17276
0.41057
0.63211
0.64837
0.45528
0.026423
-0.30894
-0.59146
-0.76016
-0.87602
-0.93496
-0.9065
-0.77439
-0.65244
-0.4878
-0.38618
-0.25407
-0.14024
-0.046748
0.020325
0.038618
0.012195
0.022358
0.038618
0.083333
0.18089
0.30081
0.51626
0.56707
0.38821
0.0060976
-0.39228
-0.5935
-0.6748
-0.70325
-0.72358
-0.65447
-0.61382
-0.50407
-0.4126
-0.30488
-0.19106
-0.10163
-0.02439
0.012195
0.012195
0
-0.02439
-0.036585
-0.056911
-0.095528
-0.1565
-0.21138
-0.1748
0.075203
0.45528
0.80691
0.90447
0.68496
0.32927
0.087398
-0.10366
-0.25813
-0.45935
-0.66667
-0.76626
-0.8374
-0.83537
-0.79878
-0.70732
-0.58943
-0.47764
-0.39431
-0.34959
-0.33537
-0.30285
-0.25203
-0.22764
-0.22154
-0.28049
-0.28659
-0.16463
0.14024
0.51829
0.75
0.7439
0.54472
0.26626
0.056911
-0.065041
-0.25407
-0.40447
-0.62602
-0.75
-0.81098
-0.81504
-0.74797
-0.66463
-0.51626
-0.4065
-0.33537
-0.30488
-0.30285
-0.29065
-0.26016
-0.23374
-0.22154
-0.22154
-0.18699
-0.026423
0.27846
0.60772
0.77642
0.7439
0.53252
0.26626
0.052846
-0.038618
-0.16463
-0.31301
-0.57114
-0.77236
-0.84959
-0.85772
-0.81098
-0.73577
-0.61585
-0.50407
-0.42073
-0.37602
-0.36789
-0.35569
-0.31707
-0.28252
-0.26016
-0.27846
-0.25
-0.11382
0.18293
0.51626
0.70732
0.70528
0.51626
0.27236
0.065041
-0.020325
-0.13618
-0.29065
-0.53049
-0.7439
-0.81504
-0.81504
-0.76829
-0.67276
-0.54675
-0.42886
-0.3313
-0.29268
-0.27439
-0.26423
-0.22358
-0.18496
-0.16667
-0.1748
-0.1565
-0.044715
0.23984
0.57724
0.79675
0.81301
0.64431
0.39431
0.17276
0.063008
-0.04878
-0.21951
-0.45122
-0.67886
-0.78455
-0.79878
-0.74797
-0.69106
-0.56301
-0.44106
-0.33943
-0.28252
-0.25813
-0.23984
-0.21545
-0.21545
-0.23171
-0.28455
-0.23374
0.0020325
0.40041
0.73171
0.80285
0.64228
0.34146
0.14634
0.058943
-0.063008
-0.21545
-0.49187
-0.68699
-0.7622
-0.77033
-0.68293
-0.60976
-0.46748
-0.3374
-0.22561
-0.17073
-0.1565
-0.16463
-0.15854
-0.14431
-0.15447
-0.17886
-0.22358
-0.17073
0.060976
0.41057
0.72154
0.80894
0.69309
0.45732
0.21748
0.093496
0.018293
-0.1687
-0.37805
-0.66667
-0.81504
-0.84146
-0.81301
-0.7439
-0.63211
-0.50407
-0.38821
-0.32724
-0.30488
-0.30894
-0.28659
-0.21951
-0.11992
-0.004065
0.18699
0.44512
0.63618
0.5874
0.34959
0.093496
-0.14634
-0.32724
-0.57724
-0.76016
-0.82724
-0.78659
-0.67073
-0.51829
-0.36585
-0.2439
-0.14634
-0.069106
0.012195
0.067073
0.093496
0.099593
0.12805
0.1748
0.19309
0.20528
0.16667
0.1626
0.33333
0.69512
0.95528
0.90447
0.51016
-0.012195
-0.4248
-0.70325
-0.84959
-0.89228
-0.80081
-0.69106
-0.54675
-0.43089
-0.30894
-0.20732
-0.10772
-0.03252
0.026423
0.063008
0.085366
0.11585
0.081301
0.036585
-0.0020325
-0.065041
-0.077236
-0.004065
0.25203
0.58333
0.80285
0.78659
0.58333
0.31301
0.095528
-0.0020325
-0.15447
-0.25203
-0.4248
-0.62398
-0.72967
-0.81911
-0.83537
-0.77236
-0.67683
-0.57927
-0.5122
-0.4939
-0.46138
-0.43699
-0.38008
-0.3374
-0.30081
-0.26016
-0.20732
-0.046748
0.29472
0.62602
0.80285
0.74187
0.46951
0.17886
0.010163
-0.056911
-0.23374
-0.39228
-0.66463
-0.8313
-0.85772
-0.8435
-0.77846
-0.70122
-0.55691
-0.44512
-0.38008
-0.32724
-0.31301
-0.27642
-0.20528
-0.16463
-0.13008
-0.15854
-0.15447
-0.026423
0.24797
0.56707
0.76016
0.73577
0.55285
0.30081
0.093496
-0.0060976
-0.14228
-0.27846
-0.53862
-0.75813
-0.82724
-0.84146
-0.78049
-0.70325
-0.5935
-0.45528
-0.38821
-0.33943
-0.31098
-0.25407
-0.18293
-0.13415
-0.13618
-0.14837
-0.15244
-0.065041
0.20528
0.51016
0.74187
0.78049
0.61789
0.38618
0.14024
0.014228
-0.065041
-0.25203
-0.45528
-0.69512
-0.80081
-0.8374
-0.79472
-0.73374
-0.62805
-0.48374
-0.39228
-0.31098
-0.29268
-0.27642
-0.24797
-0.18902
-0.1687
-0.15447
-0.18496
-0.17073
-0.018293
0.26829
0.57317
0.73374
0.69106
0.50203
0.25407
0.054878
-0.020325
-0.1687
-0.31504
-0.56911
-0.77439
-0.8435
-0.84146
-0.77033
-0.69512
-0.59146
-0.50813
-0.43902
-0.38821
-0.32927
-0.28049
-0.19512
-0.11992
-0.0060976
0.11992
0.4126
0.63415
0.71138
0.53049
0.26423
0.018293
-0.18699
-0.38821
-0.64431
-0.76829
-0.79065
-0.74593
-0.61382
-0.47561
-0.3435
-0.23577
-0.14634
-0.071138
-0.022358
-0.0060976
-0.012195
-0.0081301
0.030488
0.056911
0.077236
0.073171
0.042683
0.093496
0.32317
0.68902
0.86382
0.72764
0.28659
-0.19715
-0.54675
-0.81504
-0.89634
-0.87602
-0.78455
-0.64634
-0.48577
-0.34959
-0.2378
-0.13008
-0.034553
0.060976
0.11789
0.13821
0.14024
0.13211
0.12398
0.11789
0.060976
0.010163
-0.01626
0.13211
0.46951
0.76829
0.85366
0.65041
0.34146
0.13821
-0.026423
-0.17073
-0.37195
-0.55691
-0.64837
-0.70528
-0.68902
-0.64431
-0.55081
-0.43902
-0.34553
-0.2622
-0.22764
-0.20325
-0.17276
-0.15041
-0.11585
-0.081301
-0.04065
0.04878
0.26016
0.53862
0.69715
0.64024
0.44309
0.14024
-0.13821
-0.47358
-0.77642
-0.94106
-0.94512
-0.88821
-0.76829
-0.63618
-0.50813
-0.39634
-0.29065
-0.20935
-0.12805
-0.089431
-0.054878
-0.014228
0.052846
0.13211
0.20122
0.29065
0.37805
0.46951
0.42886
0.25407
-0.054878
-0.37195
-0.66463
-0.83537
-0.90244
-0.87195
-0.75407
-0.61992
-0.5
-0.36992
-0.28049
-0.21341
-0.14634
-0.10366
-0.060976
-0.052846
-0.046748
-0.026423
0
0.0060976
-0.0081301
-0.026423
-0.044715
0.071138
0.38008
0.74593
0.90854
0.76423
0.37602
-0.075203
-0.43902
-0.72764
-0.9065
-0.9248
-0.86585
-0.7561
-0.60163
-0.46341
-0.32114
-0.18496
-0.071138
0
0.012195
-0.012195
-0.038618
-0.065041
-0.071138
-0.091463
-0.12195
-0.16463
-0.20122
-0.14634
0.042683
0.36382
0.65244
0.7561
0.67073
0.45325
0.21951
0.038618
-0.03252
-0.20325
-0.29675
-0.53862
-0.68699
-0.80285
-0.85163
-0.82927
-0.76423
-0.64634
-0.54878
-0.48374
-0.43089
-0.39837
-0.35976
-0.31504
-0.29472
-0.27033
-0.27439
-0.25
-0.13618
0.12805
0.48171
0.7561
0.80081
0.61992
0.30285
0.054878
-0.042683
-0.16463
-0.3252
-0.59553
-0.83537
-0.90041
-0.88008
-0.80488
-0.71545
-0.61789
-0.50407
-0.4126
-0.35569
-0.30285
-0.28455
-0.22764
-0.18089
-0.16057
-0.16463
-0.21341
-0.23374
-0.17073
0.052846
0.36585
0.61789
0.68293
0.57114
0.34959
0.12195
-0.034553
-0.069106
-0.2439
-0.40244
-0.66463
-0.82317
-0.86789
-0.84553
-0.80081
-0.71951
-0.60569
-0.51626
-0.44512
-0.4126
-0.35772
-0.28862
-0.19309
-0.11585
-0.060976
-0.073171
-0.097561
-0.058943
0.12602
0.43293
0.70122
0.79878
0.71951
0.5122
0.25813
0.028455
-0.1626
-0.38618
-0.51626
-0.62195
-0.65244
-0.62398
-0.5935
-0.54675
-0.46341
-0.37805
-0.30894
-0.26423
-0.23984
-0.21545
-0.18089
-0.14634
-0.12398
-0.14431
-0.19919
-0.24187
-0.21951
-0.050813
0.24797
0.55081
0.70122
0.66463
0.47764
0.24187
0.050813
-0.028455
-0.13008
-0.27236
-0.51016
-0.70528
-0.77846
-0.80081
-0.7622
-0.72561
-0.63008
-0.53252
-0.45122
-0.39837
-0.35976
-0.30691
-0.21138
-0.10976
-0.014228
0.085366
0.22358
0.47764
0.76829
0.87195
0.69715
0.28862
-0.083333
-0.34959
-0.56301
-0.67683
-0.72764
-0.68089
-0.5935
-0.49797
-0.38618
-0.28455
-0.20122
-0.13821
-0.099593
-0.071138
-0.056911
-0.063008
-0.071138
-0.030488
0.010163
0.034553
0.030488
0.010163
-0.012195
0.081301
0.40447
0.76016
0.92073
0.78455
0.38821
-0.058943
-0.43902
-0.70122
-0.82317
-0.80081
-0.7439
-0.62805
-0.49797
-0.38821
-0.28049
-0.18496
-0.093496
-0.018293
0.044715
0.10569
0.1687
0.21748
0.18699
0.14837
0.093496
0.036585
0.01626
0.11382
0.4187
0.72967
0.8435
0.64837
0.30488
0.04878
-0.1565
-0.28862
-0.47358
-0.60366
-0.6626
-0.69106
-0.65244
-0.60976
-0.54065
-0.47358
-0.40244
-0.36789
-0.35976
-0.38618
-0.36992
-0.34553
-0.31301
-0.26423
-0.21748
-0.12195
0.073171
0.32724
0.49593
0.45935
0.31504
-0.004065
-0.24593
-0.54472
-0.76016
-0.88618
-0.86789
-0.79878
-0.6626
-0.54878
-0.43293
-0.33333
-0.23984
-0.15041
-0.10772
-0.077236
-0.073171
-0.054878
-0.046748
-0.018293
0.010163
0.028455
0.01626
-0.02439
0.010163
0.22154
0.59959
0.90244
0.88008
0.62602
0.21138
-0.17683
-0.45935
-0.70325
-0.80894
-0.77033
-0.71545
-0.60772
-0.51829
-0.4248
-0.35976
-0.28659
-0.21138
-0.18699
-0.18293
-0.17683
-0.17073
-0.11585
-0.11992
-0.099593
-0.15447
-0.17073
-0.14634
0.056911
0.38211
0.68293
0.79878
0.63211
0.33537
0.079268
0.014228
-0.13211
-0.25203
-0.46748
-0.65041
-0.72358
-0.78862
-0.77236
-0.71951
-0.5935
-0.4878
-0.34959
-0.30488
-0.2378
-0.20732
-0.13618
-0.089431
-0.042683
-0.014228
0.004065
0.10772
0.31301
0.57927
0.6626
0.53252
0.19106
-0.13211
-0.36992
-0.57317
-0.70732
-0.77033
-0.73577
-0.63821
-0.55691
-0.43699
-0.34146
-0.26626
-0.20935
-0.15041
-0.14024
-0.12398
-0.12195
-0.11992
-0.065041
-0.026423
0.014228
0.046748
0.15041
0.27236
0.33333
0.31911
0.2378
0.095528
-0.087398
-0.3435
-0.56911
-0.76016
-0.80285
-0.76626
-0.66057
-0.53252
-0.39024
-0.27846
-0.20325
-0.13008
-0.087398
-0.044715
-0.042683
-0.038618
-0.034553
-0.014228
-0.012195
-0.012195
-0.036585
-0.085366
-0.14024
-0.15244
-0.026423
0.24187
0.5813
0.79878
0.86382
0.70935
0.46341
0.14228
-0.19919
-0.48577
-0.70732
-0.77439
-0.76829
-0.70732
-0.64024
-0.55691
-0.45325
-0.32317
-0.20935
-0.1626
-0.14634
-0.1748
-0.19106
-0.20935
-0.21748
-0.22764
-0.24593
-0.28862
-0.28455
-0.18089
0.071138
0.38618
0.60569
0.61789
0.46341
0.23577
0.034553
-0.11789
-0.13415
-0.2561
-0.29878
-0.45325
-0.59146
-0.70325
-0.77846
-0.76829
-0.71748
-0.61789
-0.54065
-0.48984
-0.43699
-0.4187
-0.38211
-0.34553
-0.30691
-0.26829
-0.2622
-0.26016
-0.21951
-0.060976
0.23984
0.51829
0.63618
0.51016
0.28455
0.12805
-0.0060976
-0.20732
-0.53049
-0.81098
-0.97764
-1
-0.94512
-0.87195
-0.7561
-0.64837
-0.54065
-0.46951
-0.41667
-0.37805
-0.3435
-0.32317
-0.27642
-0.25407
-0.22764
-0.24593
-0.28049
-0.31301
-0.25203
-0.04065
0.28049
0.56504
0.71545
0.66463
0.4939
0.27439
0.079268
-0.087398
-0.30285
-0.4878
-0.69512
-0.77846
-0.79065
-0.77236
-0.71545
-0.64228
-0.54065
-0.46341
-0.39837
-0.32927
-0.28862
-0.25813
-0.23984
-0.18699
-0.16667
-0.17683
-0.21545
-0.25813
-0.17276
0.02439
0.33943
0.57317
0.6687
0.56098
0.36992
0.16667
0.0060976
-0.02439
-0.17073
-0.30691
-0.54268
-0.75
-0.79268
-0.81707
-0.76423
-0.73374
-0.63821
-0.55691
-0.46951
-0.4187
-0.37602
-0.32114
-0.23984
-0.15041
-0.073171
0.0081301
0.089431
0.2622
0.48984
0.60569
0.55488
0.38618
0.13415
-0.085366
-0.34756
-0.59959
-0.75203
-0.7561
-0.70732
-0.56707
-0.45325
-0.32724
-0.22561
-0.1565
-0.085366
-0.04878
-0.012195
-0.010163
0.0060976
0.020325
0.046748
0.073171
0.038618
0.0081301
-0.036585
-0.02439
0.11789
0.42276
0.76423
0.96138
0.86179
0.62805
0.38008
0.18293
-0.075203
-0.37195
-0.59959
-0.69309
-0.68293
-0.64634
-0.5752
-0.5061
-0.42683
-0.35163
-0.27642
-0.23374
-0.20935
-0.22967
-0.21341
-0.18496
-0.16463
-0.13211
-0.10569
-0.10366
-0.085366
-0.0060976
0.18496
0.51423
0.77033
0.81301
0.60163
0.28862
0.083333
-0.020325
-0.11789
-0.30081
-0.48577
-0.5752
-0.60569
-0.55894
-0.54472
-0.44919
-0.37602
-0.30488
-0.23984
-0.21951
-0.19512
-0.19106
-0.20528
-0.18293
-0.18089
-0.1565
-0.13618
-0.095528
0.056911
0.30488
0.56707
0.64634
0.54065
0.31098
0.13821
-0.065041
-0.32927
-0.61585
-0.81504
-0.87602
-0.8313
-0.74593
-0.63618
-0.54065
-0.43699
-0.37805
-0.28862
-0.22561
-0.19919
-0.17276
-0.14024
-0.10163
-0.030488
0.034553
0.087398
0.15447
0.27033
0.46341
0.54065
0.49187
0.33943
0.083333
-0.13211
-0.44919
-0.68089
-0.82724
-0.82927
-0.75407
-0.64837
-0.55691
-0.44309
-0.36789
-0.30285
-0.24593
-0.20935
-0.18699
-0.17276
-0.16463
-0.14837
-0.11992
-0.097561
-0.091463
-0.10569
-0.13415
-0.15041
-0.091463
0.1687
0.54268
0.84146
0.85772
0.58537
0.27439
0.044715
-0.10976
-0.3252
-0.55691
-0.72154
-0.76423
-0.74187
-0.69309
-0.61382
-0.51016
-0.44512
-0.36179
-0.31707
-0.28049
-0.27439
-0.27642
-0.26016
-0.23984
-0.20528
-0.18293
-0.19919
-0.20122
-0.13618
0.079268
0.37805
0.63008
0.67276
0.48577
0.26626
0.097561
-0.004065
-0.22561
-0.5061
-0.77642
-0.90854
-0.90854
-0.85772
-0.78455
-0.6687
-0.56301
-0.47358
-0.40041
-0.35772
-0.32724
-0.29675
-0.25203
-0.18293
-0.10569
-0.0081301
0.065041
0.20325
0.33943
0.42683
0.39837
0.27642
0.17683
0.04878
-0.085366
-0.35163
-0.5752
-0.7439
-0.7561
-0.69512
-0.59553
-0.48374
-0.37602
-0.28049
-0.21748
-0.14837
-0.097561
-0.056911
-0.04065
-0.038618
-0.04065
-0.034553
-0.030488
-0.052846
-0.10976
-0.18699
-0.23577
-0.14431
0.13211
0.49797
0.74187
0.75
0.55081
0.27033
0.10366
0
-0.0081301
-0.10772
-0.22358
-0.41057
-0.54065
-0.64024
-0.68902
-0.66667
-0.61179
-0.51423
-0.4248
-0.36382
-0.30488
-0.27033
-0.2561
-0.22561
-0.18699
-0.13821
-0.099593
-0.079268
-0.0060976
0.15854
0.39837
0.57317
0.56301
0.40854
0.16463
-0.079268
-0.36382
-0.61789
-0.7561
-0.76626
-0.72561
-0.61789
-0.52439
-0.40244
-0.31301
-0.25407
-0.19715
-0.16057
-0.12398
-0.10569
-0.099593
-0.093496
-0.075203
-0.054878
-0.04878
-0.065041
-0.11585
-0.16057
-0.16463
-0.034553
0.23984
0.53659
0.70935
0.6748
0.47967
0.25407
0.073171
-0.04878
-0.079268
-0.1687
-0.26829
-0.43089
-0.56504
-0.6687
-0.70732
-0.71341
-0.6626
-0.57927
-0.49797
-0.44106
-0.38618
-0.34756
-0.29065
-0.22154
-0.15244
-0.11789
-0.11789
-0.14431
-0.16667
-0.10569
0.099593
0.40041
0.61992
0.64024
0.48577
0.3435
0.23984
0.077236
-0.1748
-0.48984
-0.69106
-0.75
-0.73171
-0.6565
-0.56911
-0.46951
-0.40447
-0.34756
-0.29878
-0.26626
-0.22764
-0.20935
-0.18496
-0.1626
-0.12805
-0.10569
-0.091463
-0.089431
-0.012195
0.18902
0.46951
0.67683
0.67276
0.50203
0.3313
0.15447
-0.038618
-0.31301
-0.56504
-0.69715
-0.71951
-0.66463
-0.5874
-0.4939
-0.40244
-0.31707
-0.25813
-0.19919
-0.17073
-0.14431
-0.13008
-0.10976
-0.071138
-0.02439
0.014228
0.030488
0.022358
-0.010163
-0.02439
0.056911
0.28252
0.55488
0.75203
0.77846
0.62398
0.45122
0.16057
-0.17276
-0.48984
-0.73374
-0.80081
-0.78659
-0.74593
-0.69106
-0.60976
-0.54268
-0.46748
-0.40447
-0.35569
-0.33537
-0.31098
-0.28049
-0.22764
-0.18902
-0.18902
-0.20732
-0.25813
-0.29268
-0.28455
-0.14837
0.14024
0.47561
0.68699
0.68902
0.5122
0.27236
0.067073
-0.071138
-0.17683
-0.28049
-0.36789
-0.48984
-0.56098
-0.60569
-0.59756
-0.57724
-0.51423
-0.44309
-0.38415
-0.34553
-0.31707
-0.29268
-0.29268
-0.27439
-0.24593
-0.20732
-0.14837
-0.081301
0.063008
0.30488
0.55081
0.65447
0.55488
0.36789
0.1748
-0.04065
-0.29065
-0.57724
-0.72561
-0.76626
-0.69309
-0.60366
-0.49593
-0.38211
-0.29472
-0.22764
-0.18293
-0.13008
-0.11992
-0.10772
-0.095528
-0.089431
-0.060976
-0.022358
0
0.01626
-0.012195
-0.038618
-0.067073
0.012195
0.22358
0.52236
0.73577
0.72358
0.50203
0.26829
0.1748
0.067073
-0.10163
-0.33943
-0.55691
-0.63008
-0.63415
-0.61179
-0.5874
-0.52642
-0.46951
-0.39431
-0.34146
-0.31911
-0.29065
-0.29065
-0.27846
-0.2561
-0.22358
-0.20122
-0.21138
-0.24593
-0.28659
-0.28049
-0.17073
0.065041
0.35366
0.55894
0.60366
0.52033
0.35772
0.1748
0.0020325
-0.097561
-0.2378
-0.32317
-0.48374
-0.55894
-0.61179
-0.62195
-0.58537
-0.54675
-0.47764
-0.41463
-0.36585
-0.31911
-0.29675
-0.29065
-0.24593
-0.20528
-0.16057
-0.13211
-0.097561
0
0.20732
0.46341
0.61585
0.56098
0.38008
0.21138
0.030488
-0.16667
-0.47154
-0.68089
-0.78252
-0.77642
-0.68699
-0.61992
-0.52846
-0.43699
-0.37602
-0.31707
-0.27846
-0.25203
-0.21748
-0.20528
-0.20528
-0.18496
-0.16667
-0.14024
-0.12195
-0.11789
-0.15447
-0.18089
-0.16463
-0.056911
0.19715
0.48374
0.65244
0.59756
0.35772
0.16463
0.099593
0.022358
-0.11382
-0.34756
-0.57927
-0.66057
-0.6687
-0.64431
-0.59146
-0.52236
-0.44512
-0.36992
-0.31301
-0.27033
-0.2378
-0.23984
-0.23374
-0.20528
-0.19309
-0.1748
-0.19309
-0.22561
-0.26829
-0.27033
-0.18293
0.034553
0.31098
0.5
0.53455
0.42073
0.24187
0.099593
-0.02439
-0.042683
-0.12805
-0.27033
-0.4939
-0.65244
-0.70732
-0.70325
-0.65447
-0.59553
-0.51016
-0.4248
-0.34959
-0.29472
-0.25407
-0.20732
-0.18496
-0.11789
-0.069106
-0.018293
0.030488
0.091463
0.23984
0.46748
0.6565
0.68699
0.54675
0.36382
0.17683
-0.01626
-0.2561
-0.49593
-0.65041
-0.67276
-0.63211
-0.52236
-0.43699
-0.3313
-0.27033
-0.21341
-0.1687
-0.13211
-0.097561
-0.089431
-0.085366
-0.079268
-0.054878
-0.038618
-0.034553
-0.046748
-0.093496
-0.14431
-0.19106
-0.1565
-0.020325
0.23374
0.47967
0.61382
0.57114
0.4065
0.22561
0.04878
-0.030488
-0.077236
-0.14228
-0.21951
-0.36179
-0.45528
-0.51626
-0.55285
-0.53049
-0.50203
-0.44106
-0.36585
-0.30285
-0.22561
-0.17276
-0.12602
-0.060976
0.004065
0.083333
0.14837
0.19715
0.30285
0.46748
0.64431
0.72967
0.56098
0.28049
-0.02439
-0.28455
-0.45732
-0.55285
-0.55691
-0.4878
-0.36992
-0.30488
-0.24187
-0.17276
-0.12805
-0.10976
-0.11992
-0.12398
-0.12805
-0.13211
-0.14634
-0.1687
-0.1748
-0.18293
-0.18089
-0.18496
-0.20935
-0.2561
-0.30894
-0.3435
-0.29472
-0.13008
0.12805
0.33537
0.40854
0.31504
0.15447
0.022358
-0.063008
-0.067073
-0.10772
-0.22764
-0.39837
-0.59553
-0.70325
-0.72154
-0.72154
-0.67276
-0.62602
-0.56098
-0.46951
-0.41463
-0.35569
-0.32724
-0.26829
-0.15854
-0.030488
0.10163
0.17276
0.18902
0.18293
0.22154
0.36179
0.54675
0.65041
0.54472
0.28862
0.0060976
-0.1687
-0.3313
-0.42073
-0.50813
-0.51016
-0.46341
-0.44309
-0.38821
-0.35366
-0.29675
-0.26829
-0.26626
-0.24187
-0.23577
-0.21138
-0.21341
-0.20528
-0.21545
-0.20325
-0.19106
-0.20528
-0.23577
-0.27439
-0.30488
-0.27642
-0.099593
0.16463
0.40854
0.48171
0.36585
0.16667
0.004065
-0.069106
-0.075203
-0.19512
-0.37195
-0.59959
-0.73577
-0.7439
-0.7439
-0.69512
-0.64431
-0.56504
-0.49797
-0.43902
-0.39228
-0.34756
-0.34756
-0.32114
-0.28862
-0.22967
-0.1687
-0.12195
-0.11789
-0.069106
0.073171
0.29878
0.46341
0.43496
0.27439
0.13821
-0.03252
-0.20732
-0.4878
-0.68699
-0.81301
-0.79472
-0.73984
-0.63618
-0.53252
-0.43293
-0.38008
-0.32724
-0.30081
-0.25407
-0.23374
-0.20528
-0.21951
-0.18089
-0.1748
-0.13618
-0.089431
-0.089431
-0.11585
-0.1565
-0.19919
-0.17276
-0.036585
0.23171
0.50407
0.63415
0.53862
0.36179
0.24797
0.10976
-0.097561
-0.35772
-0.57927
-0.6687
-0.64634
-0.59959
-0.50813
-0.42073
-0.31098
-0.23984
-0.13415
-0.077236
-0.018293
-0.010163
-0.0020325
-0.0081301
-0.026423
-0.04065
-0.10772
-0.16057
-0.25813
-0.32927
-0.31707
-0.16463
0.13821
0.42073
0.54675
0.45935
0.24797
0.056911
-0.085366
-0.14634
-0.17683
-0.25813
-0.3313
-0.44919
-0.51423
-0.53862
-0.55081
-0.54472
-0.47561
-0.4248
-0.37398
-0.3374
-0.31301
-0.29065
-0.28862
-0.29878
-0.29675
-0.31098
-0.32927
-0.3435
-0.34959
-0.30081
-0.12602
0.14024
0.40041
0.47358
0.38211
0.19512
0.12602
0.042683
-0.10772
-0.36382
-0.60569
-0.72561
-0.72561
-0.69309
-0.60772
-0.53049
-0.4248
-0.35976
-0.31504
-0.27033
-0.23171
-0.20528
-0.18293
-0.18699
-0.16667
-0.15854
-0.14228
-0.13821
-0.15854
-0.22358
-0.29065
-0.31301
-0.22764
0.03252
0.36789
0.59146
0.57927
0.35163
0.13415
-0.095528
-0.29268
-0.50813
-0.67886
-0.71748
-0.69106
-0.62398
-0.55081
-0.46545
-0.4065
-0.36585
-0.31504
-0.28049
-0.26016
-0.2561
-0.26423
-0.2622
-0.23984
-0.21951
-0.21545
-0.24187
-0.28862
-0.30285
-0.34146
-0.30894
-0.21341
0.0020325
0.24797
0.38415
0.37398
0.23171
0.097561
-0.022358
-0.095528
-0.11179
-0.20528
-0.31301
-0.47967
-0.61382
-0.64634
-0.6626
-0.62398
-0.57724
-0.52439
-0.46951
-0.41667
-0.37195
-0.32317
-0.28252
-0.21341
-0.093496
0.04878
0.13821
0.16463
0.12398
0.063008
-0.020325
-0.044715
0.054878
0.27439
0.44715
0.43902
0.25813
0.052846
-0.099593
-0.14634
-0.25
-0.37398
-0.51423
-0.61179
-0.64024
-0.62195
-0.62602
-0.5874
-0.54675
-0.5
-0.44919
-0.37398
-0.29268
-0.2439
-0.20935
-0.21545
-0.23984
-0.21138
-0.22358
-0.24187
-0.30081
-0.37195
-0.4248
-0.4065
-0.22154
0.081301
0.32724
0.4126
0.32317
0.1565
0.018293
-0.071138
-0.079268
-0.12805
-0.20732
-0.36992
-0.51626
-0.59146
-0.61179
-0.56504
-0.52642
-0.44512
-0.38211
-0.30081
-0.23374
-0.16667
-0.12805
-0.069106
0.04065
0.1687
0.26423
0.27439
0.23374
0.14228
0.034553
-0.030488
0.014228
0.23171
0.46748
0.56098
0.45528
0.22358
0.063008
-0.018293
-0.073171
-0.15244
-0.30894
-0.4248
-0.45935
-0.47967
-0.45122
-0.42276
-0.39837
-0.34553
-0.31707
-0.26829
-0.22967
-0.17886
-0.14634
-0.13415
-0.14024
-0.15041
-0.14634
-0.14634
-0.14431
-0.18699
-0.24187
-0.28862
-0.27236
-0.14431
0.079268
0.30894
0.4187
0.39634
0.28049
0.14837
0.060976
-0.01626
-0.0060976
-0.071138
-0.18699
-0.36585
-0.51423
-0.55285
-0.57114
-0.53455
-0.48984
-0.43902
-0.37805
-0.30285
-0.26016
-0.21138
-0.19106
-0.11992
0.004065
0.14228
0.21341
0.22154
0.20325
0.13008
0.044715
0
0.067073
0.27846
0.47561
0.51016
0.37398
0.16667
0.010163
-0.03252
-0.10569
-0.2378
-0.40244
-0.48577
-0.53252
-0.50203
-0.48577
-0.45732
-0.42073
-0.38821
-0.36992
-0.32724
-0.28455
-0.24187
-0.2378
-0.21951
-0.21138
-0.1748
-0.16463
-0.1748
-0.20325
-0.24797
-0.31504
-0.35772
-0.3313
-0.17073
0.065041
0.26423
0.33537
0.25203
0.10772
-0.0060976
-0.079268
-0.10569
-0.12602
-0.21545
-0.35569
-0.52439
-0.62805
-0.65041
-0.64634
-0.60976
-0.57114
-0.50407
-0.42886
-0.35163
-0.30081
-0.26016
-0.19715
-0.093496
0.036585
0.13008
0.15041
0.12805
0.04878
-0.050813
-0.14228
-0.15854
-0.01626
0.21748
0.39431
0.37398
0.20935
0.022358
-0.079268
-0.11992
-0.20122
-0.34146
-0.47967
-0.55081
-0.56504
-0.53252
-0.47764
-0.44106
-0.38821
-0.36179
-0.34146
-0.28659
-0.24797
-0.20935
-0.19309
-0.19309
-0.18089
-0.17073
-0.18699
-0.21545
-0.25813
-0.31504
-0.36179
-0.3374
-0.20732
0.04065
0.27439
0.39837
0.35163
0.22154
0.10366
0.012195
-0.034553
-0.026423
-0.085366
-0.19919
-0.38821
-0.51626
-0.56707
-0.57114
-0.52439
-0.46951
-0.4065
-0.34553
-0.26829
-0.22561
-0.19512
-0.14431
-0.075203
0.044715
0.20528
0.23984
0.2561
0.20122
0.10772
0.010163
-0.063008
-0.04878
0.13008
0.34756
0.46545
0.39228
0.21138
0.044715
-0.04878
-0.11382
-0.22358
-0.38008
-0.53659
-0.59756
-0.60772
-0.5935
-0.57114
-0.53455
-0.4939
-0.43293
-0.40447
-0.3435
-0.29675
-0.2561
-0.23374
-0.2439
-0.21748
-0.20325
-0.18902
-0.18089
-0.23171
-0.28862
-0.35163
-0.40041
-0.3435
-0.20325
0.067073
0.23374
0.29878
0.21341
0.079268
-0.012195
-0.079268
-0.083333
-0.099593
-0.17886
-0.30488
-0.47764
-0.5752
-0.60366
-0.5813
-0.55081
-0.48374
-0.4248
-0.35366
-0.27642
-0.24797
-0.19512
-0.13821
-0.012195
0.12805
0.22358
0.25203
0.21951
0.13211
0.036585
-0.042683
-0.081301
0.02439
0.23171
0.44512
0.48374
0.35772
0.15854
0.038618
-0.004065
-0.093496
-0.20935
-0.37602
-0.47154
-0.53862
-0.5061
-0.49797
-0.44715
-0.40041
-0.37602
-0.35772
-0.32317
-0.25
-0.22358
-0.19512
-0.21951
-0.21748
-0.20325
-0.20325
-0.21341
-0.22154
-0.28455
-0.32114
-0.39024
-0.36179
-0.2378
0.004065
0.21951
0.3374
0.30894
0.19512
0.077236
0.014228
-0.022358
-0.0081301
-0.069106
-0.17886
-0.34553
-0.48374
-0.55285
-0.55488
-0.53049
-0.4939
-0.4187
-0.36179
-0.27033
-0.22561
-0.17683
-0.15041
-0.060976
0.04878
0.19309
0.2378
0.25203
0.19106
0.10366
0.014228
-0.069106
-0.067073
0.081301
0.29878
0.46951
0.44309
0.28862
0.11992
0.04878
0.012195
-0.052846
-0.18089
-0.34959
-0.44512
-0.46748
-0.45122
-0.4187
-0.37602
-0.33537
-0.28455
-0.26423
-0.21545
-0.1565
-0.11179
-0.097561
-0.10366
-0.089431
-0.056911
-0.04878
-0.050813
-0.083333
-0.13618
-0.19309
-0.28049
-0.27642
-0.18293
0.030488
0.26626
0.39634
0.37398
0.25813
0.11382
0.04065
-0.014228
-0.0060976
-0.052846
-0.16667
-0.3435
-0.49187
-0.55894
-0.57927
-0.55081
-0.50203
-0.44919
-0.38618
-0.3374
-0.28455
-0.23984
-0.19512
-0.11992
-0.012195
0.12602
0.19106
0.18902
0.13211
0.050813
-0.054878
-0.16463
-0.19309
-0.069106
0.1748
0.37398
0.40447
0.2561
0.077236
-0.014228
-0.026423
-0.058943
-0.15854
-0.32317
-0.42276
-0.48984
-0.46951
-0.47358
-0.4187
-0.40447
-0.33537
-0.32114
-0.27642
-0.24187
-0.20325
-0.18089
-0.18496
-0.19512
-0.19309
-0.19106
-0.19715
-0.21138
-0.25813
-0.30894
-0.35569
-0.37805
-0.31504
-0.15244
0.085366
0.27236
0.32724
0.24593
0.13415
0.04065
0
-0.018293
-0.0081301
-0.071138
-0.18496
-0.36585
-0.47561
-0.52846
-0.53049
-0.5
-0.46138
-0.41667
-0.36382
-0.30081
-0.24187
-0.19512
-0.14837
-0.071138
0.052846
0.1687
0.19309
0.18293
0.095528
0.014228
-0.091463
-0.17276
-0.14837
0.0081301
0.24797
0.40854
0.41463
0.26423
0.087398
0.044715
0.036585
0.022358
-0.10976
-0.29878
-0.43293
-0.51829
-0.56301
-0.53455
-0.4939
-0.44919
-0.38008
-0.34756
-0.28659
-0.22561
-0.1748
-0.15854
-0.1687
-0.18902
-0.19715
-0.20325
-0.22967
-0.27236
-0.32724
-0.39837
-0.44715
-0.45325
-0.3374
-0.11382
0.14431
0.29878
0.29472
0.17886
0.04065
-0.028455
-0.081301
-0.060976
-0.091463
-0.18293
-0.31504
-0.45528
-0.54472
-0.55488
-0.54472
-0.5061
-0.45528
-0.39024
-0.33943
-0.28049
-0.21951
-0.17276
-0.1565
-0.093496
-0.004065
0.12195
0.19715
0.21748
0.17886
0.073171
-0.036585
-0.1687
-0.20122
-0.11179
0.10163
0.27846
0.35976
0.30285
0.19715
0.087398
0.022358
0.020325
-0.0081301
-0.085366
-0.22358
-0.37195
-0.4939
-0.54065
-0.56504
-0.53455
-0.46545
-0.41463
-0.37398
-0.3313
-0.29065
-0.25203
-0.2378
-0.2378
-0.23171
-0.20122
-0.17683
-0.15244
-0.17073
-0.19512
-0.25
-0.30691
-0.3252
-0.23577
0.004065
0.2561
0.4126
0.38618
0.25
0.093496
-0.10366
-0.25813
-0.40244
-0.46545
-0.46951
-0.45732
-0.42276
-0.34756
-0.26829
-0.18293
-0.14837
-0.12805
-0.12602
-0.10772
-0.089431
-0.083333
-0.099593
-0.10569
-0.11585
-0.12602
-0.14024
-0.17886
-0.21341
-0.26423
-0.31301
-0.32724
-0.26016
-0.075203
0.17073
0.34959
0.38618
0.29675
0.16057
0.079268
0.038618
0.028455
0.030488
-0.77846
