-0.33171
-0.3561
-0.34024
-0.30732
-0.2561
-0.23902
-0.22927
-0.21341
-0.16585
-0.1
-0.032927
0.05
0.14512
0.24512
0.32317
0.38171
0.41707
0.45366
0.47927
0.50244
0.5122
0.49878
0.47073
0.41707
0.37195
0.33415
0.32805
0.32805
0.34512
0.37561
0.24634
0.13293
0.035366
0.053659
0.14512
0.16341
0.10122
0.020732
-0.042683
-0.076829
-0.085366
-0.07439
-0.026829
0.012195
0.05
0.090244
0.13537
0.1878
0.25732
0.36098
0.46341
0.56585
0.64512
0.66463
0.57073
0.3939
0.16098
-0.020732
-0.13537
-0.16585
-0.16707
-0.14756
-0.13415
-0.11951
-0.10244
-0.076829
-0.04878
-0.030488
-0.030488
-0.040244
-0.04878
-0.052439
-0.05122
-0.036585
-0.02439
-0.014634
0.02561
0.073171
0.0085366
-0.071951
-0.22561
-0.32439
-0.38902
-0.41585
-0.39634
-0.35976
-0.33537
-0.29878
-0.23902
-0.15854
-0.059756
0.063415
0.1939
0.35488
0.52439
0.66341
0.71341
0.64512
0.51463
0.34146
0.18171
0.046341
-0.02439
-0.046341
-0.021951
0.034146
0.11707
0.21463
0.31098
0.35976
0.29878
0.080488
-0.23171
-0.5439
-0.5439
-0.52805
-0.40244
-0.1939
-0.10732
-0.13049
-0.15122
-0.17561
-0.20854
-0.22561
-0.21829
-0.16707
-0.096341
-0.0073171
0.092683
0.19268
0.30122
0.39024
0.47317
0.56585
0.62683
0.60488
0.48415
0.28659
0.078049
-0.12073
-0.26585
-0.37195
-0.40732
-0.37073
-0.27317
-0.11829
0.036585
0.1122
0.020732
-0.19024
-0.26829
-0.25732
-0.091463
0.0085366
0.026829
0.032927
0.063415
0.1061
0.1378
0.13293
0.10122
0.11707
0.16707
0.26707
0.30122
0.29146
0.21951
0.1439
0.10122
0.059756
0.037805
0.030488
0.045122
0.057317
0.10122
0.15854
0.22927
0.27195
0.25244
0.16707
0.045122
-0.12317
-0.24634
-0.18415
-0.045122
0.15732
0.28293
0.35122
0.39634
0.41707
0.41585
0.38902
0.37561
0.36463
0.35122
0.35488
0.35854
0.36341
0.36341
0.35732
0.34146
0.32439
0.27927
0.1
-0.15122
-0.3378
-0.34756
-0.15976
-0.073171
-0.070732
-0.11951
-0.10366
-0.02561
0.04878
0.097561
0.15976
0.2378
0.30244
0.34146
0.35244
0.35366
0.3561
0.35854
0.34878
0.35488
0.38171
0.42683
0.57439
0.69024
0.71585
0.59756
0.38293
0.24024
0.20732
0.22317
0.2
0.069512
-0.12561
-0.30244
-0.35122
-0.33171
-0.2378
-0.12805
-0.042683
0.045122
0.090244
0.11951
0.15244
0.15366
0.1561
0.15976
0.19024
0.21707
0.23537
0.25854
0.28902
0.33537
0.38171
0.45244
0.52683
0.61951
0.67073
0.6622
0.54024
0.34268
0.10976
-0.057317
-0.13171
-0.10976
-0.059756
-0.014634
0.0012195
-0.0012195
-0.0073171
-0.037805
-0.079268
-0.13415
-0.17805
-0.22317
-0.24756
-0.22561
-0.18659
-0.086585
0.058537
0.15732
0.19024
0.067073
-0.12195
-0.27805
-0.40732
-0.47317
-0.53171
-0.5061
-0.39024
-0.26463
-0.13415
-0.020732
0.071951
0.13902
0.15
0.1378
0.15122
0.16098
0.15366
0.12317
0.089024
0.081707
0.059756
0.023171
-0.026829
-0.037805
0.0036585
0.086585
0.17683
0.23171
0.15732
0.035366
-0.09878
-0.058537
0.02561
0.13537
0.15976
0.14146
0.1439
0.16829
0.22195
0.27073
0.32805
0.3939
0.4622
0.51951
0.56098
0.57927
0.5878
0.58415
0.57561
0.56463
0.54146
0.51707
0.48049
0.43902
0.41098
0.39756
0.38415
0.34756
0.28415
0.20976
0.13537
0.10122
0.047561
-0.052439
-0.22805
-0.35122
-0.48415
-0.44512
-0.48902
-0.52439
-0.52927
-0.54146
-0.47195
-0.36098
-0.25244
-0.1622
-0.081707
-0.014634
0.065854
0.15122
0.2439
0.35
0.45244
0.57927
0.67927
0.72439
0.65732
0.49878
0.29878
0.10732
-0.02561
-0.096341
-0.11585
-0.10366
-0.13902
-0.22805
-0.29268
-0.35122
-0.3561
-0.34756
-0.37195
-0.34268
-0.2878
-0.18659
-0.071951
0.023171
0.080488
0.12439
0.16098
0.21098
0.26707
0.32805
0.38171
0.41951
0.42805
0.43049
0.40854
0.4
0.39878
0.39756
0.39634
0.39756
0.39756
0.38293
0.36707
0.33537
0.29634
0.26585
0.23902
0.23537
0.22927
0.25244
0.28171
0.31341
0.35
0.11585
-0.26585
-0.46341
-0.57805
-0.42073
-0.40122
-0.45976
-0.47195
-0.42561
-0.35
-0.22073
-0.093902
0.02439
0.10122
0.16463
0.2122
0.26463
0.35244
0.45122
0.5561
0.65488
0.7439
0.79268
0.73049
0.5878
0.40122
0.27195
0.21098
0.20244
0.18537
0.17317
0.13415
0.11341
-0.023171
-0.11341
-0.2878
-0.37927
-0.40732
-0.38415
-0.33415
-0.27317
-0.22195
-0.13659
-0.036585
0.070732
0.14878
0.19878
0.23902
0.26585
0.30732
0.35122
0.39878
0.43537
0.45854
0.46463
0.4561
0.44634
0.42683
0.41463
0.41341
0.41707
0.42317
0.43415
0.44024
0.43659
0.41829
0.38902
0.35488
0.32439
0.30732
0.27805
0.26463
0.29024
0.28659
-0.047561
-0.37683
-0.6122
-0.63293
-0.5061
-0.5561
-0.62439
-0.63171
-0.61585
-0.55854
-0.45732
-0.32317
-0.23049
-0.22805
-0.16341
-0.091463
0.019512
0.11829
0.16707
0.23902
0.32195
0.42439
0.54024
0.60244
0.49024
0.068293
-0.25122
-0.48415
-0.44024
-0.30122
-0.21707
-0.13415
-0.035366
0.041463
0.10366
0.14756
0.20366
0.25
0.29024
0.31707
0.32805
0.33049
0.32439
0.31707
0.3122
0.31951
0.31707
0.3061
0.30122
0.29634
0.29146
0.30366
0.32683
0.32927
0.30976
0.25854
0.2
0.002439
-0.22683
-0.40244
-0.50122
-0.45732
-0.49634
-0.53171
-0.50732
-0.43659
-0.3378
-0.21585
-0.090244
0.018293
0.09878
0.15854
0.19756
0.23415
0.27073
0.3122
0.35732
0.40366
0.44024
0.47561
0.50244
0.53049
0.54634
0.55976
0.55244
0.54024
0.52805
0.51098
0.49878
0.4878
0.48537
0.47073
0.4561
0.43537
0.41098
0.38659
0.36829
0.3561
0.35244
0.35244
0.35854
0.35854
0.37439
0.41951
0.46829
0.18902
-0.27683
-0.57927
-0.75488
-0.59756
-0.57439
-0.61829
-0.64024
-0.66341
-0.67561
-0.67317
-0.6378
-0.55
-0.44512
-0.31463
-0.14756
0.026829
0.21098
0.34268
0.3939
0.29634
0.10488
-0.14512
-0.28537
-0.30366
-0.21341
-0.13537
0.070732
0.10488
0.18293
0.086585
-0.020732
-0.039024
0.014634
0.11951
0.19878
0.24634
0.26463
0.28537
0.29512
0.30732
0.31951
0.33537
0.35732
0.39268
0.42927
0.47195
0.50244
0.4939
0.45122
0.3622
0.2439
0.091463
0.017073
0.040244
-0.026829
0.014634
-0.14634
-0.26098
-0.39878
-0.52683
-0.55732
-0.53659
-0.50732
-0.43415
-0.35244
-0.22805
-0.092683
-0.0073171
0.013415
-0.0060976
-0.053659
-0.087805
-0.12195
-0.13537
-0.11951
-0.052439
0.031707
0.12805
0.23293
0.33171
0.38659
0.42195
0.43293
0.42439
0.40366
0.32073
0.18537
-0.002439
-0.12927
-0.16098
-0.29024
-0.31585
-0.5
-0.5939
-0.64634
-0.64512
-0.55
-0.41951
-0.2878
-0.16463
-0.026829
0.11098
0.25854
0.41707
0.55976
0.7
0.80732
0.85366
0.82683
0.70732
0.52317
0.3439
0.18902
0.092683
0.043902
0.052439
0.11463
0.18049
0.25366
0.23049
0.11707
-0.070732
-0.29878
-0.45732
-0.55
-0.54146
-0.45976
-0.37195
-0.31341
-0.29146
-0.29024
-0.28293
-0.24024
-0.16585
-0.042683
0.11341
0.27317
0.36707
0.37195
0.30976
0.22561
0.15244
0.1
0.064634
0.056098
0.085366
0.14146
0.20122
0.25244
0.27805
0.26341
0.23049
0.17561
0.17073
0.22073
0.2939
0.34146
0.31829
0.23049
0.091463
-0.10122
-0.21707
-0.22195
-0.20854
-0.21341
-0.3622
-0.44512
-0.4
-0.27805
-0.11829
0.0097561
0.10366
0.16707
0.21707
0.2622
0.29512
0.33049
0.35732
0.39146
0.42439
0.44512
0.45244
0.46463
0.45854
0.43902
0.43293
0.46707
0.52195
0.55366
0.5122
0.43415
0.27927
0.15
-0.026829
-0.1878
-0.32561
-0.41463
-0.42317
-0.39146
-0.33659
-0.26098
-0.18171
-0.091463
0.004878
0.1
0.19024
0.26585
0.32195
0.38171
0.42927
0.47927
0.49512
0.50122
0.50244
0.5122
0.53537
0.55976
0.58415
0.6
0.61341
0.62561
0.63171
0.64024
0.65
0.65244
0.64878
0.6378
0.62439
0.60366
0.58659
0.59268
0.56829
0.24878
0.032927
-0.29878
-0.42683
-0.45366
-0.51341
-0.52195
-0.4878
-0.45488
-0.42073
-0.39512
-0.34024
-0.26585
-0.17561
-0.068293
0.032927
0.14634
0.29512
0.43537
0.52317
0.48293
0.3439
0.1439
0.0036585
-0.078049
-0.12439
-0.15732
-0.25244
-0.19878
-0.24756
-0.20488
-0.27195
-0.31585
-0.25976
-0.1561
-0.028049
0.080488
0.15732
0.20732
0.24024
0.27561
0.30488
0.33659
0.37073
0.39146
0.40244
0.38902
0.38537
0.38171
0.40732
0.44024
0.47439
0.50488
0.53049
0.54634
0.53171
0.49024
0.4622
0.47439
0.53659
0.58171
0.53537
0.3378
0.1378
-0.11463
-0.26951
-0.47073
-0.65244
-0.74878
-0.77805
-0.7622
-0.69878
-0.6061
-0.48171
-0.3622
-0.25244
-0.1561
-0.052439
0.046341
0.15
0.23537
0.30976
0.37561
0.43659
0.50488
0.56341
0.59268
0.58415
0.51951
0.43293
0.33049
0.18902
0.22561
0.14878
0.07439
-0.13171
-0.33537
-0.40488
-0.35976
-0.26585
-0.18171
-0.12317
-0.090244
-0.059756
-0.013415
0.036585
0.093902
0.14146
0.19146
0.23049
0.26707
0.30244
0.33171
0.37683
0.4061
0.41829
0.39878
0.38537
0.40976
0.48537
0.53293
0.51585
0.40488
0.2622
0.18902
0.080488
-0.07439
-0.31707
-0.5622
-0.66098
-0.65244
-0.60732
-0.55
-0.46829
-0.38171
-0.2878
-0.19878
-0.13049
-0.054878
0.0012195
0.068293
0.14024
0.22683
0.29634
0.36098
0.39024
0.42317
0.44146
0.47317
0.49878
0.52439
0.55366
0.54756
0.48049
0.37561
0.30854
0.1378
-0.080488
-0.35
-0.49756
-0.51951
-0.46707
-0.39878
-0.31707
-0.22683
-0.15854
-0.10366
-0.063415
-0.02439
0.030488
0.089024
0.1561
0.21341
0.27561
0.33049
0.37073
0.40488
0.43049
0.45854
0.49756
0.53293
0.56341
0.57805
0.59512
0.57927
0.57439
0.57927
0.59756
0.61463
0.57561
0.3122
0.10854
-0.23171
-0.42683
-0.5561
-0.6122
-0.5878
-0.52683
-0.47195
-0.41829
-0.36585
-0.31951
-0.25976
-0.1939
-0.11951
-0.059756
0
0.060976
0.11707
0.17927
0.22927
0.27927
0.31951
0.35366
0.38537
0.41707
0.43537
0.44512
0.45244
0.47195
0.50122
0.52439
0.54024
0.54878
0.55366
0.5439
0.52561
0.5122
0.51341
0.53537
0.54512
0.48659
0.23902
-0.0012195
-0.32439
-0.5061
-0.61098
-0.62683
-0.56951
-0.51341
-0.47195
-0.44512
-0.42439
-0.36829
-0.2939
-0.17683
-0.035366
0.091463
0.23902
0.39146
0.51585
0.52805
0.44756
0.28659
0.16707
0.085366
0.035366
-0.05122
0.0073171
-0.053659
-0.070732
-0.24512
-0.43171
-0.5061
-0.47439
-0.36829
-0.2378
-0.10488
0.026829
0.15244
0.26463
0.35488
0.42805
0.47439
0.4939
0.47683
0.44024
0.39268
0.33537
0.28171
0.24268
0.23659
0.25488
0.2878
0.31585
0.34146
0.36585
0.39146
0.41829
0.44878
0.47683
0.50244
0.53415
0.55488
0.55854
0.56463
0.60366
0.6561
0.68659
0.59878
0.42561
0.31951
0.20488
0.05122
-0.22317
-0.53415
-0.7
-0.70854
-0.65
-0.59756
-0.55
-0.50976
-0.4622
-0.40488
-0.3378
-0.2622
-0.2122
-0.17561
-0.12439
-0.041463
0.058537
0.13902
0.18293
0.18537
0.16098
0.10732
0.029268
0.12439
0.11829
0.12195
-0.054878
-0.24756
-0.35366
-0.35366
-0.29634
-0.19146
-0.092683
0.0097561
0.11341
0.20488
0.27317
0.32317
0.35244
0.34512
0.31463
0.26463
0.21098
0.17195
0.13659
0.11463
0.11341
0.1439
0.19634
0.25732
0.30366
0.34634
0.40488
0.46341
0.5061
0.50854
0.43537
0.33049
0.27927
0.11829
-0.047561
-0.34512
-0.57927
-0.65976
-0.61951
-0.52561
-0.44634
-0.36707
-0.29512
-0.22561
-0.17317
-0.1439
-0.1061
-0.067073
-0.014634
0.059756
0.12317
0.2
0.27561
0.38171
0.46707
0.50488
0.45122
0.32317
0.15366
0.19878
0.14268
0.15488
-0.037805
-0.29024
-0.42927
-0.45976
-0.37195
-0.25732
-0.14024
-0.023171
0.095122
0.20854
0.28537
0.33049
0.33902
0.35122
0.32561
0.27561
0.22073
0.19146
0.1939
0.21829
0.21951
0.23171
0.25366
0.29756
0.34634
0.38659
0.42805
0.46585
0.49146
0.51585
0.53171
0.55122
0.5561
0.55366
0.57683
0.63293
0.69756
0.70244
0.57073
0.37683
0.32317
0.15732
0.0012195
-0.32561
-0.5622
-0.61585
-0.55244
-0.48537
-0.43902
-0.40244
-0.36951
-0.3561
-0.31829
-0.27805
-0.21341
-0.1439
-0.1
-0.035366
0.059756
0.16341
0.23659
0.27073
0.25976
0.22439
0.14512
0.16585
0.20122
0.23049
0.15
-0.057317
-0.24268
-0.31829
-0.3061
-0.2439
-0.15854
-0.070732
0.023171
0.13171
0.22195
0.29756
0.35488
0.37927
0.39634
0.38293
0.34634
0.30854
0.29634
0.28659
0.26951
0.21707
0.14878
0.068293
-0.079268
-0.030488
-0.11098
-0.16098
-0.3939
-0.6
-0.64146
-0.53049
-0.37439
-0.24512
-0.11951
0.0060976
0.14146
0.2561
0.35366
0.42073
0.47073
0.48902
0.49756
0.48049
0.44268
0.39268
0.34878
0.31341
0.29024
0.27927
0.26585
0.26829
0.28171
0.31951
0.36951
0.42073
0.46098
0.48293
0.51341
0.55732
0.57317
0.54512
0.44024
0.22561
0.010976
-0.3
-0.52683
-0.66098
-0.67073
-0.57317
-0.46341
-0.38415
-0.31829
-0.27317
-0.20854
-0.15976
-0.13537
-0.1061
-0.078049
-0.018293
0.063415
0.14024
0.19634
0.24268
0.27561
0.31707
0.3561
0.38171
0.41951
0.48049
0.57317
0.64878
0.67073
0.55366
0.47805
0.37073
0.27561
0.070732
-0.25854
-0.51829
-0.64512
-0.60366
-0.49634
-0.37561
-0.28049
-0.18537
-0.11098
-0.042683
0.0012195
0.0073171
0.0097561
0.002439
0.030488
0.082927
0.14634
0.20244
0.23902
0.27073
0.30732
0.35732
0.39756
0.43415
0.45854
0.47561
0.48659
0.49268
0.5
0.5
0.49512
0.49634
0.50854
0.51585
0.50244
0.45976
0.42805
0.3878
0.30732
0.11463
-0.10488
-0.3
-0.38537
-0.49634
-0.56707
-0.59512
-0.51829
-0.43659
-0.38659
-0.3561
-0.28902
-0.23902
-0.20488
-0.17439
-0.15122
-0.052439
0.056098
0.1622
0.24634
0.29634
0.3439
0.38415
0.40976
0.40122
0.33659
0.27317
0.29878
0.26951
0.21098
-0.020732
-0.25366
-0.37805
-0.37317
-0.27683
-0.17805
-0.10976
-0.034146
0.043902
0.13049
0.20854
0.27561
0.3378
0.38415
0.42683
0.46098
0.48415
0.49878
0.48537
0.46341
0.40854
0.28415
0.073171
-0.040244
-0.15732
-0.22195
-0.35854
-0.54878
-0.66707
-0.64268
-0.59512
-0.5
-0.39512
-0.28171
-0.14878
-0.0012195
0.12805
0.23415
0.31341
0.38537
0.4439
0.49146
0.52317
0.53293
0.51585
0.47073
0.4122
0.34024
0.29146
0.24146
0.21585
0.20122
0.19756
0.21463
0.2378
0.27683
0.31951
0.35122
0.4
0.4378
0.4622
0.45366
0.4122
0.39268
0.31829
0.17195
-0.095122
-0.21829
-0.37683
-0.42439
-0.5439
-0.61585
-0.59268
-0.51463
-0.42195
-0.31585
-0.20366
-0.10732
-0.023171
0.029268
0.068293
0.071951
0.079268
0.096341
0.12439
0.16829
0.19756
0.24878
0.33293
0.42439
0.49512
0.51098
0.46098
0.33049
0.36098
0.27561
0.21951
-0.032927
-0.31463
-0.48659
-0.50854
-0.42561
-0.32683
-0.23415
-0.14268
-0.041463
0.073171
0.17195
0.2561
0.31707
0.3439
0.34878
0.3378
0.31829
0.28171
0.22805
0.19756
0.18049
0.20244
0.21585
0.23537
0.27805
0.34634
0.40732
0.37561
0.2561
0.12195
0.12561
0.047561
-0.10244
-0.4
-0.59268
-0.60122
-0.49024
-0.38415
-0.28902
-0.19512
-0.10488
-0.010976
0.059756
0.1122
0.14024
0.15366
0.15122
0.15
0.14756
0.14756
0.16829
0.20366
0.2561
0.3
0.34268
0.38902
0.44878
0.4939
0.52561
0.55366
0.57439
0.58659
0.58049
0.58902
0.59268
0.59634
0.58537
0.56829
0.55488
0.48293
0.32439
0.21707
-0.021951
-0.24756
-0.51951
-0.6561
-0.62073
-0.5061
-0.38902
-0.30976
-0.21341
-0.12195
-0.045122
0.0073171
0.0073171
-0.0097561
-0.026829
-0.031707
0.019512
0.058537
0.10732
0.14756
0.23902
0.36707
0.50732
0.57927
0.57073
0.46951
0.38293
0.34878
0.28171
0.19024
-0.073171
-0.3378
-0.50122
-0.52805
-0.44756
-0.35366
-0.27195
-0.18171
-0.071951
0.039024
0.14512
0.22805
0.28293
0.3122
0.31341
0.29512
0.25366
0.18902
0.13171
0.10488
0.10488
0.1061
0.1122
0.13902
0.1939
0.24878
0.3
0.3378
0.39512
0.45366
0.50732
0.53171
0.51341
0.45
0.29756
0.27195
0.10244
-0.004878
-0.21098
-0.44878
-0.59146
-0.64634
-0.63293
-0.56951
-0.47317
-0.34756
-0.19634
-0.056098
0.034146
0.09878
0.13049
0.13049
0.12073
0.11098
0.12805
0.16098
0.17805
0.17927
0.16707
0.19512
0.2878
0.40366
0.52317
0.55244
0.46463
0.45
0.40488
0.36585
0.18171
-0.14878
-0.39146
-0.47927
-0.42805
-0.33415
-0.24146
-0.14512
-0.062195
0.013415
0.060976
0.11098
0.13415
0.16585
0.16707
0.15122
0.12927
0.12683
0.16585
0.23659
0.29146
0.32683
0.36463
0.39878
0.45244
0.5
0.55
0.58415
0.6122
0.65122
0.69512
0.73659
0.71463
0.59756
0.3622
0.023171
-0.27683
-0.49024
-0.55122
-0.51098
-0.45366
-0.38659
-0.32805
-0.24634
-0.18659
-0.13171
-0.080488
-0.039024
-0.034146
-0.017073
-0.030488
-0.012195
0.019512
0.073171
0.12195
0.17073
0.21707
0.26951
0.33415
0.41707
0.52317
0.65122
0.72561
0.70488
0.61707
0.56829
0.44634
0.31341
0.018293
-0.28171
-0.48171
-0.58293
-0.55244
-0.45854
-0.34268
-0.21829
-0.10244
0.0012195
0.07439
0.12439
0.14878
0.16463
0.14878
0.12439
0.10366
0.067073
0.059756
0.067073
0.10122
0.14268
0.18049
0.23415
0.28537
0.33659
0.37561
0.40976
0.43902
0.46707
0.49268
0.52683
0.56098
0.57683
0.55
0.4878
0.41585
0.41951
0.47317
0.54634
0.50366
0.32683
0.070732
-0.22073
-0.42073
-0.53659
-0.54024
-0.46585
-0.4061
-0.35976
-0.32317
-0.28049
-0.21707
-0.17317
-0.16951
-0.18049
-0.18171
-0.12195
-0.0073171
0.12317
0.20366
0.24512
0.2378
0.20488
0.15
0.23415
0.23293
0.25976
0.15122
-0.046341
-0.22805
-0.34878
-0.35244
-0.26098
-0.14268
-0.039024
0.034146
0.095122
0.14878
0.20244
0.25854
0.30244
0.3439
0.37195
0.4
0.42927
0.44756
0.45854
0.4378
0.40122
0.34024
0.24634
0.15122
0.084146
0.02561
0.017073
0.031707
0.093902
0.18659
0.29024
0.37927
0.3561
0.35488
0.28902
0.20244
0.05
-0.23049
-0.46951
-0.62439
-0.63537
-0.54756
-0.43902
-0.33659
-0.23902
-0.14146
-0.045122
0.021951
0.081707
0.11707
0.1439
0.16707
0.1622
0.12805
0.10366
0.10488
0.1622
0.22805
0.27805
0.33293
0.39268
0.47195
0.52073
0.53293
0.53049
0.54756
0.58902
0.57195
0.54024
0.52805
0.37683
0.15
-0.21585
-0.47073
-0.54878
-0.51098
-0.43415
-0.3378
-0.23415
-0.1378
-0.063415
-0.0085366
0.030488
0.071951
0.076829
0.07561
0.062195
0.02439
0.021951
0.045122
0.095122
0.13902
0.17439
0.20976
0.26829
0.33171
0.3878
0.44024
0.47805
0.50854
0.53415
0.54756
0.5439
0.52805
0.5439
0.6122
0.71829
0.7622
0.68049
0.42805
0.063415
-0.27195
-0.48537
-0.5439
-0.51463
-0.45366
-0.39512
-0.32927
-0.27683
-0.22195
-0.16707
-0.1122
-0.062195
-0.030488
-0.004878
0.026829
0.10244
0.23293
0.32561
0.3378
0.22927
0.076829
-0.047561
-0.068293
-0.010976
0.13293
0.29268
0.44268
0.4061
0.30976
0.060976
-0.17805
-0.35854
-0.49878
-0.5378
-0.5122
-0.45
-0.35244
-0.23537
-0.10366
0.030488
0.1561
0.25854
0.32805
0.35366
0.3622
0.3378
0.31341
0.25854
0.18049
0.1122
0.082927
0.096341
0.13049
0.15
0.16707
0.20366
0.25244
0.29634
0.32805
0.34756
0.36463
0.37805
0.39512
0.41098
0.42317
0.43293
0.44878
0.46463
0.47073
0.44268
0.38415
0.37805
0.46463
0.53415
0.45122
0.27073
-0.032927
-0.28293
-0.50732
-0.64512
-0.67561
-0.6378
-0.56829
-0.49512
-0.41341
-0.35122
-0.27927
-0.19634
-0.13902
-0.10854
-0.084146
-0.065854
-0.0012195
0.084146
0.20122
0.29268
0.32073
0.23902
0.078049
-0.10976
-0.25122
-0.36585
-0.38293
-0.28293
-0.14146
0.02439
0.15366
0.23049
0.28049
0.27439
0.23659
0.2
0.14512
0.073171
-0.020732
-0.1061
-0.19268
-0.20732
-0.16463
0.002439
0.2439
0.49634
0.70854
0.81951
0.83293
0.77195
0.65854
0.47073
0.079268
-0.25732
-0.59024
-0.72073
-0.72073
-0.73659
-0.69512
-0.61098
-0.54512
-0.48537
-0.38171
-0.25732
-0.11341
0.026829
0.15854
0.27439
0.36829
0.44756
0.50732
0.5561
0.58049
0.6
0.60732
0.61463
0.60976
0.6061
0.59634
0.58902
0.58049
0.56951
0.55244
0.53659
0.50854
0.46829
0.43659
0.42683
0.44756
0.44268
0.39146
0.34756
0.31463
0.29024
0.14878
-0.031707
-0.35488
-0.58049
-0.75854
-0.81951
-0.79146
-0.72805
-0.65488
-0.55854
-0.45366
-0.32927
-0.20244
-0.082927
0.017073
0.12439
0.22195
0.32927
0.44268
0.55488
0.69878
0.84756
0.93659
0.91951
0.76585
0.50488
0.18049
-0.11341
-0.37561
-0.55976
-0.60854
-0.64024
-0.57561
-0.53171
-0.45122
-0.36707
-0.30122
-0.26829
-0.22439
-0.15488
-0.063415
0.041463
0.15366
0.25366
0.33293
0.3939
0.44024
0.47195
0.5
0.51341
0.51951
0.51829
0.51585
0.5061
0.47317
0.41951
0.34878
0.3061
0.26829
0.24634
0.21585
0.21585
0.24024
0.23415
0.19024
0.093902
-0.04878
-0.13293
-0.17195
-0.18049
-0.25122
-0.37439
-0.53415
-0.59146
-0.58171
-0.54268
-0.51341
-0.42195
-0.27805
-0.084146
0.12073
0.31829
0.44024
0.46341
0.39634
0.2561
0.14268
0.059756
0.026829
0.041463
0.063415
0.078049
0.073171
0.02561
-0.057317
-0.11341
-0.13659
-0.087805
0.039024
0.11951
0.12561
0.037805
-0.12195
-0.22561
-0.26463
-0.26341
-0.25854
-0.28171
-0.35854
-0.43293
-0.41829
-0.3378
-0.1939
-0.034146
0.13902
0.31951
0.48049
0.57317
0.60488
0.60732
0.58415
0.54146
0.49634
0.43659
0.38659
0.30732
0.25244
0.1939
0.2
0.22927
0.27805
0.32683
0.36341
0.39146
0.38902
0.34268
0.29268
0.13293
0.067073
0.07439
0.05122
0
-0.17195
-0.31341
-0.36463
-0.36951
-0.32683
-0.25976
-0.16951
-0.067073
0.028049
0.11829
0.19268
0.25122
0.27927
0.29512
0.29756
0.28171
0.25732
0.19512
0.1561
0.13537
0.15732
0.19268
0.22561
0.24756
0.27805
0.31707
0.35488
0.39146
0.43171
0.48171
0.54024
0.60732
0.61951
0.57805
0.5378
0.51341
0.5061
0.32561
0.26951
0.18293
0.11098
-0.037805
-0.28049
-0.41829
-0.42195
-0.38293
-0.32561
-0.2561
-0.17561
-0.086585
-0.004878
0.067073
0.12439
0.17073
0.15244
0.11098
0.065854
0.062195
0.093902
0.14146
0.18415
0.22805
0.28171
0.34024
0.39756
0.46098
0.52439
0.58537
0.63659
0.66098
0.65488
0.62439
0.57195
0.53293
0.61341
0.59878
0.5122
0.19024
-0.17683
-0.45366
-0.58537
-0.60366
-0.58049
-0.50976
-0.4
-0.27195
-0.15122
-0.067073
0.002439
0.032927
0.12927
0.19756
0.22805
0.22439
0.1561
0.1061
0.023171
-0.10732
-0.24146
-0.30732
-0.33171
-0.28049
-0.21098
-0.13049
-0.056098
0.0036585
0.039024
0.058537
0.068293
0.078049
0.086585
0.1122
0.1378
0.1622
0.17683
0.19268
0.20366
0.22683
0.25366
0.28049
0.27927
0.25732
0.23171
0.2622
0.24512
0.14146
-0.079268
-0.32317
-0.51341
-0.59146
-0.59268
-0.54756
-0.48293
-0.4061
-0.3122
-0.19756
-0.053659
0.096341
0.20366
0.23902
0.20366
0.14756
0.12073
0.12805
0.14634
0.16585
0.1939
0.21829
0.23537
0.23537
0.18293
0.12927
0.1939
0.26829
0.3122
0.20244
0.034146
-0.054878
-0.039024
0.021951
0.085366
0.11951
0.14024
0.14268
0.15854
0.17439
0.21341
0.25854
0.29756
0.30732
0.3122
0.32805
0.32317
0.30732
0.26707
0.21341
0.20366
0.19878
0.17683
0.26098
0.28171
0.32683
0.21463
-0.034146
-0.28293
-0.46585
-0.51463
-0.4561
-0.36829
-0.28415
-0.2061
-0.12683
-0.058537
0.039024
0.12195
0.2122
0.27317
0.31707
0.35
0.37561
0.40366
0.41829
0.43049
0.42927
0.41829
0.39756
0.35
0.28659
0.24268
0.22317
0.24146
0.26829
0.3061
0.35
0.39024
0.4561
0.49268
0.48415
0.25976
0.028049
-0.17439
-0.17195
-0.11707
-0.1378
-0.24756
-0.37073
-0.42195
-0.41463
-0.39268
-0.32561
-0.23659
-0.11951
0.0036585
0.10976
0.20366
0.27195
0.31585
0.35
0.36585
0.38293
0.40366
0.37927
0.31463
0.21707
0.14512
0.13659
0.16098
0.20976
0.25854
0.31829
0.40122
0.47805
0.50488
0.48902
0.44146
0.3622
0.43171
0.46341
0.51951
0.39024
0.12073
-0.15366
-0.35122
-0.43049
-0.42195
-0.38537
-0.33293
-0.2878
-0.22317
-0.15732
-0.081707
-0.0073171
0.05
0.097561
0.12195
0.12805
0.12927
0.11463
0.079268
0.020732
-0.041463
-0.07439
-0.054878
-0.0085366
0.036585
0.080488
0.12195
0.16463
0.21341
0.2622
0.31829
0.36463
0.40122
0.43902
0.47561
0.52683
0.57195
0.5561
0.52439
0.52805
0.59634
0.70122
0.76585
0.71463
0.49268
0.13537
-0.20488
-0.43293
-0.51098
-0.50366
-0.47439
-0.44512
-0.39512
-0.33049
-0.25
-0.1939
-0.14268
-0.040244
-0.053659
-0.079268
-0.21463
-0.27927
-0.19878
-0.05122
0.07439
0.11098
0.10366
0.089024
0.091463
0.07439
0.039024
0.0097561
-0.014634
-0.05
-0.14268
-0.2378
-0.30488
-0.30976
-0.2439
-0.24512
-0.27561
-0.37927
-0.44268
-0.41829
-0.32683
-0.18537
-0.032927
0.09878
0.1939
0.2439
0.27927
0.31707
0.37805
0.44024
0.46829
0.44024
0.33415
0.14268
-0.1439
-0.42683
-0.62317
-0.65
-0.51585
-0.25122
0.015854
0.2378
0.40488
0.5
0.47073
0.22927
-0.1439
-0.24878
-0.15854
0.037805
0.16341
0.18902
0.27195
0.3878
0.45122
0.46829
0.45366
0.43659
0.41707
0.38293
0.32561
0.27805
0.25732
0.25122
0.31951
0.35732
0.21341
-0.017073
-0.33537
-0.47561
-0.49634
-0.5
-0.52439
-0.52439
-0.51951
-0.48902
-0.42561
-0.3061
-0.17683
-0.089024
-0.035366
0
0.068293
0.17927
0.30122
0.42683
0.53659
0.61098
0.65
0.6622
0.64146
0.58049
0.46707
0.42195
0.44756
0.40854
0.3061
0.035366
-0.17195
-0.25854
-0.24878
-0.16341
-0.071951
0.018293
0.084146
0.14878
0.21829
0.27927
0.33415
0.37317
0.4061
0.44268
0.45976
0.45366
0.4061
0.34268
0.28049
0.24756
0.24634
0.27561
0.35
0.42927
0.49756
0.52195
0.5
0.45732
0.3878
0.31707
0.29634
0.34512
0.42561
0.51951
0.68171
0.69756
0.55488
0.2
-0.15976
-0.36951
-0.42073
-0.42683
-0.41585
-0.40122
-0.36463
-0.30976
-0.22439
-0.12805
-0.039024
0.037805
0.07561
0.07439
0.018293
-0.047561
-0.085366
-0.087805
-0.052439
-0.0012195
0.064634
0.1378
0.22561
0.30976
0.39146
0.46829
0.53049
0.57195
0.57683
0.58537
0.59634
0.58171
0.4622
0.32561
0.15244
0.12439
0.05122
-0.054878
-0.23659
-0.39756
-0.46098
-0.45488
-0.44756
-0.42073
-0.36951
-0.28293
-0.18415
-0.089024
-0.010976
0.058537
0.11951
0.18537
0.24756
0.27927
0.27195
0.23537
0.16463
0.091463
0.030488
0.018293
0.039024
0.086585
0.11098
0.11463
0.1
0.085366
0.082927
0.10488
0.14268
0.18659
0.22317
0.2622
0.29268
0.31341
0.32195
0.33049
0.32561
0.32073
0.31341
0.30732
0.2939
0.27927
0.27073
0.25732
0.24512
0.24024
0.25854
0.28293
0.32073
0.36829
0.41585
0.43049
0.42317
0.48049
0.45122
0.32317
0.043902
-0.24634
-0.4122
-0.45488
-0.45732
-0.4878
-0.52195
-0.53049
-0.4939
-0.45854
-0.42561
-0.36707
-0.33415
-0.23171
-0.1439
-0.023171
0.11585
0.26585
0.41098
0.50366
0.46098
0.29268
0.26098
0.20732
0.27317
0.21463
0.12439
0.087805
0.058537
0.0085366
-0.084146
-0.17805
-0.17195
-0.15244
-0.21098
-0.28293
-0.42195
-0.44268
-0.4
-0.30244
-0.18659
-0.087805
-0.02561
0.017073
0.043902
0.11951
0.22927
0.35
0.40976
0.37195
0.24268
0.045122
-0.089024
-0.16463
-0.11707
-0.0097561
0.14024
0.30366
0.40244
0.28659
0.14756
0.096341
0.15244
0.29024
0.25976
0.16707
0.04878
-0.11098
-0.25854
-0.32927
-0.31585
-0.2439
-0.16829
-0.10244
-0.040244
0.02561
0.10732
0.19024
0.26098
0.3122
0.33293
0.31951
0.29634
0.26463
0.24756
0.23537
0.23902
0.26463
0.3061
0.34634
0.38902
0.41585
0.43902
0.44756
0.45366
0.46341
0.46098
0.46585
0.4622
0.46463
0.45
0.45122
0.44756
0.45122
0.46341
0.46829
0.45488
0.43171
0.42195
0.43049
0.4378
0.49634
0.6
0.60122
0.41098
0.030488
-0.33902
-0.53902
-0.59878
-0.60854
-0.59512
-0.55976
-0.5061
-0.42805
-0.36707
-0.29756
-0.25488
-0.26585
-0.29268
-0.32683
-0.32073
-0.25732
-0.15244
-0.037805
0.063415
0.13171
0.18902
0.27195
0.37683
0.52073
0.69268
0.85854
0.96951
0.99146
0.87683
0.6622
0.37073
0.058537
-0.21585
-0.41098
-0.53659
-0.59146
-0.62683
-0.61951
-0.59268
-0.54146
-0.47927
-0.39024
-0.29024
-0.18659
-0.087805
-0.0012195
0.065854
0.12927
0.17683
0.21951
0.24024
0.2439
0.20488
0.14512
0.07439
0.02439
0.015854
0.042683
0.084146
0.11341
0.12927
0.11951
0.11463
0.11951
0.14146
0.17805
0.21098
0.23902
0.26098
0.26951
0.25488
0.22805
0.1378
0.012195
-0.1939
-0.33049
-0.34634
-0.17195
0.24756
0.69634
1
0.98537
0.7122
0.3878
0.14878
-0.023171
-0.15244
-0.27317
-0.40122
-0.49756
-0.58171
-0.59634
-0.5439
-0.45
-0.32073
-0.19634
-0.067073
0.035366
0.12439
0.19756
0.25976
0.31463
0.36707
0.40854
0.44878
0.48902
0.51585
0.55
0.55976
0.58049
0.6061
0.65
0.68902
0.65732
0.80976
0.75976
0.57561
0.15122
-0.36341
-0.65244
-0.74024
-0.69878
-0.63293
-0.56707
-0.49634
-0.40732
-0.30976
-0.2061
-0.10976
-0.026829
0.032927
0.07439
0.091463
0.093902
0.087805
0.068293
0.043902
0.017073
0.035366
0.085366
0.14146
0.16707
0.15244
0.13049
0.10854
0.12317
0.1561
0.19024
0.22927
0.26463
0.30732
0.34756
0.38293
0.40366
0.39512
0.36341
0.32195
0.29146
0.29024
0.31951
0.38293
0.48415
0.64512
0.8122
0.90732
0.8622
0.76829
0.6561
0.44146
0.17317
-0.20244
-0.49024
-0.64268
-0.72561
-0.74878
-0.72073
-0.64512
-0.56463
-0.47805
-0.40732
-0.3939
-0.36463
-0.3622
-0.24878
-0.020732
0.26585
0.48293
0.58415
0.62561
0.63902
0.58293
0.26707
0.089024
-0.02439
0.090244
0.21829
0.24634
0.29268
0.32927
0.2622
0.13537
0.0036585
-0.056098
0.021951
-0.019512
-0.12683
-0.40122
-0.66463
-0.79146
-0.8
-0.72073
-0.56829
-0.41463
-0.27073
-0.16341
-0.086585
-0.028049
0.020732
0.078049
0.11707
0.15244
0.16098
0.15854
0.12561
0.089024
0.052439
0.040244
0.05122
0.086585
0.1378
0.17927
0.21829
0.25122
0.28171
0.30122
0.32317
0.34024
0.35366
0.35976
0.35976
0.3561
0.35366
0.35854
0.3622
0.36341
0.34634
0.31829
0.26585
0.20244
0.14024
0.12683
0.19268
0.34756
0.56463
0.74268
0.80488
0.70976
0.63171
0.47195
0.25732
-0.026829
-0.37561
-0.57195
-0.67317
-0.68293
-0.65244
-0.58415
-0.50244
-0.39878
-0.29878
-0.21585
-0.15976
-0.15366
-0.15488
-0.1878
-0.20976
-0.22561
-0.14024
0.052439
0.25488
0.41829
0.51463
0.60732
0.68171
0.62439
0.28049
0.12683
-0.023171
0.068293
0.13415
0.11829
0.17317
0.20976
0.15976
0.067073
-0.029268
-0.1378
-0.11098
-0.24268
-0.37683
-0.57195
-0.67561
-0.61585
-0.47439
-0.33415
-0.2
-0.10488
-0.042683
0
0.036585
0.089024
0.15488
0.23049
0.29878
0.3561
0.39512
0.42317
0.44268
0.45732
0.46951
0.47439
0.47439
0.46951
0.46098
0.45
0.43659
0.42683
0.40244
0.37683
0.35244
0.33902
0.32683
0.32317
0.31829
0.29512
0.25366
0.20366
0.12561
0.058537
-0.091463
-0.30122
-0.49146
-0.5
-0.25244
0.081707
0.27927
0.35
0.31951
0.23537
0.073171
-0.14756
-0.34146
-0.43171
-0.42195
-0.34634
-0.26707
-0.19512
-0.18171
-0.18537
-0.20976
-0.22195
-0.18415
-0.11829
-0.034146
0.042683
0.11341
0.17927
0.23049
0.26098
0.27561
0.2939
0.32805
0.35854
0.37195
0.35732
0.32927
0.30488
0.32317
0.35244
0.36341
0.58415
0.6
0.53537
0.19268
-0.13171
-0.29878
-0.29146
-0.23659
-0.17439
-0.10732
-0.059756
-0.047561
-0.064634
-0.089024
-0.097561
-0.063415
-0.042683
0.014634
0.078049
0.1622
0.24268
0.30854
0.38049
0.46951
0.58902
0.7061
0.76585
0.74024
0.60732
0.4439
0.24146
0.047561
-0.07561
-0.15976
-0.17439
-0.082927
0.076829
0.22195
0.26463
0.21098
0.081707
-0.041463
-0.21585
-0.34756
-0.46098
-0.50122
-0.50244
-0.46098
-0.37561
-0.27561
-0.14878
0.0060976
0.14146
0.2378
0.24146
0.19146
0.12073
0.081707
0.092683
0.15244
0.25732
0.36829
0.45854
0.55244
0.63049
0.70732
0.77805
0.82073
0.85
0.86341
0.88537
0.89512
0.8878
0.85732
0.75244
0.6061
0.39146
0.16098
-0.029268
-0.14634
-0.17317
-0.13537
-0.07439
-0.023171
-0.004878
0.0036585
0.0036585
0.013415
0.019512
-0.014634
-0.12317
-0.21585
-0.27317
-0.18902
0.11341
0.36951
0.55122
0.50854
0.28659
0.080488
-0.11585
-0.29756
-0.43171
-0.52317
-0.60488
-0.66463
-0.72927
-0.74756
-0.68049
-0.54512
-0.37683
-0.1439
0.10976
0.34268
0.49146
0.55366
0.57683
0.5939
0.60366
0.5878
0.56585
0.55244
0.55976
0.58293
0.58415
0.59024
0.65732
0.58171
0.42561
0.15732
-0.07439
-0.15366
-0.17073
-0.1622
-0.15366
-0.17073
-0.18415
-0.1378
-0.059756
0.070732
0.12073
0.071951
-0.1061
-0.28171
-0.36341
-0.30488
-0.15244
-0.05
0.012195
0.0036585
-0.028049
-0.060976
-0.065854
-0.045122
0.0036585
0.076829
0.16341
0.26585
0.39756
0.51707
0.59756
0.61951
0.61098
0.59512
0.57805
0.54878
0.51341
0.48293
0.4622
0.44268
0.42805
0.41585
0.40122
0.38171
0.36829
0.36463
0.3939
0.44756
0.52561
0.56098
0.60976
0.54634
0.30976
0.076829
-0.23171
-0.37805
-0.42439
-0.43293
-0.4
-0.3439
-0.32317
-0.31341
-0.3
-0.26463
-0.23049
-0.18171
-0.13659
-0.059756
0.032927
0.1439
0.25244
0.36707
0.44146
0.49878
0.5
0.49268
0.49512
0.51098
0.54024
0.54878
0.51829
0.46341
0.36585
0.23049
0.071951
-0.073171
-0.14756
-0.14878
-0.076829
0.018293
0.086585
0.078049
0.02561
-0.037805
-0.039024
-0.036585
-0.018293
0.041463
0.10366
0.18902
0.16585
0.12927
0.1122
0.17195
0.17683
0.21829
0.065854
-0.14756
-0.41463
-0.6061
-0.64634
-0.59024
-0.51098
-0.42073
-0.29756
-0.16707
-0.043902
0.070732
0.16341
0.2439
0.29878
0.3378
0.35854
0.36829
0.37317
0.38171
0.38537
0.37683
0.36951
0.35854
0.34634
0.33902
0.33415
0.32195
0.30488
0.29024
0.27439
0.25244
0.22927
0.20854
0.19756
0.18902
0.1622
0.12439
0.07439
0.028049
-0.020732
0.043902
0.23049
0.45366
0.63659
0.5622
0.31829
0.080488
-0.13049
-0.23415
-0.32561
-0.4439
-0.50122
-0.48171
-0.42683
-0.40854
-0.43415
-0.48415
-0.51463
-0.49634
-0.45976
-0.43902
-0.42683
-0.38171
-0.26707
-0.11951
0.1
0.2061
0.21707
0.17317
0.13049
0.20366
0.30122
0.34024
0.2878
0.14512
0.040244
0.0073171
0.067073
0.12805
0.1439
0.18415
0.24512
0.31341
0.37927
0.38293
0.31707
0.14878
0.010976
-0.14512
-0.26707
-0.40488
-0.51585
-0.50854
-0.3939
-0.23902
-0.073171
0.063415
0.17073
0.23171
0.24268
0.21829
0.18049
0.15732
0.15366
0.17439
0.20976
0.26341
0.33659
0.41829
0.46707
0.46463
0.41098
0.31098
0.17927
0.0073171
-0.11585
-0.18049
-0.1561
-0.017073
0.20976
0.44268
0.48293
0.3561
0.080488
-0.15854
-0.24146
-0.18049
-0.059756
0.054878
0.087805
0.076829
0.064634
0.026829
-0.0085366
-0.0060976
0.035366
0.14146
0.31341
0.36463
0.28293
0.002439
-0.29878
-0.48902
-0.61707
-0.64146
-0.61098
-0.49756
-0.33171
-0.16341
-0.023171
0.063415
0.091463
0.070732
0.054878
0.087805
0.17195
0.28049
0.38902
0.47073
0.53415
0.56585
0.59268
0.61098
0.63293
0.64512
0.62683
0.60488
0.57927
0.56829
0.54756
0.54146
0.55
0.57927
0.62317
0.66098
0.66585
0.58415
0.57805
0.55
0.47805
0.36341
0.13659
-0.013415
-0.097561
-0.16341
-0.22195
-0.2622
-0.2878
-0.27317
-0.22805
-0.1622
-0.073171
0.004878
0.059756
0.053659
-0.002439
-0.060976
-0.093902
-0.073171
0.026829
0.21829
0.40976
0.55122
0.60244
0.59756
0.53293
0.43537
0.29878
0.19878
0.14756
0.080488
0.029268
0.029268
0.086585
0.11585
0.1122
0.096341
0.084146
0.082927
0.052439
0.010976
-0.042683
-0.10244
-0.19146
-0.29024
-0.37683
-0.45
-0.47073
-0.4439
-0.29756
-0.086585
0.086585
0.17317
0.19024
0.18293
0.19146
0.17317
0.13537
0.07439
-0.15
-0.36098
-0.64268
-0.85
-0.96951
-1
-0.88415
-0.6622
-0.44146
-0.34756
-0.35
-0.38293
-0.37683
-0.31463
-0.21585
-0.09878
0.02439
0.14146
0.26098
0.35488
0.4378
0.50854
0.55854
0.59634
0.62561
0.64756
0.66829
0.67561
0.68171
0.68171
0.66707
0.65122
0.62561
0.57317
0.52927
0.59268
0.66707
0.70366
0.50854
0.34634
0.20366
0.2
0.18537
0.068293
-0.089024
-0.22439
-0.32805
-0.37683
-0.3622
-0.2939
-0.19756
-0.1061
-0.0085366
0.096341
0.17805
0.20732
0.17439
0.096341
-0.0073171
-0.091463
-0.13537
-0.095122
-0.0012195
0.11463
0.22073
0.30854
0.38659
0.45488
0.50366
0.5439
0.56829
0.57317
0.5622
0.54268
0.52195
0.50122
0.47317
0.44512
0.41098
0.37927
0.34634
0.31463
0.28171
0.25244
0.22195
0.19878
0.17561
0.1561
0.1378
0.11829
0.10122
0.087805
0.078049
0.058537
0.047561
0.035366
0.02561
0.015854
0.0085366
0.0036585
-0.0012195
-0.0085366
-0.0085366
-0.012195
-0.012195
-0.013415
-0.0060976
-0.0012195
0.013415
0.030488
0.05122
0.092683
0.14024
0.19024
0.24268
0.37317
0.56585
0.67805
0.58293
0.29268
0.010976
-0.15976
-0.20976
-0.21707
-0.25
-0.3061
-0.37683
-0.47073
-0.53171
-0.51463
-0.42073
-0.28415
-0.15854
-0.059756
0.0073171
0.052439
0.086585
0.09878
0.10366
0.11341
0.12073
0.13171
0.12805
0.11341
0.10732
0.1
0.076829
0.14146
0.30366
0.45976
0.54634
0.46585
0.17683
-0.012195
-0.18537
-0.21463
-0.19146
-0.16463
-0.076829
0.02561
0.086585
0.12439
0.096341
0.059756
-0.10244
-0.33293
-0.55244
-0.74634
-0.86098
-0.94512
-0.92073
-0.78415
-0.60122
-0.43049
-0.30854
-0.2561
-0.22683
-0.20122
-0.14634
-0.073171
0.002439
0.064634
0.11951
0.16098
0.19756
0.22195
0.23659
0.24634
0.23415
0.22073
0.19756
0.16829
0.13659
0.10122
0.078049
0.07561
0.068293
0.07439
0.070732
0.068293
0.080488
0.096341
0.10366
0.086585
0.028049
-0.042683
-0.082927
-0.18902
-0.33293
-0.35488
-0.36341
-0.33902
-0.37683
-0.46098
-0.44756
-0.40244
-0.40976
-0.45244
-0.4878
-0.49146
-0.50732
-0.54756
-0.56951
-0.58902
-0.57805
-0.55244
-0.48537
-0.37927
-0.27927
-0.21951
-0.15244
-0.11463
-0.07561
0
0.062195
0.068293
-0.031707
-0.17073
-0.25366
-0.23902
-0.17317
-0.080488
0.0036585
0.089024
0.16951
0.22073
0.23049
0.21463
0.15
0.063415
-0.010976
-0.045122
-0.004878
0.063415
0.10976
0.12317
0.12195
0.13902
0.16707
0.19756
0.32439
0.51829
0.71098
0.84634
0.74024
0.51951
0.24878
-0.0097561
-0.16585
-0.25122
-0.29512
-0.27073
-0.21463
-0.1439
-0.057317
0.037805
0.11951
0.16707
0.16585
0.14634
0.18049
