-0.037709
-0.22864
-0.23532
-0.1494
-0.086396
-0.034845
0.029117
0.1074
0.179
0.24773
0.31933
0.37852
0.42339
0.46539
0.51026
0.5599
0.60477
0.64391
0.67064
0.68496
0.69642
0.69833
0.70119
0.69642
0.70215
0.68401
0.66587
0.64105
0.61432
0.57422
0.52745
0.45585
0.37184
0.3031
0.11695
-0.087351
-0.24582
-0.28783
-0.17327
-0.091169
-0.025298
0.037709
0.10931
0.1685
0.23246
0.3031
0.36897
0.41957
0.46348
0.50931
0.55227
0.59714
0.63723
0.66683
0.6821
0.68783
0.68687
0.68019
0.6716
0.65823
0.64105
0.61146
0.56181
0.52267
0.47685
0.4358
0.4253
0.41098
0.34415
0.27924
0.031981
-0.064439
-0.21337
-0.20191
-0.158
-0.091169
-0.0090692
0.065394
0.14081
0.22387
0.31074
0.37947
0.43103
0.46826
0.49594
0.52267
0.55322
0.59427
0.63055
0.65919
0.68592
0.69165
0.69069
0.68019
0.67637
0.64582
0.6315
0.60668
0.57804
0.52745
0.44535
0.35561
0.28878
0.11122
-0.093079
-0.23819
-0.28305
-0.16945
-0.086396
-0.086396
-0.020525
0.04821
0.1179
0.17804
0.23341
0.29833
0.36516
0.41289
0.45298
0.48735
0.52554
0.56468
0.60955
0.65155
0.68687
0.71551
0.72601
0.72697
0.71074
0.69547
0.65919
0.62291
0.57518
0.52172
0.44726
0.33842
0.22005
0.14368
0.0081146
-0.10835
-0.18759
-0.21337
-0.12936
-0.073986
-0.051074
-0.036754
-0.018616
0.031026
0.11026
0.20955
0.30215
0.36706
0.41098
0.43866
0.4673
0.48926
0.51981
0.55131
0.57613
0.58568
0.58854
0.58568
0.56563
0.54368
0.51217
0.47399
0.42625
0.37279
0.32697
0.2926
0.26587
0.242
0.018616
-0.1179
-0.32029
-0.33461
-0.24296
-0.17327
-0.08926
0.0023866
0.075895
0.15609
0.23532
0.31169
0.37661
0.43103
0.47303
0.50167
0.53126
0.56181
0.59523
0.63437
0.67446
0.7031
0.72983
0.73747
0.74606
0.74033
0.73938
0.72983
0.70597
0.66969
0.62387
0.56659
0.4864
0.38998
0.34606
0.15513
-0.013842
-0.16754
-0.18854
-0.073986
-0.00047733
0.066348
0.12267
0.18854
0.24391
0.30119
0.36134
0.42721
0.49403
0.54558
0.59714
0.64773
0.69451
0.73461
0.76897
0.79379
0.8148
0.81671
0.82243
0.81575
0.78616
0.76516
0.72601
0.68305
0.63246
0.54749
0.43389
0.33365
0.1599
-0.13795
-0.2611
-0.31074
-0.11026
0.042482
0.12936
0.16277
0.16372
0.1599
0.18186
0.24582
0.3222
0.3852
0.4358
0.46635
0.49021
0.51313
0.54177
0.57041
0.59905
0.62673
0.6401
0.64296
0.63819
0.63628
0.62864
0.61718
0.60573
0.57709
0.53413
0.48067
0.44535
0.43389
0.40048
0.36993
0.29642
0.11122
-0.03389
-0.20573
-0.24773
-0.20764
-0.1179
-0.023389
0.06253
0.14654
0.23437
0.31933
0.39666
0.45585
0.50263
0.53795
0.57518
0.61432
0.65251
0.68687
0.72124
0.75179
0.76516
0.78807
0.79475
0.80525
0.79952
0.80525
0.78138
0.7537
0.72029
0.67733
0.63723
0.58282
0.50549
0.45012
0.32124
0.052983
-0.071122
-0.16659
-0.036754
0.078759
0.14558
0.18663
0.22387
0.25251
0.28019
0.31551
0.35752
0.38807
0.41193
0.43007
0.45489
0.48067
0.51313
0.55036
0.57995
0.6105
0.63628
0.65632
0.67351
0.68496
0.69547
0.6926
0.68305
0.6611
0.6105
0.55322
0.48735
0.42053
0.38138
0.29356
0.0062053
-0.10358
-0.26014
-0.16468
-0.04821
0.029117
0.10931
0.18186
0.24582
0.29356
0.35084
0.4043
0.44821
0.4778
0.5074
0.53699
0.57041
0.60955
0.64296
0.66969
0.69165
0.71647
0.7327
0.74224
0.74988
0.76134
0.75656
0.75847
0.74988
0.71551
0.67064
0.6105
0.54081
0.44821
0.3957
0.27924
-0.011933
-0.14272
-0.27924
-0.17327
-0.060621
0.012888
0.085442
0.13795
0.1895
0.23341
0.27924
0.32506
0.36325
0.39284
0.41575
0.44821
0.49117
0.53795
0.57995
0.621
0.65251
0.67828
0.69165
0.70883
0.71265
0.70692
0.69069
0.67542
0.6506
0.621
0.58663
0.51695
0.40334
0.32601
0.17327
-0.13699
-0.23532
-0.25728
-0.032936
0.1389
0.21527
0.22387
0.21623
0.22005
0.25632
0.32124
0.39284
0.45107
0.49308
0.52076
0.54749
0.579
0.60668
0.63437
0.66301
0.68592
0.69928
0.71456
0.71647
0.72411
0.72124
0.71838
0.69642
0.66396
0.62291
0.58663
0.53222
0.46253
0.38234
0.35179
0.094033
-0.051074
-0.242
-0.23819
-0.097852
-0.0033413
0.079714
0.15227
0.22578
0.27924
0.31742
0.34511
0.36611
0.38043
0.39379
0.4148
0.44439
0.47685
0.51313
0.55131
0.58186
0.59905
0.6105
0.61241
0.6105
0.60573
0.60668
0.60286
0.59236
0.58377
0.56468
0.54177
0.51217
0.4778
0.43675
0.39952
0.43484
0.5284
0.63914
0.7222
0.68496
0.42912
0.18377
-0.11599
-0.242
-0.242
-0.19236
-0.10931
-0.014797
0.069212
0.14845
0.221
0.27828
0.32315
0.36229
0.3957
0.43771
0.48353
0.53222
0.57327
0.60955
0.63628
0.6506
0.64582
0.54463
0.36325
0.18663
0.0090692
-0.12649
-0.19618
-0.21718
-0.13031
-0.044391
-0.055847
-0.1389
-0.25346
-0.31933
-0.28974
-0.16563
0.0033413
0.18186
0.33842
0.44726
0.52649
0.58091
0.62864
0.66683
0.69833
0.73174
0.75274
0.76516
0.77375
0.78043
0.78043
0.77566
0.76897
0.76038
0.74797
0.73842
0.73652
0.7327
0.73174
0.73079
0.72315
0.70979
0.69642
0.68878
0.67733
0.67064
0.66492
0.65823
0.64678
0.63723
0.63246
0.62291
0.61146
0.59141
0.5599
0.49881
0.39475
0.34129
0.14845
-0.059666
-0.19714
-0.18663
-0.052029
0.02148
-0.0023866
-0.020525
0.027208
0.086396
0.12267
0.1494
0.17422
0.19141
0.20477
0.221
0.24582
0.27733
0.30883
0.34797
0.37088
0.24964
0.17041
0.092124
0.0358
0.00047733
-0.15227
-0.28019
-0.31456
-0.24391
-0.13317
-0.079714
-0.10453
-0.16659
-0.17136
-0.10263
0.012888
0.12267
0.22482
0.32888
0.42625
0.51599
0.58377
0.63532
0.70024
0.7642
0.81957
0.85012
0.85394
0.84153
0.83103
0.82243
0.80525
0.79761
0.79093
0.78138
0.76038
0.73461
0.70883
0.68019
0.65346
0.62005
0.57327
0.51981
0.47112
0.44248
0.47589
0.58568
0.69547
0.72506
0.52649
0.27637
0.0071599
-0.20191
-0.31742
-0.37184
-0.36325
-0.29737
-0.20382
-0.10644
-0.030072
0.02148
0.066348
0.11885
0.18663
0.26778
0.33747
0.38807
0.40907
0.43484
0.4463
0.34606
0.20477
0.024344
-0.094988
-0.15036
-0.1685
-0.16086
-0.065394
0.094033
0.28019
0.43484
0.54749
0.63055
0.66874
0.69737
0.71169
0.70406
0.6716
0.64487
0.62959
0.63437
0.64869
0.66492
0.69069
0.70119
0.66874
0.54654
0.36802
0.16659
-0.031981
-0.17518
-0.29451
-0.28401
-0.15418
0.0042959
0.1389
0.19427
0.1685
0.075895
-0.038663
-0.1389
-0.15895
-0.080668
0.053938
0.20286
0.35752
0.49594
0.61337
0.69547
0.74893
0.79379
0.8253
0.84726
0.86539
0.87303
0.87399
0.8778
0.88926
0.89976
0.91026
0.9179
0.91313
0.90167
0.8864
0.87971
0.87589
0.86826
0.86539
0.85776
0.85298
0.84344
0.8148
0.7537
0.66778
0.54177
0.40525
0.23819
-0.041527
-0.14654
-0.17041
-0.015752
0.12554
0.16086
0.14368
0.15036
0.19618
0.23819
0.27446
0.31551
0.35274
0.38329
0.41098
0.43294
0.44916
0.46539
0.48831
0.51217
0.53317
0.55609
0.57232
0.58854
0.60286
0.621
0.62959
0.63246
0.6315
0.62387
0.61146
0.6
0.6
0.60286
0.61432
0.62768
0.63246
0.62387
0.60573
0.58759
0.55513
0.51408
0.45585
0.3747
0.26492
0.19045
0.15609
0.056802
0.081623
0.027208
0.051074
0.012888
-0.039618
-0.059666
-0.043437
0.00047733
0.052983
0.12076
0.18663
0.24964
0.29547
0.33079
0.3642
0.40048
0.43484
0.46253
0.49499
0.53031
0.5599
0.558
0.48735
0.41098
0.32411
0.2315
0.061575
-0.034845
-0.13222
-0.14845
-0.23055
-0.31265
-0.34033
-0.28783
-0.21909
-0.17136
-0.10644
-0.0071599
0.13126
0.28401
0.4148
0.50835
0.57136
0.621
0.65823
0.68974
0.71742
0.73556
0.74606
0.7537
0.76516
0.7642
0.76134
0.7537
0.74606
0.73461
0.72411
0.71647
0.70215
0.69069
0.68115
0.67255
0.66301
0.65442
0.65251
0.64582
0.64391
0.64391
0.6401
0.63246
0.62196
0.60286
0.5685
0.51122
0.43198
0.3136
0.18759
-0.061575
-0.19905
-0.24964
-0.1179
0.059666
0.096897
0.04821
0.0071599
0.018616
0.049165
0.079714
0.11599
0.14749
0.1685
0.19045
0.20764
0.221
0.22959
0.24678
0.26969
0.30406
0.34988
0.38998
0.41384
0.3957
0.34033
0.25728
0.18854
0.13508
0.10358
0.068258
0.06253
0.10167
0.2105
0.3642
0.50549
0.58663
0.58663
0.54081
0.32792
0.11695
-0.15895
-0.35179
-0.42721
-0.40716
-0.31169
-0.18473
-0.072076
0.0358
0.14177
0.23628
0.30883
0.38329
0.4673
0.56181
0.66014
0.74224
0.80143
0.83962
0.86921
0.89308
0.9179
0.88544
0.74988
0.60955
0.39666
0.10453
-0.051074
-0.221
-0.23628
-0.19714
-0.20764
-0.16372
-0.11504
-0.092124
-0.082578
-0.052983
0.010979
0.13222
0.28974
0.4463
0.57136
0.65632
0.71169
0.75943
0.79666
0.83103
0.85967
0.87876
0.88926
0.89499
0.90072
0.89785
0.8969
0.8969
0.89594
0.89021
0.88449
0.87876
0.86921
0.86635
0.8673
0.86635
0.86158
0.8568
0.85394
0.84726
0.84057
0.83675
0.83007
0.81957
0.81193
0.80334
0.7852
0.76038
0.72315
0.65728
0.55322
0.43007
0.25632
-0.0023866
-0.11599
-0.11504
0.10167
0.32888
0.37661
0.31265
0.23055
0.20859
0.23532
0.26969
0.29928
0.31933
0.3136
0.25919
0.16945
0.056802
-0.058711
-0.12076
-0.11408
-0.042482
0.059666
0.16372
0.2506
0.32506
0.29737
0.2315
0.094988
-0.02148
-0.085442
-0.12745
-0.158
-0.10549
0.0052506
0.17136
0.32315
0.41384
0.36611
0.24487
0.12267
0.08926
0.15704
0.27064
0.38807
0.5074
0.60764
0.68878
0.74702
0.79284
0.82721
0.85871
0.87399
0.80907
0.68878
0.62005
0.48162
0.30692
0.1284
-0.036754
-0.068258
-0.030072
0.032936
0.068258
0.075895
0.025298
-0.030072
-0.058711
-0.038663
0.018616
0.13508
0.28019
0.44153
0.57518
0.67446
0.73556
0.78234
0.81671
0.84821
0.88258
0.9074
0.92745
0.94177
0.95513
0.95895
0.9599
0.958
0.95036
0.93699
0.92458
0.9179
0.90835
0.90263
0.89594
0.8864
0.87208
0.86062
0.84916
0.83294
0.81862
0.80239
0.78902
0.77279
0.75943
0.74797
0.73079
0.71551
0.69642
0.66969
0.62005
0.54177
0.43103
0.30024
0.095943
-0.17613
-0.26301
-0.21909
0.0023866
0.16754
0.18377
0.14749
0.12172
0.13986
0.17041
0.20191
0.221
0.22768
0.21527
0.179
0.11504
0.037709
-0.031981
-0.052029
-0.028162
0.026253
0.10167
0.16945
0.23532
0.29356
0.33365
0.36038
0.39093
0.43866
0.33747
0.29069
0.1685
0.022434
-0.027208
-0.14272
-0.17136
-0.1685
-0.13795
-0.094033
-0.049165
-0.042482
-0.036754
-0.0023866
0.078759
0.19045
0.31838
0.42816
0.51313
0.58854
0.64487
0.68592
0.72411
0.75465
0.77757
0.78807
0.79284
0.79284
0.78329
0.77661
0.76897
0.76134
0.75084
0.74511
0.73652
0.72601
0.71456
0.70692
0.70024
0.6926
0.68974
0.68305
0.67351
0.66492
0.65919
0.6506
0.63437
0.62005
0.59809
0.57422
0.5494
0.52363
0.4864
0.4253
0.33652
0.21623
0.015752
-0.3136
-0.45012
-0.48353
-0.24296
0.015752
0.13413
0.13986
0.10835
0.10263
0.13699
0.19332
0.26205
0.30788
0.32411
0.28019
0.14081
-0.056802
-0.23819
-0.31456
-0.27733
-0.158
-0.013842
0.13126
0.2716
0.38234
0.33938
0.28592
0.091169
-0.03389
-0.14845
-0.23628
-0.24296
-0.13604
0.017661
0.22768
0.42148
0.558
0.62864
0.57709
0.40716
0.18473
0.015752
-0.044391
-0.010979
0.042482
0.14654
0.28878
0.45203
0.53795
0.52076
0.47112
0.43675
0.43389
0.40525
0.27637
0.13508
0.030072
0.031026
0.10644
0.26205
0.4463
0.6105
0.73079
0.79093
0.81766
0.83103
0.83198
0.83389
0.83675
0.84153
0.84153
0.83389
0.82339
0.81957
0.82053
0.81766
0.81575
0.81193
0.81384
0.80239
0.77852
0.71933
0.63914
0.52649
0.36038
0.15131
0.026253
-0.039618
0.044391
0.096897
0.12267
0.14558
0.179
0.22482
0.27828
0.31456
0.35752
0.40239
0.44344
0.47685
0.47112
0.37184
0.242
0.11122
0.082578
0.15418
0.29069
0.42434
0.5074
0.52649
0.47112
0.41193
0.2926
0.179
0.07685
0.01957
-0.013842
-0.027208
0.025298
0.15704
0.30597
0.43294
0.5179
0.52267
0.47112
0.4043
0.37757
0.43389
0.52076
0.62482
0.69833
0.75752
0.80525
0.8463
0.87876
0.93031
0.9685
0.99714
1
0.9895
0.97709
0.95609
0.93031
0.90644
0.88544
0.86253
0.83962
0.80811
0.77184
0.74224
0.72029
0.70406
0.67828
0.65728
0.63723
0.62387
0.61623
0.60668
0.57136
0.51504
0.41575
0.16181
-0.070167
-0.28305
-0.24105
-0.046301
0.16181
0.27542
0.2926
0.25442
0.20477
0.16945
0.14654
0.15418
0.19905
0.25251
0.30119
0.33461
0.36993
0.41671
0.49212
0.3852
0.26396
0.011933
-0.10263
-0.15036
-0.179
-0.16754
-0.046301
0.13222
0.32601
0.44726
0.46635
0.4148
0.34606
0.29642
0.30597
0.36134
0.43675
0.54463
0.64105
0.72697
0.76802
0.70119
0.50453
0.18377
-0.051074
-0.18473
-0.20955
-0.18091
-0.07494
0.070167
0.28783
0.4463
0.53317
0.58091
0.52076
0.36802
0.19045
0.061575
0.024344
0.060621
0.12458
0.21146
0.3031
0.3852
0.44916
0.48831
0.51504
0.55036
0.59809
0.54081
0.39189
0.15704
-0.069212
-0.16181
-0.19905
-0.16086
-0.075895
0.024344
0.16372
0.29928
0.41862
0.54845
0.65632
0.72124
0.76706
0.79952
0.82053
0.83198
0.84057
0.84916
0.85107
0.85489
0.85585
0.85012
0.83771
0.82912
0.82339
0.81766
0.81098
0.80334
0.79857
0.79093
0.79284
0.78998
0.78425
0.77947
0.77757
0.77279
0.76038
0.73938
0.69547
0.63341
0.55513
0.45012
0.20191
-0.094033
-0.34893
-0.38711
-0.19618
0.056802
0.2611
0.3537
0.37661
0.38616
0.38998
0.37088
0.34606
0.32315
0.30406
0.29642
0.30883
0.32792
0.34224
0.34988
0.35561
0.35847
0.37661
0.41098
0.4358
0.45585
0.46444
0.47208
0.4778
0.49499
0.52172
0.55322
0.58091
0.60668
0.62959
0.64582
0.66492
0.68401
0.70119
0.70597
0.70979
0.70692
0.69928
0.69547
0.6926
0.68687
0.66396
0.6315
0.57613
0.49594
0.38329
0.17136
-0.17232
-0.37184
-0.44821
-0.25442
0.024344
0.221
0.31456
0.3327
0.32315
0.34988
0.38043
0.39379
0.38998
0.37852
0.34606
0.31551
0.29833
0.26301
0.21337
0.14177
0.085442
0.071122
0.11313
0.20382
0.30119
0.36993
0.4043
0.41766
0.42053
0.43198
0.45394
0.47971
0.50167
0.52267
0.54463
0.55704
0.56945
0.57804
0.58282
0.58282
0.58854
0.59714
0.60286
0.61241
0.621
0.62578
0.61623
0.60191
0.56563
0.50931
0.43007
0.30883
0.080668
-0.18186
-0.2926
-0.25919
-0.038663
0.13795
0.23819
0.27828
0.28019
0.3031
0.3432
0.37279
0.37661
0.37661
0.37375
0.36802
0.35274
0.24582
0.075895
-0.069212
-0.13031
-0.073986
0.0358
0.16945
0.29356
0.41289
0.46348
0.44153
0.40143
0.34702
0.24869
0.13699
-0.0090692
-0.096897
-0.12649
-0.11026
-0.1179
-0.064439
-0.00047733
0.063484
0.1599
0.2611
0.36802
0.47494
0.57136
0.63914
0.68019
0.70979
0.72888
0.74224
0.75847
0.77184
0.78043
0.7747
0.7642
0.75274
0.74606
0.75179
0.7642
0.77184
0.7642
0.75561
0.74415
0.7327
0.72601
0.72124
0.71265
0.69547
0.68305
0.66969
0.65442
0.64105
0.62387
0.59809
0.56563
0.52363
0.44916
0.34797
0.1895
-0.091169
-0.37184
-0.50931
-0.44726
-0.15704
0.10167
0.23532
0.28305
0.25346
0.24296
0.27255
0.29356
0.29356
0.29356
0.30024
0.28401
0.2315
0.090215
-0.056802
-0.19618
-0.23341
-0.18377
-0.07685
0.061575
0.20668
0.35274
0.38138
0.35847
0.32411
0.24582
0.18854
0.091169
-0.010024
-0.056802
-0.049165
0.0052506
0.11599
0.29356
0.4673
0.60764
0.67924
0.67446
0.60477
0.47494
0.34511
0.26874
0.28878
0.36611
0.46921
0.54749
0.61623
0.67064
0.7222
0.7642
0.80048
0.84439
0.86444
0.87112
0.86062
0.85489
0.85012
0.83771
0.8253
0.81098
0.79857
0.79093
0.7852
0.78043
0.77566
0.77279
0.76706
0.75752
0.74606
0.73747
0.72124
0.70215
0.68019
0.63532
0.56468
0.46444
0.33365
0.097852
-0.21241
-0.36993
-0.39857
-0.16468
0.082578
0.26014
0.32888
0.32792
0.31456
0.33461
0.34797
0.34129
0.32506
0.30024
0.28496
0.25251
0.13699
-0.032936
-0.19332
-0.26587
-0.22673
-0.11408
0.017661
0.16086
0.32029
0.4358
0.45489
0.4358
0.33747
0.23341
0.1074
-0.030072
-0.094988
-0.093079
-0.011933
0.11504
0.30883
0.48353
0.61718
0.68305
0.64487
0.49308
0.30788
0.16086
0.10549
0.15704
0.26683
0.38711
0.51122
0.61623
0.69833
0.75179
0.78807
0.81957
0.83962
0.85012
0.85298
0.85394
0.85107
0.84821
0.84344
0.83484
0.82243
0.81098
0.8043
0.79189
0.78425
0.77566
0.76706
0.7537
0.74224
0.73174
0.71456
0.69833
0.68019
0.65442
0.62196
0.57709
0.51313
0.41193
0.27924
0.037709
-0.25155
-0.41098
-0.42148
-0.1895
0.039618
0.19618
0.25728
0.24105
0.221
0.242
0.26587
0.26301
0.25728
0.25346
0.25346
0.2401
0.11981
-0.0062053
-0.15704
-0.21527
-0.17804
-0.093079
0.031026
0.17804
0.32601
0.37757
0.38807
0.3537
0.24296
0.13126
-0.012888
-0.11885
-0.15609
-0.10167
-0.010024
0.11504
0.27446
0.4253
0.5389
0.56181
0.46253
0.29642
0.14463
0.063484
0.071122
0.14081
0.24391
0.36516
0.48162
0.56659
0.62578
0.66301
0.68496
0.69642
0.70979
0.71933
0.72315
0.72506
0.72792
0.72792
0.72411
0.72601
0.72411
0.72315
0.72506
0.7327
0.73747
0.73747
0.73556
0.72792
0.71647
0.70692
0.70215
0.69547
0.68783
0.68305
0.67255
0.65155
0.61146
0.54749
0.45585
0.34129
0.13031
-0.22864
-0.42625
-0.49403
-0.25537
0.077804
0.30597
0.37661
0.3537
0.26778
0.23628
0.26778
0.30215
0.33652
0.35084
0.33652
0.26396
0.12076
0.0052506
-0.12458
-0.16754
-0.1599
-0.088305
0.032936
0.19141
0.35084
0.39666
0.38138
0.33079
0.24296
0.179
0.066348
-0.041527
-0.078759
-0.057757
0.049165
0.17804
0.33556
0.45585
0.5685
0.64391
0.6506
0.53986
0.31647
0.068258
-0.080668
-0.1074
-0.044391
0.072076
0.20668
0.34129
0.43771
0.47876
0.46158
0.32411
0.10072
-0.082578
-0.15704
-0.11313
0.01957
0.10835
0.22673
0.35656
0.48449
0.59332
0.66587
0.69451
0.63341
0.49499
0.33842
0.23819
0.24296
0.33461
0.4673
0.57613
0.64773
0.69356
0.72888
0.75752
0.78138
0.79189
0.80143
0.80239
0.80239
0.79857
0.79189
0.78902
0.78616
0.77947
0.76802
0.75943
0.74893
0.72411
0.69451
0.65346
0.59523
0.52172
0.44916
0.35847
0.18568
0.0042959
-0.14081
-0.16181
-0.026253
0.1074
0.20382
0.22005
0.22387
0.2401
0.26396
0.26301
0.26014
0.25442
0.26778
0.29165
0.33079
0.35179
0.3537
0.33174
0.3136
0.31933
0.36516
0.43675
0.5074
0.57232
0.621
0.65155
0.6716
0.68783
0.70692
0.72029
0.7327
0.73938
0.74129
0.73461
0.73079
0.72792
0.71933
0.71742
0.71742
0.72315
0.72601
0.73079
0.73365
0.72888
0.72411
0.71838
0.70883
0.69356
0.67828
0.65823
0.62196
0.55418
0.46253
0.33938
0.11313
-0.26014
-0.45394
-0.48735
-0.22196
0.16468
0.42053
0.51026
0.48735
0.39857
0.35847
0.38043
0.41289
0.42243
0.42339
0.39952
0.33747
0.20286
0.087351
-0.017661
-0.072076
-0.083532
-0.064439
-0.001432
0.096897
0.22291
0.34129
0.33079
0.32029
0.26014
0.19905
0.14081
0.040573
-0.024344
-0.02148
0.038663
0.13604
0.23532
0.33365
0.4148
0.49785
0.5685
0.6105
0.61241
0.60764
0.59523
0.56563
0.52267
0.48449
0.4864
0.53986
0.60955
0.66683
0.7136
0.7432
0.76038
0.76993
0.7747
0.77184
0.76038
0.75274
0.74224
0.7327
0.72792
0.72792
0.72792
0.72697
0.72792
0.72411
0.71933
0.71169
0.70788
0.69737
0.68305
0.66874
0.65632
0.64773
0.64391
0.642
0.62959
0.61241
0.58759
0.55609
0.52076
0.46921
0.40334
0.28019
0.050119
-0.38043
-0.61623
-0.68115
-0.34797
0.069212
0.35084
0.41193
0.36611
0.27542
0.21718
0.22768
0.25537
0.26778
0.2926
0.3031
0.26778
0.1494
0.056802
-0.040573
-0.083532
-0.10263
-0.098807
-0.039618
0.055847
0.18186
0.27828
0.26778
0.242
0.179
0.11599
0.049165
-0.039618
-0.095943
-0.075895
-0.010979
0.10263
0.2401
0.37661
0.49117
0.5599
0.58473
0.58186
0.53795
0.46539
0.36706
0.27733
0.22673
0.2506
0.32792
0.44344
0.55322
0.64964
0.72601
0.77661
0.79952
0.79857
0.79857
0.7957
0.79952
0.80143
0.80048
0.79189
0.78329
0.77757
0.76706
0.76325
0.76229
0.75752
0.74797
0.74129
0.73652
0.73174
0.72888
0.72601
0.71933
0.70597
0.6926
0.67828
0.66014
0.642
0.61909
0.58186
0.51408
0.42339
0.29451
0.059666
-0.31933
-0.53699
-0.60573
-0.3432
-0.0042959
0.21909
0.28305
0.24487
0.18186
0.1599
0.18473
0.22578
0.26683
0.28496
0.26205
0.16277
0.040573
-0.068258
-0.13604
-0.15131
-0.14272
-0.080668
0.03389
0.1685
0.29356
0.27351
0.27542
0.22291
0.18663
0.13795
0.046301
-0.001432
0.025298
0.081623
0.16468
0.27924
0.38043
0.43866
0.43484
0.42053
0.43389
0.45298
0.49308
0.54177
0.57995
0.60955
0.62387
0.63246
0.6401
0.65537
0.66778
0.67446
0.68019
0.68401
0.68687
0.68592
0.69833
0.70979
0.71742
0.7222
0.72601
0.73079
0.72983
0.72888
0.72411
0.72124
0.72124
0.72124
0.71456
0.70406
0.70119
0.69928
0.69356
0.67351
0.65346
0.62959
0.61337
0.59714
0.558
0.48353
0.37852
0.24869
0.063484
-0.26014
-0.56468
-0.64391
-0.49403
-0.063484
0.25728
0.36516
0.31456
0.21146
0.16754
0.18663
0.21241
0.21909
0.20095
0.19714
0.19714
0.11313
0.00047733
-0.083532
-0.16659
-0.16181
-0.17232
-0.13031
-0.02148
0.086396
0.21814
0.31742
0.32697
0.32315
0.28401
0.22864
0.13031
0.011933
-0.052029
-0.027208
0.04821
0.12649
0.21814
0.31647
0.35561
0.34224
0.24773
0.16659
0.15227
0.19236
0.29451
0.40811
0.51885
0.61432
0.68019
0.72411
0.74224
0.75274
0.76802
0.7852
0.80048
0.80811
0.8148
0.80334
0.78902
0.77566
0.76229
0.75179
0.73652
0.72792
0.71742
0.71551
0.72029
0.72983
0.73652
0.74797
0.75847
0.76229
0.76706
0.76993
0.76802
0.75656
0.74511
0.73365
0.72029
0.70979
0.68687
0.63819
0.54845
0.42721
0.2611
-0.016706
-0.37661
-0.558
-0.51981
-0.21909
0.10931
0.27064
0.28305
0.19141
0.11122
0.092124
0.14272
0.20477
0.25251
0.27446
0.25632
0.17327
0.031981
-0.069212
-0.14463
-0.13604
-0.10453
-0.032936
0.078759
0.19332
0.30119
0.39379
0.3432
0.29165
0.22387
0.20286
0.19236
0.12554
0.075895
0.10263
0.19332
0.2716
0.28783
0.33365
0.28687
0.19618
0.06253
-0.082578
-0.12554
-0.068258
0.020525
0.17136
0.32697
0.45489
0.5494
0.6315
0.69642
0.72315
0.71456
0.69451
0.68592
0.70024
0.73461
0.76897
0.79475
0.8148
0.82912
0.8358
0.83294
0.83103
0.82339
0.81575
0.80811
0.8043
0.79857
0.78998
0.7852
0.77279
0.75943
0.74797
0.74415
0.73938
0.73461
0.73365
0.72888
0.72506
0.71933
0.71647
0.70119
0.66874
0.6105
0.51217
0.38043
0.17136
-0.17136
-0.4358
-0.558
-0.36802
-0.07494
0.18854
0.28305
0.25632
0.18473
0.13413
0.15227
0.21814
0.25728
0.26587
0.26396
0.24296
0.19332
0.015752
-0.079714
-0.19523
-0.17709
-0.12172
-0.064439
0.041527
0.1599
0.26778
0.35847
0.41002
0.32315
0.29737
0.24773
0.25823
0.20668
0.10549
0.066348
0.12649
0.2105
0.20668
0.25251
0.19618
0.10263
0.0023866
-0.15322
-0.18282
-0.11981
0.001432
0.1685
0.32888
0.44439
0.52363
0.5895
0.64773
0.69069
0.71074
0.72029
0.73461
0.74606
0.75561
0.76802
0.78807
0.80334
0.81671
0.8253
0.83007
0.83294
0.83675
0.84248
0.83962
0.83866
0.83484
0.83007
0.82148
0.81575
0.81289
0.80621
0.80239
0.79952
0.79379
0.78234
0.77184
0.76516
0.7537
0.74702
0.73938
0.72601
0.69451
0.62578
0.50644
0.34797
0.12267
-0.23819
-0.54177
-0.71456
-0.54845
-0.17041
0.16277
0.3432
0.32983
0.23246
0.13604
0.12363
0.17613
0.24582
0.29833
0.33556
0.32411
0.2315
0.084487
-0.044391
-0.13317
-0.13317
-0.090215
-0.020525
0.080668
0.19618
0.29737
0.37661
0.4253
0.39857
0.27733
0.21432
0.1494
0.12936
0.055847
-0.0062053
0.023389
0.12458
0.25251
0.34224
0.36802
0.36134
0.26683
0.15895
0.052983
0.0052506
0.058711
0.19236
0.36038
0.51599
0.63532
0.69165
0.6926
0.60859
0.53604
0.4778
0.4253
0.27446
0.026253
-0.23628
-0.39284
-0.48258
-0.36802
-0.069212
0.25823
0.47876
0.37566
0.21527
0.07685
0.040573
0.057757
0.11313
0.20955
0.34415
0.48067
0.59332
0.67255
0.7222
0.74893
0.76802
0.77757
0.78807
0.78711
0.79093
0.79857
0.80621
0.80907
0.81002
0.82434
0.83294
0.84344
0.84821
0.83198
0.78234
0.65251
0.48162
0.22768
-0.058711
-0.4463
-0.66874
-0.75465
-0.48258
-0.073031
0.35943
0.60955
0.62482
0.4463
0.21718
0.071122
0.020525
0.041527
0.10358
0.18282
0.27733
0.36802
0.46539
0.54463
0.60095
0.64296
0.68019
0.68878
0.65251
0.60477
0.56563
0.57422
0.62578
0.68878
0.74033
0.77757
0.80907
0.82816
0.84248
0.85012
0.85585
0.85203
0.83962
0.82912
0.81766
0.81098
0.80716
0.80811
0.81002
0.81098
0.81098
0.73365
0.58282
0.38329
0.098807
-0.16181
-0.38329
-0.33652
-0.14272
0.13604
0.36516
0.50453
0.56945
0.53508
0.43866
0.3327
0.23532
0.18663
0.17804
0.20095
0.242
0.29451
0.35847
0.41289
0.46444
0.5074
0.5599
0.63819
0.66396
0.58091
0.45585
0.28305
0.082578
-0.0052506
-0.094988
-0.040573
0.083532
0.19618
0.32124
0.38998
0.40525
0.34415
0.26683
0.22959
0.24678
0.32888
0.42434
0.51885
0.60382
0.66969
0.70215
0.69928
0.68305
0.62673
0.52172
0.26778
-0.095943
-0.35465
-0.48735
-0.41002
-0.242
-0.014797
0.24678
0.48353
0.60477
0.60573
0.54749
0.42625
0.31456
0.27542
0.32506
0.41766
0.50835
0.57804
0.62196
0.65346
0.68592
0.71742
0.73938
0.76134
0.78234
0.79857
0.81002
0.82339
0.83103
0.8358
0.84057
0.84153
0.83962
0.83198
0.82912
0.82434
0.81957
0.81766
0.81862
0.81671
0.81002
0.80716
0.80239
0.7957
0.78902
0.78425
0.77757
0.76802
0.76229
0.74702
0.72411
0.67828
0.59332
0.4463
0.23819
-0.061575
-0.46348
-0.67542
-0.66778
-0.31742
0.087351
0.40048
0.50835
0.45107
0.34988
0.26778
0.26205
0.29451
0.32792
0.35847
0.38329
0.36325
0.27828
0.13222
-0.047255
-0.18186
-0.221
-0.18473
-0.10263
-0.0033413
0.10167
0.20955
0.30215
0.37184
0.40907
0.41766
0.42339
0.42434
0.35656
0.21337
0.051074
-0.03389
-0.016706
0.038663
0.051074
0.053938
0.098807
0.12554
0.1179
0.10453
0.090215
0.096897
0.056802
0.00047733
-0.0052506
0.046301
0.13413
0.23532
0.32983
0.42243
0.51217
0.59618
0.65919
0.70979
0.74702
0.76993
0.78425
0.77661
0.76038
0.73461
0.71838
0.7136
0.70692
0.68305
0.62005
0.56086
0.50453
0.46158
0.41098
0.31647
0.24105
0.090215
0.057757
-0.073031
-0.04821
-0.055847
-0.0052506
0.034845
0.10644
0.18759
0.25919
0.3136
0.35465
0.38807
0.41098
0.42816
0.44726
0.46921
0.49403
0.52363
0.558
0.59045
0.62768
0.65346
0.67446
0.68783
0.70215
0.70788
0.70788
0.71169
0.71456
0.71933
0.72792
0.73938
0.74797
0.7537
0.76134
0.76516
0.7642
0.75943
0.74893
0.72697
0.69547
0.66492
0.60955
0.51217
0.36706
0.16277
-0.18186
-0.50835
-0.6821
-0.53795
-0.12363
0.26587
0.46062
0.45107
0.34033
0.24678
0.23532
0.26301
0.30119
0.33079
0.3432
0.35847
0.36706
0.36897
0.35656
0.25728
0.036754
-0.19523
-0.29547
-0.22768
-0.034845
0.12554
0.25346
0.37184
0.47017
0.53604
0.58568
0.61718
0.51217
0.4358
0.22482
0.013842
-0.067303
-0.17327
-0.17232
-0.14749
-0.016706
0.16754
0.35752
0.45107
0.41671
0.28878
0.11695
-0.0071599
-0.023389
0.049165
0.16659
0.29165
0.40048
0.51408
0.621
0.70501
0.76325
0.79284
0.8148
0.82625
0.83962
0.85298
0.86539
0.87303
0.87685
0.87971
0.87876
0.88162
0.88353
0.88162
0.86921
0.85967
0.85394
0.84916
0.84726
0.8673
0.90931
0.8358
0.59618
0.28687
-0.052983
-0.19714
-0.22768
-0.18282
-0.10453
-0.046301
-0.0081146
0.018616
0.047255
0.093079
0.14845
0.23055
0.31933
0.34129
0.20477
-0.081623
-0.35465
-0.40525
-0.34415
-0.18473
-0.050119
0.13413
0.34415
0.51122
0.58473
0.59045
0.57804
0.48544
0.33365
0.17613
0.10072
0.12745
0.24869
0.4148
0.56754
0.68019
0.73747
0.77184
0.79284
0.8148
0.83007
0.83962
0.84344
0.85107
0.86062
0.86253
0.86444
0.85967
0.85298
0.84057
0.83484
0.83007
0.81766
0.8043
0.78902
0.7642
0.73842
0.72506
0.72315
0.72888
0.74033
0.75847
0.77757
0.78711
0.78329
0.70215
0.43198
0.036754
-0.44535
-0.74129
-0.71265
-0.3537
0.10931
0.44821
0.56181
0.50263
0.3957
0.29833
0.22959
0.18663
0.17327
0.17804
0.20191
0.22864
0.26301
0.30883
0.35465
0.39857
0.45585
0.51408
0.54749
0.54081
0.49499
0.44248
0.41384
0.42053
0.45776
0.50263
0.55704
0.61432
0.66492
0.69833
0.7222
0.74033
0.74988
0.76229
0.77279
0.77947
0.78043
0.78234
0.78234
0.77661
0.76897
0.76325
0.75084
0.73461
0.72029
0.70788
0.6926
0.67924
0.66492
0.64105
0.59236
0.5074
0.38616
0.20764
-0.12172
-0.56277
-0.91313
-1
-0.68878
-0.20668
0.16181
0.35752
0.30119
0.16563
0.073986
0.069212
0.1284
0.19236
0.23723
0.25823
0.25346
0.23437
0.2
0.15036
0.061575
-0.060621
-0.14463
-0.14749
-0.040573
0.11981
0.24773
0.32601
0.37661
0.42243
0.46253
0.49881
0.52745
0.54749
0.56277
0.58568
0.61337
0.6315
0.64296
0.65346
0.66205
0.66778
0.67542
0.68115
0.68019
0.67924
0.68115
0.68305
0.6821
0.6821
0.68019
0.67351
0.67064
0.6716
0.66778
0.65728
0.64678
0.62482
0.58473
0.52363
0.43294
0.30215
0.079714
-0.36229
-0.72124
-0.97995
-0.85871
-0.44057
0.025298
0.26969
0.32411
0.15131
0.011933
-0.03389
0.010024
0.094988
0.18186
0.25251
0.30597
0.3031
0.1685
0.052029
-0.08926
-0.1179
-0.096897
-0.055847
0.026253
0.13413
0.25155
0.34893
0.43198
0.49308
0.5284
0.52745
0.48353
0.46348
0.4673
0.5179
0.57232
0.60191
0.61241
0.62196
0.6315
0.62864
0.61432
0.59523
0.58186
0.57995
0.59714
0.62005
0.63914
0.65919
0.68115
0.69737
0.70788
0.71742
0.7222
0.72411
0.72792
0.73174
0.72888
0.71838
0.70119
0.66396
0.59905
0.50072
0.35084
0.10931
-0.29547
-0.60859
-0.76611
-0.58759
-0.15131
0.30406
0.44821
0.43198
0.16945
0.016706
-0.039618
-0.015752
0.079714
0.18377
0.29356
0.38043
0.36134
0.23246
0.088305
-0.075895
-0.10549
-0.096897
-0.031981
0.077804
0.19523
0.31647
0.42243
0.50549
0.56563
0.60095
0.62768
0.64487
0.66396
0.6821
0.69928
0.72315
0.75084
0.77279
0.78711
0.79952
0.80716
0.80907
0.81002
0.81384
0.81193
0.80525
0.80048
0.79284
0.78425
0.77566
0.77184
0.7642
0.75465
0.75084
0.74129
0.7327
0.72124
0.71265
0.69928
0.68592
0.67255
0.64582
0.58282
0.48067
0.34606
0.15131
-0.2401
-0.579
-0.87208
-0.82053
-0.46062
0.051074
0.38807
0.51504
0.36706
0.17232
0.075895
0.068258
0.12745
0.20191
0.28305
0.35465
0.3852
0.2821
0.19905
0.061575
0.001432
-0.011933
-0.0052506
0.066348
0.16468
0.2716
0.37184
0.44916
0.50931
0.54749
0.5685
0.58091
0.59523
0.61241
0.62959
0.65155
0.68019
0.70501
0.72124
0.73556
0.73842
0.73842
0.73938
0.7432
0.7432
0.74033
0.73747
0.72983
0.71933
0.71074
0.70883
0.70406
0.70024
0.70024
0.69833
0.69451
0.68974
0.68783
0.67637
0.66396
0.65442
0.63819
0.60573
0.53126
0.42625
0.27064
0.017661
-0.38616
-0.69451
-0.85776
-0.66492
-0.23628
0.23246
0.42721
0.44248
0.21527
0.055847
-0.001432
0.02148
0.099761
0.19141
0.29356
0.36325
0.30788
0.24582
0.13699
0.050119
0.027208
-0.00047733
0.031026
0.10453
0.19332
0.27828
0.3537
0.41384
0.45012
0.47017
0.47971
0.49308
0.50167
0.51313
0.53031
0.558
0.58473
0.60859
0.62864
0.64296
0.65155
0.65537
0.66301
0.66587
0.6716
0.68019
0.6821
0.6821
0.67924
0.67828
0.67351
0.67064
0.67064
0.66587
0.65919
0.65155
0.64773
0.63819
0.62959
0.61814
0.59905
0.558
0.48735
0.3957
0.26587
0.079714
-0.27064
-0.56181
-0.77757
-0.68783
-0.34129
0.1179
0.42339
0.49594
0.34033
0.12458
0.034845
0.010979
0.056802
0.13222
0.23437
0.32983
0.35847
0.29165
0.24296
0.11408
0.070167
0.01957
0.023389
0.086396
0.17709
0.26396
0.34033
0.41098
0.45967
0.49212
0.50931
0.52363
0.53222
0.54081
0.55227
0.57709
0.59905
0.621
0.64105
0.64964
0.65251
0.65346
0.65919
0.65728
0.65728
0.65632
0.65632
0.65346
0.65442
0.65728
0.65442
0.65442
0.65537
0.65442
0.6506
0.64869
0.64964
0.64773
0.64678
0.64296
0.62959
0.60191
0.55513
0.47017
0.35561
0.19141
-0.073986
-0.44439
-0.72697
-0.82816
-0.61337
-0.19618
0.27446
0.46635
0.47971
0.23341
0.06253
-0.0062053
-0.010024
0.056802
0.14463
0.25632
0.3432
0.30597
0.28115
0.17804
0.096897
0.063484
0.015752
0.036754
0.11026
0.19427
0.28115
0.35561
0.41671
0.44821
0.47017
0.48831
0.50072
0.50931
0.51885
0.53986
0.56372
0.59045
0.61241
0.62959
0.6401
0.6506
0.66396
0.66874
0.67351
0.67351
0.67064
0.66492
0.66396
0.66205
0.65728
0.65632
0.65632
0.6611
0.66301
0.66683
0.6716
0.67064
0.67064
0.66969
0.66587
0.65155
0.63628
0.58473
0.48162
0.34797
0.17804
-0.094033
-0.44439
-0.69928
-0.75847
-0.49594
-0.055847
0.38711
0.51885
0.4864
0.21623
0.052983
-0.025298
-0.012888
0.069212
0.17422
0.30024
0.38902
0.32983
0.32029
0.18282
0.1284
0.066348
0.037709
0.085442
0.1685
0.25728
0.34606
0.42625
0.47017
0.50263
0.51885
0.52458
0.52076
0.51599
0.52554
0.54463
0.57232
0.59809
0.61718
0.63055
0.64296
0.65537
0.66301
0.6716
0.68115
0.69165
0.69737
0.70788
0.71647
0.72124
0.72697
0.73365
0.73842
0.73938
0.74415
0.74511
0.7432
0.73938
0.73842
0.73556
0.72411
0.7136
0.68878
0.65632
0.61146
0.5494
0.45394
0.30692
0.099761
-0.27446
-0.56659
-0.81193
-0.73556
-0.4043
0.084487
0.48258
0.56086
0.42148
0.158
0.025298
-0.025298
0.010024
0.085442
0.1895
0.30692
0.36802
0.33079
0.30406
0.19236
0.1494
0.088305
0.063484
0.10931
0.1895
0.27351
0.35656
0.42053
0.45585
0.46826
0.47303
0.47494
0.47303
0.47494
0.48544
0.5074
0.52649
0.54845
0.56468
0.57995
0.59523
0.61337
0.62673
0.63341
0.64391
0.64964
0.65442
0.65823
0.66683
0.6716
0.67351
0.67828
0.67637
0.6716
0.66778
0.66683
0.66492
0.6611
0.66014
0.65442
0.64678
0.63628
0.62673
0.60668
0.56659
0.50549
0.41098
0.26492
0.0358
-0.34129
-0.63819
-0.82434
-0.67924
-0.2926
0.20191
0.48926
0.51981
0.28783
0.053938
-0.049165
-0.075895
-0.01957
0.067303
0.19427
0.31074
0.32888
0.32315
0.2401
0.14558
0.092124
0.031026
0.03389
0.097852
0.18854
0.28592
0.36993
0.43103
0.46253
0.47971
0.48544
0.49308
0.4969
0.49976
0.51885
0.54368
0.56754
0.5895
0.60955
0.62673
0.63914
0.65537
0.66969
0.67924
0.68974
0.70119
0.70788
0.7136
0.72029
0.7222
0.72124
0.71933
0.72411
0.72124
0.71933
0.71838
0.71265
0.70406
0.69356
0.68878
0.67542
0.66683
0.65155
0.63246
0.60191
0.54749
0.46348
0.33079
0.1389
-0.19141
-0.51217
-0.77947
-0.77566
-0.47399
-0.00047733
0.46826
0.59141
0.50263
0.20859
0.025298
-0.053938
-0.049165
0.010024
0.11217
0.2506
0.33842
0.31265
0.30119
0.18759
0.13604
0.071122
0.0358
0.063484
0.13986
0.2315
0.32411
0.39379
0.43962
0.46348
0.46444
0.47112
0.47399
0.48353
0.50263
0.52745
0.54272
0.55513
0.56563
0.57804
0.59236
0.60668
0.62482
0.63723
0.64869
0.6611
0.66969
0.67637
0.68019
0.68687
0.68878
0.6926
0.69547
0.69451
0.68783
0.68401
0.68401
0.6821
0.6821
0.67733
0.66969
0.65537
0.64678
0.63437
0.6105
0.57518
0.50453
0.41384
0.29069
0.090215
-0.27542
-0.60573
-0.8864
-0.8358
-0.50358
-0.0090692
0.37184
0.41384
0.22387
-0.077804
-0.221
-0.26587
-0.21432
-0.11313
0.022434
0.1685
0.22864
0.18186
0.14081
0.042482
0.027208
-0.0081146
-0.0052506
0.061575
0.16945
0.28019
0.38234
0.45776
0.49499
0.51504
0.5179
0.52649
0.52745
0.53508
0.55322
0.579
0.60095
0.62196
0.64582
0.66301
0.68496
0.70597
0.72411
0.73652
0.74511
0.75561
0.75943
0.76897
0.78138
0.79093
0.79189
0.79093
0.78807
0.77947
0.77279
0.76706
0.76134
0.75179
0.7432
0.73461
0.7222
0.71169
0.70215
0.68783
0.66205
0.62291
0.55227
0.45394
0.31169
0.060621
-0.34033
-0.69451
-0.94463
-0.82912
-0.44535
0.099761
0.42434
0.43675
0.17518
-0.07685
-0.1895
-0.20859
-0.15609
-0.06253
0.067303
0.19905
0.242
0.21146
0.16659
0.097852
0.093079
0.057757
0.06253
0.12554
0.221
0.32124
0.40716
0.47017
0.49594
0.5179
0.53413
0.55227
0.56563
0.58377
0.61337
0.64678
0.68115
0.71265
0.73652
0.75084
0.76516
0.77375
0.77566
0.77852
0.77947
0.77947
0.77279
0.76993
0.76611
0.7642
0.76802
0.77566
0.78234
0.78425
0.78616
0.78425
0.78138
0.77947
0.78329
0.78234
0.77661
0.77184
0.76038
0.74511
0.72983
0.70883
0.66396
0.59618
0.50263
0.36134
0.11885
-0.28687
-0.642
-0.9179
-0.82434
-0.44535
0.094988
0.42721
0.44726
0.18663
-0.083532
-0.20668
-0.22768
-0.1599
-0.061575
0.077804
0.20764
0.22673
0.21909
0.15131
0.099761
0.07685
0.044391
0.057757
0.12363
0.22959
0.34702
0.45012
0.5074
0.52936
0.52458
0.51026
0.51599
0.5284
0.55131
0.5685
0.58854
0.60573
0.61909
0.63341
0.65251
0.6716
0.68687
0.7031
0.71265
0.71838
0.72506
0.73174
0.73842
0.74129
0.74893
0.74988
0.74988
0.74988
0.7537
0.75465
0.7537
0.75465
0.74893
0.73747
0.72601
0.71838
0.70692
0.69833
0.68592
0.66778
0.63914
0.59618
0.056802
