0.3655
0.35673
0.35673
0.36257
0.30994
0.21637
0.096491
-0.011696
-0.12573
-0.22515
-0.29532
-0.31579
-0.33626
-0.35088
-0.34795
-0.37135
-0.40058
-0.43567
-0.46784
-0.49123
-0.50585
-0.5117
-0.52924
-0.53801
-0.54094
-0.53216
-0.49708
-0.42398
-0.30994
-0.26608
-0.28947
-0.26023
-0.13743
0.093567
0.27193
0.33333
0.32164
0.31287
0.31871
0.29825
0.22515
0.14327
0.05848
-0.023392
-0.12573
-0.18713
-0.20468
-0.22222
-0.19298
-0.19591
-0.17836
-0.21345
-0.24269
-0.29825
-0.34503
-0.40643
-0.45029
-0.49415
-0.54678
-0.60819
-0.71053
-0.77193
-0.7924
-0.67544
-0.44152
-0.19883
-0.0087719
0.093567
0.12573
0.14035
0.15497
0.12573
0.067251
-0.011696
-0.096491
-0.14035
-0.19298
-0.22222
-0.27778
-0.33918
-0.40058
-0.47953
-0.54386
-0.57602
-0.56725
-0.54971
-0.53509
-0.52924
-0.53216
-0.54678
-0.5614
-0.59357
-0.64035
-0.65789
-0.66959
-0.6345
-0.59064
-0.5
-0.45906
-0.44444
-0.38304
-0.20175
0.049708
0.22807
0.26608
0.23099
0.23099
0.22515
0.23684
0.22222
0.13743
0.032164
-0.055556
-0.13743
-0.22222
-0.30702
-0.37427
-0.41813
-0.42398
-0.40936
-0.37719
-0.36842
-0.34211
-0.35088
-0.3538
-0.40351
-0.45029
-0.53216
-0.59357
-0.68713
-0.74269
-0.80117
-0.83333
-0.80702
-0.73099
-0.51462
-0.25731
-0.017544
0.099415
0.076023
0.017544
-0.064327
-0.16959
-0.27193
-0.35673
-0.40643
-0.45906
-0.50292
-0.57895
-0.63743
-0.70175
-0.73977
-0.76316
-0.75439
-0.72807
-0.70468
-0.69883
-0.69883
-0.7076
-0.74561
-0.77485
-0.83626
-0.89181
-0.95906
-0.97368
-0.89766
-0.76316
-0.60234
-0.44444
-0.28655
-0.16667
-0.087719
-0.064327
-0.05848
-0.046784
-0.055556
-0.099415
-0.17836
-0.24561
-0.31579
-0.38596
-0.45029
-0.51462
-0.57895
-0.6345
-0.64912
-0.64327
-0.61404
-0.56433
-0.51462
-0.48538
-0.47076
-0.47661
-0.48246
-0.49415
-0.52339
-0.54094
-0.54386
-0.54386
-0.5
-0.44444
-0.3538
-0.33626
-0.31287
-0.17836
0.081871
0.37427
0.49708
0.4269
0.32164
0.28947
0.2924
0.2807
0.23099
0.17544
0.10234
0.020468
-0.046784
-0.10526
-0.13743
-0.16667
-0.18129
-0.18421
-0.18421
-0.19298
-0.22515
-0.26608
-0.27485
-0.28363
-0.31287
-0.34503
-0.40058
-0.42398
-0.41228
-0.3655
-0.35088
-0.38304
-0.39766
-0.31871
-0.12573
0.087719
0.23392
0.30994
0.30994
0.26608
0.17251
0.064327
-0.017544
-0.076023
-0.13743
-0.21053
-0.28363
-0.3538
-0.43567
-0.5117
-0.53509
-0.53801
-0.50585
-0.49415
-0.47953
-0.4883
-0.47953
-0.47953
-0.4883
-0.52047
-0.57602
-0.7193
-0.7924
-0.8655
-0.76608
-0.51754
-0.21345
0.073099
0.17544
0.17251
0.12281
0.11111
0.10819
0.093567
0.049708
-0.026316
-0.087719
-0.14035
-0.17836
-0.23099
-0.2924
-0.34211
-0.38304
-0.41228
-0.40643
-0.38012
-0.33626
-0.30702
-0.26901
-0.26023
-0.25146
-0.23977
-0.23392
-0.25146
-0.28363
-0.30994
-0.33333
-0.38596
-0.43275
-0.44152
-0.38889
-0.26316
-0.19298
-0.16667
-0.11696
0.05848
0.32164
0.56725
0.65789
0.66374
0.64912
0.6345
0.5848
0.46199
0.30409
0.16082
0.038012
-0.081871
-0.19883
-0.32164
-0.41228
-0.49415
-0.54094
-0.55263
-0.55556
-0.54678
-0.52924
-0.51462
-0.50585
-0.52339
-0.54386
-0.57895
-0.58772
-0.60234
-0.58187
-0.52339
-0.40351
-0.30994
-0.30409
-0.2924
-0.16959
0.049708
0.26608
0.35965
0.37135
0.40058
0.46199
0.49123
0.4386
0.34503
0.23977
0.14912
0.04386
-0.067251
-0.17544
-0.25731
-0.29825
-0.31287
-0.30409
-0.2924
-0.2807
-0.26023
-0.24854
-0.25146
-0.27193
-0.30409
-0.33333
-0.33626
-0.32749
-0.33041
-0.31579
-0.2807
-0.19006
-0.15789
-0.18421
-0.17836
-0.061404
0.15789
0.3655
0.44152
0.42398
0.4269
0.45322
0.42398
0.34795
0.21637
0.093567
-0.017544
-0.13158
-0.25439
-0.36257
-0.44152
-0.46784
-0.47076
-0.46491
-0.45614
-0.46491
-0.49415
-0.52047
-0.54094
-0.5614
-0.5848
-0.5848
-0.58187
-0.56725
-0.54386
-0.4883
-0.40643
-0.35965
-0.35088
-0.34211
-0.25439
-0.011696
0.27778
0.49415
0.59064
0.60819
0.53509
0.40351
0.26316
0.15205
0.052632
-0.046784
-0.15789
-0.27778
-0.37427
-0.44152
-0.48538
-0.50292
-0.50585
-0.49123
-0.49415
-0.50585
-0.53509
-0.55263
-0.56725
-0.57018
-0.57895
-0.60234
-0.6345
-0.66959
-0.67544
-0.62281
-0.56433
-0.54386
-0.54386
-0.44444
-0.23392
0.026316
0.15497
0.18129
0.19883
0.24269
0.2924
0.30409
0.23099
0.14035
0.035088
-0.081871
-0.20175
-0.33626
-0.42105
-0.50292
-0.54386
-0.56433
-0.57018
-0.57602
-0.59064
-0.61988
-0.64912
-0.67251
-0.70468
-0.7193
-0.73977
-0.74561
-0.73099
-0.72807
-0.72515
-0.73684
-0.80702
-0.81871
-0.83918
-0.70468
-0.4152
-0.040936
0.35088
0.57018
0.59357
0.48538
0.34503
0.24269
0.15205
0.078947
0.0087719
-0.040936
-0.10819
-0.18129
-0.25439
-0.34211
-0.40643
-0.45906
-0.5117
-0.53216
-0.53216
-0.50585
-0.48246
-0.46784
-0.46491
-0.48538
-0.50877
-0.51462
-0.51462
-0.52047
-0.55848
-0.54971
-0.43567
-0.11988
0.28363
0.55848
0.61111
0.44152
0.19006
-0.040936
-0.2076
-0.33041
-0.39181
-0.45614
-0.5
-0.54678
-0.57602
-0.60819
-0.63158
-0.65497
-0.66374
-0.6462
-0.63158
-0.60819
-0.58187
-0.55848
-0.55263
-0.54678
-0.54678
-0.54386
-0.54094
-0.52924
-0.51462
-0.50585
-0.48246
-0.46491
-0.45029
-0.45614
-0.45322
-0.45322
-0.46784
-0.47953
-0.49415
-0.50585
-0.53216
-0.54971
-0.56433
-0.57895
-0.58187
-0.55848
-0.47953
-0.34795
-0.30117
-0.26901
-0.23392
-0.046784
0.20468
0.38596
0.41228
0.38596
0.35673
0.31287
0.26901
0.16082
0.04386
-0.10234
-0.23099
-0.34503
-0.43567
-0.50585
-0.53509
-0.55556
-0.55556
-0.54678
-0.52924
-0.49123
-0.45614
-0.42398
-0.40058
-0.39474
-0.38012
-0.35088
-0.28363
-0.19883
-0.11404
-0.12865
-0.18129
-0.29825
-0.37427
-0.44444
-0.45906
-0.46199
-0.46199
-0.47661
-0.5117
-0.55556
-0.62865
-0.6345
-0.64327
-0.59649
-0.56725
-0.54971
-0.55263
-0.56433
-0.57895
-0.59064
-0.59942
-0.58187
-0.55556
-0.52632
-0.49708
-0.47661
-0.45322
-0.44737
-0.44737
-0.45906
-0.49708
-0.50877
-0.42105
-0.20468
0.073099
0.33626
0.49708
0.54971
0.54678
0.53801
0.52924
0.52339
0.53509
0.4883
0.43567
0.36842
0.32164
0.25439
0.14035
-0.023392
-0.15789
-0.26316
-0.33041
-0.33626
-0.31579
-0.29532
-0.31871
-0.38012
-0.38889
-0.30994
-0.17251
-0.05848
-0.096491
-0.2193
-0.33041
-0.37719
-0.33041
-0.23684
-0.10234
-0.052632
-0.10526
-0.23684
-0.39474
-0.5
-0.5731
-0.60526
-0.67251
-0.70468
-0.73392
-0.75146
-0.77778
-0.81287
-0.83626
-0.80994
-0.73977
-0.67544
-0.64035
-0.5614
-0.42398
-0.23099
-0.099415
-0.02924
0.035088
0.17251
0.34211
0.49415
0.54386
0.50877
0.41813
0.27778
0.076023
-0.11988
-0.30117
-0.44444
-0.54678
-0.61404
-0.64327
-0.64912
-0.6462
-0.6345
-0.61404
-0.58772
-0.54678
-0.52339
-0.51754
-0.50877
-0.5
-0.44444
-0.38889
-0.28655
-0.20468
-0.16667
-0.12865
-0.11404
-0.070175
-0.055556
-0.023392
-0.05848
-0.11404
-0.20175
-0.26901
-0.26901
-0.22807
-0.1462
-0.17836
-0.23392
-0.20175
0.0087719
0.34211
0.59357
0.71637
0.74269
0.75439
0.73684
0.69298
0.57018
0.43275
0.26023
0.12573
0.0087719
-0.10819
-0.19006
-0.2924
-0.37719
-0.44444
-0.50292
-0.54678
-0.57895
-0.60526
-0.63743
-0.65789
-0.67544
-0.69591
-0.7076
-0.71345
-0.71053
-0.71345
-0.70468
-0.69006
-0.66959
-0.64912
-0.63158
-0.61696
-0.61111
-0.61404
-0.60819
-0.60234
-0.58772
-0.60819
-0.55263
-0.43567
-0.16667
0.25146
0.61404
0.83041
0.83918
0.71053
0.56433
0.4269
0.27193
0.10819
-0.02924
-0.12573
-0.2076
-0.30117
-0.39181
-0.48246
-0.5614
-0.60234
-0.61696
-0.63158
-0.64327
-0.66082
-0.66959
-0.67836
-0.67836
-0.66374
-0.66667
-0.69591
-0.73684
-0.79825
-0.73099
-0.46491
-0.093567
0.24561
0.37427
0.32164
0.20175
0.076023
-0.026316
-0.13158
-0.24269
-0.35088
-0.44737
-0.54386
-0.62573
-0.69006
-0.73099
-0.75146
-0.74854
-0.72515
-0.70468
-0.69006
-0.67251
-0.6462
-0.6345
-0.62281
-0.62865
-0.61696
-0.61988
-0.60819
-0.60526
-0.61404
-0.61988
-0.61696
-0.61111
-0.60819
-0.61111
-0.60526
-0.60526
-0.59064
-0.57018
-0.5614
-0.56433
-0.5731
-0.54678
-0.48538
-0.35965
-0.23099
-0.25731
-0.30117
-0.27193
-0.070175
0.24561
0.48538
0.56725
0.53216
0.4386
0.32749
0.18421
0.035088
-0.090643
-0.18421
-0.27193
-0.3655
-0.46199
-0.54678
-0.59064
-0.59942
-0.57895
-0.57602
-0.5731
-0.55848
-0.53801
-0.51754
-0.49708
-0.48538
-0.47076
-0.45614
-0.4386
-0.43275
-0.45906
-0.48538
-0.49123
-0.40351
-0.27778
-0.1462
-0.055556
-0.032164
-0.017544
0.011696
0.093567
0.10819
0.064327
-0.061404
-0.16374
-0.16667
-0.16082
-0.19006
-0.25731
-0.31579
-0.36257
-0.42105
-0.47953
-0.53509
-0.57895
-0.59942
-0.61111
-0.61696
-0.61696
-0.62281
-0.64327
-0.65789
-0.64912
-0.61988
-0.59649
-0.59649
-0.61696
-0.5848
-0.42982
-0.061404
0.40936
0.74269
0.80702
0.61696
0.33333
0.10526
-0.061404
-0.19298
-0.29532
-0.39181
-0.46491
-0.52339
-0.55848
-0.5731
-0.57018
-0.5614
-0.54971
-0.54094
-0.53509
-0.53216
-0.52339
-0.50292
-0.49123
-0.47953
-0.45614
-0.4269
-0.40643
-0.38596
-0.36842
-0.35965
-0.33626
-0.30994
-0.2924
-0.26901
-0.26023
-0.24854
-0.26023
-0.25731
-0.25439
-0.25731
-0.26023
-0.26316
-0.25146
-0.26023
-0.22807
-0.16374
-0.040936
0.081871
0.11988
0.073099
0.046784
0.23684
0.5731
0.88304
1
0.96784
0.84795
0.72222
0.5848
0.45322
0.32749
0.21637
0.13158
0.05848
-0.011696
-0.096491
-0.17836
-0.23099
-0.27778
-0.30409
-0.32749
-0.35088
-0.33626
-0.33333
-0.32749
-0.31871
-0.29532
-0.2807
-0.27193
-0.26608
-0.26608
-0.26316
-0.21345
-0.13158
-0.067251
-0.084795
-0.19006
-0.34211
-0.47953
-0.56725
-0.60819
-0.64912
-0.69006
-0.72807
-0.76023
-0.79825
-0.81287
-0.80702
-0.77193
-0.71637
-0.62865
-0.53509
-0.45614
-0.37719
-0.27485
-0.16667
-0.076023
-0.005848
0.026316
0.11111
0.24854
0.38304
0.46491
0.47076
0.45906
0.40936
0.2807
0.10819
-0.087719
-0.2193
-0.33041
-0.36842
-0.39181
-0.42398
-0.44444
-0.42105
-0.40643
-0.37135
-0.33918
-0.33333
-0.2924
-0.27778
-0.2076
-0.17544
-0.14035
-0.16082
-0.16374
-0.20468
-0.22222
-0.2076
-0.22222
-0.20175
-0.25146
-0.26608
-0.32456
-0.33333
-0.3538
-0.38012
-0.40351
-0.4152
-0.42398
-0.42982
-0.45029
-0.47368
-0.50877
-0.52632
-0.51754
-0.47368
-0.38304
-0.27193
-0.16082
-0.18421
-0.23684
-0.22807
-0.011696
0.33918
0.6345
0.72515
0.65789
0.53216
0.41813
0.29825
0.18421
0.084795
-0.026316
-0.12865
-0.25439
-0.33333
-0.4269
-0.47953
-0.5117
-0.53509
-0.56725
-0.60526
-0.6462
-0.69298
-0.73684
-0.77193
-0.80409
-0.83626
-0.86257
-0.8538
-0.81871
-0.73392
-0.65497
-0.56433
-0.41813
-0.18129
0.11988
0.36842
0.46784
0.45322
0.32456
0.15497
-0.002924
-0.12573
-0.22222
-0.28655
-0.35088
-0.43567
-0.51754
-0.57602
-0.60819
-0.62573
-0.63158
-0.61988
-0.59942
-0.59357
-0.5848
-0.57895
-0.60819
-0.60234
-0.60234
-0.59649
-0.59064
-0.57018
-0.57602
-0.57018
-0.57602
-0.57018
-0.5731
-0.54678
-0.52632
-0.51462
-0.5
-0.48246
-0.46784
-0.45029
-0.45906
-0.45906
-0.46784
-0.49708
-0.50585
-0.49708
-0.45614
-0.35965
-0.2193
-0.16374
-0.24269
-0.36842
-0.31871
0
0.39181
0.67836
0.73099
0.63158
0.50585
0.37427
0.23977
0.1345
0.040936
-0.046784
-0.11988
-0.15205
-0.20175
-0.26023
-0.31579
-0.34503
-0.34503
-0.37135
-0.39181
-0.42398
-0.44152
-0.41228
-0.3655
-0.35088
-0.40936
-0.49123
-0.60819
-0.72222
-0.75731
-0.74561
-0.68421
-0.61696
-0.55848
-0.5117
-0.47076
-0.46784
-0.4883
-0.51462
-0.54386
-0.57602
-0.64912
-0.71345
-0.75146
-0.74561
-0.73099
-0.62573
-0.43567
-0.22222
-0.049708
0.017544
-0.005848
-0.073099
-0.14912
-0.23392
-0.33041
-0.42398
-0.5
-0.53801
-0.5731
-0.59942
-0.61696
-0.63158
-0.65205
-0.66959
-0.69006
-0.7076
-0.71345
-0.71637
-0.7076
-0.70175
-0.67836
-0.65497
-0.64912
-0.62865
-0.59064
-0.50585
-0.4152
-0.30994
-0.20468
-0.14035
-0.2193
-0.2924
-0.27778
-0.032164
0.38596
0.7076
0.85673
0.82749
0.73099
0.62573
0.52047
0.40643
0.25731
0.10234
-0.026316
-0.081871
-0.11111
-0.15205
-0.23099
-0.24269
-0.24561
-0.18421
-0.14035
-0.099415
-0.090643
-0.11111
-0.076023
0.002924
0.12865
0.20468
0.18713
0.17544
0.16082
0.14327
0.064327
-0.023392
-0.11404
-0.18713
-0.24561
-0.28947
-0.32164
-0.37427
-0.42105
-0.46784
-0.4883
-0.52047
-0.52339
-0.52924
-0.54678
-0.5614
-0.61696
-0.61696
-0.62573
-0.5848
-0.56725
-0.55263
-0.54094
-0.52924
-0.54094
-0.55848
-0.5731
-0.57895
-0.5848
-0.58187
-0.59357
-0.60526
-0.61696
-0.61696
-0.60819
-0.60526
-0.62865
-0.66082
-0.65497
-0.55848
-0.34503
-0.10819
0.14912
0.38889
0.60526
0.76901
0.76316
0.64035
0.45029
0.34795
0.32749
0.30702
0.23684
0.10819
-0.020468
-0.1345
-0.21637
-0.26901
-0.30409
-0.34795
-0.41228
-0.4883
-0.54971
-0.56725
-0.52047
-0.47953
-0.46199
-0.43275
-0.35673
-0.2193
-0.032164
0.2076
0.34795
0.37135
0.26901
0.067251
-0.1345
-0.30994
-0.42398
-0.48246
-0.51462
-0.53509
-0.53801
-0.57018
-0.59649
-0.55556
-0.4269
-0.26608
-0.15205
-0.12573
-0.16959
-0.29825
-0.33333
-0.43275
-0.39766
-0.2193
0.020468
0.24561
0.30117
0.19298
0.032164
-0.078947
-0.14327
-0.21345
-0.31287
-0.41813
-0.52632
-0.60526
-0.67836
-0.72222
-0.74269
-0.76608
-0.78655
-0.67836
-0.46491
-0.16667
0.02924
0.064327
-0.032164
-0.15205
-0.23684
-0.26901
-0.22222
-0.1462
-0.11988
-0.15205
-0.23684
-0.33333
-0.43567
-0.50292
-0.54386
-0.57602
-0.61696
-0.64912
-0.66374
-0.67251
-0.66959
-0.66667
-0.66374
-0.66959
-0.65497
-0.6345
-0.61404
-0.59649
-0.58772
-0.56725
-0.55263
-0.52047
-0.48538
-0.46491
-0.42982
-0.39181
-0.3538
-0.32456
-0.27778
-0.21637
-0.11404
0.017544
0.055556
0.002924
-0.040936
0.073099
0.36842
0.68421
0.84211
0.8538
0.75439
0.63158
0.49708
0.34503
0.19298
0.05848
-0.067251
-0.18129
-0.30702
-0.40058
-0.47953
-0.53801
-0.57018
-0.56725
-0.55556
-0.53509
-0.49708
-0.49123
-0.46491
-0.47076
-0.47076
-0.48246
-0.50292
-0.52924
-0.53509
-0.54094
-0.52924
-0.51754
-0.5117
-0.49415
-0.46199
-0.42398
-0.39181
-0.36257
-0.3538
-0.34503
-0.33626
-0.30117
-0.28363
-0.25731
-0.20468
-0.11696
0
0.10526
0.073099
-0.017544
-0.067251
0.090643
0.4386
0.76316
0.91813
0.87135
0.7193
0.54678
0.38596
0.24269
0.11988
0.017544
-0.038012
-0.081871
-0.10234
-0.12281
-0.17251
-0.24561
-0.33626
-0.40351
-0.47368
-0.52632
-0.56433
-0.59357
-0.61404
-0.64327
-0.66374
-0.69006
-0.68421
-0.68713
-0.67544
-0.67836
-0.66374
-0.64035
-0.61404
-0.59942
-0.58772
-0.5731
-0.56725
-0.55556
-0.54971
-0.54971
-0.54094
-0.52632
-0.5
-0.47953
-0.4269
-0.3538
-0.24561
-0.1345
-0.081871
-0.14035
-0.23684
-0.20175
0.052632
0.39181
0.6345
0.70468
0.6345
0.50292
0.3655
0.23977
0.15205
0.067251
-0.011696
-0.093567
-0.16082
-0.19298
-0.23392
-0.28947
-0.36257
-0.4152
-0.46491
-0.5
-0.51462
-0.53801
-0.54971
-0.54971
-0.52339
-0.50877
-0.47368
-0.42398
-0.35673
-0.30994
-0.32749
-0.39181
-0.45614
-0.51462
-0.54678
-0.59357
-0.64327
-0.65789
-0.67544
-0.69006
-0.70468
-0.72515
-0.74561
-0.77485
-0.78655
-0.78947
-0.78363
-0.76023
-0.72807
-0.69298
-0.66082
-0.63743
-0.61696
-0.61111
-0.59649
-0.57602
-0.55848
-0.55263
-0.54386
-0.54094
-0.53801
-0.53216
-0.52632
-0.52339
-0.53216
-0.53509
-0.54094
-0.55263
-0.55848
-0.57018
-0.56725
-0.52047
-0.42982
-0.32749
-0.2076
-0.16959
-0.21345
-0.27485
-0.21053
0.070175
0.44444
0.70468
0.74561
0.6345
0.44737
0.26608
0.11111
-0.02924
-0.16667
-0.23392
-0.22515
-0.17836
-0.1345
-0.14035
-0.19883
-0.26316
-0.29532
-0.30702
-0.30702
-0.27485
-0.2807
-0.30702
-0.31287
-0.31287
-0.27485
-0.25439
-0.20468
-0.16082
-0.14035
-0.13158
-0.1462
-0.1345
-0.12865
-0.11696
-0.11404
-0.14327
-0.19298
-0.26023
-0.32456
-0.38889
-0.44152
-0.47953
-0.52632
-0.57895
-0.62865
-0.66667
-0.69883
-0.72222
-0.73684
-0.71345
-0.69298
-0.6345
-0.60819
-0.5848
-0.57602
-0.55556
-0.53801
-0.52924
-0.5117
-0.50877
-0.50877
-0.50585
-0.49708
-0.46784
-0.45614
-0.43567
-0.42398
-0.4152
-0.40643
-0.39766
-0.38889
-0.36842
-0.31579
-0.25146
-0.16959
-0.049708
0.026316
-0.005848
-0.070175
-0.032164
0.23684
0.6345
0.9152
0.99708
0.89766
0.76608
0.64912
0.53509
0.42398
0.2924
0.16959
0.073099
0.05848
0.078947
0.11696
0.10234
0.081871
0.061404
0.040936
0.01462
-0.02924
-0.067251
-0.087719
-0.02924
0.073099
0.16082
0.20175
0.17544
0.078947
-0.061404
-0.19883
-0.30702
-0.37135
-0.39766
-0.40058
-0.36842
-0.34211
-0.30702
-0.30702
-0.33918
-0.37719
-0.39181
-0.42982
-0.45029
-0.49415
-0.52924
-0.57018
-0.59064
-0.60526
-0.62865
-0.6345
-0.6345
-0.62281
-0.61111
-0.59649
-0.57895
-0.56725
-0.55263
-0.53801
-0.53216
-0.52632
-0.51462
-0.49415
-0.48538
-0.47076
-0.45906
-0.45029
-0.44737
-0.4386
-0.43567
-0.4386
-0.4386
-0.44737
-0.44152
-0.40936
-0.34211
-0.24561
-0.13158
-0.084795
-0.1462
-0.23977
-0.19883
0.076023
0.47076
0.72515
0.77193
0.66667
0.50292
0.35965
0.22807
0.12281
-0.002924
-0.11696
-0.20468
-0.23099
-0.20468
-0.16959
-0.17836
-0.21053
-0.24854
-0.25731
-0.25731
-0.25731
-0.25146
-0.24854
-0.24269
-0.22222
-0.22807
-0.23977
-0.23684
-0.26901
-0.31871
-0.3655
-0.39474
-0.40058
-0.4269
-0.42105
-0.39181
-0.35673
-0.33041
-0.36842
-0.41813
-0.47953
-0.52632
-0.5614
-0.61696
-0.67544
-0.72515
-0.76316
-0.79532
-0.80994
-0.81287
-0.80702
-0.80409
-0.7807
-0.76316
-0.73099
-0.7193
-0.69591
-0.68129
-0.66374
-0.63158
-0.60234
-0.57602
-0.54386
-0.50292
-0.46491
-0.44152
-0.42398
-0.42105
-0.42398
-0.42982
-0.4269
-0.4269
-0.4386
-0.42982
-0.43275
-0.4269
-0.40351
-0.32749
-0.20468
-0.084795
-0.090643
-0.16959
-0.24269
-0.10819
0.28363
0.65497
0.84795
0.80409
0.64327
0.47076
0.33041
0.2193
0.12573
0.02924
-0.049708
-0.11404
-0.14327
-0.17544
-0.23099
-0.29825
-0.30994
-0.29825
-0.26608
-0.28363
-0.29825
-0.29532
-0.22515
-0.096491
0.017544
0.076023
0.067251
-0.002924
-0.11404
-0.22807
-0.30994
-0.34503
-0.39181
-0.4269
-0.46784
-0.43275
-0.3655
-0.29825
-0.27485
-0.29825
-0.31579
-0.29825
-0.30702
-0.31579
-0.31871
-0.35088
-0.29825
-0.2076
-0.070175
0.038012
0.04386
0.017544
-0.023392
-0.096491
-0.19298
-0.27485
-0.31579
-0.34503
-0.35088
-0.30409
-0.23977
-0.16959
-0.16374
-0.22807
-0.32456
-0.38012
-0.40643
-0.44152
-0.46784
-0.47661
-0.48246
-0.50292
-0.52047
-0.53801
-0.56433
-0.5848
-0.59649
-0.59649
-0.59064
-0.57895
-0.57018
-0.55263
-0.53216
-0.51754
-0.51462
-0.5117
-0.50585
-0.49415
-0.48246
-0.44152
-0.35965
-0.27193
-0.1462
-0.10526
-0.17544
-0.2807
-0.20468
0.090643
0.47661
0.69006
0.70468
0.59357
0.44737
0.32749
0.19883
0.076023
-0.05848
-0.18421
-0.27193
-0.30994
-0.27778
-0.23392
-0.22515
-0.23099
-0.21345
-0.23099
-0.2193
-0.24854
-0.26608
-0.30409
-0.33626
-0.37719
-0.4269
-0.45614
-0.4883
-0.49415
-0.5117
-0.52047
-0.53216
-0.54971
-0.58187
-0.5848
-0.59942
-0.61404
-0.60234
-0.59357
-0.56433
-0.53801
-0.5
-0.47076
-0.45614
-0.44152
-0.42105
-0.40351
-0.38596
-0.37427
-0.35088
-0.33041
-0.26608
-0.17544
-0.040936
-0.011696
-0.11696
-0.24561
-0.18129
0.19006
0.65789
0.9386
0.96491
0.83041
0.65497
0.47661
0.32456
0.19298
0.073099
-0.005848
-0.020468
0.005848
0.023392
-0.040936
-0.17544
-0.29532
-0.38304
-0.42105
-0.44152
-0.45906
-0.45029
-0.42982
-0.39474
-0.33333
-0.26608
-0.19591
-0.14035
-0.11404
-0.12281
-0.14912
-0.17836
-0.19006
-0.23684
-0.30702
-0.37719
-0.43275
-0.49123
-0.53801
-0.57895
-0.59649
-0.60526
-0.61404
-0.63158
-0.64327
-0.65205
-0.6462
-0.63743
-0.62865
-0.60819
-0.59064
-0.58187
-0.57018
-0.55263
-0.54094
-0.53216
-0.52339
-0.52339
-0.52924
-0.53509
-0.53216
-0.52632
-0.51462
-0.49415
-0.48246
-0.47661
-0.47076
-0.45906
-0.45029
-0.4386
-0.4269
-0.42398
-0.43567
-0.44152
-0.44152
-0.44444
-0.4386
-0.43567
-0.4269
-0.42105
-0.38889
-0.34211
-0.25146
-0.22515
-0.31579
-0.41228
-0.31287
0.032164
0.4883
0.77485
0.80409
0.67251
0.50292
0.33918
0.21637
0.076023
-0.067251
-0.15205
-0.14327
-0.070175
0
0.011696
-0.032164
-0.070175
-0.093567
-0.11988
-0.16959
-0.27485
-0.35965
-0.4152
-0.40351
-0.32164
-0.2193
-0.14327
-0.10234
-0.11111
-0.17251
-0.24854
-0.30702
-0.33918
-0.3655
-0.40351
-0.4386
-0.45029
-0.47953
-0.5117
-0.54971
-0.56725
-0.56725
-0.5614
-0.55848
-0.53509
-0.52632
-0.52339
-0.52924
-0.52924
-0.5117
-0.49415
-0.48538
-0.48538
-0.46784
-0.46199
-0.45029
-0.4386
-0.4269
-0.4269
-0.42398
-0.42982
-0.4386
-0.4386
-0.43567
-0.43567
-0.4386
-0.4386
-0.43275
-0.42398
-0.4152
-0.40058
-0.40351
-0.41228
-0.42105
-0.42398
-0.4386
-0.45614
-0.46784
-0.44444
-0.36257
-0.26023
-0.1462
-0.15497
-0.25146
-0.36257
-0.25146
0.084795
0.49415
0.74269
0.75731
0.62865
0.47368
0.33626
0.21345
0.10526
-0.002924
-0.046784
-0.04386
-0.0087719
-0.0087719
-0.052632
-0.099415
-0.1462
-0.17544
-0.2193
-0.2807
-0.35965
-0.41813
-0.44737
-0.42982
-0.40351
-0.33626
-0.23099
-0.067251
0.078947
0.17251
0.16082
0.084795
-0.020468
-0.13743
-0.25731
-0.34211
-0.40058
-0.47076
-0.54971
-0.64912
-0.69591
-0.71637
-0.71637
-0.7076
-0.69298
-0.67544
-0.6462
-0.6345
-0.61988
-0.59064
-0.55263
-0.51462
-0.4883
-0.45906
-0.43567
-0.42398
-0.41228
-0.40351
-0.38889
-0.37427
-0.37427
-0.37427
-0.37135
-0.3655
-0.3655
-0.37135
-0.37719
-0.35965
-0.34503
-0.31287
-0.31871
-0.34503
-0.37427
-0.38889
-0.39766
-0.43567
-0.48246
-0.4883
-0.45322
-0.29532
-0.017544
0.31287
0.61111
0.73684
0.74561
0.70175
0.64327
0.59649
0.5
0.36842
0.20175
0.04386
-0.081871
-0.24561
-0.31287
-0.28363
-0.16959
-0.052632
-0.026316
-0.055556
-0.096491
-0.12281
-0.16082
-0.22807
-0.32749
-0.4269
-0.50877
-0.57018
-0.59942
-0.59649
-0.61404
-0.64912
-0.64912
-0.51462
-0.30994
-0.090643
-0.017544
-0.032164
-0.10234
-0.16959
-0.25731
-0.36842
-0.50292
-0.59942
-0.70175
-0.74854
-0.75439
-0.75731
-0.74854
-0.75439
-0.76316
-0.78947
-0.79825
-0.78947
-0.77193
-0.74269
-0.70175
-0.64912
-0.60234
-0.56433
-0.53509
-0.51754
-0.50292
-0.4883
-0.47076
-0.46784
-0.46491
-0.45322
-0.43275
-0.4152
-0.39181
-0.37135
-0.35965
-0.34503
-0.33041
-0.31579
-0.31287
-0.32456
-0.31871
-0.31871
-0.31871
-0.30409
-0.26023
-0.19006
-0.096491
-0.0087719
-0.01462
-0.11111
-0.18713
-0.081871
0.24854
0.64912
0.88012
0.89181
0.75146
0.60819
0.46491
0.32456
0.17251
0.005848
-0.070175
-0.046784
0.038012
0.10234
0.078947
0.04386
-0.035088
-0.11404
-0.23099
-0.32749
-0.44444
-0.50877
-0.53801
-0.55263
-0.56433
-0.59942
-0.60819
-0.61696
-0.60234
-0.44737
-0.2193
0.084795
0.33626
0.44737
0.44737
0.37719
0.30409
0.22807
0.11404
-0.038012
-0.19591
-0.33918
-0.41228
-0.45322
-0.49708
-0.52924
-0.55848
-0.55263
-0.54971
-0.54386
-0.54678
-0.53801
-0.53509
-0.52632
-0.52924
-0.54971
-0.55848
-0.55556
-0.54094
-0.55263
-0.56433
-0.59357
-0.61111
-0.62865
-0.6345
-0.6345
-0.63743
-0.62865
-0.6345
-0.64035
-0.64327
-0.62865
-0.61404
-0.59942
-0.5731
-0.55263
-0.53216
-0.50877
-0.4883
-0.46784
-0.4386
-0.36257
-0.26023
-0.17836
-0.093567
-0.13743
-0.22807
-0.27778
-0.13158
0.22515
0.58772
0.77778
0.77485
0.65205
0.52047
0.38012
0.24561
0.087719
-0.10526
-0.25146
-0.28655
-0.22222
-0.13743
-0.081871
-0.081871
-0.052632
-0.046784
-0.061404
-0.12865
-0.21637
-0.2807
-0.31871
-0.34503
-0.38889
-0.45029
-0.51462
-0.57018
-0.62573
-0.64327
-0.53509
-0.25731
0.096491
0.41228
0.56725
0.57018
0.50292
0.39766
0.25146
0.049708
-0.13743
-0.2807
-0.35673
-0.41228
-0.47661
-0.54678
-0.60234
-0.62865
-0.6345
-0.63743
-0.64035
-0.63158
-0.63158
-0.64912
-0.66082
-0.65497
-0.64035
-0.62865
-0.61404
-0.60526
-0.58187
-0.54678
-0.51462
-0.49415
-0.48246
-0.48246
-0.47661
-0.47076
-0.45906
-0.4386
-0.43567
-0.41813
-0.40058
-0.38012
-0.38012
-0.37719
-0.37719
-0.37719
-0.38304
-0.38596
-0.39766
-0.40058
-0.39766
-0.34503
-0.27778
-0.17544
-0.16667
-0.29825
-0.47076
-0.4386
-0.14327
0.30117
0.60819
0.70468
0.62865
0.5117
0.40058
0.27193
0.12573
-0.049708
-0.13743
-0.11696
-0.017544
0.081871
0.087719
0.023392
-0.035088
-0.10234
-0.16667
-0.24269
-0.32164
-0.39181
-0.46199
-0.53509
-0.61696
-0.7193
-0.79532
-0.83918
-0.84795
-0.85088
-0.80117
-0.60234
-0.30117
0.05848
0.29532
0.37719
0.34795
0.24269
0.081871
-0.070175
-0.2193
-0.30409
-0.38889
-0.45029
-0.49123
-0.55263
-0.60819
-0.64912
-0.66374
-0.66667
-0.66667
-0.67836
-0.65789
-0.55848
-0.40058
-0.2076
-0.026316
0.15497
0.30702
0.38596
0.3538
0.24269
0.13743
0.061404
0.026316
0.032164
0.026316
0.020468
-0.017544
-0.084795
-0.20468
-0.31579
-0.4152
-0.46199
-0.49415
-0.52632
-0.5848
-0.61404
-0.64327
-0.6345
-0.65205
-0.65789
-0.67836
-0.68713
-0.71637
-0.71637
-0.71053
-0.7076
-0.76316
-0.83918
-0.89474
-0.92105
-0.89766
-0.88304
-0.83626
-0.81871
-0.67544
-0.28947
0.16959
0.59357
0.77485
0.7193
0.59064
0.4883
0.38889
0.30702
0.22515
0.13158
0.032164
-0.052632
-0.11111
-0.15205
-0.19591
-0.23684
-0.26901
-0.28947
-0.31579
-0.32749
-0.33041
-0.33333
-0.32164
-0.33626
-0.34795
-0.35673
-0.36842
-0.38012
-0.38889
-0.39474
-0.39181
-0.39766
-0.4152
-0.42982
-0.46491
-0.49708
-0.56433
-0.59357
-0.59357
-0.43567
-0.18129
0.10819
0.34795
0.4883
0.47953
0.42982
0.35965
0.45322
0.65497
0.82749
0.87427
0.74854
0.5
0.24854
0.061404
-0.073099
-0.2076
-0.30702
-0.37719
-0.38012
-0.38304
-0.37719
-0.38012
-0.4152
-0.43567
-0.45906
-0.46784
-0.40351
-0.38596
-0.3655
-0.46784
-0.57602
-0.6462
-0.62865
-0.44737
-0.13158
0.24561
0.52339
0.62281
0.53216
0.37135
0.19006
0.040936
-0.081871
-0.18421
-0.26316
-0.37427
-0.47953
-0.59064
-0.68713
-0.78947
-0.86842
-0.92982
-0.99708
-1
-0.93275
-0.76023
-0.52047
-0.33041
-0.23099
-0.13743
-0.11696
-0.04386
0.02924
0.055556
0.02924
-0.04386
-0.14035
-0.2193
-0.2807
-0.32749
-0.38596
-0.46784
-0.53801
-0.61696
-0.66082
-0.69883
-0.71345
-0.73977
-0.74561
-0.74269
-0.73977
-0.71637
-0.68421
-0.66374
-0.64327
-0.62281
-0.61111
-0.59649
-0.59649
-0.59357
-0.59064
-0.59064
-0.57895
-0.56433
-0.55263
-0.53801
-0.52047
-0.51462
-0.50585
-0.50292
-0.5
-0.48538
-0.48246
-0.47368
-0.47368
-0.47953
-0.47661
-0.4386
-0.37135
-0.30117
-0.18713
-0.22515
-0.38012
-0.54386
-0.45614
-0.090643
0.37135
0.67544
0.72222
0.62865
0.51754
0.40643
0.26901
0.11111
-0.05848
-0.1345
-0.12281
-0.01462
0.070175
0.076023
0.026316
0.002924
-0.046784
-0.11404
-0.2076
-0.28947
-0.38596
-0.45322
-0.54971
-0.61111
-0.67836
-0.7193
-0.75146
-0.80994
-0.85088
-0.88596
-0.89474
-0.90058
-0.87427
-0.76608
-0.47661
-0.032164
0.39181
0.64912
0.69883
0.64327
0.52047
0.34795
0.16374
-0.005848
-0.14035
-0.26608
-0.39474
-0.52047
-0.62281
-0.68129
-0.69591
-0.68421
-0.66374
-0.65497
-0.66374
-0.66959
-0.70468
-0.73977
-0.7924
-0.82164
-0.83626
-0.84795
-0.8655
-0.85088
-0.7807
-0.69883
-0.60234
-0.58187
-0.66959
-0.74854
-0.59357
-0.22807
0.19591
0.4269
0.4152
0.31287
0.20175
0.1462
0.11404
0.067251
0.005848
-0.084795
-0.20175
-0.30994
-0.40643
-0.46491
-0.50877
-0.54094
-0.55556
-0.55556
-0.55263
-0.53801
-0.53216
-0.52339
-0.53216
-0.53509
-0.54678
-0.5614
-0.56433
-0.5614
-0.54678
-0.52924
-0.5
-0.47076
-0.44444
-0.4152
-0.38889
-0.38304
-0.38012
-0.38304
-0.38889
-0.41228
-0.43275
-0.46199
-0.47953
-0.50877
-0.50585
-0.4386
-0.22222
0.099415
0.44152
0.65205
0.68421
0.60526
0.51754
0.46784
0.44444
0.38596
0.30117
0.19006
0.073099
-0.078947
-0.21637
-0.28655
-0.30994
-0.26316
-0.25439
-0.27778
-0.32749
-0.34211
-0.37427
-0.41228
-0.46491
-0.50877
-0.53216
-0.57895
-0.61696
-0.64912
-0.67251
-0.70468
-0.76316
-0.7924
-0.82456
-0.77485
-0.65789
-0.37719
0.076023
0.54094
0.84503
0.91813
0.85673
0.73392
0.54678
0.30994
0.081871
-0.11988
-0.24854
-0.35088
-0.42982
-0.5
-0.54678
-0.57602
-0.57895
-0.57895
-0.58772
-0.59064
-0.60819
-0.61696
-0.61111
-0.59942
-0.57895
-0.54971
-0.52632
-0.50292
-0.47661
-0.45614
-0.4386
-0.44444
-0.44737
-0.45029
-0.45614
-0.44737
-0.4269
-0.4269
-0.47953
-0.61404
-0.60234
-0.37719
0.05848
0.49123
0.72222
0.75731
0.71053
0.6345
0.54094
0.45322
0.35673
0.21053
0.049708
-0.04386
-0.070175
-0.035088
-0.046784
-0.087719
-0.13158
-0.19883
-0.24854
-0.3655
-0.44737
-0.41813
-0.33333
-0.21345
-0.21053
-0.2807
-0.36842
-0.45906
-0.5117
-0.55263
-0.59942
-0.64327
-0.66667
-0.67544
-0.66082
-0.64035
-0.60234
-0.56433
-0.52924
-0.49415
-0.47953
-0.47076
-0.45614
-0.44444
-0.44444
-0.4386
-0.42982
-0.42105
-0.42982
-0.43567
-0.44737
-0.46491
-0.47661
-0.47368
-0.46199
-0.45029
-0.45614
-0.47661
-0.52047
-0.59064
-0.60819
-0.5848
-0.40058
-0.12865
0.17836
0.44737
0.62865
0.68421
0.70175
0.61404
0.59357
0.55556
0.50585
0.41813
0.28655
0.14912
0.023392
-0.10234
-0.19006
-0.25439
-0.31871
-0.40643
-0.49708
-0.59357
-0.66082
-0.70468
-0.72222
-0.67836
-0.61696
-0.53509
-0.5
-0.45322
-0.4152
-0.36257
-0.32749
-0.32164
-0.31287
-0.30409
-0.28363
-0.2807
-0.29532
-0.30409
-0.2924
-0.27778
-0.24561
-0.23977
-0.22222
-0.23392
-0.23392
-0.23099
-0.25146
-0.27193
-0.30409
-0.32749
-0.35965
-0.38596
-0.4152
-0.4269
-0.44152
-0.44737
-0.45029
-0.45029
-0.42398
-0.38889
-0.34211
-0.26023
-0.22807
-0.33626
-0.53216
-0.67251
-0.48246
-0.020468
0.47368
0.73392
0.7076
0.55556
0.38889
0.24561
0.087719
-0.078947
-0.23392
-0.34795
-0.40936
-0.45322
-0.47076
-0.50292
-0.52924
-0.53509
-0.50292
-0.46784
-0.44152
-0.46784
-0.52924
-0.56433
-0.59357
-0.61404
-0.62865
-0.64035
-0.65205
-0.66374
-0.65789
-0.64327
-0.6345
-0.62281
-0.59064
-0.56433
-0.52047
-0.49415
-0.46199
-0.45029
-0.4386
-0.42398
-0.40058
-0.37427
-0.35965
-0.35088
-0.34503
-0.34211
-0.33333
-0.34211
-0.33918
-0.35673
-0.36842
-0.39474
-0.39474
-0.35965
-0.30409
-0.24561
-0.16082
-0.16959
-0.37135
-0.64327
-0.71637
-0.41813
0.15205
0.61988
0.77485
0.69883
0.56725
0.44444
0.30409
0.15497
0.017544
-0.040936
-0.035088
-0.002924
0.002924
-0.035088
-0.061404
-0.052632
-0.073099
-0.12865
-0.21637
-0.31287
-0.37719
-0.42398
-0.44444
-0.47076
-0.5
-0.52924
-0.5614
-0.59649
-0.6345
-0.64327
-0.62281
-0.5848
-0.53801
-0.49708
-0.47953
-0.46491
-0.45614
-0.4386
-0.44152
-0.43567
-0.43567
-0.43275
-0.43567
-0.42398
-0.4152
-0.39474
-0.38304
-0.37135
-0.35673
-0.33626
-0.31287
-0.29825
-0.28947
-0.28655
-0.28363
-0.26316
-0.24269
-0.19591
-0.12573
-0.046784
-0.093567
-0.30409
-0.58187
-0.53801
-0.17251
0.37135
0.73977
0.82456
0.73684
0.61111
0.46199
0.30702
0.12865
0.023392
0.0087719
0.05848
0.076023
0.070175
0.055556
0.046784
0.017544
-0.052632
-0.16082
-0.25731
-0.33626
-0.39766
-0.44444
-0.47661
-0.48538
-0.50585
-0.50585
-0.51462
-0.5
-0.48246
-0.45614
-0.42398
-0.39766
-0.36842
-0.35088
-0.33041
-0.31871
-0.30994
-0.29532
-0.29532
-0.30702
-0.31579
-0.31871
-0.33333
-0.34503
-0.35088
-0.3655
-0.37135
-0.37135
-0.38012
-0.38889
-0.40058
-0.39766
-0.40643
-0.41228
-0.40936
-0.42105
-0.4269
-0.40936
-0.3538
-0.28947
-0.21637
-0.16667
-0.31287
-0.54094
-0.72807
-0.51754
-0.023392
0.49708
0.74269
0.7076
0.5731
0.45029
0.30409
0.14035
-0.023392
-0.093567
-0.078947
-0.032164
0.005848
0.0087719
0.002924
-0.017544
-0.052632
-0.11111
-0.17544
-0.24854
-0.29825
-0.35965
-0.37719
-0.40058
-0.40351
-0.41813
-0.41228
-0.4269
-0.4269
-0.4269
-0.41228
-0.41228
-0.40351
-0.40351
-0.40936
-0.42105
-0.41813
-0.4152
-0.41228
-0.40936
-0.39474
-0.40643
-0.40351
-0.41228
-0.40643
-0.40643
-0.39766
-0.38012
-0.35965
-0.34503
-0.32456
-0.30117
-0.30117
-0.30409
-0.31287
-0.30994
-0.32749
-0.33333
-0.30117
-0.26608
-0.19591
-0.11696
-0.17251
-0.39766
-0.69298
-0.71637
-0.38012
0.18421
0.61111
0.73099
0.6462
0.52924
0.42398
0.30994
0.16959
0.052632
0.011696
0.02924
0.064327
0.076023
0.032164
-0.002924
-0.073099
-0.12281
-0.22515
-0.31871
-0.43275
-0.50292
-0.54386
-0.56725
-0.54971
-0.55556
-0.52339
-0.53509
-0.53216
-0.54386
-0.52632
-0.51462
-0.50585
-0.4883
-0.4883
-0.5
-0.51462
-0.52632
-0.53801
-0.54094
-0.53509
-0.53801
-0.53216
-0.53509
-0.54386
-0.54971
-0.54678
-0.52924
-0.5117
-0.5
-0.49415
-0.48246
-0.47368
-0.46491
-0.45906
-0.45614
-0.45614
-0.45906
-0.4269
-0.38889
-0.33626
-0.24854
-0.21053
-0.3538
-0.5848
-0.78655
-0.5848
-0.096491
0.43275
0.67544
0.62281
0.49123
0.36257
0.21345
0.052632
-0.049708
-0.081871
-0.011696
0.05848
0.087719
0.05848
0.020468
-0.038012
-0.12865
-0.21637
-0.2924
-0.38304
-0.44737
-0.50877
-0.54386
-0.56433
-0.57602
-0.58187
-0.5848
-0.59064
-0.59357
-0.5848
-0.57895
-0.56725
-0.5614
-0.56433
-0.57895
-0.5848
-0.58187
-0.57602
-0.57602
-0.57602
-0.56433
-0.55848
-0.54678
-0.54094
-0.54678
-0.54971
-0.53509
-0.51462
-0.49708
-0.46784
-0.44737
-0.42105
-0.40351
-0.39474
-0.40058
-0.39766
-0.39181
-0.37135
-0.34211
-0.30409
-0.25146
-0.18129
-0.20468
-0.40351
-0.67836
-0.72222
-0.39766
0.12865
0.54386
0.64035
0.54094
0.40058
0.26901
0.15789
0.038012
-0.032164
-0.04386
0.020468
0.087719
0.11111
0.087719
0.04386
-0.0087719
-0.078947
-0.15205
-0.24561
-0.33626
-0.39766
-0.46199
-0.5
-0.54094
-0.54094
-0.54094
-0.53216
-0.5117
-0.47661
-0.44737
-0.4152
-0.39474
-0.38596
-0.38889
-0.38889
-0.39474
-0.42105
-0.44152
-0.48246
-0.52047
-0.54971
-0.56725
-0.56725
-0.57602
-0.57018
-0.55848
-0.53216
-0.51754
-0.49708
-0.47953
-0.47076
-0.46784
-0.45906
-0.44444
-0.45029
-0.44737
-0.45029
-0.44152
-0.38304
-0.2924
-0.2076
-0.15789
-0.28655
-0.4883
-0.73392
-0.58772
-0.17251
0.3655
0.68421
0.70175
0.59649
0.47076
0.35088
0.22515
0.087719
0.01462
0.055556
0.14327
0.21637
0.21053
0.18421
0.10819
0.04386
-0.035088
-0.099415
-0.17251
-0.21637
-0.26316
-0.2924
-0.35088
-0.36842
-0.42105
-0.43275
-0.46491
-0.46491
-0.47661
-0.47953
-0.47661
-0.48246
-0.48538
-0.4883
-0.49123
-0.50292
-0.5117
-0.49708
-0.47368
-0.4386
-0.40643
-0.37427
-0.3538
-0.32749
-0.30702
-0.2807
-0.26608
-0.24269
-0.23977
-0.23392
-0.23392
-0.2193
-0.21345
-0.21053
-0.2193
-0.22807
-0.24561
-0.26023
-0.23977
-0.2193
-0.19006
-0.13743
-0.084795
-0.076023
-0.25146
-0.47953
-0.63743
-0.39766
0.090643
0.56725
0.77485
0.71345
0.58187
0.44737
0.30409
0.16959
0.049708
-0.01462
0.01462
0.049708
0.05848
0.032164
-0.032164
-0.081871
-0.16959
-0.23392
-0.30702
-0.37719
-0.43567
-0.46784
-0.52339
-0.54971
-0.5848
-0.57602
-0.5848
-0.57018
-0.56725
-0.55556
-0.54971
-0.53216
-0.53216
-0.52924
-0.52632
-0.5117
-0.5
-0.50292
-0.49123
-0.49123
-0.4883
-0.49123
-0.47953
-0.46784
-0.45029
-0.42398
-0.4152
-0.41813
-0.42105
-0.4152
-0.41228
-0.39766
-0.39766
-0.38012
-0.36257
-0.35088
-0.33333
-0.32749
-0.33333
-0.31871
-0.28655
-0.25731
-0.22222
-0.16959
-0.19591
-0.38889
-0.64035
-0.7193
-0.43567
0.099415
0.55556
0.69883
0.60526
0.45322
0.31287
0.15789
0.026316
-0.084795
-0.11696
-0.087719
-0.052632
-0.055556
-0.090643
-0.15497
-0.21637
-0.27778
-0.32749
-0.37427
-0.42982
-0.47953
-0.52047
-0.56433
-0.60526
-0.64912
-0.66667
-0.66374
-0.64912
-0.64035
-0.63158
-0.63158
-0.61988
-0.60819
-0.58772
-0.57602
-0.55848
-0.54678
-0.52924
-0.50877
-0.47953
-0.45906
-0.42982
-0.39474
-0.37135
-0.36257
-0.34795
-0.32164
-0.31287
-0.30702
-0.2924
-0.28947
-0.2807
-0.28655
-0.28363
-0.27485
-0.27485
-0.26608
-0.26023
-0.2807
-0.26316
-0.23684
-0.20175
-0.15497
-0.093567
-0.046784
-0.19006
-0.38304
-0.5731
-0.36842
0.076023
0.5848
0.84795
0.81287
0.67544
0.52339
0.34503
0.21345
0.11111
0.052632
0.049708
0.049708
0.01462
-0.035088
-0.12865
-0.16667
-0.23977
-0.23099
-0.26023
-0.27485
-0.27778
-0.31287
-0.32749
-0.40936
-0.45906
-0.51754
-0.53801
-0.56433
-0.5731
-0.58187
-0.58772
-0.59357
-0.59357
-0.60234
-0.60819
-0.61111
-0.61111
-0.60526
-0.60234
-0.5848
-0.5848
-0.57602
-0.5731
-0.5614
-0.54386
-0.51462
-0.49123
-0.46784
-0.46491
-0.45614
-0.44152
-0.42982
-0.42105
-0.40351
-0.40643
-0.40643
-0.39181
-0.39181
-0.40058
-0.4152
-0.40936
-0.37719
-0.33918
-0.29532
-0.21637
-0.19006
-0.33626
-0.57018
-0.76608
-0.55263
-0.064327
0.45614
0.68129
0.64327
0.50292
0.36842
0.21345
0.081871
-0.038012
-0.10234
-0.096491
-0.090643
-0.099415
-0.11988
-0.096491
-0.10526
-0.1345
-0.2076
-0.27193
-0.33626
-0.39766
-0.45614
-0.51462
-0.57018
-0.62281
-0.65497
-0.69883
-0.70468
-0.7193
-0.71345
-0.71637
-0.70468
-0.69006
-0.65789
-0.62573
-0.59064
-0.5614
-0.52924
-0.50877
-0.48538
-0.46784
-0.43275
-0.38889
-0.3538
-0.32164
-0.32749
-0.32749
-0.32456
-0.33918
-0.34211
-0.34503
-0.34795
-0.35965
-0.36257
-0.3655
-0.37135
-0.3655
-0.3655
-0.37427
-0.3655
-0.3538
-0.33041
-0.29532
-0.26023
-0.2076
-0.22807
-0.41813
-0.68129
-0.77778
-0.5
0.02924
0.49123
0.6462
0.56725
0.41813
0.28655
0.1345
0.0087719
-0.10234
-0.15789
-0.15205
-0.14035
-0.1462
-0.16082
-0.13158
-0.1345
-0.12865
-0.19006
-0.24269
-0.30409
-0.35965
-0.40351
-0.44737
-0.47368
-0.51462
-0.53509
-0.55848
-0.55848
-0.53801
-0.51754
-0.48538
-0.44737
-0.41813
-0.40058
-0.38889
-0.36257
-0.3655
-0.35673
-0.36257
-0.36257
-0.36257
-0.36257
-0.35965
-0.34503
-0.32164
-0.2924
-0.26316
-0.25439
-0.23684
-0.22222
-0.2076
-0.20468
-0.19883
-0.19591
-0.20175
-0.18713
-0.18421
-0.19883
-0.19006
-0.18421
-0.17836
-0.16374
-0.12281
-0.078947
-0.026316
0.01462
-0.011696
-0.22515
-0.50585
-0.60526
-0.34795
0.15205
0.58772
0.74854
0.68129
0.54678
0.42398
0.27778
0.16374
0.04386
-0.005848
0.026316
0.10234
0.1345
0.084795
0.002924
-0.10526
-0.15497
-0.22515
-0.25146
-0.27193
-0.28947
-0.36842
-0.4386
-0.51462
-0.5614
-0.57895
-0.5731
-0.5848
-0.58772
-0.5848
-0.55848
-0.54971
-0.54386
-0.53509
-0.53216
-0.52632
-0.52339
-0.51754
-0.50877
-0.50292
-0.48538
-0.46199
-0.44152
-0.41228
-0.39181
-0.3655
-0.35673
-0.34211
-0.33918
-0.32456
-0.30117
-0.29532
-0.29825
-0.28363
-0.28655
-0.27193
-0.26316
-0.25439
-0.25439
-0.26316
-0.2807
-0.28363
-0.26316
-0.19883
-0.93275
