-0.24246
-0.47182
-0.71691
-0.76409
-0.65531
-0.49017
-0.31193
-0.2228
-0.099607
0.036697
0.18349
0.35911
0.50066
0.61599
0.55308
0.39581
0.22412
0.21232
0.34338
0.54128
0.64482
0.65269
0.57798
0.4194
0.24377
0.045872
-0.14417
-0.34993
-0.58453
-0.76278
-0.76409
-0.63565
-0.40236
-0.28702
-0.19135
-0.10092
0.031455
0.18611
0.41415
0.54128
0.62123
0.50721
0.31062
0.18349
0.18873
0.31717
0.45872
0.52425
0.5059
0.42595
0.26212
0.06422
-0.17693
-0.42202
-0.63827
-0.63827
-0.80734
-0.82831
-0.70642
-0.4325
-0.18087
0.057667
0.16907
0.31586
0.4941
0.61468
0.65531
0.52949
0.38008
0.25033
0.19266
0.2464
0.38008
0.48755
0.5426
0.53604
0.45872
0.30406
0.11533
-0.079948
-0.27523
-0.48624
-0.69069
-0.77457
-0.68676
-0.53211
-0.36435
-0.22674
-0.086501
0.06422
0.20315
0.36435
0.48493
0.57536
0.49934
0.35911
0.23067
0.22018
0.3211
0.46789
0.54522
0.54522
0.49279
0.39318
0.28965
0.1599
-0.079948
-0.35911
-0.68152
-0.827
-0.76409
-0.61337
-0.39318
-0.29096
-0.16514
-0.045872
0.10878
0.28309
0.44168
0.50328
0.46527
0.4076
0.39318
0.46527
0.54653
0.58322
0.54915
0.47969
0.35387
0.21494
0.057667
-0.079948
-0.31717
-0.53997
-0.75098
-0.77851
-0.56356
-0.3827
-0.1114
-0.014417
0.083879
0.17038
0.34338
0.54915
0.67235
0.72739
0.5675
0.38008
0.22412
0.22018
0.35387
0.50197
0.59764
0.57929
0.49148
0.31717
0.095675
-0.1232
-0.30013
-0.47444
-0.68152
-0.80079
-0.69201
-0.47837
-0.25295
-0.077326
0.028834
0.14155
0.33421
0.519
0.62123
0.63696
0.52818
0.45085
0.42988
0.49148
0.56356
0.58585
0.5557
0.45478
0.30537
0.12713
-0.02097
-0.18742
-0.40105
-0.63041
-0.79817
-0.72215
-0.56094
-0.33159
-0.16776
-0.034076
0.086501
0.22805
0.45085
0.5675
0.66055
0.55046
0.3945
0.24377
0.18873
0.26737
0.42988
0.55439
0.59764
0.5557
0.44954
0.32372
0.19004
-0.011796
-0.26343
-0.54653
-0.79161
-0.79292
-0.68807
-0.48231
-0.35911
-0.21625
-0.095675
0.047182
0.23067
0.38401
0.47706
0.50328
0.40498
0.34993
0.3578
0.44561
0.53473
0.55832
0.519
0.44299
0.29751
0.15465
0.06291
-0.014417
-0.20052
-0.45478
-0.74705
-0.87287
-0.78244
-0.62385
-0.39974
-0.21363
-0.013106
0.18218
0.35387
0.47837
0.53604
0.47051
0.36959
0.25164
0.24902
0.35125
0.47575
0.57012
0.57536
0.50852
0.35911
0.20052
0.10354
0.051114
-0.13499
-0.36566
-0.67104
-0.8021
-0.76409
-0.64482
-0.48886
-0.32372
-0.16514
-0.0078637
0.19397
0.3578
0.48231
0.48886
0.40367
0.32634
0.31717
0.39581
0.50983
0.60419
0.62779
0.58191
0.47182
0.31979
0.17431
0.17431
0.069463
-0.091743
-0.38008
-0.64613
-0.7038
-0.62516
-0.49279
-0.29227
-0.10354
0.056356
0.23984
0.38532
0.50328
0.55963
0.51376
0.43119
0.39056
0.42857
0.54653
0.65924
0.70904
0.67235
0.5675
0.38532
0.20577
0.12058
0.061599
-0.093054
-0.31455
-0.60026
-0.70773
-0.67628
-0.5924
-0.42988
-0.26606
-0.089122
0.068152
0.23067
0.35125
0.43644
0.43512
0.35256
0.30406
0.34469
0.4692
0.59764
0.66448
0.64351
0.55701
0.39187
0.21887
0.12975
0.10354
-0.04194
-0.24509
-0.54915
-0.71166
-0.69987
-0.5924
-0.42726
-0.25819
-0.081258
0.08519
0.30275
0.42726
0.53866
0.50197
0.40236
0.31062
0.30537
0.40236
0.53866
0.64089
0.654
0.5924
0.4443
0.26212
0.12713
0.11533
0.0026212
-0.15334
-0.46527
-0.68807
-0.71035
-0.63958
-0.49279
-0.30931
-0.13368
0.035387
0.21887
0.36697
0.45347
0.4574
0.37746
0.30144
0.31193
0.39843
0.52163
0.58585
0.52949
0.38925
0.23722
0.14679
0.0065531
-0.17693
-0.42857
-0.59371
-0.59371
-0.4325
-0.25033
-0.017038
0.13237
0.27785
0.44037
0.57536
0.69201
0.7038
0.62385
0.47051
0.30668
0.23591
0.28178
0.41153
0.52425
0.57274
0.55046
0.46134
0.3329
0.12582
-0.073394
-0.26737
-0.48231
-0.58453
-0.67104
-0.5806
-0.37746
-0.18087
0.026212
0.1599
0.32372
0.47182
0.57143
0.55701
0.47444
0.36435
0.24377
0.20315
0.25295
0.39056
0.53211
0.59109
0.5557
0.4443
0.26474
0.11009
0.093054
0.06422
-0.093054
-0.35649
-0.68807
-0.81127
-0.78375
-0.68676
-0.5308
-0.34993
-0.17824
-0.023591
0.12975
0.2713
0.36042
0.3827
0.30931
0.25033
0.27392
0.3709
0.49672
0.56881
0.56225
0.47969
0.31193
0.1481
0.095675
0.04325
-0.095675
-0.32896
-0.61861
-0.7654
-0.73526
-0.62123
-0.45609
-0.26999
-0.10354
0.055046
0.23329
0.38139
0.48886
0.4941
0.3945
0.28834
0.25164
0.32634
0.45478
0.56619
0.58585
0.53342
0.39712
0.2228
0.11402
0.089122
-0.02228
-0.1979
-0.48886
-0.72215
-0.73263
-0.6671
-0.51376
-0.32241
-0.14679
0.011796
0.21494
0.35125
0.46396
0.48755
0.47575
0.51376
0.57536
0.61075
0.58978
0.52687
0.41022
0.24902
0.093054
0.045872
0.014417
-0.13368
-0.35125
-0.62779
-0.7038
-0.59895
-0.42857
-0.23984
-0.089122
0.04325
0.17431
0.42202
0.58191
0.79948
0.76278
0.64351
0.42202
0.25295
0.23722
0.35649
0.50066
0.56225
0.55832
0.44954
0.27261
0.056356
-0.14417
-0.30013
-0.47313
-0.60157
-0.68676
-0.63827
-0.4194
-0.20315
0.035387
0.20183
0.35649
0.52818
0.6055
0.59109
0.4941
0.42726
0.45609
0.5426
0.64089
0.67628
0.64613
0.56225
0.41547
0.23329
0.06422
0.057667
-0.02097
-0.16121
-0.42857
-0.69725
-0.76409
-0.69463
-0.54522
-0.34862
-0.18742
-0.026212
0.1363
0.36959
0.49803
0.61992
0.53342
0.41547
0.29489
0.25557
0.31324
0.41284
0.49148
0.51245
0.43775
0.29096
0.14417
0.10223
0.02228
-0.14941
-0.41153
-0.68021
-0.79554
-0.71953
-0.61206
-0.40367
-0.23853
-0.082569
0.073394
0.2713
0.40105
0.50066
0.46658
0.37746
0.27392
0.23329
0.27654
0.38663
0.5059
0.54522
0.51245
0.37484
0.19659
0.068152
0.045872
-0.061599
-0.2097
-0.50328
-0.73526
-0.77064
-0.70904
-0.5557
-0.35256
-0.17824
-0.018349
0.13106
0.27916
0.39056
0.43906
0.39843
0.29227
0.23067
0.25164
0.36042
0.4941
0.5675
0.54522
0.44823
0.26999
0.10354
0.060288
0.0052425
-0.1363
-0.36959
-0.64089
-0.74705
-0.7038
-0.58322
-0.39974
-0.21363
-0.057667
0.10878
0.28834
0.42726
0.51245
0.47313
0.36042
0.26606
0.26212
0.346
0.48493
0.60026
0.63303
0.58191
0.43119
0.24246
0.1232
0.10878
0.026212
-0.12582
-0.43775
-0.68021
-0.71429
-0.65007
-0.49541
-0.30275
-0.13106
0.028834
0.19921
0.34338
0.44037
0.45347
0.38663
0.28702
0.24902
0.2962
0.42333
0.5675
0.63958
0.62647
0.52425
0.33945
0.14941
0.11796
0.065531
-0.044561
-0.26999
-0.56619
-0.72084
-0.68676
-0.61337
-0.41284
-0.24246
-0.073394
0.079948
0.2464
0.35911
0.43381
0.38925
0.31324
0.31717
0.39581
0.52294
0.60944
0.60682
0.52687
0.36566
0.19659
0.077326
0.072084
-0.0013106
-0.13368
-0.41678
-0.63827
-0.67366
-0.60813
-0.42202
-0.22149
-0.04325
0.098296
0.31193
0.48231
0.60419
0.62123
0.49934
0.42071
0.39974
0.47313
0.58191
0.64482
0.61992
0.5308
0.36435
0.1979
0.12189
0.069463
-0.10354
-0.32372
-0.59109
-0.7287
-0.65531
-0.53997
-0.35518
-0.16514
0.028834
0.21625
0.41284
0.55046
0.6173
0.58453
0.46003
0.30275
0.20183
0.20052
0.31062
0.46527
0.57798
0.60026
0.53866
0.37746
0.18742
0.14286
0.099607
-0.014417
-0.22805
-0.54391
-0.71429
-0.69987
-0.62647
-0.45478
-0.29227
-0.13237
0.010485
0.21756
0.36697
0.50721
0.54128
0.49279
0.42857
0.40236
0.42071
0.45478
0.39843
0.26999
0.11271
0.013106
-0.079948
-0.23329
-0.39843
-0.54391
-0.57536
-0.46003
-0.26868
-0.032765
0.15727
0.28047
0.40367
0.65662
0.79817
0.99214
0.87156
0.66055
0.37484
0.17169
0.053735
0.070773
0.17693
0.28047
0.40891
0.45216
0.40236
0.24246
0.048493
-0.10878
-0.17693
-0.26212
-0.39056
-0.56094
-0.63958
-0.47837
-0.30013
-0.045872
0.089122
0.20315
0.38925
0.51245
0.63696
0.56488
0.44823
0.31193
0.26081
0.32503
0.42071
0.481
0.47706
0.4076
0.26999
0.12058
0.072084
-0.0026212
-0.13893
-0.3827
-0.65662
-0.80079
-0.77588
-0.65269
-0.4443
-0.25426
-0.089122
0.065531
0.29751
0.48886
0.65269
0.68152
0.52818
0.36959
0.18611
0.11664
0.18087
0.33159
0.48755
0.56619
0.55963
0.46658
0.28571
0.11271
0.066841
-0.0039318
-0.13368
-0.4194
-0.69332
-0.80472
-0.76278
-0.65531
-0.47444
-0.28702
-0.13106
0.031455
0.20708
0.32503
0.40891
0.39187
0.3329
0.30931
0.32896
0.38401
0.44037
0.42726
0.3211
0.18349
0.1363
0.078637
-0.06422
-0.27916
-0.52294
-0.60419
-0.55177
-0.41022
-0.21494
-0.02228
0.11927
0.23591
0.44299
0.63434
0.82307
0.87287
0.72477
0.51507
0.31324
0.2228
0.25819
0.33028
0.346
0.2346
0.10223
-0.056356
-0.15334
-0.29096
-0.37353
-0.38794
-0.37353
-0.31979
-0.16383
0.045872
0.32503
0.50328
0.58453
0.73788
0.82438
0.95413
0.86107
0.66448
0.38139
0.11664
-0.053735
-0.12975
-0.08519
0.030144
0.20183
0.34993
0.43381
0.38925
0.24115
0.04194
-0.10223
-0.14024
-0.21756
-0.3329
-0.52556
-0.58585
-0.47051
-0.34076
-0.16776
-0.091743
0.023591
0.18873
0.34469
0.48624
0.49672
0.41153
0.33814
0.34469
0.42857
0.51638
0.52818
0.46658
0.34469
0.16776
0.023591
0.0039318
-0.018349
-0.091743
-0.29227
-0.54391
-0.69463
-0.67759
-0.56488
-0.34076
-0.14941
-0.010485
0.10616
0.27654
0.47051
0.60026
0.66448
0.54128
0.36959
0.19659
0.10354
0.15858
0.31586
0.481
0.56881
0.57798
0.49803
0.33945
0.16776
0.10354
0.045872
-0.091743
-0.34338
-0.64351
-0.7903
-0.76409
-0.66055
-0.47051
-0.30275
-0.12451
0.023591
0.22543
0.36435
0.47706
0.44561
0.35256
0.24115
0.19397
0.23591
0.3709
0.52949
0.62385
0.63041
0.55046
0.39581
0.18611
0.018349
0.017038
-0.056356
-0.15465
-0.42202
-0.67235
-0.73001
-0.68414
-0.53342
-0.34076
-0.1599
-0.0039318
0.17169
0.31848
0.44037
0.4574
0.38794
0.27261
0.21625
0.23329
0.36435
0.52818
0.64351
0.66448
0.61075
0.47837
0.27392
0.069463
0.027523
-0.030144
-0.1232
-0.35649
-0.63172
-0.76802
-0.73919
-0.63565
-0.45478
-0.26868
-0.10092
0.091743
0.27785
0.40367
0.4692
0.4076
0.2962
0.21363
0.20052
0.30013
0.47182
0.58978
0.65138
0.60813
0.50197
0.31193
0.098296
-0.040629
-0.051114
-0.14024
-0.2595
-0.54784
-0.75229
-0.77064
-0.70642
-0.51769
-0.33028
-0.15596
0.0026212
0.18873
0.3211
0.43906
0.46658
0.44823
0.43775
0.42202
0.39581
0.29096
0.15727
0.036697
-0.02097
-0.057667
-0.14679
-0.30537
-0.44954
-0.52687
-0.48231
-0.33552
-0.17562
0.036697
0.18218
0.35125
0.57536
0.77326
0.94233
0.9384
0.78113
0.56356
0.35911
0.27392
0.23591
0.19528
0.18611
0.11927
0.073394
-0.044561
-0.1979
-0.3211
-0.37221
-0.35256
-0.22149
-0.017038
0.17562
0.31717
0.36697
0.40105
0.50983
0.71429
0.85714
0.98558
0.85583
0.61206
0.30406
0.048493
-0.093054
-0.13106
-0.11664
-0.074705
-0.076016
-0.082569
-0.17169
-0.24902
-0.28702
-0.28834
-0.21756
-0.090433
0.031455
0.18087
0.27261
0.33552
0.37877
0.53604
0.68283
0.82438
0.8021
0.59764
0.32241
0.02097
-0.19397
-0.31717
-0.36697
-0.2962
-0.13368
0.0026212
0.06422
0.04194
-0.02228
-0.094364
-0.20577
-0.36304
-0.44954
-0.41153
-0.24902
-0.076016
0.057667
0.13761
0.2097
0.3827
0.55177
0.72215
0.7536
0.65007
0.43381
0.22543
0.061599
-0.0091743
-0.015727
0.055046
0.19921
0.36042
0.43119
0.4194
0.31979
0.17824
0.018349
-0.096986
-0.06422
-0.078637
-0.20839
-0.49279
-0.72215
-0.75623
-0.65662
-0.5059
-0.36304
-0.21101
-0.049803
0.10878
0.23198
0.30799
0.31717
0.33028
0.35911
0.39581
0.44561
0.45347
0.3945
0.26343
0.1114
0.024902
0.048493
-0.0013106
-0.1363
-0.38663
-0.61861
-0.68545
-0.63696
-0.47837
-0.27261
-0.083879
0.079948
0.28571
0.46265
0.6055
0.64875
0.53866
0.41809
0.33552
0.31586
0.34207
0.30799
0.20708
0.095675
0.0039318
-0.11533
-0.26343
-0.42202
-0.50459
-0.50983
-0.47182
-0.35125
-0.15596
0.089122
0.28702
0.43906
0.57405
0.75885
0.8637
0.95282
0.82831
0.63565
0.39712
0.21625
0.12189
0.13893
0.21232
0.23722
0.173
0.011796
-0.13368
-0.23329
-0.31324
-0.44823
-0.54522
-0.55046
-0.36304
-0.15072
0.077326
0.21756
0.30931
0.39581
0.55177
0.69594
0.83355
0.79423
0.63958
0.40891
0.20577
0.10223
0.031455
0.070773
0.094364
0.095675
0.018349
-0.095675
-0.20446
-0.2595
-0.28702
-0.27392
-0.27916
-0.2228
-0.11533
0.056356
0.25819
0.38532
0.43512
0.53211
0.68807
0.80865
0.94364
0.82962
0.63303
0.36435
0.13499
0.010485
-0.072084
-0.069463
0.02228
0.17955
0.35387
0.44299
0.45609
0.35911
0.18873
-0.02097
-0.16383
-0.28702
-0.44823
-0.61075
-0.77588
-0.70511
-0.62385
-0.42071
-0.27261
-0.12058
0.087811
0.32634
0.48624
0.56225
0.46396
0.3211
0.17693
0.076016
0.060288
0.10485
0.22412
0.36566
0.49017
0.55439
0.53473
0.44299
0.27261
0.095675
0.018349
-0.040629
-0.17169
-0.40629
-0.69332
-0.87025
-0.84142
-0.72739
-0.50197
-0.30537
-0.13237
0.045872
0.2464
0.37484
0.44954
0.38401
0.29489
0.20315
0.1599
0.19266
0.29882
0.45347
0.57143
0.61861
0.58191
0.47444
0.30406
0.094364
-0.053735
-0.070773
-0.15072
-0.2595
-0.50459
-0.74836
-0.80996
-0.78899
-0.63041
-0.43775
-0.24509
-0.052425
0.12975
0.2595
0.33814
0.31586
0.25557
0.16776
0.12451
0.16252
0.28309
0.45347
0.58847
0.65269
0.62254
0.52687
0.3578
0.14941
-0.0026212
-0.0052425
-0.06422
-0.16514
-0.42071
-0.6789
-0.76016
-0.72346
-0.56619
-0.36435
-0.17693
0.014417
0.21494
0.34469
0.44299
0.42988
0.36173
0.27654
0.22149
0.24377
0.35649
0.52556
0.66448
0.73394
0.7156
0.62779
0.46658
0.25164
0.074705
0.045872
-0.018349
-0.11796
-0.36042
-0.6291
-0.73919
-0.71298
-0.58191
-0.38532
-0.19528
0.0052425
0.22674
0.37353
0.4692
0.43381
0.34469
0.2595
0.24377
0.34993
0.52818
0.67235
0.72346
0.68021
0.57667
0.41022
0.21756
0.072084
0.057667
-0.0091743
-0.1232
-0.39318
-0.63696
-0.71822
-0.67628
-0.50721
-0.29751
-0.099607
0.089122
0.30275
0.45872
0.5806
0.57929
0.45216
0.32241
0.18742
0.173
0.26474
0.42988
0.58847
0.68676
0.69725
0.6291
0.49148
0.28965
0.090433
0.026212
-0.013106
-0.11009
-0.3211
-0.61599
-0.78506
-0.78506
-0.68152
-0.47837
-0.27654
-0.094364
0.12844
0.2962
0.42333
0.4692
0.41547
0.35911
0.33683
0.37615
0.44561
0.45085
0.36042
0.24377
0.1363
0.06422
-0.04325
-0.22936
-0.40498
-0.52163
-0.53473
-0.42464
-0.23198
-0.023591
0.15727
0.28178
0.42857
0.64351
0.82962
1
0.96986
0.79817
0.56488
0.346
0.20052
0.13761
0.16121
0.26999
0.39712
0.46134
0.42595
0.22018
-0.017038
-0.30406
-0.481
-0.52031
-0.36042
-0.17169
0.04194
0.15727
0.23984
0.30931
0.40891
0.63565
0.76278
0.9384
0.83355
0.65269
0.40629
0.17562
-0.015727
-0.1363
-0.19659
-0.13237
0.044561
0.25033
0.37877
0.42726
0.4325
0.37353
0.27916
0.12844
0.051114
0.0026212
-0.087811
-0.2844
-0.55308
-0.75229
-0.77851
-0.68283
-0.54522
-0.35911
-0.15858
0.051114
0.21887
0.31062
0.30799
0.2713
0.22412
0.19528
0.21494
0.27916
0.4076
0.52031
0.59371
0.5924
0.52425
0.3945
0.21101
0.024902
-0.014417
0.015727
-0.049803
-0.25164
-0.57405
-0.76802
-0.79817
-0.72346
-0.53997
-0.34076
-0.13761
0.10223
0.26737
0.39974
0.42857
0.37221
0.29882
0.21756
0.1848
0.24509
0.36173
0.50983
0.63041
0.66841
0.64482
0.5426
0.36435
0.1481
-0.018349
-0.047182
-0.14286
-0.27261
-0.54522
-0.78768
-0.84142
-0.78506
-0.60813
-0.40236
-0.15203
0.081258
0.27261
0.39581
0.41153
0.36566
0.28834
0.21756
0.19135
0.24509
0.36697
0.52556
0.65531
0.7156
0.68807
0.6055
0.43906
0.22674
0.045872
0.02097
-0.018349
-0.10878
-0.35911
-0.65793
-0.79423
-0.79423
-0.67759
-0.47969
-0.26868
-0.04194
0.18218
0.34338
0.43644
0.44037
0.36304
0.29096
0.21756
0.20052
0.26081
0.38139
0.53342
0.64482
0.68021
0.63958
0.5308
0.35387
0.12975
-0.0039318
0.0013106
-0.066841
-0.1848
-0.47182
-0.72739
-0.78113
-0.75623
-0.58847
-0.40629
-0.17824
0.06291
0.24115
0.35387
0.39187
0.37877
0.36173
0.35125
0.4076
0.46658
0.51638
0.4443
0.33552
0.2097
0.12844
0.018349
-0.10354
-0.28178
-0.43775
-0.53604
-0.52687
-0.41284
-0.21363
0.0026212
0.15203
0.27261
0.46134
0.65793
0.82831
0.90826
0.80079
0.60288
0.39318
0.21887
0.11533
0.086501
0.10878
0.27261
0.3945
0.47837
0.4076
0.18349
-0.099607
-0.37615
-0.57536
-0.52949
-0.38663
-0.15203
0.010485
0.14548
0.24246
0.32634
0.42071
0.6291
0.77064
0.93316
0.85321
0.67366
0.45216
0.22805
0.030144
-0.10223
-0.12713
-0.034076
0.12975
0.26737
0.31062
0.28178
0.19921
0.11533
0.058978
0.040629
-0.061599
-0.23067
-0.42857
-0.55963
-0.50983
-0.43381
-0.29096
-0.15203
-0.013106
0.18742
0.44299
0.64089
0.82045
0.77851
0.66055
0.48231
0.32896
0.27785
0.31717
0.39581
0.44561
0.40367
0.31717
0.26081
0.20577
0.093054
-0.13893
-0.43512
-0.68676
-0.75491
-0.66448
-0.48362
-0.25819
-0.10616
0.036697
0.16776
0.39974
0.60682
0.76278
0.81127
0.66579
0.51638
0.35387
0.27261
0.2595
0.2713
0.26212
0.17824
0.087811
-0.034076
-0.20839
-0.34993
-0.48755
-0.57929
-0.55177
-0.41284
-0.21887
-0.0091743
0.13237
0.21494
0.26343
0.33421
0.54915
0.70773
0.90957
0.86763
0.69594
0.45609
0.20052
0.032765
-0.056356
-0.053735
0.057667
0.19135
0.27654
0.20183
0.073394
-0.12844
-0.34338
-0.54653
-0.66841
-0.57405
-0.36435
-0.10223
0.06422
0.15858
0.22936
0.27392
0.33552
0.53211
0.67235
0.87942
0.77457
0.57536
0.30144
0.057667
-0.10616
-0.20315
-0.26212
-0.2346
-0.11927
0.072084
0.25557
0.41022
0.50197
0.5059
0.43775
0.28834
0.11664
0.034076
0.010485
-0.12189
-0.36042
-0.67628
-0.85059
-0.84797
-0.7287
-0.5675
-0.39318
-0.17169
0.090433
0.28571
0.41415
0.40105
0.34076
0.26737
0.1848
0.15465
0.17955
0.2713
0.41284
0.52556
0.56356
0.51769
0.39974
0.23853
0.061599
-0.011796
0.0052425
-0.044561
-0.20839
-0.50721
-0.7536
-0.79554
-0.76409
-0.59895
-0.42333
-0.23067
-0.011796
0.24509
0.40629
0.52556
0.51769
0.42595
0.32896
0.22149
0.17824
0.19921
0.27392
0.40498
0.52949
0.60944
0.61468
0.54784
0.40891
0.20577
0.014417
-0.061599
-0.06422
-0.14679
-0.34993
-0.654
-0.82438
-0.85583
-0.76802
-0.61337
-0.41547
-0.20446
0.036697
0.23722
0.37615
0.4076
0.35649
0.28309
0.20839
0.17169
0.20052
0.28178
0.42202
0.55701
0.64875
0.65007
0.56094
0.39056
0.19659
0.015727
-0.12451
-0.29489
-0.46658
-0.64351
-0.75098
-0.79423
-0.65138
-0.49279
-0.21232
-0.0039318
0.23329
0.39974
0.5675
0.60288
0.54391
0.43775
0.31324
0.22805
0.19135
0.20708
0.27261
0.40105
0.54128
0.64089
0.66055
0.61206
0.49934
0.31717
0.10223
-0.015727
0.018349
-0.026212
-0.13499
-0.43381
-0.71691
-0.80734
-0.81258
-0.67366
-0.49934
-0.29489
-0.056356
0.16514
0.33552
0.4194
0.41022
0.35649
0.31455
0.31717
0.37877
0.4574
0.49672
0.42595
0.27523
0.11664
-0.039318
-0.173
-0.32634
-0.42595
-0.46265
-0.44692
-0.4574
-0.36435
-0.15203
0.12058
0.36959
0.46003
0.55046
0.71166
0.82569
0.90564
0.82962
0.66841
0.47575
0.28965
0.13499
0.066841
0.065531
0.16907
0.3578
0.50459
0.51638
0.39056
0.12975
-0.15596
-0.39581
-0.50852
-0.41153
-0.25819
-0.055046
0.061599
0.15727
0.24902
0.3329
0.41415
0.62123
0.75885
0.92267
0.8768
0.68152
0.45609
0.20577
-0.018349
-0.14286
-0.20446
-0.13761
0.034076
0.17824
0.24509
0.20183
0.13237
0.049803
0.039318
0.0078637
-0.095675
-0.26999
-0.43119
-0.55439
-0.47313
-0.38663
-0.21101
-0.061599
0.058978
0.21101
0.42464
0.54653
0.72739
0.68021
0.55439
0.37877
0.21494
0.17038
0.20315
0.2595
0.28047
0.23853
0.18873
0.16383
0.11009
-0.039318
-0.26212
-0.51245
-0.68545
-0.66579
-0.54128
-0.31193
-0.12451
0.0091743
0.12844
0.22543
0.3709
0.59502
0.7405
0.89384
0.80865
0.65662
0.44823
0.23853
0.094364
0.0013106
-0.027523
0.024902
0.16252
0.3211
0.38794
0.34469
0.17431
-0.04325
-0.28309
-0.49934
-0.63303
-0.54522
-0.36435
-0.13368
0.014417
0.099607
0.16383
0.23722
0.35911
0.57405
0.70642
0.85583
0.74705
0.58847
0.35911
0.16645
0.044561
-0.015727
-0.018349
0.065531
0.1979
0.36042
0.42595
0.41678
0.31717
0.15858
0.04325
-0.038008
-0.010485
-0.14679
-0.3578
-0.64089
-0.77588
-0.76409
-0.61599
-0.46265
-0.28965
-0.086501
0.17169
0.38139
0.55701
0.61206
0.53604
0.43381
0.31324
0.25426
0.26212
0.30013
0.32896
0.32241
0.27916
0.17169
0.061599
-0.04325
-0.12844
-0.26737
-0.42726
-0.5806
-0.67759
-0.654
-0.47706
-0.23591
0.014417
0.17693
0.27916
0.38925
0.5557
0.65007
0.75491
0.7156
0.59502
0.4443
0.2844
0.21494
0.24246
0.31324
0.35649
0.36435
0.31717
0.18742
-0.026212
-0.27654
-0.50459
-0.68283
-0.69987
-0.5557
-0.35518
-0.12189
0.026212
0.14286
0.2346
0.32372
0.50197
0.65269
0.79292
0.84273
0.74705
0.57536
0.34993
0.16383
0.051114
-0.030144
-0.053735
-0.0013106
0.11664
0.31717
0.47837
0.5557
0.47969
0.24246
-0.15334
-0.52163
-0.77851
-0.83617
-0.7038
-0.5426
-0.35911
-0.20839
-0.066841
0.06291
0.17955
0.33421
0.51245
0.64875
0.77326
0.67759
0.52031
0.30537
0.12058
0.02097
-0.030144
-0.038008
0.0039318
0.11533
0.25033
0.37484
0.4443
0.44692
0.39187
0.26606
0.08519
-0.073394
-0.098296
-0.044561
-0.12844
-0.3709
-0.71166
-0.88336
-0.8768
-0.76409
-0.60813
-0.43775
-0.23591
0.0052425
0.19528
0.33945
0.36959
0.33552
0.27654
0.19397
0.1232
0.10485
0.14548
0.24771
0.33683
0.37877
0.36304
0.27785
0.18087
0.099607
0.060288
-0.045872
-0.25295
-0.59371
-0.84797
-0.91481
-0.87025
-0.66841
-0.48755
-0.28178
-0.11402
0.079948
0.31193
0.50721
0.67104
0.65138
0.53735
0.39187
0.25295
0.16907
0.1363
0.14548
0.2228
0.36173
0.47575
0.5308
0.50328
0.42726
0.28571
0.13368
0.051114
0.0065531
-0.099607
-0.29358
-0.58716
-0.81258
-0.82569
-0.77064
-0.58453
-0.40105
-0.2097
-0.023591
0.21232
0.41415
0.55832
0.59764
0.51769
0.41153
0.30537
0.22018
0.1848
0.21232
0.28571
0.41153
0.52163
0.5924
0.58322
0.51769
0.39187
0.20183
0.0078637
-0.076016
-0.058978
-0.13237
-0.31848
-0.61206
-0.8021
-0.85714
-0.79948
-0.66186
-0.481
-0.26999
-0.047182
0.14548
0.30144
0.38008
0.3827
0.32896
0.27523
0.25426
0.30144
0.37484
0.4194
0.39056
0.3329
0.27523
0.22805
0.10223
-0.10747
-0.36959
-0.59764
-0.654
-0.56356
-0.35256
-0.11402
0.061599
0.21625
0.31848
0.42595
0.6291
0.7903
0.95675
0.95937
0.83486
0.64744
0.42988
0.27785
0.18349
0.16645
0.20052
0.30144
0.44823
0.56094
0.59633
0.55701
0.45872
0.23984
-0.073394
-0.3827
-0.66972
-0.76933
-0.66579
-0.4941
-0.26343
-0.087811
0.061599
0.19135
0.32896
0.52425
0.67628
0.78375
0.80079
0.68414
0.51769
0.32896
0.1848
0.11796
0.087811
0.10223
0.16121
0.27261
0.38139
0.43119
0.42595
0.37615
0.31324
0.21756
0.081258
-0.13368
-0.37877
-0.61861
-0.72084
-0.66448
-0.5308
-0.35256
-0.173
-0.0026212
0.17431
0.38663
0.55308
0.70511
0.70904
0.64613
0.4941
0.34076
0.2464
0.2228
0.27523
0.32241
0.37877
0.39187
0.32896
0.24246
0.17824
0.15596
0.11271
-0.090433
-0.3945
-0.70249
-0.82962
-0.78244
-0.62254
-0.4194
-0.2346
-0.08519
0.052425
0.23984
0.44954
0.61337
0.74705
0.69856
0.59371
0.44954
0.34076
0.31455
0.33159
0.38401
0.41022
0.3945
0.35387
0.24902
0.13893
-0.068152
-0.33945
-0.62779
-0.80341
-0.77588
-0.60419
-0.35518
-0.12582
-0.0013106
0.11533
0.1979
0.31193
0.50852
0.65138
0.80472
0.78506
0.69594
0.52425
0.33421
0.19528
0.11796
0.077326
0.078637
0.14155
0.23067
0.32241
0.35125
0.30537
0.23853
0.17038
0.094364
-0.078637
-0.34076
-0.63827
-0.85845
-0.84797
-0.76147
-0.5557
-0.37221
-0.20577
-0.026212
0.18218
0.39187
0.53866
0.65138
0.6291
0.55308
0.41809
0.27916
0.19397
0.17824
0.22805
0.29751
0.38794
0.44692
0.44692
0.36304
0.21232
0.055046
-0.02097
0.0065531
-0.04194
-0.21887
-0.54522
-0.84797
-0.92529
-0.89777
-0.72608
-0.54391
-0.33814
-0.16121
0.039318
0.22805
0.40367
0.54653
0.57143
0.51245
0.40891
0.31717
0.30144
0.33159
0.37484
0.3945
0.36435
0.30931
0.24771
0.16252
0.032765
-0.21494
-0.48493
-0.73001
-0.78113
-0.67366
-0.45872
-0.22936
-0.045872
0.10223
0.21887
0.34207
0.54128
0.71429
0.87156
0.8886
0.79292
0.6291
0.42071
0.26606
0.16907
0.1114
0.14548
0.2464
0.40498
0.5308
0.55701
0.51638
0.41022
0.26999
0.10092
-0.028834
-0.011796
-0.0026212
-0.11664
-0.41022
-0.75754
-0.87811
-0.8768
-0.7287
-0.56488
-0.3827
-0.173
0.070773
0.26343
0.42988
0.47575
0.46265
0.38401
0.28178
0.20577
0.20708
0.25819
0.32896
0.37615
0.35518
0.31324
0.29358
0.23329
0.12058
-0.14024
-0.44823
-0.7038
-0.76671
-0.65793
-0.44692
-0.21232
-0.034076
0.10878
0.21756
0.346
0.56488
0.71953
0.8768
0.84666
0.72346
0.54784
0.37353
0.26343
0.1979
0.13893
0.14024
0.18218
0.28571
0.40891
0.49279
0.51638
0.47706
0.39712
0.26081
0.096986
-0.049803
-0.044561
-0.052425
-0.17038
-0.45347
-0.77195
-0.88073
-0.88204
-0.76147
-0.61206
-0.42464
-0.20577
0.034076
0.21101
0.36304
0.41415
0.41415
0.34469
0.25426
0.18349
0.17431
0.21232
0.29751
0.38401
0.44692
0.4574
0.40891
0.33683
0.28834
0.25033
0.15072
-0.089122
-0.40367
-0.70249
-0.82569
-0.79292
-0.63696
-0.42857
-0.24115
-0.053735
0.11271
0.33552
0.52687
0.71691
0.78899
0.72215
0.60026
0.44823
0.33814
0.31062
0.3329
0.38008
0.43512
0.46527
0.44954
0.36566
0.28965
0.24115
0.19397
0.068152
-0.17038
-0.49672
-0.74443
-0.77457
-0.68283
-0.45609
-0.25819
-0.074705
0.082569
0.25295
0.45347
0.62123
0.7536
0.79292
0.73657
0.62516
0.48362
0.36435
0.29882
0.24377
0.22412
0.2346
0.29227
0.35649
0.38925
0.40236
0.40629
0.42726
0.3709
0.16252
-0.20052
-0.61206
-0.86107
-0.91481
-0.80865
-0.62647
-0.46134
-0.28047
-0.11533
0.035387
0.26343
0.46003
0.63958
0.72084
0.64744
0.52425
0.35256
0.21625
0.14024
0.11927
0.12975
0.1979
0.32634
0.45478
0.53342
0.53997
0.48624
0.37615
0.2228
0.035387
-0.082569
-0.13499
-0.19397
-0.34076
-0.5675
-0.76933
-0.79948
-0.74181
-0.56881
-0.4076
-0.22018
-0.0013106
0.20839
0.3827
0.47837
0.49934
0.4574
0.37877
0.29489
0.25819
0.29227
0.34993
0.41547
0.43775
0.39187
0.31586
0.27392
0.22805
0.13499
-0.091743
-0.37484
-0.66579
-0.76278
-0.69594
-0.51507
-0.28178
-0.10092
0.061599
0.18611
0.31586
0.52031
0.68152
0.84535
0.86107
0.76671
0.6173
0.44561
0.32896
0.26606
0.1979
0.17693
0.17824
0.22674
0.31324
0.36828
0.38401
0.35649
0.33683
0.30931
0.26474
0.089122
-0.20577
-0.55439
-0.827
-0.89122
-0.79554
-0.63696
-0.44299
-0.26343
-0.055046
0.13761
0.33945
0.50328
0.61861
0.67104
0.62385
0.52031
0.38401
0.25557
0.18742
0.15858
0.16645
0.2228
0.33028
0.45216
0.53211
0.55046
0.51245
0.42857
0.27523
0.094364
-0.034076
-0.066841
-0.15072
-0.32765
-0.60157
-0.83093
-0.88336
-0.827
-0.68283
-0.50852
-0.32896
-0.12975
0.087811
0.28702
0.43775
0.49934
0.47575
0.40105
0.30799
0.25426
0.27392
0.34076
0.40498
0.44692
0.41547
0.32634
0.23329
0.18611
0.13237
0.0039318
-0.24377
-0.54653
-0.75491
-0.76802
-0.6671
-0.43775
-0.23329
-0.061599
0.083879
0.19397
0.34076
0.53997
0.68938
0.79292
0.74967
0.63565
0.48755
0.346
0.25426
0.20315
0.15465
0.1481
0.17038
0.23329
0.31324
0.346
0.33028
0.2713
0.23722
0.24771
0.23984
0.13237
-0.17169
-0.519
-0.84797
-0.91219
-0.8768
-0.69856
-0.519
-0.32896
-0.11796
0.098296
0.33028
0.50197
0.65007
0.71035
0.66972
0.57012
0.42726
0.30013
0.24115
0.21887
0.22936
0.26606
0.34731
0.45216
0.53211
0.56488
0.53211
0.4574
0.32634
0.15203
-0.026212
-0.070773
-0.061599
-0.15727
-0.37221
-0.67759
-0.86501
-0.9017
-0.8519
-0.73263
-0.54522
-0.34338
-0.11796
0.076016
0.25557
0.37615
0.43906
0.41809
0.36566
0.3211
0.33028
0.38532
0.43775
0.49148
0.48362
0.41809
0.33159
0.2844
0.22412
0.12451
-0.13761
-0.44692
-0.7287
-0.77982
-0.654
-0.39974
-0.16252
0.024902
0.18087
0.32503
0.45872
0.65924
0.79292
0.90433
0.90039
0.80734
0.66317
0.49541
0.36566
0.29882
0.26606
0.2464
0.26606
0.31324
0.40236
0.48493
0.54915
0.55832
0.51245
0.41809
0.26737
0.1232
0.045872
0.056356
-0.010485
-0.19266
-0.48624
-0.73526
-0.80603
-0.77195
-0.66579
-0.51376
-0.32372
-0.091743
0.1363
0.33159
0.49017
0.54784
0.53211
0.43512
0.346
0.31717
0.33945
0.39056
0.4194
0.42595
0.40629
0.33945
0.24377
0.15596
0.06291
-0.089122
-0.2713
-0.4076
-0.44692
-0.44954
-0.40498
-0.23984
-0.0091743
0.2595
0.40891
0.48624
0.57143
0.6789
0.77588
0.83093
0.8021
0.69594
0.54653
0.39318
0.27654
0.21756
0.18611
0.17169
0.20052
0.25819
0.35125
0.43119
0.48493
0.47706
0.41022
0.30406
0.15465
-0.013106
-0.068152
-0.028834
-0.093054
-0.26999
-0.60026
-0.84404
-0.93185
-0.93971
-0.88336
-0.74967
-0.56225
-0.33945
-0.11927
0.070773
0.22805
0.346
0.37877
0.35518
0.30013
0.25688
0.2464
0.24377
0.27916
0.31586
0.35125
0.33028
0.26343
0.15465
0.096986
0.04194
-0.035387
-0.17562
-0.34993
-0.50459
-0.57798
-0.54915
-0.35256
-0.11402
0.13761
0.27785
0.36828
0.50721
0.64089
0.77457
0.8401
0.8152
0.73394
0.58453
0.43512
0.33159
0.28178
0.28309
0.32765
0.41284
0.4941
0.54391
0.52556
0.47182
0.37353
0.21625
0.04325
-0.032765
-0.011796
-0.0052425
-0.14679
-0.44299
-0.75885
-0.91088
-0.96068
-0.89777
-0.74574
-0.56619
-0.38008
-0.14941
0.056356
0.25295
0.40236
0.47313
0.45347
0.38794
0.32503
0.29227
0.28834
0.31193
0.3578
0.41415
0.3945
0.32372
0.25557
0.21232
0.16514
0.0065531
-0.29358
-0.63565
-0.86763
-0.86632
-0.70904
-0.44823
-0.2228
-0.049803
0.10223
0.23067
0.39056
0.56881
0.70249
0.78637
0.78113
0.69594
0.57405
0.42333
0.30406
0.23067
0.17431
0.14286
0.12713
0.16252
0.22936
0.31062
0.37746
0.42595
0.46527
0.46134
0.35911
0.094364
-0.29489
-0.72346
-0.96723
-1
-0.87287
-0.67366
-0.47837
-0.28047
-0.060288
0.14548
0.34076
0.50983
0.60157
0.65924
0.60026
0.51769
0.42071
0.31717
0.26343
0.21232
0.17955
0.173
0.2346
0.35649
0.44954
0.48624
0.46265
0.39712
0.29751
0.15858
0.0078637
-0.087811
-0.069463
-0.070773
-0.17824
-0.42333
-0.70773
-0.85059
-0.88336
-0.77851
-0.60419
-0.41415
-0.18611
0.02228
0.2228
0.38794
0.45609
0.48362
0.42595
0.32896
0.26606
0.25164
0.31324
0.40105
0.47444
0.50459
0.481
0.41153
0.30406
0.2097
0.16383
0.15727
0.06291
-0.14155
-0.44561
-0.71822
-0.81258
-0.7654
-0.59895
-0.39187
-0.20183
-0.02228
0.1363
0.32241
0.49672
0.65662
0.73001
0.70773
0.61861
0.49541
0.3709
0.27916
0.22674
0.173
0.14679
0.18349
0.25033
0.32896
0.39056
0.42988
0.44037
0.37746
0.21363
-0.049803
-0.39581
-0.71822
-0.90433
-0.90695
-0.77588
-0.56619
-0.39974
-0.23198
-0.051114
0.12975
0.32896
0.51245
0.62516
0.73394
0.71429
0.65531
0.519
0.3827
0.27916
0.21887
0.2097
0.19921
0.23591
0.28309
0.36304
0.44954
0.50721
0.51638
0.46789
0.38663
0.25819
0.086501
-0.065531
-0.087811
-0.053735
-0.14417
-0.35387
-0.65662
-0.85321
-0.93316
-0.90564
-0.82176
-0.66579
-0.46658
-0.26212
-0.044561
0.13237
0.29096
0.38532
0.39581
0.36697
0.31717
0.25426
0.16907
0.070773
0.034076
0.069463
0.14941
0.20446
0.23329
0.2346
0.21887
0.21232
0.23329
0.25295
0.20577
-0.0039318
-0.32372
-0.6671
-0.83748
-0.80603
-0.654
-0.40498
-0.2097
-0.026212
0.16907
0.39056
0.55308
0.70249
0.73919
0.73132
0.67104
0.53211
0.3827
0.28047
0.21232
0.19921
0.23198
0.31455
0.43775
0.52425
0.54784
0.50721
0.42988
0.31586
0.16383
-0.0078637
-0.055046
-0.018349
-0.06291
-0.22412
-0.51114
-0.77326
-0.87287
-0.87549
-0.80472
-0.6422
-0.46265
-0.24509
-0.032765
0.173
0.34862
0.48624
0.52294
0.50721
0.4574
0.35518
0.25033
0.1232
0.051114
0.073394
0.16121
0.25426
0.30931
0.33945
0.33945
0.32241
0.32765
0.35518
0.37353
0.23853
-0.036697
-0.3827
-0.66186
-0.7156
-0.61337
-0.37746
-0.14679
0.036697
0.20708
0.39843
0.58322
0.72215
0.83355
0.84535
0.8152
0.71429
0.57143
0.45216
0.3709
0.33028
0.30799
0.31455
0.346
0.41284
0.4941
0.55308
0.57274
0.54522
0.47313
0.35387
0.19659
0.061599
0.048493
0.047182
-0.065531
-0.3329
-0.6422
-0.8401
-0.90826
-0.87287
-0.77851
-0.61992
-0.41547
-0.22412
0
0.173
0.33159
0.44954
0.4574
0.42333
0.38008
0.31586
0.2346
0.1363
0.086501
0.10616
0.17955
0.25164
0.29751
0.32241
0.31979
0.32241
0.34338
0.35387
0.27261
0.056356
-0.2713
-0.57012
-0.70642
-0.62123
-0.43906
-0.19004
-0.014417
0.1114
0.24115
0.41153
0.56356
0.70773
0.76409
0.7654
0.71166
0.5924
0.4574
0.33683
0.25688
0.23329
0.22543
0.24902
0.30144
0.38663
0.46396
0.5059
0.49148
0.43906
0.34207
0.21232
0.049803
-0.035387
-0.023591
-0.065531
-0.21887
-0.51245
-0.80734
-0.93709
-0.98952
-0.94364
-0.80341
-0.63172
-0.41022
-0.21101
-0.0052425
0.18087
0.32372
0.41153
0.40367
0.36959
0.29096
0.19659
0.068152
-0.023591
-0.039318
0.019659
0.11927
0.19528
0.25426
0.29096
0.30406
0.33945
0.37353
0.37484
0.2346
-0.057667
-0.40236
-0.71429
-0.82569
-0.71822
-0.49672
-0.22018
-0.028834
0.12582
0.28702
0.47969
0.63565
0.76671
0.80865
0.79292
0.72608
0.58322
0.4325
0.32241
0.26212
0.25033
0.26999
0.31062
0.40105
0.49934
0.5675
0.57143
0.52031
0.43775
0.31193
0.15727
0.026212
0.017038
0.019659
-0.10747
-0.3578
-0.67628
-0.8637
-0.94495
-0.89908
-0.78899
-0.61992
-0.42071
-0.21887
-0.0039318
0.17955
0.34993
0.46527
0.50721
0.48886
0.4325
0.31062
0.17693
0.045872
-0.024902
0.0013106
0.069463
0.17693
0.25688
0.32896
0.35649
0.35125
0.36697
0.3827
0.35518
0.1848
-0.12189
-0.48493
-0.7903
-0.87811
-0.78768
-0.55701
-0.31193
-0.1114
0.060288
0.25295
0.45872
0.59109
0.7287
0.74574
0.74705
0.66448
0.52949
0.4076
0.29751
0.23722
0.21101
0.20839
0.2346
0.27785
0.36435
0.42464
0.47313
0.46003
0.41022
0.32634
0.19921
0.047182
-0.024902
-0.0078637
-0.049803
-0.20052
-0.50197
-0.78899
-0.91088
-0.95151
-0.90564
-0.78244
-0.60682
-0.40105
-0.19921
0.018349
0.20839
0.37877
0.48231
0.49541
0.46789
0.37484
0.25557
0.12975
0.034076
0.018349
0.081258
0.16383
0.26737
0.34993
0.39974
0.40498
0.40367
0.42333
0.42726
0.35649
0.11927
-0.23591
-0.59502
-0.80734
-0.77195
-0.61337
-0.33945
-0.12975
0.049803
0.21101
0.41284
0.57667
0.72608
0.79685
0.80996
0.77195
0.64482
0.49148
0.36697
0.28834
0.26081
0.23853
0.25164
0.27654
0.35518
0.43906
0.50328
0.52163
0.481
0.40891
0.30013
0.15596
0.026212
0.0091743
0.027523
-0.090433
-0.32372
-0.63696
-0.84142
-0.92923
-0.91088
-0.84142
-0.67235
-0.48755
-0.27785
-0.065531
0.12713
0.31324
0.46003
0.52031
0.50852
0.4574
0.32765
0.20839
0.074705
0.0013106
0.0039318
0.065531
0.16907
0.2713
0.35911
0.40629
0.42071
0.42464
0.44692
0.45085
0.37615
0.13368
-0.18873
-0.54915
-0.77064
-0.73919
-0.5675
-0.30799
-0.076016
0.098296
0.26737
0.46527
0.62779
0.7536
0.84273
0.85059
0.81913
0.71429
0.56881
0.42726
0.33159
0.27916
0.26606
0.27916
0.31586
0.38139
0.46789
0.53211
0.54391
0.5059
0.42726
0.31586
0.173
0.026212
-0.0013106
0.015727
-0.087811
-0.29751
-0.60026
-0.83093
-0.93185
-0.93578
-0.86894
-0.72346
-0.55701
-0.346
-0.15596
0.06291
0.25426
0.41415
0.48755
0.4692
0.41547
0.30931
0.19659
0.078637
-0.02097
-0.038008
0.019659
0.12058
0.2228
0.30144
0.34338
0.35387
0.35518
0.38008
0.40236
0.36304
0.16907
-0.14417
-0.51769
-0.75754
-0.78375
-0.65924
-0.41547
-0.1848
0
0.16252
0.36435
0.53997
0.68283
0.77457
0.7903
0.76278
0.67366
0.53604
0.40236
0.30931
0.24771
0.22936
0.23329
0.25295
0.30013
0.37615
0.45347
0.49934
0.49672
0.45872
0.37746
0.26212
0.12451
0.034076
0.038008
0.0026212
-0.13893
-0.4076
-0.69594
-0.84928
-0.93185
-0.91219
-0.8021
-0.65924
-0.4574
-0.25033
-0.023591
0.18218
0.34862
0.46658
0.48362
0.45478
0.3709
0.26081
0.14155
0.04194
-0.02097
0.0091743
0.068152
0.18742
0.30013
0.38794
0.42595
0.42857
0.40629
0.40236
0.39318
0.34338
0.17693
-0.12058
-0.48362
-0.76409
-0.81389
-0.71822
-0.48886
-0.25164
-0.058978
0.1363
0.31848
0.49017
0.62123
0.73132
0.78637
0.78244
0.72084
0.58585
0.43381
0.3211
0.25426
0.23853
0.26343
0.31717
0.3945
0.47837
0.53211
0.53735
0.49672
0.41678
0.31586
0.16907
0.027523
-0.017038
0.0039318
-0.072084
-0.24902
-0.53604
-0.7903
-0.89908
-0.92661
-0.86107
-0.71822
-0.53997
-0.33945
-0.13237
0.10092
0.28965
0.44954
0.52031
0.50328
0.45478
0.40236
0.30799
0.21494
0.098296
0.02097
0.053735
0.10092
0.18873
0.28702
0.39712
0.47575
0.51376
0.49672
0.42988
0.30668
0.1979
0.099607
0.027523
-0.12189
-0.32634
-0.56225
-0.78899
-0.84797
-0.78637
-0.63041
-0.41547
-0.22018
0.0052425
0.1979
0.38008
0.53997
0.63696
0.68283
0.64351
0.55439
0.44692
0.34469
0.26212
0.21232
0.21756
0.26343
0.34993
0.42857
0.4692
0.49279
0.46527
0.39318
0.25164
0.038008
-0.17693
-0.37746
-0.50328
-0.59633
-0.64482
-0.62254
-0.55439
-0.42726
-0.30668
-0.17169
0.0013106
0.19266
0.3945
0.57667
0.73001
0.81127
0.82045
0.74705
0.62123
0.48624
0.37221
0.30013
0.27523
0.29358
0.33945
0.41284
0.49934
0.57536
0.59895
0.57929
0.51376
0.42202
0.2962
0.14155
0.04325
0.032765
0.0078637
0.099607
