0.81349
0.88387
0.86158
0.77478
0.64692
0.50029
0.39941
0.30323
0.20821
0.1132
0.020528
-0.06393
-0.18592
-0.35836
-0.53431
-0.6868
-0.77713
-0.79355
-0.74311
-0.65279
-0.54839
-0.48974
-0.37361
-0.14956
0.18358
0.51554
0.74428
0.83226
0.83695
0.73607
0.61525
0.4651
0.35953
0.26804
0.18006
0.090909
0.00058651
-0.06393
-0.16129
-0.30674
-0.46628
-0.65161
-0.77243
-0.82757
-0.80997
-0.71144
-0.60235
-0.52727
-0.42522
-0.23284
0.09912
0.44751
0.71261
0.84516
0.86393
0.82287
0.69853
0.56716
0.42639
0.31613
0.20704
0.11789
0.022874
-0.054545
-0.13666
-0.26921
-0.4393
-0.61642
-0.7607
-0.82053
-0.82874
-0.75484
-0.65396
-0.56716
-0.46628
-0.30323
-0.30323
-0.017009
0.33842
0.61408
0.78299
0.81466
0.77947
0.65396
0.51672
0.37713
0.27859
0.18475
0.095601
0.0087977
-0.065103
-0.14135
-0.24457
-0.39472
-0.56246
-0.72903
-0.82874
-0.85572
-0.7912
-0.68563
-0.58592
-0.49795
-0.35249
-0.089736
0.2868
0.60117
0.79355
0.85572
0.82522
0.73021
0.59531
0.46041
0.34545
0.25044
0.15308
0.054545
-0.024047
-0.096774
-0.20938
-0.35015
-0.52375
-0.69384
-0.80293
-0.85103
-0.8088
-0.70909
-0.6
-0.51085
-0.38416
-0.14956
0.18358
0.53079
0.74428
0.84399
0.8346
0.73138
0.58592
0.44516
0.33021
0.26334
0.19296
0.12375
0.031085
-0.10733
-0.28915
-0.47918
-0.63754
-0.73255
-0.75132
-0.73255
-0.64457
-0.53548
-0.45337
-0.33255
-0.13431
0.17067
0.47214
0.6915
0.79238
0.79941
0.73724
0.5871
0.43343
0.29267
0.20352
0.12727
0.051026
-0.012317
-0.065103
-0.12258
-0.20352
-0.36188
-0.54018
-0.69853
-0.80176
-0.82757
-0.76422
-0.66334
-0.55894
-0.45337
-0.27625
0.015836
0.38534
0.66804
0.83226
0.87918
0.82405
0.70205
0.5566
0.43343
0.35015
0.25513
0.17771
0.065103
-0.034604
-0.20352
-0.38182
-0.57302
-0.68328
-0.72903
-0.73138
-0.64927
-0.55777
-0.46628
-0.3607
-0.20117
0.041642
0.36774
0.6129
0.75484
0.79003
0.73255
0.59179
0.42639
0.26334
0.18123
0.10147
0.031085
-0.042815
-0.093255
-0.13783
-0.19531
-0.3173
-0.48739
-0.65865
-0.7783
-0.83109
-0.80762
-0.70557
-0.59179
-0.49091
-0.36188
-0.12845
0.20587
0.55191
0.75601
0.85572
0.82757
0.71496
0.58006
0.4393
0.34663
0.27273
0.18827
0.10029
0.020528
-0.076833
-0.20704
-0.37478
-0.56598
-0.70557
-0.76891
-0.7783
-0.70909
-0.60469
-0.50264
-0.39238
-0.24809
-0.0029326
0.31378
0.57771
0.73607
0.7654
0.6915
0.56716
0.41818
0.30323
0.21994
0.1566
0.07566
-0.0017595
-0.059238
-0.11085
-0.17889
-0.31965
-0.49443
-0.66804
-0.78534
-0.8217
-0.78768
-0.68094
-0.56598
-0.46628
-0.3349
-0.10381
0.23636
0.54604
0.74663
0.80176
0.74897
0.63284
0.49677
0.39472
0.31848
0.25161
0.15308
0.059238
-0.021701
-0.072141
-0.15543
-0.28563
-0.44868
-0.62229
-0.74545
-0.8088
-0.80645
-0.69032
-0.58827
-0.45572
-0.35484
-0.14487
0.15425
0.47918
0.72082
0.80059
0.77713
0.6563
0.52962
0.42053
0.34311
0.26686
0.16716
0.074487
-0.0099707
-0.078006
-0.15543
-0.28563
-0.45103
-0.62815
-0.77126
-0.82757
-0.84047
-0.76188
-0.65982
-0.55191
-0.4346
-0.24106
0.038123
0.40762
0.67625
0.82522
0.82405
0.73255
0.61173
0.49326
0.40528
0.32082
0.22346
0.12141
0.029912
-0.051026
-0.1132
-0.22581
-0.37009
-0.54018
-0.6915
-0.78065
-0.80176
-0.74545
-0.63402
-0.51554
-0.39589
-0.23402
0.032258
0.37947
0.67273
0.84282
0.87214
0.79472
0.67155
0.54018
0.43578
0.35015
0.25396
0.14721
0.047507
-0.039296
-0.10616
-0.20469
-0.33724
-0.50381
-0.66686
-0.78534
-0.82757
-0.80293
-0.69853
-0.5695
-0.44985
-0.30792
-0.049853
0.29267
0.6305
0.84985
0.91672
0.86393
0.75249
0.62229
0.51906
0.41935
0.31965
0.19883
0.10147
0.020528
-0.04868
-0.12845
-0.25279
-0.4217
-0.64457
-0.81349
-0.85806
-0.74897
-0.56598
-0.38065
-0.17419
0.081525
0.38886
0.64692
0.81114
0.86158
0.82053
0.69971
0.53431
0.35718
0.23167
0.13196
0.03695
-0.042815
-0.13314
-0.19883
-0.23402
-0.30909
-0.42053
-0.56716
-0.73607
-0.84751
-0.90499
-0.82053
-0.69853
-0.56716
-0.41232
-0.15425
0.18123
0.53314
0.77126
0.88504
0.87331
0.77478
0.63754
0.49677
0.38416
0.28563
0.17771
0.061584
-0.040469
-0.11437
-0.17889
-0.27155
-0.39707
-0.55543
-0.71261
-0.82639
-0.86393
-0.81114
-0.68915
-0.56716
-0.4393
-0.26217
0.026393
0.39355
0.7044
0.85455
0.86862
0.80411
0.69032
0.57419
0.45806
0.34545
0.2176
0.094428
0.0087977
-0.073314
-0.12962
-0.22463
-0.36188
-0.51906
-0.6868
-0.79707
-0.84399
-0.81466
-0.70088
-0.57889
-0.44399
-0.27507
0.0017595
0.35953
0.661
0.84282
0.89208
0.81818
0.71496
0.57654
0.45455
0.3478
0.23754
0.1132
0.011144
-0.065103
-0.13196
-0.2176
-0.35249
-0.49912
-0.6563
-0.80059
-0.84399
-0.84633
-0.73255
-0.6
-0.46745
-0.32434
-0.070968
0.26569
0.62229
0.83109
0.91202
0.8651
0.75601
0.62111
0.49912
0.40293
0.30557
0.19648
0.10264
0.022874
-0.080352
-0.22815
-0.4217
-0.60469
-0.71378
-0.78768
-0.73021
-0.63167
-0.5132
-0.39824
-0.24223
-0.0041056
0.3044
0.59531
0.77713
0.84868
0.78416
0.67155
0.50733
0.3607
0.25279
0.13548
0.042815
-0.051026
-0.12375
-0.16716
-0.22229
-0.31378
-0.42639
-0.59296
-0.74545
-0.85572
-0.88974
-0.80528
-0.67625
-0.54252
-0.38886
-0.14956
0.19296
0.54721
0.80411
0.92727
0.90381
0.80528
0.67155
0.53079
0.42991
0.32199
0.20469
0.097947
-0.017009
-0.12845
-0.28563
-0.44164
-0.60469
-0.69853
-0.73959
-0.73842
-0.65161
-0.54135
-0.42053
-0.30323
-0.11202
0.17889
0.50733
0.74897
0.87918
0.8651
0.7654
0.62463
0.45337
0.3173
0.22698
0.12023
0.02522
-0.072141
-0.14018
-0.19062
-0.25982
-0.3654
-0.52023
-0.68328
-0.82405
-0.8956
-0.86393
-0.76422
-0.61408
-0.48504
-0.30323
-0.015836
0.3478
0.67507
0.85924
0.90264
0.83226
0.72082
0.57067
0.44047
0.33138
0.20352
0.092082
-0.018182
-0.089736
-0.15191
-0.21408
-0.31613
-0.46041
-0.61994
-0.7654
-0.84399
-0.8651
-0.76305
-0.64575
-0.5132
-0.36657
-0.12141
0.21056
0.57067
0.81701
0.9132
0.89091
0.7912
0.65161
0.51554
0.40293
0.29032
0.16012
0.046334
-0.049853
-0.12023
-0.18944
-0.30323
-0.42522
-0.57185
-0.71261
-0.83226
-0.87801
-0.83695
-0.72082
-0.58358
-0.4522
-0.25513
0.040469
0.41584
0.72434
0.89677
0.92258
0.84751
0.72434
0.57889
0.46158
0.33724
0.20352
0.080352
-0.026393
-0.10381
-0.16012
-0.24809
-0.35953
-0.50968
-0.66686
-0.79355
-0.8522
-0.86393
-0.7654
-0.64927
-0.51437
-0.36774
-0.097947
0.22815
0.59648
0.8393
0.94252
0.90616
0.79941
0.66217
0.53196
0.41466
0.2868
0.14604
0.032258
-0.058065
-0.12493
-0.19765
-0.29853
-0.42757
-0.58358
-0.72434
-0.82405
-0.8651
-0.82405
-0.72551
-0.59062
-0.45455
-0.26452
0.03695
0.4088
0.72199
0.89677
0.9261
0.85103
0.73138
0.58944
0.46745
0.34194
0.20587
0.078006
-0.022874
-0.10029
-0.16716
-0.2563
-0.40528
-0.55543
-0.72551
-0.82053
-0.85103
-0.75718
-0.6305
-0.49208
-0.36188
-0.14956
0.15894
0.50733
0.76305
0.88387
0.88504
0.78534
0.65044
0.4956
0.37361
0.26217
0.15191
0.069795
-0.0076246
-0.070968
-0.19765
-0.35249
-0.51906
-0.66452
-0.76422
-0.80762
-0.78768
-0.69032
-0.56716
-0.44282
-0.29032
-0.046334
0.28446
0.61056
0.82874
0.91554
0.88152
0.76891
0.62111
0.47449
0.35718
0.23519
0.10733
-0.0029326
-0.092082
-0.16246
-0.22698
-0.32199
-0.43226
-0.56481
-0.72082
-0.83109
-0.87918
-0.86745
-0.75953
-0.6434
-0.50381
-0.33607
-0.028739
0.34311
0.69853
0.92141
0.98006
0.9261
0.8088
0.66452
0.53196
0.4088
0.27273
0.139
0.038123
-0.032258
-0.078006
-0.17537
-0.33138
-0.5695
-0.77478
-0.87566
-0.78768
-0.60938
-0.41935
-0.22933
0.022874
0.30557
0.59648
0.78534
0.86979
0.86628
0.77009
0.60938
0.42522
0.25044
0.11202
-0.012317
-0.11554
-0.20821
-0.26452
-0.31261
-0.35015
-0.38534
-0.47097
-0.58358
-0.71965
-0.86745
-0.93314
-0.93431
-0.82639
-0.70205
-0.53783
-0.29619
0.061584
0.46979
0.78651
0.9437
0.97185
0.90029
0.79707
0.65982
0.539
0.41349
0.25279
0.11789
0.0064516
-0.067449
-0.13783
-0.23519
-0.37243
-0.53783
-0.69736
-0.81466
-0.85455
-0.7654
-0.62933
-0.49912
-0.35836
-0.1261
0.19179
0.53548
0.80293
0.91789
0.9261
0.8346
0.71026
0.54839
0.39941
0.2739
0.13548
0.017009
-0.079179
-0.15073
-0.22815
-0.29619
-0.38182
-0.48974
-0.63519
-0.77947
-0.86628
-0.90381
-0.85689
-0.76422
-0.6305
-0.48739
-0.28211
0.049853
0.44985
0.79003
0.95073
0.95894
0.88856
0.77126
0.64692
0.50264
0.35836
0.19648
0.073314
-0.024047
-0.10264
-0.15777
-0.23754
-0.3654
-0.55777
-0.77126
-0.89795
-0.88856
-0.72903
-0.53783
-0.35718
-0.12258
0.15425
0.48739
0.75015
0.88152
0.91789
0.85806
0.72082
0.55191
0.37947
0.22698
0.092082
-0.020528
-0.11437
-0.16598
-0.21642
-0.24809
-0.30557
-0.44282
-0.67038
-0.87214
-0.9261
-0.82522
-0.59648
-0.34663
-0.070968
0.2129
0.52375
0.7349
0.86393
0.89677
0.85806
0.72669
0.56246
0.36188
0.21408
0.083871
-0.051026
-0.15894
-0.24809
-0.30674
-0.33607
-0.38065
-0.43578
-0.50616
-0.60587
-0.74311
-0.87331
-0.95073
-0.9566
-0.8651
-0.71613
-0.53548
-0.27507
0.068622
0.47214
0.78416
0.95308
0.97302
0.90381
0.79707
0.66452
0.54604
0.39238
0.23402
0.090909
-0.014663
-0.069795
-0.10968
-0.20469
-0.32669
-0.50029
-0.66569
-0.78182
-0.81584
-0.7044
-0.56833
-0.42874
-0.27273
-0.031085
0.28915
0.62463
0.84282
0.94252
0.94721
0.86158
0.72434
0.54487
0.37595
0.24457
0.10616
-0.0099707
-0.096774
-0.18475
-0.22815
-0.30674
-0.36422
-0.47801
-0.58944
-0.72199
-0.82757
-0.87214
-0.85924
-0.75601
-0.65396
-0.52023
-0.34076
-0.026393
0.35249
0.7173
0.94018
0.99413
0.95191
0.83695
0.7044
0.57185
0.40762
0.25748
0.11906
0.018182
-0.06393
-0.1437
-0.22346
-0.30792
-0.4217
-0.56012
-0.69971
-0.80176
-0.84633
-0.86158
-0.77713
-0.66686
-0.53783
-0.39355
-0.13666
0.22463
0.60235
0.8827
0.99179
0.98358
0.89091
0.7654
0.61173
0.46745
0.31496
0.17067
0.038123
-0.038123
-0.1261
-0.19413
-0.28915
-0.39003
-0.52375
-0.66452
-0.7783
-0.84282
-0.85924
-0.79824
-0.69736
-0.57537
-0.44633
-0.20938
0.11672
0.5085
0.79707
0.95073
0.94487
0.86628
0.75015
0.59648
0.45689
0.3044
0.15777
0.040469
-0.056891
-0.12727
-0.19531
-0.2739
-0.37009
-0.49326
-0.64809
-0.75484
-0.8346
-0.85337
-0.82874
-0.74663
-0.63284
-0.51437
-0.33021
-0.026393
0.34897
0.67507
0.87801
0.92258
0.87683
0.78065
0.6434
0.50029
0.35367
0.19765
0.1132
0.055718
0.0029326
-0.11202
-0.30674
-0.53079
-0.68211
-0.74545
-0.62346
-0.48504
-0.29853
-0.16716
0.0087977
0.24106
0.47331
0.65748
0.73607
0.75484
0.69267
0.54604
0.36774
0.18827
0.03695
-0.079179
-0.16012
-0.22346
-0.23871
-0.26452
-0.2915
-0.38886
-0.57654
-0.75836
-0.8217
-0.71848
-0.49091
-0.24575
0.012317
0.24575
0.49677
0.67155
0.75601
0.78065
0.72434
0.60352
0.40528
0.20587
0.029912
-0.083871
-0.18123
-0.23519
-0.27742
-0.30557
-0.32669
-0.35836
-0.41114
-0.52962
-0.71261
-0.85103
-0.81701
-0.59413
-0.30323
-0.0064516
0.25044
0.48152
0.6434
0.72082
0.73372
0.67625
0.54018
0.36774
0.19648
0.052199
-0.060411
-0.15543
-0.22698
-0.28211
-0.33255
-0.38065
-0.41466
-0.42522
-0.43812
-0.5085
-0.66686
-0.89091
-1
-0.91437
-0.65865
-0.35015
-0.040469
0.24927
0.52141
0.67507
0.72669
0.6868
0.62581
0.54839
0.46041
0.35015
0.20587
0.051026
-0.082698
-0.17302
-0.23167
-0.26334
-0.2868
-0.33724
-0.41349
-0.51085
-0.63636
-0.77478
-0.88974
-0.95073
-0.91437
-0.80176
-0.67507
-0.54839
-0.37595
-0.090909
0.25161
0.5695
0.73842
0.77947
0.76657
0.74311
0.67507
0.59062
0.42991
0.27155
0.13783
0.059238
0.0052786
-0.034604
-0.10733
-0.22933
-0.41935
-0.63402
-0.75015
-0.76305
-0.61173
-0.45337
-0.32199
-0.18475
0.056891
0.34076
0.59179
0.71026
0.69501
0.63402
0.55191
0.47918
0.40059
0.29267
0.16481
0.045161
-0.032258
-0.096774
-0.14487
-0.22229
-0.39355
-0.58475
-0.75718
-0.78768
-0.63988
-0.44751
-0.261
-0.085044
0.10733
0.3654
0.5566
0.67038
0.70088
0.66804
0.56364
0.40997
0.23988
0.076833
-0.035777
-0.12727
-0.19765
-0.24106
-0.26804
-0.2915
-0.29267
-0.34663
-0.47331
-0.661
-0.8522
-0.87801
-0.77947
-0.54956
-0.31848
-0.047507
0.2176
0.51085
0.71378
0.82405
0.86393
0.81349
0.69971
0.53314
0.3478
0.18592
0.062757
-0.049853
-0.12845
-0.18358
-0.23402
-0.23871
-0.27977
-0.38299
-0.55425
-0.77478
-0.88387
-0.8217
-0.58475
-0.31026
-0.046334
0.20704
0.46745
0.68328
0.79941
0.84751
0.83109
0.74428
0.58358
0.38768
0.20352
0.054545
-0.065103
-0.16012
-0.23402
-0.28798
-0.34076
-0.38416
-0.40528
-0.43695
-0.46862
-0.54839
-0.65161
-0.75836
-0.8522
-0.90381
-0.91789
-0.84047
-0.74076
-0.59062
-0.34545
0.020528
0.43109
0.74545
0.91202
0.94252
0.90264
0.80997
0.67507
0.53431
0.38768
0.24692
0.12023
0.021701
-0.059238
-0.12727
-0.18006
-0.2434
-0.31965
-0.43343
-0.57654
-0.67742
-0.75015
-0.76774
-0.75249
-0.68446
-0.60235
-0.49091
-0.30557
0.0099707
0.37713
0.71613
0.92023
0.98592
0.96012
0.86979
0.71613
0.56012
0.40293
0.25396
0.13431
0.032258
-0.034604
-0.095601
-0.14721
-0.20117
-0.30088
-0.42405
-0.56012
-0.661
-0.71848
-0.73021
-0.72082
-0.65865
-0.57771
-0.47331
-0.30557
-0.015836
0.35132
0.68446
0.89795
0.96481
0.94135
0.84751
0.69267
0.5261
0.36657
0.21408
0.093255
-0.0017595
-0.061584
-0.13196
-0.17771
-0.23871
-0.32317
-0.44047
-0.56833
-0.67625
-0.73607
-0.74545
-0.73138
-0.66686
-0.58944
-0.48622
-0.32903
-0.031085
0.32551
0.68211
0.91554
1
0.9824
0.89443
0.74311
0.57889
0.41584
0.26217
0.13783
0.042815
-0.031085
-0.094428
-0.14839
-0.20469
-0.28094
-0.38768
-0.52023
-0.62463
-0.69384
-0.71026
-0.70674
-0.65396
-0.58006
-0.48035
-0.33138
-0.046334
0.30674
0.66921
0.89912
0.98944
0.97771
0.8956
0.75015
0.58475
0.42287
0.26686
0.14018
0.047507
-0.020528
-0.079179
-0.14018
-0.21408
-0.31496
-0.43695
-0.56833
-0.6739
-0.73607
-0.75015
-0.68211
-0.59413
-0.48739
-0.36891
-0.13196
0.19765
0.55894
0.81701
0.9437
0.96012
0.90499
0.77478
0.60352
0.42405
0.26334
0.11789
0.0087977
-0.070968
-0.13196
-0.18006
-0.2305
-0.28446
-0.37478
-0.49091
-0.61173
-0.70909
-0.76774
-0.78299
-0.75718
-0.68798
-0.59883
-0.49208
-0.261
0.065103
0.46393
0.7654
0.93314
0.96598
0.92375
0.80645
0.64106
0.47449
0.30674
0.16716
0.068622
0.017009
-0.032258
-0.065103
-0.15308
-0.30792
-0.50733
-0.67273
-0.75249
-0.64106
-0.48504
-0.29971
-0.12493
0.085044
0.33607
0.58006
0.73959
0.82639
0.82991
0.76188
0.60704
0.40762
0.20469
0.039296
-0.083871
-0.16246
-0.21056
-0.23284
-0.25513
-0.27742
-0.29384
-0.32199
-0.39824
-0.55308
-0.77361
-0.83578
-0.75953
-0.49091
-0.20235
0.09912
0.37243
0.60938
0.7654
0.84282
0.86041
0.80762
0.66452
0.47683
0.27859
0.12141
-0.014663
-0.10147
-0.18006
-0.23754
-0.30557
-0.34076
-0.38768
-0.39238
-0.42287
-0.46628
-0.56481
-0.66686
-0.77713
-0.84751
-0.86979
-0.85689
-0.77478
-0.68446
-0.55543
-0.30205
0.046334
0.45689
0.76657
0.91554
0.92845
0.90733
0.82287
0.70557
0.56833
0.40411
0.25982
0.13196
0.028739
-0.04868
-0.10029
-0.14956
-0.19648
-0.27507
-0.39355
-0.51202
-0.63519
-0.73138
-0.77009
-0.75367
-0.67977
-0.58827
-0.48622
-0.2915
0.020528
0.41114
0.71261
0.89795
0.95425
0.92141
0.80645
0.66569
0.50147
0.34897
0.20469
0.10029
0.019355
-0.04868
-0.10968
-0.16246
-0.20469
-0.29384
-0.40176
-0.52962
-0.65279
-0.70323
-0.73959
-0.72786
-0.66334
-0.59883
-0.50029
-0.34545
-0.076833
0.28563
0.62229
0.85455
0.94839
0.94487
0.85337
0.71026
0.53548
0.39472
0.24106
0.13314
0.043988
-0.014663
-0.073314
-0.12258
-0.17654
-0.25513
-0.35601
-0.47801
-0.59648
-0.66569
-0.6915
-0.70323
-0.64575
-0.59062
-0.50147
-0.3912
-0.14839
0.16481
0.53783
0.7912
0.91906
0.94135
0.88152
0.73724
0.55191
0.37947
0.22346
0.10381
0.0099707
-0.053372
-0.11085
-0.15777
-0.2129
-0.25513
-0.33842
-0.44516
-0.57889
-0.66686
-0.72434
-0.74897
-0.7349
-0.6915
-0.60352
-0.51672
-0.35367
-0.061584
0.29619
0.64809
0.87097
0.94252
0.94604
0.83812
0.661
0.48387
0.32903
0.20235
0.11906
0.052199
0.0052786
-0.019355
-0.089736
-0.20587
-0.38416
-0.56833
-0.68563
-0.69032
-0.56246
-0.42874
-0.26569
-0.11789
0.10264
0.35015
0.56246
0.69736
0.77009
0.76188
0.68328
0.50968
0.31026
0.11554
-0.024047
-0.14018
-0.19765
-0.23636
-0.24809
-0.25396
-0.28798
-0.29384
-0.33724
-0.44516
-0.61994
-0.8217
-0.82053
-0.69501
-0.42991
-0.14721
0.12141
0.36422
0.57771
0.71378
0.78651
0.80645
0.74311
0.60587
0.40528
0.22346
0.068622
-0.045161
-0.13548
-0.19062
-0.22463
-0.25865
-0.27859
-0.30792
-0.32903
-0.36305
-0.41114
-0.50381
-0.64457
-0.81466
-0.90733
-0.89677
-0.75132
-0.57771
-0.40176
-0.14956
0.15425
0.50147
0.74897
0.89091
0.93079
0.89795
0.77947
0.60117
0.4217
0.26804
0.14839
0.053372
-0.015836
-0.070968
-0.11672
-0.12845
-0.15425
-0.22346
-0.37361
-0.54956
-0.69501
-0.72786
-0.63402
-0.49208
-0.32903
-0.12375
0.11085
0.38065
0.58944
0.70557
0.7607
0.74897
0.6563
0.49443
0.28915
0.12727
0.0064516
-0.070968
-0.11672
-0.14487
-0.17067
-0.20821
-0.29736
-0.43226
-0.6
-0.74428
-0.76657
-0.6563
-0.46393
-0.25865
-0.047507
0.16129
0.37595
0.539
0.63167
0.68563
0.68328
0.60821
0.44868
0.24692
0.046334
-0.10264
-0.20235
-0.25279
-0.27977
-0.30205
-0.32434
-0.34076
-0.3478
-0.34545
-0.36774
-0.47566
-0.66921
-0.88504
-0.90616
-0.79589
-0.52023
-0.261
-0.0041056
0.25161
0.48152
0.64457
0.73607
0.78065
0.75484
0.65161
0.46628
0.27742
0.12141
0.0064516
-0.082698
-0.14135
-0.20117
-0.24575
-0.27977
-0.31378
-0.33021
-0.35601
-0.38651
-0.45689
-0.55191
-0.661
-0.73842
-0.78416
-0.78182
-0.73842
-0.66804
-0.58944
-0.47683
-0.20938
0.12258
0.50264
0.76422
0.90499
0.93079
0.86979
0.73138
0.55777
0.40411
0.261
0.14018
0.043988
-0.027566
-0.085044
-0.12727
-0.14721
-0.17654
-0.22815
-0.31965
-0.42991
-0.53079
-0.60821
-0.661
-0.69384
-0.661
-0.61173
-0.52141
-0.41114
-0.17419
0.14839
0.50733
0.7607
0.88974
0.9261
0.85337
0.7044
0.51202
0.34545
0.2
0.094428
0.01349
-0.053372
-0.089736
-0.13548
-0.16481
-0.19765
-0.25513
-0.35367
-0.4651
-0.56716
-0.6434
-0.66686
-0.66921
-0.63402
-0.57889
-0.53548
-0.44399
-0.24575
0.058065
0.40762
0.68798
0.84868
0.89912
0.84516
0.71378
0.51672
0.33255
0.19062
0.068622
0.0099707
-0.055718
-0.096774
-0.14252
-0.16833
-0.20235
-0.25161
-0.33607
-0.44516
-0.5437
-0.6176
-0.65396
-0.64692
-0.63284
-0.58944
-0.54252
-0.4651
-0.27742
0.015836
0.37361
0.67507
0.86276
0.92023
0.88622
0.7607
0.5695
0.38299
0.22815
0.1132
0.029912
-0.020528
-0.073314
-0.11672
-0.14487
-0.17537
-0.21173
-0.28211
-0.38065
-0.49326
-0.57771
-0.62933
-0.63636
-0.62815
-0.57889
-0.53548
-0.46628
-0.32317
-0.056891
0.2915
0.61173
0.82991
0.9132
0.88856
0.78182
0.60587
0.41232
0.25748
0.1261
0.040469
-0.018182
-0.056891
-0.072141
-0.076833
-0.09912
-0.16716
-0.31613
-0.50499
-0.65161
-0.70674
-0.61408
-0.48622
-0.33842
-0.19296
0.0076246
0.25865
0.50147
0.66804
0.75953
0.78886
0.72199
0.58475
0.38886
0.19062
0.027566
-0.06393
-0.11906
-0.14487
-0.16481
-0.1824
-0.20704
-0.21408
-0.22111
-0.25982
-0.37009
-0.56716
-0.75015
-0.75601
-0.61525
-0.34428
-0.086217
0.1437
0.3654
0.57067
0.70205
0.78534
0.8088
0.75718
0.61994
0.41466
0.22698
0.068622
-0.017009
-0.069795
-0.11437
-0.14956
-0.20938
-0.2129
-0.21994
-0.23871
-0.25865
-0.29853
-0.35367
-0.47566
-0.66686
-0.79941
-0.82522
-0.70323
-0.53783
-0.36188
-0.15191
0.11789
0.43109
0.65865
0.80762
0.88504
0.8393
0.75132
0.56598
0.37361
0.22581
0.093255
0.014663
-0.049853
-0.088563
-0.12727
-0.12845
-0.17302
-0.22698
-0.35953
-0.50616
-0.64809
-0.65513
-0.58475
-0.42874
-0.26921
-0.070968
0.13431
0.37126
0.56364
0.66686
0.72317
0.70557
0.61994
0.4651
0.26686
0.072141
-0.051026
-0.12727
-0.1695
-0.19531
-0.21525
-0.25396
-0.26217
-0.26804
-0.2739
-0.27507
-0.34076
-0.4827
-0.70088
-0.8651
-0.82991
-0.67507
-0.38651
-0.13079
0.12845
0.3783
0.61056
0.72669
0.82405
0.83226
0.76657
0.63636
0.43578
0.24106
0.10264
0.0064516
-0.072141
-0.1085
-0.16246
-0.19648
-0.21642
-0.23636
-0.22463
-0.24223
-0.26217
-0.34428
-0.47801
-0.63167
-0.73138
-0.74428
-0.66217
-0.5824
-0.4651
-0.31848
-0.045161
0.26334
0.56012
0.75367
0.86393
0.87683
0.7912
0.63636
0.41232
0.25982
0.139
0.067449
0.0064516
-0.052199
-0.08739
-0.10499
-0.10147
-0.15308
-0.21408
-0.3783
-0.53548
-0.65396
-0.6915
-0.61994
-0.49912
-0.35836
-0.19062
0.01349
0.26334
0.49208
0.63402
0.72903
0.74545
0.67155
0.52023
0.34311
0.14956
0.018182
-0.062757
-0.10264
-0.12375
-0.13548
-0.14839
-0.18358
-0.27038
-0.40293
-0.56012
-0.67155
-0.69032
-0.59883
-0.4217
-0.26334
-0.060411
0.12727
0.3349
0.49795
0.61173
0.68915
0.70909
0.65982
0.5261
0.33842
0.13666
-0.024047
-0.12258
-0.1824
-0.2
-0.2129
-0.23871
-0.261
-0.27507
-0.27625
-0.27507
-0.27859
-0.31848
-0.39589
-0.51906
-0.661
-0.75836
-0.76891
-0.66217
-0.53196
-0.38065
-0.1824
0.070968
0.37009
0.59648
0.73724
0.79707
0.76774
0.66921
0.49326
0.3173
0.1871
0.088563
0.011144
-0.041642
-0.097947
-0.13079
-0.15777
-0.18123
-0.1871
-0.21056
-0.25748
-0.33607
-0.44751
-0.54721
-0.62698
-0.66217
-0.65982
-0.63519
-0.60704
-0.56364
-0.49091
-0.2563
0.04868
0.40997
0.65982
0.81349
0.8522
0.77713
0.63519
0.44047
0.28328
0.16833
0.079179
0.017009
-0.038123
-0.07566
-0.09912
-0.10616
-0.11906
-0.14604
-0.21056
-0.29971
-0.43109
-0.58123
-0.71613
-0.77713
-0.71613
-0.61408
-0.49443
-0.36422
-0.14721
0.13666
0.40997
0.60117
0.70909
0.73138
0.65396
0.50147
0.30674
0.14487
0.033431
-0.041642
-0.08739
-0.13079
-0.16246
-0.18358
-0.20704
-0.20821
-0.2305
-0.25865
-0.32786
-0.4088
-0.50616
-0.56481
-0.59883
-0.59531
-0.6
-0.57185
-0.55425
-0.50147
-0.31026
-0.019355
0.34311
0.61642
0.78416
0.8346
0.77009
0.63754
0.45103
0.27859
0.15308
0.06393
-0.0099707
-0.055718
-0.092082
-0.1132
-0.12258
-0.14721
-0.15777
-0.19648
-0.27273
-0.36657
-0.46979
-0.53783
-0.58006
-0.57654
-0.56833
-0.52493
-0.50029
-0.43695
-0.28328
-0.028739
0.32199
0.61173
0.80293
0.8522
0.79941
0.68798
0.49912
0.34311
0.2
0.11554
0.047507
0.038123
0.011144
0.014663
0.015836
-0.015836
-0.086217
-0.23754
-0.4088
-0.55073
-0.55894
-0.46979
-0.31613
-0.16833
-0.014663
0.15308
0.35601
0.54018
0.661
0.73724
0.74076
0.67625
0.51672
0.31965
0.12845
0.0087977
-0.06393
-0.10264
-0.11672
-0.13548
-0.14839
-0.17537
-0.1824
-0.17067
-0.16246
-0.17889
-0.25161
-0.36188
-0.54135
-0.66452
-0.7478
-0.66804
-0.54839
-0.37126
-0.20235
0.06393
0.35484
0.59648
0.72551
0.81584
0.78768
0.70557
0.53666
0.34545
0.19179
0.081525
0.011144
-0.053372
-0.090909
-0.1132
-0.139
-0.13666
-0.12727
-0.11906
-0.1261
-0.17654
-0.2563
-0.39355
-0.54604
-0.71613
-0.76422
-0.71026
-0.58006
-0.40528
-0.20587
0.055718
0.3654
0.63754
0.80059
0.88035
0.86979
0.75718
0.60587
0.39707
0.23167
0.11554
0.043988
0.0052786
-0.043988
-0.070968
-0.097947
-0.074487
-0.070968
-0.10733
-0.19413
-0.36422
-0.52023
-0.61642
-0.61408
-0.54252
-0.40411
-0.28915
-0.11554
0.08739
0.32786
0.5695
0.67859
0.75836
0.7607
0.64106
0.49208
0.28094
0.13314
0.038123
-0.032258
-0.060411
-0.073314
-0.073314
-0.095601
-0.096774
-0.13548
-0.21642
-0.37243
-0.56129
-0.69619
-0.68328
-0.57419
-0.38768
-0.23284
-0.024047
0.17654
0.3912
0.56012
0.661
0.71026
0.70088
0.61056
0.44047
0.23636
0.035777
-0.090909
-0.15894
-0.18592
-0.20117
-0.21994
-0.24106
-0.25279
-0.2563
-0.25279
-0.24223
-0.22346
-0.25161
-0.33724
-0.50147
-0.65396
-0.7607
-0.76422
-0.68446
-0.58123
-0.4217
-0.17067
0.11437
0.41466
0.62698
0.7478
0.79589
0.73959
0.59648
0.39589
0.20821
0.078006
-0.0099707
-0.068622
-0.10968
-0.13548
-0.15894
-0.17771
-0.18123
-0.17185
-0.18592
-0.23988
-0.33724
-0.48974
-0.62698
-0.67859
-0.69501
-0.60352
-0.53431
-0.45455
-0.3044
-0.078006
0.21056
0.47918
0.65279
0.75484
0.76305
0.66921
0.50147
0.29619
0.13548
0.033431
-0.019355
-0.049853
-0.061584
-0.079179
-0.085044
-0.10616
-0.14839
-0.24692
-0.39589
-0.57067
-0.6563
-0.63167
-0.49912
-0.33724
-0.18944
-0.0041056
0.18358
0.38416
0.539
0.64575
0.70205
0.70909
0.62463
0.46745
0.26686
0.085044
-0.042815
-0.11202
-0.15543
-0.17654
-0.19179
-0.19765
-0.1871
-0.17537
-0.17889
-0.18827
-0.22229
-0.27507
-0.34663
-0.44047
-0.52845
-0.60938
-0.65279
-0.62463
-0.60587
-0.56716
-0.52375
-0.30792
-0.0017595
0.38299
0.65161
0.81584
0.87918
0.83226
0.69032
0.4956
0.31026
0.18006
0.092082
0.02522
-0.015836
-0.046334
-0.053372
-0.056891
-0.056891
-0.078006
-0.15425
-0.32317
-0.51202
-0.66569
-0.65748
-0.56129
-0.37947
-0.21056
-0.0099707
0.18123
0.40411
0.5824
0.69971
0.76422
0.76188
0.66804
0.4956
0.29384
0.11554
0.0041056
-0.061584
-0.10968
-0.13548
-0.1695
-0.18475
-0.19648
-0.20352
-0.20117
-0.20704
-0.22229
-0.261
-0.32317
-0.4088
-0.49795
-0.57067
-0.60352
-0.61994
-0.63167
-0.64457
-0.63754
-0.57889
-0.32199
0.018182
0.41584
0.67977
0.82405
0.85337
0.76891
0.61877
0.43109
0.28328
0.1695
0.086217
0.033431
-0.0087977
-0.040469
-0.059238
-0.060411
-0.061584
-0.068622
-0.09912
-0.16364
-0.25044
-0.39003
-0.54721
-0.69032
-0.69032
-0.60704
-0.48035
-0.34194
-0.15308
0.10733
0.41349
0.64575
0.78768
0.84868
0.81818
0.69032
0.50616
0.30792
0.1695
0.073314
0.012317
-0.034604
-0.065103
-0.08739
-0.097947
-0.093255
-0.085044
-0.095601
-0.14839
-0.26452
-0.43109
-0.55073
-0.62815
-0.57419
-0.49795
-0.38768
-0.24927
-0.032258
0.21525
0.46745
0.65982
0.76422
0.81349
0.7654
0.62463
0.43343
0.23402
0.096774
0.01349
-0.034604
-0.069795
-0.090909
-0.1132
-0.1261
-0.12962
-0.1261
-0.1261
-0.139
-0.18592
-0.26569
-0.39472
-0.56012
-0.71261
-0.75249
-0.68211
-0.56012
-0.40645
-0.20704
0.061584
0.35367
0.56598
0.68446
0.74311
0.71965
0.60235
0.42639
0.22933
0.081525
-0.019355
-0.070968
-0.10968
-0.13079
-0.15073
-0.16012
-0.15543
-0.13783
-0.14252
-0.15543
-0.19648
-0.24927
-0.31848
-0.41232
-0.48739
-0.54252
-0.58123
-0.58475
-0.6
-0.57654
-0.51672
-0.26686
0.058065
0.43343
0.68798
0.82639
0.86745
0.78768
0.62229
0.41935
0.25279
0.13783
0.055718
0.0052786
-0.033431
-0.058065
-0.058065
-0.046334
-0.032258
-0.046334
-0.12375
-0.28328
-0.44282
-0.58592
-0.59062
-0.52375
-0.39003
-0.24223
-0.052199
0.15191
0.38768
0.57771
0.70323
0.76774
0.77009
0.67977
0.5085
0.30674
0.11672
0.0041056
-0.061584
-0.09912
-0.10968
-0.13079
-0.1437
-0.15543
-0.16012
-0.16129
-0.16129
-0.16716
-0.19062
-0.24106
-0.31965
-0.44047
-0.57537
-0.69853
-0.7349
-0.69619
-0.62581
-0.5085
-0.30323
-0.022874
0.31848
0.5695
0.71496
0.76422
0.74897
0.61173
0.44516
0.23988
0.10264
0.0099707
-0.041642
-0.074487
-0.097947
-0.11789
-0.13666
-0.14604
-0.14604
-0.14839
-0.15777
-0.19413
-0.26804
-0.35484
-0.44047
-0.4956
-0.52023
-0.53079
-0.54956
-0.57067
-0.59062
-0.57067
-0.38886
-0.10029
0.27859
0.56716
0.74194
0.79589
0.73138
0.58123
0.39589
0.23402
0.13314
0.051026
-0.0029326
-0.032258
-0.053372
-0.054545
-0.049853
-0.029912
-0.022874
-0.069795
-0.20469
-0.38768
-0.52493
-0.59062
-0.52962
-0.43695
-0.33255
-0.21408
-0.034604
0.1695
0.37478
0.5261
0.61408
0.64575
0.59296
0.45689
0.27038
0.082698
-0.049853
-0.11554
-0.14135
-0.14839
-0.16129
-0.17302
-0.18827
-0.19883
-0.20117
-0.19179
-0.18358
-0.19179
-0.22698
-0.28798
-0.36774
-0.47918
-0.57302
-0.65279
-0.67273
-0.64692
-0.62111
-0.5437
-0.36305
-0.076833
0.26921
0.539
0.69267
0.75249
0.71613
0.5871
0.41349
0.23167
0.11437
0.052199
0.0087977
-0.012317
-0.041642
-0.061584
-0.085044
-0.090909
-0.090909
-0.083871
-0.10616
-0.15191
-0.22581
-0.31144
-0.39589
-0.45337
-0.47449
-0.48622
-0.49208
-0.50264
-0.53548
-0.53666
-0.40645
-0.14604
0.21408
0.51906
0.71965
0.7912
0.75132
0.6129
0.44282
0.27977
0.18592
0.12727
0.074487
0.04868
0.020528
0.012317
0.020528
0.04868
0.065103
0.034604
-0.072141
-0.25161
-0.40762
-0.50029
-0.4651
-0.38886
-0.28211
-0.18358
-0.028739
0.14604
0.34897
0.51789
0.62581
0.66569
0.64106
0.53196
0.36422
0.18475
0.039296
-0.03695
-0.058065
-0.06393
-0.054545
-0.06393
-0.076833
-0.10616
-0.11789
-0.12727
-0.12023
-0.12962
-0.15543
-0.21642
-0.30205
-0.39355
-0.45924
-0.49091
-0.47449
-0.46979
-0.47918
-0.52727
-0.54721
-0.51554
-0.29032
0.02522
0.37243
0.61525
0.71848
0.71965
0.60587
0.43812
0.27038
0.16246
0.1132
0.07566
0.042815
0.019355
0.017009
0.027566
0.062757
0.082698
0.07566
0.00058651
-0.14252
-0.33607
-0.47449
-0.53079
-0.47566
-0.3783
-0.2739
-0.15777
0.0052786
0.21056
0.39707
0.55425
0.64106
0.67038
0.61525
0.47566
0.2915
0.11672
0.00058651
-0.053372
-0.062757
-0.066276
-0.068622
-0.081525
-0.096774
-0.1132
-0.12258
-0.12493
-0.12023
-0.13079
-0.17067
-0.23402
-0.32199
-0.40645
-0.4651
-0.49208
-0.48387
-0.48504
-0.49326
-0.54839
-0.57185
-0.51202
-0.29971
0.019355
0.35718
0.58944
0.69032
0.68328
0.54721
0.38886
0.22815
0.12258
0.081525
0.045161
0.034604
0.024047
0.0041056
0.0017595
0.0017595
0.019355
0.039296
0.035777
-0.017009
-0.12375
-0.31496
-0.48974
-0.60938
-0.58944
-0.49912
-0.38299
-0.27038
-0.10147
0.11085
0.3478
0.54135
0.65044
0.70557
0.67625
0.56012
0.39238
0.21525
0.082698
0.035777
0.0099707
0.0076246
0.01349
0.0041056
-0.017009
-0.039296
-0.033431
-0.043988
-0.027566
-0.053372
-0.10616
-0.17889
-0.33021
-0.43226
-0.50733
-0.48856
-0.45455
-0.40528
-0.42757
-0.43695
-0.33607
-0.10616
0.19062
0.47097
0.63284
0.69736
0.67155
0.52727
0.35249
0.18006
0.068622
0.031085
-0.0017595
-0.0052786
-0.0076246
-0.0052786
-0.017009
0.0017595
0.00058651
-0.00058651
-0.052199
-0.18827
-0.35718
-0.4827
-0.54018
-0.4827
-0.40997
-0.31261
-0.20117
-0.034604
0.15191
0.35367
0.49443
0.59765
0.62815
0.57302
0.44868
0.27625
0.097947
-0.029912
-0.070968
-0.089736
-0.062757
-0.047507
-0.04868
-0.056891
-0.090909
-0.092082
-0.088563
-0.089736
-0.078006
-0.09912
-0.13548
-0.21994
-0.33842
-0.47801
-0.58475
-0.6176
-0.56012
-0.48856
-0.41349
-0.29032
-0.082698
0.20352
0.44751
0.5871
0.66569
0.64927
0.5437
0.38651
0.21994
0.094428
0.047507
0.021701
0.0099707
0.0064516
-0.0052786
-0.012317
-0.012317
-0.0064516
-0.0041056
-0.019355
-0.059238
-0.10733
-0.1695
-0.261
-0.35601
-0.42757
-0.45572
-0.4522
-0.43109
-0.43695
-0.44164
-0.44633
-0.2739
-0.033431
0.29384
0.54252
0.67155
0.69853
0.62581
0.46158
0.29267
0.14252
0.069795
0.047507
0.014663
0.00058651
-0.022874
-0.046334
-0.047507
-0.039296
-0.015836
-0.0029326
-0.038123
-0.10968
-0.27038
-0.43226
-0.50968
-0.52375
-0.43109
-0.38886
-0.35367
-0.28328
-0.11437
0.1085
0.34428
0.5085
0.60235
0.6176
0.56246
0.41466
0.23519
0.078006
-0.021701
-0.042815
-0.047507
-0.043988
-0.042815
-0.041642
-0.066276
-0.072141
-0.094428
-0.10147
-0.10733
-0.12258
-0.15308
-0.22698
-0.35015
-0.51085
-0.64457
-0.65044
-0.57889
-0.46393
-0.35367
-0.22815
-0.024047
0.21994
0.41935
0.55543
0.60469
0.5871
0.4827
0.31144
0.14721
0.018182
-0.035777
-0.040469
-0.03695
-0.026393
-0.029912
-0.047507
-0.068622
-0.095601
-0.094428
-0.088563
-0.08739
-0.11789
-0.18006
-0.26334
-0.3349
-0.41584
-0.45455
-0.46393
-0.4522
-0.46628
-0.48622
-0.53431
-0.54721
-0.42287
-0.17654
0.17067
0.44399
0.62698
0.67507
0.61525
0.46979
0.30205
0.16246
0.089736
0.066276
0.043988
0.034604
0.01349
-0.00058651
-0.0052786
0.0052786
0.028739
0.035777
0.028739
-0.017009
-0.079179
-0.1566
-0.26217
-0.3783
-0.49208
-0.57067
-0.58944
-0.56716
-0.51554
-0.42874
-0.24223
0.014663
0.29501
0.51085
0.61642
0.6563
0.59296
0.46393
0.2868
0.13196
0.083871
0.054545
0.034604
0.035777
0.024047
0.014663
0.00058651
0.0052786
-0.015836
-0.027566
-0.06393
-0.097947
-0.15073
-0.21994
-0.29501
-0.36305
-0.41935
-0.43343
-0.44164
-0.43578
-0.47918
-0.48622
-0.44633
-0.24575
0.049853
0.36305
0.60117
0.71261
0.73959
0.65161
0.49208
0.32317
0.2
0.14721
0.12023
0.11437
0.10968
0.09912
0.090909
0.086217
0.094428
0.093255
0.081525
0.03695
-0.0064516
-0.080352
-0.16129
-0.26804
-0.39472
-0.48856
-0.55777
-0.55308
-0.52962
-0.44868
-0.29267
-0.053372
0.24457
0.50264
0.66804
0.73607
0.72903
0.63284
0.47214
0.30909
0.17419
0.10968
0.092082
0.079179
0.073314
0.055718
0.03695
0.0099707
-0.012317
-0.02522
-0.032258
-0.043988
-0.061584
-0.10381
-0.17185
-0.25161
-0.32786
-0.3607
-0.36305
-0.37126
-0.40293
-0.45572
-0.50616
-0.51906
-0.37361
-0.1261
0.21877
0.51085
0.69032
0.75367
0.70792
0.56481
0.38768
0.24457
0.15308
0.1261
0.09912
0.093255
0.069795
0.061584
0.031085
0.027566
0.034604
0.043988
0.03695
0.020528
-0.047507
-0.11789
-0.20821
-0.32317
-0.43109
-0.53666
-0.56716
-0.56246
-0.5085
-0.41818
-0.23754
0.014663
0.29501
0.50968
0.63519
0.67038
0.63284
0.50147
0.33724
0.17889
0.074487
0.021701
0.012317
0.014663
0.02522
0.01349
-0.018182
-0.046334
-0.060411
-0.072141
-0.074487
-0.092082
-0.12962
-0.18123
-0.25044
-0.32786
-0.39238
-0.42991
-0.43695
-0.45455
-0.48504
-0.55308
-0.58827
-0.57771
-0.39355
-0.10264
0.23871
0.49677
0.62933
0.65748
0.57889
0.42522
0.26452
0.13783
0.078006
0.055718
0.043988
0.031085
0.011144
-0.0087977
-0.020528
-0.020528
-0.021701
-0.021701
-0.043988
-0.078006
-0.13079
-0.20117
-0.29736
-0.40762
-0.52962
-0.61408
-0.62346
-0.60938
-0.52493
-0.42053
-0.20704
0.04868
0.32317
0.52023
0.62229
0.64927
0.59179
0.45806
0.29853
0.15543
0.073314
0.04868
0.03695
0.045161
0.035777
0.031085
0.0064516
-0.011144
-0.029912
-0.046334
-0.067449
-0.10264
-0.14956
-0.20469
-0.27273
-0.34311
-0.37361
-0.40997
-0.41232
-0.44399
-0.47683
-0.51672
-0.53314
-0.40645
-0.16716
0.16364
0.45103
0.63284
0.7044
0.68563
0.56012
0.38534
0.23402
0.1132
0.074487
0.06393
0.069795
0.062757
0.042815
0.015836
0.015836
0.0029326
0.0099707
0.0041056
-0.021701
-0.070968
-0.13431
-0.2176
-0.2915
-0.39941
-0.51437
-0.6
-0.61525
-0.61877
-0.54839
-0.42522
-0.20352
0.072141
0.31848
0.49912
0.58592
0.59296
0.51085
0.37009
0.2176
0.092082
0.028739
0.027566
0.01349
0.022874
0.0029326
-0.017009
-0.029912
-0.062757
-0.080352
-0.093255
-0.093255
-0.11437
-0.14956
-0.20235
-0.26452
-0.33255
-0.39824
-0.42287
-0.43226
-0.43578
-0.46628
-0.54135
-0.56481
-0.55073
-0.35836
-0.070968
0.25161
0.51437
0.65748
0.68094
0.61173
0.45689
0.29619
0.16364
0.093255
0.086217
0.059238
0.06393
0.062757
0.038123
0.02522
0.014663
0.018182
0.040469
0.011144
-0.018182
-0.10029
-0.13783
-0.23284
-0.31026
-0.42287
-0.54956
-0.58358
-0.60469
-0.53196
-0.45103
-0.27038
-0.022874
0.24457
0.4651
0.59062
0.63871
0.6
0.50029
0.34428
0.18944
0.090909
0.042815
0.034604
0.027566
0.032258
0.0064516
-0.0064516
-0.033431
-0.04868
-0.054545
-0.079179
-0.10264
-0.13548
-0.17537
-0.21642
-0.28915
-0.33607
-0.3783
-0.37361
-0.39707
-0.43578
-0.49091
-0.539
-0.55073
-0.43812
-0.19648
0.13666
0.42287
0.62463
0.69501
0.68563
0.58006
0.42287
0.25982
0.14721
0.094428
0.074487
0.074487
0.074487
0.055718
0.035777
0.017009
0.014663
0.0076246
0.0076246
-0.01349
-0.052199
-0.10147
-0.16833
-0.25279
-0.34311
-0.4522
-0.54018
-0.58358
-0.57889
-0.52845
-0.43109
-0.23284
0.0099707
0.29736
0.5085
0.63519
0.6739
0.6305
0.5261
0.37595
0.23754
0.13079
0.093255
0.096774
0.10381
0.10381
0.08739
0.061584
0.022874
0.0029326
-0.017009
-0.020528
-0.031085
-0.059238
-0.10499
-0.16012
-0.20938
-0.28446
-0.32082
-0.35718
-0.37009
-0.41232
-0.45689
-0.52727
-0.55543
-0.45924
-0.24927
0.069795
0.3607
0.56716
0.66452
0.66921
0.57419
0.41114
0.24927
0.12493
0.078006
0.058065
0.053372
0.051026
0.029912
0.0099707
-0.0076246
-0.018182
-0.0076246
-0.021701
-0.045161
-0.081525
-0.12962
-0.18006
-0.25161
-0.33959
-0.44751
-0.56012
-0.60117
-0.59296
-0.53431
-0.44985
-0.27977
-0.043988
0.23754
0.45806
0.59648
0.64809
0.6305
0.539
0.38182
0.22346
0.10029
0.04868
0.032258
0.026393
0.02522
0.017009
-0.0064516
-0.042815
-0.073314
-0.10147
-0.1085
-0.11202
-0.13548
-0.15308
-0.20352
-0.24927
-0.31378
-0.35836
-0.37478
-0.37713
-0.40411
-0.44047
-0.5085
-0.54018
-0.53783
-0.38416
-0.12493
0.19296
0.44282
0.59179
0.62933
0.57537
0.43695
0.27155
0.139
0.055718
0.040469
0.034604
0.033431
0.027566
0.0087977
-0.015836
-0.026393
-0.034604
-0.028739
-0.040469
-0.061584
-0.10147
-0.15073
-0.20821
-0.27507
-0.35601
-0.44868
-0.52962
-0.56129
-0.56598
-0.54956
-0.49912
-0.37009
-0.14135
0.13666
0.36305
0.49326
0.54604
0.5085
0.42053
0.27273
0.139
0.034604
-0.0064516
-0.0041056
-0.00058651
0.0052786
-0.0041056
-0.020528
-0.045161
-0.065103
-0.081525
-0.082698
-0.09912
-0.12023
-0.16246
-0.2129
-0.27507
-0.34663
-0.39472
-0.41701
-0.41701
-0.4217
-0.44047
-0.49912
-0.52727
-0.48504
-0.31496
-0.040469
0.25161
0.44751
0.5437
0.5566
0.47918
0.33607
0.18827
0.079179
0.032258
0.026393
0.034604
0.045161
0.047507
0.039296
0.019355
0.0041056
-0.0041056
-0.0076246
-0.024047
-0.047507
-0.094428
-0.15543
-0.21994
-0.2915
-0.33255
-0.37126
-0.38065
-0.37595
-0.40997
-0.45337
-0.51906
-0.54487
-0.46393
-0.25982
0.03695
0.30674
0.48622
0.55894
0.53314
0.42874
0.26686
0.12727
0.039296
0.015836
0.029912
0.038123
0.04868
0.03695
0.022874
-0.00058651
-0.018182
-0.02522
-0.027566
-0.040469
-0.066276
-0.11202
-0.17654
-0.2739
-0.40645
-0.52141
-0.54956
-0.49091
-0.42757
-0.37361
-0.3349
-0.18592
0.026393
0.26921
0.44516
0.55191
0.57771
0.52962
0.41818
0.25982
0.12962
0.046334
0.043988
0.052199
0.072141
-0.20938
