0.36642
0.31362
0.20803
0.034847
-0.18479
-0.38754
-0.51426
-0.54171
-0.5227
-0.45301
-0.36853
-0.3094
-0.2925
-0.27561
-0.26927
-0.25238
-0.22281
-0.18691
-0.12566
-0.058078
0.026399
0.10454
0.13833
0.12777
0.072862
-0.0031679
-0.087645
-0.14678
-0.21436
-0.31785
-0.43189
-0.52904
-0.54805
-0.49736
-0.40444
-0.2925
-0.17846
-0.087645
-0.034847
-0.026399
-0.026399
-0.024287
-0.017951
-0.013728
-0.0031679
0.020063
0.039071
0.051742
0.055966
0.051742
0.045407
0.041183
0.06019
0.072862
0.077086
0.074974
0.058078
0.022175
-0.020063
-0.081309
-0.18268
-0.27983
-0.36642
-0.42555
-0.44879
-0.46779
-0.49102
-0.52693
-0.56072
-0.56705
-0.54805
-0.51848
-0.44879
-0.37064
-0.29673
-0.21859
-0.15523
-0.10032
-0.06019
-0.030623
-0.0095037
0.0095037
0.020063
0.020063
0.0031679
-0.043295
-0.07075
-0.089757
-0.10665
-0.11721
-0.1679
-0.25238
-0.36431
-0.434
-0.48046
-0.48891
-0.51214
-0.51214
-0.50581
-0.47413
-0.41922
-0.36853
-0.32629
-0.29039
-0.25449
-0.23759
-0.22914
-0.21436
-0.21436
-0.2038
-0.19535
-0.1679
-0.11088
-0.058078
-0.0052798
0.034847
0.047518
0.053854
0.041183
0.036959
0.036959
0.028511
0.020063
-0.028511
-0.11721
-0.28617
-0.44034
-0.61352
-0.72545
-0.78247
-0.83527
-0.85216
-0.83527
-0.79303
-0.72545
-0.64097
-0.55438
-0.47202
-0.41499
-0.36008
-0.30517
-0.25449
-0.19958
-0.12777
-0.06019
-0.015839
0.024287
0.04963
0.064414
0.064414
0.051742
0.030623
0.0073918
0.024287
0.04963
0.051742
-0.022175
-0.087645
-0.14256
-0.12988
-0.07075
-0.083421
-0.15523
-0.29884
-0.43189
-0.4868
-0.48258
-0.42555
-0.37064
-0.32418
-0.29039
-0.24604
-0.21225
-0.17635
-0.12355
-0.083421
-0.041183
0.001056
0.058078
0.085533
0.11299
0.11299
0.10665
0.096093
0.096093
0.11088
0.11932
0.132
0.14889
0.15734
0.15945
0.16156
0.14044
0.10032
0.036959
-0.11088
-0.26927
-0.4699
-0.57973
-0.59873
-0.54805
-0.45935
-0.36431
-0.27772
-0.2038
-0.12777
-0.06019
-0.015839
0.036959
0.087645
0.12777
0.11721
0.07075
-0.0031679
-0.083421
-0.14256
-0.18268
-0.22914
-0.29039
-0.31996
-0.32629
-0.25238
-0.13622
-0.04963
-0.077086
-0.20169
-0.37064
-0.49102
-0.52482
-0.50792
-0.44879
-0.37698
-0.30095
-0.21859
-0.151
-0.10454
-0.066526
-0.030623
-0.028511
-0.036959
-0.043295
-0.04963
-0.036959
-0.020063
0.0095037
0.017951
0.022175
0.026399
0.0095037
-0.015839
-0.024287
-0.0031679
0.001056
-0.043295
-0.16579
-0.3094
-0.46146
-0.52059
-0.51426
-0.46779
-0.40655
-0.36853
-0.34108
-0.31362
-0.2735
-0.22492
-0.17001
-0.13833
-0.11088
-0.10454
-0.10243
-0.083421
-0.066526
-0.051742
-0.034847
-0.039071
-0.053854
-0.055966
-0.032735
-0.015839
-0.011616
-0.032735
-0.047518
-0.096093
-0.25871
-0.42978
-0.6452
-0.75713
-0.78458
-0.74023
-0.64942
-0.55649
-0.44667
-0.34319
-0.25449
-0.17423
-0.10032
-0.051742
-0.028511
0.001056
0.001056
-0.0031679
-0.017951
-0.045407
-0.077086
-0.10454
-0.12988
-0.15734
-0.14678
-0.062302
0.055966
0.16156
0.20591
0.19113
0.11088
-0.053854
-0.23548
-0.40232
-0.4868
-0.50158
-0.46146
-0.39599
-0.32629
-0.26082
-0.19958
-0.15945
-0.13833
-0.14044
-0.14678
-0.16156
-0.15523
-0.14256
-0.13622
-0.11721
-0.091869
-0.04963
0.015839
0.12144
0.25026
0.32629
0.29673
0.17635
-0.064414
-0.30095
-0.49736
-0.61985
-0.6283
-0.57128
-0.46568
-0.34741
-0.24182
-0.14256
-0.066526
-0.017951
0.011616
0.026399
0.015839
0.0031679
-0.0031679
-0.013728
-0.030623
-0.041183
-0.051742
-0.074974
-0.093981
-0.096093
-0.030623
0.093981
0.17635
0.21859
0.15945
0.043295
-0.12566
-0.32629
-0.52693
-0.62196
-0.65787
-0.63886
-0.58817
-0.51848
-0.44034
-0.3812
-0.31362
-0.2566
-0.19747
-0.13622
-0.081309
-0.04963
-0.053854
-0.064414
-0.083421
-0.11932
-0.151
-0.18691
-0.18902
-0.15734
-0.028511
0.14467
0.22914
0.21859
0.055966
-0.16579
-0.3622
-0.51214
-0.5755
-0.5755
-0.54805
-0.48258
-0.40444
-0.33474
-0.25238
-0.19113
-0.13622
-0.098205
-0.066526
-0.06019
-0.074974
-0.077086
-0.087645
-0.089757
-0.083421
-0.077086
-0.087645
-0.074974
0.0073918
0.093981
0.18268
0.20591
0.19958
0.12566
-0.015839
-0.18479
-0.32841
-0.40655
-0.43189
-0.434
-0.44245
-0.44245
-0.44245
-0.43611
-0.41711
-0.38965
-0.34952
-0.30306
-0.25449
-0.18268
-0.12777
-0.083421
-0.06019
-0.022175
0.032735
0.10876
0.23548
0.34108
0.37909
0.33897
0.2207
0.07075
-0.10876
-0.27138
-0.42555
-0.51214
-0.54593
-0.54805
-0.51003
-0.45512
-0.37064
-0.27561
-0.19747
-0.11721
-0.047518
0.0031679
0.032735
0.04963
0.043295
0.013728
-0.0095037
-0.026399
-0.041183
-0.045407
-0.020063
0.0052798
0.066526
0.12988
0.151
0.11932
-0.041183
-0.23337
-0.46568
-0.6114
-0.6642
-0.67265
-0.66209
-0.64731
-0.62408
-0.59873
-0.54382
-0.48469
-0.42555
-0.37487
-0.33897
-0.29673
-0.27983
-0.25871
-0.25026
-0.25871
-0.23759
-0.19958
-0.10665
0.04963
0.18691
0.26716
0.22492
0.085533
-0.098205
-0.27138
-0.44245
-0.54382
-0.58817
-0.58395
-0.55649
-0.49525
-0.43189
-0.36431
-0.29461
-0.22914
-0.15523
-0.085533
-0.0073918
0.06019
0.11088
0.14256
0.15945
0.151
0.098205
0.068638
0.079197
0.16367
0.26716
0.35375
0.35586
0.3094
0.19535
-0.017951
-0.24182
-0.45723
-0.55861
-0.58606
-0.55861
-0.49525
-0.434
-0.37909
-0.32841
-0.2735
-0.22281
-0.16579
-0.12566
-0.081309
-0.062302
-0.04963
-0.039071
-0.045407
-0.032735
0.0073918
0.083421
0.18057
0.20169
0.14889
0.011616
-0.13622
-0.32629
-0.50158
-0.67687
-0.7529
-0.74657
-0.70011
-0.60718
-0.4868
-0.36853
-0.26505
-0.18268
-0.12144
-0.068638
-0.020063
0.017951
0.047518
0.047518
0.04963
0.039071
0.011616
-0.0052798
-0.028511
-0.024287
-0.017951
0.04963
0.16156
0.26294
0.32629
0.28405
0.089757
-0.13833
-0.37698
-0.5396
-0.60929
-0.61774
-0.57339
-0.5227
-0.4699
-0.41077
-0.35797
-0.31785
-0.28194
-0.24182
-0.21225
-0.17846
-0.14256
-0.11932
-0.081309
0.017951
0.15523
0.31573
0.42978
0.45301
0.3812
0.22914
0.036959
-0.19535
-0.44456
-0.65153
-0.76135
-0.78458
-0.7529
-0.66843
-0.56072
-0.4699
-0.38332
-0.30517
-0.23337
-0.18479
-0.12566
-0.072862
-0.030623
0.011616
0.045407
0.064414
0.053854
0.026399
-0.030623
-0.079197
-0.10665
-0.079197
-0.043295
-0.015839
-0.043295
-0.19958
-0.3812
-0.57973
-0.68532
-0.70855
-0.67054
-0.57128
-0.46568
-0.36008
-0.27138
-0.18902
-0.13622
-0.10243
-0.07075
-0.047518
-0.024287
-0.030623
-0.055966
-0.091869
-0.12566
-0.14889
-0.15945
-0.14044
-0.096093
-0.07075
-0.087645
-0.15312
-0.23126
-0.36008
-0.52059
-0.67687
-0.77825
-0.79092
-0.72122
-0.60084
-0.45301
-0.31362
-0.19324
-0.10032
-0.039071
0.0031679
0.026399
0.041183
0.034847
0.030623
0.022175
0.0052798
-0.0095037
-0.032735
-0.055966
-0.10243
-0.12144
-0.12988
-0.058078
0.045407
0.14889
0.16367
0.051742
-0.11932
-0.32207
-0.46146
-0.5037
-0.47835
-0.43611
-0.39388
-0.34108
-0.27983
-0.21014
-0.13833
-0.068638
-0.020063
0.022175
0.064414
0.089757
0.081309
0.036959
-0.011616
-0.047518
-0.043295
0.0031679
0.093981
0.14678
0.18057
0.13411
0.034847
-0.10243
-0.27772
-0.42767
-0.54382
-0.58817
-0.56917
-0.5227
-0.43611
-0.32629
-0.21647
-0.1151
-0.043295
0.015839
0.034847
0.036959
0.026399
0.0052798
-0.043295
-0.10876
-0.19958
-0.2735
-0.32629
-0.31785
-0.22703
-0.087645
0.039071
0.081309
0.045407
-0.041183
-0.19535
-0.37909
-0.57761
-0.67899
-0.69377
-0.65998
-0.60084
-0.52059
-0.434
-0.33685
-0.22914
-0.15312
-0.11088
-0.10243
-0.096093
-0.11721
-0.132
-0.12566
-0.087645
-0.0031679
0.11088
0.23126
0.25026
0.18479
0.047518
-0.11932
-0.31151
-0.48258
-0.60929
-0.65787
-0.62196
-0.5396
-0.44245
-0.36008
-0.29461
-0.23337
-0.19535
-0.15312
-0.087645
-0.022175
0.07075
0.14678
0.22914
0.28828
0.31785
0.24604
0.11088
-0.081309
-0.24393
-0.41711
-0.57339
-0.69377
-0.73812
-0.70855
-0.65153
-0.55649
-0.45723
-0.35797
-0.27983
-0.21436
-0.15312
-0.096093
-0.022175
0.066526
0.16579
0.2566
0.33263
0.27983
0.13622
-0.081309
-0.27772
-0.40866
-0.54593
-0.64731
-0.71278
-0.71911
-0.66209
-0.60084
-0.52482
-0.44667
-0.3622
-0.2925
-0.22281
-0.15523
-0.085533
-0.030623
0.030623
0.079197
0.11932
0.15523
0.19324
0.21225
0.22281
0.20591
0.15523
0.087645
0.034847
0.030623
0.047518
0.041183
0.001056
-0.096093
-0.23548
-0.38332
-0.48258
-0.56072
-0.5924
-0.55438
-0.46146
-0.33897
-0.22281
-0.132
-0.081309
-0.068638
-0.053854
-0.024287
0.0031679
0.045407
0.079197
0.10454
0.10876
0.11721
0.11299
0.10032
0.045407
-0.043295
-0.1679
-0.30306
-0.35375
-0.34952
-0.26927
-0.19747
-0.19958
-0.29673
-0.44879
-0.55861
-0.61985
-0.6114
-0.55438
-0.47624
-0.3981
-0.33685
-0.26927
-0.21014
-0.14678
-0.083421
-0.017951
0.030623
0.053854
0.068638
0.072862
0.064414
0.045407
0.032735
0.013728
0.0095037
-0.0095037
-0.10876
-0.20591
-0.25026
-0.18057
-0.041183
0.030623
-0.0095037
-0.15312
-0.31996
-0.42767
-0.434
-0.37698
-0.28617
-0.19324
-0.12988
-0.093981
-0.068638
-0.047518
-0.034847
-0.024287
-0.032735
-0.053854
-0.083421
-0.10243
-0.10454
-0.11932
-0.12988
-0.13833
-0.15523
-0.16156
-0.14256
-0.14256
-0.22281
-0.30306
-0.33685
-0.24393
-0.10454
-0.0095037
-0.058078
-0.18691
-0.37698
-0.51426
-0.57973
-0.57339
-0.49314
-0.41077
-0.33897
-0.28194
-0.23126
-0.18268
-0.14889
-0.10665
-0.064414
-0.032735
0.001056
0.020063
0.034847
0.04963
0.043295
0.062302
0.11088
0.22281
0.34108
0.37064
0.31785
0.18268
0.032735
-0.151
-0.35375
-0.49947
-0.59873
-0.58606
-0.51214
-0.41711
-0.34319
-0.29461
-0.26716
-0.25026
-0.24393
-0.23126
-0.21014
-0.18479
-0.14889
-0.12144
-0.10454
-0.10454
-0.10876
-0.10665
-0.12777
-0.18691
-0.23759
-0.21859
-0.10876
0.047518
0.132
0.10032
-0.030623
-0.20169
-0.37276
-0.48046
-0.51637
-0.48258
-0.41288
-0.31996
-0.24604
-0.20803
-0.20591
-0.21225
-0.22492
-0.22492
-0.21225
-0.2038
-0.2207
-0.22492
-0.18902
-0.11088
0.0073918
0.16156
0.30095
0.35164
0.32418
0.20803
0.064414
-0.093981
-0.28617
-0.46357
-0.60296
-0.64942
-0.63041
-0.59451
-0.53115
-0.46779
-0.41288
-0.36431
-0.30729
-0.22914
-0.16367
-0.11932
-0.12144
-0.14678
-0.20169
-0.23548
-0.18902
-0.058078
0.14889
0.29673
0.33052
0.23548
0.11088
-0.043295
-0.2207
-0.38754
-0.53326
-0.59451
-0.59451
-0.52059
-0.41922
-0.30306
-0.20803
-0.11721
-0.074974
-0.068638
-0.066526
-0.053854
-0.034847
-0.013728
0.0073918
0.0095037
-0.0031679
-0.0031679
0.0073918
0.001056
-0.051742
-0.13622
-0.21225
-0.19113
-0.091869
-0.0052798
-0.0073918
-0.11088
-0.2207
-0.32418
-0.34741
-0.33474
-0.28828
-0.23126
-0.16579
-0.096093
-0.043295
0.0031679
0.028511
0.034847
0.011616
-0.015839
-0.022175
-0.013728
0.015839
0.068638
0.12144
0.16367
0.20591
0.21225
0.17212
0.079197
-0.024287
-0.13833
-0.16367
-0.10032
-0.0031679
0.0052798
-0.074974
-0.20803
-0.29039
-0.32841
-0.30306
-0.26294
-0.25238
-0.25871
-0.27138
-0.26294
-0.26082
-0.23759
-0.23759
-0.22281
-0.20803
-0.19958
-0.19324
-0.18691
-0.16367
-0.17423
-0.18268
-0.17001
-0.081309
0.022175
0.11932
0.18057
0.17846
0.13833
0.028511
-0.13833
-0.31573
-0.49102
-0.56494
-0.56072
-0.51848
-0.44667
-0.36853
-0.30306
-0.22281
-0.14256
-0.066526
-0.0095037
0.043295
0.087645
0.1151
0.12777
0.12777
0.11721
0.089757
0.06019
0.077086
0.10665
0.17001
0.21225
0.21859
0.15734
0.015839
-0.17635
-0.38332
-0.53537
-0.59873
-0.59029
-0.54593
-0.46146
-0.36431
-0.27772
-0.20803
-0.14044
-0.077086
-0.0095037
0.064414
0.11299
0.13833
0.13833
0.14467
0.14889
0.14044
0.12355
0.055966
-0.034847
-0.11088
-0.11299
-0.026399
0.064414
0.11932
0.053854
-0.11721
-0.31151
-0.49102
-0.5924
-0.6283
-0.60507
-0.55861
-0.50792
-0.45301
-0.39176
-0.32207
-0.25449
-0.17423
-0.11299
-0.07075
-0.045407
-0.028511
-0.032735
-0.028511
-0.039071
-0.051742
-0.06019
-0.081309
-0.13833
-0.18902
-0.19747
-0.14044
-0.068638
-0.087645
-0.2038
-0.36008
-0.51637
-0.5924
-0.58817
-0.56283
-0.53537
-0.5037
-0.45935
-0.40866
-0.33897
-0.26294
-0.17635
-0.10454
-0.043295
-0.0095037
0.0052798
0.013728
0.028511
0.06019
0.083421
0.10454
0.13622
0.17212
0.24815
0.30306
0.29673
0.19958
0.030623
-0.20169
-0.43823
-0.63041
-0.70644
-0.70222
-0.65153
-0.55438
-0.46146
-0.36431
-0.29461
-0.2207
-0.16367
-0.10876
-0.051742
0.0052798
0.041183
0.055966
0.064414
0.06019
0.066526
0.041183
-0.043295
-0.11299
-0.096093
0.022175
0.13411
0.15312
0.058078
-0.10454
-0.28828
-0.42767
-0.47202
-0.46146
-0.41499
-0.3622
-0.31996
-0.27983
-0.2207
-0.15734
-0.10243
-0.066526
-0.039071
-0.011616
0.011616
0.041183
0.07075
0.085533
0.074974
0.045407
-0.001056
-0.077086
-0.10032
-0.058078
0.022175
0.093981
0.07075
-0.043295
-0.25026
-0.4509
-0.64731
-0.74023
-0.75502
-0.71489
-0.65998
-0.60084
-0.53326
-0.45301
-0.37276
-0.30095
-0.23548
-0.19113
-0.16156
-0.14256
-0.11721
-0.087645
-0.043295
0.0031679
0.039071
0.015839
-0.015839
-0.017951
0.024287
0.10243
0.12988
0.047518
-0.12566
-0.33897
-0.52059
-0.62408
-0.63464
-0.5755
-0.4868
-0.39176
-0.30517
-0.23548
-0.17846
-0.12988
-0.079197
-0.034847
0.0052798
0.043295
0.064414
0.083421
0.096093
0.1151
0.10032
0.066526
0.036959
0.04963
0.11299
0.20591
0.29884
0.34741
0.3453
0.27561
0.10032
-0.15945
-0.39599
-0.58395
-0.67476
-0.68743
-0.6452
-0.58184
-0.5037
-0.41288
-0.33052
-0.26294
-0.21436
-0.16579
-0.13411
-0.10454
-0.081309
-0.081309
-0.11721
-0.10876
-0.022175
0.16156
0.35586
0.47624
0.48469
0.3812
0.22703
0.045407
-0.19324
-0.45301
-0.68532
-0.84372
-0.89229
-0.8585
-0.76135
-0.63886
-0.50158
-0.36431
-0.24604
-0.151
-0.077086
-0.015839
0.026399
0.051742
0.068638
0.07075
0.022175
0.013728
0.064414
0.151
0.24182
0.26927
0.23759
0.17846
0.087645
-0.079197
-0.28828
-0.52482
-0.68955
-0.76346
-0.76558
-0.70855
-0.6283
-0.53115
-0.42767
-0.31362
-0.20803
-0.12777
-0.051742
-0.0052798
0.036959
0.083421
0.132
0.15945
0.14044
0.11932
0.072862
0.036959
0.036959
0.10665
0.23126
0.33474
0.3812
0.33685
0.23126
0.093981
-0.10032
-0.34952
-0.57128
-0.73601
-0.80781
-0.81415
-0.78247
-0.70855
-0.62619
-0.53537
-0.44245
-0.36642
-0.30729
-0.2397
-0.17212
-0.12355
-0.098205
-0.077086
-0.017951
0.077086
0.20169
0.29673
0.31996
0.29884
0.24182
0.16367
0.051742
-0.085533
-0.28617
-0.47835
-0.63675
-0.70011
-0.67899
-0.61985
-0.5227
-0.42555
-0.34319
-0.26927
-0.21436
-0.16579
-0.12566
-0.074974
-0.045407
-0.024287
-0.026399
-0.024287
-0.026399
-0.022175
-0.0073918
-0.0095037
-0.017951
-0.06019
-0.11088
-0.17001
-0.18691
-0.13622
-0.043295
0.051742
0.091869
0.0095037
-0.19747
-0.43823
-0.64731
-0.74446
-0.7339
-0.64942
-0.5396
-0.45512
-0.39388
-0.3453
-0.30095
-0.26082
-0.21859
-0.17635
-0.14678
-0.12355
-0.093981
-0.074974
-0.077086
-0.096093
-0.14889
-0.24182
-0.32841
-0.41711
-0.45512
-0.42344
-0.34108
-0.27561
-0.29673
-0.40021
-0.53749
-0.63464
-0.70644
-0.72545
-0.71278
-0.64731
-0.56494
-0.47413
-0.39599
-0.33897
-0.29039
-0.25871
-0.24182
-0.22914
-0.20591
-0.17212
-0.13833
-0.085533
-0.051742
-0.020063
-0.013728
0.0031679
0.030623
0.089757
0.15312
0.13833
0.024287
-0.151
-0.31362
-0.3622
-0.27772
-0.13411
-0.066526
-0.10454
-0.22703
-0.30729
-0.33052
-0.27983
-0.20169
-0.10876
-0.055966
-0.028511
-0.026399
-0.06019
-0.093981
-0.11721
-0.12777
-0.13411
-0.13622
-0.13622
-0.17001
-0.19958
-0.20169
-0.14889
-0.074974
-0.0095037
0.026399
0.032735
0.028511
-0.013728
-0.13622
-0.29461
-0.46146
-0.57339
-0.62619
-0.63041
-0.59662
-0.55016
-0.50581
-0.44879
-0.40232
-0.33897
-0.26082
-0.18902
-0.14256
-0.16367
-0.16156
-0.12355
-0.0073918
0.15312
0.31785
0.45935
0.56494
0.6114
0.55649
0.40866
0.23337
0.013728
-0.23548
-0.48469
-0.67899
-0.76558
-0.77825
-0.71911
-0.61985
-0.5227
-0.42344
-0.34741
-0.27983
-0.19113
-0.079197
0.066526
0.17423
0.2566
0.31996
0.40655
0.46568
0.51003
0.47835
0.37698
0.24182
0.083421
-0.077086
-0.26082
-0.43611
-0.59451
-0.7339
-0.80993
-0.8057
-0.71489
-0.56072
-0.36008
-0.18691
-0.039071
0.087645
0.19324
0.3094
0.41077
0.49314
0.5227
0.44667
0.30517
0.12777
-0.039071
-0.18268
-0.30306
-0.41077
-0.49947
-0.58184
-0.65576
-0.71489
-0.74234
-0.68321
-0.55016
-0.36431
-0.17212
-0.0052798
0.12144
0.20803
0.27138
0.28617
0.23759
0.16156
0.041183
-0.083421
-0.22281
-0.36431
-0.51214
-0.65364
-0.76135
-0.82471
-0.84161
-0.80359
-0.7339
-0.63886
-0.5227
-0.37909
-0.21014
-0.062302
0.064414
0.16579
0.24815
0.32207
0.37698
0.40444
0.37276
0.29884
0.19324
0.077086
-0.058078
-0.1679
-0.28405
-0.41077
-0.5396
-0.66631
-0.74868
-0.77191
-0.72334
-0.62619
-0.49736
-0.35797
-0.20803
-0.083421
0.028511
0.13411
0.21859
0.27772
0.2735
0.21436
0.085533
-0.068638
-0.19324
-0.29673
-0.3622
-0.40655
-0.41499
-0.40655
-0.40444
-0.39388
-0.3812
-0.36642
-0.33685
-0.29039
-0.24182
-0.18479
-0.10032
-0.024287
0.047518
0.091869
0.096093
0.068638
0.015839
-0.043295
-0.10876
-0.17001
-0.23126
-0.26505
-0.31996
-0.37064
-0.39599
-0.37487
-0.28617
-0.14889
-0.011616
0.083421
0.12355
0.12988
0.089757
0.015839
-0.074974
-0.19113
-0.30095
-0.36853
-0.3981
-0.42133
-0.44245
-0.43823
-0.41077
-0.36853
-0.32207
-0.26927
-0.2207
-0.18691
-0.17001
-0.16156
-0.12988
-0.043295
0.087645
0.22492
0.34108
0.43823
0.47413
0.49947
0.4868
0.46568
0.40021
0.29461
0.17635
-0.0052798
-0.22492
-0.46146
-0.64731
-0.72545
-0.69377
-0.57761
-0.43823
-0.29884
-0.19747
-0.10876
-0.04963
-0.0052798
0.032735
0.055966
0.064414
0.081309
0.10876
0.11721
0.11932
0.10032
0.079197
0.066526
0.06019
0.064414
0.051742
0.011616
-0.04963
-0.14678
-0.2566
-0.35586
-0.43823
-0.45723
-0.38332
-0.33474
-0.28194
-0.36008
-0.41077
-0.44879
-0.44879
-0.40866
-0.3453
-0.2735
-0.23126
-0.18902
-0.14467
-0.10032
-0.066526
-0.047518
-0.051742
-0.081309
-0.098205
-0.11299
-0.11721
-0.089757
-0.039071
0.013728
0.011616
-0.034847
-0.14256
-0.26927
-0.39388
-0.4509
-0.43611
-0.34741
-0.24815
-0.19747
-0.2207
-0.26082
-0.28828
-0.2735
-0.23126
-0.15945
-0.10876
-0.074974
-0.066526
-0.062302
-0.081309
-0.10454
-0.13833
-0.18479
-0.22281
-0.24393
-0.22492
-0.19324
-0.16156
-0.12144
-0.083421
-0.058078
-0.058078
-0.045407
-0.0052798
0.083421
0.16367
0.23548
0.26716
0.28828
0.26505
0.132
-0.087645
-0.30095
-0.50581
-0.6452
-0.69799
-0.70644
-0.65998
-0.59662
-0.52059
-0.44034
-0.36431
-0.29673
-0.25026
-0.23126
-0.2566
-0.27561
-0.23126
-0.12566
0.06019
0.23337
0.39176
0.52059
0.57973
0.55227
0.44456
0.29884
0.11721
-0.12144
-0.37698
-0.60507
-0.75079
-0.80781
-0.80359
-0.77191
-0.71911
-0.63464
-0.51214
-0.39176
-0.27772
-0.19113
-0.14467
-0.132
-0.13411
-0.083421
-0.001056
0.132
0.29039
0.45723
0.60296
0.68955
0.67054
0.55649
0.37909
0.17212
-0.079197
-0.32841
-0.5396
-0.6642
-0.71911
-0.71067
-0.65153
-0.56917
-0.48469
-0.39599
-0.31996
-0.26716
-0.22492
-0.2038
-0.21225
-0.23126
-0.21014
-0.13833
-0.028511
0.11299
0.24604
0.33685
0.35797
0.31151
0.2038
0.089757
-0.028511
-0.17212
-0.33263
-0.52904
-0.67899
-0.76558
-0.77402
-0.72756
-0.63252
-0.54593
-0.4509
-0.37487
-0.29884
-0.23759
-0.19535
-0.151
-0.11932
-0.079197
-0.030623
0.013728
0.058078
0.12988
0.24393
0.34952
0.41077
0.38543
0.3094
0.19747
0.093981
-0.011616
-0.14044
-0.3094
-0.47202
-0.6283
-0.73812
-0.78458
-0.7698
-0.70222
-0.60929
-0.5227
-0.45301
-0.39599
-0.3453
-0.28194
-0.21647
-0.14467
-0.06019
-0.015839
-0.0052798
-0.024287
-0.066526
-0.12355
-0.19747
-0.2566
-0.3094
-0.34741
-0.35164
-0.35164
-0.35797
-0.40021
-0.49314
-0.6283
-0.77614
-0.81626
-0.75924
-0.63675
-0.52904
-0.47202
-0.45301
-0.41288
-0.33897
-0.2397
-0.13833
-0.06019
-0.0095037
0.0073918
0.0095037
0.024287
0.045407
0.066526
0.081309
0.098205
0.11932
0.15523
0.19535
0.2207
0.2038
0.14678
0.058078
-0.051742
-0.16367
-0.27138
-0.37276
-0.46357
-0.47624
-0.42344
-0.34952
-0.31362
-0.32418
-0.33897
-0.35375
-0.32418
-0.27138
-0.20591
-0.13411
-0.079197
-0.032735
-0.013728
0.011616
0.017951
0.024287
0.041183
0.055966
0.074974
0.066526
0.062302
0.022175
-0.032735
-0.10032
-0.16367
-0.21859
-0.28405
-0.32629
-0.38332
-0.46779
-0.52693
-0.53537
-0.48046
-0.40655
-0.34108
-0.32841
-0.32207
-0.29673
-0.24815
-0.18268
-0.12355
-0.10243
-0.098205
-0.10876
-0.12355
-0.11299
-0.10454
-0.10454
-0.10454
-0.11088
-0.1151
-0.083421
-0.017951
0.043295
0.10032
0.14044
0.17635
0.21647
0.23759
0.20169
0.093981
-0.04963
-0.19324
-0.40444
-0.58817
-0.70222
-0.67265
-0.58395
-0.52904
-0.52693
-0.5227
-0.49736
-0.42767
-0.3453
-0.2925
-0.24815
-0.2207
-0.19535
-0.18268
-0.16156
-0.12988
-0.089757
-0.045407
0.001056
0.041183
0.07075
0.10032
0.11088
0.068638
-0.011616
-0.11299
-0.23759
-0.35375
-0.36431
-0.27983
-0.12566
-0.032735
-0.034847
-0.13622
-0.24604
-0.3094
-0.32418
-0.28617
-0.24182
-0.21014
-0.21225
-0.21859
-0.2207
-0.20591
-0.17635
-0.12988
-0.081309
-0.047518
-0.039071
-0.041183
-0.055966
-0.062302
-0.055966
-0.043295
-0.047518
-0.017951
0.047518
0.15945
0.27772
0.3622
0.41288
0.3981
0.33263
0.23337
0.051742
-0.14889
-0.36431
-0.51848
-0.60296
-0.6283
-0.61563
-0.56917
-0.52059
-0.44667
-0.37487
-0.30517
-0.24182
-0.19113
-0.15734
-0.13622
-0.10032
-0.066526
-0.030623
0.0073918
0.047518
0.072862
0.058078
0.034847
0.0095037
0.030623
0.11088
0.19747
0.25871
0.2566
0.23759
0.17001
0.032735
-0.19113
-0.43189
-0.65153
-0.73812
-0.71278
-0.63675
-0.5396
-0.46357
-0.38965
-0.33685
-0.28828
-0.2397
-0.19747
-0.15523
-0.10454
-0.026399
0.032735
0.079197
0.10454
0.093981
0.058078
-0.001056
-0.077086
-0.17846
-0.2925
-0.39388
-0.45723
-0.48046
-0.45935
-0.42133
-0.39388
-0.37487
-0.34741
-0.31573
-0.2735
-0.22492
-0.16579
-0.13622
-0.12355
-0.132
-0.15312
-0.19747
-0.21859
-0.22914
-0.21014
-0.17001
-0.11932
-0.072862
-0.043295
-0.0052798
0.030623
0.079197
0.14044
0.18902
0.21647
0.21647
0.21225
0.18479
0.096093
-0.053854
-0.22703
-0.33897
-0.31573
-0.15523
-0.032735
0.001056
-0.10876
-0.26927
-0.41711
-0.50792
-0.53749
-0.5396
-0.52904
-0.51214
-0.47624
-0.434
-0.39176
-0.33263
-0.2735
-0.21859
-0.17423
-0.12988
-0.087645
-0.032735
0.036959
0.093981
0.12144
0.1151
0.098205
0.032735
-0.043295
-0.14678
-0.23337
-0.31573
-0.35797
-0.36642
-0.33474
-0.30306
-0.29039
-0.26927
-0.27138
-0.24604
-0.23759
-0.23337
-0.23548
-0.23337
-0.23759
-0.24182
-0.22703
-0.2038
-0.16579
-0.11299
-0.051742
0.001056
0.034847
0.077086
0.083421
0.064414
0.0095037
-0.06019
-0.151
-0.23337
-0.3094
-0.35375
-0.39388
-0.49102
-0.62196
-0.78881
-0.88807
-0.83527
-0.68743
-0.47413
-0.30729
-0.18268
-0.10243
-0.039071
0.001056
0.017951
0.0073918
-0.001056
0.0031679
-0.0031679
-0.0031679
-0.0073918
-0.026399
-0.039071
-0.047518
-0.015839
-0.0031679
-0.0073918
-0.030623
-0.085533
-0.151
-0.23337
-0.30729
-0.41077
-0.49736
-0.5037
-0.45512
-0.38332
-0.34952
-0.3812
-0.42344
-0.45935
-0.46779
-0.44879
-0.41288
-0.36431
-0.32207
-0.29039
-0.2566
-0.22281
-0.18902
-0.1679
-0.11932
-0.074974
-0.036959
-0.011616
0.015839
0.058078
0.12988
0.21436
0.22281
0.13833
-0.026399
-0.17001
-0.31996
-0.46357
-0.49947
-0.46779
-0.37909
-0.31573
-0.31785
-0.32418
-0.36642
-0.38754
-0.39176
-0.36008
-0.30306
-0.24815
-0.19324
-0.14889
-0.074974
-0.015839
0.024287
0.051742
0.064414
0.04963
0.024287
0.011616
0.0052798
0.0073918
0.030623
0.053854
0.074974
0.093981
0.098205
0.083421
0.039071
-0.024287
-0.10032
-0.20169
-0.2925
-0.36431
-0.41499
-0.47624
-0.57128
-0.65364
-0.70855
-0.6642
-0.54382
-0.36008
-0.21647
-0.11721
-0.10876
-0.14889
-0.17212
-0.18057
-0.15734
-0.12777
-0.10243
-0.093981
-0.093981
-0.085533
-0.045407
-0.017951
0.0031679
0.020063
0.024287
0.022175
-0.028511
-0.091869
-0.16367
-0.21859
-0.26716
-0.37909
-0.49736
-0.5755
-0.54593
-0.44667
-0.34952
-0.22914
-0.14467
-0.072862
-0.045407
-0.032735
-0.07075
-0.098205
-0.12355
-0.12355
-0.10876
-0.093981
-0.081309
-0.083421
-0.081309
-0.062302
-0.030623
-0.034847
-0.085533
-0.18691
-0.30517
-0.39176
-0.42133
-0.38543
-0.30306
-0.1679
-0.077086
-0.022175
-0.047518
-0.10454
-0.14044
-0.20591
-0.23126
-0.24815
-0.22703
-0.2038
-0.16579
-0.15523
-0.151
-0.12566
-0.10032
-0.074974
-0.045407
-0.013728
0.026399
0.068638
0.12355
0.15945
0.18479
0.18479
0.17212
0.12777
0.039071
-0.055966
-0.18902
-0.2925
-0.31996
-0.19958
-0.0052798
0.11932
0.14044
0.026399
-0.1151
-0.21647
-0.27983
-0.29039
-0.2735
-0.24604
-0.21647
-0.20803
-0.19113
-0.16156
-0.14889
-0.14678
-0.12777
-0.089757
-0.036959
0.030623
0.072862
0.072862
0.036959
-0.032735
-0.10032
-0.15312
-0.19747
-0.2397
-0.31151
-0.39176
-0.47835
-0.55861
-0.5924
-0.56917
-0.4699
-0.35586
-0.27138
-0.17635
-0.12355
-0.079197
-0.062302
-0.06019
-0.062302
-0.06019
-0.045407
-0.045407
-0.04963
-0.04963
-0.058078
-0.062302
-0.081309
-0.098205
-0.11299
-0.1151
-0.062302
-0.001056
0.053854
0.079197
0.06019
0.032735
0.013728
0.015839
0.020063
0.032735
0.034847
0.0052798
-0.074974
-0.21859
-0.35586
-0.434
-0.47413
-0.44879
-0.39388
-0.34108
-0.29884
-0.26294
-0.22703
-0.18479
-0.13833
-0.091869
-0.066526
-0.055966
-0.066526
-0.087645
-0.11932
-0.12988
-0.10454
-0.085533
-0.058078
-0.026399
0.0073918
0.032735
0.062302
0.079197
0.07075
0.053854
0.034847
0.017951
-0.001056
-0.011616
-0.058078
-0.15734
-0.25238
-0.3094
-0.23126
-0.066526
0.18268
0.47413
0.82471
1
0.94931
0.55227
0.06019
-0.32207
-0.55861
-0.67476
-0.73812
-0.74657
-0.717
-0.67899
-0.61985
-0.58606
-0.56072
-0.53326
-0.49947
-0.44879
-0.38965
-0.32841
-0.29461
-0.25871
-0.20169
-0.098205
-0.0073918
0.066526
0.11721
0.151
0.15312
0.10454
0.001056
-0.15945
-0.31573
-0.43823
-0.50158
-0.51637
-0.49525
-0.46568
-0.46568
-0.46357
-0.4509
-0.41711
-0.37909
-0.31785
-0.2397
-0.15523
-0.062302
0.017951
0.085533
0.10032
0.093981
0.041183
-0.030623
-0.12355
-0.2207
-0.3094
-0.31573
-0.20169
-0.053854
0.064414
0.04963
-0.036959
-0.14467
-0.22492
-0.26294
-0.27983
-0.30517
-0.35375
-0.40444
-0.42133
-0.39388
-0.31996
-0.25871
-0.2207
-0.19747
-0.18057
-0.14467
-0.10454
-0.043295
-0.022175
-0.047518
-0.14256
-0.23126
-0.3453
-0.43823
-0.5037
-0.52693
-0.49314
-0.45301
-0.40655
-0.38543
-0.3453
-0.32207
-0.30095
-0.33474
-0.3812
-0.41711
-0.42133
-0.39599
-0.34319
-0.30306
-0.27138
-0.22703
-0.17846
-0.14678
-0.14256
-0.13411
-0.12144
-0.10454
-0.093981
-0.10454
-0.12144
-0.132
-0.13411
-0.16579
-0.22281
-0.28405
-0.3453
-0.35797
-0.34108
-0.24393
-0.13411
-0.064414
0.0031679
0.043295
0.079197
0.10876
0.12566
0.098205
0.028511
-0.043295
-0.10665
-0.11721
-0.098205
-0.066526
-0.034847
-0.026399
-0.015839
0.0031679
0.030623
0.062302
0.091869
0.10243
0.068638
-0.001056
-0.093981
-0.17212
-0.21436
-0.22281
-0.26294
-0.32207
-0.37487
-0.36431
-0.28617
-0.151
-0.030623
-0.0052798
-0.024287
-0.096093
-0.15312
-0.2038
-0.22492
-0.23126
-0.24604
-0.23759
-0.19958
-0.14467
-0.10243
-0.085533
-0.083421
-0.085533
-0.083421
-0.077086
-0.066526
-0.068638
-0.07075
-0.077086
-0.079197
-0.079197
-0.074974
-0.091869
-0.13833
-0.19535
-0.29461
-0.43823
-0.52693
-0.56705
-0.51848
-0.43823
-0.3622
-0.30729
-0.26082
-0.20591
-0.15523
-0.12355
-0.13622
-0.17212
-0.21859
-0.24393
-0.25026
-0.22281
-0.18902
-0.17846
-0.14256
-0.1151
-0.083421
-0.04963
-0.0031679
0.030623
0.051742
0.053854
0.053854
0.04963
0.047518
0.058078
0.051742
0.045407
0.030623
0.013728
-0.011616
-0.043295
-0.081309
-0.13833
-0.22281
-0.30517
-0.35797
-0.36853
-0.29673
-0.18479
-0.026399
0.18057
0.42344
0.74868
0.92608
0.88596
0.55861
0.079197
-0.33263
-0.57973
-0.70222
-0.76558
-0.77191
-0.74657
-0.68532
-0.60084
-0.52059
-0.46568
-0.44456
-0.41711
-0.38754
-0.34741
-0.33897
-0.33897
-0.34952
-0.3622
-0.35164
-0.36853
-0.3812
-0.38754
-0.35375
-0.30517
-0.29039
-0.31785
-0.37909
-0.45935
-0.55016
-0.60929
-0.66843
-0.67476
-0.62196
-0.54382
-0.45935
-0.37698
-0.31573
-0.27772
-0.25871
-0.23548
-0.20803
-0.17212
-0.13411
-0.079197
-0.04963
-0.013728
0.0031679
-0.0095037
-0.022175
-0.026399
-0.022175
-0.036959
-0.051742
-0.032735
0.015839
0.068638
0.083421
0.043295
-0.10876
-0.29461
-0.51637
-0.6811
-0.72756
-0.62408
-0.44879
-0.2566
-0.12988
-0.047518
-0.0073918
0.0073918
0.022175
0.030623
0.041183
0.039071
0.041183
0.026399
-0.0031679
-0.015839
-0.022175
-0.022175
-0.028511
-0.053854
-0.081309
-0.12144
-0.16579
-0.2038
-0.22492
-0.21859
-0.18902
-0.17423
-0.12988
-0.081309
-0.011616
0.07075
0.17423
0.30095
0.44456
0.59451
0.66631
0.57128
0.30306
-0.079197
-0.40021
-0.64097
-0.7698
-0.80993
-0.80148
-0.7529
-0.66631
-0.55438
-0.44456
-0.33474
-0.23337
-0.14467
-0.066526
0.013728
0.079197
0.14256
0.20803
0.24182
0.25026
0.23126
0.19747
0.15312
0.06019
-0.072862
-0.21859
-0.39176
-0.51214
-0.54593
-0.46357
-0.31573
-0.21225
-0.13622
-0.12777
-0.12777
-0.10454
-0.062302
-0.020063
0.015839
0.022175
0.001056
-0.047518
-0.083421
-0.1151
-0.12355
-0.12777
-0.12566
-0.14256
-0.1679
-0.17212
-0.14678
-0.091869
-0.055966
-0.053854
-0.11932
-0.21014
-0.25449
-0.26294
-0.24393
-0.2038
-0.18268
-0.2207
-0.30306
-0.40655
-0.49314
-0.52904
-0.54382
-0.52059
-0.48046
-0.42555
-0.36642
-0.30306
-0.26082
-0.22703
-0.20169
-0.19113
-0.17001
-0.15945
-0.13622
-0.11721
-0.07075
0.001056
0.07075
0.12144
0.12355
0.077086
-0.0073918
-0.087645
-0.1679
-0.26082
-0.36008
-0.41922
-0.42344
-0.3812
-0.30517
-0.27138
-0.24815
-0.24815
-0.22281
-0.23548
-0.25026
-0.26716
-0.2735
-0.26505
-0.26082
-0.24182
-0.19958
-0.16367
-0.12144
-0.10665
-0.10032
-0.10243
-0.10454
-0.098205
-0.093981
-0.079197
-0.072862
-0.053854
-0.051742
-0.041183
-0.043295
-0.041183
-0.043295
-0.04963
-0.051742
-0.045407
-0.024287
-0.001056
0.020063
0.036959
0.043295
0.032735
0.028511
0.034847
0.043295
0.06019
0.058078
0.024287
-0.058078
-0.19747
-0.3622
-0.53115
-0.59662
-0.52693
-0.34108
-0.10243
0.19958
0.58817
0.83105
0.83738
0.50158
0.043295
-0.3453
-0.55861
-0.65364
-0.67687
-0.6642
-0.63041
-0.60718
-0.5924
-0.56072
-0.5227
-0.45935
-0.40021
-0.3453
-0.29884
-0.28405
-0.26082
-0.23337
-0.20591
-0.17423
-0.14256
-0.10243
-0.06019
-0.039071
-0.068638
-0.15523
-0.2566
-0.33052
-0.37698
-0.3981
-0.39599
-0.37698
-0.35586
-0.32841
-0.2925
-0.26505
-0.22914
-0.18268
-0.14889
-0.12566
-0.10032
-0.064414
-0.047518
-0.032735
-0.024287
-0.028511
-0.041183
-0.068638
-0.11088
-0.1679
-0.24182
-0.35375
-0.41499
-0.41499
-0.3622
-0.27138
-0.24815
-0.23126
-0.20591
-0.20803
-0.24604
-0.29461
-0.35797
-0.38543
-0.37698
-0.31362
-0.22492
-0.15945
-0.098205
-0.07075
-0.051742
-0.039071
-0.015839
0.0095037
0.0073918
0.013728
0.0031679
-0.011616
-0.028511
-0.047518
-0.089757
-0.14889
-0.19747
-0.24604
-0.27983
-0.30306
-0.23337
-0.14044
-0.068638
-0.030623
-0.10454
-0.17846
-0.23548
-0.27138
-0.28194
-0.28405
-0.25026
-0.21225
-0.18057
-0.15523
-0.151
-0.15945
-0.18268
-0.18691
-0.18691
-0.15523
-0.096093
-0.015839
0.055966
0.10032
0.093981
0.045407
-0.032735
-0.091869
-0.132
-0.17423
-0.19324
-0.21014
-0.2207
-0.25238
-0.31996
-0.45301
-0.61563
-0.69799
-0.63675
-0.44879
-0.2566
-0.12988
-0.10032
-0.11299
-0.14678
-0.14044
-0.12144
-0.10876
-0.085533
-0.066526
-0.04963
-0.064414
-0.081309
-0.11088
-0.13622
-0.12777
-0.13622
-0.12777
-0.12355
-0.11721
-0.12144
-0.14044
-0.13833
-0.14044
-0.14044
-0.13833
-0.13833
-0.16156
-0.18479
-0.21859
-0.24815
-0.26716
-0.23759
-0.17635
-0.10876
-0.026399
0.085533
0.25871
0.48469
0.78881
0.96199
0.92186
0.59662
0.12355
-0.30306
-0.60718
-0.75924
-0.82471
-0.83105
-0.79725
-0.72756
-0.64097
-0.55861
-0.4699
-0.38332
-0.29884
-0.21014
-0.1151
-0.034847
-0.0052798
-0.011616
-0.066526
-0.10876
-0.132
-0.13833
-0.12144
-0.091869
-0.024287
0.051742
0.11299
0.15312
0.14889
0.10243
-0.026399
-0.15312
-0.28194
-0.35164
-0.35375
-0.3094
-0.26716
-0.23759
-0.21014
-0.19535
-0.17212
-0.14678
-0.11932
-0.096093
-0.079197
-0.053854
-0.043295
-0.045407
-0.053854
-0.045407
0.0095037
0.093981
0.14467
0.12566
0.028511
-0.064414
-0.13622
-0.2038
-0.26082
-0.30306
-0.35797
-0.40655
-0.4509
-0.4509
-0.42344
-0.35586
-0.31785
-0.25449
-0.21436
-0.14256
-0.089757
-0.11088
-0.15523
-0.20803
-0.22914
-0.2207
-0.16156
-0.072862
0.0073918
0.032735
0.017951
-0.045407
-0.11088
-0.15734
-0.23548
-0.29884
-0.3453
-0.35586
-0.33685
-0.31573
-0.2925
-0.29884
-0.33897
-0.38965
-0.42767
-0.45301
-0.45723
-0.44667
-0.43611
-0.44456
-0.41922
-0.33685
-0.19113
-0.028511
0.12144
0.21859
0.26294
0.2735
0.25238
0.18902
0.089757
-0.024287
-0.11721
-0.2038
-0.2735
-0.32418
-0.36642
-0.37698
-0.3812
-0.37487
-0.38332
-0.38332
-0.37698
-0.39388
-0.40655
-0.42767
-0.43823
-0.43823
-0.434
-0.3981
-0.35375
-0.27138
-0.14889
-0.013728
0.12777
0.26294
0.3622
0.41711
0.40232
0.34319
0.25871
0.14467
0.032735
-0.089757
-0.19958
-0.30095
-0.39599
-0.48891
-0.57761
-0.6114
-0.61774
-0.5755
-0.49947
-0.40655
-0.30095
-0.22492
-0.15523
-0.10665
-0.079197
-0.043295
-0.0031679
0.034847
0.034847
0.036959
0.0052798
-0.015839
-0.045407
-0.039071
0.026399
0.13411
0.27561
0.36642
0.37909
0.33897
0.26716
0.15312
-0.020063
-0.21647
-0.42978
-0.57339
-0.64097
-0.63675
-0.58606
-0.49736
-0.40444
-0.33263
-0.29461
-0.28405
-0.27772
-0.27772
-0.26082
-0.23126
-0.17846
-0.12355
-0.072862
-0.020063
0.024287
0.07075
0.12355
0.16156
0.17635
0.18268
0.18902
0.19535
0.19113
0.17001
0.11721
0.034847
-0.06019
-0.13622
-0.2038
-0.26927
-0.34108
-0.44245
-0.51848
-0.52059
-0.48469
-0.4509
-0.4509
-0.44667
-0.42555
-0.37909
-0.31362
-0.2397
-0.17212
-0.12988
-0.11088
-0.12144
-0.12777
-0.12988
-0.11721
-0.10243
-0.081309
-0.041183
-0.024287
-0.013728
-0.032735
-0.062302
-0.096093
-0.14467
-0.20803
-0.28617
-0.36642
-0.41711
-0.4509
-0.44456
-0.38965
-0.30517
-0.23337
-0.2038
-0.21647
-0.24393
-0.26927
-0.26505
-0.2207
-0.19113
-0.16579
-0.16367
-0.16579
-0.18057
-0.17635
-0.17212
-0.15945
-0.14889
-0.14044
-0.12988
-0.14044
-0.13411
-0.132
-0.1151
-0.074974
-0.030623
0.013728
0.039071
0.072862
0.098205
0.11088
0.11088
0.098205
0.062302
0.015839
-0.032735
-0.083421
-0.12144
-0.1679
-0.20169
-0.20803
-0.17001
-0.066526
0.055966
0.18902
0.31151
0.46779
0.63886
0.717
0.66631
0.41922
0.026399
-0.35375
-0.65998
-0.86906
-0.96621
-1
-0.98522
-0.92608
-0.82471
-0.69588
-0.56705
-0.42133
-0.28828
-0.16156
-0.058078
0.017951
0.047518
0.030623
-0.011616
-0.066526
-0.12355
-0.20169
-0.2397
-0.26716
-0.28617
-0.2735
-0.2566
-0.22914
-0.2566
-0.3094
-0.37909
-0.41499
-0.38543
-0.30729
-0.2207
-0.132
-0.06019
0.0052798
0.043295
0.089757
0.132
0.15523
0.15734
0.14467
0.098205
0.022175
-0.068638
-0.15945
-0.23759
-0.30306
-0.34741
-0.36853
-0.35797
-0.31996
-0.2566
-0.20591
-0.14889
-0.098205
-0.051742
-0.041183
-0.032735
-0.026399
-0.013728
0.015839
0.064414
0.12777
0.19535
0.28617
0.40021
0.53749
0.6811
0.74446
0.66843
0.39388
0.036959
-0.3094
-0.5755
-0.74023
-0.84372
-0.90707
-0.93242
-0.90285
-0.82893
-0.72545
-0.60507
-0.48891
-0.38754
-0.3094
-0.23337
-0.17212
-0.12988
-0.093981
-0.062302
-0.020063
-0.001056
0.032735
0.051742
0.051742
0.045407
0.045407
0.032735
0.011616
-0.039071
-0.16156
-0.2735
-0.37064
-0.42344
-0.43823
-0.42344
-0.35164
-0.26927
-0.23759
-0.27138
-0.33685
-0.40021
-0.43823
-0.43823
-0.41288
-0.37276
-0.31573
-0.26082
-0.23548
-0.20803
-0.19113
-0.18902
-0.21647
-0.26294
-0.27983
-0.2735
-0.22703
-0.17423
-0.13833
-0.13833
-0.14678
-0.15312
-0.16579
-0.15945
-0.14889
-0.10665
-0.053854
0.017951
0.098205
0.17846
0.29673
0.44667
0.56705
0.56494
0.42344
0.20803
-0.041183
-0.28194
-0.50581
-0.70433
-0.82682
-0.88384
-0.86906
-0.79725
-0.70011
-0.59451
-0.51848
-0.45935
-0.38332
-0.30517
-0.21014
-0.12988
-0.066526
-0.015839
0.001056
0.026399
0.041183
0.055966
0.058078
0.066526
0.062302
0.066526
0.083421
0.081309
0.053854
-0.013728
-0.10243
-0.19958
-0.27561
-0.29884
-0.29884
-0.28405
-0.27983
-0.28405
-0.33685
-0.39388
-0.4509
-0.45935
-0.40655
-0.31785
-0.20591
-0.132
-0.077086
-0.047518
-0.055966
-0.085533
-0.10032
-0.096093
-0.077086
-0.028511
0.047518
0.12988
0.20169
0.25026
0.26294
0.24182
0.21225
0.19535
0.19324
0.18902
0.17635
0.14256
0.089757
-0.0073918
-0.13833
-0.30729
-0.47624
-0.62196
-0.71067
-0.72334
-0.67054
-0.54593
-0.43823
-0.3622
-0.31362
-0.2566
-0.19958
-0.14678
-0.085533
-0.053854
-0.06019
-0.10243
-0.15945
-0.19747
-0.21225
-0.18479
-0.15312
-0.13833
-0.11088
-0.083421
-0.051742
-0.030623
-0.039071
-0.07075
-0.098205
-0.10665
-0.13411
-0.18268
-0.22914
-0.28194
-0.3453
-0.40232
-0.46568
-0.49947
-0.49736
-0.43823
-0.36008
-0.29039
-0.25238
-0.18691
-0.15945
-0.132
-0.14256
-0.14889
-0.15734
-0.14889
-0.11721
-0.087645
-0.074974
-0.04963
-0.030623
-0.015839
0.0031679
0.022175
0.053854
0.079197
0.10665
0.12566
0.132
0.13833
0.14467
0.14044
0.13833
0.14044
0.14467
0.151
0.15523
0.16579
0.15734
0.13411
0.11721
0.087645
0.053854
-0.013728
-0.087645
-0.14889
-0.19747
-0.19535
-0.12988
0.0095037
0.18691
0.30729
0.31362
0.22281
0.14256
0.041183
-0.12777
-0.31996
-0.52482
-0.65364
-0.70011
-0.69377
-0.65576
-0.59029
-0.52482
-0.45723
-0.42344
-0.37487
-0.33263
-0.28828
-0.2735
-0.26927
-0.26927
-0.26505
-0.24815
-0.22703
-0.21014
-0.20803
-0.20803
-0.20169
-0.19747
-0.18057
-0.16367
-0.15734
-0.20169
-0.26927
-0.3812
-0.49102
-0.53749
-0.49947
-0.38754
-0.25449
-0.13411
-0.043295
0.0073918
0.015839
0.022175
0.024287
0.032735
0.062302
0.089757
0.11299
0.12777
0.13833
0.14256
0.14678
0.17001
0.18902
0.19958
0.19324
0.14889
0.085533
-0.0031679
-0.074974
-0.15945
-0.24604
-0.31996
-0.36642
-0.38754
-0.35797
-0.33263
-0.30306
-0.28194
-0.25449
-0.20169
-0.13622
-0.10032
-0.055966
-0.036959
-0.039071
-0.039071
-0.055966
-0.089757
-0.12144
-0.13833
-0.14256
-0.14678
-0.12777
-0.11088
-0.098205
-0.072862
-0.028511
0.026399
0.074974
0.085533
0.058078
-0.0031679
-0.055966
-0.083421
-0.11299
-0.15734
-0.2038
-0.23759
-0.26927
-0.2925
-0.28828
-0.28617
-0.27772
-0.27983
-0.31785
-0.37698
-0.43823
-0.46146
-0.40655
-0.27561
-0.077086
0.091869
0.18057
0.17635
0.151
0.10032
0.047518
0.0073918
-0.043295
-0.072862
-0.072862
-0.032735
-0.0031679
0.0052798
-0.015839
-0.051742
-0.10032
-0.16367
-0.20803
-0.2397
-0.24393
-0.22492
-0.22492
-0.31996
