-0.34653
-0.35361
-0.36917
-0.37624
-0.38614
-0.4017
-0.41584
-0.43281
-0.45969
-0.52617
-0.62376
-0.65771
-0.64356
-0.57709
-0.30552
-0.10608
0.23197
0.52334
0.71429
0.82037
0.77086
0.57709
0.36634
0.19095
0.055163
-0.07355
-0.16407
-0.23479
-0.28289
-0.32107
-0.35078
-0.37341
-0.4017
-0.43281
-0.46818
-0.52475
-0.60962
-0.63791
-0.60113
-0.52051
-0.43423
-0.157
0.053748
0.39604
0.60679
0.6959
0.70014
0.58982
0.39463
0.20085
0.036775
-0.096181
-0.21075
-0.30835
-0.39038
-0.45262
-0.48939
-0.50495
-0.50071
-0.48515
-0.45686
-0.40311
-0.33663
-0.26308
-0.24328
-0.3338
-0.56011
-0.74399
-0.75672
-0.54314
-0.12447
0.19802
0.46393
0.61245
0.67751
0.67893
0.59406
0.4512
0.30552
0.1669
0.036775
-0.076379
-0.16973
-0.23904
-0.30269
-0.35219
-0.39745
-0.4314
-0.46252
-0.49222
-0.53041
-0.60255
-0.68317
-0.67185
-0.61386
-0.50778
-0.33098
-0.089109
0.17822
0.45262
0.60962
0.69165
0.64781
0.49505
0.29562
0.10467
-0.057992
-0.20651
-0.32815
-0.4314
-0.50354
-0.50354
-0.55587
-0.58699
-0.60255
-0.60679
-0.60396
-0.60537
-0.61528
-0.64074
-0.65064
-0.61669
-0.57709
-0.52334
-0.49364
-0.3239
-0.097595
0.20368
0.42716
0.52475
0.52475
0.39887
0.22631
0.067893
-0.055163
-0.15276
-0.23762
-0.314
-0.37482
-0.41301
-0.4413
-0.45969
-0.47525
-0.47383
-0.47242
-0.47242
-0.49505
-0.55728
-0.64498
-0.65912
-0.5488
-0.26591
0.024045
0.314
0.49222
0.57426
0.52758
0.39604
0.25035
0.14286
0.055163
-0.033946
-0.14144
-0.25035
-0.33522
-0.39463
-0.42008
-0.43423
-0.43423
-0.44696
-0.45827
-0.46959
-0.47666
-0.47808
-0.46818
-0.44272
-0.42008
-0.38897
-0.38048
-0.37482
-0.43423
-0.59123
-0.42857
-0.29562
0.18246
0.52617
0.78218
0.89392
0.84866
0.70863
0.55304
0.42716
0.30127
0.18812
0.082037
-0.021216
-0.11033
-0.19095
-0.25601
-0.3041
-0.33946
-0.36351
-0.3819
-0.39463
-0.4017
-0.39745
-0.38472
-0.35078
-0.29844
-0.23338
-0.21499
-0.34371
-0.55728
-0.51768
-0.31825
0.16266
0.53324
0.78359
0.87553
0.83451
0.68741
0.49364
0.31825
0.157
0.0084866
-0.1174
-0.22065
-0.28147
-0.30835
-0.30127
-0.3041
-0.31825
-0.37907
-0.46393
-0.52334
-0.51768
-0.46393
-0.39038
-0.27157
-0.0042433
0.23904
0.50071
0.60255
0.61528
0.54738
0.40453
0.24611
0.11598
0.016973
-0.08628
-0.17115
-0.24611
-0.30269
-0.35785
-0.41726
-0.51344
-0.59264
-0.5983
-0.57284
-0.50212
-0.44837
-0.28006
-0.031117
0.23197
0.39745
0.45827
0.41301
0.29703
0.13154
-0.024045
-0.13861
-0.21641
-0.28289
-0.35926
-0.43281
-0.48232
-0.53748
-0.56719
-0.5389
-0.50919
-0.47525
-0.48656
-0.43423
-0.2546
-0.042433
0.18529
0.2546
0.24187
0.15417
0.011315
-0.14003
-0.26591
-0.35078
-0.40736
-0.44413
-0.47242
-0.48232
-0.49929
-0.53182
-0.54455
-0.52334
-0.48373
-0.43281
-0.38331
-0.22631
-0.024045
0.21075
0.37341
0.4413
0.4314
0.35078
0.22207
0.070721
-0.069307
-0.1867
-0.27723
-0.33098
-0.35078
-0.35644
-0.35502
-0.35078
-0.34936
-0.34936
-0.34936
-0.35502
-0.42433
-0.49222
-0.53324
-0.53182
-0.2447
0.057992
0.45403
0.74116
0.8331
0.83168
0.71429
0.51344
0.30552
0.12588
-0.031117
-0.16407
-0.26167
-0.33805
-0.38472
-0.41301
-0.41443
-0.39887
-0.37199
-0.34229
-0.3239
-0.31259
-0.31259
-0.33946
-0.4116
-0.48232
-0.48091
-0.44413
-0.34371
-0.21641
0.052334
0.29279
0.56011
0.68034
0.69731
0.63366
0.49364
0.31825
0.16124
0.029703
-0.091938
-0.20934
-0.32673
-0.41301
-0.46818
-0.48515
-0.48091
-0.48091
-0.50212
-0.54314
-0.5686
-0.57709
-0.55728
-0.51768
-0.47242
-0.40594
-0.34088
-0.3239
-0.48232
-0.66054
-0.72419
-0.50354
-0.028289
0.39745
0.71853
0.84583
0.86563
0.77793
0.58557
0.35219
0.14003
-0.028289
-0.16124
-0.25035
-0.30835
-0.32956
-0.32956
-0.32532
-0.3239
-0.35219
-0.41443
-0.50354
-0.5686
-0.55021
-0.49646
-0.4017
-0.29844
-0.022631
0.24187
0.54597
0.66902
0.67751
0.60255
0.47666
0.3239
0.19661
0.090523
-0.01273
-0.12871
-0.25601
-0.38048
-0.47666
-0.54173
-0.57992
-0.60962
-0.64498
-0.68175
-0.67751
-0.63791
-0.53324
-0.39887
-0.10891
0.16549
0.471
0.62518
0.6662
0.62659
0.50354
0.33805
0.15842
0.0042433
-0.1273
-0.22772
-0.29562
-0.34512
-0.3918
-0.42857
-0.47808
-0.56577
-0.64074
-0.65347
-0.62093
-0.51202
-0.40877
-0.20368
0.059406
0.34088
0.55587
0.60962
0.52051
0.37907
0.21924
0.08628
-0.018388
-0.11881
-0.22348
-0.31117
-0.38614
-0.43281
-0.46959
-0.51768
-0.54597
-0.53748
-0.47808
-0.39745
-0.33805
-0.31117
-0.15559
0.032532
0.25035
0.3819
0.37341
0.31966
0.19661
0.042433
-0.12588
-0.29137
-0.43564
-0.54031
-0.60113
-0.63791
-0.64922
-0.65064
-0.64074
-0.61245
-0.58699
-0.5686
-0.57709
-0.57143
-0.43706
-0.24045
-0.07355
0.022631
0.009901
0.02546
0.031117
0.01273
-0.02546
-0.018388
0.0070721
0.019802
-0.024045
-0.091938
-0.14003
-0.17397
-0.20792
-0.23621
-0.2645
-0.2645
-0.27581
-0.26733
-0.2447
-0.20085
-0.14851
-0.1372
-0.13154
-0.1174
-0.1075
-0.11457
-0.17256
-0.25601
-0.34229
-0.35926
-0.34795
-0.2744
-0.074965
0.14993
0.43847
0.60962
0.66902
0.61386
0.48939
0.3041
0.13296
-0.0028289
-0.097595
-0.16549
-0.22207
-0.26167
-0.29844
-0.31825
-0.3239
-0.31683
-0.31259
-0.30127
-0.28996
-0.28713
-0.30127
-0.37624
-0.46535
-0.54173
-0.55304
-0.49788
-0.23338
0.033946
0.37765
0.59406
0.64215
0.61103
0.46959
0.28854
0.13013
0.0056577
-0.076379
-0.13154
-0.17822
-0.22772
-0.2843
-0.33098
-0.36634
-0.38897
-0.40028
-0.40311
-0.4017
-0.40028
-0.40311
-0.41443
-0.46252
-0.54173
-0.60255
-0.58133
-0.50071
-0.35785
-0.16124
0.157
0.471
0.75248
0.83876
0.76662
0.63083
0.43706
0.23621
0.055163
-0.097595
-0.23904
-0.34653
-0.42574
-0.46676
-0.48515
-0.47666
-0.45686
-0.42574
-0.3918
-0.37058
-0.36775
-0.39321
-0.43847
-0.52192
-0.63932
-0.66195
-0.54173
-0.20792
0.16549
0.47949
0.61245
0.60255
0.49788
0.36492
0.21499
0.079208
-0.019802
-0.093352
-0.14427
-0.19236
-0.21499
-0.23055
-0.23762
-0.24611
-0.25884
-0.26733
-0.29703
-0.39038
-0.51909
-0.62235
-0.61103
-0.50495
-0.24328
0.069307
0.39604
0.6082
0.64781
0.52617
0.38472
0.22914
0.1075
0.016973
-0.056577
-0.10891
-0.16266
-0.20792
-0.26733
-0.30552
-0.34653
-0.40028
-0.48515
-0.57426
-0.62376
-0.6181
-0.51627
-0.38048
-0.12588
0.10325
0.31825
0.38331
0.33098
0.22772
0.10891
-0.019802
-0.1273
-0.22631
-0.31825
-0.3918
-0.43706
-0.44413
-0.4215
-0.39463
-0.39604
-0.43989
-0.54455
-0.67185
-0.68175
-0.58133
-0.36917
0.016973
0.32815
0.65912
0.81754
0.81612
0.70297
0.50778
0.29703
0.084866
-0.091938
-0.23762
-0.33522
-0.40311
-0.44272
-0.47808
-0.51627
-0.56011
-0.59547
-0.61103
-0.60537
-0.58133
-0.56011
-0.55304
-0.53607
-0.50778
-0.45969
-0.42999
-0.39463
-0.27157
-0.15983
0.13861
0.41584
0.71287
0.8727
0.85573
0.71711
0.52192
0.3041
0.11174
-0.050919
-0.17397
-0.26591
-0.33663
-0.37482
-0.38897
-0.38897
-0.39745
-0.4116
-0.42433
-0.43423
-0.4512
-0.46252
-0.40311
-0.30269
-0.20085
-0.14144
-0.10891
0.1075
0.37199
0.69024
0.8232
0.76945
0.58274
0.34653
0.10467
-0.10184
-0.26874
-0.39463
-0.47525
-0.53465
-0.57992
-0.60537
-0.61386
-0.5983
-0.56294
-0.49505
-0.39321
-0.29703
-0.27298
-0.27157
-0.27157
-0.077793
0.15559
0.45969
0.60396
0.63366
0.55446
0.40736
0.24894
0.10467
-0.011315
-0.10467
-0.18953
-0.26025
-0.31825
-0.35078
-0.36775
-0.36775
-0.36492
-0.37482
-0.39038
-0.4116
-0.42433
-0.43281
-0.42574
-0.41018
-0.38614
-0.38897
-0.42291
-0.43847
-0.3918
-0.29986
-0.1174
0.069307
0.30269
0.47242
0.56436
0.55728
0.50071
0.41584
0.32107
0.22489
0.12023
0.019802
-0.083451
-0.17397
-0.26167
-0.33098
-0.38048
-0.41301
-0.45686
-0.51485
-0.5785
-0.64356
-0.70721
-0.75106
-0.7058
-0.61245
-0.52192
-0.44413
-0.25601
0.082037
0.48798
0.76521
0.83593
0.70721
0.55021
0.34936
0.18105
0.029703
-0.10608
-0.22631
-0.314
-0.37058
-0.40311
-0.43281
-0.45686
-0.47949
-0.49505
-0.48515
-0.45403
-0.41018
-0.37199
-0.35219
-0.38472
-0.4116
-0.4413
-0.38331
-0.15842
0.19943
0.61386
0.89958
0.9505
0.83027
0.62942
0.40453
0.17539
-0.033946
-0.20509
-0.33805
-0.41726
-0.46676
-0.48798
-0.49646
-0.50071
-0.49222
-0.47808
-0.4512
-0.41018
-0.35644
-0.28854
-0.2546
-0.29279
-0.43564
-0.57992
-0.57709
-0.4215
-0.13861
0.14569
0.35361
0.47949
0.50212
0.44413
0.3338
0.20509
0.080622
-0.039604
-0.14427
-0.24045
-0.30552
-0.33663
-0.34653
-0.33663
-0.33946
-0.3338
-0.32815
-0.32815
-0.36209
-0.42999
-0.48939
-0.48091
-0.41867
-0.30693
-0.1768
0.055163
0.31259
0.58557
0.6959
0.66337
0.51627
0.33946
0.16407
0.035361
-0.055163
-0.12447
-0.19095
-0.2645
-0.34512
-0.38614
-0.39604
-0.38331
-0.38048
-0.39745
-0.44979
-0.56436
-0.64074
-0.67327
-0.58982
-0.46818
-0.20651
0.11174
0.45686
0.68741
0.7355
0.62235
0.47242
0.29562
0.15134
0.015559
-0.12871
-0.28713
-0.42999
-0.5488
-0.62235
-0.6662
-0.70014
-0.71429
-0.7157
-0.70297
-0.71853
-0.68034
-0.61386
-0.44272
-0.23338
0.13861
0.46818
0.78359
0.92362
0.90523
0.81612
0.64356
0.44696
0.2447
0.046676
-0.12164
-0.26167
-0.36917
-0.45686
-0.49646
-0.49788
-0.46252
-0.4116
-0.37624
-0.34512
-0.31683
-0.28571
-0.28289
-0.34936
-0.44554
-0.53324
-0.46535
-0.28854
0.069307
0.4413
0.75955
0.87836
0.86704
0.71004
0.55587
0.38755
0.22348
0.083451
-0.036775
-0.12588
-0.19519
-0.26167
-0.32249
-0.38472
-0.43706
-0.47242
-0.49081
-0.49222
-0.50495
-0.52475
-0.54597
-0.55021
-0.52617
-0.49081
-0.43423
-0.34936
-0.25318
-0.062235
0.2447
0.59547
0.89675
1
0.92504
0.78076
0.5785
0.36492
0.16407
-0.018388
-0.1768
-0.31825
-0.44837
-0.54738
-0.60113
-0.60679
-0.57567
-0.53748
-0.49788
-0.48798
-0.49081
-0.52617
-0.54314
-0.54455
-0.45969
-0.31542
-0.014144
0.30835
0.63649
0.78925
0.77652
0.62093
0.42433
0.21358
0.041018
-0.11457
-0.2546
-0.38048
-0.48091
-0.54455
-0.57001
-0.5686
-0.55304
-0.52051
-0.47808
-0.43706
-0.39745
-0.36209
-0.34371
-0.36351
-0.41301
-0.54738
-0.52758
-0.24611
0.11315
0.50071
0.62942
0.62093
0.54031
0.40736
0.25601
0.1273
0.01273
-0.077793
-0.15417
-0.22065
-0.28147
-0.32956
-0.36917
-0.41301
-0.45403
-0.49505
-0.51202
-0.51627
-0.50354
-0.48091
-0.44554
-0.40736
-0.39038
-0.44272
-0.52334
-0.52334
-0.42857
-0.24328
0.076379
0.40736
0.73692
0.92079
0.93352
0.82037
0.65205
0.4611
0.26874
0.077793
-0.093352
-0.21358
-0.28147
-0.29986
-0.29279
-0.2843
-0.30269
-0.34795
-0.40736
-0.47525
-0.55587
-0.58274
-0.58416
-0.49505
-0.38048
-0.14286
0.10608
0.39463
0.52758
0.55728
0.42433
0.2447
0.041018
-0.1372
-0.27723
-0.36917
-0.41867
-0.44413
-0.4512
-0.45686
-0.46959
-0.48373
-0.48939
-0.49929
-0.53607
-0.5389
-0.55163
-0.48373
-0.41584
-0.21641
0.043847
0.35219
0.54031
0.59123
0.46959
0.31683
0.14427
-0.0014144
-0.12588
-0.21499
-0.27298
-0.28571
-0.26308
-0.22207
-0.20085
-0.18246
-0.17115
-0.15983
-0.17115
-0.22348
-0.33946
-0.43564
-0.45686
-0.43989
-0.34088
-0.26733
-0.16124
-0.043847
0.045262
0.10608
0.14993
0.15276
0.11457
0.039604
-0.03819
-0.11033
-0.17539
-0.22631
-0.26591
-0.30269
-0.32956
-0.33663
-0.32815
-0.30976
-0.29703
-0.27581
-0.26591
-0.26591
-0.27864
-0.29844
-0.31259
-0.32107
-0.33098
-0.26733
-0.024045
0.28713
0.61952
0.76521
0.74399
0.6181
0.43706
0.26308
0.10891
-0.036775
-0.15983
-0.26308
-0.3239
-0.36209
-0.39038
-0.4215
-0.4611
-0.49364
-0.51344
-0.51344
-0.53465
-0.51061
-0.48798
-0.40736
-0.2546
-0.009901
0.29703
0.53324
0.58416
0.48373
0.28854
0.11881
-0.024045
-0.12871
-0.20651
-0.27016
-0.34653
-0.41018
-0.44272
-0.43706
-0.41443
-0.36917
-0.3338
-0.3239
-0.34371
-0.34229
-0.26308
-0.16124
0.022631
0.15276
0.28289
0.35078
0.34371
0.27864
0.16832
0.070721
-0.031117
-0.1174
-0.22348
-0.31117
-0.38472
-0.44554
-0.49505
-0.51909
-0.51909
-0.49788
-0.4611
-0.42433
-0.4017
-0.4017
-0.39321
-0.37341
-0.34653
-0.35502
-0.38331
-0.39038
-0.36492
-0.1669
0.1273
0.48232
0.73692
0.79915
0.69731
0.52617
0.34088
0.17397
0.035361
-0.080622
-0.18246
-0.25884
-0.29986
-0.30552
-0.30127
-0.30269
-0.30269
-0.314
-0.32532
-0.32815
-0.32532
-0.30693
-0.31117
-0.36634
-0.48373
-0.57426
-0.55021
-0.40594
-0.18812
0.10042
0.42008
0.7256
0.90099
0.86987
0.66902
0.40594
0.14286
-0.059406
-0.21782
-0.33946
-0.42574
-0.47383
-0.50636
-0.529
-0.56011
-0.58699
-0.61952
-0.64922
-0.69165
-0.74116
-0.70014
-0.57426
-0.38048
-0.089109
0.23338
0.53748
0.76521
0.80481
0.72984
0.58133
0.38472
0.20085
0.043847
-0.079208
-0.18812
-0.29137
-0.36209
-0.40453
-0.42716
-0.48373
-0.5587
-0.6761
-0.78076
-0.78925
-0.69024
-0.49505
-0.25601
-0.01273
0.23479
0.50354
0.64215
0.67044
0.57284
0.44696
0.32956
0.21782
0.11457
0.009901
-0.089109
-0.17539
-0.25884
-0.32815
-0.39604
-0.48656
-0.61103
-0.75672
-0.89533
-0.92079
-0.82744
-0.62518
-0.35361
-0.048091
0.29562
0.59406
0.76096
0.76096
0.6181
0.44554
0.26025
0.12164
0.009901
-0.074965
-0.14427
-0.17963
-0.19943
-0.21924
-0.27723
-0.37199
-0.50778
-0.6662
-0.8232
-0.87129
-0.79774
-0.6181
-0.36351
-0.096181
0.18388
0.43989
0.56577
0.60537
0.51627
0.40594
0.28713
0.17397
0.089109
0.0070721
-0.057992
-0.12447
-0.16973
-0.21924
-0.26308
-0.29279
-0.30693
-0.31966
-0.35785
-0.45403
-0.60679
-0.76521
-0.79349
-0.6959
-0.43281
-0.10608
0.24045
0.50636
0.60113
0.55021
0.40311
0.25884
0.11598
0.0042433
-0.093352
-0.1768
-0.25743
-0.32107
-0.36775
-0.39038
-0.39463
-0.39604
-0.38048
-0.36492
-0.35644
-0.41584
-0.51344
-0.63225
-0.63791
-0.54031
-0.36351
-0.096181
0.1768
0.49646
0.7355
0.79915
0.68458
0.48939
0.25884
0.059406
-0.090523
-0.20085
-0.26591
-0.30976
-0.34088
-0.35785
-0.38472
-0.3918
-0.41867
-0.45403
-0.49646
-0.56153
-0.55728
-0.51768
-0.42008
-0.29844
-0.13296
0.1174
0.41584
0.64639
0.7454
0.686
0.5488
0.36209
0.1867
0.043847
-0.06082
-0.13437
-0.19236
-0.26733
-0.36775
-0.48373
-0.57284
-0.64215
-0.70156
-0.66195
-0.59123
-0.44272
-0.28713
-0.13861
0.035361
0.22489
0.3918
0.46676
0.43847
0.32815
0.20226
0.057992
-0.08628
-0.20368
-0.28713
-0.34936
-0.41301
-0.51061
-0.64498
-0.77793
-0.88967
-0.91231
-0.81754
-0.63649
-0.42008
-0.19661
0.015559
0.27864
0.53041
0.68317
0.71853
0.61245
0.4611
0.2942
0.15134
0.031117
-0.069307
-0.13296
-0.18812
-0.23338
-0.27723
-0.33805
-0.43989
-0.59406
-0.78359
-0.86139
-0.80339
-0.56577
-0.23338
0.039604
0.21499
0.25318
0.22772
0.14286
0.045262
-0.07355
-0.1867
-0.28854
-0.36775
-0.42291
-0.46959
-0.50495
-0.53182
-0.56153
-0.58133
-0.57567
-0.54597
-0.49505
-0.43564
-0.37765
-0.35219
-0.37482
-0.47949
-0.66195
-0.81754
-0.83734
-0.68175
-0.39604
0.0084866
0.40311
0.76096
0.93069
0.94342
0.78642
0.60113
0.39887
0.22772
0.10891
0.014144
-0.056577
-0.13013
-0.21924
-0.29279
-0.32532
-0.30693
-0.26591
-0.25743
-0.31117
-0.45545
-0.65771
-0.8133
-0.83734
-0.70863
-0.4413
-0.10467
0.25318
0.57284
0.72843
0.73833
0.60113
0.43847
0.28289
0.14003
0.021216
-0.066478
-0.13013
-0.16973
-0.20368
-0.22914
-0.26874
-0.31117
-0.36068
-0.42999
-0.51627
-0.61669
-0.72136
-0.78359
-0.72843
-0.58274
-0.33239
-0.036775
0.27157
0.5884
0.74965
0.80057
0.71853
0.58557
0.44413
0.29844
0.17539
0.063649
-0.014144
-0.067893
-0.11881
-0.16973
-0.20509
-0.25318
-0.31966
-0.42857
-0.58274
-0.76945
-0.8925
-0.90948
-0.79774
-0.58982
-0.27723
0.046676
0.39321
0.59406
0.66195
0.58416
0.45827
0.33239
0.21216
0.10325
0.01273
-0.035361
-0.07355
-0.10184
-0.14286
-0.18953
-0.24328
-0.32249
-0.43281
-0.58416
-0.74116
-0.81471
-0.76945
-0.61245
-0.35644
-0.043847
0.314
0.64498
0.82885
0.84158
0.71429
0.53041
0.34936
0.18388
0.045262
-0.087694
-0.19236
-0.28289
-0.34371
-0.38897
-0.4314
-0.46393
-0.50071
-0.54173
-0.6082
-0.69873
-0.81471
-0.9024
-0.89392
-0.76803
-0.52475
-0.21075
0.14569
0.49646
0.70863
0.78925
0.70156
0.5587
0.39321
0.23479
0.087694
-0.048091
-0.16124
-0.25884
-0.32532
-0.37765
-0.40877
-0.41867
-0.40453
-0.37058
-0.32532
-0.29562
-0.31117
-0.3918
-0.54314
-0.75813
-0.94908
-0.98868
-0.84866
-0.56577
-0.17397
0.18812
0.53748
0.71429
0.73975
0.59406
0.40736
0.22631
0.087694
-0.029703
-0.12306
-0.20226
-0.2843
-0.34795
-0.38755
-0.38614
-0.35926
-0.32532
-0.30269
-0.33522
-0.43423
-0.61952
-0.8331
-0.95474
-0.91231
-0.70014
-0.27157
0.17256
0.60679
0.85573
0.90099
0.80764
0.65347
0.48232
0.314
0.16407
0.028289
-0.087694
-0.16973
-0.22631
-0.26874
-0.31117
-0.34088
-0.36775
-0.39321
-0.42574
-0.46252
-0.51485
-0.5785
-0.6662
-0.79349
-0.94059
-1
-0.92928
-0.67327
-0.28713
0.1273
0.51485
0.74399
0.82461
0.75248
0.60962
0.44837
0.29562
0.15559
0.039604
-0.059406
-0.1372
-0.21075
-0.26167
-0.29986
-0.3338
-0.36492
-0.4116
-0.49929
-0.64498
-0.81895
-0.97171
-0.97313
-0.81188
-0.53607
-0.1471
0.1867
0.53182
0.73833
0.81188
0.75955
0.63366
0.50212
0.36351
0.24187
0.13154
0.015559
-0.091938
-0.19519
-0.2645
-0.3041
-0.33239
-0.35219
-0.38897
-0.43706
-0.49505
-0.5785
-0.6662
-0.6662
-0.54738
-0.31542
0.0084866
0.33663
0.6181
0.73975
0.71287
0.56719
0.3819
0.18388
0.0014144
-0.15134
-0.2744
-0.35785
-0.40736
-0.42999
-0.43423
-0.43706
-0.44979
-0.44413
-0.43281
-0.40453
-0.37624
-0.35502
-0.34088
-0.35361
-0.36068
-0.24894
-0.082037
0.12588
0.30976
0.39745
0.45969
0.43564
0.35361
0.23055
0.10042
-0.024045
-0.14003
-0.23197
-0.27864
-0.27581
-0.25035
-0.22631
-0.20934
-0.19943
-0.20651
-0.23479
-0.27723
-0.35644
-0.48798
-0.64074
-0.71429
-0.67327
-0.47242
-0.20651
0.12588
0.43281
0.6181
0.65771
0.53324
0.36492
0.18529
0.03819
-0.08628
-0.16973
-0.23338
-0.26025
-0.2843
-0.314
-0.36917
-0.43989
-0.51344
-0.58982
-0.69307
-0.7256
-0.69448
-0.56577
-0.37907
-0.17397
0.022631
0.25601
0.40877
0.49788
0.45262
0.34795
0.25601
0.18105
0.12447
0.066478
0.022631
-0.036775
-0.10325
-0.19236
-0.2942
-0.41867
-0.5389
-0.63791
-0.62942
-0.55304
-0.42291
-0.27864
-0.17963
-0.10325
0.041018
0.19378
0.37765
0.4512
0.40736
0.3041
0.1768
0.048091
-0.07355
-0.15842
-0.22631
-0.29137
-0.37624
-0.46676
-0.5488
-0.57709
-0.52475
-0.41867
-0.29279
-0.18388
-0.097595
-0.021216
-0.0070721
0.009901
0.041018
0.15417
0.24894
0.28006
0.21782
0.13861
0.072136
0.035361
-0.0042433
-0.080622
-0.20792
-0.37341
-0.54031
-0.61245
-0.57426
-0.43281
-0.23762
-0.07355
0.049505
0.11598
0.11598
0.08628
0.10042
0.087694
0.097595
0.032532
-0.070721
-0.1669
-0.23197
-0.26874
-0.2744
-0.25884
-0.24328
-0.24894
-0.27581
-0.34936
-0.48939
-0.63083
-0.68034
-0.57426
-0.34512
-0.043847
0.23762
0.48091
0.60537
0.63791
0.56436
0.45686
0.33522
0.22207
0.11315
0.014144
-0.096181
-0.21075
-0.32107
-0.39745
-0.4512
-0.46959
-0.46535
-0.43706
-0.40877
-0.4017
-0.43989
-0.51485
-0.66478
-0.82603
-0.87694
-0.7256
-0.43423
-0.042433
0.30269
0.59689
0.79632
0.84866
0.74116
0.56153
0.37199
0.22207
0.1075
0.01273
-0.076379
-0.15417
-0.21924
-0.28006
-0.3338
-0.39887
-0.48515
-0.58699
-0.73126
-0.85149
-0.91513
-0.843
-0.6662
-0.43989
-0.20368
-0.042433
0.15983
0.29986
0.3819
0.36634
0.28289
0.17256
0.057992
-0.03819
-0.10467
-0.13296
-0.15559
-0.17963
-0.20085
-0.23197
-0.2843
-0.35926
-0.48656
-0.62518
-0.71853
-0.7058
-0.59972
-0.40736
-0.24045
-0.11174
0.0070721
0.1768
0.32107
0.4116
0.35785
0.22207
0.077793
-0.024045
-0.084866
-0.14286
-0.21499
-0.30552
-0.37058
-0.40311
-0.43564
-0.45403
-0.49081
-0.44837
-0.35078
-0.20792
-0.067893
-0.018388
0.097595
0.23762
0.40028
0.50212
0.4611
0.34512
0.18812
0.032532
-0.094767
-0.18529
-0.24045
-0.2546
-0.2645
-0.31825
-0.41726
-0.55304
-0.66195
-0.63932
-0.51202
-0.32107
-0.13579
-0.024045
0.02546
-0.0042433
0.033946
0.10608
0.21782
0.25743
0.19236
0.084866
-0.019802
-0.08628
-0.11598
-0.12447
-0.1372
-0.15276
-0.18388
-0.2447
-0.35219
-0.49081
-0.63508
-0.76379
-0.81047
-0.74399
-0.59406
-0.36351
-0.13013
0.070721
0.33522
0.52475
0.64922
0.65629
0.57426
0.44413
0.27723
0.097595
-0.050919
-0.17115
-0.26308
-0.32956
-0.3819
-0.43847
-0.51909
-0.61245
-0.70438
-0.77228
-0.76238
-0.6761
-0.51768
-0.34512
-0.18953
-0.031117
0.20085
0.42008
0.60113
0.63791
0.5488
0.40028
0.22489
0.084866
-0.018388
-0.077793
-0.14003
-0.20509
-0.27157
-0.36634
-0.46252
-0.59406
-0.71711
-0.80622
-0.78218
-0.65629
-0.43564
-0.23479
-0.077793
0.072136
0.25177
0.4314
0.55304
0.5686
0.49081
0.36634
0.23197
0.10184
-0.0084866
-0.097595
-0.18529
-0.25884
-0.30976
-0.34795
-0.38897
-0.44413
-0.52475
-0.64498
-0.7058
-0.6761
-0.54031
-0.32673
-0.15983
-0.0042433
0.19519
0.40311
0.63225
0.71994
0.67044
0.53041
0.35644
0.19519
0.065064
-0.014144
-0.087694
-0.14851
-0.20651
-0.26308
-0.32249
-0.3819
-0.43706
-0.47808
-0.53182
-0.55446
-0.5587
-0.53182
-0.48515
-0.43706
-0.38331
-0.2645
-0.11457
0.10042
0.2744
0.40311
0.3918
0.31117
0.21641
0.14427
0.090523
0.033946
-0.039604
-0.11174
-0.19236
-0.25884
-0.2843
-0.27157
-0.2645
-0.25743
-0.27298
-0.29279
-0.33098
-0.35785
-0.38897
-0.38755
-0.35219
-0.30127
-0.25318
-0.23621
-0.22631
-0.22065
-0.20792
-0.25743
-0.42008
-0.60537
-0.69307
-0.58982
-0.29703
0.042433
0.33098
0.49222
0.5488
0.49929
0.40736
0.26874
0.10184
-0.057992
-0.18105
-0.25743
-0.2942
-0.28147
-0.26167
-0.2546
-0.25884
-0.28571
-0.31117
-0.3239
-0.31259
-0.29703
-0.30127
-0.36634
-0.54455
-0.76379
-0.92362
-0.8727
-0.62801
-0.28289
0.079208
0.36351
0.5389
0.58133
0.53607
0.44554
0.34371
0.22065
0.083451
-0.042433
-0.13154
-0.19519
-0.24045
-0.29279
-0.33805
-0.36775
-0.37907
-0.38331
-0.39321
-0.42716
-0.50778
-0.58699
-0.60255
-0.53182
-0.34229
-0.13013
0.15417
0.44272
0.70156
0.83168
0.76521
0.58557
0.35361
0.1372
-0.041018
-0.19236
-0.30693
-0.39038
-0.42716
-0.41726
-0.3819
-0.34512
-0.32673
-0.36351
-0.4215
-0.49222
-0.54597
-0.53607
-0.49646
-0.41584
-0.32815
-0.23055
-0.083451
0.11033
0.30552
0.42857
0.4413
0.36634
0.24611
0.14003
0.06082
-0.016973
-0.097595
-0.17539
-0.2744
-0.36209
-0.44837
-0.51202
-0.56436
-0.58133
-0.53041
-0.45262
-0.33805
-0.26733
-0.24894
-0.26025
-0.26591
-0.1471
0.02546
0.2447
0.36068
0.34795
0.25884
0.1471
0.056577
-0.018388
-0.10042
-0.17115
-0.24611
-0.35502
-0.46676
-0.64356
-0.84158
-0.98444
-0.96464
-0.78359
-0.50071
-0.24752
-0.063649
0.12588
0.25177
0.38614
0.42291
0.4116
0.35219
0.26874
0.17963
0.10467
0.050919
0.0042433
-0.03819
-0.094767
-0.16407
-0.23904
-0.32815
-0.41867
-0.51909
-0.64639
-0.77652
-0.82603
-0.76238
-0.58557
-0.35644
-0.14144
0.10042
0.30269
0.47525
0.56294
0.57143
0.50495
0.36209
0.20226
0.066478
-0.026874
-0.07355
-0.10042
-0.12306
-0.15134
-0.18388
-0.21641
-0.25035
-0.29279
-0.36209
-0.45969
-0.59547
-0.77228
-0.87836
-0.84724
-0.69024
-0.42716
-0.17256
0.1273
0.34512
0.52192
0.55587
0.51061
0.42433
0.314
0.1867
0.065064
-0.043847
-0.13296
-0.20085
-0.24752
-0.28713
-0.32956
-0.39604
-0.45827
-0.49505
-0.48939
-0.44413
-0.38897
-0.35219
-0.34088
-0.34512
-0.34795
-0.32815
-0.30976
-0.30693
-0.34653
-0.42857
-0.55728
-0.66337
-0.64922
-0.48798
-0.097595
0.31542
0.67327
0.87553
0.86987
0.75106
0.5488
0.3338
0.14993
0.021216
-0.079208
-0.15417
-0.25318
-0.3239
-0.36634
-0.37341
-0.35078
-0.3239
-0.30552
-0.32815
-0.40453
-0.53465
-0.6761
-0.78359
-0.77086
-0.59406
-0.30835
0.052334
0.32956
0.49081
0.54455
0.48515
0.33805
0.17397
0.021216
-0.10325
-0.18105
-0.22207
-0.23762
-0.24894
-0.25743
-0.26308
-0.2645
-0.25743
-0.24187
-0.22914
-0.24045
-0.28147
-0.34371
-0.43423
-0.55021
-0.66054
-0.75813
-0.74965
-0.59972
-0.35785
-0.070721
0.19802
0.4314
0.59264
0.62518
0.56011
0.45262
0.3338
0.20792
0.080622
-0.021216
-0.12023
-0.19378
-0.2546
-0.30127
-0.32673
-0.34229
-0.34795
-0.36068
-0.34653
-0.32673
-0.30127
-0.28571
-0.28996
-0.30269
-0.31259
-0.32249
-0.35926
-0.45827
-0.59689
-0.63083
-0.50212
-0.14144
0.2447
0.58133
0.74257
0.72984
0.61528
0.45403
0.29844
0.19802
0.12588
0.065064
-0.0014144
-0.065064
-0.14993
-0.21924
-0.2744
-0.29986
-0.314
-0.31683
-0.314
-0.30835
-0.29986
-0.314
-0.37199
-0.47666
-0.68034
-0.83734
-0.81612
-0.50354
0.019802
0.53607
0.8628
0.92928
0.83593
0.64922
0.44413
0.26591
0.13296
0.026874
-0.055163
-0.1273
-0.19802
-0.2546
-0.31117
-0.36492
-0.42291
-0.45827
-0.47949
-0.49222
-0.50495
-0.51485
-0.51061
-0.50212
-0.46959
-0.42433
-0.35219
-0.27157
-0.22631
-0.24894
-0.31683
-0.33805
-0.20226
0.10325
0.46393
0.72702
0.77228
0.67468
0.51061
0.33946
0.18105
0.035361
-0.066478
-0.14993
-0.22207
-0.28854
-0.34795
-0.39745
-0.45403
-0.46818
-0.44837
-0.36209
-0.25884
-0.17539
-0.16124
-0.20792
-0.27016
-0.34512
-0.44696
-0.54314
-0.58982
-0.56011
-0.43706
-0.21075
0.093352
0.42291
0.66337
0.7256
0.63791
0.49081
0.33239
0.19236
0.084866
-0.0028289
-0.077793
-0.17256
-0.26025
-0.31966
-0.34795
-0.32815
-0.28289
-0.24894
-0.24752
-0.27298
-0.31966
-0.36351
-0.38614
-0.41867
-0.46818
-0.56577
-0.65205
-0.6662
-0.50495
-0.20509
0.21216
0.53041
0.73267
0.72984
0.60255
0.42574
0.25743
0.10608
-0.039604
-0.15559
-0.23479
-0.27016
-0.2744
-0.26308
-0.2447
-0.23197
-0.23055
-0.23621
-0.25601
-0.2942
-0.34512
-0.4017
-0.47949
-0.59547
-0.69873
-0.69024
-0.57143
-0.38331
-0.17963
0.070721
0.30127
0.49646
0.52051
0.4314
0.29986
0.17963
0.074965
-0.0056577
-0.09901
-0.17115
-0.25601
-0.33522
-0.39887
-0.45403
-0.48939
-0.51627
-0.53182
-0.54314
-0.55587
-0.55587
-0.56719
-0.58699
-0.5587
-0.48798
-0.37907
-0.20226
0.0042433
0.25177
0.44272
0.50778
0.42857
0.26591
0.10042
-0.02546
-0.1273
-0.20509
-0.26025
-0.30127
-0.33522
-0.36492
-0.38472
-0.40453
-0.41443
-0.42008
-0.40594
-0.37341
-0.3338
-0.29279
-0.24894
-0.19519
-0.12306
-0.057992
-0.011315
0.0042433
0.018388
0.0028289
-0.042433
-0.094767
-0.18953
-0.3239
-0.47525
-0.48373
-0.33946
-0.049505
0.2447
0.3918
0.4413
0.39887
0.31117
0.21924
0.14569
0.090523
0.045262
0.0084866
-0.02546
-0.049505
-0.094767
-0.14569
-0.20226
-0.25035
-0.28006
-0.2843
-0.27298
-0.25601
-0.22631
-0.19802
-0.1867
-0.20509
-0.23904
-0.28147
-0.31259
-0.31683
-0.35502
-0.38897
-0.39604
-0.32815
-0.18953
-0.028289
0.1471
0.27298
0.34653
0.36492
0.33239
0.30976
0.24187
0.16973
0.082037
0.0070721
-0.062235
-0.10891
-0.14003
-0.14286
-0.1174
-0.082037
-0.067893
-0.062235
-0.069307
-0.082037
-0.11174
-0.15842
-0.20509
-0.26874
-0.32532
-0.40736
-0.51909
-0.6662
-0.81188
-0.843
-0.72702
-0.471
-0.080622
0.27157
0.55728
0.71287
0.69448
0.56153
0.37482
0.18953
0.03819
-0.048091
-0.069307
-0.093352
-0.13154
-0.20085
-0.28147
-0.3338
-0.34653
-0.3239
-0.28996
-0.27298
-0.2645
-0.25601
-0.25035
-0.24328
-0.22489
-0.19519
-0.16124
-0.1273
-0.10891
-0.11315
-0.16832
-0.30693
-0.58982
-0.86987
-0.9024
-0.65347
-0.18812
0.26874
0.55021
0.63508
0.62801
0.52051
0.41301
0.33239
0.26591
0.20934
0.13579
0.039604
-0.056577
-0.15276
-0.22914
-0.28854
-0.33098
-0.37341
-0.40877
-0.44837
-0.48091
-0.50919
-0.52475
-0.53324
-0.529
-0.50212
-0.46676
-0.43989
-0.4512
-0.5389
-0.66054
-0.66902
-0.53607
-0.24611
0.13154
0.37624
0.58274
0.59406
0.49364
0.33663
0.18246
0.041018
-0.094767
-0.18812
-0.25743
-0.30976
-0.34512
-0.34936
-0.33522
-0.314
-0.29703
-0.29137
-0.29986
-0.31966
-0.36775
-0.4413
-0.50919
-0.54031
-0.5686
-0.5389
-0.48515
-0.34653
-0.069307
0.23904
0.56294
0.77793
0.80905
0.72277
0.58274
0.42716
0.2744
0.11033
-0.043847
-0.17539
-0.28006
-0.35219
-0.41726
-0.44837
-0.45827
-0.4413
-0.41867
-0.38755
-0.35502
-0.33946
-0.34653
-0.36068
-0.35785
-0.34088
-0.31117
-0.27298
-0.24045
-0.21216
-0.12871
-0.01273
0.12588
0.2546
0.314
0.31542
0.26025
0.17397
0.065064
-0.03819
-0.12588
-0.19236
-0.22914
-0.25177
-0.25743
-0.27723
-0.30693
-0.33098
-0.34229
-0.3338
-0.31825
-0.28713
-0.24894
-0.19802
-0.15276
-0.089109
-0.019802
0.043847
0.079208
0.083451
0.083451
0.076379
0.049505
-0.042433
-0.24328
-0.50636
-0.6959
-0.74682
-0.53465
-0.14427
0.25601
0.58416
0.66761
0.59689
0.46818
0.35502
0.26167
0.1768
0.094767
0.03819
-0.0028289
-0.035361
-0.069307
-0.10608
-0.14427
-0.19236
-0.23762
-0.2843
-0.32815
-0.36209
-0.39038
-0.40453
-0.40311
-0.3819
-0.36351
-0.34512
-0.33098
-0.33098
-0.34512
-0.35926
-0.37199
-0.36068
-0.33098
-0.28571
-0.22489
-0.20509
-0.30835
-0.55446
-0.65488
-0.49788
-0.11598
0.34795
0.54173
0.58274
0.51909
0.45262
0.37199
0.30693
0.24187
0.17539
0.090523
-0.0014144
-0.096181
-0.19661
-0.27864
-0.35219
-0.3918
-0.4116
-0.3819
-0.35219
-0.314
-0.28147
-0.27016
-0.26733
-0.25743
-0.25601
-0.2843
-0.35219
-0.40594
-0.46535
-0.43989
-0.28006
-0.01273
0.31683
0.54455
0.55021
0.43706
0.26025
0.10184
-0.0056577
-0.096181
-0.15134
-0.18529
-0.21782
-0.24752
-0.26874
-0.28571
-0.28854
-0.28854
-0.28147
-0.28571
-0.28996
-0.29137
-0.28996
-0.28006
-0.26167
-0.2546
-0.24611
-0.25318
-0.30976
-0.37482
-0.40453
-0.35926
-0.24894
-0.12023
0.009901
0.093352
0.16973
0.13154
0.10467
0.070721
0.070721
0.06082
0.02546
-0.033946
-0.11457
-0.18529
-0.23762
-0.2645
-0.2744
-0.27581
-0.28289
-0.28571
-0.28854
-0.27157
-0.2546
-0.24045
-0.24752
-0.28006
-0.32815
-0.37058
-0.41443
-0.44272
-0.45403
-0.42008
-0.35926
-0.29279
-0.24894
-0.28289
-0.2942
-0.21358
0.059406
0.39604
0.68317
0.74965
0.6959
0.5587
0.40311
0.24328
0.097595
-0.018388
-0.096181
-0.15276
-0.19802
-0.21358
-0.23055
-0.22772
-0.23762
-0.22772
-0.23055
-0.23762
-0.24894
-0.2645
-0.28713
-0.32107
-0.34936
-0.35644
-0.35361
-0.34371
-0.314
-0.30127
-0.27157
-0.26591
-0.2447
-0.15276
-0.01273
0.13579
0.23904
0.23904
0.22631
0.16124
0.089109
-0.011315
-0.1075
-0.18105
-0.23762
-0.28571
-0.34512
-0.40453
-0.43989
-0.4512
-0.4314
-0.39887
-0.36068
-0.3239
-0.26874
-0.20651
-0.14993
-0.097595
-0.055163
-0.01273
0.022631
0.018388
-0.07355
-0.24894
-0.4116
-0.48515
-0.42291
-0.23338
-0.031117
0.157
0.31259
0.37624
0.42999
0.43564
0.41584
0.34653
0.25884
0.157
0.057992
-0.016973
-0.07355
-0.12164
-0.17397
-0.22207
-0.28006
-0.32815
-0.35785
-0.38048
-0.40311
-0.42574
-0.43847
-0.42857
-0.40594
-0.38755
-0.41301
-0.49929
-0.62942
-0.76379
-0.84158
-0.73409
-0.42291
0.045262
0.45969
0.68175
0.66761
0.57284
0.44413
0.34653
0.25177
0.12447
-0.0014144
-0.12447
-0.22914
-0.30976
-0.35785
-0.38897
-0.39745
-0.39321
-0.37765
-0.36775
-0.36775
-0.37199
-0.36068
-0.34512
-0.31825
-0.30552
-0.30127
-0.30269
-0.30269
-0.28289
-0.24752
-0.18388
-0.1471
-0.17256
-0.22207
-0.23479
-0.19519
-0.056577
0.087694
0.2744
0.35502
0.3819
0.28006
0.17115
0.046676
-0.052334
-0.11881
-0.1669
-0.19095
-0.20085
-0.21216
-0.21924
-0.20792
-0.18953
-0.15983
-0.13154
-0.10467
-0.074965
-0.048091
-0.043847
-0.062235
-0.09901
-0.14003
-0.17822
-0.21924
-0.27016
-0.32815
-0.33805
-0.32107
-0.28996
-0.22489
-0.14144
0.072136
0.28996
0.49081
0.5488
0.50071
0.38472
0.26308
0.157
0.072136
0.0070721
-0.045262
-0.087694
-0.11881
-0.15842
-0.19378
-0.23904
-0.25884
-0.2744
-0.26591
-0.27298
-0.30269
-0.3338
-0.35219
-0.35219
-0.34088
-0.30835
-0.27864
-0.28713
-0.32673
-0.39321
-0.42857
-0.43564
-0.40311
-0.35502
-0.30552
-0.24752
-0.19661
-0.14851
-0.11033
-0.083451
-0.070721
-0.091938
-0.18953
-0.42999
-0.60679
-0.54031
-0.23479
0.19943
0.45686
0.50212
0.44272
0.33239
0.21924
0.13437
0.077793
0.039604
0.019802
0.011315
-0.01273
-0.048091
-0.10042
-0.14144
-0.1768
-0.20226
-0.22348
-0.25318
-0.2744
-0.28713
-0.27581
-0.26308
-0.24894
-0.22348
-0.21075
-0.22065
-0.26591
-0.34512
-0.43423
-0.50636
-0.54455
-0.54314
-0.42574
-0.29562
-0.11315
0.077793
0.32107
0.52051
0.62801
0.57567
0.44272
0.28713
0.16407
0.057992
-0.033946
-0.11174
-0.18953
-0.25318
-0.314
-0.35078
-0.35926
-0.35361
-0.34512
-0.33522
-0.32532
-0.30976
-0.31259
-0.314
-0.32956
-0.3338
-0.31966
-0.3041
-0.28713
-0.29844
-0.31542
-0.31683
-0.32956
-0.34936
-0.37341
-0.36775
-0.30835
-0.19943
-0.074965
0.019802
0.026874
-0.12447
-0.43423
-0.68883
-0.68317
-0.38614
0.022631
0.37058
0.48373
0.50354
0.43989
0.36351
0.27016
0.1768
0.082037
0.021216
-0.022631
-0.041018
-0.062235
-0.087694
-0.12588
-0.16407
-0.17963
-0.19519
-0.19378
-0.20226
-0.21499
-0.22065
-0.22207
-0.22065
-0.22631
-0.26167
-0.31259
-0.35644
-0.39604
-0.3819
-0.38614
-0.4116
-0.48091
-0.55587
-0.61669
-0.55021
-0.30552
0.015559
0.35361
0.60962
0.67468
0.63366
0.49646
0.31966
0.157
0.019802
-0.077793
-0.12588
-0.15276
-0.16973
-0.18246
-0.22207
-0.27016
-0.32532
-0.34936
-0.34936
-0.32956
-0.2942
-0.26167
-0.24611
-0.24894
-0.27723
-0.32532
-0.36917
-0.40028
-0.40594
-0.38897
-0.33663
-0.28147
-0.26167
-0.2942
-0.37341
-0.4512
-0.52051
-0.49929
-0.37907
-0.20934
0.018388
0.19095
0.31259
0.41443
0.4314
0.4215
0.36351
0.30127
0.22065
0.12023
-0.0042433
-0.12447
-0.21358
-0.26874
-0.29137
-0.28854
-0.26874
-0.22631
-0.19661
-0.20226
-0.24752
-0.31542
-0.35785
-0.36492
-0.33239
-0.28006
-0.25318
-0.24894
-0.29137
-0.37341
-0.48091
-0.60679
-0.61386
-0.5587
-0.44979
-0.25601
-0.026874
0.28854
0.57426
0.71994
0.7058
0.5785
0.37482
0.16832
-0.016973
-0.13013
-0.19519
-0.21216
-0.20509
-0.18812
-0.18529
-0.20934
-0.25177
-0.29703
-0.32107
-0.32249
-0.3041
-0.27723
-0.26167
-0.24894
-0.2447
-0.23904
-0.23055
-0.23762
-0.27016
-0.35078
-0.41726
-0.44979
-0.41867
-0.38048
-0.30693
-0.26874
-0.21216
-0.157
-0.084866
0.021216
0.12023
0.13861
0.10184
0.015559
-0.046676
-0.07355
-0.069307
-0.062235
-0.056577
-0.053748
-0.056577
-0.080622
-0.096181
-0.12306
-0.14286
-0.14427
-0.14144
-0.13437
-0.14427
-0.15842
-0.17539
-0.18529
-0.17115
-0.14851
-0.14569
-0.16266
-0.20226
-0.23904
-0.25035
-0.21782
-0.14003
-0.057992
0.011315
0.055163
0.059406
0.009901
-0.11033
-0.29986
-0.50636
-0.54597
-0.35361
0.0014144
0.39463
0.62093
0.66337
0.64639
0.57284
0.52475
0.48515
0.43706
0.38048
0.29562
0.18812
0.043847
-0.11315
-0.2546
-0.34512
-0.34936
-0.30127
-0.24045
-0.18529
-0.14993
-0.13437
-0.13296
-0.13861
-0.15842
-0.19802
-0.25743
-0.36068
-0.48656
-0.62093
-0.74682
-0.74399
-0.60962
-0.30835
0.039604
0.37482
0.57709
0.61103
0.54738
0.37482
0.19236
0.032532
-0.11457
-0.23762
-0.31966
-0.34936
-0.33946
-0.31117
-0.29562
-0.2942
-0.29279
-0.2843
-0.28996
-0.28571
-0.27864
-0.26167
-0.23762
-0.24045
-0.2645
-0.32673
-0.38614
-0.43423
-0.46393
-0.49081
-0.51627
-0.50919
-0.48091
-0.41443
-0.41018
-0.39745
-0.33946
-0.13296
0.12306
0.34795
0.4413
0.45545
0.40311
0.32673
0.24045
0.14144
0.018388
-0.10467
-0.21641
-0.26025
-0.24611
-0.20792
-0.18388
-0.18529
-0.20368
-0.22348
-0.23621
-0.25035
-0.24894
-0.24611
-0.2447
-0.27016
-0.314
-0.36351
-0.39321
-0.38614
-0.36351
-0.34795
-0.36209
-0.39038
-0.43281
-0.45545
-0.48091
-0.51768
-0.55021
-0.50636
-0.29986
-0.0014144
0.32249
0.52051
0.58274
0.55446
0.45969
0.35078
0.23762
0.12447
0.024045
-0.06082
-0.1273
-0.15983
-0.17822
-0.19661
-0.22348
-0.25601
-0.27723
-0.28713
-0.28289
-0.28006
-0.2843
-0.2843
-0.29562
-0.29137
-0.29562
-0.27864
-0.24894
-0.21499
-0.18529
-0.17256
-0.157
-0.16407
-0.17822
-0.23055
-0.32815
-0.41301
-0.41018
-0.30269
-0.11457
0.097595
0.23338
0.33522
0.31966
0.30552
0.26308
0.23055
0.18105
0.10608
0.019802
-0.06082
-0.12164
-0.17822
-0.23621
-0.27581
-0.29844
-0.28854
-0.27723
-0.25318
-0.22348
-0.20368
-0.16973
-0.14144
-0.1273
-0.11881
-0.12023
-0.14569
-0.18953
-0.23904
-0.26733
-0.27016
-0.26874
-0.29986
-0.39604
-0.51344
-0.63083
-0.65488
-0.5884
-0.48939
-0.34088
-0.17539
0.066478
0.36634
0.53041
0.62942
0.60255
0.52334
0.42574
0.314
0.20085
0.10184
0.0028289
-0.090523
-0.15983
-0.22772
-0.28996
-0.33098
-0.35644
-0.35219
-0.32673
-0.29703
-0.27157
-0.26025
-0.26308
-0.28996
-0.33663
-0.37765
-0.40453
-0.39604
-0.35926
-0.29986
-0.23762
-0.20651
-0.19661
-0.20651
-0.22914
-0.34229
-0.50071
-0.5983
-0.54738
-0.2546
0.10042
0.44696
0.70156
0.73975
0.68883
0.54173
0.38331
0.23621
0.091938
-0.022631
-0.11315
-0.17256
-0.20792
-0.22772
-0.24328
-0.26167
-0.2645
-0.24894
-0.25884
-0.29137
-0.34512
-0.35361
-0.33805
-0.28996
-0.25318
-0.23904
-0.24045
-0.22914
-0.21075
-0.18812
-0.16266
-0.14286
-0.13861
-0.15559
-0.20792
-0.29562
-0.39887
-0.50778
-0.59972
-0.52334
-0.35361
-0.07355
0.15276
0.28996
0.37341
0.40877
0.38048
0.30835
0.24894
0.19802
0.14851
0.10184
0.057992
0.014144
-0.016973
-0.049505
-0.076379
-0.09901
-0.1174
-0.12447
-0.12447
-0.1174
-0.096181
-0.08628
-0.10608
-0.13861
-0.20368
-0.28006
-0.35078
-0.40736
-0.4314
-0.41443
-0.38331
-0.33663
-0.31117
-0.29986
-0.30269
-0.31966
-0.3338
-0.33098
-0.30552
-0.26308
-0.20509
-0.13861
-0.046676
0.12588
0.31966
0.49929
0.56436
0.55728
0.48798
0.3918
0.28006
0.19378
0.12871
0.087694
0.056577
0.026874
-0.0056577
-0.063649
-0.13013
-0.20651
-0.2645
-0.29562
-0.30835
-0.31825
-0.33522
-0.35361
-0.36775
-0.38048
-0.38048
-0.36775
-0.34653
-0.32107
-0.28713
-0.25177
-0.2447
-0.27723
-0.36492
-0.51485
-0.66195
-0.74399
-0.67893
-0.48091
-0.22631
0.050919
0.26591
0.39463
0.45827
0.40311
0.29562
0.16973
0.055163
-0.039604
-0.10184
-0.14144
-0.15559
-0.15276
-0.15559
-0.16407
-0.17963
-0.20792
-0.23338
-0.25601
-0.27723
-0.28854
-0.29844
-0.314
-0.32107
-0.3338
-0.32815
-0.30976
-0.3041
-0.30693
-0.33098
-0.34653
-0.34088
-0.3338
-0.33098
-0.3338
-0.32815
-0.28713
