0.11547
0.094688
-0.030023
-0.23557
-0.39723
-0.50346
-0.53349
-0.50808
-0.43649
-0.33487
-0.21247
-0.13857
-0.12009
-0.12009
-0.1709
-0.20785
-0.15935
0.0023095
0.26559
0.50577
0.6097
0.57275
0.45727
0.2933
0.14319
0.08545
0.069284
0.083141
0.0023095
-0.18245
-0.34642
-0.46882
-0.52194
-0.53118
-0.47806
-0.38106
-0.2679
-0.16628
-0.096998
-0.08776
-0.12933
-0.16859
-0.18476
-0.078522
0.15242
0.40647
0.58661
0.60739
0.50577
0.36028
0.18476
0.073903
0.057737
0.083141
0.076212
-0.094688
-0.30947
-0.50115
-0.59122
-0.62125
-0.60508
-0.52887
-0.39954
-0.27945
-0.18476
-0.12933
-0.13626
-0.15704
-0.19169
-0.12702
0.039261
0.25866
0.45497
0.51039
0.4642
0.33949
0.1709
0.069284
0.013857
0.048499
0.030023
0.030023
-0.096998
-0.28637
-0.44342
-0.5358
-0.54734
-0.5127
-0.44342
-0.34642
-0.25635
-0.20092
-0.17783
-0.20323
-0.24711
-0.28406
-0.22864
-0.055427
0.18938
0.41801
0.50346
0.46882
0.34642
0.20092
0.064665
0.039261
0.030023
0.036952
-0.094688
-0.27945
-0.4642
-0.56813
-0.61201
-0.58199
-0.52194
-0.42494
-0.32794
-0.2448
-0.18707
-0.15935
-0.17783
-0.20785
-0.18938
-0.034642
0.18938
0.42494
0.55889
0.54503
0.45727
0.33256
0.18245
0.08545
0.062356
0.060046
0.0046189
-0.17321
-0.3649
-0.53811
-0.59353
-0.62125
-0.57506
-0.47344
-0.35797
-0.25635
-0.20785
-0.21478
-0.21016
-0.14319
0.023095
0.26097
0.45958
0.54042
0.46882
0.36028
0.24942
0.1455
0.048499
0.039261
0.04157
0.013857
-0.11547
-0.31871
-0.47575
-0.57044
-0.55889
-0.53118
-0.43649
-0.32333
-0.19861
-0.08776
-0.04388
-0.027714
-0.066975
-0.096998
-0.060046
0.08545
0.31178
0.52887
0.62587
0.59584
0.46189
0.28176
0.18014
0.11316
0.14781
0.11547
-0.013857
-0.21478
-0.39954
-0.48961
-0.54273
-0.52656
-0.46189
-0.36721
-0.26328
-0.18707
-0.17321
-0.18707
-0.15704
-0.057737
0.14781
0.33487
0.46651
0.47344
0.38337
0.27252
0.15473
0.013857
-0.036952
-0.025404
-0.046189
-0.099307
-0.2933
-0.49192
-0.61432
-0.65589
-0.63279
-0.54965
-0.44573
-0.32564
-0.21016
-0.14088
-0.11547
-0.13857
-0.16166
-0.16397
-0.053118
0.16166
0.39723
0.56351
0.57968
0.51732
0.40185
0.27714
0.14319
0.10162
0.069284
0.034642
-0.13626
-0.36952
-0.55196
-0.64665
-0.69053
-0.63972
-0.56582
-0.45497
-0.36259
-0.29561
-0.27252
-0.27483
-0.26328
-0.17783
0.030023
0.27252
0.46651
0.52194
0.43418
0.31871
0.19861
0.10855
0.025404
0.013857
-0.0069284
-0.08776
-0.23326
-0.47344
-0.63048
-0.70439
-0.67436
-0.60277
-0.49192
-0.3903
-0.30254
-0.24711
-0.20785
-0.20785
-0.21478
-0.18476
-0.036952
0.18938
0.41339
0.53349
0.51501
0.42494
0.31178
0.21247
0.092379
0.064665
0.016166
-0.04388
-0.1963
-0.4388
-0.62125
-0.71824
-0.73441
-0.66051
-0.5612
-0.4642
-0.35335
-0.27252
-0.22402
-0.20785
-0.1963
-0.16166
-0.032333
0.21247
0.45266
0.63279
0.63048
0.55658
0.44804
0.3418
0.23788
0.17321
0.15242
0.094688
-0.020785
-0.26559
-0.50346
-0.63048
-0.66975
-0.59353
-0.50346
-0.40878
-0.33949
-0.26328
-0.194
-0.13857
-0.1224
-0.10162
-0.0046189
0.20785
0.44573
0.63048
0.66975
0.59122
0.47344
0.34873
0.24018
0.13164
0.10624
0.078522
-0.0092379
-0.20785
-0.46882
-0.6582
-0.74596
-0.72517
-0.63279
-0.5358
-0.43649
-0.36721
-0.30947
-0.26097
-0.2448
-0.22402
-0.13395
0.062356
0.32564
0.55196
0.63972
0.59122
0.49423
0.38106
0.29792
0.19169
0.16859
0.11778
0.048499
-0.13395
-0.39261
-0.57968
-0.67667
-0.6582
-0.57968
-0.47344
-0.37182
-0.2933
-0.2194
-0.17783
-0.15704
-0.1709
-0.10855
0.030023
0.27252
0.51039
0.64896
0.62818
0.53349
0.42032
0.31871
0.20554
0.16859
0.15242
0.096998
-0.057737
-0.29561
-0.51732
-0.63048
-0.65127
-0.57044
-0.46882
-0.38337
-0.3418
-0.32564
-0.31871
-0.33025
-0.35104
-0.32794
-0.194
0.060046
0.36259
0.5612
0.60508
0.50115
0.28406
0.1709
0.04157
-0.036952
-0.20092
-0.36721
-0.49423
-0.54503
-0.54503
-0.49654
-0.41109
-0.30485
-0.18938
-0.092379
-0.025404
0.0046189
-0.018476
-0.060046
-0.099307
-0.048499
0.10393
0.30947
0.48499
0.53811
0.51963
0.42494
0.36259
0.30023
0.30485
0.26559
0.15704
-0.027714
-0.24249
-0.39954
-0.47113
-0.4873
-0.44342
-0.35797
-0.27714
-0.1963
-0.15012
-0.13626
-0.16859
-0.19169
-0.20323
-0.12471
0.036952
0.28637
0.48961
0.55889
0.52656
0.45497
0.37413
0.27945
0.18707
0.16397
0.11316
0.0069284
-0.22171
-0.4873
-0.6582
-0.71594
-0.68822
-0.58891
-0.49423
-0.40185
-0.33718
-0.26559
-0.21247
-0.19169
-0.19169
-0.1224
0.055427
0.30485
0.5358
0.61432
0.5843
0.49885
0.41109
0.3164
0.20785
0.1709
0.14319
0.064665
-0.12702
-0.39261
-0.60277
-0.69053
-0.66744
-0.57968
-0.4873
-0.39261
-0.30716
-0.2194
-0.16397
-0.15935
-0.16397
-0.14088
-0.027714
0.19861
0.41801
0.54734
0.5612
0.52425
0.43649
0.36028
0.24018
0.18245
0.14781
0.078522
-0.071594
-0.3418
-0.54503
-0.65127
-0.65358
-0.57044
-0.45497
-0.32794
-0.23557
-0.16859
-0.12702
-0.071594
0.057737
0.24249
0.41339
0.48961
0.45958
0.40416
0.35104
0.30023
0.20323
0.11316
0.092379
0.039261
-0.050808
-0.24249
-0.47575
-0.62587
-0.68129
-0.65127
-0.54734
-0.4157
-0.28176
-0.15935
-0.055427
0.013857
0.011547
-0.025404
-0.076212
-0.027714
0.11778
0.29792
0.45958
0.51501
0.51039
0.44342
0.33025
0.20554
0.15935
0.14781
0.10855
-0.064665
-0.27714
-0.44573
-0.53349
-0.52656
-0.45958
-0.35797
-0.24711
-0.16628
-0.14088
-0.15012
-0.16397
-0.11547
0.039261
0.27483
0.48037
0.58199
0.54273
0.4388
0.33949
0.25635
0.18476
0.1224
0.13857
0.090069
-0.032333
-0.2679
-0.50346
-0.63741
-0.66975
-0.60277
-0.50577
-0.38106
-0.24942
-0.11547
-0.034642
0.0069284
-0.04388
-0.076212
-0.057737
0.069284
0.25866
0.43649
0.50115
0.5127
0.48037
0.42725
0.32564
0.194
0.14781
0.078522
-0.020785
-0.23557
-0.49423
-0.66282
-0.72748
-0.67898
-0.58891
-0.47806
-0.37413
-0.27021
-0.19169
-0.15242
-0.13626
-0.14088
-0.11547
-0.016166
0.18245
0.37875
0.49192
0.50808
0.48037
0.40878
0.33025
0.18476
0.10855
0.062356
-0.0023095
-0.16166
-0.42494
-0.64896
-0.76443
-0.76212
-0.67667
-0.56582
-0.45958
-0.37182
-0.27945
-0.21016
-0.18707
-0.18938
-0.19169
-0.1224
0.046189
0.2679
0.44804
0.48961
0.45497
0.37644
0.29792
0.21016
0.11085
0.083141
0.032333
-0.069284
-0.27714
-0.52887
-0.67436
-0.71132
-0.65127
-0.54503
-0.44111
-0.33487
-0.25173
-0.18938
-0.16397
-0.13857
-0.14781
-0.099307
0.016166
0.22864
0.45497
0.58661
0.59584
0.54734
0.44573
0.36028
0.22864
0.16859
0.15473
0.094688
-0.069284
-0.33949
-0.55658
-0.66744
-0.66051
-0.58661
-0.48961
-0.39261
-0.29561
-0.22633
-0.18245
-0.15935
-0.15012
-0.12933
-0.046189
0.13857
0.36259
0.55196
0.60508
0.57968
0.49654
0.39492
0.28406
0.18014
0.14319
0.11085
0.0092379
-0.20323
-0.47575
-0.64203
-0.70208
-0.66051
-0.56351
-0.46651
-0.38337
-0.31409
-0.26328
-0.22402
-0.20785
-0.15704
-0.0046189
0.21478
0.40647
0.4642
0.43187
0.37182
0.30254
0.24942
0.15242
0.11316
0.10393
0.050808
-0.099307
-0.36721
-0.58199
-0.69977
-0.69746
-0.60739
-0.47575
-0.36952
-0.26097
-0.20092
-0.15935
-0.15012
-0.12702
-0.04157
0.13857
0.36721
0.55196
0.58891
0.50808
0.40185
0.29099
0.21247
0.1224
0.092379
0.064665
-0.011547
-0.16628
-0.41339
-0.59122
-0.67667
-0.66282
-0.57044
-0.45497
-0.33949
-0.23788
-0.17783
-0.12933
-0.13626
-0.1455
-0.1709
-0.11316
0.027714
0.25173
0.46882
0.58199
0.58661
0.53349
0.42725
0.32333
0.18245
0.16397
0.13395
0.060046
-0.13164
-0.40878
-0.59353
-0.68591
-0.66051
-0.57275
-0.46651
-0.36259
-0.27252
-0.20554
-0.15242
-0.12009
-0.10162
-0.034642
0.080831
0.2448
0.37875
0.40647
0.34642
0.18476
0.11316
-0.025404
-0.10162
-0.27714
-0.43418
-0.54965
-0.59584
-0.56813
-0.50577
-0.39723
-0.28176
-0.1709
-0.057737
0.025404
0.071594
0.071594
0.020785
-0.053118
-0.10393
-0.092379
0
0.18476
0.36028
0.4642
0.48961
0.44804
0.37644
0.31178
0.24711
0.18476
0.099307
-0.046189
-0.21709
-0.37875
-0.45266
-0.49192
-0.4642
-0.39492
-0.32102
-0.19861
-0.12702
-0.078522
-0.094688
-0.11547
-0.08545
0.046189
0.22171
0.35566
0.39723
0.36952
0.35566
0.3164
0.24942
0.1224
0.1224
0.055427
-0.013857
-0.21709
-0.45958
-0.62356
-0.67898
-0.65127
-0.56813
-0.45266
-0.33949
-0.20323
-0.094688
-0.013857
0.011547
-0.0046189
-0.048499
-0.062356
0.011547
0.16166
0.37875
0.54734
0.60046
0.56813
0.48499
0.37875
0.25404
0.14781
0.1224
0.10393
0.0023095
-0.2194
-0.50115
-0.68591
-0.73672
-0.68129
-0.57044
-0.47113
-0.36259
-0.28637
-0.21016
-0.18476
-0.16166
-0.14088
-0.069284
0.039261
0.20092
0.36028
0.42725
0.42263
0.33487
0.1963
0.1224
0.020785
-0.094688
-0.28176
-0.45035
-0.57044
-0.60046
-0.55427
-0.46882
-0.36259
-0.23788
-0.13164
-0.055427
-0.018476
-0.018476
-0.069284
-0.13857
-0.17552
-0.080831
0.10624
0.31871
0.44111
0.38106
0.30023
0.20554
0.15704
0.064665
-0.083141
-0.20785
-0.2933
-0.33487
-0.31409
-0.26097
-0.16628
-0.053118
0.04388
0.13164
0.194
0.20323
0.18014
0.11085
0.046189
-0.016166
-0.064665
-0.053118
0.053118
0.23326
0.38568
0.48961
0.57275
0.55658
0.5358
0.43649
0.2933
0.1709
0.0046189
-0.13626
-0.31178
-0.42725
-0.49423
-0.51039
-0.46882
-0.38106
-0.27252
-0.17783
-0.11778
-0.078522
-0.066975
-0.039261
0.055427
0.21016
0.35566
0.44342
0.44804
0.43187
0.37875
0.35104
0.23788
0.1709
0.13626
0.090069
-0.013857
-0.23557
-0.47575
-0.64434
-0.6836
-0.6351
-0.52887
-0.42725
-0.3164
-0.21478
-0.12009
-0.062356
-0.030023
-0.04157
-0.078522
-0.10855
-0.069284
0.066975
0.29561
0.50115
0.58199
0.56813
0.50115
0.40878
0.30254
0.15242
0.12702
0.080831
-0.0069284
-0.21016
-0.49192
-0.67436
-0.75982
-0.69515
-0.61894
-0.4873
-0.40878
-0.30716
-0.22633
-0.15935
-0.13857
-0.13395
-0.12933
-0.078522
0.071594
0.28637
0.49192
0.61663
0.59353
0.49885
0.37182
0.27483
0.17552
0.12702
0.14088
0.08545
-0.053118
-0.29561
-0.52194
-0.66975
-0.67206
-0.59353
-0.48499
-0.38568
-0.30947
-0.25404
-0.20092
-0.16397
-0.15012
-0.14319
-0.08776
0.039261
0.25635
0.47806
0.62356
0.62125
0.52887
0.40185
0.27021
0.16628
0.060046
0.083141
0.04388
-0.04388
-0.28406
-0.55658
-0.73672
-0.79677
-0.73903
-0.63972
-0.52194
-0.42956
-0.36721
-0.30023
-0.25635
-0.22864
-0.23095
-0.20092
-0.11316
0.083141
0.30254
0.49654
0.55658
0.4873
0.38337
0.23788
0.13164
0.039261
0.016166
0.025404
-0.011547
-0.1709
-0.42725
-0.6351
-0.74134
-0.71363
-0.61432
-0.49192
-0.39261
-0.33025
-0.26559
-0.21016
-0.15242
-0.10393
-0.013857
0.080831
0.1455
0.15704
0.11547
0.053118
-0.025404
-0.04388
-0.1455
-0.21247
-0.33949
-0.4873
-0.56813
-0.59584
-0.56813
-0.49885
-0.39723
-0.28176
-0.17321
-0.073903
-0.046189
-0.080831
-0.17552
-0.25404
-0.22633
-0.071594
0.11316
0.22864
0.21478
0.18476
0.12471
0.092379
0.0092379
-0.15935
-0.2679
-0.33256
-0.33949
-0.28176
-0.24249
-0.18476
-0.11778
-0.050808
0.013857
0.08545
0.11547
0.10624
0.025404
-0.10855
-0.17783
-0.15242
-0.0092379
0.15242
0.25404
0.3164
0.31871
0.27483
0.14781
-0.030023
-0.18245
-0.28406
-0.31871
-0.31409
-0.27714
-0.22402
-0.17321
-0.092379
-0.032333
0.04157
0.083141
0.099307
0.071594
-0.0092379
-0.14088
-0.30716
-0.45958
-0.5127
-0.3903
-0.12933
0.18245
0.44573
0.54734
0.52425
0.34873
0.13395
-0.090069
-0.2933
-0.40647
-0.49192
-0.4873
-0.44804
-0.37875
-0.28406
-0.20785
-0.13164
-0.0069284
0.071594
0.13857
0.12933
0.030023
-0.062356
-0.13857
-0.1224
-0.020785
0.20554
0.43187
0.59584
0.62356
0.58199
0.52194
0.43418
0.34411
0.29099
0.24942
0.21016
0.092379
-0.11316
-0.35797
-0.51501
-0.61894
-0.59353
-0.5358
-0.44111
-0.34411
-0.24711
-0.17552
-0.11316
-0.094688
-0.076212
-0.0092379
0.078522
0.18707
0.27945
0.31871
0.30254
0.24711
0.15704
0.053118
-0.027714
-0.16397
-0.29792
-0.47806
-0.63279
-0.69746
-0.68591
-0.58891
-0.46189
-0.37875
-0.33487
-0.32564
-0.30254
-0.27021
-0.21709
-0.1455
-0.030023
0.11778
0.22633
0.2679
0.20323
0.062356
-0.030023
-0.090069
-0.12933
-0.19169
-0.28637
-0.38568
-0.44111
-0.44573
-0.40185
-0.32333
-0.21478
-0.10624
0.0023095
0.10162
0.16166
0.18476
0.18476
0.11547
0.055427
0.013857
0.016166
0.11085
0.22402
0.27252
0.26559
0.24249
0.21247
0.18245
0.062356
-0.14319
-0.33025
-0.42032
-0.41109
-0.34411
-0.26328
-0.194
-0.11316
-0.036952
0
0.016166
-0.018476
-0.083141
-0.14088
-0.19861
-0.17783
-0.092379
0.053118
0.22171
0.29792
0.33949
0.30023
0.2448
0.14319
0.0069284
-0.15012
-0.25173
-0.3164
-0.32794
-0.31871
-0.26328
-0.19169
-0.10393
-0.0092379
0.064665
0.13164
0.16859
0.18014
0.15935
0.11085
0.064665
0.018476
-0.039261
-0.092379
-0.092379
-0.023095
0.11778
0.28406
0.44111
0.55427
0.60046
0.54042
0.40185
0.26328
0.099307
-0.060046
-0.2448
-0.45958
-0.57275
-0.63279
-0.60277
-0.51039
-0.39492
-0.27714
-0.17552
-0.12471
-0.092379
-0.08776
-0.090069
-0.094688
-0.12471
-0.10855
-0.018476
0.20092
0.46189
0.66975
0.73672
0.67436
0.55427
0.41339
0.28176
0.15704
0.15012
0.13164
0.057737
-0.11085
-0.38337
-0.5843
-0.68591
-0.67436
-0.59353
-0.49885
-0.40878
-0.3164
-0.22171
-0.15704
-0.1224
-0.1224
-0.10624
-0.057737
0.050808
0.24249
0.4642
0.64434
0.70208
0.62125
0.4873
0.33256
0.22171
0.13395
0.083141
0.10624
0.027714
-0.10393
-0.35797
-0.59815
-0.7552
-0.77136
-0.69515
-0.59122
-0.51963
-0.4642
-0.40647
-0.33487
-0.25404
-0.20554
-0.18707
-0.13857
-0.048499
0.13626
0.38106
0.57044
0.65589
0.59584
0.48037
0.33256
0.20785
0.13164
0.071594
0.10162
0.036952
-0.08545
-0.31871
-0.54965
-0.68129
-0.69746
-0.61894
-0.51732
-0.42263
-0.34411
-0.27483
-0.1963
-0.13626
-0.10624
-0.10162
-0.057737
0.036952
0.2194
0.45958
0.66051
0.75289
0.69977
0.57968
0.42725
0.30254
0.20554
0.12702
0.13857
0.080831
-0.036952
-0.25635
-0.51963
-0.69053
-0.74134
-0.6836
-0.58199
-0.48037
-0.41339
-0.33949
-0.2679
-0.20323
-0.16166
-0.12933
-0.0069284
0.194
0.42032
0.55889
0.57044
0.48961
0.39723
0.30023
0.22171
0.13857
0.10393
0.10393
0.027714
-0.11316
-0.36952
-0.59815
-0.74134
-0.74827
-0.64896
-0.53118
-0.42956
-0.35566
-0.28637
-0.21478
-0.14319
-0.11316
-0.10393
-0.096998
-0.030023
0.12009
0.34411
0.54273
0.66051
0.6351
0.5358
0.40647
0.26559
0.15704
0.034642
0.046189
0.0046189
-0.078522
-0.26559
-0.53349
-0.72517
-0.81293
-0.75982
-0.65127
-0.54273
-0.45497
-0.3903
-0.33025
-0.30485
-0.29099
-0.25404
-0.16628
-0.025404
0.13857
0.21709
0.24711
0.20785
0.090069
0.050808
-0.062356
-0.17783
-0.33949
-0.50346
-0.5843
-0.58891
-0.5358
-0.44573
-0.34873
-0.25173
-0.1455
-0.039261
0.062356
0.12009
0.10624
0.020785
-0.08776
-0.1455
-0.16166
-0.090069
0.092379
0.32102
0.47113
0.52887
0.44342
0.32102
0.13857
-0.08776
-0.30716
-0.42494
-0.44111
-0.39261
-0.32333
-0.2679
-0.20323
-0.10624
-0.034642
0.04157
0.08776
0.11085
0.096998
0.080831
0.050808
0
-0.050808
-0.090069
-0.078522
0.020785
0.20785
0.44804
0.64434
0.76443
0.77136
0.65589
0.48037
0.28868
0.14319
0.078522
0.062356
0.011547
-0.11316
-0.30485
-0.48268
-0.58891
-0.61201
-0.56582
-0.48268
-0.41109
-0.33949
-0.28406
-0.22864
-0.18938
-0.1709
-0.10855
-0.027714
0.12009
0.34411
0.54273
0.64203
0.60739
0.50577
0.37182
0.24249
0.15242
0.048499
0.066975
0.032333
-0.048499
-0.24018
-0.49654
-0.69977
-0.806
-0.7806
-0.67206
-0.55427
-0.46651
-0.40416
-0.31871
-0.2194
-0.17321
-0.1455
-0.14319
-0.08776
0.0046189
0.20554
0.42032
0.59815
0.65127
0.58661
0.44573
0.2933
0.15935
0.076212
0.030023
0.04157
-0.0092379
-0.13164
-0.36028
-0.58661
-0.73441
-0.76674
-0.68129
-0.56351
-0.45727
-0.38799
-0.31871
-0.25404
-0.18245
-0.14781
-0.14088
-0.096998
-0.0092379
0.18707
0.4157
0.60046
0.69284
0.63741
0.52656
0.37413
0.24249
0.15012
0.046189
0.071594
0.025404
-0.073903
-0.29099
-0.56813
-0.75289
-0.82448
-0.76212
-0.63048
-0.50577
-0.40878
-0.3418
-0.26328
-0.20092
-0.17321
-0.15242
-0.1455
-0.094688
0.0092379
0.20092
0.40878
0.59122
0.64203
0.55658
0.4388
0.28868
0.18476
0.08776
0.060046
0.060046
0.011547
-0.13164
-0.37182
-0.60046
-0.72517
-0.74596
-0.6836
-0.58661
-0.48499
-0.39723
-0.32333
-0.27483
-0.22864
-0.17783
-0.11085
0.020785
0.15473
0.26328
0.30947
0.30023
0.24249
0.13626
0.055427
-0.096998
-0.23095
-0.4388
-0.57737
-0.64665
-0.63972
-0.57275
-0.47113
-0.35104
-0.23788
-0.12009
-0.025404
0.020785
0.034642
-0.018476
-0.11547
-0.20554
-0.24018
-0.21016
-0.078522
0.12702
0.35797
0.45266
0.45958
0.36028
0.2194
0.053118
-0.20554
-0.41109
-0.54965
-0.58661
-0.53118
-0.46189
-0.3649
-0.26328
-0.16166
-0.078522
0
0.050808
0.096998
0.10624
0.092379
0.032333
-0.053118
-0.16397
-0.24942
-0.21016
-0.032333
0.22171
0.4873
0.64665
0.71132
0.65358
0.49885
0.33025
0.16628
0.016166
-0.11085
-0.23326
-0.35104
-0.43418
-0.48268
-0.46651
-0.3903
-0.27252
-0.15935
-0.030023
0.053118
0.094688
0.090069
0.039261
-0.0092379
-0.0092379
0.025404
0.12933
0.27021
0.4157
0.49654
0.49654
0.43649
0.35797
0.20785
0.0092379
-0.24942
-0.48037
-0.61663
-0.66282
-0.61894
-0.54503
-0.44111
-0.32564
-0.23557
-0.13857
-0.083141
-0.062356
-0.071594
-0.11085
-0.1224
-0.071594
0.078522
0.26328
0.35797
0.34411
0.24249
0.18014
0.13626
0.094688
-0.018476
-0.21016
-0.38799
-0.4873
-0.51501
-0.47806
-0.40416
-0.31178
-0.21247
-0.12933
-0.071594
0.0046189
0.073903
0.12933
0.14781
0.11085
0.053118
0.016166
0.032333
0.076212
0.18476
0.29792
0.38799
0.45958
0.4388
0.37413
0.23095
0.053118
-0.14088
-0.2933
-0.38568
-0.39492
-0.36028
-0.28868
-0.21247
-0.13626
-0.066975
-0.0069284
0.055427
0.10624
0.1455
0.14781
0.12933
0.092379
0.071594
0.036952
0
0.011547
0.064665
0.23326
0.52194
0.78522
0.98614
1
0.87067
0.66744
0.44342
0.27021
0.15704
0.13857
0.11316
0.020785
-0.16859
-0.43418
-0.61894
-0.71824
-0.68822
-0.60046
-0.47344
-0.35797
-0.27714
-0.2194
-0.1709
-0.13626
-0.094688
-0.083141
-0.053118
0.0092379
0.13626
0.29099
0.3903
0.45035
0.47806
0.47575
0.44804
0.3649
0.23095
0.16397
0.018476
-0.10162
-0.28868
-0.5127
-0.67898
-0.77367
-0.7806
-0.68129
-0.56351
-0.45497
-0.35566
-0.27714
-0.19169
-0.13857
-0.10393
-0.08545
-0.08545
-0.060046
0
0.12471
0.35104
0.54965
0.65589
0.61894
0.49192
0.32794
0.1709
0.08545
0
0.030023
0.0046189
-0.090069
-0.2933
-0.55427
-0.77367
-0.88222
-0.86374
-0.77136
-0.66513
-0.56813
-0.47575
-0.37413
-0.26559
-0.20554
-0.16628
-0.15704
-0.13626
-0.060046
0.057737
0.26328
0.45727
0.59584
0.59353
0.49885
0.34873
0.17321
0.0092379
-0.094688
-0.069284
-0.04388
-0.08776
-0.2448
-0.46882
-0.61432
-0.6836
-0.63741
-0.56582
-0.46651
-0.3649
-0.27945
-0.2194
-0.17552
-0.15242
-0.13395
-0.1224
-0.094688
-0.032333
0.090069
0.30485
0.51963
0.66744
0.69515
0.6097
0.47344
0.31178
0.18014
0.11547
0.080831
0.10855
0.060046
-0.08545
-0.34642
-0.61663
-0.78753
-0.83372
-0.76443
-0.66282
-0.54965
-0.45497
-0.36721
-0.28176
-0.24942
-0.25404
-0.28406
-0.24018
-0.15473
0.027714
0.18245
0.2679
0.25173
0.1455
0.062356
-0.030023
-0.11547
-0.25173
-0.44111
-0.58891
-0.68129
-0.66975
-0.58661
-0.46189
-0.32794
-0.21247
-0.12471
-0.046189
0.0046189
0.032333
0.023095
-0.020785
-0.057737
-0.090069
-0.08545
-0.066975
0.048499
0.23788
0.44804
0.54503
0.54965
0.44111
0.28176
0.053118
-0.1963
-0.39954
-0.5358
-0.60277
-0.59122
-0.51963
-0.41339
-0.25866
-0.14319
-0.062356
0.011547
0.069284
0.11547
0.13395
0.10162
0.016166
-0.099307
-0.23095
-0.33256
-0.31871
-0.16628
0.094688
0.38106
0.60508
0.7321
0.71132
0.55889
0.35104
0.10855
-0.099307
-0.28176
-0.41339
-0.4873
-0.49885
-0.45727
-0.41801
-0.33256
-0.25635
-0.18476
-0.12933
-0.12702
-0.12933
-0.14781
-0.21016
-0.22864
-0.22633
-0.14781
-0.0092379
0.18476
0.36028
0.47113
0.44111
0.35797
0.2194
0.069284
-0.12471
-0.33256
-0.46651
-0.52194
-0.50808
-0.46651
-0.42494
-0.37644
-0.27714
-0.1709
-0.062356
0.04157
0.10162
0.13395
0.13626
0.080831
-0.032333
-0.18707
-0.32102
-0.37875
-0.23557
0.055427
0.42263
0.68591
0.75751
0.68129
0.52887
0.30716
0.011547
-0.26328
-0.48961
-0.54273
-0.48961
-0.39261
-0.30485
-0.21247
-0.14319
-0.055427
0.0092379
0.10162
0.15935
0.19169
0.21478
0.20785
0.16628
0.1455
0.090069
0.039261
0.053118
0.15012
0.29792
0.4388
0.48499
0.48961
0.45497
0.39492
0.36259
0.36259
0.30947
0.20785
-0.016166
-0.27714
-0.50577
-0.64434
-0.69977
-0.66744
-0.57275
-0.45035
-0.31409
-0.17783
-0.094688
-0.046189
-0.062356
-0.090069
-0.10162
-0.090069
-0.080831
-0.027714
0.069284
0.17783
0.27252
0.28176
0.25866
0.22864
0.1709
0.039261
-0.15242
-0.33487
-0.44342
-0.49423
-0.45266
-0.3903
-0.30485
-0.24942
-0.20092
-0.19169
-0.17783
-0.16166
-0.16166
-0.13857
-0.13164
-0.071594
0.020785
0.14319
0.26097
0.38106
0.42032
0.41109
0.30485
0.23326
0.13626
0.053118
-0.08545
-0.28637
-0.38799
-0.42263
-0.39723
-0.35566
-0.3164
-0.25635
-0.16628
-0.08776
0.0023095
0.073903
0.13164
0.17321
0.17783
0.16397
0.16166
0.15473
0.16166
0.15242
0.1709
0.23095
0.31409
0.45727
0.59815
0.72286
0.71132
0.55889
0.27252
-0.016166
-0.2194
-0.32333
-0.34873
-0.36721
-0.31871
-0.29099
-0.23326
-0.18245
-0.16166
-0.12471
-0.090069
-0.04388
-0.020785
-0.023095
-0.060046
-0.062356
-0.062356
-0.060046
-0.053118
-0.030023
0.04157
0.21247
0.42263
0.60277
0.67206
0.62356
0.48961
0.33256
0.17552
0.11316
0.076212
0.15935
0.13164
0.020785
-0.20092
-0.46189
-0.6582
-0.77829
-0.77598
-0.71132
-0.60277
-0.50346
-0.42263
-0.35566
-0.32794
-0.29792
-0.28868
-0.29792
-0.30947
-0.29792
-0.21016
-0.030023
0.21709
0.48499
0.65589
0.69053
0.54273
0.2679
0.0023095
-0.2448
-0.42263
-0.60508
-0.77136
-0.92148
-1
-0.99307
-0.93072
-0.79677
-0.66744
-0.52887
-0.37413
-0.24942
-0.15012
-0.10624
-0.092379
-0.076212
-0.08545
-0.090069
-0.094688
-0.055427
0.064665
0.22402
0.33949
0.40416
0.41339
0.42956
0.42032
0.35566
0.25866
0.15704
0.10393
0.013857
-0.13164
-0.35566
-0.54734
-0.66975
-0.7067
-0.66282
-0.57737
-0.45727
-0.3164
-0.18938
-0.094688
-0.050808
-0.025404
0.0023095
0.0092379
-0.0069284
0.0023095
0.064665
0.21478
0.4388
0.61894
0.72055
0.66744
0.54273
0.39261
0.2448
0.18245
0.12702
0.17321
0.14319
0.069284
-0.1224
-0.38568
-0.61432
-0.76674
-0.76212
-0.70439
-0.59815
-0.54273
-0.49423
-0.48499
-0.48268
-0.48499
-0.44804
-0.36952
-0.22171
-0.030023
0.18014
0.33718
0.40416
0.37875
0.27483
0.18245
-0.0092379
-0.21478
-0.47344
-0.65127
-0.72055
-0.68822
-0.5843
-0.4642
-0.35566
-0.25173
-0.19861
-0.12009
-0.020785
0.062356
0.12933
0.16166
0.15242
0.13164
0.096998
0.092379
0.10855
0.15012
0.24711
0.39261
0.53118
0.64665
0.70208
0.69284
0.62125
0.43187
0.19169
-0.080831
-0.28406
-0.44342
-0.50808
-0.53349
-0.49654
-0.45035
-0.38106
-0.30254
-0.23326
-0.15473
-0.10393
-0.08545
-0.073903
-0.090069
-0.12471
-0.15012
-0.18707
-0.23326
-0.28637
-0.25635
-0.12009
0.12009
0.42032
0.66282
0.78291
0.75058
0.6097
0.41109
0.20554
-0.04388
-0.29792
-0.49885
-0.62125
-0.69053
-0.69053
-0.64896
-0.55658
-0.44342
-0.31178
-0.194
-0.083141
-0.023095
-0.020785
-0.034642
-0.053118
-0.066975
-0.060046
-0.04388
0.020785
0.08545
0.20554
0.31871
0.40416
0.43649
0.37413
0.31178
0.15242
0
-0.20785
-0.42725
-0.54965
-0.63279
-0.61432
-0.55427
-0.49654
-0.44342
-0.3903
-0.32333
-0.22633
-0.15242
-0.10624
-0.11316
-0.11547
-0.094688
-0.0069284
0.12009
0.28637
0.47113
0.59815
0.62587
0.55196
0.38799
0.21709
0.0092379
-0.18938
-0.40647
-0.53118
-0.55196
-0.49423
-0.43418
-0.37413
-0.34411
-0.28176
-0.20554
-0.1224
-0.034642
0.039261
0.08776
0.099307
0.071594
0.025404
-0.011547
-0.057737
-0.11778
-0.15704
-0.15242
-0.053118
0.14781
0.38106
0.56582
0.62125
0.55196
0.4157
0.30485
0.15473
-0.032333
-0.27483
-0.52656
-0.66513
-0.75982
-0.75058
-0.69515
-0.59815
-0.45727
-0.31871
-0.18245
-0.092379
-0.04388
-0.023095
-0.016166
-0.011547
-0.0023095
0.013857
0.053118
0.13395
0.24711
0.34411
0.38106
0.38337
0.33487
0.28637
0.23788
0.20323
0.20092
0.13395
0.0023095
-0.20554
-0.44573
-0.62125
-0.71824
-0.70901
-0.66282
-0.5843
-0.51039
-0.42032
-0.34642
-0.28406
-0.23095
-0.22633
-0.23326
-0.22864
-0.17321
-0.032333
0.16166
0.35335
0.46882
0.46882
0.42956
0.37413
0.27945
0.1709
-0.020785
-0.23095
-0.40647
-0.53349
-0.55427
-0.51963
-0.45727
-0.37413
-0.2933
-0.21247
-0.12471
-0.020785
0.071594
0.14781
0.18707
0.20323
0.1963
0.18707
0.17552
0.16859
0.21016
0.3164
0.50115
0.69284
0.79677
0.76674
0.64896
0.51732
0.37644
0.27252
0.23326
0.25866
0.30485
0.25635
0.10162
-0.15242
-0.37644
-0.55427
-0.64203
-0.63741
-0.57506
-0.49192
-0.4157
-0.36028
-0.35797
-0.36952
-0.39723
-0.3903
-0.34642
-0.25866
-0.1224
0.064665
0.27714
0.44342
0.51039
0.48268
0.38568
0.2448
0.030023
-0.21016
-0.47344
-0.66282
-0.71594
-0.69053
-0.59584
-0.51501
-0.45035
-0.35797
-0.27945
-0.1709
-0.050808
0.04388
0.11316
0.14088
0.14781
0.1455
0.16166
0.16397
0.15704
0.15012
0.18245
0.27483
0.45035
0.65358
0.79908
0.83372
0.73672
0.56351
0.37182
0.20785
0.15242
0.14319
0.21709
0.20323
0.090069
-0.13626
-0.38337
-0.56582
-0.66513
-0.66744
-0.61663
-0.54503
-0.48268
-0.42032
-0.36721
-0.31409
-0.2679
-0.24249
-0.24018
-0.25635
-0.24249
-0.16397
0.018476
0.25635
0.51039
0.70208
0.76674
0.69053
0.48499
0.25173
0.0023095
-0.21709
-0.40647
-0.5843
-0.69746
-0.74596
-0.77136
-0.74134
-0.67667
-0.55889
-0.42725
-0.28406
-0.17552
-0.073903
-0.013857
-0.0023095
-0.0092379
-0.034642
-0.048499
-0.034642
0.013857
0.080831
0.18476
0.30023
0.43418
0.51963
0.51732
0.42725
0.30716
0.15012
-0.020785
-0.24018
-0.43649
-0.5612
-0.59584
-0.56813
-0.50808
-0.43418
-0.34642
-0.22633
-0.092379
-0.0069284
0.050808
0.073903
0.080831
0.08545
0.08776
0.094688
0.080831
0.055427
0.062356
0.11547
0.27945
0.47575
0.70439
0.84065
0.84527
0.69977
0.44573
0.16397
-0.15012
-0.45497
-0.71594
-0.87991
-0.92148
-0.89376
-0.81062
-0.71132
-0.59353
-0.46189
-0.32102
-0.20785
-0.12471
-0.08545
-0.069284
-0.055427
-0.053118
-0.050808
-0.036952
0.0069284
0.10624
0.28176
0.49423
0.66744
0.75058
0.71594
0.59353
0.44573
0.29099
0.17783
0.13395
0.14319
0.17783
0.12471
-0.0069284
-0.2194
-0.42956
-0.59122
-0.6582
-0.65589
-0.58891
-0.48037
-0.36028
-0.26097
-0.21016
-0.21016
-0.2448
-0.28176
-0.29561
-0.27021
-0.15704
0.0092379
0.24249
0.44342
0.53118
0.49423
0.38568
0.25404
0.076212
-0.12471
-0.38337
-0.61201
-0.72286
-0.74365
-0.68129
-0.59122
-0.51039
-0.40878
-0.32102
-0.22633
-0.10393
0.0023095
0.078522
0.11547
0.10855
0.099307
0.094688
0.099307
0.090069
0.036952
0.0023095
0.016166
0.10624
0.30023
0.48268
0.63741
0.69746
0.67206
0.57737
0.4157
0.21709
-0.032333
-0.30023
-0.55658
-0.73903
-0.81293
-0.81755
-0.74134
-0.64434
-0.49885
-0.37413
-0.23788
-0.14319
-0.080831
-0.055427
-0.050808
-0.04157
-0.030023
-0.013857
-0.011547
0.0023095
0.062356
0.18245
0.37413
0.56582
0.70208
0.72748
0.62587
0.47344
0.30485
0.16397
0.08776
0.060046
0.10855
0.10855
0.032333
-0.1455
-0.36721
-0.56582
-0.67667
-0.71132
-0.66513
-0.56813
-0.44573
-0.3418
-0.26328
-0.24711
-0.2679
-0.31409
-0.34642
-0.33256
-0.25635
-0.10162
0.11316
0.33025
0.44804
0.46882
0.36028
0.23557
0.062356
-0.12009
-0.35104
-0.57737
-0.71824
-0.77829
-0.74365
-0.68129
-0.60739
-0.53349
-0.4388
-0.34411
-0.2448
-0.13164
-0.04388
0.016166
0.034642
0.020785
0.023095
0.013857
0.013857
0.0046189
-0.0069284
-0.023095
0
0.096998
0.26559
0.43187
0.57506
0.63972
0.62356
0.53118
0.39261
0.20554
-0.0023095
-0.25173
-0.49423
-0.66975
-0.77136
-0.78291
-0.74827
-0.65358
-0.52656
-0.37875
-0.22171
-0.08776
-0.0092379
0.013857
0.0046189
0
0.020785
0.04157
0.050808
0.060046
0.094688
0.17552
0.33256
0.51963
0.66513
0.70439
0.6097
0.44804
0.28406
0.15704
0.14088
0.13626
0.1963
0.17552
0.076212
-0.10393
-0.3418
-0.54042
-0.68129
-0.71363
-0.66744
-0.57275
-0.47344
-0.38568
-0.32564
-0.28176
-0.26559
-0.28637
-0.32564
-0.32564
-0.26097
-0.11085
0.099307
0.32333
0.4873
0.52425
0.45958
0.33487
0.15935
-0.025404
-0.26559
-0.50577
-0.66282
-0.72286
-0.66744
-0.58199
-0.49192
-0.42263
-0.32333
-0.22402
-0.11778
-0.0046189
0.060046
0.10393
0.1224
0.12933
0.12702
0.12933
0.1224
0.12009
0.1224
0.1455
0.20785
0.29792
0.45958
0.61201
0.71363
0.70439
0.58199
0.42725
0.26097
0.16628
0.15935
0.1963
0.2679
0.22402
0.11547
-0.096998
-0.31871
-0.50115
-0.60046
-0.61432
-0.57044
-0.47113
-0.36028
-0.27945
-0.26328
-0.33718
-0.41339
-0.45266
-0.40185
-0.26328
-0.10624
0.069284
0.23095
0.37644
0.4388
0.42032
0.30485
0.18476
0.027714
-0.12471
-0.30716
-0.44804
-0.51039
-0.54273
-0.5127
-0.45497
-0.36952
-0.27483
-0.18476
-0.1224
-0.057737
0.0069284
0.064665
0.099307
0.10855
0.096998
0.096998
0.094688
0.099307
0.10162
0.10162
0.1224
0.18938
0.2933
0.46882
0.62356
0.70208
0.64896
0.48268
0.30023
0.1455
0.08776
0.13395
0.17783
0.22864
0.1455
0.0023095
-0.2194
-0.45958
-0.64665
-0.75751
-0.74827
-0.6836
-0.57737
-0.46882
-0.38106
-0.30485
-0.27021
-0.27021
-0.29099
-0.33025
-0.36721
-0.36721
-0.27252
-0.08776
0.15012
0.35797
0.48268
0.48037
0.43649
0.32564
0.15242
-0.046189
-0.30254
-0.47575
-0.56813
-0.60046
-0.54503
-0.46882
-0.38568
-0.30485
-0.22633
-0.14319
-0.050808
0.034642
0.083141
0.11778
0.11778
0.1224
0.11778
0.10393
0.11316
0.10162
0.15473
0.24942
0.39492
0.49192
0.50808
0.45266
0.37413
0.29099
0.22864
0.17552
0.18476
0.20092
0.18707
0.092379
-0.08545
-0.28868
-0.52656
-0.69515
-0.79677
-0.806
-0.75751
-0.66051
-0.5358
-0.3903
-0.30023
-0.24249
-0.24018
-0.26328
-0.27483
-0.27714
-0.27483
-0.21709
-0.11778
0.083141
0.28406
0.43187
0.45958
0.41801
0.30485
0.13626
-0.048499
-0.30254
-0.53349
-0.67206
-0.71363
-0.66282
-0.56582
-0.49423
-0.40416
-0.30716
-0.2194
-0.10624
0
0.066975
0.10624
0.11778
0.1224
0.13857
0.15242
0.15012
0.15242
0.14088
0.15704
0.18014
0.24711
0.37875
0.51963
0.67898
0.78522
0.81293
0.74365
0.55196
0.25404
-0.094688
-0.39723
-0.60046
-0.69515
-0.70439
-0.63741
-0.57275
-0.48268
-0.38337
-0.27021
-0.1709
-0.090069
-0.053118
-0.036952
-0.050808
-0.060046
-0.04157
-0.0092379
0.030023
0.050808
0.094688
0.18707
0.36028
0.57506
0.70208
0.70439
0.59584
0.44573
0.32564
0.21247
0.1963
0.22171
0.28176
0.33487
0.24249
0.11316
-0.12471
-0.3649
-0.55427
-0.66051
-0.67436
-0.61663
-0.52194
-0.39954
-0.28868
-0.21247
-0.16859
-0.16628
-0.17552
-0.1963
-0.21016
-0.19169
-0.10624
0.020785
0.14088
0.24942
0.33487
0.41339
0.45266
0.41801
0.32102
0.21247
0.04157
-0.13857
-0.35566
-0.55427
-0.69515
-0.73903
-0.70208
-0.61432
-0.52194
-0.42494
-0.33256
-0.23326
-0.12702
-0.048499
-0.016166
-0.018476
-0.020785
-0.011547
0.011547
0.039261
0.039261
0.0023095
-0.011547
0.046189
0.16397
0.33025
0.49423
0.6351
0.6582
0.53118
0.29561
-0.027714
-0.32794
-0.57044
-0.7552
-0.8291
-0.79908
-0.71594
-0.62818
-0.54042
-0.48961
-0.41339
-0.33487
-0.2448
-0.15242
-0.08545
-0.039261
-0.0092379
0.018476
0.048499
0.073903
0.083141
0.096998
0.1224
0.18476
0.27945
0.4388
0.60277
0.69515
0.67667
0.54273
0.3903
0.23788
0.13164
0.13626
0.19169
0.27021
0.28176
0.18938
-0.0023095
-0.25173
-0.48037
-0.64434
-0.71363
-0.70901
-0.64434
-0.54965
-0.43418
-0.33949
-0.26328
-0.21709
-0.20092
-0.1963
-0.23326
-0.29792
-0.34873
-0.3418
-0.27021
-0.10162
0.11778
0.30716
0.46651
0.52887
0.51039
0.47806
0.37644
0.21016
-0.0023095
-0.25866
-0.47344
-0.62125
-0.71132
-0.7321
-0.70901
-0.64203
-0.56351
-0.44573
-0.32102
-0.194
-0.092379
-0.039261
-0.0069284
-0.0046189
0
0
0
0.011547
0.034642
0.083141
0.18476
0.34411
0.50808
0.60277
0.58661
0.48037
0.33949
0.20785
0.099307
0.099307
0.13395
0.23095
0.26559
0.17552
0.023095
-0.20323
-0.44573
-0.62356
-0.71824
-0.72055
-0.65589
-0.55427
-0.40647
-0.27483
-0.1709
-0.099307
-0.066975
-0.050808
-0.073903
-0.13857
-0.23557
-0.28176
-0.24249
-0.099307
0.1224
0.32794
0.47344
0.54965
0.55196
0.54042
0.55658
0.47806
0.3418
0.11316
-0.16859
-0.35797
-0.46882
-0.53349
-0.52194
-0.4873
-0.41801
-0.32564
-0.22402
-0.11547
-0.016166
0.057737
0.099307
0.10162
0.090069
0.08776
0.10624
0.13164
0.14088
0.13857
0.13857
0.17783
0.25404
0.40185
0.56813
0.67436
0.69053
0.57044
0.40185
0.26328
0.16166
0.15473
0.16628
0.23788
0.22864
0.12702
-0.04388
-0.28406
-0.5127
-0.68822
-0.78291
-0.78291
-0.71594
-0.61201
-0.47806
-0.36721
-0.28176
-0.23788
-0.20092
-0.21016
-0.23095
-0.27714
-0.33256
-0.36028
-0.28868
-0.14088
0.073903
0.2933
0.4642
0.56813
0.60739
0.61201
0.50115
0.30947
0.071594
-0.1709
-0.36721
-0.51501
-0.58661
-0.58661
-0.55658
-0.50808
-0.45266
-0.38568
-0.28868
-0.18476
-0.090069
-0.046189
-0.032333
-0.030023
-0.011547
0.025404
0.048499
0.064665
0.055427
0.060046
0.080831
0.13395
0.23557
0.40185
0.55196
0.6097
0.53811
0.37875
0.2194
0.096998
0.071594
0.092379
0.13164
0.18938
0.12009
-0.0046189
-0.22171
-0.47113
-0.68822
-0.83141
-0.86836
-0.84065
-0.75289
-0.62818
-0.49654
-0.40416
-0.34411
-0.30254
-0.28868
-0.30023
-0.37875
-0.48037
-0.54734
-0.53118
-0.40185
-0.21016
0.0069284
0.194
0.35335
0.43187
0.47344
0.43649
0.31871
0.1224
-0.11085
-0.31871
-0.50115
-0.62356
-0.68129
-0.66744
-0.61663
-0.53349
-0.45497
-0.36259
-0.25173
-0.12933
-0.036952
0.018476
0.027714
0.025404
0.023095
0.016166
0.023095
0.032333
0.048499
0.08545
0.14319
0.24249
0.40647
0.57506
0.6582
0.62818
0.49654
0.35335
0.23095
0.16859
0.18938
0.2194
0.30716
0.27714
0.18245
-0.013857
-0.26097
-0.47344
-0.63741
-0.71363
-0.72979
-0.67206
-0.57044
-0.43418
-0.31409
-0.23788
-0.20554
-0.194
-0.194
-0.2194
-0.28637
-0.3649
-0.42494
-0.36259
-0.1963
0.0092379
0.22171
0.37644
0.48499
0.54042
0.57968
0.54965
0.43649
0.20092
-0.050808
-0.31178
-0.49885
-0.61894
-0.7067
-0.70208
-0.67667
-0.60739
-0.52194
-0.40185
-0.27021
-0.15935
-0.083141
-0.060046
-0.057737
-0.04388
-0.0092379
0.032333
0.060046
0.039261
0.025404
0.039261
0.066975
0.14088
0.2448
0.42494
0.55196
0.59353
0.51963
0.36721
0.24249
0.12009
0.10624
0.13626
0.20323
0.26559
0.21709
0.094688
-0.12702
-0.36721
-0.58661
-0.72055
-0.76674
-0.73672
-0.66282
-0.54965
-0.41339
-0.3164
-0.21247
-0.16166
-0.13626
-0.12933
-0.16859
-0.25635
-0.32564
-0.31409
-0.20785
-0.018476
0.19861
0.35797
0.50115
0.59353
0.62587
0.6582
0.5612
0.37875
0.14781
-0.11547
-0.32794
-0.47806
-0.58661
-0.61432
-0.61201
-0.54734
-0.48961
-0.39261
-0.28637
-0.16628
-0.078522
-0.0069284
0.016166
0.023095
0.016166
0.036952
0.046189
0.069284
0.064665
0.090069
0.078522
0.1224
0.19169
0.3418
0.48268
0.5843
0.5843
0.47806
0.32794
0.20323
0.13626
0.15012
0.1709
0.25404
0.27021
0.20092
0.046189
-0.18938
-0.42032
-0.61201
-0.72286
-0.74134
-0.68129
-0.58661
-0.46189
-0.35335
-0.2679
-0.20554
-0.15242
-0.13857
-0.16166
-0.24942
-0.3418
-0.40185
-0.36028
-0.25173
-0.080831
0.12471
0.30254
0.45727
0.54734
0.59584
0.59815
0.50577
0.32564
0.11547
-0.080831
-0.25635
-0.3649
-0.45035
-0.49423
-0.48499
-0.44111
-0.38106
-0.2933
-0.18476
-0.083141
0.018476
0.078522
0.092379
0.08545
0.092379
0.11547
0.12702
0.12933
0.1224
0.12702
0.14088
0.20092
0.29099
0.43649
0.58891
0.68591
0.66282
0.53349
0.37182
0.24942
0.1709
0.16859
0.19861
0.27945
0.27714
0.20785
0.039261
-0.20554
-0.4388
-0.62356
-0.74134
-0.79446
-0.77136
-0.68822
-0.55889
-0.43187
-0.32564
-0.25404
-0.23788
-0.21709
-0.22171
-0.27021
-0.34642
-0.41339
-0.40185
-0.2679
-0.080831
0.12933
0.28406
0.40185
0.48037
0.49654
0.47575
0.42263
0.27021
0.10162
-0.10393
-0.27714
-0.3903
-0.50577
-0.57968
-0.58199
-0.54273
-0.47575
-0.39261
-0.30947
-0.18938
-0.08545
-0.013857
0.0023095
-0.0023095
0.0023095
0.023095
0.04388
0.050808
0.034642
0.020785
0.046189
0.080831
0.14088
0.24018
0.38568
0.53118
0.60046
0.55658
0.43418
0.30716
0.20554
0.194
0.23095
0.27021
0.35104
0.30023
0.20785
0.0069284
-0.24018
-0.47113
-0.64896
-0.74134
-0.74596
-0.70439
-0.6097
-0.47575
-0.35566
-0.27714
-0.24249
-0.23557
-0.2194
-0.23788
-0.29792
-0.38106
-0.42494
-0.36028
-0.21016
-0.034642
0.16166
0.3164
0.43649
0.50346
0.51501
0.48268
0.39954
0.27483
0.11316
-0.083141
-0.25635
-0.41801
-0.55889
-0.62356
-0.66051
-0.62125
-0.55427
-0.47806
-0.37413
-0.27714
-0.18014
-0.11778
-0.071594
-0.062356
-0.04388
-0.027714
-0.025404
-0.039261
-0.048499
-0.039261
0.0069284
0.071594
0.17783
0.30947
0.4388
0.49192
0.46651
0.33949
0.21016
0.10162
0.036952
0.057737
0.11316
0.22402
0.25866
0.18476
0.034642
-0.19169
-0.43418
-0.62356
-0.7552
-0.78753
-0.76212
-0.6836
-0.55658
-0.4157
-0.30716
-0.2448
-0.22402
-0.21478
-0.15935
-0.11316
-0.10624
-0.13164
-0.10624
-0.060046
0.036952
0.15242
0.29099
0.4157
0.48268
0.44804
0.35797
0.28406
0.19861
0.16628
0.13626
0.15473
0.25173
0.27021
0.21016
-0.0023095
-0.28868
-0.51963
-0.64665
-0.68129
-0.65127
-0.60508
-0.53349
-0.47575
-0.42494
-0.38568
-0.36259
-0.33949
-0.33025
-0.2933
-0.24249
-0.20323
-0.17552
-0.15242
-0.11778
-0.011547
0.17552
0.38337
0.54734
0.57968
0.46651
0.24942
0.036952
-0.11316
-0.2194
-0.27021
-0.35335
-0.42032
-0.47344
-0.52887
-0.58199
-0.61894
-0.62818
-0.5612
-0.45958
-0.56813
