0.2766
0.28936
0.3
0.31915
0.33404
0.35319
0.3766
0.43191
0.54681
0.65532
0.75106
0.81277
0.79787
0.71064
0.47021
0.1234
-0.22128
-0.45319
-0.52979
-0.52766
-0.47021
-0.38085
-0.30426
-0.2383
-0.15745
-0.087234
-0.023404
0.017021
-0.03617
-0.03617
0.010638
0.17234
0.37234
0.51064
0.60426
0.64043
0.61915
0.54468
0.47021
0.3617
0.15319
-0.095745
-0.32128
-0.41277
-0.38085
-0.2766
-0.15532
-0.023404
0.078723
0.14681
0.1766
0.19362
0.21489
0.24043
0.26383
0.30213
0.35319
0.40638
0.44681
0.4766
0.48511
0.49149
0.49149
0.50638
0.50426
0.51064
0.51489
0.52766
0.55319
0.56596
0.53617
0.40426
0.19149
-0.046809
-0.27234
-0.44043
-0.56383
-0.64255
-0.7
-0.71915
-0.71277
-0.6766
-0.61489
-0.51064
-0.38085
-0.25319
-0.11915
-0.0085106
0.095745
0.18085
0.25745
0.32128
0.37447
0.42128
0.44894
0.45745
0.44681
0.44043
0.44681
0.44894
0.44043
0.35532
0.18511
-0.053191
-0.24894
-0.39787
-0.45957
-0.51915
-0.55106
-0.55532
-0.53404
-0.48723
-0.44043
-0.38511
-0.31702
-0.2383
-0.15957
-0.097872
-0.029787
-0.029787
0.02766
0.080851
0.13617
0.21489
0.28936
0.3617
0.41915
0.45319
0.47021
0.48085
0.5
0.5234
0.54894
0.5766
0.57447
0.50426
0.27447
-0.0085106
-0.37234
-0.64468
-0.83191
-0.94468
-0.97872
-0.95106
-0.89149
-0.81702
-0.7234
-0.61277
-0.4766
-0.34894
-0.22766
-0.11489
-0.019149
0.080851
0.17872
0.27234
0.34468
0.40638
0.45745
0.49574
0.50851
0.50426
0.49149
0.48085
0.50851
0.54255
0.56383
0.51277
0.46383
0.40426
0.39362
0.39574
0.25745
0.0042553
-0.31702
-0.58298
-0.69362
-0.69574
-0.64043
-0.55957
-0.47447
-0.37447
-0.2617
-0.15745
-0.055319
0.053191
0.14681
0.22553
0.29149
0.36596
0.42128
0.4617
0.45106
0.42766
0.40638
0.39787
0.40426
0.42128
0.44894
0.48723
0.5234
0.55745
0.59149
0.61064
0.58936
0.51489
0.27021
-0.048936
-0.41489
-0.65745
-0.7234
-0.69574
-0.59149
-0.46596
-0.32553
-0.18723
-0.048936
0.076596
0.17234
0.26383
0.34468
0.40638
0.42128
0.4
0.3383
0.26596
0.20426
0.15957
0.10638
0.051064
0.040426
0.06383
0.16809
0.3
0.38298
0.25957
0.019149
-0.30213
-0.51064
-0.59362
-0.60213
-0.54043
-0.43191
-0.29787
-0.15532
-0.029787
0.07234
0.16809
0.24468
0.28723
0.31064
0.3383
0.35319
0.36809
0.37872
0.38936
0.39787
0.40213
0.41489
0.41702
0.42553
0.46383
0.50426
0.49787
0.40213
0.14681
-0.15532
-0.44255
-0.59149
-0.61277
-0.59149
-0.54043
-0.51277
-0.49787
-0.49574
-0.4766
-0.38723
-0.24894
-0.082979
0.046809
0.1383
0.18936
0.24043
0.28298
0.31702
0.34681
0.32979
0.31489
0.30638
0.35319
0.42553
0.47872
0.50851
0.51915
0.46809
0.21064
-0.048936
-0.38085
-0.55745
-0.59362
-0.5383
-0.42553
-0.28723
-0.14681
-0.010638
0.11489
0.21702
0.30426
0.36809
0.41702
0.45319
0.46596
0.47234
0.46383
0.45319
0.42553
0.4
0.36383
0.31277
0.27234
0.31277
0.41489
0.54468
0.64255
0.64681
0.51702
0.21489
-0.097872
-0.38085
-0.49787
-0.50426
-0.43617
-0.33404
-0.22766
-0.13404
-0.051064
0.0021277
0.029787
0.040426
0.055319
0.06383
0.095745
0.1234
0.15106
0.17447
0.21702
0.26596
0.34255
0.45106
0.55532
0.61915
0.57872
0.44894
0.17021
-0.15319
-0.42766
-0.59574
-0.60213
-0.52553
-0.39574
-0.24681
-0.1
0.034043
0.14894
0.2234
0.27872
0.31915
0.32766
0.33617
0.34043
0.3383
0.32979
0.31702
0.31277
0.28936
0.26596
0.24681
0.28298
0.39362
0.49574
0.58511
0.57021
0.42553
0.14043
-0.18936
-0.50851
-0.69362
-0.77234
-0.75745
-0.67447
-0.54468
-0.41064
-0.29149
-0.17234
-0.07234
0.031915
0.13191
0.21277
0.26596
0.27021
0.25532
0.22979
0.18085
0.15319
0.11702
0.11064
0.15745
0.28085
0.45106
0.56383
0.57872
0.40638
0.10426
-0.21064
-0.48085
-0.61277
-0.62979
-0.5766
-0.45532
-0.32766
-0.19362
-0.070213
0.048936
0.15106
0.23404
0.30213
0.33617
0.34468
0.35106
0.35532
0.35957
0.37021
0.37021
0.34043
0.31702
0.36383
0.44468
0.5617
0.62979
0.63191
0.48936
0.20426
-0.10213
-0.38085
-0.5234
-0.57872
-0.58085
-0.54468
-0.47872
-0.41277
-0.3383
-0.26596
-0.18723
-0.11702
-0.048936
0.034043
0.11489
0.18298
0.2383
0.27447
0.31702
0.36596
0.44681
0.58298
0.71064
0.77021
0.74043
0.63617
0.43404
0.15106
-0.14255
-0.42128
-0.56809
-0.61915
-0.58723
-0.50213
-0.38723
-0.25745
-0.1234
0.006383
0.14681
0.25745
0.35532
0.42979
0.46809
0.47447
0.45532
0.4383
0.42128
0.41489
0.38723
0.38298
0.39149
0.45106
0.5234
0.54894
0.49149
0.22553
-0.085106
-0.46383
-0.71915
-0.8234
-0.83617
-0.78723
-0.70851
-0.61489
-0.51915
-0.39787
-0.27872
-0.16383
-0.076596
-0.0085106
0.044681
0.065957
0.076596
0.07234
0.055319
0.068085
0.097872
0.19149
0.34894
0.50851
0.61064
0.60851
0.46596
0.20426
-0.078723
-0.37234
-0.54681
-0.62553
-0.62553
-0.56596
-0.45957
-0.34468
-0.22766
-0.11277
0.010638
0.12766
0.24255
0.34681
0.42979
0.49787
0.54255
0.57234
0.5766
0.5234
0.48936
0.48298
0.57234
0.71489
0.83617
0.86596
0.80638
0.63404
0.28723
-0.076596
-0.43404
-0.62553
-0.70213
-0.67021
-0.56809
-0.44468
-0.3234
-0.2
-0.093617
0.006383
0.10213
0.18511
0.24681
0.28936
0.31702
0.3383
0.35319
0.38723
0.45319
0.55532
0.66383
0.68723
0.61915
0.45745
0.22766
-0.085106
-0.38936
-0.68723
-0.83404
-0.85532
-0.78936
-0.64681
-0.46596
-0.28085
-0.11915
0.017021
0.1234
0.21489
0.30213
0.37447
0.43404
0.47021
0.5
0.50638
0.5
0.48511
0.44681
0.42979
0.42553
0.50213
0.62766
0.74681
0.80851
0.71915
0.39787
0.02766
-0.37447
-0.64043
-0.76809
-0.78511
-0.69574
-0.5766
-0.44043
-0.31277
-0.19574
-0.10851
-0.03617
0.029787
0.074468
0.11277
0.1617
0.24043
0.35106
0.5
0.62553
0.65532
0.71702
0.72553
0.76383
0.71489
0.51277
0.22766
-0.085106
-0.35745
-0.50851
-0.55745
-0.52979
-0.41915
-0.27447
-0.13617
0
0.11489
0.21064
0.28723
0.35106
0.40851
0.45532
0.49574
0.5383
0.57021
0.56383
0.52766
0.44681
0.39574
0.37447
0.41489
0.45745
0.4617
0.37872
0.065957
-0.25957
-0.60851
-0.80426
-0.86596
-0.8234
-0.68936
-0.5234
-0.34681
-0.19787
-0.068085
0.029787
0.093617
0.15532
0.20638
0.24255
0.25745
0.24894
0.23617
0.2234
0.22979
0.23617
0.26809
0.32553
0.35745
0.33404
0.24468
0.1
-0.13617
-0.42553
-0.71064
-0.88723
-0.91489
-0.81489
-0.6383
-0.42766
-0.22766
-0.06383
0.070213
0.15532
0.22128
0.27447
0.31915
0.34043
0.35957
0.36809
0.36596
0.36809
0.34894
0.32553
0.26809
0.24468
0.24681
0.34894
0.47021
0.55957
0.55106
0.34468
0.057447
-0.27872
-0.52128
-0.62553
-0.64255
-0.59787
-0.50851
-0.38085
-0.24894
-0.10851
0.029787
0.15319
0.25319
0.33617
0.41277
0.45319
0.45532
0.41064
0.35957
0.31277
0.30213
0.34043
0.44255
0.52979
0.59149
0.56596
0.43191
0.20851
-0.089362
-0.36383
-0.57234
-0.65532
-0.64894
-0.57447
-0.44043
-0.27234
-0.095745
0.061702
0.19574
0.30426
0.3617
0.38723
0.3766
0.35106
0.29574
0.22766
0.13191
0.042553
-0.034043
-0.044681
0.029787
0.15745
0.29362
0.36809
0.37872
0.28511
0.074468
-0.19574
-0.46596
-0.59574
-0.61702
-0.5766
-0.50426
-0.41064
-0.31277
-0.20426
-0.095745
-0.02766
0.010638
0.038298
0.068085
0.085106
0.10213
0.1234
0.18298
0.27872
0.38511
0.48936
0.52128
0.48936
0.38723
0.21489
-0.02766
-0.2617
-0.45745
-0.53191
-0.51277
-0.42553
-0.3234
-0.22553
-0.13404
-0.048936
0.025532
0.1
0.19149
0.2766
0.36596
0.43191
0.49362
0.53404
0.57234
0.52979
0.44255
0.28723
0.12128
-0.11702
-0.35745
-0.5766
-0.68511
-0.68723
-0.6234
-0.50851
-0.35319
-0.18936
-0.03617
0.10213
0.21277
0.29787
0.38298
0.44255
0.49787
0.54255
0.58936
0.56383
0.45532
0.28723
0.1
-0.078723
-0.31064
-0.51277
-0.6766
-0.74043
-0.7
-0.6234
-0.49574
-0.35106
-0.20426
-0.070213
0.048936
0.16596
0.27447
0.37872
0.4617
0.53404
0.59362
0.64681
0.69362
0.71489
0.73404
0.73617
0.72553
0.70638
0.68723
0.68085
0.66809
0.62128
0.52553
0.31064
0.012766
-0.31489
-0.58298
-0.72979
-0.78298
-0.7383
-0.64043
-0.51915
-0.38511
-0.2617
-0.19362
-0.18085
-0.16383
-0.093617
0.03617
0.20426
0.35319
0.48085
0.56383
0.6
0.58723
0.57021
0.5617
0.5383
0.51489
0.46596
0.4617
0.47234
0.51064
0.48085
0.32766
0.070213
-0.23617
-0.44894
-0.55319
-0.56383
-0.52766
-0.45745
-0.38085
-0.29574
-0.18085
-0.06383
0.059574
0.17234
0.27234
0.35319
0.41064
0.45106
0.48511
0.5
0.51064
0.51702
0.50851
0.49787
0.48085
0.41915
0.3766
0.39149
0.46809
0.57234
0.57021
0.38511
0.091489
-0.24043
-0.4617
-0.52766
-0.50851
-0.44255
-0.37021
-0.29574
-0.22979
-0.14681
-0.048936
0.031915
0.10426
0.15957
0.19362
0.21489
0.23404
0.25532
0.26596
0.27021
0.26383
0.25532
0.24255
0.25745
0.27021
0.23404
0.2
0.21702
0.31702
0.44255
0.48936
0.33404
0.046809
-0.29574
-0.55957
-0.68723
-0.71702
-0.67447
-0.60426
-0.52128
-0.4234
-0.3234
-0.22553
-0.14255
-0.061702
0.017021
0.091489
0.14468
0.20213
0.25532
0.31489
0.3766
0.45319
0.53191
0.65957
0.79362
0.85106
0.81915
0.68723
0.48298
0.2
-0.13617
-0.42128
-0.61915
-0.66596
-0.62128
-0.52553
-0.41489
-0.30851
-0.23191
-0.1766
-0.12553
-0.065957
0.0042553
0.080851
0.15319
0.21702
0.25532
0.27872
0.28723
0.3
0.28723
0.24681
0.22979
0.28511
0.42128
0.57021
0.62553
0.53191
0.2766
-0.021277
-0.3383
-0.54681
-0.65319
-0.64681
-0.56596
-0.42128
-0.30213
-0.21702
-0.18085
-0.15106
-0.11489
-0.06383
0.006383
0.053191
0.085106
0.11702
0.1766
0.28723
0.41915
0.57447
0.71277
0.78298
0.76383
0.65745
0.48511
0.24681
-0.059574
-0.35532
-0.59787
-0.70213
-0.70426
-0.65957
-0.55106
-0.43617
-0.33191
-0.23404
-0.13191
-0.012766
0.095745
0.16383
0.17447
0.16596
0.12766
0.11915
0.18298
0.31064
0.51277
0.67234
0.72766
0.65745
0.5
0.25532
-0.057447
-0.35106
-0.58936
-0.6766
-0.65319
-0.54681
-0.40426
-0.25957
-0.12128
-0.006383
0.070213
0.10851
0.15106
0.19574
0.25745
0.31064
0.35106
0.38085
0.38723
0.41064
0.4383
0.46596
0.4617
0.41915
0.34894
0.37872
0.45319
0.50638
0.39787
0.14043
-0.12553
-0.34255
-0.42766
-0.45106
-0.44043
-0.39149
-0.30851
-0.18085
-0.059574
0.057447
0.14043
0.19149
0.21489
0.23617
0.27447
0.3234
0.38511
0.45957
0.52979
0.58936
0.63191
0.64681
0.62128
0.56596
0.49149
0.39574
0.37872
0.43617
0.50851
0.41915
0.22128
-0.042553
-0.20213
-0.2617
-0.25745
-0.32128
-0.41915
-0.47447
-0.44894
-0.28511
-0.14681
-0.017021
0.080851
0.17234
0.22553
0.25745
0.26596
0.26596
0.28511
0.26596
0.26596
0.29362
0.40851
0.56809
0.71489
0.81064
0.81064
0.74043
0.54894
0.22766
-0.10638
-0.4234
-0.59574
-0.6617
-0.65532
-0.58936
-0.48298
-0.37234
-0.24468
-0.12128
-0.0085106
0.087234
0.16596
0.2234
0.25532
0.28723
0.3
0.30851
0.31489
0.34681
0.43404
0.54255
0.65532
0.70426
0.68936
0.5766
0.34468
0.03617
-0.29362
-0.55106
-0.67872
-0.71702
-0.66596
-0.54681
-0.38723
-0.2383
-0.1
0.023404
0.14468
0.25319
0.37234
0.45532
0.50638
0.5234
0.53191
0.54255
0.54255
0.53404
0.4766
0.41489
0.38085
0.43191
0.54468
0.62979
0.64894
0.5
0.17872
-0.16809
-0.51064
-0.71489
-0.80851
-0.78511
-0.7
-0.58298
-0.46596
-0.34468
-0.21915
-0.087234
0.044681
0.15957
0.24681
0.30851
0.34894
0.36383
0.38085
0.37234
0.35319
0.33617
0.32979
0.30426
0.3
0.31915
0.36809
0.4
0.30638
0.06383
-0.20851
-0.48936
-0.64681
-0.70638
-0.7234
-0.69574
-0.62979
-0.53191
-0.43404
-0.31915
-0.20638
-0.093617
0.0042553
0.082979
0.13191
0.17234
0.21702
0.25532
0.32128
0.38511
0.45745
0.55106
0.64468
0.75106
0.80851
0.77021
0.62553
0.37447
0.02766
-0.32553
-0.61915
-0.77872
-0.8234
-0.78298
-0.64681
-0.49362
-0.32766
-0.18511
-0.044681
0.076596
0.19149
0.30426
0.4
0.45745
0.48298
0.48936
0.48511
0.49149
0.49787
0.46383
0.45319
0.49362
0.58511
0.64043
0.58936
0.38936
0.10426
-0.19574
-0.42766
-0.5383
-0.58723
-0.5766
-0.52766
-0.45319
-0.35106
-0.21702
-0.074468
0.053191
0.14894
0.22553
0.29149
0.34894
0.40638
0.45745
0.48298
0.47447
0.4234
0.36596
0.30851
0.32979
0.42128
0.52979
0.58511
0.52979
0.34255
0.014894
-0.3
-0.61489
-0.78511
-0.86596
-0.86809
-0.81915
-0.73191
-0.61489
-0.48085
-0.34894
-0.2234
-0.11915
-0.042553
0.014894
0.057447
0.10426
0.15745
0.21489
0.27872
0.36383
0.42766
0.5
0.57021
0.63191
0.67447
0.6383
0.45957
0.14255
-0.18723
-0.48723
-0.65745
-0.71915
-0.69362
-0.61277
-0.48936
-0.35745
-0.23191
-0.12128
-0.019149
0.07234
0.15745
0.2383
0.31277
0.36596
0.41702
0.46596
0.50851
0.51489
0.48723
0.46383
0.4766
0.56809
0.69362
0.79787
0.83617
0.78936
0.65106
0.38511
0.0085106
-0.34255
-0.61489
-0.7383
-0.74043
-0.66809
-0.55106
-0.42128
-0.2766
-0.15106
-0.03617
0.051064
0.12128
0.17872
0.22128
0.26383
0.27447
0.25532
0.2766
0.36809
0.55106
0.75957
0.91702
0.95319
0.85106
0.64468
0.36596
-0.014894
-0.4
-0.7234
-0.92766
-0.95745
-0.89149
-0.75532
-0.58936
-0.41489
-0.25532
-0.11064
-0.006383
0.085106
0.15319
0.21064
0.25106
0.29787
0.3234
0.28511
0.29362
0.39574
0.56596
0.72766
0.77447
0.71915
0.59787
0.43404
0.15319
-0.17872
-0.5234
-0.75532
-0.84255
-0.83191
-0.73617
-0.60851
-0.46383
-0.31064
-0.15532
-0.006383
0.11915
0.23617
0.3234
0.40426
0.48936
0.5617
0.60426
0.60426
0.57872
0.52979
0.48298
0.46809
0.53191
0.67447
0.81489
0.88723
0.84894
0.72553
0.54894
0.27872
-0.080851
-0.41064
-0.68511
-0.84043
-0.91915
-0.92128
-0.84043
-0.71277
-0.55745
-0.40638
-0.27234
-0.15957
-0.046809
0.068085
0.15957
0.22553
0.27447
0.35532
0.46596
0.6
0.71277
0.76383
0.76809
0.71277
0.60851
0.44894
0.24255
-0.055319
-0.34468
-0.58936
-0.71702
-0.74255
-0.72128
-0.62979
-0.52128
-0.38936
-0.26596
-0.14468
-0.034043
0.06383
0.16383
0.24043
0.28936
0.32128
0.34468
0.3617
0.37447
0.39149
0.39149
0.38298
0.33191
0.27234
0.24255
0.28511
0.38936
0.5234
0.60638
0.61064
0.45319
0.12128
-0.2383
-0.55319
-0.71915
-0.76383
-0.72979
-0.64043
-0.55957
-0.45106
-0.35319
-0.25319
-0.16596
-0.085106
-0.012766
0.046809
0.10426
0.13617
0.15745
0.14894
0.12979
0.10213
0.06383
0.025532
-0.023404
-0.065957
-0.023404
0.076596
0.15532
0.093617
-0.12128
-0.39149
-0.59787
-0.7234
-0.77234
-0.76596
-0.70426
-0.6234
-0.52553
-0.42553
-0.31064
-0.20213
-0.10638
-0.042553
0.014894
0.076596
0.15106
0.22128
0.30213
0.35745
0.40426
0.4234
0.44894
0.48298
0.54043
0.61277
0.61915
0.53404
0.38298
0.24255
0.2
0.28511
0.38298
0.34043
0.17447
-0.080851
-0.22979
-0.31064
-0.30851
-0.27872
-0.20638
-0.15532
-0.085106
-0.042553
-0.023404
-0.012766
0.0042553
0.034043
0.061702
0.1
0.13191
0.11915
0.1234
0.16596
0.2766
0.42128
0.54255
0.6
0.59362
0.54681
0.42766
0.20638
-0.070213
-0.34894
-0.54043
-0.65957
-0.70851
-0.68723
-0.62766
-0.54255
-0.44468
-0.34043
-0.21277
-0.080851
0.044681
0.12766
0.14681
0.18085
0.24681
0.38511
0.5617
0.70638
0.81277
0.8766
0.90851
0.86383
0.74468
0.55745
0.25319
-0.095745
-0.45106
-0.68511
-0.76383
-0.73617
-0.64255
-0.51915
-0.4
-0.27021
-0.1617
-0.055319
0.07234
0.2383
0.43617
0.58936
0.70213
0.75957
0.80851
0.82766
0.84043
0.81277
0.74681
0.65532
0.51277
0.32979
0.080851
-0.21489
-0.50213
-0.75319
-0.90213
-0.91064
-0.78298
-0.55957
-0.28298
-0.038298
0.17234
0.34468
0.48298
0.61064
0.70213
0.77447
0.80638
0.77021
0.68723
0.56596
0.41277
0.25532
0.10851
-0.025532
-0.15106
-0.28723
-0.43191
-0.56596
-0.67021
-0.67234
-0.58936
-0.41915
-0.21277
-0.010638
0.15532
0.29787
0.41702
0.49149
0.49574
0.46383
0.38723
0.28936
0.15957
0.0085106
-0.15532
-0.32979
-0.49362
-0.61702
-0.68936
-0.68723
-0.65319
-0.59574
-0.50213
-0.37234
-0.17872
0.012766
0.19574
0.34468
0.46809
0.57234
0.65745
0.71489
0.7234
0.69362
0.62766
0.54255
0.42553
0.31915
0.18936
0.023404
-0.19787
-0.42979
-0.61489
-0.71702
-0.71489
-0.64468
-0.51489
-0.32766
-0.11915
0.074468
0.23404
0.36383
0.45745
0.51489
0.5234
0.49787
0.4234
0.3234
0.22553
0.11915
0.046809
-0.010638
-0.02766
-0.02766
-0.051064
-0.10213
-0.18085
-0.26596
-0.30638
-0.30638
-0.25745
-0.18723
-0.080851
0.019149
0.12766
0.21915
0.29362
0.33404
0.33191
0.30426
0.25957
0.20638
0.15106
0.11277
0.068085
0.023404
-0.0021277
0.014894
0.080851
0.2
0.31064
0.3766
0.37234
0.3
0.16596
0.006383
-0.1383
-0.25745
-0.31702
-0.31489
-0.26809
-0.22553
-0.20426
-0.17447
-0.12128
-0.048936
0.034043
0.11489
0.19787
0.24043
0.2617
0.27234
0.31277
0.4
0.54681
0.68936
0.80426
0.88723
0.90426
0.91702
0.88511
0.83191
0.73404
0.60213
0.48085
0.29362
0.042553
-0.27234
-0.55745
-0.71489
-0.72979
-0.60638
-0.41915
-0.2234
-0.061702
0.070213
0.17021
0.25532
0.32766
0.37447
0.41064
0.43617
0.47872
0.50213
0.51489
0.5
0.47021
0.44468
0.42766
0.4383
0.45106
0.45319
0.4383
0.3617
0.25106
0.14255
0.053191
0.038298
0.095745
0.038298
-0.031915
-0.25532
-0.40851
-0.52128
-0.59149
-0.63404
-0.65745
-0.60851
-0.5
-0.32553
-0.12553
0.051064
0.19149
0.3
0.37447
0.40851
0.4234
0.42128
0.43404
0.47872
0.54681
0.61489
0.63617
0.60851
0.50851
0.3766
0.2234
0.12553
0.10213
0.15745
0.19362
0.1617
0.023404
-0.13191
-0.24255
-0.29149
-0.27234
-0.22553
-0.18936
-0.15957
-0.12128
-0.068085
-0.03617
-0.0085106
-0.006383
-0.014894
-0.012766
0.0085106
0.053191
0.11702
0.17447
0.22766
0.27021
0.28936
0.29149
0.31702
0.37872
0.50638
0.62766
0.72553
0.77234
0.78511
0.74255
0.55106
0.23191
-0.10851
-0.43191
-0.64468
-0.76596
-0.81064
-0.77447
-0.67872
-0.55319
-0.41064
-0.27447
-0.14894
-0.065957
-0.014894
-0.010638
-0.014894
0.042553
0.1617
0.35745
0.5234
0.66809
0.7766
0.84043
0.82979
0.74681
0.61277
0.43404
0.15745
-0.16383
-0.47234
-0.68723
-0.77447
-0.77234
-0.72553
-0.63617
-0.50638
-0.33404
-0.1617
-0.0021277
0.11702
0.19149
0.21702
0.23617
0.29574
0.39574
0.54468
0.68723
0.82553
0.93191
1
0.98298
0.87872
0.68085
0.41064
0.06383
-0.27021
-0.52979
-0.64043
-0.65745
-0.59787
-0.50213
-0.38511
-0.26809
-0.15745
-0.053191
0.021277
0.085106
0.12128
0.12766
0.12553
0.15745
0.25745
0.38511
0.52979
0.66596
0.76809
0.80213
0.74894
0.62128
0.47447
0.34255
0.14255
-0.10213
-0.41064
-0.66809
-0.82766
-0.87872
-0.83191
-0.69362
-0.5383
-0.37872
-0.23617
-0.10638
-0.0021277
0.07234
0.14043
0.19574
0.26383
0.32979
0.38085
0.42979
0.50213
0.61277
0.72979
0.82553
0.84894
0.80851
0.71915
0.60638
0.47447
0.28723
0.014894
-0.27234
-0.54468
-0.74043
-0.83404
-0.86383
-0.82553
-0.73404
-0.63404
-0.51489
-0.39787
-0.2766
-0.15532
-0.038298
0.074468
0.17447
0.26383
0.32128
0.35957
0.38723
0.38298
0.35106
0.3
0.24255
0.18723
0.15532
0.1234
0.07234
-0.010638
-0.1766
-0.42128
-0.71064
-0.87021
-0.91064
-0.81064
-0.70851
-0.62766
-0.58298
-0.51064
-0.37872
-0.21064
-0.023404
0.12979
0.23617
0.29362
0.32553
0.35957
0.39574
0.42128
0.43617
0.45532
0.47447
0.50638
0.53617
0.55532
0.55745
0.52553
0.46596
0.38085
0.29787
0.2234
0.12553
0.044681
-0.0085106
-0.044681
-0.11277
-0.23404
-0.35319
-0.43191
-0.46596
-0.44681
-0.4
-0.32766
-0.21277
-0.080851
0.031915
0.1234
0.18723
0.2234
0.25106
0.28085
0.30426
0.32128
0.32553
0.34468
0.3617
0.37447
0.3766
0.35957
0.3234
0.26809
0.2234
0.15106
0.006383
-0.14043
-0.25957
-0.33404
-0.35957
-0.41064
-0.46383
-0.48511
-0.45745
-0.38936
-0.29149
-0.16383
-0.061702
0.017021
0.065957
0.091489
0.13404
0.1617
0.2
0.21277
0.23404
0.25106
0.29574
0.35957
0.41277
0.46383
0.49787
0.5383
0.59362
0.6383
0.63191
0.56383
0.45106
0.31277
0.097872
-0.11915
-0.33617
-0.41489
-0.48936
-0.56596
-0.64468
-0.67447
-0.64043
-0.54681
-0.44255
-0.32766
-0.2234
-0.12553
-0.042553
0.019149
0.082979
0.14894
0.21277
0.27872
0.33404
0.37447
0.39362
0.41489
0.4234
0.42128
0.38936
0.32766
0.24255
0.14043
0.14043
0.23191
0.38723
0.39362
0.26809
0.006383
-0.22128
-0.3383
-0.38936
-0.38511
-0.3766
-0.35319
-0.33404
-0.28511
-0.21489
-0.12553
-0.023404
0.082979
0.18085
0.24894
0.28511
0.3
0.29787
0.29149
0.29149
0.29149
0.28723
0.3383
0.43617
0.57234
0.71064
0.79149
0.81915
0.78085
0.69787
0.58723
0.35106
0.078723
-0.25106
-0.48936
-0.64043
-0.69362
-0.68298
-0.60213
-0.5
-0.36596
-0.23191
-0.10426
0.006383
0.089362
0.15532
0.19574
0.23617
0.27447
0.31702
0.34681
0.37447
0.38085
0.33404
0.26809
0.21064
0.25319
0.39149
0.54468
0.65319
0.66809
0.6617
0.59362
0.41489
0.089362
-0.27447
-0.60426
-0.75532
-0.78085
-0.7383
-0.64468
-0.55106
-0.42979
-0.31702
-0.20426
-0.097872
0
0.082979
0.1766
0.27234
0.35532
0.41702
0.46809
0.50426
0.5234
0.51489
0.47872
0.39787
0.28511
0.15957
0.061702
-0.023404
-0.076596
-0.14255
-0.21915
-0.31064
-0.38298
-0.40638
-0.40213
-0.35106
-0.29574
-0.24043
-0.1766
-0.12128
-0.080851
-0.06383
-0.03617
-0.0042553
0.040426
0.10638
0.18085
0.25319
0.3
0.34255
0.38723
0.44468
0.50851
0.55319
0.57234
0.5617
0.56383
0.55745
0.50213
0.39149
0.25532
0.16809
0.20638
0.3766
0.43191
0.35532
0.085106
-0.22979
-0.45319
-0.58723
-0.65319
-0.67234
-0.64255
-0.58511
-0.48298
-0.37234
-0.25957
-0.14681
-0.051064
0.03617
0.10638
0.15957
0.20638
0.26809
0.35957
0.45745
0.55106
0.60213
0.6234
0.57234
0.48723
0.3766
0.26596
0.15106
0.034043
-0.059574
-0.14894
-0.21277
-0.29362
-0.34468
-0.37872
-0.36383
-0.34255
-0.3383
-0.31702
-0.27872
-0.21915
-0.15106
-0.074468
0.0042553
0.082979
0.16383
0.24468
0.32128
0.38298
0.44681
0.49787
0.52128
0.50638
0.45745
0.3766
0.29149
0.22553
0.18085
0.1383
-0.010638
-0.24255
-0.56383
-0.80638
-0.86809
-0.79362
-0.63191
-0.48085
-0.35745
-0.24681
-0.14468
-0.031915
0.061702
0.13404
0.2
0.25957
0.29787
0.32979
0.34043
0.32979
0.31277
0.29787
0.32128
0.32979
0.34255
0.35106
0.34468
0.32128
0.2617
0.19149
0.078723
-0.044681
-0.078723
-0.053191
-0.038298
-0.093617
-0.24894
-0.40851
-0.5
-0.54681
-0.52979
-0.49574
-0.45532
-0.4
-0.3234
-0.22766
-0.12553
-0.042553
0.03617
0.11702
0.19362
0.25745
0.30426
0.33404
0.37021
0.40426
0.45319
0.45745
0.42553
0.35532
0.28936
0.1766
0.02766
0.0042553
0.02766
0.053191
-0.0042553
-0.17021
-0.32128
-0.4234
-0.49149
-0.50213
-0.46596
-0.38298
-0.26809
-0.1383
-0.0085106
0.12128
0.22766
0.30426
0.35745
0.38511
0.38936
0.38723
0.38511
0.38723
0.39362
0.40426
0.41702
0.41915
0.42553
0.42128
0.4234
0.41915
0.40213
0.36809
0.30638
0.25319
0.20213
0.1617
0.091489
-0.10851
-0.3234
-0.55532
-0.6617
-0.63617
-0.53191
-0.41064
-0.31915
-0.27872
-0.29149
-0.29149
-0.25319
-0.14894
-0.038298
0.068085
0.11915
0.15745
0.19362
0.24894
0.31277
0.37234
0.4383
0.48936
0.51702
0.48723
0.42553
0.34255
0.27234
0.20213
0.031915
-0.17234
-0.35957
-0.42128
-0.38936
-0.34043
-0.27872
-0.20213
-0.1383
-0.10426
-0.089362
-0.091489
-0.078723
-0.040426
0.014894
0.085106
0.14043
0.18298
0.19787
0.21702
0.24681
0.28298
0.30213
0.27447
0.20213
0.10426
0.040426
0.038298
0.1
0.20638
0.35745
0.39149
0.35319
0.20213
0.023404
-0.11702
-0.24043
-0.31702
-0.33617
-0.32553
-0.27872
-0.21277
-0.13617
-0.074468
0.019149
0.1
0.17234
0.2383
0.29574
0.35106
0.4
0.44894
0.48085
0.5
0.51702
0.52979
0.52766
0.48511
0.4234
0.31064
0.21277
0.17447
0.28723
0.49362
0.60638
0.56383
0.32979
0.048936
-0.17021
-0.3
-0.37234
-0.38723
-0.38085
-0.3617
-0.32128
-0.24681
-0.15106
-0.068085
0
0.06383
0.13404
0.22553
0.31064
0.36383
0.37447
0.35319
0.32128
0.31064
0.30638
0.30638
0.28511
0.21489
0.14468
0.038298
-0.082979
-0.19787
-0.25319
-0.25957
-0.24255
-0.24468
-0.22128
-0.19362
-0.17234
-0.14894
-0.15319
-0.11277
-0.051064
0.038298
0.11702
0.17447
0.21702
0.24468
0.26383
0.26809
0.26383
0.25106
0.24894
0.27872
0.30851
0.34894
0.38085
0.4
0.4234
0.45532
0.50213
0.53404
0.57447
0.60426
0.55957
0.40213
0.14043
-0.1383
-0.33191
-0.44681
-0.48511
-0.46596
-0.44043
-0.40426
-0.35745
-0.27447
-0.15957
-0.034043
0.078723
0.15745
0.20851
0.22128
0.21489
0.19149
0.18298
0.21064
0.24255
0.28723
0.32979
0.36809
0.39787
0.42553
0.44468
0.44681
0.44043
0.41915
0.40426
0.37872
0.3617
0.29787
0.1766
0.055319
-0.0085106
0.07234
0.23404
0.41702
0.58085
0.78085
0.91277
0.89149
0.57234
0.13404
-0.2617
-0.48298
-0.57021
-0.59787
-0.56383
-0.49574
-0.43617
-0.35745
-0.30851
-0.26596
-0.22979
-0.19787
-0.15957
-0.11489
-0.059574
0.0042553
0.097872
0.21489
0.3766
0.51702
0.60851
0.64681
0.63404
0.54468
0.36383
0.12128
-0.13404
-0.33404
-0.47021
-0.56383
-0.6
-0.58085
-0.52553
-0.47234
-0.41489
-0.34468
-0.25957
-0.17234
-0.082979
0.017021
0.10851
0.21915
0.30426
0.37447
0.4
0.41064
0.38936
0.34681
0.29362
0.21702
0.14681
0.14468
0.26383
0.35745
0.3766
0.22766
0.0021277
-0.18085
-0.30638
-0.35957
-0.38511
-0.40213
-0.4234
-0.43404
-0.38085
-0.28936
-0.15957
-0.042553
0.03617
0.089362
0.11702
0.15957
0.19149
0.24681
0.27872
0.29574
0.26809
0.23404
0.16596
0.097872
0.02766
-0.029787
-0.042553
-0.074468
-0.1234
-0.22128
-0.31489
-0.4
-0.47021
-0.52766
-0.55532
-0.52979
-0.47234
-0.3766
-0.25745
-0.15745
-0.057447
0.046809
0.13404
0.20213
0.23404
0.24043
0.25106
0.27021
0.28936
0.28723
0.28298
0.28298
0.29362
0.29362
0.2617
0.20426
0.13404
0.082979
0.031915
0.031915
0.021277
-0.006383
-0.02766
-0.051064
-0.042553
0
0.040426
0.053191
0.042553
0.044681
0.044681
0.085106
0.14681
0.21489
0.26809
0.29149
0.31489
0.33404
0.36383
0.41064
0.45957
0.49787
0.5
0.4766
0.43191
0.38723
0.3617
0.34468
0.29149
0.16596
0
-0.13404
-0.19362
-0.15745
-0.097872
-0.10638
-0.15319
-0.21064
-0.25532
-0.26596
-0.25106
-0.19574
-0.14255
-0.057447
0.029787
0.1383
0.22128
0.25319
0.25319
0.2383
0.25532
0.28085
0.3
0.31915
0.33404
0.35106
0.3617
0.37021
0.37234
0.35532
0.31277
0.24894
0.1234
-0.12128
-0.34468
-0.51915
-0.56596
-0.52766
-0.48723
-0.4383
-0.35319
-0.24043
-0.11915
-0.023404
0.038298
0.059574
0.06383
0.070213
0.078723
0.10426
0.14468
0.17872
0.23191
0.27234
0.31064
0.35532
0.40426
0.44043
0.46383
0.46809
0.46383
0.45532
0.45319
0.45532
0.44894
0.4383
0.42128
0.39787
0.37021
0.32766
0.27234
0.19149
0.089362
-0.0021277
-0.055319
-0.053191
0.031915
0.14894
0.2766
0.40638
0.51915
0.69362
0.83404
0.83404
0.58936
0.16809
-0.25532
-0.51915
-0.62766
-0.6617
-0.61915
-0.54255
-0.44468
-0.33404
-0.23617
-0.17021
-0.13404
-0.10851
-0.087234
-0.059574
-0.034043
0.0021277
0.046809
0.093617
0.14255
0.16809
0.17234
0.15957
0.15957
0.1766
0.13617
0.046809
-0.12128
-0.32553
-0.50851
-0.66383
-0.75106
-0.78511
-0.72979
-0.65319
-0.53617
-0.41277
-0.28723
-0.18298
-0.097872
-0.03617
0.023404
0.074468
0.12979
0.18085
0.21915
0.27021
0.31489
0.35106
0.38936
0.4234
0.44894
0.4383
0.42128
0.42766
0.4617
0.49574
0.48936
0.42766
0.22979
-0.046809
-0.4
-0.71702
-0.85532
-0.82553
-0.65957
-0.47021
-0.29362
-0.1617
-0.051064
0.040426
0.12979
0.20851
0.27021
0.30851
0.33404
0.34255
0.34043
0.35957
0.36596
0.37447
0.35957
0.34043
0.30213
0.25532
0.20638
0.15745
0.12553
0.11915
0.12766
0.14468
0.19574
0.26809
0.35532
0.44468
0.51915
0.59362
0.64681
0.68298
0.70426
0.65106
0.44255
0.095745
-0.2766
-0.57447
-0.71489
-0.72979
-0.68298
-0.58511
-0.44894
-0.30426
-0.1617
-0.023404
0.097872
0.20851
0.29574
0.36596
0.4234
0.46383
0.5
0.53191
0.56809
0.60213
0.62553
0.6234
0.56596
0.45745
0.30213
0.10213
-0.068085
-0.1766
-0.19362
-0.18085
-0.19787
-0.2234
-0.2617
-0.27872
-0.25532
-0.20638
-0.12979
-0.053191
0.017021
0.078723
0.11702
0.15319
0.16596
0.18085
0.19362
0.20213
0.19574
0.17447
0.17234
0.16596
0.18511
0.18511
0.1766
0.15957
0.13404
0.16596
0.21064
0.25957
0.31489
0.35532
0.29362
0.14255
-0.10638
-0.35106
-0.51489
-0.59787
-0.60851
-0.58723
-0.5234
-0.4383
-0.32979
-0.22553
-0.12766
-0.042553
0.017021
0.068085
0.11277
0.15106
0.18298
0.2234
0.28298
0.34894
0.41064
0.45319
0.47234
0.47021
0.45957
0.41915
0.32979
0.21064
0.095745
0.048936
0.046809
0.080851
0.038298
-0.051064
-0.15957
-0.24468
-0.3
-0.35745
-0.37447
-0.38936
-0.36596
-0.32553
-0.25957
-0.16809
-0.07234
0.025532
0.095745
0.14043
0.17021
0.2
0.22553
0.25106
0.28298
0.30426
0.31915
0.32553
0.33191
0.32979
0.32553
0.32766
0.32766
0.32766
0.33617
0.35319
0.37447
0.39362
0.41064
0.41489
0.40426
0.38936
0.38511
0.38723
0.4
0.38936
0.33191
0.23191
0.070213
-0.13191
-0.31702
-0.4
-0.3383
-0.18936
-0.010638
0.1766
0.45532
0.68085
0.72979
0.47872
0.074468
-0.29149
-0.47021
-0.51064
-0.48511
-0.41702
-0.35106
-0.3
-0.27021
-0.24894
-0.22766
-0.18936
-0.14468
-0.089362
-0.02766
0.023404
0.082979
0.13617
0.18298
0.23404
0.25532
0.27234
0.27447
0.25319
0.16383
0.010638
-0.15532
-0.28298
-0.35745
-0.40851
-0.4383
-0.4383
-0.39574
-0.32979
-0.24468
-0.15957
-0.07234
0.019149
0.085106
0.13191
0.18085
0.22979
0.25745
0.28723
0.31489
0.33404
0.33191
0.31277
0.27021
0.20426
0.10213
-0.057447
-0.17021
-0.19574
-0.19362
-0.14894
-0.2
-0.25532
-0.29574
-0.35106
-0.39787
-0.40851
-0.39574
-0.33617
-0.24043
-0.10213
0.046809
0.16809
0.25532
0.30213
0.3234
0.34681
0.36596
0.38085
0.37234
0.36809
0.35745
0.35532
0.35319
0.35319
0.33617
0.29362
0.2383
0.15319
0.048936
-0.074468
-0.085106
-0.044681
0.006383
-0.010638
-0.12128
-0.25319
-0.30638
-0.34043
-0.3234
-0.28936
-0.20213
-0.10426
-0.006383
0.070213
0.10851
0.1383
0.15532
0.1766
0.2
0.22553
0.27021
0.31915
0.36809
0.41277
0.43617
0.44255
0.43404
0.42766
0.42979
0.41702
0.41064
0.38511
0.35957
0.30426
0.18936
-0.02766
-0.32553
-0.56383
-0.64255
-0.55532
-0.43404
-0.33404
-0.29362
-0.2766
-0.25532
-0.21064
-0.14894
-0.078723
0.010638
0.1
0.16809
0.20213
0.21702
0.21277
0.21489
0.23191
0.24255
0.26383
0.27447
0.27872
0.26809
0.24468
0.24043
0.2383
0.24468
0.24894
0.25532
0.24043
0.20213
0.14894
0.082979
0.038298
0.051064
0.11277
0.19149
0.28723
0.37021
0.49362
0.63404
0.84894
0.99574
0.99787
0.72553
0.2617
-0.21702
-0.55532
-0.71489
-0.74468
-0.7
-0.60851
-0.49149
-0.37447
-0.26383
-0.15957
-0.061702
0.021277
0.1
0.17872
0.24468
0.28085
0.30851
0.3
0.29787
0.29787
0.30426
0.34894
0.40426
0.48723
0.55532
0.57021
0.52128
0.40213
0.24681
0.040426
-0.1383
-0.30426
-0.38936
-0.42128
-0.39574
-0.35745
-0.31489
-0.24468
-0.17234
-0.082979
0.0042553
0.087234
0.14894
0.19362
0.24043
0.27021
0.28085
0.27872
0.27447
0.3
0.34043
0.38298
0.39574
0.37872
0.36809
0.35957
0.33404
0.29787
0.26383
0.18723
0.070213
-0.1
-0.26596
-0.39787
-0.45106
-0.47234
-0.42553
-0.35957
-0.24681
-0.15106
-0.10426
-0.085106
-0.085106
-0.061702
-0.029787
0.02766
0.10213
0.18723
0.25106
0.29787
0.32128
0.33191
0.32766
0.28723
0.23617
0.1766
0.14681
0.14468
0.14894
0.15106
0.10638
-0.0021277
-0.14468
-0.28511
-0.39574
-0.49362
-0.55957
-0.62553
-0.64894
-0.59362
-0.45957
-0.24681
-0.029787
0.16809
0.32766
0.43617
0.48723
0.49149
0.44681
0.38085
0.31064
0.25957
0.22553
0.20426
0.20213
0.18723
0.18298
0.16383
0.14255
0.10426
0.068085
0.031915
-0.034043
-0.10426
-0.19787
-0.28511
-0.37021
-0.45319
-0.49787
-0.51915
-0.44468
-0.29149
-0.087234
0.10851
0.30638
0.45106
0.55532
0.61277
0.64043
0.65106
0.62766
0.56596
0.47021
0.3766
0.2766
0.15957
0.019149
-0.14468
-0.24894
-0.31489
-0.31915
-0.27234
-0.19362
-0.11064
-0.051064
-0.0042553
0.0021277
-0.017021
-0.025532
-0.014894
0.019149
0.038298
0.055319
0.053191
0.051064
0.051064
0.11064
0.24255
0.44043
0.6617
0.80426
0.82128
0.75532
0.66383
0.54043
0.32766
0.06383
-0.25106
-0.47021
-0.60213
-0.63617
-0.60213
-0.49362
-0.36596
-0.24681
-0.16596
-0.11064
-0.065957
-0.025532
0.021277
0.080851
0.14043
0.20213
0.26383
0.31702
0.35957
0.40638
0.45957
0.49574
0.51277
0.51489
0.51489
0.5234
0.53617
0.54468
0.52128
0.47021
0.40426
0.34255
0.2617
0.15532
0.017021
-0.15106
-0.29149
-0.34468
-0.37234
-0.39787
-0.45319
-0.5
-0.49574
-0.44255
-0.3383
-0.21702
-0.093617
-0.0042553
0.06383
0.095745
0.11277
0.13404
0.15745
0.18511
0.21915
0.27021
0.29362
0.31702
0.31277
0.30426
0.29574
0.28511
0.27021
0.23617
0.17021
0.10213
0.031915
0.010638
0.040426
0.11489
0.16809
0.15106
0.059574
-0.07234
-0.18511
-0.25106
-0.26596
-0.26809
-0.25106
-0.24681
-0.21064
-0.17872
-0.11915
-0.059574
0.006383
0.061702
0.10851
0.13404
0.15532
0.17872
0.21064
0.24681
0.30213
0.35957
0.41064
0.44255
0.47447
0.49362
0.5
0.49362
0.47447
0.43617
0.38936
0.34255
0.28936
0.24043
0.17872
0.14681
0.15106
0.22128
0.34255
0.45106
0.54894
0.62128
0.68085
0.74255
0.75957
0.72979
0.55745
0.2
-0.20851
-0.6
-0.85745
-0.98085
-1
-0.95106
-0.84894
-0.70638
-0.5383
-0.36383
-0.18723
-0.038298
0.089362
0.19149
0.27447
0.34043
0.38085
0.4
0.39574
0.38085
0.3383
0.30426
0.26596
0.22766
0.20426
0.17872
0.15106
0.038298
-0.14681
-0.34468
-0.49362
-0.52553
-0.4617
-0.37234
-0.25532
-0.14681
-0.038298
0.055319
0.15106
0.23404
0.3
0.33617
0.35745
0.35319
0.32766
0.28511
0.23617
0.19787
0.16809
0.14468
0.13191
0.12553
0.13404
0.15532
0.16809
0.18723
0.21702
0.22128
0.20213
0.18936
0.16809
0.14255
0.13191
0.1383
0.16383
0.18723
0.21915
0.29362
0.39787
0.55957
0.68511
0.73404
0.60426
0.34255
0.025532
-0.24894
-0.43191
-0.55106
-0.62128
-0.64894
-0.61489
-0.5383
-0.43617
-0.31702
-0.20851
-0.11277
-0.046809
0.0085106
0.048936
0.076596
0.10638
0.14255
0.18936
0.22766
0.27234
0.30638
0.3234
0.31702
0.32766
0.32553
0.32553
0.30213
0.22766
0.15319
0.061702
-0.0085106
-0.044681
-0.034043
0.046809
0.11489
0.07234
-0.055319
-0.25106
-0.41489
-0.51277
-0.55106
-0.54681
-0.50426
-0.42553
-0.31702
-0.20851
-0.095745
-0.006383
0.044681
0.042553
0.021277
0.012766
0.023404
0.06383
0.10426
0.12766
0.13617
0.12553
0.12128
0.1234
0.13617
0.16596
0.22128
0.29149
0.37021
0.44255
0.49362
0.55319
0.60851
0.62979
0.58723
0.5
0.4
0.21489
-0.029787
-0.33404
-0.58511
-0.71702
-0.75106
-0.69787
-0.58936
-0.45532
-0.32979
-0.24043
-0.16383
-0.080851
0.0085106
0.11277
0.19787
0.27021
0.30426
0.31064
0.31277
0.3
0.28936
0.27872
0.28298
0.29149
0.32766
0.38511
0.42979
0.44043
0.39574
0.32128
0.21702
0.095745
-0.0042553
-0.097872
-0.17447
-0.24043
-0.27021
-0.34043
-0.38511
-0.4383
-0.44255
-0.38298
-0.28298
-0.17447
-0.091489
-0.03617
0.0085106
0.02766
0.034043
0.044681
0.078723
0.12979
0.21915
0.32553
0.43191
0.5234
0.58298
0.60638
0.59787
0.58085
0.57872
0.59362
0.61489
0.62553
0.60426
0.55745
0.47872
0.37447
0.23617
0.093617
-0.06383
-0.21915
-0.30426
-0.34894
-0.33617
-0.34468
-0.39574
-0.42128
-0.41277
-0.35745
-0.28085
-0.18298
-0.10638
-0.042553
-0.014894
-0.006383
0.0085106
0.048936
0.10638
0.15957
0.19362
0.22766
0.25106
0.28511
0.30426
0.31702
0.31489
0.32766
0.35106
0.35106
0.32766
0.27234
0.21489
0.14255
0.068085
-0.014894
-0.074468
-0.082979
-0.057447
-0.074468
-0.15319
-0.27234
-0.32766
-0.34681
-0.29787
-0.25532
-0.18511
-0.12979
-0.061702
0.019149
0.1
0.15957
0.21489
0.25745
0.28511
0.30851
0.33404
0.37447
0.41064
0.44894
0.4766
0.48936
0.50426
0.51702
0.51277
0.51277
0.50851
0.51064
0.51702
0.5234
0.53404
0.53617
0.51489
0.49149
0.45106
0.39574
0.31702
0.22128
0.11702
0.023404
-0.044681
-0.051064
0.025532
0.15957
0.27021
0.32128
0.31277
0.31489
0.27447
0.074468
-0.1617
-0.4383
-0.57872
-0.61702
-0.58085
-0.5
-0.39362
-0.29149
-0.19574
-0.14043
-0.076596
-0.029787
0.014894
0.029787
0.044681
0.055319
0.074468
0.11915
0.1766
0.24681
0.28936
0.3
0.3
0.27021
0.25745
0.25106
0.22766
0.1383
-0.014894
-0.23404
-0.46809
-0.60638
-0.61915
-0.51277
-0.35532
-0.20638
-0.080851
-0.006383
0.048936
0.091489
0.14255
0.20213
0.26596
0.32553
0.3617
0.38085
0.39787
0.41915
0.45957
0.51277
0.56596
0.59362
0.59362
0.54681
0.47447
0.38298
0.31702
0.24468
0.17234
0.11064
0.055319
0.0085106
-0.0042553
-0.051064
-0.13191
-0.23191
-0.3383
-0.39149
-0.41277
-0.39787
-0.34894
-0.27447
-0.22128
-0.14468
-0.068085
-0.0021277
0.059574
0.10638
0.14255
0.17234
0.19787
0.21915
0.23191
0.25106
0.28723
0.32766
0.36383
0.37447
0.35957
0.31915
0.27447
0.24255
0.19787
0.15532
0.12553
0.10851
0.091489
0.076596
0.06383
0.048936
0.014894
-0.053191
-0.18298
-0.35957
-0.5617
-0.69362
-0.70851
-0.57872
-0.32128
-0.091489
0.074468
0.14255
0.17872
0.20426
0.20851
0.20851
0.19787
0.19574
0.22128
0.27234
0.29574
