-0.10085
-0.070423
-0.038873
-0.025352
-0.034366
-0.069296
-0.10648
-0.13915
-0.16282
-0.1831
-0.20338
-0.2293
-0.26085
-0.2969
-0.34423
-0.38704
-0.42423
-0.45352
-0.46592
-0.46028
-0.43549
-0.40056
-0.3769
-0.37465
-0.40056
-0.47042
-0.62028
-0.84
-0.91324
-0.78704
-0.44338
-0.065915
0.16282
0.28113
0.30592
0.32056
0.33183
0.40507
0.46254
0.44225
0.39042
0.3138
0.26873
0.21915
0.14028
0.042254
-0.024225
-0.024225
-0.10423
-0.15944
-0.2169
-0.26085
-0.28225
-0.25634
-0.20113
-0.14704
-0.10648
-0.11099
-0.1538
-0.23268
-0.30704
-0.34197
-0.33183
-0.28789
-0.24169
-0.20451
-0.18648
-0.23606
-0.33408
-0.45014
-0.51887
-0.57408
-0.6631
-0.61577
-0.42761
-0.082817
0.27549
0.41972
0.3769
0.19211
-0.023099
-0.1493
-0.15155
-0.07493
0.046761
0.14479
0.2
0.2338
0.24845
0.28563
0.3093
0.30704
0.28676
0.24394
0.17859
0.091831
-0.0073239
-0.096338
-0.16169
-0.21465
-0.26535
-0.32394
-0.39718
-0.45239
-0.50423
-0.54028
-0.60225
-0.69239
-0.79042
-0.81408
-0.72169
-0.52789
-0.23606
0.053521
0.31042
0.4569
0.4738
0.40056
0.29239
0.15831
0.018592
-0.11662
-0.26197
-0.35549
-0.34648
-0.24732
-0.07493
0.054648
0.12113
0.073803
-0.015211
-0.10873
-0.18197
-0.23042
-0.26423
-0.27324
-0.22817
-0.15831
-0.088451
-0.070423
-0.15944
-0.37014
-0.46592
-0.4907
-0.29239
-0.046761
0.1493
0.28
0.35887
0.39831
0.46366
0.52563
0.55606
0.53014
0.45577
0.30592
0.1707
0.073803
0.016338
-0.03662
-0.11887
-0.20789
-0.24732
-0.25521
-0.24845
-0.25408
-0.26648
-0.27211
-0.26648
-0.25634
-0.26197
-0.28338
-0.3431
-0.42423
-0.49521
-0.5493
-0.56282
-0.5493
-0.51887
-0.51662
-0.52225
-0.52113
-0.43211
-0.24507
0.017465
0.27887
0.44
0.47155
0.40169
0.30141
0.24732
0.21127
0.20789
0.17634
0.11099
-0.042254
-0.26873
-0.47042
-0.5831
-0.56282
-0.42873
-0.26873
-0.11211
0.030986
0.16056
0.24282
0.28789
0.24732
0.13915
-0.00056338
-0.11211
-0.16507
-0.18761
-0.24394
-0.16394
-0.10873
0.042254
0.17296
0.26873
0.35099
0.3893
0.36225
0.27887
0.15718
0.017465
-0.11099
-0.18986
-0.22254
-0.22592
-0.21127
-0.19211
-0.15944
-0.13127
-0.11099
-0.13352
-0.22028
-0.32169
-0.39831
-0.3769
-0.28451
-0.14141
-0.053521
-0.024225
-0.091831
-0.20113
-0.32394
-0.41972
-0.42197
-0.33296
-0.20451
-0.097465
-0.077183
-0.15493
-0.28
-0.43324
-0.63268
-0.62479
-0.53352
-0.23606
0.13803
0.44676
0.68225
0.75662
0.68563
0.48507
0.23155
-0.016338
-0.20901
-0.28563
-0.23606
-0.087324
0.096338
0.2507
0.34986
0.3938
0.3938
0.36225
0.29803
0.21915
0.11775
0.0039437
-0.11324
-0.21915
-0.31268
-0.4107
-0.5031
-0.61352
-0.60676
-0.46817
-0.21803
0.088451
0.31155
0.46366
0.51324
0.45803
0.3307
0.17183
0.0073239
-0.13465
-0.21352
-0.24394
-0.22254
-0.18197
-0.13127
-0.096338
-0.12789
-0.19099
-0.26535
-0.21803
-0.094085
0.086197
0.20789
0.23831
0.17746
0.045634
-0.08169
-0.18986
-0.25746
-0.29803
-0.30254
-0.25972
-0.20563
-0.16169
-0.16845
-0.20563
-0.26535
-0.30704
-0.3138
-0.29465
-0.3138
-0.40394
-0.56732
-0.77014
-0.84676
-0.68789
-0.33521
0.10535
0.46028
0.6169
0.61352
0.45915
0.25183
0.054648
-0.13352
-0.26986
-0.29239
-0.18986
-0.016338
0.1493
0.27549
0.34535
0.38479
0.37239
0.31718
0.22817
0.12789
0.021972
-0.077183
-0.16169
-0.23606
-0.3138
-0.40056
-0.49746
-0.58761
-0.66986
-0.73521
-0.76789
-0.7769
-0.75775
-0.77577
-0.78592
-0.62141
-0.37577
-0.025352
0.2631
0.41408
0.45465
0.3769
0.23155
0.08507
-0.029859
-0.10197
-0.11775
-0.088451
-0.052394
-0.04
-0.096338
-0.2
-0.27437
-0.23718
-0.12789
0.0028169
0.054648
0.052394
-0.024225
-0.12225
-0.21014
-0.27099
-0.30817
-0.33296
-0.31268
-0.24732
-0.15718
-0.086197
-0.045634
-0.054648
-0.095211
-0.16732
-0.2169
-0.23944
-0.26986
-0.31268
-0.37803
-0.43437
-0.48507
-0.5369
-0.6169
-0.71042
-0.63155
-0.43549
-0.071549
0.28225
0.50873
0.59887
0.51549
0.30141
0.080563
0.021972
0.097465
0.2631
0.38817
0.41183
0.37014
0.31268
0.24056
0.20901
0.15944
0.060282
-0.08169
-0.21239
-0.28901
-0.31155
-0.30366
-0.28789
-0.27099
-0.25521
-0.24507
-0.2507
-0.26873
-0.30366
-0.33972
-0.37239
-0.38479
-0.37915
-0.35662
-0.32732
-0.29239
-0.26873
-0.24845
-0.23831
-0.22817
-0.21915
-0.20563
-0.19211
-0.18197
-0.18761
-0.21127
-0.25296
-0.31042
-0.40732
-0.54028
-0.64845
-0.59887
-0.44789
-0.18197
0.020845
0.14704
0.19324
0.18535
0.15606
0.1369
0.15042
0.22141
0.37577
0.56056
0.73183
0.78141
0.7307
0.63268
0.58085
0.59099
0.59211
0.50873
0.33746
0.13014
-0.061408
-0.2
-0.27437
-0.29803
-0.30254
-0.31831
-0.37239
-0.44451
-0.50423
-0.52113
-0.48394
-0.41972
-0.35887
-0.32507
-0.33746
-0.41296
-0.56958
-0.71493
-0.73408
-0.58423
-0.29239
-0.012958
0.19549
0.28789
0.29352
0.23155
0.14366
0.047887
-0.020845
-0.056901
-0.076056
-0.090704
-0.12563
-0.18423
-0.27775
-0.33183
-0.29915
-0.19211
-0.045634
0.044507
0.068169
0.030986
-0.083944
-0.18085
-0.23831
-0.24732
-0.20901
-0.14592
-0.076056
-0.035493
-0.061408
-0.1538
-0.3262
-0.53127
-0.62817
-0.50761
-0.23493
0.094085
0.35437
0.50873
0.5707
0.52563
0.42986
0.29239
0.14817
0.0073239
-0.12338
-0.21803
-0.2462
-0.21465
-0.11662
-0.012958
0.073803
0.11099
0.10197
0.044507
-0.089577
-0.25183
-0.37014
-0.3893
-0.30592
-0.18648
-0.089577
-0.07831
-0.13465
-0.24732
-0.36563
-0.43099
-0.45014
-0.44
-0.41859
-0.40282
-0.3769
-0.35324
-0.36901
-0.43324
-0.59099
-0.61577
-0.54479
-0.27662
0.061408
0.33408
0.53014
0.5662
0.46141
0.26085
0.017465
-0.18986
-0.31606
-0.32056
-0.22817
-0.10085
0.012958
0.056901
0.014085
-0.03662
-0.094085
-0.095211
-0.061408
-0.041127
-0.028732
-0.032113
-0.046761
-0.068169
-0.10873
-0.15155
-0.19887
-0.24394
-0.29014
-0.32056
-0.33859
-0.35549
-0.36451
-0.37803
-0.38817
-0.39042
-0.3893
-0.38817
-0.3893
-0.40732
-0.4107
-0.40282
-0.37465
-0.35775
-0.38254
-0.44789
-0.43775
-0.35549
-0.18535
-0.020845
0.054648
0.054648
-0.011831
-0.051268
-0.030986
0.095211
0.26986
0.39718
0.43437
0.43099
0.4569
0.52676
0.57183
0.52225
0.39493
0.26197
0.16958
0.12
0.072676
0.017465
-0.04338
-0.10648
-0.16732
-0.23155
-0.27662
-0.28789
-0.26986
-0.22704
-0.18986
-0.16169
-0.18986
-0.2631
-0.36676
-0.44901
-0.46817
-0.46817
-0.47042
-0.46817
-0.33746
-0.17296
0.032113
0.18761
0.27099
0.3431
0.40394
0.40507
0.37577
0.29577
0.18423
0.053521
-0.049014
-0.12113
-0.12789
-0.10197
-0.092958
-0.094085
-0.11099
-0.12676
-0.13014
-0.11775
-0.10085
-0.073803
-0.060282
-0.050141
-0.04
-0.025352
-0.025352
-0.032113
-0.047887
-0.07831
-0.098592
-0.12113
-0.14592
-0.17183
-0.19775
-0.21352
-0.2293
-0.24845
-0.27324
-0.30479
-0.3431
-0.40394
-0.5031
-0.58648
-0.51662
-0.32056
-0.010704
0.27437
0.4693
0.53352
0.47493
0.33972
0.20789
0.13915
0.10085
0.017465
-0.092958
-0.15718
-0.15718
-0.051268
0.083944
0.18986
0.27211
0.35887
0.43775
0.48056
0.43437
0.30141
0.13915
0.014085
-0.056901
-0.10085
-0.14479
-0.17859
-0.2462
-0.32958
-0.41972
-0.47493
-0.47155
-0.41408
-0.32282
-0.21239
-0.12676
-0.08169
-0.083944
-0.1662
-0.29577
-0.41746
-0.4693
-0.42423
-0.35662
-0.35437
-0.34085
-0.26873
-0.10423
0.08507
0.2462
0.36789
0.41521
0.35324
0.19662
0.019718
-0.14254
-0.27099
-0.34197
-0.3431
-0.28563
-0.17296
-0.042254
0.07831
0.16507
0.21465
0.22028
0.18873
0.13915
0.077183
0.027606
-0.014085
-0.058028
-0.10423
-0.17408
-0.23944
-0.30141
-0.34535
-0.37577
-0.39155
-0.40056
-0.39944
-0.39944
-0.39155
-0.38817
-0.37239
-0.35211
-0.3262
-0.29803
-0.27549
-0.25972
-0.2462
-0.23268
-0.21803
-0.20789
-0.19887
-0.19775
-0.21127
-0.2338
-0.26761
-0.30141
-0.32732
-0.34873
-0.35211
-0.35211
-0.34648
-0.34085
-0.34761
-0.34761
-0.36
-0.41408
-0.55718
-0.65408
-0.69127
-0.45352
-0.059155
0.41408
0.78141
0.90197
0.80732
0.60563
0.37803
0.20113
0.13014
0.15493
0.23493
0.32169
0.33859
0.30366
0.27775
0.26197
0.28563
0.29352
0.26873
0.20338
0.13014
0.055775
-0.0039437
-0.052394
-0.08169
-0.10986
-0.1369
-0.17408
-0.22479
-0.26648
-0.29465
-0.30592
-0.30817
-0.30817
-0.31268
-0.31944
-0.33408
-0.33746
-0.33521
-0.33296
-0.32845
-0.36
-0.42873
-0.54704
-0.68901
-0.79831
-0.7307
-0.53239
-0.22592
0.052394
0.24394
0.34761
0.36789
0.30704
0.18986
0.065915
-0.019718
-0.086197
-0.11662
-0.16394
-0.23493
-0.30028
-0.29915
-0.21239
-0.079437
0.046761
0.14704
0.19437
0.2169
0.21577
0.22817
0.22817
0.21239
0.17521
0.14141
0.097465
0.050141
0.0095775
-0.029859
-0.051268
-0.08169
-0.12113
-0.14592
-0.16507
-0.16845
-0.18873
-0.21014
-0.27662
-0.38366
-0.50197
-0.61239
-0.63718
-0.59324
-0.48394
-0.36676
-0.30479
-0.28563
-0.33183
-0.40282
-0.40845
-0.36563
-0.26648
-0.1538
-0.034366
0.068169
0.16169
0.2507
0.31042
0.33521
0.35324
0.33972
0.30254
0.26873
0.22704
0.19324
0.16056
0.11437
0.055775
0.010704
-0.0061972
0.0016901
0.014085
0.018592
0.0028169
-0.018592
-0.041127
-0.061408
-0.082817
-0.10986
-0.14028
-0.17634
-0.20676
-0.22704
-0.23718
-0.23944
-0.24282
-0.24394
-0.25521
-0.2631
-0.27775
-0.28789
-0.29127
-0.28563
-0.25972
-0.23606
-0.2169
-0.22817
-0.29352
-0.38141
-0.4693
-0.46366
-0.35324
-0.15718
0.027606
0.15493
0.19437
0.095211
-0.080563
-0.21014
-0.20451
-0.080563
0.063662
0.14366
0.13577
0.082817
0.0016901
-0.055775
-0.063662
-0.071549
-0.10986
-0.16056
-0.18535
-0.14479
-0.064789
0.015211
0.060282
0.055775
0.012958
-0.07493
-0.14817
-0.18873
-0.18535
-0.17408
-0.17296
-0.19437
-0.22254
-0.2631
-0.32845
-0.45915
-0.56845
-0.6507
-0.58197
-0.44338
-0.26085
-0.096338
0.034366
0.16056
0.29127
0.39493
0.48282
0.48845
0.44
0.41972
0.40958
0.3893
0.30817
0.17408
0.092958
0.11887
0.18873
0.24394
0.25746
0.22704
0.18986
0.12676
0.079437
0.00056338
-0.10197
-0.22254
-0.32958
-0.37352
-0.36901
-0.3431
-0.32507
-0.33972
-0.3769
-0.42761
-0.48507
-0.49408
-0.50197
-0.5031
-0.50873
-0.50986
-0.48845
-0.45239
-0.42648
-0.40169
-0.38479
-0.36789
-0.38141
-0.45577
-0.60113
-0.68789
-0.68
-0.52676
-0.30366
-0.096338
0.077183
0.19775
0.25183
0.22141
0.14479
0.071549
-0.0039437
-0.063662
-0.11324
-0.1493
-0.14817
-0.11775
-0.077183
-0.045634
-0.035493
-0.030986
-0.030986
-0.020845
-0.050141
-0.11324
-0.20113
-0.26085
-0.22141
-0.10197
0.067042
0.21577
0.29352
0.27887
0.18648
0.026479
-0.14366
-0.2338
-0.20676
-0.097465
0.03662
0.13127
0.14028
0.10085
0.020845
-0.033239
-0.071549
-0.095211
-0.14366
-0.15268
-0.10197
-0.00056338
0.099718
0.14479
0.11662
0.0084507
-0.13014
-0.3431
-0.54028
-0.59549
-0.49296
-0.23042
0.0073239
0.15493
0.23718
0.29577
0.32394
0.34761
0.35887
0.37127
0.38704
0.37577
0.34085
0.27211
0.16732
0.041127
-0.082817
-0.16958
-0.20225
-0.18648
-0.13127
-0.053521
-0.0028169
0.026479
-0.038873
-0.13803
-0.26423
-0.3262
-0.28563
-0.18197
-0.058028
0.015211
0.029859
-0.012958
-0.098592
-0.16845
-0.19211
-0.16958
-0.13465
-0.11324
-0.088451
-0.065915
-0.073803
-0.11211
-0.17972
-0.27549
-0.39718
-0.55718
-0.66761
-0.5831
-0.3769
-0.069296
0.16056
0.29014
0.32845
0.29127
0.1538
-0.012958
-0.15268
-0.21014
-0.16732
-0.049014
0.096338
0.20789
0.26761
0.26423
0.21465
0.17634
0.13352
0.087324
0.072676
0.095211
0.21577
0.35775
0.52451
0.63042
0.66423
0.57634
0.42423
0.16507
-0.099718
-0.30254
-0.36563
-0.31831
-0.18873
-0.10873
-0.097465
-0.15042
-0.25746
-0.36676
-0.50535
-0.66873
-0.84563
-0.96056
-1
-0.84225
-0.61127
-0.26873
-0.020845
0.11887
0.13352
0.090704
0.032113
-0.030986
-0.090704
-0.14141
-0.17634
-0.19662
-0.19662
-0.2
-0.20338
-0.18873
-0.16282
-0.11211
-0.056901
-0.012958
0.014085
0.0039437
-0.023099
-0.063662
-0.11324
-0.15944
-0.19887
-0.22592
-0.24169
-0.24845
-0.25408
-0.25746
-0.25972
-0.2631
-0.25746
-0.24845
-0.23155
-0.21239
-0.2
-0.20451
-0.2338
-0.29352
-0.37915
-0.50197
-0.6293
-0.61803
-0.48056
-0.23606
0.011831
0.21239
0.35211
0.43549
0.42197
0.27662
0.082817
-0.072676
-0.076056
-0.0028169
0.11099
0.15606
0.1707
0.17859
0.21127
0.28451
0.39944
0.50535
0.56056
0.52563
0.42648
0.26197
0.056901
-0.12563
-0.30592
-0.42535
-0.53803
-0.63042
-0.59775
-0.49408
-0.28338
-0.096338
0.046761
0.17634
0.27549
0.2969
0.23718
0.12563
0.026479
-0.019718
-0.059155
-0.10761
-0.2338
-0.3893
-0.51662
-0.52225
-0.43549
-0.28563
-0.17296
-0.13577
-0.18535
-0.29239
-0.3893
-0.44225
-0.43887
-0.3938
-0.31944
-0.22028
-0.1369
-0.072676
-0.021972
-0.0039437
0.0095775
-0.0073239
-0.024225
-0.04
-0.051268
-0.08169
-0.11775
-0.15155
-0.15944
-0.1662
-0.19887
-0.24845
-0.31944
-0.37915
-0.40056
-0.3769
-0.26986
-0.12563
0.020845
0.12901
0.1369
0.19211
0.23718
0.32282
0.38141
0.39606
0.44901
0.50197
0.54704
0.55042
0.50085
0.40958
0.31944
0.24732
0.21465
0.18761
0.12563
0.032113
-0.070423
-0.16169
-0.22028
-0.24282
-0.23493
-0.21577
-0.20451
-0.21803
-0.25521
-0.32394
-0.39493
-0.46704
-0.51324
-0.53465
-0.53577
-0.50761
-0.46479
-0.41183
-0.36451
-0.32845
-0.30479
-0.29915
-0.31493
-0.35099
-0.4107
-0.51099
-0.6507
-0.7431
-0.6293
-0.43437
-0.13352
0.064789
0.17859
0.21915
0.17183
0.04338
-0.11099
-0.25521
-0.26986
-0.18986
-0.045634
0.091831
0.16282
0.15944
0.15493
0.1538
0.20225
0.29352
0.38141
0.44338
0.45803
0.4231
0.31831
0.1707
0.027606
-0.086197
-0.1707
-0.23718
-0.32282
-0.44451
-0.56282
-0.56845
-0.50648
-0.34085
-0.18423
-0.038873
0.10648
0.18761
0.19887
0.16507
0.14254
0.14141
0.12901
0.096338
0.0084507
-0.10986
-0.23268
-0.29577
-0.32056
-0.26761
-0.20113
-0.14704
-0.14366
-0.2
-0.30254
-0.38028
-0.39493
-0.37915
-0.34986
-0.32732
-0.31493
-0.30028
-0.28451
-0.27549
-0.26986
-0.26873
-0.26986
-0.27211
-0.27099
-0.28113
-0.30817
-0.34761
-0.3938
-0.46254
-0.55042
-0.63268
-0.53127
-0.37915
-0.15606
-0.045634
-0.018592
0.018592
0.073803
0.16282
0.29352
0.4107
0.49972
0.55268
0.5831
0.60338
0.59662
0.53239
0.36789
0.1538
0.0028169
-0.04
0.033239
0.099718
0.07493
-0.017465
-0.17408
-0.30254
-0.37915
-0.40056
-0.39718
-0.40507
-0.42535
-0.44563
-0.45127
-0.45465
-0.44676
-0.42423
-0.40732
-0.37915
-0.39042
-0.49408
-0.54141
-0.49746
-0.33183
-0.062535
0.17746
0.33859
0.41296
0.36225
0.24169
0.10085
-0.049014
-0.19887
-0.3307
-0.44225
-0.50197
-0.44451
-0.28113
-0.047887
0.17859
0.3138
0.36451
0.27662
0.15718
0.042254
0.0095775
0.055775
0.1031
0.12113
0.076056
-0.024225
-0.17859
-0.39268
-0.54592
-0.49746
-0.31155
-0.025352
0.20338
0.42197
0.57972
0.65408
0.61577
0.50986
0.37014
0.22817
0.10648
0.026479
-0.010704
-0.027606
-0.04
-0.049014
-0.10986
-0.21352
-0.35324
-0.4738
-0.49859
-0.43662
-0.31606
-0.20338
-0.14141
-0.17183
-0.29239
-0.42986
-0.53127
-0.57746
-0.5662
-0.50648
-0.39042
-0.27211
-0.20901
-0.16958
-0.13352
-0.090704
-0.00056338
0.13239
0.31268
0.45239
0.46479
0.34085
0.17183
0.034366
-0.020845
-0.015211
0.049014
0.16169
0.29239
0.39718
0.43437
0.33972
0.14254
-0.092958
-0.29352
-0.40507
-0.4231
-0.38366
-0.34197
-0.34197
-0.36901
-0.41859
-0.39042
-0.26873
-0.082817
0.079437
0.16169
0.15493
0.11775
0.055775
-0.012958
-0.082817
-0.13803
-0.17296
-0.18648
-0.20451
-0.2169
-0.22817
-0.23493
-0.22704
-0.21239
-0.1831
-0.12901
-0.072676
-0.044507
-0.077183
-0.19662
-0.36451
-0.51211
-0.57296
-0.51662
-0.39155
-0.24169
-0.12451
-0.07493
-0.082817
-0.18873
-0.30366
-0.3938
-0.36
-0.21014
0.0028169
0.25859
0.48394
0.63606
0.70817
0.67662
0.59775
0.52113
0.4569
0.38704
0.31155
0.2
0.065915
-0.088451
-0.22704
-0.36113
-0.47718
-0.55831
-0.60338
-0.59549
-0.56507
-0.51887
-0.47493
-0.48282
-0.54254
-0.6169
-0.63718
-0.56732
-0.42648
-0.24732
-0.07831
0.071549
0.17183
0.22479
0.2293
0.18648
0.076056
-0.058028
-0.20225
-0.3138
-0.38028
-0.39944
-0.36789
-0.28451
-0.18986
-0.12113
-0.11887
-0.18873
-0.28676
-0.28789
-0.18873
-0.018592
0.10423
0.13577
0.10085
-0.0016901
-0.090704
-0.16845
-0.18986
-0.17746
-0.16845
-0.15831
-0.14704
-0.13465
-0.13465
-0.15493
-0.20225
-0.26535
-0.33634
-0.4062
-0.45352
-0.47944
-0.48169
-0.45803
-0.41972
-0.36563
-0.32282
-0.27324
-0.24958
-0.26873
-0.37014
-0.48282
-0.60225
-0.6338
-0.55831
-0.28225
0.12563
0.55831
0.87268
0.97296
0.91211
0.7307
0.51324
0.32958
0.21465
0.17296
0.16958
0.1538
0.13127
0.095211
0.054648
0.0084507
-0.055775
-0.11211
-0.13127
-0.1031
-0.051268
-0.014085
-0.029859
-0.10197
-0.20451
-0.28338
-0.28338
-0.24845
-0.22141
-0.24056
-0.27662
-0.3093
-0.3138
-0.2969
-0.25746
-0.19662
-0.11662
-0.038873
0.017465
0.052394
0.054648
-0.015211
-0.19887
-0.41521
-0.52901
-0.48958
-0.33746
-0.1538
-0.045634
-0.0095775
-0.056901
-0.14028
-0.17746
-0.14704
-0.079437
-0.0073239
0.047887
0.088451
0.10986
0.11662
0.10761
0.08169
0.037746
-0.024225
-0.080563
-0.091831
-0.018592
0.076056
0.16958
0.17183
0.099718
-0.030986
-0.20676
-0.34423
-0.40732
-0.39718
-0.35437
-0.31606
-0.29465
-0.27549
-0.25972
-0.23944
-0.23042
-0.21577
-0.2293
-0.25183
-0.29239
-0.34873
-0.39606
-0.42423
-0.44563
-0.48507
-0.59662
-0.69465
-0.69577
-0.5831
-0.39268
-0.15268
0.10197
0.36901
0.6
0.69239
0.71831
0.72732
0.73408
0.7431
0.69014
0.57296
0.44901
0.34423
0.24056
0.13465
0.028732
-0.019718
0.024225
0.11211
0.2
0.24169
0.19211
0.094085
-0.038873
-0.15268
-0.22366
-0.27662
-0.3138
-0.32732
-0.32282
-0.30592
-0.29014
-0.27324
-0.25183
-0.23944
-0.2462
-0.25972
-0.28113
-0.32732
-0.42085
-0.56056
-0.59887
-0.51662
-0.29915
-0.033239
0.17859
0.31944
0.37915
0.34535
0.25859
0.15042
0.037746
-0.062535
-0.13239
-0.1707
-0.18761
-0.19099
-0.20901
-0.24958
-0.30479
-0.30028
-0.19437
-0.033239
0.12113
0.20451
0.19324
0.098592
0.011831
-0.010704
0.061408
0.16056
0.20563
0.16394
0.056901
-0.076056
-0.20225
-0.29352
-0.33634
-0.34648
-0.34085
-0.3431
-0.33972
-0.33183
-0.31944
-0.30592
-0.30028
-0.28901
-0.28338
-0.27211
-0.26197
-0.25183
-0.2462
-0.25521
-0.26085
-0.25746
-0.26648
-0.30254
-0.36113
-0.42986
-0.49183
-0.59662
-0.71831
-0.74761
-0.68676
-0.48169
-0.28
-0.13803
-0.038873
0.054648
0.21127
0.45577
0.70592
0.90986
1
0.89746
0.66423
0.42761
0.2507
0.20789
0.22254
0.20901
0.15042
0.068169
-0.0095775
-0.028732
-0.0061972
0.015211
0.0050704
-0.038873
-0.10197
-0.16169
-0.20338
-0.22704
-0.23944
-0.2293
-0.22254
-0.21577
-0.21465
-0.22817
-0.25408
-0.28113
-0.29803
-0.30254
-0.30028
-0.29577
-0.29352
-0.29239
-0.28789
-0.28451
-0.26986
-0.25746
-0.24845
-0.25521
-0.26986
-0.28563
-0.30141
-0.31268
-0.3262
-0.33972
-0.34986
-0.37352
-0.39268
-0.42085
-0.4738
-0.57859
-0.63042
-0.55606
-0.37127
-0.14479
-0.023099
-0.010704
-0.045634
-0.092958
-0.070423
0.03662
0.20901
0.42197
0.58197
0.65408
0.58197
0.41972
0.27099
0.23155
0.29127
0.3938
0.43775
0.41296
0.3262
0.18986
0.079437
-0.010704
-0.08169
-0.1538
-0.24169
-0.30254
-0.3431
-0.3431
-0.30817
-0.26197
-0.23042
-0.22366
-0.26423
-0.31831
-0.35887
-0.37577
-0.36338
-0.34761
-0.34197
-0.33634
-0.3431
-0.34648
-0.36676
-0.38479
-0.39718
-0.40282
-0.41183
-0.41972
-0.41634
-0.39718
-0.36789
-0.33972
-0.31268
-0.29352
-0.28451
-0.29014
-0.30028
-0.32282
-0.34986
-0.39268
-0.43775
-0.49296
-0.57296
-0.66085
-0.65408
-0.55718
-0.34873
-0.15606
-0.024225
0.062535
0.10873
0.1031
0.080563
0.096338
0.21127
0.40056
0.62254
0.71155
0.64169
0.49408
0.35887
0.3138
0.33859
0.37352
0.36676
0.32169
0.2462
0.17296
0.089577
-0.014085
-0.099718
-0.12451
-0.097465
-0.050141
-0.026479
-0.034366
-0.091831
-0.1831
-0.26197
-0.31493
-0.32507
-0.3262
-0.31831
-0.28563
-0.25408
-0.23944
-0.2507
-0.27324
-0.29915
-0.31831
-0.32282
-0.32169
-0.31268
-0.36789
-0.48845
-0.61352
-0.57521
-0.39155
-0.10873
0.13352
0.31493
0.39831
0.40056
0.31831
0.2293
0.16958
0.13352
0.097465
0.058028
0.015211
-0.033239
-0.060282
-0.071549
-0.045634
-0.017465
0.020845
0.032113
-0.011831
-0.07831
-0.15042
-0.15493
-0.079437
0.045634
0.15831
0.22479
0.21465
0.14028
0.023099
-0.095211
-0.1831
-0.21127
-0.17859
-0.097465
0.020845
0.10648
0.11324
0.023099
-0.10986
-0.24507
-0.31493
-0.36901
-0.4569
-0.54817
-0.51549
-0.35099
-0.079437
0.1831
0.36451
0.44676
0.42085
0.30817
0.1538
0.061408
0.067042
0.12338
0.17972
0.21014
0.17859
0.10085
-0.0028169
-0.071549
-0.073803
-0.04338
0.011831
0.023099
-0.0050704
-0.10986
-0.2293
-0.30817
-0.32958
-0.31944
-0.31718
-0.3262
-0.32732
-0.30817
-0.29014
-0.27437
-0.26085
-0.24958
-0.24732
-0.25972
-0.28676
-0.32507
-0.36563
-0.40507
-0.47718
-0.58085
-0.70254
-0.69239
-0.54592
-0.29127
-0.035493
0.17521
0.33408
0.47042
0.53465
0.5369
0.51887
0.49859
0.4693
0.44
0.37352
0.28225
0.097465
-0.079437
-0.1707
-0.17183
-0.088451
-0.019718
-0.017465
-0.063662
-0.1369
-0.19887
-0.23831
-0.23606
-0.22817
-0.22141
-0.21352
-0.22254
-0.2462
-0.28113
-0.30592
-0.32394
-0.33183
-0.33859
-0.33408
-0.3262
-0.31718
-0.32958
-0.35887
-0.39155
-0.41859
-0.43437
-0.44676
-0.48732
-0.55268
-0.55606
-0.46704
-0.3093
-0.13352
-0.015211
0.033239
0.027606
-0.023099
-0.099718
-0.10761
-0.049014
0.03662
0.13577
0.25746
0.40958
0.58761
0.70254
0.70704
0.60451
0.44
0.26761
0.12113
0.0095775
-0.098592
-0.20338
-0.29239
-0.33408
-0.3262
-0.30817
-0.30817
-0.33521
-0.37915
-0.40394
-0.39493
-0.36113
-0.32169
-0.29465
-0.30028
-0.32732
-0.35662
-0.38366
-0.38366
-0.36789
-0.32169
-0.27324
-0.22366
-0.18986
-0.16732
-0.15155
-0.14141
-0.12789
-0.11099
-0.099718
-0.095211
-0.10535
-0.11775
-0.12789
-0.14141
-0.17746
-0.23493
-0.28563
-0.30254
-0.3431
-0.41972
-0.40958
-0.40732
-0.28338
-0.1831
-0.096338
0.017465
0.10085
0.13465
0.13803
0.10873
0.077183
0.08507
0.17634
0.34648
0.55493
0.67211
0.65521
0.54028
0.38479
0.26197
0.1831
0.13465
0.079437
0.012958
-0.029859
-0.059155
-0.094085
-0.14704
-0.22704
-0.30592
-0.36676
-0.40732
-0.42085
-0.41296
-0.39493
-0.37803
-0.37127
-0.38141
-0.40507
-0.43549
-0.45803
-0.46141
-0.44676
-0.42085
-0.3938
-0.37465
-0.35775
-0.34648
-0.33634
-0.32845
-0.32732
-0.3262
-0.32958
-0.33296
-0.33408
-0.33746
-0.33521
-0.32732
-0.31042
-0.28563
-0.25746
-0.22592
-0.19549
-0.17183
-0.1493
-0.12676
-0.095211
-0.065915
-0.060282
-0.056901
-0.095211
-0.14366
-0.20789
-0.28225
-0.36563
-0.49183
-0.59099
-0.56507
-0.44225
-0.22479
-0.079437
-0.021972
-0.042254
-0.07831
-0.063662
0.062535
0.25408
0.44901
0.47718
0.37465
0.26648
0.20338
0.26535
0.3769
0.46141
0.52789
0.53014
0.49972
0.46592
0.41972
0.35549
0.26197
0.13803
0.011831
-0.11662
-0.21803
-0.29239
-0.33634
-0.35887
-0.36563
-0.34423
-0.31268
-0.25972
-0.22817
-0.21352
-0.21803
-0.22254
-0.22704
-0.22592
-0.24394
-0.27887
-0.31268
-0.33634
-0.32732
-0.30028
-0.32507
-0.36789
-0.35887
-0.29239
-0.13577
0.011831
0.10085
0.12
0.059155
-0.062535
-0.1662
-0.21014
-0.2169
-0.19324
-0.13803
-0.077183
-0.0095775
0.061408
0.13915
0.21577
0.28901
0.32282
0.33296
0.30479
0.26986
0.21352
0.18535
0.19324
0.22704
0.26085
0.2462
0.18197
0.060282
-0.07493
-0.22592
-0.32056
-0.33408
-0.28451
-0.20901
-0.17183
-0.19775
-0.27662
-0.36789
-0.40958
-0.40958
-0.41296
-0.46592
-0.42648
-0.28563
-0.054648
0.1831
0.33634
0.41183
0.38141
0.24732
0.049014
-0.12338
-0.23944
-0.28338
-0.28563
-0.25972
-0.20901
-0.13014
-0.042254
0.051268
0.12113
0.17296
0.19211
0.17634
0.1493
0.14366
0.13014
0.11662
0.060282
-0.045634
-0.1538
-0.25634
-0.28789
-0.25521
-0.1707
-0.071549
-0.0039437
0.0061972
-0.049014
-0.1831
-0.34873
-0.49521
-0.5538
-0.48056
-0.35324
-0.26873
-0.29352
-0.36451
-0.32507
-0.18986
0.027606
0.19324
0.30817
0.37239
0.36451
0.34197
0.31042
0.3093
0.33296
0.32958
0.27662
0.19549
0.11099
0.052394
0.0095775
-0.023099
-0.047887
-0.063662
-0.082817
-0.11324
-0.14704
-0.17746
-0.2
-0.21352
-0.21465
-0.21352
-0.21014
-0.20676
-0.2
-0.19549
-0.18873
-0.18873
-0.19211
-0.21127
-0.24732
-0.28901
-0.30028
-0.28225
-0.29127
-0.36113
-0.40845
-0.35775
-0.22704
-0.056901
0.058028
0.13803
0.17859
0.14479
0.058028
-0.025352
-0.049014
-0.011831
0.076056
0.1493
0.18085
0.14254
0.051268
-0.0039437
0.07493
0.2293
0.39606
0.46141
0.41972
0.30592
0.16394
0.047887
-0.014085
-0.014085
-0.012958
-0.027606
-0.079437
-0.14479
-0.21239
-0.27437
-0.30254
-0.30817
-0.3307
-0.3769
-0.47831
-0.59775
-0.67437
-0.57859
-0.38817
-0.12113
0.096338
0.23606
0.31831
0.32958
0.29465
0.22479
0.17183
0.13465
0.12
0.079437
0.0061972
-0.092958
-0.20451
-0.30479
-0.37239
-0.3769
-0.31155
-0.21014
-0.12789
-0.07831
-0.08507
-0.14141
-0.22028
-0.30366
-0.37239
-0.40394
-0.39831
-0.39042
-0.37239
-0.35437
-0.33859
-0.32732
-0.32056
-0.32056
-0.32845
-0.32732
-0.33972
-0.33296
-0.32958
-0.32507
-0.31493
-0.31606
-0.31493
-0.31155
-0.30479
-0.30141
-0.29127
-0.28563
-0.28676
-0.29127
-0.3138
-0.35549
-0.39155
-0.42085
-0.48958
-0.57634
-0.56732
-0.50085
-0.32958
-0.17972
-0.089577
-0.020845
0.025352
0.08169
0.17183
0.32507
0.51775
0.66986
0.73408
0.62366
0.4569
0.34197
0.37352
0.49634
0.62141
0.66873
0.63042
0.52
0.38028
0.2462
0.12113
0.00056338
-0.11211
-0.19437
-0.25521
-0.29577
-0.33859
-0.35437
-0.35324
-0.33521
-0.35099
-0.38592
-0.46141
-0.53465
-0.57746
-0.56958
-0.52225
-0.47268
-0.44676
-0.44563
-0.47155
-0.4693
-0.4862
-0.52563
-0.59324
-0.61127
-0.47718
-0.25521
0.034366
0.26873
0.45127
0.51437
0.46028
0.31155
0.1707
0.069296
-0.0095775
-0.061408
-0.11211
-0.13803
-0.15042
-0.14254
-0.10197
-0.063662
-0.012958
0.017465
0.0073239
-0.023099
-0.017465
0.035493
0.1369
0.24169
0.29239
0.29239
0.22817
0.11887
0.00056338
-0.10197
-0.17859
-0.22254
-0.24394
-0.25746
-0.25746
-0.26197
-0.27211
-0.28338
-0.28451
-0.28225
-0.29127
-0.31042
-0.34197
-0.37239
-0.39831
-0.4569
-0.5369
-0.53014
-0.4107
-0.17521
0.090704
0.29577
0.43211
0.46366
0.36563
0.18085
0.0050704
-0.07831
-0.033239
0.11437
0.30028
0.43662
0.47944
0.39718
0.27211
0.21127
0.26873
0.37239
0.43887
0.4231
0.34761
0.25859
0.18986
0.1493
0.12563
0.092958
0.035493
-0.033239
-0.10197
-0.16169
-0.19662
-0.21803
-0.20789
-0.17859
-0.16732
-0.1662
-0.20451
-0.25634
-0.30817
-0.34873
-0.36451
-0.36113
-0.35775
-0.34535
-0.32732
-0.3093
-0.30817
-0.31155
-0.31944
-0.33408
-0.36
-0.39042
-0.4231
-0.43549
-0.49746
-0.57972
-0.59437
-0.49296
-0.25634
-0.018592
0.14141
0.2
0.19324
0.12789
0.055775
0.018592
0.026479
0.041127
0.07493
0.12
0.15718
0.2
0.1831
0.11211
0.030986
0.010704
0.080563
0.20789
0.30366
0.3307
0.2969
0.20563
0.11324
0.051268
0.00056338
-0.037746
-0.12113
-0.22254
-0.30028
-0.32958
-0.33746
-0.3431
-0.35324
-0.33521
-0.31155
-0.28
-0.26423
-0.28676
-0.32394
-0.37577
-0.43437
-0.49183
-0.54817
-0.59437
-0.61803
-0.65746
-0.73521
-0.82648
-0.73296
-0.56394
-0.27211
-0.029859
0.092958
0.1031
0.0050704
-0.1031
-0.11775
0.010704
0.20338
0.36901
0.48282
0.53014
0.52901
0.50761
0.48169
0.43211
0.34761
0.23268
0.11662
0.014085
-0.059155
-0.12563
-0.20676
-0.26648
-0.26423
-0.21239
-0.11099
-0.029859
0.024225
0.024225
-0.058028
-0.15606
-0.30479
-0.42423
-0.49746
-0.47155
-0.37127
-0.22254
-0.11437
-0.080563
-0.1707
-0.34873
-0.42197
-0.36676
-0.16845
0.1031
0.32056
0.49972
0.57183
0.5031
0.38366
0.23944
0.10423
-0.041127
-0.16958
-0.25972
-0.28
-0.2507
-0.18423
-0.10085
-0.033239
0.021972
0.059155
0.070423
0.071549
0.089577
0.095211
0.086197
0.04338
-0.028732
-0.091831
-0.15831
-0.20451
-0.23493
-0.25859
-0.28113
-0.29352
-0.30592
-0.3138
-0.31831
-0.31268
-0.30704
-0.31606
-0.35662
-0.39042
-0.42761
-0.42085
-0.39268
-0.35549
-0.30592
-0.26197
-0.24056
-0.23042
-0.25296
-0.33408
-0.41296
-0.39042
-0.24958
-0.0073239
0.21014
0.29127
0.20676
-0.086197
-0.076056
-0.055775
0.30366
0.53352
0.60676
0.56169
0.46366
0.35211
0.27099
0.21803
0.1707
0.12789
0.082817
0.04
-0.011831
-0.056901
-0.095211
-0.11549
-0.13127
-0.13915
-0.1538
-0.15944
-0.16732
-0.17408
-0.18761
-0.21465
-0.25972
-0.31155
-0.36451
-0.3938
-0.40507
-0.39268
-0.36563
-0.32282
-0.33408
-0.44
-0.40507
-0.40282
-0.24169
-0.10535
-0.0050704
0.052394
0.058028
-0.046761
-0.15042
-0.23155
-0.21465
-0.07493
0.15268
0.36563
0.49521
0.4862
0.36676
0.16394
-0.0084507
-0.062535
-0.0084507
0.12676
0.23606
0.25296
0.18873
0.10986
0.032113
0.018592
0.033239
0.049014
0.16394
0.32169
0.55831
0.75324
0.83099
0.75099
0.53577
0.28
0.04338
-0.12
-0.22817
-0.31268
-0.38366
-0.45127
-0.50648
-0.55042
-0.57972
-0.5831
-0.53915
-0.45577
-0.38479
-0.31944
-0.27887
-0.26761
-0.27211
-0.29127
-0.28901
-0.24732
-0.16169
-0.071549
-0.0016901
0.019718
-0.017465
-0.095211
-0.18648
-0.24732
-0.26197
-0.21577
-0.12563
-0.033239
0.04
0.053521
0.021972
-0.067042
-0.20901
-0.28901
-0.30704
-0.25296
-0.19775
-0.20338
-0.25521
-0.25972
-0.2293
-0.17296
-0.086197
-0.0061972
0.11099
0.20676
0.25634
0.24732
0.21239
0.17296
0.12451
0.046761
-0.051268
-0.1707
-0.26197
-0.30704
-0.2969
-0.2462
-0.18085
-0.1031
-0.023099
0.073803
0.15606
0.19662
0.16732
0.073803
-0.069296
-0.23944
-0.33972
-0.35099
-0.29803
-0.053521
0.16056
0.44563
0.6338
0.71944
0.72732
0.61915
0.46479
0.27662
0.12563
0.029859
-0.0084507
0.00056338
0.017465
-0.0073239
-0.091831
-0.21014
-0.32169
-0.4062
-0.43887
-0.42986
-0.39944
-0.36789
-0.33859
-0.32394
-0.32732
-0.32394
-0.30817
-0.27775
-0.23944
-0.21352
-0.20338
-0.2169
-0.25746
-0.31606
-0.37127
-0.3938
-0.35099
-0.27437
-0.19099
-0.14254
-0.2
-0.24394
-0.23493
-0.18423
-0.011831
0.15606
0.29014
0.34535
0.28676
0.15944
0.051268
-0.032113
-0.064789
-0.054648
-0.019718
0.019718
0.023099
-0.00056338
-0.063662
-0.16732
-0.24169
-0.24169
-0.16169
-0.019718
0.096338
0.11662
0.056901
-0.038873
-0.11437
-0.12113
-0.087324
-0.04338
-0.035493
-0.08169
-0.15944
-0.2338
-0.26761
-0.26423
-0.24845
-0.23493
-0.24958
-0.29915
-0.30366
-0.20563
0.0028169
0.32169
0.64169
0.85014
0.91775
0.8062
0.61352
0.42873
0.29014
0.17408
0.080563
-0.018592
-0.098592
-0.14817
-0.17296
-0.16732
-0.16958
-0.17972
-0.2
-0.25408
-0.3093
-0.34873
-0.30479
-0.21239
-0.087324
0.018592
0.064789
0.050141
-0.044507
-0.15606
-0.25859
-0.3138
-0.33521
-0.33408
-0.32056
-0.28563
-0.24282
-0.18873
-0.22704
-0.23831
-0.18761
-0.087324
0.12901
0.30817
0.41859
0.40845
0.27437
0.08507
-0.044507
-0.094085
-0.071549
-0.015211
0.029859
0.037746
0.021972
-0.00056338
-0.010704
-0.018592
-0.032113
-0.060282
-0.10423
-0.12676
-0.12225
-0.089577
-0.072676
-0.063662
-0.069296
-0.071549
-0.083944
-0.12113
-0.18761
-0.26761
-0.34761
-0.40056
-0.42085
-0.41296
-0.38704
-0.36563
-0.41634
-0.33859
-0.29014
-0.11887
0.023099
0.11099
0.13577
0.080563
-0.016338
-0.094085
-0.13352
-0.16056
-0.1831
-0.20563
-0.23042
-0.25183
-0.28338
-0.32845
-0.39155
-0.4569
-0.50648
-0.52789
-0.52
-0.5031
-0.49972
-0.49521
-0.49296
-0.43324
-0.34423
-0.22479
-0.12
-0.04338
-0.024225
-0.065915
-0.15606
-0.24169
-0.30141
-0.31268
-0.28676
-0.22704
-0.13803
-0.058028
-0.010704
-0.027606
-0.11887
-0.30366
-0.46141
-0.5538
-0.50761
-0.39268
-0.33408
-0.32958
-0.18873
-0.061408
0.29127
0.57521
0.7938
0.87268
0.7893
0.66197
0.54704
0.44563
0.35662
0.25183
0.16282
0.097465
0.053521
0.016338
-0.030986
-0.083944
-0.13465
-0.17746
-0.18873
-0.18986
-0.18423
-0.18197
-0.17746
-0.19549
-0.2338
-0.3093
-0.43437
-0.55606
-0.62479
-0.58085
-0.46592
-0.3138
-0.20113
-0.17634
-0.22141
-0.34423
-0.46254
-0.54479
-0.54141
-0.46704
-0.34648
-0.22028
-0.19549
-0.19549
-0.16958
-0.12225
0.03662
0.21915
0.33408
0.35775
0.27887
0.1662
0.10648
0.073803
0.025352
-0.027606
-0.08169
-0.12676
-0.14028
-0.12
-0.054648
0.012958
0.067042
0.088451
0.073803
0.047887
-0.0073239
-0.060282
-0.11775
-0.16169
-0.19324
-0.20901
-0.20676
-0.16169
-0.12563
-0.1493
-0.1831
-0.22817
-0.19549
-0.050141
0.17521
0.42085
0.57746
0.58761
0.49183
0.34423
0.19324
0.064789
-0.035493
-0.11662
-0.18197
-0.2462
-0.3138
-0.39268
-0.48732
-0.58648
-0.68789
-0.73972
-0.71493
-0.61127
-0.49296
-0.39155
-0.31831
-0.28
-0.27324
-0.30704
-0.33859
-0.33972
-0.30479
-0.26085
-0.22366
-0.19099
-0.17746
-0.17972
-0.19662
-0.21465
-0.23831
-0.26986
-0.31606
-0.37014
-0.43211
-0.50085
-0.5662
-0.60338
-0.60338
-0.58648
-0.52225
-0.40169
-0.17859
0.091831
0.35549
0.53352
0.62254
0.61803
0.55268
0.46141
0.35324
0.25408
0.14592
0.053521
-0.053521
-0.1662
-0.28
-0.35324
-0.35775
-0.27549
-0.13014
0.032113
0.12225
0.12225
0.027606
-0.10535
-0.21577
-0.28901
-0.28225
-0.23042
-0.14704
-0.077183
-0.067042
-0.094085
-0.14479
-0.21465
-0.30028
-0.36563
-0.42761
-0.3893
-0.32394
-0.15268
0.069296
0.23831
0.3093
0.26986
0.1662
0.029859
-0.07831
-0.17408
-0.19099
-0.14141
-0.04338
0.055775
0.11887
0.13014
0.090704
0.023099
-0.060282
-0.15606
-0.23155
-0.26423
-0.2462
-0.20225
-0.16394
-0.13352
-0.10873
-0.10535
-0.15493
-0.24845
-0.34986
-0.41972
-0.45014
-0.50761
-0.45915
-0.39042
-0.24169
-0.060282
0.10423
0.26423
0.39831
0.4738
0.5369
0.61803
0.67662
0.68225
0.6169
0.50535
0.37014
0.21915
0.059155
-0.092958
-0.16394
-0.15155
-0.077183
-0.024225
-0.015211
-0.055775
-0.13915
-0.23831
-0.32845
-0.38366
-0.4107
-0.42873
-0.44113
-0.43211
-0.42423
-0.42085
-0.42986
-0.45239
-0.47944
-0.50423
-0.5031
-0.47831
-0.43662
-0.38592
-0.40169
-0.38366
-0.30366
-0.17296
0.049014
0.2631
0.4107
0.4569
0.35549
0.17296
0.00056338
-0.10197
-0.13915
-0.12451
-0.083944
-0.064789
-0.060282
-0.07493
-0.082817
-0.082817
-0.087324
-0.10648
-0.15268
-0.20563
-0.26423
-0.33183
-0.40507
-0.47268
-0.46479
-0.36563
-0.18986
-0.028732
0.080563
0.11549
0.086197
-0.0039437
-0.13014
-0.25408
-0.35324
-0.38254
-0.39268
-0.33859
-0.2338
-0.08507
0.077183
0.2293
0.33746
0.43549
0.49859
0.51662
0.44901
0.31155
0.15155
-0.0061972
-0.11099
-0.19775
-0.26085
-0.28676
-0.27211
-0.25296
-0.2507
-0.29239
-0.39042
-0.49634
-0.53127
-0.45915
-0.30366
-0.12789
0.0016901
0.038873
-0.019718
-0.10085
-0.20676
-0.29239
-0.34986
-0.39268
-0.40958
-0.41972
-0.40169
-0.31831
-0.12676
0.083944
0.29127
0.40845
0.43662
0.4062
0.34197
0.28789
0.25746
0.20451
0.13127
0.067042
0.050141
0.068169
0.090704
0.11324
0.10873
0.076056
-0.0016901
-0.088451
-0.17296
-0.22479
-0.25296
-0.23718
-0.19437
-0.1369
-0.096338
-0.082817
-0.090704
-0.11437
-0.15155
-0.19324
-0.22592
-0.25634
-0.27662
-0.31268
-0.34197
-0.36225
-0.35437
-0.31944
-0.25521
-0.17408
-0.095211
-0.033239
0.0084507
0.0073239
-0.035493
-0.13465
-0.23493
-0.33634
-0.41746
-0.49746
-0.62592
-0.73183
-0.6969
-0.56507
-0.30366
-0.071549
0.090704
0.15718
0.1369
0.056901
-0.0084507
-0.030986
-0.0050704
0.058028
0.12789
0.17634
0.16394
0.073803
-0.077183
-0.2293
-0.30817
-0.26873
-0.12789
0.014085
0.10873
0.11775
0.082817
0.041127
0.034366
0.065915
0.10197
0.088451
0.027606
-0.058028
-0.15042
-0.23493
-0.29577
-0.33521
-0.34873
-0.34423
-0.33746
-0.3307
-0.34535
-0.37014
-0.4062
-0.44676
-0.52789
-0.6169
-0.60901
-0.49408
-0.2507
0.030986
0.26648
0.41521
0.45127
0.38254
0.27211
0.17746
0.091831
0.0061972
-0.052394
-0.08169
-0.070423
-0.015211
0.044507
0.08507
0.08169
0.041127
-0.016338
-0.062535
-0.094085
-0.099718
-0.058028
0.0016901
0.069296
0.12225
0.16507
0.17746
0.15493
0.090704
-0.0061972
-0.091831
-0.16958
-0.23042
-0.29127
-0.34197
-0.39042
-0.40958
-0.40169
-0.36676
-0.3307
-0.30366
-0.28563
-0.28
-0.28563
-0.30592
-0.34197
-0.3938
-0.48845
-0.55718
-0.50085
-0.35887
-0.12451
0.07831
0.22028
0.28901
0.2631
0.14592
0.012958
-0.055775
-0.025352
0.086197
0.21465
0.29577
0.3138
0.26761
0.1831
0.080563
-0.00056338
-0.044507
-0.044507
-0.010704
0.04
0.07493
0.076056
0.023099
-0.04
-0.08169
-0.095211
-0.072676
-0.053521
-0.042254
-0.067042
-0.12563
-0.19887
-0.25859
-0.30366
-0.32958
-0.3431
-0.33972
-0.3262
-0.32394
-0.33296
-0.34873
-0.37014
-0.38817
-0.41521
-0.47606
-0.56732
-0.56732
-0.46028
-0.24394
0.0039437
0.19549
0.32732
0.36789
0.31606
0.18423
0.055775
-0.068169
-0.13577
-0.14141
-0.099718
-0.025352
0.054648
0.11324
0.14479
0.13465
0.082817
-0.0073239
-0.11324
-0.21915
-0.29803
-0.30028
-0.25521
-0.17634
-0.10648
-0.067042
-0.045634
-0.046761
-0.079437
-0.13577
-0.17521
-0.18986
-0.18761
-0.18423
-0.19324
-0.21014
-0.22028
-0.22817
-0.24732
-0.27887
-0.32958
-0.38704
-0.43211
-0.4862
-0.55268
-0.59775
-0.50648
-0.3262
-0.073803
0.12676
0.25296
0.30366
0.27211
0.16845
0.044507
-0.050141
-0.071549
0.00056338
0.14366
0.29803
0.4062
0.43775
0.4062
0.32507
0.21352
0.089577
0.0084507
-0.0084507
0.028732
0.089577
0.10423
0.08169
0.015211
-0.063662
-0.12676
-0.1662
-0.15831
-0.13239
-0.10761
-0.10423
-0.11662
-0.13915
-0.17859
-0.23493
-0.29915
-0.35775
-0.38704
-0.39831
-0.40958
-0.47155
-0.55606
-0.49183
-0.35324
-0.088451
0.15493
0.33634
0.43549
0.4107
0.25972
0.051268
-0.13352
-0.26085
-0.30817
-0.26535
-0.1493
-0.010704
0.12113
0.23155
0.3093
0.34986
0.35437
0.31042
0.22479
0.12113
0.012958
-0.090704
-0.1707
-0.23268
-0.25634
-0.24394
-0.20338
-0.15944
-0.13239
-0.14704
-0.17634
-0.22028
-0.24958
-0.27887
-0.29014
-0.29915
-0.29465
-0.27437
-0.25296
-0.22479
-0.19099
-0.17296
-0.17859
-0.21352
-0.27549
-0.32169
-0.35437
-0.36338
-0.3769
-0.44451
-0.53465
-0.54817
-0.48394
-0.32958
-0.16056
-0.026479
0.070423
0.14817
0.20113
0.27437
0.37352
0.49634
0.59549
0.66761
0.71268
0.71831
0.67099
0.54254
0.3431
0.1493
0.018592
-0.017465
0.010704
0.033239
0.012958
-0.065915
-0.18535
-0.30141
-0.38592
-0.41859
-0.39606
-0.35775
-0.31944
-0.2969
-0.29803
-0.30254
-0.30704
-0.30479
-0.30817
-0.19211
