-0.4513
-0.41775
-0.39177
-0.42262
-0.49513
-0.58387
-0.58929
-0.46158
-0.22403
0.049242
0.27273
0.42424
0.50974
0.55682
0.546
0.45887
0.34199
0.21861
0.12879
0.062229
0.0037879
-0.055736
-0.11742
-0.16883
-0.21374
-0.28084
-0.36905
-0.45238
-0.47132
-0.4237
-0.36851
-0.36851
-0.38095
-0.31494
-0.14015
0.11797
0.3447
0.48539
0.53896
0.51732
0.44697
0.31818
0.15368
0.00054113
-0.10768
-0.14556
-0.14556
-0.14665
-0.17587
-0.20942
-0.26623
-0.36201
-0.46591
-0.58766
-0.65043
-0.66396
-0.65368
-0.6829
-0.73918
-0.73539
-0.55032
-0.21212
0.15963
0.41775
0.5368
0.56061
0.53193
0.48323
0.42424
0.34361
0.24459
0.24459
0.14286
0.0579
-0.0032468
-0.049784
-0.089286
-0.12446
-0.16558
-0.21861
-0.27273
-0.32955
-0.39394
-0.44697
-0.47511
-0.47944
-0.45779
-0.4329
-0.42045
-0.43128
-0.46374
-0.48593
-0.39556
-0.19372
0.070346
0.30411
0.44968
0.52219
0.54383
0.53084
0.45942
0.33496
0.18561
0.051948
-0.042749
-0.1039
-0.15206
-0.19372
-0.23268
-0.27543
-0.3171
-0.36526
-0.41937
-0.47835
-0.53517
-0.58171
-0.62608
-0.62771
-0.58766
-0.51515
-0.44372
-0.39069
-0.34794
-0.31439
-0.34253
-0.45238
-0.59957
-0.6645
-0.54329
-0.26353
0.063853
0.30952
0.43506
0.47619
0.43831
0.36364
0.30519
0.26786
0.28409
0.31277
0.31331
0.28842
0.23647
0.16775
0.079004
-0.030303
-0.13745
-0.20022
-0.23972
-0.2619
-0.30628
-0.37825
-0.44102
-0.48323
-0.49026
-0.48052
-0.47403
-0.44913
-0.37662
-0.23052
-0.061147
0.082792
0.12825
0.1066
0.062229
0.047078
0.0579
0.062771
0.032468
-0.02868
-0.0579
-0.060065
-0.032468
-0.011364
-0.024351
-0.056818
-0.095779
-0.125
-0.11797
-0.069805
-0.022727
0.012446
0.034632
0.058983
0.090368
0.11526
0.10985
0.076299
0.018398
-0.035714
-0.095779
-0.17045
-0.25271
-0.33171
-0.38095
-0.40206
-0.40584
-0.39773
-0.38366
-0.36255
-0.32089
-0.25974
-0.19264
-0.13149
-0.10498
-0.10335
-0.11418
-0.13853
-0.15855
-0.17965
-0.18885
-0.16721
-0.097403
-0.0016234
0.10714
0.15747
0.14177
0.1066
0.084957
0.11093
0.15855
0.17749
0.17208
0.14177
0.074134
-0.02868
-0.15368
-0.26082
-0.32413
-0.35444
-0.37229
-0.39881
-0.43723
-0.47944
-0.48864
-0.46916
-0.42587
-0.38582
-0.36688
-0.36905
-0.40801
-0.49784
-0.62229
-0.74946
-0.81439
-0.72024
-0.48485
-0.15206
0.16883
0.39881
0.53788
0.59578
0.57035
0.4908
0.40476
0.33117
0.2987
0.26353
0.17911
0.070346
-0.029221
-0.12121
-0.2105
-0.30736
-0.38853
-0.41288
-0.39069
-0.3566
-0.34957
-0.37338
-0.41288
-0.44481
-0.45238
-0.46537
-0.48593
-0.49892
-0.50379
-0.48485
-0.454
-0.4145
-0.36742
-0.32305
-0.29383
-0.35714
-0.56548
-0.82305
-1
-0.94048
-0.65801
-0.27002
0.11851
0.42532
0.63799
0.73918
0.77489
0.75595
0.67532
0.55574
0.41721
0.29167
0.18669
0.077922
-0.029762
-0.10552
-0.15314
-0.19048
-0.22727
-0.26786
-0.30141
-0.33171
-0.35498
-0.36851
-0.36526
-0.35173
-0.329
-0.30032
-0.26623
-0.23647
-0.21861
-0.23755
-0.29654
-0.39881
-0.51894
-0.59632
-0.54762
-0.34145
-0.022186
0.31169
0.59091
0.80249
0.96212
1
1
0.92154
0.80195
0.70509
0.60335
0.52273
0.46104
0.41991
0.37554
0.31439
0.24513
0.19102
0.14935
0.1158
0.087662
0.057359
0.016234
-0.012987
-0.036797
-0.038961
-0.030303
-0.023268
-0.030303
-0.068182
-0.14665
-0.20184
-0.18452
-0.025433
0.21429
0.45022
0.63149
0.72781
0.76407
0.73539
0.67641
0.60552
0.54383
0.48214
0.39232
0.27435
0.16071
0.075216
0.029762
0.0075758
-0.019481
-0.055195
-0.10281
-0.15314
-0.2013
-0.2381
-0.26461
-0.28409
-0.29329
-0.29275
-0.29924
-0.33712
-0.42262
-0.5487
-0.70942
-0.84091
-0.796
-0.57522
-0.18831
0.17641
0.43074
0.57143
0.59199
0.5276
0.40963
0.29275
0.21699
0.19643
0.17749
0.16126
0.13203
0.084416
0.008658
-0.080628
-0.15422
-0.17803
-0.16126
-0.14177
-0.15152
-0.21483
-0.30411
-0.38907
-0.43723
-0.46753
-0.47998
-0.43074
-0.32522
-0.16829
-0.030303
0.056818
0.10227
0.10173
0.067641
0.017857
-0.031385
-0.0671
-0.077922
-0.070346
-0.060606
-0.060606
-0.092532
-0.16342
-0.22944
-0.30574
-0.34037
-0.34848
-0.33387
-0.29545
-0.24567
-0.16613
-0.04329
0.10498
0.25649
0.35065
0.36255
0.34091
0.29167
0.26353
0.22078
0.12446
0.011905
-0.080628
-0.17154
-0.25216
-0.34091
-0.41071
-0.43615
-0.44751
-0.47348
-0.51623
-0.54978
-0.56494
-0.55357
-0.55465
-0.58009
-0.5882
-0.52435
-0.35011
-0.12662
0.086039
0.20833
0.25108
0.23755
0.20292
0.16667
0.13528
0.10931
0.084957
0.054113
0.0070346
-0.062771
-0.14177
-0.22457
-0.30032
-0.35714
-0.40693
-0.4421
-0.47348
-0.49621
-0.51353
-0.52489
-0.53788
-0.55519
-0.57684
-0.5974
-0.6131
-0.62229
-0.63149
-0.64177
-0.6526
-0.66126
-0.65476
-0.62446
-0.56548
-0.48593
-0.41071
-0.39286
-0.43506
-0.50595
-0.4881
-0.33766
-0.11093
0.12013
0.31061
0.40314
0.45455
0.45671
0.44968
0.43994
0.37771
0.29113
0.19426
0.098485
-0.0021645
-0.10011
-0.16396
-0.17424
-0.15963
-0.14286
-0.15152
-0.21537
-0.29329
-0.36905
-0.39069
-0.38636
-0.3869
-0.41829
-0.4881
-0.55736
-0.63853
-0.72132
-0.77976
-0.77868
-0.62608
-0.3658
-0.040584
0.24188
0.4329
0.52597
0.5276
0.44859
0.33063
0.1921
0.079004
0.0070346
-0.026515
-0.0579
-0.11201
-0.17262
-0.21429
-0.24459
-0.27489
-0.31331
-0.33766
-0.34524
-0.33983
-0.36039
-0.43561
-0.53626
-0.65963
-0.7408
-0.78301
-0.74242
-0.60823
-0.36418
-0.074675
0.17911
0.34145
0.42641
0.44264
0.38636
0.29924
0.20455
0.15909
0.15368
0.15314
0.14286
0.11147
0.073052
0.035173
-0.012446
-0.062771
-0.11201
-0.15963
-0.20076
-0.2381
-0.27597
-0.32089
-0.38745
-0.47835
-0.58171
-0.63745
-0.63312
-0.53896
-0.37338
-0.18344
0.0097403
0.13907
0.16883
0.12175
0.056818
0.016775
0.018939
0.011905
-0.02868
-0.07197
-0.12175
-0.19372
-0.2776
-0.4026
-0.49892
-0.55141
-0.55898
-0.52652
-0.48052
-0.40693
-0.3079
-0.17478
-0.051948
0.040043
0.089827
0.10281
0.091991
0.069805
0.035173
0
-0.042749
-0.090368
-0.15314
-0.21861
-0.28517
-0.34361
-0.39177
-0.43994
-0.48701
-0.53463
-0.57522
-0.60552
-0.62662
-0.62933
-0.62338
-0.61147
-0.60065
-0.57955
-0.56115
-0.57359
-0.67478
-0.83009
-0.96753
-0.95779
-0.75487
-0.4053
-0.0075758
0.33929
0.5855
0.68236
0.66613
0.56926
0.45779
0.34957
0.23864
0.13258
0.050866
-0.010823
-0.072511
-0.13745
-0.19426
-0.22024
-0.21537
-0.2013
-0.18452
-0.2132
-0.25866
-0.32143
-0.36255
-0.38095
-0.40152
-0.42749
-0.44535
-0.44535
-0.41504
-0.38366
-0.36147
-0.37392
-0.47998
-0.65801
-0.88149
-0.94859
-0.80357
-0.47619
-0.099567
0.18994
0.39286
0.52814
0.61851
0.63907
0.59091
0.49405
0.39123
0.30087
0.21753
0.12825
0.04816
-0.012987
-0.044913
-0.049242
-0.040043
-0.042208
-0.063853
-0.11472
-0.17532
-0.24729
-0.30519
-0.34903
-0.36255
-0.35552
-0.32684
-0.28301
-0.2408
-0.21861
-0.23052
-0.27273
-0.29816
-0.29708
-0.25054
-0.18344
-0.11418
-0.04816
0.011364
0.051407
0.061688
0.038961
0.030303
0.034091
0.061688
0.076299
0.060606
0.040043
0.030303
0.049242
0.085498
0.1342
0.16504
0.17857
0.17803
0.14719
0.086039
0.037879
0.015693
0.034091
0.0579
0.036797
0.014069
0.0097403
0.0010823
-0.021645
-0.076299
-0.15368
-0.20076
-0.23864
-0.26028
-0.29383
-0.32576
-0.34524
-0.33983
-0.31277
-0.30303
-0.30465
-0.32684
-0.36255
-0.40476
-0.43723
-0.44913
-0.43236
-0.3961
-0.36797
-0.33874
-0.34632
-0.40909
-0.56331
-0.7289
-0.83279
-0.77056
-0.5579
-0.25649
0.064935
0.34037
0.54275
0.67911
0.70509
0.66126
0.56872
0.48106
0.42154
0.36039
0.28517
0.21212
0.12608
0.02381
-0.088745
-0.16829
-0.19859
-0.17641
-0.14286
-0.10823
-0.11688
-0.18669
-0.3079
-0.36905
-0.28788
-0.082251
0.18398
0.37608
0.4789
0.51136
0.4881
0.45292
0.41017
0.3566
0.30628
0.24134
0.15747
0.0579
-0.039502
-0.12175
-0.18723
-0.24729
-0.30195
-0.35011
-0.38907
-0.41017
-0.41504
-0.39881
-0.37392
-0.34632
-0.31764
-0.29058
-0.26732
-0.25325
-0.26948
-0.34686
-0.45887
-0.58983
-0.60931
-0.48431
-0.23864
0.042749
0.26461
0.40909
0.49513
0.53409
0.5211
0.48647
0.4329
0.38907
0.34578
0.26299
0.16126
0.081169
0.013528
-0.0579
-0.14827
-0.24946
-0.29221
-0.27706
-0.24838
-0.2408
-0.28084
-0.32738
-0.35606
-0.37608
-0.42587
-0.51623
-0.60335
-0.60823
-0.5184
-0.3474
-0.14015
0.061688
0.20617
0.31061
0.36797
0.42911
0.48972
0.52273
0.50866
0.44805
0.35714
0.25487
0.15639
0.067641
-0.00054113
-0.04816
-0.079545
-0.10335
-0.12067
-0.13853
-0.16126
-0.19156
-0.23485
-0.29113
-0.34903
-0.39881
-0.42695
-0.43994
-0.44751
-0.45671
-0.47348
-0.49188
-0.51353
-0.52922
-0.53301
-0.5119
-0.47186
-0.4145
-0.3631
-0.33225
-0.33929
-0.43398
-0.53734
-0.59199
-0.43019
-0.10768
0.25162
0.50379
0.61742
0.59794
0.5395
0.46429
0.42695
0.41288
0.3631
0.296
0.22457
0.15584
0.084416
-0.0021645
-0.07684
-0.11039
-0.11039
-0.095779
-0.090909
-0.13474
-0.18939
-0.24297
-0.25974
-0.26461
-0.29437
-0.3474
-0.41613
-0.46645
-0.50054
-0.51245
-0.5119
-0.50595
-0.48972
-0.46266
-0.42424
-0.38799
-0.36201
-0.34794
-0.37879
-0.47944
-0.60552
-0.68344
-0.62771
-0.42316
-0.14665
0.15639
0.41504
0.60011
0.70509
0.69589
0.59957
0.46429
0.33712
0.26028
0.21266
0.1737
0.14502
0.12175
0.09145
0.030844
-0.049784
-0.12392
-0.16883
-0.17478
-0.17045
-0.17532
-0.21212
-0.25974
-0.29221
-0.29113
-0.2776
-0.25758
-0.24405
-0.22673
-0.21429
-0.20563
-0.19372
-0.18994
-0.204
-0.2381
-0.28409
-0.35444
-0.45022
-0.5395
-0.59307
-0.52706
-0.37446
-0.14773
0.089286
0.296
0.45779
0.55141
0.59794
0.57792
0.50758
0.40963
0.31926
0.26028
0.2132
0.14448
0.066017
0.0059524
-0.03842
-0.095238
-0.16721
-0.23972
-0.28355
-0.28301
-0.2684
-0.26515
-0.29058
-0.32197
-0.34524
-0.33279
-0.31115
-0.30087
-0.30465
-0.32413
-0.34848
-0.38203
-0.40152
-0.40152
-0.37716
-0.34361
-0.30087
-0.2711
-0.27597
-0.37879
-0.55519
-0.70725
-0.74405
-0.60227
-0.36039
-0.083874
0.16071
0.35498
0.4632
0.50433
0.49459
0.47619
0.45779
0.44048
0.39069
0.30682
0.20833
0.12987
0.062229
0.025433
0.0081169
0.03355
0.096861
0.14989
0.16937
0.12229
0.051407
-0.034632
-0.10173
-0.15206
-0.20292
-0.24838
-0.2711
-0.23918
-0.15639
-0.045455
0.055736
0.12933
0.18128
0.22457
0.2592
0.29491
0.31926
0.32413
0.28463
0.19481
0.063312
-0.054654
-0.13474
-0.16017
-0.15963
-0.13853
-0.10335
-0.050325
-0.0021645
0.036255
0.052489
0.049242
0.032468
0.012987
-0.018939
-0.051407
-0.096861
-0.1434
-0.19913
-0.24513
-0.2711
-0.28084
-0.28842
-0.30628
-0.329
-0.34632
-0.35444
-0.33387
-0.29545
-0.22727
-0.171
-0.1526
-0.16504
-0.17316
-0.16126
-0.13582
-0.15422
-0.21158
-0.27543
-0.31656
-0.32089
-0.29221
-0.24459
-0.18831
-0.14123
-0.13636
-0.22457
-0.39232
-0.51732
-0.48377
-0.27489
0.04329
0.30303
0.4724
0.56656
0.6039
0.62392
0.62987
0.61526
0.56872
0.48052
0.36255
0.24351
0.1553
0.10173
0.0579
0.012987
-0.027056
-0.056818
-0.077381
-0.10552
-0.12933
-0.1526
-0.17154
-0.19535
-0.2224
-0.24892
-0.2711
-0.28355
-0.29004
-0.29275
-0.29275
-0.30465
-0.3171
-0.33929
-0.3474
-0.34848
-0.33333
-0.30682
-0.28247
-0.27706
-0.31331
-0.39286
-0.51082
-0.68452
-0.86472
-0.95455
-0.85552
-0.5671
-0.171
0.19589
0.47403
0.63582
0.66937
0.61093
0.51136
0.41071
0.34632
0.29762
0.25703
0.22673
0.19751
0.15963
0.11201
0.061688
0.029762
-0.0016234
-0.035173
-0.09145
-0.18723
-0.28193
-0.36526
-0.37716
-0.34524
-0.29437
-0.25703
-0.24297
-0.24297
-0.26786
-0.35877
-0.48972
-0.61526
-0.62338
-0.46807
-0.22565
0.042208
0.25054
0.39665
0.47944
0.50162
0.46753
0.39448
0.30736
0.22565
0.16071
0.11634
0.080087
0.049242
0.018939
-0.012987
-0.045455
-0.080628
-0.12013
-0.16126
-0.19913
-0.23755
-0.2776
-0.33496
-0.38636
-0.42208
-0.40855
-0.36526
-0.30357
-0.26136
-0.29004
-0.41775
-0.57738
-0.62716
-0.49242
-0.16775
0.18128
0.43074
0.57468
0.59199
0.53139
0.43236
0.32576
0.25487
0.21212
0.16017
0.10335
0.040584
-0.018939
-0.089827
-0.16775
-0.23323
-0.26894
-0.25541
-0.2197
-0.19805
-0.22727
-0.28301
-0.33983
-0.34145
-0.32143
-0.31115
-0.38041
-0.55682
-0.65043
-0.6553
-0.41667
-0.08171
0.24134
0.47403
0.5974
0.62771
0.61742
0.57197
0.49405
0.40206
0.29058
0.17803
0.066017
-0.033009
-0.11255
-0.16883
-0.21483
-0.24838
-0.27381
-0.29437
-0.31331
-0.33333
-0.35335
-0.37933
-0.39881
-0.41775
-0.42857
-0.43506
-0.43669
-0.43831
-0.44751
-0.46266
-0.47457
-0.48052
-0.47024
-0.45779
-0.43939
-0.42478
-0.4026
-0.39286
-0.39827
-0.43885
-0.5119
-0.66991
-0.81602
-0.89502
-0.75866
-0.43561
-0.037338
0.33171
0.58279
0.66667
0.64069
0.54924
0.46266
0.40909
0.35498
0.31981
0.28409
0.23918
0.17478
0.10173
0.037879
-0.012446
-0.051407
-0.090909
-0.14989
-0.20346
-0.24134
-0.24621
-0.22835
-0.20887
-0.19372
-0.18236
-0.1737
-0.19102
-0.22186
-0.26082
-0.29816
-0.34686
-0.40747
-0.46374
-0.51136
-0.5211
-0.50433
-0.49188
-0.50216
-0.53301
-0.48701
-0.33442
-0.076299
0.18723
0.38961
0.53247
0.63528
0.67045
0.62013
0.52652
0.41234
0.32413
0.26082
0.20292
0.14773
0.09145
0.034091
-0.020563
-0.068182
-0.11255
-0.15314
-0.19589
-0.23268
-0.26028
-0.2776
-0.28734
-0.29437
-0.29816
-0.29762
-0.28842
-0.27219
-0.26894
-0.2895
-0.32251
-0.37284
-0.42208
-0.44102
-0.41937
-0.32468
-0.20022
-0.074675
-0.0021645
0.00054113
-0.047619
-0.10768
-0.13203
-0.12771
-0.098485
-0.051948
-0.0021645
0.013528
0.0091991
0.0010823
0.031926
0.10768
0.20184
0.29437
0.35552
0.39773
0.40909
0.42045
0.40584
0.37771
0.30574
0.18561
0.036255
-0.093074
-0.17045
-0.18398
-0.16342
-0.14069
-0.11526
-0.095779
-0.084957
-0.073593
-0.074675
-0.088203
-0.11201
-0.15314
-0.19589
-0.25108
-0.3171
-0.37879
-0.41613
-0.40855
-0.36093
-0.28139
-0.19643
-0.11201
-0.040043
0.012987
0.044913
0.0671
0.057359
0.033009
-0.034091
-0.12716
-0.23755
-0.31548
-0.36201
-0.35877
-0.33874
-0.33658
-0.36742
-0.41558
-0.46753
-0.50162
-0.50595
-0.53626
-0.62392
-0.65801
-0.62121
-0.39935
-0.074134
0.25
0.48214
0.59794
0.6039
0.56115
0.49784
0.42911
0.35768
0.28409
0.20563
0.11147
0.011364
-0.079545
-0.14015
-0.16342
-0.17262
-0.18019
-0.20833
-0.25271
-0.3079
-0.35173
-0.3869
-0.4145
-0.43561
-0.45238
-0.46861
-0.48214
-0.49134
-0.49459
-0.48755
-0.46916
-0.4421
-0.41504
-0.39448
-0.40043
-0.43074
-0.48593
-0.60714
-0.74567
-0.82738
-0.75
-0.49946
-0.14123
0.20346
0.47565
0.66126
0.73106
0.69643
0.60119
0.47835
0.37771
0.296
0.19968
0.12013
0.086039
0.0671
0.051948
0.014069
-0.016234
-0.020022
-0.01461
-0.0081169
-0.031926
-0.088745
-0.14935
-0.16775
-0.11255
-0.004329
0.11147
0.1829
0.20996
0.18994
0.14015
0.072511
-0.012987
-0.11147
-0.20887
-0.26136
-0.27922
-0.24892
-0.21753
-0.22024
-0.25703
-0.32197
-0.38961
-0.42316
-0.44751
-0.47457
-0.55195
-0.6434
-0.6618
-0.52489
-0.24621
0.08171
0.34686
0.50866
0.5855
0.59686
0.56872
0.49134
0.36526
0.20346
0.041667
-0.089827
-0.18831
-0.24188
-0.26407
-0.2381
-0.17532
-0.10227
-0.075216
-0.099026
-0.15584
-0.22944
-0.31764
-0.38528
-0.43236
-0.43561
-0.40422
-0.40476
-0.42316
-0.45455
-0.47565
-0.46645
-0.45076
-0.43994
-0.4421
-0.4605
-0.43777
-0.36472
-0.22781
-0.092532
0.0037879
0.077922
0.15314
0.25379
0.33442
0.38907
0.41234
0.41126
0.38582
0.33604
0.26299
0.18506
0.11039
0.040584
-0.025974
-0.09145
-0.15963
-0.22186
-0.28788
-0.34361
-0.38149
-0.41017
-0.41829
-0.43939
-0.4513
-0.47024
-0.48214
-0.48918
-0.48701
-0.48268
-0.47511
-0.46807
-0.46212
-0.45996
-0.46104
-0.46591
-0.48106
-0.49675
-0.51353
-0.51245
-0.49297
-0.45996
-0.41883
-0.38258
-0.35281
-0.36526
-0.47619
-0.65909
-0.82251
-0.84145
-0.64773
-0.34632
0.012987
0.34253
0.55032
0.64935
0.64069
0.60552
0.58279
0.51136
0.42532
0.31548
0.20184
0.079004
-0.036797
-0.10985
-0.12933
-0.11472
-0.094697
-0.094156
-0.12392
-0.15584
-0.16829
-0.15152
-0.12608
-0.11959
-0.12716
-0.14177
-0.15206
-0.16126
-0.17208
-0.18831
-0.22078
-0.26677
-0.31656
-0.34145
-0.34957
-0.33929
-0.33712
-0.37175
-0.45671
-0.60173
-0.70076
-0.67262
-0.51028
-0.27381
-0.049242
0.1553
0.33658
0.4816
0.54058
0.52165
0.45184
0.38203
0.33712
0.30736
0.25866
0.18615
0.10823
0.046537
0.016775
0.00054113
-0.040584
-0.10227
-0.1921
-0.24621
-0.25487
-0.24026
-0.22673
-0.28463
-0.32522
-0.33874
-0.20996
-0.00054113
0.24892
0.43074
0.52002
0.52652
0.49513
0.43723
0.35281
0.24351
0.10823
-0.03842
-0.19102
-0.31331
-0.39177
-0.41126
-0.37933
-0.31548
-0.24784
-0.22024
-0.23377
-0.26948
-0.31602
-0.375
-0.42749
-0.47835
-0.55519
-0.58442
-0.53842
-0.35714
-0.11797
0.12175
0.30141
0.43723
0.50541
0.52002
0.51461
0.4908
0.44589
0.37338
0.27976
0.18074
0.08658
-0.0016234
-0.07684
-0.13636
-0.18398
-0.22186
-0.24946
-0.2776
-0.29924
-0.32359
-0.3355
-0.34307
-0.35444
-0.36688
-0.37771
-0.37662
-0.37229
-0.37121
-0.38366
-0.40206
-0.4237
-0.43019
-0.41396
-0.3869
-0.35227
-0.33063
-0.32792
-0.3539
-0.43182
-0.52597
-0.60714
-0.62013
-0.51299
-0.3079
-0.022186
0.2408
0.43777
0.56115
0.56981
0.5276
0.4632
0.42045
0.3961
0.3447
0.27381
0.19481
0.099567
-0.027597
-0.14232
-0.2013
-0.18182
-0.1158
-0.029762
0.035714
0.052489
0.042208
0.011364
-0.0091991
-0.061688
-0.16234
-0.25162
-0.29654
-0.2408
-0.12229
-0.0064935
0.090909
0.12392
0.12392
0.10877
0.10714
0.11472
0.10877
0.093615
0.054113
0.0064935
-0.062771
-0.14989
-0.25325
-0.35444
-0.42641
-0.43182
-0.37013
-0.27652
-0.18561
-0.12608
-0.10444
-0.11364
-0.16558
-0.27543
-0.4237
-0.54113
-0.54221
-0.35768
-0.069805
0.20942
0.36959
0.44589
0.47186
0.49621
0.48431
0.43236
0.34848
0.25812
0.16342
0.069805
-0.027597
-0.12716
-0.2132
-0.28626
-0.3355
-0.37229
-0.39773
-0.41613
-0.42857
-0.43615
-0.44156
-0.44697
-0.45076
-0.44697
-0.44102
-0.43074
-0.42911
-0.47078
-0.54221
-0.65584
-0.70887
-0.63149
-0.40314
-0.077381
0.22727
0.43777
0.55141
0.57359
0.52273
0.4632
0.40963
0.39827
0.40422
0.35985
0.28463
0.20022
0.11688
0.036255
-0.058983
-0.15097
-0.20887
-0.23701
-0.25649
-0.28626
-0.3355
-0.37175
-0.3869
-0.35931
-0.32305
-0.30682
-0.32035
-0.33929
-0.35768
-0.3539
-0.33658
-0.31494
-0.29491
-0.28626
-0.28896
-0.30844
-0.35444
-0.43452
-0.55141
-0.67965
-0.75433
-0.71266
-0.54275
-0.28842
-0.023268
0.20292
0.36959
0.47511
0.53409
0.53409
0.47511
0.38149
0.28626
0.22348
0.17641
0.13799
0.084957
0.012987
-0.042749
-0.087662
-0.13095
-0.17424
-0.20996
-0.21266
-0.19156
-0.17316
-0.20563
-0.25703
-0.30736
-0.32089
-0.30682
-0.28788
-0.28896
-0.31006
-0.33658
-0.3631
-0.37879
-0.38366
-0.39881
-0.42965
-0.454
-0.43885
-0.39989
-0.35065
-0.30519
-0.2684
-0.17532
-0.037338
0.12067
0.27922
0.36905
0.39015
0.36418
0.30519
0.26299
0.25216
0.26515
0.28409
0.26245
0.21212
0.14502
0.075758
0.0075758
-0.0671
-0.1342
-0.14665
-0.13203
-0.10227
-0.1039
-0.13636
-0.16071
-0.16937
-0.14123
-0.1131
-0.10281
-0.12284
-0.18236
-0.26732
-0.35444
-0.42478
-0.47565
-0.50866
-0.49188
-0.39502
-0.23755
-0.063853
0.076299
0.17803
0.23755
0.23972
0.18452
0.10173
0.027056
-0.040584
-0.08171
-0.11742
-0.10823
-0.04816
0.049784
0.15963
0.22294
0.24729
0.22619
0.16991
0.089286
0.025974
-0.041667
-0.08171
-0.1461
-0.21266
-0.26407
-0.28355
-0.25974
-0.19372
-0.11742
-0.059524
-0.026515
-0.020022
-0.03355
-0.060065
-0.095238
-0.13528
-0.17749
-0.2197
-0.25974
-0.29437
-0.32143
-0.33874
-0.34903
-0.34686
-0.33063
-0.30087
-0.25974
-0.23918
-0.26082
-0.33387
-0.42695
-0.52435
-0.65476
-0.75108
-0.77327
-0.62121
-0.33117
0.0054113
0.30357
0.52002
0.64881
0.66017
0.59903
0.50054
0.40043
0.32738
0.26732
0.19697
0.14232
0.094156
0.049784
0.0021645
-0.049784
-0.1066
-0.14177
-0.16667
-0.18506
-0.19481
-0.21374
-0.24513
-0.29167
-0.33983
-0.38095
-0.39989
-0.40584
-0.40368
-0.38853
-0.36201
-0.32251
-0.28571
-0.27706
-0.30898
-0.36472
-0.44156
-0.55736
-0.68398
-0.72998
-0.6526
-0.41667
-0.14665
0.069264
0.21104
0.31115
0.37987
0.43074
0.44481
0.43885
0.41613
0.37446
0.31006
0.22078
0.14665
0.091991
0.065476
0.044372
0.015152
-0.026515
-0.070887
-0.11851
-0.16667
-0.22078
-0.27273
-0.32035
-0.35931
-0.38366
-0.39773
-0.3961
-0.38366
-0.35931
-0.3263
-0.29437
-0.27273
-0.29004
-0.3539
-0.43128
-0.49567
-0.58874
-0.66775
-0.71537
-0.65043
-0.45509
-0.18074
0.07684
0.28193
0.40043
0.42965
0.39827
0.35335
0.32468
0.32251
0.28517
0.21916
0.14665
0.081169
0.025974
-0.036797
-0.087662
-0.10606
-0.082251
-0.041126
-0.015152
-0.041126
-0.1039
-0.19913
-0.26948
-0.34903
-0.45942
-0.56926
-0.64123
-0.57468
-0.40476
-0.1526
0.10281
0.29221
0.40043
0.43561
0.44535
0.43885
0.41829
0.38095
0.3355
0.28139
0.19156
0.091991
0.0048701
-0.049242
-0.089286
-0.13745
-0.18506
-0.20563
-0.20455
-0.19372
-0.18885
-0.22403
-0.27002
-0.32468
-0.35119
-0.34686
-0.33279
-0.32359
-0.32143
-0.32468
-0.33009
-0.33225
-0.33983
-0.34686
-0.37175
-0.40639
-0.4421
-0.45346
-0.43669
-0.41342
-0.4026
-0.43939
-0.56548
-0.704
-0.81818
-0.796
-0.61959
-0.32792
-0.0010823
0.29437
0.49784
0.5882
0.58983
0.52489
0.43452
0.33766
0.23377
0.13474
0.08658
0.094156
0.14286
0.19697
0.24784
0.27868
0.28896
0.26677
0.21429
0.14069
0.05303
-0.032468
-0.12229
-0.21104
-0.30952
-0.38041
-0.37067
-0.28301
-0.13961
-0.016775
0.061147
0.10227
0.10281
0.07684
0.022727
-0.084957
-0.20509
-0.32684
-0.38582
-0.38095
-0.31818
-0.24892
-0.20022
-0.18344
-0.19426
-0.25649
-0.3474
-0.45292
-0.51407
-0.53734
-0.58387
-0.6461
-0.68561
-0.58387
-0.34091
0.0032468
0.29708
0.48323
0.55898
0.56223
0.54978
0.51245
0.4421
0.3355
0.20184
0.073593
-0.028139
-0.048701
-0.025433
0.024351
0.061147
0.073593
0.068182
0.047619
0.0097403
-0.039502
-0.09632
-0.14502
-0.17965
-0.2013
-0.21916
-0.24134
-0.27435
-0.31061
-0.34361
-0.34848
-0.31331
-0.24297
-0.15314
-0.078463
-0.030303
-0.024351
-0.04329
-0.11418
-0.20076
-0.30357
-0.39015
-0.4513
-0.45617
-0.43236
-0.37879
-0.29437
-0.2132
-0.075758
0.084416
0.24567
0.38149
0.44318
0.45887
0.45455
0.43561
0.39015
0.30032
0.19913
0.1066
0.045455
-0.0064935
-0.0671
-0.13474
-0.19859
-0.24946
-0.28193
-0.30357
-0.32359
-0.34361
-0.35931
-0.36905
-0.37175
-0.37284
-0.36797
-0.36201
-0.35444
-0.34524
-0.34524
-0.37284
-0.43128
-0.49946
-0.55465
-0.59037
-0.62554
-0.66937
-0.68615
-0.63366
-0.47619
-0.20509
0.10227
0.38258
0.58009
0.6618
0.62067
0.52976
0.42262
0.3474
0.30141
0.24297
0.18344
0.12662
0.075758
0.020563
-0.044372
-0.11851
-0.17911
-0.21374
-0.20617
-0.18561
-0.16017
-0.1461
-0.16991
-0.2381
-0.33658
-0.40043
-0.37933
-0.24729
-0.033009
0.17532
0.34632
0.44697
0.47835
0.46537
0.41667
0.34037
0.25325
0.15097
0.061147
-0.051948
-0.16721
-0.28355
-0.35444
-0.37284
-0.33983
-0.30087
-0.2803
-0.2987
-0.33766
-0.38907
-0.43831
-0.47944
-0.49351
-0.4816
-0.44102
-0.42262
-0.43452
-0.50812
-0.57738
-0.63853
-0.58171
-0.42803
-0.16667
0.11147
0.33712
0.48485
0.53734
0.51407
0.44156
0.33117
0.23485
0.15693
0.090368
0.026515
-0.037338
-0.09632
-0.15639
-0.19859
-0.23323
-0.24946
-0.25974
-0.27435
-0.29978
-0.33009
-0.35065
-0.36472
-0.375
-0.41396
-0.48539
-0.55411
-0.61147
-0.61851
-0.55195
-0.41775
-0.21483
0.017857
0.24351
0.41721
0.54113
0.54113
0.45238
0.32143
0.21158
0.16234
0.15584
0.13745
0.099567
0.042208
-0.022186
-0.085498
-0.12716
-0.15639
-0.16071
-0.14232
-0.12554
-0.12175
-0.13203
-0.16234
-0.20833
-0.26407
-0.34253
-0.421
-0.50054
-0.56169
-0.59253
-0.58496
-0.53626
-0.44426
-0.3355
-0.24675
-0.204
-0.18506
-0.18831
-0.18994
-0.16396
-0.12175
-0.064935
-0.032468
-0.041126
-0.044913
-0.065476
-0.077381
-0.099567
-0.125
-0.12175
-0.093074
-0.02381
0.067641
0.16667
0.26028
0.32955
0.375
0.38799
0.37554
0.3447
0.29924
0.24621
0.18615
0.11634
0.051948
-0.013528
-0.080087
-0.14448
-0.21266
-0.27219
-0.33442
-0.36851
-0.36959
-0.36634
-0.35714
-0.35173
-0.3382
-0.32035
-0.3355
-0.41775
-0.52002
-0.57955
-0.53571
-0.39177
-0.16017
0.073593
0.2868
0.44048
0.51732
0.5303
0.49838
0.43236
0.34957
0.25703
0.16396
0.083333
0.018939
-0.036797
-0.1066
-0.17857
-0.24513
-0.30032
-0.3382
-0.35552
-0.34903
-0.32955
-0.30411
-0.28301
-0.28734
-0.30952
-0.34361
-0.39177
-0.43398
-0.47511
-0.48268
-0.421
-0.32143
-0.17316
-0.037879
0.088745
0.18885
0.2684
0.32413
0.34091
0.29654
0.20725
0.096861
0.0075758
-0.040043
-0.040584
-0.024892
-0.022727
-0.069805
-0.16504
-0.26082
-0.33874
-0.37608
-0.37933
-0.37229
-0.35768
-0.34145
-0.33333
-0.3474
-0.38312
-0.39556
-0.36147
-0.25216
-0.092532
0.079004
0.22727
0.30465
0.31818
0.28788
0.23864
0.19048
0.13041
0.084957
0.029221
-0.02868
-0.094697
-0.15693
-0.20184
-0.24621
-0.27056
-0.31331
-0.34524
-0.375
-0.39502
-0.41721
-0.42587
-0.42045
-0.41342
-0.421
-0.44481
-0.46807
-0.43452
-0.31872
-0.12771
0.085498
0.25433
0.35768
0.40476
0.43777
0.454
0.44156
0.40206
0.32035
0.21158
0.084416
-0.026515
-0.11364
-0.16071
-0.19318
-0.20833
-0.22186
-0.24892
-0.2895
-0.34848
-0.41829
-0.47619
-0.5092
-0.50325
-0.46266
-0.40422
-0.35335
-0.32792
-0.32468
-0.34361
-0.40206
-0.48377
-0.56277
-0.65476
-0.74513
-0.78355
-0.73106
-0.52543
-0.22619
0.12392
0.42911
0.6461
0.74675
0.71916
0.61688
0.49297
0.37175
0.28139
0.20833
0.13203
0.074134
0.029221
-0.017857
-0.073052
-0.12825
-0.17154
-0.18831
-0.19751
-0.19156
-0.21212
-0.2592
-0.33063
-0.41017
-0.47132
-0.50758
-0.5184
-0.4789
-0.39773
-0.31006
-0.25703
-0.26786
-0.33279
-0.40963
-0.47186
-0.57035
-0.66991
-0.71537
-0.6131
-0.34957
-0.0059524
0.31223
0.54978
0.67587
0.68561
0.625
0.51786
0.39827
0.29221
0.20022
0.13149
0.062229
-0.021104
-0.088203
-0.12554
-0.11364
-0.09632
-0.087662
-0.097403
-0.10011
-0.11742
-0.1369
-0.16829
-0.19968
-0.26028
-0.31764
-0.37446
-0.40043
-0.39719
-0.38312
-0.35768
-0.32684
-0.29924
-0.29383
-0.30141
-0.34145
-0.42424
-0.579
-0.74567
-0.79491
-0.67587
-0.39827
-0.079004
0.19859
0.42262
0.579
0.66667
0.67424
0.60444
0.49297
0.39232
0.33063
0.2803
0.22132
0.1369
0.054654
-0.018398
-0.073052
-0.12175
-0.16288
-0.21753
-0.26515
-0.30682
-0.32846
-0.33712
-0.34632
-0.35714
-0.37338
-0.37987
-0.37825
-0.36634
-0.34578
-0.32359
-0.30303
-0.28463
-0.27489
-0.27489
-0.31006
-0.40584
-0.55195
-0.6737
-0.69805
-0.59253
-0.38961
-0.12825
0.14556
0.39177
0.5855
0.67803
0.65043
0.53734
0.4026
0.29383
0.22511
0.15801
0.097944
0.043831
0.016234
-0.018398
-0.0671
-0.12608
-0.16613
-0.17695
-0.18236
-0.17911
-0.21591
-0.26786
-0.31818
-0.35985
-0.39827
-0.43236
-0.48755
-0.54491
-0.61147
-0.63907
-0.57089
-0.42587
-0.23106
-0.047619
0.12879
0.27976
0.37392
0.42045
0.43236
0.41071
0.37771
0.32143
0.26028
0.20076
0.13474
0.055195
-0.029762
-0.1066
-0.16071
-0.19751
-0.22619
-0.24621
-0.25541
-0.24729
-0.23214
-0.20833
-0.17749
-0.14069
-0.1158
-0.11147
-0.12121
-0.14232
-0.16613
-0.19372
-0.21645
-0.24838
-0.28571
-0.33333
-0.38203
-0.41991
-0.44102
-0.44697
-0.44048
-0.43615
-0.43506
-0.43236
-0.43506
-0.43831
-0.45292
-0.46266
-0.43615
-0.37067
-0.27165
-0.20509
-0.13799
0.0075758
0.18777
0.41126
0.56439
0.61147
0.58117
0.49946
0.39935
0.30736
0.21537
0.15693
0.12879
0.12446
0.1039
0.044913
-0.028139
-0.093074
-0.13095
-0.14123
-0.15422
-0.17154
-0.18885
-0.20076
-0.20617
-0.20779
-0.21212
-0.22511
-0.23918
-0.26732
-0.2987
-0.33496
-0.35065
-0.33929
-0.31494
-0.29816
-0.31764
-0.37554
-0.46483
-0.56764
-0.67262
-0.73323
-0.69968
-0.57197
-0.36634
-0.14015
0.093615
0.31331
0.49892
0.61688
0.62771
0.5487
0.40584
0.26948
0.17965
0.13745
0.1342
0.1342
0.1158
0.067641
0.016775
-0.023268
-0.039502
-0.045455
-0.057359
-0.07197
-0.082792
-0.094697
-0.1131
-0.13961
-0.17695
-0.2408
-0.32197
-0.41613
-0.49405
-0.55303
-0.56548
-0.52165
-0.41342
-0.29924
-0.24892
-0.27056
-0.28734
-0.27814
-0.19643
-0.09632
0.013528
0.093074
0.13312
0.14719
0.18615
0.24838
0.29275
0.28896
0.24567
0.19481
0.15801
0.11905
0.095238
0.0671
0.028139
-0.023268
-0.084416
-0.13095
-0.15801
-0.17587
-0.19589
-0.22403
-0.24621
-0.24892
-0.24784
-0.25
-0.26894
-0.31277
-0.34524
-0.36742
-0.36797
-0.37067
-0.41558
-0.46699
-0.52489
-0.49729
-0.36742
-0.14989
0.073593
0.24459
0.33712
0.39123
0.41991
0.42045
0.38312
0.3263
0.2592
0.20238
0.14177
0.076299
0.011364
-0.051407
-0.097944
-0.13799
-0.17316
-0.19805
-0.20833
-0.22078
-0.24134
-0.29058
-0.36201
-0.41613
-0.44426
-0.45617
-0.48864
-0.48268
-0.42911
-0.28139
-0.091991
0.099567
0.26786
0.39286
0.47619
0.52381
0.5368
0.5276
0.47403
0.37175
0.2289
0.095238
0.015693
-0.0048701
-0.0054113
-0.028139
-0.10335
-0.19264
-0.2711
-0.32251
-0.37338
-0.41342
-0.43615
-0.40963
-0.35985
-0.31331
-0.29491
-0.29058
-0.30032
-0.30628
-0.31223
-0.32413
-0.33712
-0.38041
-0.5
-0.5974
-0.64448
-0.50379
-0.24405
0.035173
0.25703
0.38907
0.44751
0.48539
0.49134
0.46699
0.40368
0.32089
0.23485
0.15422
0.086039
0.030844
-0.004329
-0.034091
-0.061147
-0.11634
-0.17641
-0.23593
-0.28301
-0.31277
-0.33496
-0.35011
-0.35931
-0.35714
-0.34524
-0.33766
-0.34037
-0.36851
-0.40097
-0.42316
-0.46537
-0.55682
-0.60931
-0.59848
-0.43669
-0.19372
0.065476
0.30736
0.48647
0.58658
0.58929
0.5119
0.40693
0.31223
0.25649
0.21861
0.1434
0.051407
-0.033009
-0.085498
-0.11688
-0.15584
-0.20076
-0.22835
-0.22565
-0.20617
-0.18615
-0.17045
-0.19102
-0.2132
-0.23052
-0.2316
-0.2408
-0.29437
-0.37933
-0.45076
-0.47727
-0.47835
-0.47457
-0.50649
-0.57197
-0.64935
-0.66829
-0.56602
-0.34361
-0.047619
0.20022
0.38474
0.47781
0.52165
0.52489
0.47565
0.35281
0.20238
0.063853
-0.020563
-0.045455
-0.049242
-0.037338
-0.024351
-0.017857
-0.022186
-0.039502
-0.072511
-0.12825
-0.18344
-0.22511
-0.25433
-0.27597
-0.34253
-0.47024
-0.59416
-0.65422
-0.56006
-0.34957
-0.094156
0.14448
0.31331
0.41126
0.45022
0.43723
0.34632
0.22024
0.099567
0.025433
-0.0037879
-0.021104
-0.073052
-0.14881
-0.22294
-0.27219
-0.30519
-0.34091
-0.37446
-0.38041
-0.34037
-0.27543
-0.22403
-0.20887
-0.21483
-0.22619
-0.2013
-0.20942
-0.27706
-0.39286
-0.47673
-0.45346
-0.31764
-0.10227
0.11093
0.26677
0.34199
0.35552
0.33658
0.29708
0.22511
0.16126
0.125
0.10444
0.10173
0.085498
0.068182
0.047078
0.008658
-0.038961
-0.10823
-0.19372
-0.28301
-0.36797
-0.42045
-0.43723
-0.40801
-0.35714
-0.28842
-0.22186
-0.17749
-0.17857
-0.23431
-0.31981
-0.4026
-0.41396
-0.32738
-0.17154
0.020563
0.15963
0.24567
0.28193
0.27706
0.24459
0.18885
0.12229
0.075758
0.058442
0.064394
0.0671
0.030844
-0.057359
-0.18831
-0.29004
-0.33604
-0.32522
-0.30032
-0.25812
-0.21104
-0.16126
-0.14232
-0.17695
-0.25162
-0.35119
-0.4605
-0.54816
-0.56981
-0.45996
-0.25812
-0.0059524
0.18452
0.2987
0.36039
0.38095
0.36201
0.31656
0.25054
0.19318
0.16017
0.11742
0.071429
0.0081169
-0.058983
-0.10281
-0.13636
-0.15693
-0.1921
-0.23106
-0.27435
-0.29816
-0.31223
-0.31818
-0.31656
-0.31872
-0.31872
-0.3382
-0.40693
-0.50325
-0.58117
-0.5211
-0.33225
-0.044913
0.22294
0.41775
0.52381
0.56548
0.56548
0.52868
0.4632
0.38474
0.28788
0.16396
0.024351
-0.094697
-0.14665
-0.14394
-0.1039
-0.083874
-0.09145
-0.14502
-0.22132
-0.30574
-0.3631
-0.38799
-0.38745
-0.36255
-0.34794
-0.35281
-0.37229
-0.39232
-0.37229
-0.33387
-0.29383
-0.25433
-0.26623
-0.3474
-0.48485
-0.60931
-0.5671
-0.37554
-0.092532
0.11851
0.21807
0.23377
0.22998
0.25216
0.28247
0.30628
0.30952
0.28355
0.23431
0.15368
0.061147
-0.044913
-0.13366
-0.18994
-0.20238
-0.18561
-0.1737
-0.15747
-0.1553
-0.1553
-0.17857
-0.21483
-0.25271
-0.29708
-0.35444
-0.41667
-0.4789
-0.52706
-0.55465
-0.53463
-0.44318
-0.28084
-0.089286
0.068723
0.15801
0.18398
0.17587
0.14935
0.10768
0.03355
-0.074134
-0.19968
-0.29545
-0.3382
-0.329
-0.26136
-0.18831
-0.12879
-0.10931
-0.12933
-0.17208
-0.26948
-0.37771
-0.46212
-0.43561
-0.29491
-0.083874
0.12013
0.27814
0.3631
0.4053
0.4026
0.36418
0.29113
0.20887
0.14015
0.089286
0.054654
0.031926
0.010281
-0.019481
-0.062771
-0.12662
-0.17532
-0.20833
-0.22457
-0.23972
-0.2684
-0.29004
-0.29491
-0.28355
-0.2619
-0.24621
-0.23323
-0.21753
-0.21212
-0.21753
-0.26028
-0.36147
-0.47565
-0.57089
-0.57251
-0.46374
-0.2803
-0.061147
0.11526
0.2381
0.29816
0.32197
0.31277
0.26677
0.18669
0.087121
-0.0054113
-0.075758
-0.11472
-0.14232
-0.16396
-0.19156
-0.2381
-0.28734
-0.31602
-0.31277
-0.27165
-0.21158
-0.15422
-0.1066
-0.088745
-0.15314
-0.28139
-0.4145
-0.42803
-0.28084
-0.061147
0.1526
0.25433
0.29708
0.31223
0.33333
0.34794
0.30898
0.23214
0.13636
0.061147
-0.0016234
-0.069264
-0.15747
-0.24188
-0.31277
-0.34848
-0.34686
-0.31169
-0.26732
-0.22294
-0.21916
-0.27056
-0.35768
-0.40314
-0.34037
-0.1737
0.047619
0.24188
0.37933
0.43723
0.44968
0.41883
0.34794
0.20887
0.036797
-0.12013
-0.20942
-0.23593
-0.21537
-0.19859
-0.20617
-0.25433
-0.32197
-0.40206
-0.47294
-0.51082
-0.49567
-0.4421
-0.38258
-0.34686
-0.36472
-0.44264
-0.54113
-0.60606
-0.55032
-0.37608
-0.12121
0.12229
0.29762
0.40368
0.45887
0.50216
0.49242
0.41017
0.30195
0.19805
0.13528
0.09145
0.053571
0.0032468
-0.055736
-0.11905
-0.18128
-0.22619
-0.25
-0.25271
-0.23864
-0.22673
-0.23268
-0.24405
-0.26407
-0.28355
-0.31764
-0.37067
-0.41883
-0.44643
-0.46591
-0.44859
-0.41721
-0.34253
-0.23377
-0.10011
0.055736
0.22186
0.38149
0.44697
0.43344
0.35335
0.28463
0.25271
0.24892
0.21266
0.14502
0.062771
-0.0021645
-0.052489
-0.1066
-0.18723
-0.27435
-0.33117
-0.36797
-0.38312
-0.37987
-0.37446
-0.37716
-0.38636
-0.40747
-0.39827
-0.37446
-0.35119
-0.33225
-0.3447
-0.34524
-0.33279
-0.30844
-0.28571
-0.28571
-0.36851
-0.49784
-0.60823
-0.61364
-0.45942
-0.20942
0.061688
0.30411
0.47835
0.5947
0.63474
0.57359
0.45076
0.31494
0.23214
0.20292
0.19264
0.15314
0.079545
-0.0097403
-0.082251
-0.13636
-0.18182
-0.24242
-0.29113
-0.31764
-0.3079
-0.30032
-0.30249
-0.32305
-0.3566
-0.375
-0.3658
-0.34578
-0.33063
-0.3355
-0.34361
-0.36959
-0.37121
-0.35714
-0.32197
-0.30628
-0.39935
-0.52543
-0.6158
-0.54708
-0.31872
-0.024892
0.24946
0.46266
0.59794
0.64232
0.60227
0.48539
0.33225
0.19481
0.087121
0.01461
-0.034632
-0.073052
-0.089827
-0.10552
-0.11039
-0.1434
-0.18398
-0.22727
-0.26569
-0.29329
-0.3171
-0.34091
-0.36634
-0.38853
-0.4053
-0.40855
-0.39232
-0.35931
-0.31548
-0.27219
-0.2381
-0.2197
-0.21429
-0.23539
-0.30411
-0.43019
-0.5974
-0.72673
-0.75974
-0.64286
-0.40368
-0.094697
0.21483
0.48268
0.66234
0.7316
0.67478
0.53896
0.39286
0.27056
0.16775
0.12338
0.10173
0.13745
0.19859
0.2408
0.26299
0.23647
0.18669
0.12338
0.0579
-0.004329
-0.082251
-0.16017
-0.21266
-0.2224
-0.19048
-0.14556
-0.13474
-0.14719
-0.16829
-0.16071
-0.12175
-0.075758
-0.031926
-0.016775
-0.018398
-0.041667
-0.081169
-0.15206
-0.27652
-0.43669
-0.57576
-0.66829
-0.65909
-0.57359
-0.41775
-0.22565
-0.04329
0.11201
0.22132
0.29275
0.2895
0.24567
0.17749
0.14232
0.13636
0.15639
0.16775
0.12284
0.029221
-0.09145
-0.19643
-0.25487
-0.27489
-0.26353
-0.23647
-0.20617
-0.204
-0.22781
-0.25271
-0.26407
-0.24242
-0.24838
-0.28571
-0.3382
-0.37446
-0.39989
-0.45996
-0.54545
-0.61688
-0.59686
-0.46483
-0.24459
0.015152
0.25433
0.43128
0.54329
0.60065
0.61688
0.5882
0.50758
0.40476
0.27165
0.13745
0.015693
-0.079545
-0.14881
-0.18723
-0.20346
-0.22403
-0.2592
-0.32089
-0.37879
-0.42045
-0.42695
-0.40584
-0.35173
-0.30682
-0.29491
-0.31926
-0.33929
-0.34253
-0.32684
-0.31548
-0.33712
-0.38258
-0.43777
-0.43777
-0.35119
-0.17424
0.031926
0.20671
0.31115
0.36688
0.38853
0.38203
0.35444
0.31115
0.27219
0.23539
0.18615
0.10768
0.013528
-0.084957
-0.1737
-0.24729
-0.30411
-0.30249
-0.26948
-0.23214
-0.20455
-0.20455
-0.19913
-0.19426
-0.19264
-0.19372
-0.20346
-0.19102
-0.18452
-0.18452
-0.19264
-0.22944
-0.27489
-0.33117
-0.39448
-0.45455
-0.51786
-0.57738
-0.64989
-0.70346
-0.62554
-0.46645
-0.17749
0.1342
0.39881
0.62229
0.74026
0.77489
0.72132
0.58929
0.41991
0.27543
0.18398
0.14232
0.093615
0.037879
-0.030303
-0.10552
-0.17749
-0.22835
-0.2592
-0.24675
-0.21429
-0.16288
-0.10823
-0.097944
-0.13041
-0.19859
-0.28409
-0.34794
-0.40368
-0.50162
-0.60335
-0.67045
-0.63961
-0.48106
-0.26136
-0.021645
0.19048
0.34037
0.41504
0.41775
0.38203
0.32089
0.24297
0.16342
0.083333
0.0016234
-0.084416
-0.14448
-0.15963
-0.1461
-0.13582
-0.1434
-0.1461
-0.16071
-0.17803
-0.21861
-0.29762
-0.38474
-0.44859
-0.49621
-0.51569
-0.53896
-0.5211
-0.42262
-0.25325
-0.035714
0.14881
0.29491
0.36201
0.37229
0.32955
0.27381
0.24188
0.23106
0.23323
0.20671
0.13636
0.058983
-0.012446
-0.055195
-0.099026
-0.15043
-0.19859
-0.23052
-0.25054
-0.27597
-0.27435
-0.2803
-0.27652
-0.25108
-0.21429
-0.18831
-0.22457
-0.30465
-0.40206
-0.47403
-0.48377
-0.40097
-0.23864
-0.041667
0.11039
0.18236
0.17424
0.11147
0.035173
-0.031385
-0.077381
-0.10606
-0.094156
-0.069264
-0.02868
-0.022727
-0.064935
-0.15097
-0.24892
-0.31006
-0.32738
-0.30952
-0.26461
-0.22024
-0.18615
-0.18994
-0.21104
-0.20887
-0.19264
-0.19426
-0.21861
-0.27219
-0.33063
-0.33225
-0.28788
-0.17695
-0.035173
0.096861
0.21104
0.26677
0.28842
0.28842
0.28193
0.27652
0.25271
0.19048
0.11742
0.011905
-0.10281
-0.2013
-0.27219
-0.29221
-0.28301
-0.24946
-0.21374
-0.20779
-0.23431
-0.28788
-0.34524
-0.38149
-0.38312
-0.35931
-0.30032
-0.2592
-0.23485
-0.26569
-0.30844
-0.34091
-0.3474
-0.32468
-0.31439
-0.30574
-0.29762
-0.3079
-0.33225
-0.42857
