1] Testing Folder: 1
    Accuracy = 70.8333%

2] Testing Folder: 2
    Accuracy =  67.9167%

3] Testing Folder: 3
    Accuracy = 72.9167%

4] Testing Folder: 4
    Accuracy = 73.3333%

5] Testing Folder: 5
    Accuracy = 70.8333%

--------------------------------------------------

Accuracy = Total / 5 = 71.1667%