0.36223
0.39319
0.35604
0.24613
0.027864
-0.14396
-0.32663
-0.40867
-0.40402
-0.37771
-0.36378
-0.37771
-0.4257
-0.51238
-0.58824
-0.63158
-0.52167
-0.21517
0.18731
0.55728
0.66409
0.57276
0.41331
0.25542
0.21207
0.2322
0.31734
0.36378
0.3452
0.23839
0.088235
-0.10836
-0.28328
-0.41331
-0.43189
-0.40557
-0.3808
-0.37152
-0.40867
-0.47833
-0.56656
-0.63622
-0.60372
-0.387
0.0077399
0.40248
0.63932
0.62539
0.48762
0.31579
0.20433
0.21672
0.26006
0.35449
0.35139
0.26316
0.091331
-0.099071
-0.27709
-0.4257
-0.49071
-0.48142
-0.44892
-0.43189
-0.45201
-0.49226
-0.57276
-0.63777
-0.64087
-0.49536
-0.15015
0.23065
0.52167
0.56037
0.44737
0.28483
0.16409
0.16254
0.20588
0.32043
0.32043
0.31734
0.2709
0.11765
-0.066563
-0.23684
-0.39319
-0.46285
-0.4613
-0.43808
-0.41486
-0.43963
-0.4969
-0.58514
-0.65944
-0.70124
-0.58824
-0.28019
0.10991
0.4582
0.55263
0.47678
0.31115
0.1904
0.18421
0.21981
0.34056
0.3483
0.3065
0.16409
-0.0387
-0.20898
-0.37152
-0.45975
-0.47368
-0.45356
-0.44272
-0.44272
-0.47988
-0.55108
-0.62074
-0.67647
-0.6161
-0.36378
0.018576
0.39474
0.56811
0.52322
0.39164
0.25697
0.19814
0.24303
0.32043
0.36533
0.3452
0.2291
0.051084
-0.12848
-0.30186
-0.42879
-0.47988
-0.45356
-0.44118
-0.43344
-0.49381
-0.57895
-0.59288
-0.4969
-0.19659
0.17337
0.47833
0.57276
0.47368
0.3096
0.17957
0.14087
0.19505
0.27554
0.31734
0.31115
0.22601
0.035604
-0.12229
-0.28793
-0.38235
-0.42415
-0.41176
-0.38545
-0.3483
-0.3483
-0.40402
-0.47368
-0.55573
-0.60681
-0.51548
-0.23994
0.14396
0.50929
0.62074
0.56656
0.40867
0.28328
0.26471
0.30186
0.41796
0.41796
0.37307
0.21362
0.013932
-0.16718
-0.34211
-0.4257
-0.43808
-0.40557
-0.387
-0.43034
-0.51548
-0.613
-0.59288
-0.41331
-0.058824
0.30805
0.54644
0.55573
0.39628
0.25232
0.16873
0.17647
0.22601
0.30805
0.33901
0.29412
0.14706
-0.043344
-0.21981
-0.35449
-0.41796
-0.42415
-0.40712
-0.36997
-0.36533
-0.40248
-0.46594
-0.55108
-0.613
-0.58669
-0.39164
-0.027864
0.36223
0.61455
0.6161
0.51858
0.3808
0.34056
0.3452
0.39938
0.43963
0.41331
0.32043
0.10062
-0.086687
-0.28173
-0.40093
-0.42879
-0.4195
-0.4195
-0.43344
-0.48762
-0.56811
-0.64396
-0.65944
-0.52012
-0.17337
0.2322
0.54489
0.60991
0.49071
0.33127
0.24458
0.25232
0.3065
0.38854
0.38545
0.32972
0.18421
-0.026316
-0.22136
-0.39164
-0.45511
-0.45356
-0.43344
-0.4257
-0.43034
-0.47988
-0.54954
-0.62384
-0.67647
-0.61146
-0.37152
0.003096
0.39009
0.56811
0.53715
0.41176
0.30341
0.32043
0.33127
0.4195
0.41796
0.38235
0.26316
0.05418
-0.14551
-0.34056
-0.44737
-0.46594
-0.44118
-0.43498
-0.45046
-0.49381
-0.56037
-0.62539
-0.66718
-0.62539
-0.41331
-0.034056
0.3839
0.62384
0.60836
0.49226
0.36223
0.35449
0.37461
0.43653
0.47678
0.44272
0.34056
0.15325
-0.063467
-0.24458
-0.39628
-0.41641
-0.4195
-0.41022
-0.43498
-0.48452
-0.5418
-0.59907
-0.65635
-0.64396
-0.48452
-0.13158
0.27709
0.56811
0.59598
0.46904
0.30495
0.24613
0.25851
0.32353
0.40867
0.39783
0.31889
0.15789
-0.072755
-0.28638
-0.45975
-0.51858
-0.50619
-0.49536
-0.50774
-0.55882
-0.61765
-0.68576
-0.74458
-0.75697
-0.63158
-0.29721
0.13158
0.48452
0.58204
0.49226
0.3483
0.27709
0.30805
0.36687
0.45975
0.42724
0.38235
0.24149
0.018576
-0.17802
-0.36997
-0.43963
-0.43034
-0.41176
-0.42105
-0.46594
-0.51703
-0.58514
-0.65015
-0.69505
-0.6192
-0.36223
0.037152
0.43808
0.6161
0.56811
0.42415
0.30341
0.31269
0.36533
0.45046
0.4613
0.41022
0.28328
0.078947
-0.12693
-0.31579
-0.40402
-0.41486
-0.40248
-0.43653
-0.50774
-0.613
-0.71827
-0.80805
-0.87461
-0.80495
-0.51703
-0.047988
0.4644
0.78328
0.84056
0.74613
0.58359
0.51703
0.46749
0.35449
0.21053
0.034056
-0.13158
-0.26625
-0.40248
-0.45511
-0.44892
-0.40557
-0.36223
-0.3483
-0.3808
-0.44118
-0.52941
-0.613
-0.66099
-0.56037
-0.26471
0.10372
0.37616
0.44737
0.40557
0.33591
0.37926
0.4257
0.52477
0.54799
0.47833
0.34056
0.13003
-0.060372
-0.24458
-0.3839
-0.42724
-0.42415
-0.41331
-0.4226
-0.47059
-0.5418
-0.6192
-0.68421
-0.71672
-0.59752
-0.29567
0.10681
0.43034
0.52477
0.46594
0.35139
0.33901
0.35913
0.43808
0.49381
0.45201
0.35759
0.17183
-0.043344
-0.24613
-0.39628
-0.45201
-0.44427
-0.43653
-0.45511
-0.5
-0.55108
-0.60217
-0.6548
-0.68421
-0.56811
-0.27554
0.13313
0.45666
0.57276
0.51548
0.37616
0.32663
0.33746
0.39319
0.47368
0.47059
0.39628
0.22601
-0.010836
-0.22136
-0.39009
-0.44427
-0.45046
-0.44892
-0.44892
-0.47678
-0.52477
-0.5805
-0.64087
-0.69195
-0.64396
-0.44118
-0.066563
0.31734
0.4969
0.50464
0.40248
0.31889
0.34365
0.36223
0.4613
0.45975
0.4226
0.30031
0.055728
-0.13158
-0.32817
-0.40402
-0.41486
-0.39009
-0.37307
-0.3808
-0.41331
-0.47214
-0.43344
-0.25851
0.034056
0.26625
0.33746
0.24303
0.14861
0.097523
0.18731
0.24303
0.34985
0.36533
0.33127
0.21672
0.029412
-0.14551
-0.30495
-0.42724
-0.48297
-0.48762
-0.45201
-0.41176
-0.40402
-0.41796
-0.46594
-0.5387
-0.60991
-0.64551
-0.55108
-0.24149
0.094427
0.36687
0.45511
0.45046
0.39319
0.41022
0.41796
0.47833
0.48916
0.45511
0.32353
0.14706
-0.0387
-0.20279
-0.32663
-0.36687
-0.36533
-0.34365
-0.36997
-0.47059
-0.56811
-0.64706
-0.57121
-0.3096
0.094427
0.45046
0.58824
0.48762
0.32353
0.20433
0.20898
0.28019
0.37307
0.41176
0.39474
0.30186
0.088235
-0.1161
-0.29567
-0.39783
-0.41022
-0.39319
-0.37152
-0.35604
-0.36997
-0.40867
-0.49071
-0.57895
-0.63003
-0.5805
-0.33282
-0.0092879
0.3065
0.42879
0.44737
0.40712
0.43963
0.47988
0.51084
0.52012
0.46285
0.35913
0.18731
-0.010836
-0.19969
-0.35294
-0.40402
-0.40402
-0.39164
-0.39009
-0.43034
-0.46594
-0.52632
-0.58824
-0.64396
-0.60372
-0.41641
-0.077399
0.28328
0.46285
0.48142
0.42415
0.39474
0.43653
0.45046
0.47833
0.44892
0.37616
0.23994
0.044892
-0.16254
-0.34056
-0.42724
-0.43653
-0.4195
-0.41486
-0.43498
-0.46594
-0.51238
-0.56966
-0.63003
-0.64396
-0.5387
-0.23375
0.14396
0.44427
0.51084
0.44737
0.33282
0.34211
0.36378
0.43808
0.44737
0.41641
0.30341
0.14396
-0.060372
-0.23839
-0.36068
-0.38854
-0.3808
-0.36378
-0.3839
-0.4257
-0.47988
-0.53715
-0.59752
-0.64241
-0.59133
-0.38854
-0.03096
0.35294
0.54644
0.54025
0.43034
0.33591
0.36842
0.39628
0.48452
0.45666
0.4195
0.26161
0.060372
-0.12229
-0.28638
-0.36223
-0.37926
-0.38854
-0.39164
-0.41176
-0.45201
-0.50774
-0.55728
-0.6192
-0.62539
-0.50619
-0.20743
0.18731
0.48297
0.56656
0.49536
0.36842
0.34056
0.36378
0.44892
0.47523
0.45201
0.35759
0.17492
-0.037152
-0.22291
-0.36068
-0.40248
-0.40557
-0.41641
-0.43963
-0.48142
-0.51858
-0.55573
-0.56192
-0.45975
-0.22601
0.078947
0.32817
0.35604
0.26625
0.17492
0.17183
0.25697
0.34675
0.40712
0.39628
0.32043
0.15635
-0.044892
-0.23529
-0.37771
-0.44892
-0.46285
-0.43498
-0.41022
-0.41641
-0.48762
-0.57585
-0.67337
-0.65015
-0.48607
-0.15015
0.23065
0.48916
0.51858
0.39009
0.22755
0.16563
0.19505
0.30341
0.36533
0.37926
0.30805
0.14706
-0.03096
-0.22291
-0.36378
-0.44118
-0.44737
-0.4195
-0.387
-0.38854
-0.43034
-0.48607
-0.55418
-0.63003
-0.67647
-0.61765
-0.39009
-0.010836
0.35913
0.55728
0.56192
0.44582
0.36687
0.36687
0.41486
0.48452
0.46749
0.40557
0.24613
0.03096
-0.16254
-0.31424
-0.38545
-0.38854
-0.3839
-0.38235
-0.39783
-0.41486
-0.40867
-0.34985
-0.25851
-0.16099
-0.012384
0.18266
0.3839
0.51084
0.5031
0.43034
0.33282
0.3065
0.18111
0.065015
-0.10062
-0.24458
-0.35294
-0.42724
-0.45511
-0.42415
-0.37616
-0.3452
-0.3096
-0.32663
-0.35139
-0.4257
-0.50774
-0.58204
-0.64087
-0.58824
-0.37771
-0.044892
0.29876
0.43034
0.45975
0.39474
0.40712
0.43034
0.45201
0.49381
0.46594
0.36842
0.21207
0.03096
-0.1517
-0.28019
-0.34365
-0.36223
-0.35139
-0.34365
-0.37771
-0.40712
-0.46285
-0.49071
-0.41331
-0.1904
0.099071
0.31889
0.32043
0.25232
0.1935
0.25542
0.33591
0.40248
0.39319
0.36997
0.24458
0.069659
-0.11455
-0.28173
-0.37461
-0.44118
-0.44427
-0.42415
-0.38854
-0.36687
-0.37926
-0.40093
-0.4582
-0.51548
-0.61146
-0.62539
-0.53251
-0.23839
0.1548
0.4644
0.54644
0.47523
0.36997
0.35294
0.39164
0.44118
0.45511
0.44272
0.32972
0.14241
-0.058824
-0.26006
-0.36842
-0.41176
-0.40712
-0.40402
-0.41641
-0.46749
-0.49226
-0.52012
-0.47523
-0.34985
-0.18266
-0.0387
0.13467
0.30805
0.49381
0.57895
0.54644
0.45511
0.37616
0.30341
0.18266
0.047988
-0.10217
-0.24768
-0.34675
-0.4195
-0.41641
-0.39009
-0.36687
-0.36378
-0.39474
-0.45046
-0.52012
-0.56037
-0.55108
-0.42879
-0.16718
0.20279
0.50155
0.6192
0.55108
0.48607
0.37307
0.35759
0.29257
0.18111
0.078947
-0.057276
-0.18576
-0.27245
-0.35294
-0.35294
-0.29567
-0.26316
-0.21981
-0.21517
-0.25851
-0.31579
-0.40093
-0.45975
-0.52941
-0.5743
-0.51393
-0.29567
0.0387
0.29567
0.42105
0.48762
0.51703
0.59133
0.60372
0.58514
0.55263
0.48142
0.32663
0.17957
0.001548
-0.16563
-0.28638
-0.36068
-0.3483
-0.31115
-0.29412
-0.3096
-0.35604
-0.4257
-0.43344
-0.29412
-0.021672
0.26935
0.39783
0.33591
0.28019
0.24613
0.36842
0.43498
0.49536
0.4582
0.39474
0.24768
0.057276
-0.13158
-0.29721
-0.3808
-0.42724
-0.43808
-0.41486
-0.39938
-0.37616
-0.39474
-0.41331
-0.45511
-0.51393
-0.57895
-0.62229
-0.55108
-0.30341
0.078947
0.43344
0.56037
0.50774
0.40712
0.39164
0.4226
0.45975
0.49071
0.45046
0.3808
0.18885
-0.0077399
-0.19195
-0.33282
-0.3808
-0.40248
-0.39938
-0.40712
-0.43344
-0.4644
-0.4969
-0.52167
-0.56811
-0.59133
-0.51548
-0.28173
0.10526
0.48762
0.67183
0.60681
0.44118
0.31889
0.32508
0.40712
0.47368
0.4582
0.46285
0.29257
0.12693
-0.094427
-0.25232
-0.33127
-0.33591
-0.3452
-0.36068
-0.39783
-0.43808
-0.49381
-0.52012
-0.56811
-0.60372
-0.56656
-0.36533
0.001548
0.39783
0.63313
0.62229
0.45356
0.28947
0.26471
0.30031
0.39164
0.40867
0.4195
0.29257
0.094427
-0.12074
-0.33282
-0.44118
-0.45975
-0.46594
-0.4644
-0.48607
-0.51858
-0.54799
-0.58669
-0.6161
-0.65944
-0.64861
-0.51084
-0.17957
0.20898
0.54954
0.60991
0.47523
0.28947
0.21672
0.24458
0.3452
0.41176
0.44582
0.38545
0.20898
0.0077399
-0.1904
-0.34211
-0.38545
-0.3839
-0.32817
-0.27864
-0.23375
-0.19195
-0.16409
-0.15789
-0.22291
-0.16563
-0.021672
0.18111
0.33127
0.37307
0.32972
0.32972
0.24768
0.13622
0.058824
-0.083591
-0.17028
-0.30186
-0.37926
-0.43344
-0.47214
-0.48916
-0.45666
-0.37771
-0.34056
-0.37771
-0.49845
-0.62229
-0.63932
-0.42879
-0.10526
0.25077
0.47214
0.55728
0.54799
0.53715
0.40867
0.2678
0.12074
-0.041796
-0.15944
-0.27399
-0.34675
-0.3808
-0.39319
-0.3839
-0.35139
-0.32508
-0.31734
-0.36068
-0.40093
-0.5031
-0.56966
-0.55108
-0.36223
-0.004644
0.35759
0.60217
0.67337
0.67028
0.58359
0.55108
0.35449
0.2322
0.10372
-0.026316
-0.11765
-0.25232
-0.33282
-0.36223
-0.3452
-0.31889
-0.28793
-0.28638
-0.32663
-0.41022
-0.51703
-0.63932
-0.75387
-0.84985
-0.80341
-0.52012
-0.003096
0.51084
0.82508
0.86842
0.84056
0.6935
0.62229
0.44582
0.27399
0.113
-0.051084
-0.17492
-0.27245
-0.34365
-0.34211
-0.32663
-0.30805
-0.30495
-0.31424
-0.33127
-0.37926
-0.45511
-0.52012
-0.52941
-0.42105
-0.18731
0.16254
0.4969
0.68731
0.66099
0.50155
0.35913
0.37152
0.43344
0.56656
0.61146
0.62074
0.49381
0.29876
0.063467
-0.14706
-0.29567
-0.35759
-0.387
-0.39319
-0.42415
-0.43344
-0.41331
-0.32663
-0.23065
-0.099071
-0.057276
-0.017028
0.086687
0.25851
0.4257
0.49536
0.43653
0.37616
0.3065
0.20279
0.1192
-0.037152
-0.17492
-0.31579
-0.39319
-0.43189
-0.40557
-0.37616
-0.3808
-0.43963
-0.51393
-0.50774
-0.41176
-0.27864
-0.12539
0.026316
0.21362
0.32043
0.32508
0.26935
0.19969
0.17183
0.12693
0.020124
-0.099071
-0.21053
-0.31579
-0.38545
-0.44892
-0.49381
-0.49071
-0.44892
-0.39319
-0.33127
-0.28638
-0.28483
-0.30341
-0.29257
-0.2678
-0.22601
-0.25077
-0.18885
0.012384
0.27554
0.48762
0.57276
0.5
0.47678
0.38235
0.28947
0.14087
-0.0077399
-0.12848
-0.2291
-0.29721
-0.34211
-0.35139
-0.34365
-0.31424
-0.32043
-0.35139
-0.48142
-0.60836
-0.63932
-0.55263
-0.30186
-0.021672
0.27554
0.49071
0.54025
0.47059
0.40248
0.32972
0.34056
0.19969
0.089783
-0.044892
-0.16099
-0.26316
-0.36223
-0.42105
-0.41796
-0.38545
-0.34056
-0.29721
-0.27245
-0.28638
-0.32198
-0.36687
-0.41331
-0.44582
-0.47833
-0.55263
-0.64396
-0.63777
-0.42724
-0.03096
0.32972
0.56811
0.64861
0.63158
0.56811
0.47523
0.34365
0.31579
0.1935
0.085139
-0.063467
-0.21827
-0.32353
-0.39628
-0.41486
-0.38545
-0.35449
-0.36223
-0.387
-0.41331
-0.44582
-0.46594
-0.50929
-0.55418
-0.53715
-0.387
-0.034056
0.37461
0.70898
0.7678
0.62848
0.43498
0.39319
0.38854
0.4613
0.49536
0.54644
0.47833
0.30805
0.063467
-0.18266
-0.33127
-0.39319
-0.41796
-0.41796
-0.43498
-0.4644
-0.48142
-0.50464
-0.51393
-0.54644
-0.58824
-0.55573
-0.42105
-0.085139
0.31579
0.64396
0.71517
0.56966
0.37152
0.31579
0.32663
0.41486
0.46749
0.49845
0.4257
0.27709
0.006192
-0.22601
-0.40248
-0.45666
-0.47368
-0.47988
-0.5
-0.5418
-0.56966
-0.58824
-0.58204
-0.60836
-0.64706
-0.63003
-0.51703
-0.19505
0.21207
0.56347
0.67492
0.55418
0.36068
0.3065
0.3096
0.39783
0.45201
0.48142
0.44118
0.29412
0.063467
-0.17802
-0.33591
-0.40557
-0.4195
-0.42415
-0.43963
-0.47214
-0.5
-0.52012
-0.52786
-0.54799
-0.59443
-0.58669
-0.48297
-0.17802
0.22291
0.59288
0.72601
0.62693
0.42879
0.35139
0.34211
0.42415
0.47059
0.4969
0.4613
0.33127
0.10062
-0.15015
-0.32972
-0.41796
-0.44272
-0.44427
-0.46594
-0.51084
-0.56811
-0.63622
-0.64396
-0.60681
-0.48762
-0.28947
0
0.30805
0.50619
0.4969
0.33901
0.25542
0.29412
0.387
0.49381
0.50774
0.48142
0.36997
0.18111
-0.035604
-0.24768
-0.38545
-0.46285
-0.47059
-0.44582
-0.43653
-0.46594
-0.50464
-0.52941
-0.55573
-0.5774
-0.60526
-0.57276
-0.46594
-0.23839
0.099071
0.42415
0.60836
0.55882
0.387
0.28019
0.27554
0.34056
0.41486
0.4257
0.41022
0.29721
0.085139
-0.1517
-0.35913
-0.45356
-0.47833
-0.4644
-0.45356
-0.46749
-0.46749
-0.45356
-0.43808
-0.4195
-0.40557
-0.21362
0.018576
0.28947
0.45511
0.46594
0.4613
0.38545
0.33127
0.24149
0.089783
-0.044892
-0.19195
-0.30341
-0.36378
-0.42105
-0.4582
-0.46285
-0.43963
-0.40093
-0.36687
-0.36533
-0.40248
-0.47833
-0.56037
-0.57276
-0.52322
-0.39319
-0.19659
0.12693
0.46285
0.70124
0.75542
0.70898
0.57276
0.49226
0.28019
0.10836
0.0077399
-0.10217
-0.12074
-0.21362
-0.28793
-0.31424
-0.30805
-0.29412
-0.27709
-0.28793
-0.3096
-0.33591
-0.35449
-0.37461
-0.39938
-0.44737
-0.5031
-0.49536
-0.36687
-0.052632
0.33282
0.63467
0.73375
0.64551
0.49845
0.47059
0.4226
0.53715
0.55418
0.53406
0.50619
0.31424
0.092879
-0.13777
-0.29876
-0.39783
-0.44737
-0.46904
-0.5
-0.53715
-0.55882
-0.57121
-0.57276
-0.59907
-0.57121
-0.46285
-0.17492
0.19505
0.55108
0.69969
0.60836
0.42415
0.32508
0.30495
0.39319
0.39474
0.4969
0.4257
0.29876
0.068111
-0.1548
-0.34211
-0.45201
-0.48916
-0.48452
-0.47833
-0.49226
-0.51703
-0.52167
-0.52632
-0.52477
-0.54954
-0.59133
-0.54799
-0.42105
-0.085139
0.29412
0.60836
0.69195
0.56037
0.37616
0.33901
0.28793
0.45666
0.41486
0.43653
0.39628
0.17802
-0.010836
-0.24613
-0.38545
-0.45046
-0.46594
-0.46904
-0.46594
-0.5
-0.51703
-0.53096
-0.52477
-0.54644
-0.58359
-0.5774
-0.46749
-0.16409
0.22136
0.56502
0.6935
0.60836
0.42105
0.36223
0.31734
0.46285
0.41022
0.45666
0.39783
0.2291
0.0092879
-0.22136
-0.40712
-0.47833
-0.4969
-0.48916
-0.47523
-0.48916
-0.52012
-0.52786
-0.53406
-0.53406
-0.56037
-0.59907
-0.56656
-0.43498
-0.092879
0.28173
0.59598
0.66099
0.52632
0.36997
0.31579
0.30805
0.46285
0.47678
0.42879
0.32663
0.15635
-0.0387
-0.25851
-0.36378
-0.43808
-0.4582
-0.47214
-0.49536
-0.51084
-0.47214
-0.43344
-0.37152
-0.32972
-0.19969
-0.001548
0.23375
0.52632
0.52477
0.55108
0.37616
0.31579
0.20898
0.078947
-0.012384
-0.16563
-0.29412
-0.40093
-0.46904
-0.50929
-0.51084
-0.48762
-0.43963
-0.39628
-0.36223
-0.3808
-0.42105
-0.43653
-0.47214
-0.43653
-0.48142
-0.48297
-0.29721
0.041796
0.387
0.56192
0.55728
0.49381
0.39628
0.33746
0.1548
0.017028
-0.0387
-0.097523
-0.11455
-0.21827
-0.32817
-0.38545
-0.38235
-0.33901
-0.31269
-0.31579
-0.32043
-0.33127
-0.3452
-0.39938
-0.49536
-0.64861
-0.70433
-0.51393
-0.13003
0.31579
0.6192
0.73529
0.73529
0.7709
0.68111
0.63313
0.49226
0.387
0.27399
0.15635
0.02322
-0.13158
-0.25697
-0.33282
-0.35139
-0.32817
-0.28793
-0.26935
-0.27245
-0.28019
-0.26625
-0.26006
-0.23529
-0.20433
-0.14241
0.113
0.32508
0.67492
0.70588
0.75851
0.6161
0.40712
0.30341
0.12539
-0.003096
-0.086687
-0.23839
-0.30495
-0.39009
-0.4195
-0.39628
-0.36533
-0.35139
-0.34365
-0.32817
-0.32198
-0.34365
-0.26471
-0.17957
-0.021672
0.12384
0.18111
0.22291
0.20279
0.21827
0.20743
0.28793
0.18576
0.14396
0.034056
-0.077399
-0.18421
-0.3483
-0.45975
-0.54025
-0.5387
-0.49071
-0.41486
-0.34365
-0.29257
-0.2678
-0.26161
-0.27864
-0.29567
-0.28638
-0.20898
-0.04644
0.14087
0.33901
0.48916
0.54799
0.63777
0.5774
0.53715
0.41796
0.22755
0.13467
0.021672
-0.065015
-0.13003
-0.23529
-0.28328
-0.33591
-0.35449
-0.34056
-0.30495
-0.27864
-0.27864
-0.28947
-0.29876
-0.31269
-0.31269
-0.3096
-0.33437
-0.39319
-0.41331
-0.35294
-0.10991
0.25851
0.63932
0.85139
0.84211
0.66718
0.53251
0.43808
0.59133
0.5031
0.55728
0.41331
0.25077
0.065015
-0.16409
-0.3096
-0.42105
-0.45201
-0.45511
-0.46285
-0.47523
-0.48607
-0.50155
-0.5
-0.48297
-0.49381
-0.52322
-0.49536
-0.35759
-0.10991
0.15015
0.3065
0.37152
0.31424
0.23994
0.20743
0.15325
0.14241
0.095975
0.013932
0.021672
-0.10372
-0.20279
-0.36997
-0.47059
-0.49071
-0.4582
-0.4195
-0.37616
-0.37616
-0.36997
-0.35139
-0.35294
-0.33746
-0.35913
-0.39938
-0.41331
-0.34365
-0.10681
0.26006
0.6192
0.80341
0.75697
0.57276
0.41331
0.3452
0.48762
0.43808
0.48916
0.31889
0.13467
-0.047988
-0.25851
-0.41176
-0.4969
-0.51084
-0.48607
-0.47059
-0.47678
-0.48762
-0.48297
-0.46285
-0.44582
-0.45046
-0.47988
-0.48452
-0.42724
-0.21362
0.14706
0.52477
0.77399
0.77709
0.62384
0.42879
0.31734
0.39938
0.36223
0.47059
0.35139
0.16873
0.02322
-0.17647
-0.31269
-0.39474
-0.41641
-0.41176
-0.39009
-0.38854
-0.40557
-0.4195
-0.4257
-0.42724
-0.42724
-0.45201
-0.47368
-0.43808
-0.27554
0.072755
0.44582
0.7322
0.78019
0.66254
0.46904
0.37152
0.41022
0.47523
0.57121
0.45356
0.24149
0.058824
-0.16099
-0.3452
-0.46749
-0.51393
-0.49381
-0.45666
-0.45201
-0.4613
-0.47214
-0.45975
-0.39164
-0.26625
-0.23994
-0.19659
-0.17028
-0.072755
0.072755
0.13158
0.12848
0.15015
0.1192
0.1904
0.10681
0.063467
-0.024768
-0.17647
-0.26161
-0.38235
-0.45046
-0.44582
-0.42105
-0.36997
-0.3065
-0.28173
-0.28019
-0.29567
-0.33901
-0.38854
-0.37152
-0.32508
-0.26935
-0.20898
-0.091331
0.14861
0.44118
0.55728
0.53715
0.5031
0.40093
0.34056
0.20433
0.037152
-0.003096
-0.13158
-0.21207
-0.33591
-0.39783
-0.36068
-0.32198
-0.27245
-0.23839
-0.20588
-0.18421
-0.20279
-0.23839
-0.34211
-0.51393
-0.63003
-0.62693
-0.3452
-0.044892
0.21517
0.34985
0.41486
0.46904
0.42105
0.36997
0.28483
0.28173
0.17183
0.082043
-0.018576
-0.12539
-0.20898
-0.27554
-0.27399
-0.22601
-0.18266
-0.16409
-0.15325
-0.17957
-0.19814
-0.28328
-0.37771
-0.47214
-0.39474
-0.18421
0.28173
0.54334
0.65635
0.53096
0.387
0.30186
0.24149
0.16563
0.017028
-0.075851
-0.1548
-0.21517
-0.24458
-0.32663
-0.36997
-0.37616
-0.34211
-0.28019
-0.23684
-0.21362
-0.19969
-0.19969
-0.20743
-0.28019
-0.3839
-0.60372
-0.74923
-0.8096
-0.55728
-0.10372
0.38545
0.71827
0.83437
0.75851
0.73065
0.54334
0.44737
0.16254
0.14241
-0.034056
-0.10217
-0.25077
-0.32817
-0.31424
-0.26935
-0.20743
-0.15325
-0.10991
-0.094427
-0.11146
-0.1161
-0.13622
-0.14861
-0.16099
-0.19814
-0.20588
-0.088235
0.16873
0.47059
0.613
0.6548
0.6192
0.71207
0.69969
0.65635
0.46749
0.25851
0.16563
0.027864
-0.088235
-0.22291
-0.33591
-0.387
-0.38854
-0.35139
-0.31579
-0.25851
-0.21827
-0.19505
-0.18266
-0.15789
-0.12229
-0.049536
0.024768
0.057276
0.17183
0.35759
0.61765
0.59288
0.50774
0.27245
0.13932
0.092879
-0.037152
-0.095975
-0.13313
-0.16254
-0.1904
-0.21207
-0.23065
-0.2322
-0.23839
-0.27554
-0.32508
-0.36068
-0.3808
-0.2291
-0.32817
-0.3452
-0.43963
-0.34985
-0.13158
0.097523
0.31269
0.43189
0.51703
0.49071
0.40402
0.30805
0.14706
0.16099
-0.049536
-0.18885
-0.41331
-0.4644
-0.42724
-0.39164
-0.33901
-0.26935
-0.20124
-0.14551
-0.12384
-0.12074
-0.1192
-0.11455
-0.099071
-0.080495
-0.06192
-0.063467
-0.083591
-0.094427
-0.055728
0.12384
0.44892
0.74923
0.93344
0.90557
0.71981
0.45511
0.20279
0.066563
-0.047988
-0.080495
-0.14087
-0.21517
-0.28483
-0.34675
-0.34985
-0.32043
-0.27554
-0.25387
-0.25077
-0.26935
-0.28793
-0.29876
-0.28947
-0.27864
-0.30186
-0.33282
-0.32043
-0.21981
0.068111
0.40557
0.71362
0.83746
0.79567
0.59907
0.45511
0.39474
0.4969
0.53251
0.49226
0.28483
0.078947
-0.15325
-0.33591
-0.47368
-0.54025
-0.53715
-0.51393
-0.52632
-0.5418
-0.56037
-0.5805
-0.60062
-0.65789
-0.75542
-0.89164
-1
-1
-0.74613
-0.31734
0.20588
0.60836
0.79257
0.76935
0.59907
0.44272
0.34985
0.22601
0.075851
-0.080495
-0.31734
-0.44427
-0.58204
-0.63777
-0.62229
-0.56347
-0.50619
-0.43963
-0.38235
-0.35139
-0.32508
-0.32198
-0.3096
-0.30341
-0.31269
-0.34365
-0.36378
-0.31734
-0.083591
0.22601
0.55882
0.66409
0.51084
0.2678
0.077399
0.040248
0.047988
0.041796
-0.001548
-0.029412
-0.092879
-0.18731
-0.32508
-0.43034
-0.47059
-0.4257
-0.36687
-0.31115
-0.2678
-0.23839
-0.21362
-0.20279
-0.19195
-0.18885
-0.20743
-0.25851
-0.25232
-0.18266
0.068111
0.40557
0.71517
0.86687
0.86378
0.6904
0.55108
0.45046
0.56037
0.52167
0.53715
0.28328
0.11455
-0.071207
-0.26471
-0.39783
-0.47988
-0.47523
-0.44118
-0.45356
-0.47059
-0.48762
-0.53251
-0.59133
-0.74923
-0.83591
-0.83901
-0.63158
-0.29412
0.074303
0.30805
0.40557
0.43808
0.52477
0.45975
0.44737
0.21672
0.19195
-0.004644
-0.14241
-0.38235
-0.46285
-0.47833
-0.44737
-0.3839
-0.3096
-0.24303
-0.18576
-0.15789
-0.14087
-0.13932
-0.15789
-0.17492
-0.18885
-0.1904
-0.15789
-0.088235
0.071207
0.3096
0.63777
0.89474
1
0.83746
0.50929
0.28173
0.06192
-0.037152
-0.11765
-0.21672
-0.26006
-0.32972
-0.32663
-0.36378
-0.38854
-0.40093
-0.41331
-0.40557
-0.3839
-0.34675
-0.34675
-0.387
-0.41486
-0.51238
-0.64396
-0.82663
-0.97523
-0.91796
-0.57121
-0.085139
0.40248
0.70588
0.8096
0.75851
0.59133
0.47523
0.3096
0.35913
0.15944
0.15015
-0.066563
-0.24458
-0.35604
-0.42415
-0.4226
-0.34056
-0.27709
-0.22446
-0.19969
-0.21517
-0.21362
-0.22446
-0.17337
-0.11455
-0.057276
-0.026316
0.074303
0.21207
0.52322
0.60681
0.60217
0.3808
0.19659
0.10526
0.10836
-0.047988
-0.13932
-0.22136
-0.28638
-0.30495
-0.32817
-0.32043
-0.32198
-0.35449
-0.37616
-0.3452
-0.35604
-0.41486
-0.57121
-0.68266
-0.68421
-0.5418
-0.27554
0.037152
0.31269
0.52167
0.63777
0.64241
0.58824
0.52477
0.50929
0.47214
0.34056
0.20588
-0.003096
-0.18576
-0.32972
-0.39009
-0.38235
-0.36378
-0.32817
-0.26006
-0.19969
-0.14551
-0.12384
-0.113
-0.11146
-0.12074
-0.1517
-0.20743
-0.28793
-0.34675
-0.25542
-0.10991
0.068111
0.1904
0.24149
0.28019
0.2678
0.22291
0.21672
0.15635
0.15789
0.021672
-0.010836
-0.10217
-0.21517
-0.33127
-0.4644
-0.48916
-0.44272
-0.39474
-0.33437
-0.27399
-0.24303
-0.24458
-0.24458
-0.23375
-0.20898
-0.18111
-0.13313
0.017028
0.24149
0.48452
0.61765
0.55573
0.50774
0.47368
0.59133
0.55573
0.45975
0.24149
0.049536
-0.077399
-0.23065
-0.32817
-0.4257
-0.4644
-0.43653
-0.39628
-0.34056
-0.28173
-0.21053
-0.20124
-0.23684
-0.34985
-0.35759
-0.35449
-0.068111
-0.032508
0.060372
0.003096
-0.029412
0.027864
0.113
0.23684
0.29721
0.36533
0.17492
0.071207
-0.024768
-0.16718
-0.21517
-0.3808
-0.47833
-0.51084
-0.51084
-0.44118
-0.33437
-0.22601
-0.14551
-0.10217
-0.088235
-0.089783
-0.11146
-0.14396
-0.13003
-0.099071
-0.024768
0.063467
0.21981
0.4613
0.71053
0.83282
0.8483
0.6517
0.52632
0.37461
0.45201
0.49226
0.56192
0.35759
0.15944
-0.037152
-0.21827
-0.35139
-0.45046
-0.47523
-0.44892
-0.43189
-0.41486
-0.41022
-0.43344
-0.49845
-0.60062
-0.74768
-0.84675
-0.87307
-0.71827
-0.40712
-0.029412
0.31115
0.51393
0.60991
0.613
0.64706
0.5031
0.47059
0.35294
0.25232
0.095975
-0.10681
-0.35139
-0.5031
-0.54644
-0.51858
-0.44737
-0.35449
-0.25387
-0.17802
-0.13313
-0.11455
-0.10991
-0.10372
-0.092879
-0.075851
-0.083591
-0.1192
-0.14551
-0.11765
-0.001548
0.27245
0.58204
0.82663
0.87307
0.80805
0.57895
0.41331
0.35604
0.43034
0.49381
0.45511
0.25387
0.069659
-0.16254
-0.31579
-0.43034
-0.47678
-0.45511
-0.4582
-0.46904
-0.49536
-0.51548
-0.54799
-0.58514
-0.65635
-0.73529
-0.84365
-0.89009
-0.84365
-0.62384
-0.21362
0.25387
0.64861
0.86533
0.90402
0.80341
0.55882
0.35913
0.19195
0.25542
0.18421
0.080495
-0.16409
-0.35294
-0.48916
-0.55882
-0.53251
-0.45511
-0.37152
-0.29257
-0.23684
-0.21517
-0.20898
-0.19814
-0.17337
-0.12693
-0.080495
-0.058824
-0.0092879
0.12229
0.37307
0.61455
0.64241
0.5031
0.28173
0.13932
0.097523
0.004644
-0.099071
-0.13467
-0.23839
-0.2709
-0.3452
-0.41022
-0.4257
-0.42105
-0.39628
-0.34365
-0.28793
-0.26935
-0.26316
-0.27709
-0.28947
-0.29876
-0.32353
-0.36223
-0.39628
-0.26625
-0.20279
-0.1161
-0.017028
0.13777
0.37926
0.53096
0.52167
0.39009
0.32663
0.113
0.12539
-0.10991
0.072755
-0.13158
-0.22136
-0.48762
-0.61765
-0.60526
-0.54644
-0.46594
-0.37152
-0.30031
-0.26006
-0.23529
-0.21362
-0.19814
-0.21053
-0.23065
-0.2291
-0.15015
0.0077399
0.25077
0.52477
0.76625
0.86687
0.82817
0.62539
0.43189
0.28947
0.33901
0.39783
0.5
0.36842
0.16099
-0.024768
-0.20588
-0.34056
-0.43498
-0.47523
-0.44582
-0.39938
-0.34211
-0.29721
-0.28483
-0.29721
-0.29876
-0.31889
-0.32353
-0.29102
-0.23375
-0.113
0.006192
0.1192
0.20124
0.23375
0.24923
0.23375
0.20588
0.13158
0
0.035604
-0.10991
-0.15325
-0.32817
-0.43808
-0.44737
-0.43498
-0.38545
-0.30495
-0.21827
-0.14551
-0.10062
-0.078947
-0.058824
-0.057276
-0.05418
-0.082043
-0.15789
-0.27245
-0.35759
-0.20433
-0.069659
0.1161
0.20743
0.28019
0.33282
0.31734
0.2291
0.12848
0.10836
-0.013932
0.078947
-0.037152
0.077399
-0.071207
-0.20124
-0.39474
-0.48142
-0.46285
-0.39938
-0.33591
-0.25542
-0.20898
-0.18111
-0.16409
-0.14551
-0.11455
-0.086687
-0.082043
-0.10836
-0.12539
-0.080495
0.052632
0.33127
0.63622
0.88235
0.9257
0.83591
0.59907
0.41022
0.31115
0.4226
0.47523
0.5031
0.29257
0.10836
-0.10217
-0.27245
-0.387
-0.45511
-0.45356
-0.40712
-0.3483
-0.29876
-0.2709
-0.27399
-0.28019
-0.30186
-0.32198
-0.31579
-0.21517
-0.094427
0.021672
0.10062
0.14396
0.18731
0.1904
0.22601
0.17183
0.14706
0.018576
0.03096
-0.069659
-0.16099
-0.32198
-0.47988
-0.51238
-0.49071
-0.45975
-0.39938
-0.32353
-0.23839
-0.18576
-0.14706
-0.12848
-0.12384
-0.12074
-0.11146
-0.12074
-0.17647
-0.29567
-0.41641
-0.29567
-0.13003
0.16254
0.30341
0.32353
0.30805
0.23684
0.12693
0.041796
0.004644
-0.10217
-0.012384
-0.065015
-0.001548
-0.12539
-0.25387
-0.43189
-0.52322
-0.51084
-0.44582
-0.35913
-0.26471
-0.1935
-0.16099
-0.14551
-0.13003
-0.10217
-0.082043
-0.072755
-0.095975
-0.10526
-0.077399
0.0387
0.29876
0.59598
0.8452
0.90248
0.82043
0.57895
0.3839
0.29412
0.46594
0.46594
0.52167
0.27709
0.086687
-0.13003
-0.28173
-0.41641
-0.47988
-0.46749
-0.41486
-0.35913
-0.30495
-0.26935
-0.27245
-0.25077
-0.23065
-0.21207
-0.22291
-0.16873
-0.1517
-0.065015
0.026316
0.14087
0.25387
0.30031
0.32972
0.28947
0.25542
0.16563
0.15789
0.068111
-0.058824
-0.20898
-0.36068
-0.39474
-0.37461
-0.35604
-0.29102
-0.20433
-0.1161
-0.052632
-0.026316
-0.01548
-0.013932
-0.012384
0.003096
0.013932
0.01548
-0.010836
-0.044892
-0.047988
-0.003096
0.13003
0.387
0.65325
0.87926
0.93963
0.75232
0.54644
0.41022
0.48762
0.60991
0.58978
0.41486
0.21207
0.047988
-0.14551
-0.28019
-0.38545
-0.43189
-0.39783
-0.36223
-0.31115
-0.2709
-0.19969
-0.25387
-0.33901
-0.49381
-0.63622
-0.63003
-0.54489
-0.36687
-0.13313
0.12074
0.32353
0.45511
0.45201
0.47833
0.36997
0.37926
0.36533
0.27709
0.063467
-0.19505
-0.39009
-0.48607
-0.48297
-0.4226
-0.35294
-0.2678
-0.19505
-0.13467
-0.10217
-0.091331
-0.099071
-0.10526
-0.10836
-0.097523
-0.091331
-0.095975
-0.13003
-0.17802
-0.19195
-0.14241
0.024768
0.29412
0.55728
0.76006
0.79567
0.5743
0.35294
0.26316
0.34211
0.44272
0.3808
0.16718
0
-0.17802
-0.31579
-0.4613
-0.54954
-0.5774
-0.55108
-0.51703
-0.41796
-0.32972
-0.24613
-0.26316
-0.35759
-0.44427
-0.58514
-0.69969
-0.87461
-0.89164
-0.70124
-0.36842
0.001548
0.25697
0.39628
0.44272
0.42415
0.41331
0.2709
0.25387
0.29102
0.21362
0.10062
-0.1548
-0.37152
-0.48762
-0.50619
-0.4644
-0.39783
-0.31115
-0.22755
-0.15789
-0.13467
-0.13003
-0.14087
-0.16099
-0.16254
-0.17647
-0.18111
-0.19814
-0.095975
0.14706
0.43189
0.67028
0.73529
0.58669
0.44118
0.35759
0.43653
0.54334
0.48607
0.28328
0.10991
-0.032508
-0.18731
-0.31115
-0.44118
-0.53096
-0.56192
-0.58204
-0.53406
-0.45975
-0.39474
-0.33127
-0.30805
-0.28483
-0.28638
-0.31889
-0.37461
-0.34211
-0.22446
0.0387
0.27399
0.32817
0.30341
0.23375
0.17492
0.19969
0.089783
0.086687
-0.040248
-0.043344
-0.14706
-0.27554
-0.39009
-0.47368
-0.48607
-0.51084
-0.48916
-0.42105
-0.3452
-0.27245
-0.20588
-0.20279
-0.18266
-0.18885
-0.17028
-0.15944
-0.20743
-0.22755
-0.24303
-0.12693
0.04644
0.10836
0.077399
0.035604
0.089783
0.24923
0.31889
0.26625
0.1548
0.12848
-0.047988
0.12074
0.010836
0.13777
-0.0092879
-0.21672
-0.40557
-0.51084
-0.50774
-0.45975
-0.38235
-0.29412
-0.22601
-0.20124
-0.18731
-0.18731
-0.18111
-0.19659
-0.19195
-0.16099
-0.10217
-0.001548
0.13932
0.35449
0.57895
0.73684
0.76471
0.65789
0.43653
0.26161
0.29567
0.40093
0.51858
0.45975
0.26935
0.10372
-0.082043
-0.23065
-0.37152
-0.4613
-0.49071
-0.49226
-0.4582
-0.39009
-0.32198
-0.28793
-0.27864
-0.27709
-0.28638
-0.29257
-0.29257
-0.24149
-0.113
-0.013932
0.16254
0.33746
0.58978
0.73065
0.64087
0.4582
0.24149
0.1192
0.047988
-0.068111
-0.047988
-0.18266
-0.23684
-0.34365
-0.44118
-0.4582
-0.46749
-0.46904
-0.43498
-0.39319
-0.35294
-0.33591
-0.32972
-0.34211
-0.35294
-0.35913
-0.3452
-0.32043
-0.17957
-0.082043
-0.035604
-0.099071
-0.26471
-0.29257
-0.17802
0.055728
0.24613
0.26316
0.16563
0.069659
-0.05418
0.029412
0.071207
0.13003
-0.041796
-0.25387
-0.43034
-0.49226
-0.48762
-0.45046
-0.38235
-0.30805
-0.25077
-0.21672
-0.19814
-0.17647
-0.16409
-0.13467
-0.10991
-0.095975
-0.10372
-0.12848
-0.12539
-0.077399
0.066563
0.33901
0.62384
0.80341
0.81734
0.64551
0.43344
0.28483
0.36223
0.49071
0.59133
0.46749
0.28019
0.077399
-0.113
-0.27554
-0.40557
-0.47368
-0.49226
-0.47678
-0.43808
-0.39628
-0.37926
-0.35294
-0.26935
-0.18111
-0.13158
-0.16718
-0.27864
-0.44892
-0.62074
-0.75851
-0.7709
-0.57895
-0.25077
0.092879
0.32817
0.41331
0.40093
0.30031
0.28483
0.13622
0.33591
0.092879
0.089783
-0.21362
-0.42724
-0.54954
-0.613
-0.60217
-0.5418
-0.44892
-0.3452
-0.25077
-0.19659
-0.19505
-0.1904
-0.1904
-0.1904
-0.21517
-0.23065
-0.23994
-0.18731
-0.088235
0.051084
0.27245
0.50929
0.68266
0.6935
0.59133
0.36687
0.24149
0.26625
0.43808
0.51858
0.52941
0.32663
0.15325
-0.06192
-0.21053
-0.35294
-0.44737
-0.47214
-0.47214
-0.42415
-0.35913
-0.30341
-0.27864
-0.25542
-0.19195
-0.092879
-0.043344
-0.082043
-0.21362
-0.36378
-0.45666
-0.49845
-0.45666
-0.28483
-0.047988
0.17492
0.29567
0.30805
0.28483
0.30495
0.24303
0.31424
0.2678
0.23839
0.04644
-0.1935
-0.35294
-0.44582
-0.47368
-0.44582
-0.36533
-0.28019
-0.1935
-0.12848
-0.095975
-0.094427
-0.099071
-0.10062
-0.080495
-0.05418
-0.044892
-0.049536
-0.078947
-0.11455
-0.095975
0.001548
0.24458
0.53251
0.75077
0.80341
0.71672
0.49226
0.36842
0.39164
0.5774
0.67492
0.60991
0.40248
0.16254
-0.037152
-0.21672
-0.3483
-0.42879
-0.45975
-0.45975
-0.43653
-0.39164
-0.33127
-0.25851
-0.17957
-0.14551
-0.18266
-0.22136
-0.32198
-0.45046
-0.58824
-0.74768
-0.74613
-0.60836
-0.28173
0.091331
0.38854
0.52012
0.54025
0.42879
0.41486
0.21053
0.41331
0.1935
0.21672
-0.047988
-0.28019
-0.40402
-0.48297
-0.49845
-0.46594
-0.40867
-0.32663
-0.25077
-0.19659
-0.17802
-0.17802
-0.17647
-0.16099
-0.12848
-0.12229
-0.13467
-0.16254
-0.18111
-0.16873
-0.10217
0.06192
0.31579
0.57585
0.70588
0.67802
0.50155
0.3065
0.23839
0.35139
0.5
0.62229
0.4613
0.26161
0.012384
-0.16409
-0.35449
-0.47988
-0.54644
-0.55263
-0.52941
-0.49381
-0.44582
-0.41022
-0.32972
-0.25387
-0.18576
-0.20279
-0.28947
-0.41022
-0.57276
-0.71362
-0.80186
-0.75387
-0.52632
-0.20433
0.1192
0.33746
0.41486
0.40712
0.30341
0.24923
0.15944
0.27554
0.16254
0.063467
-0.20124
-0.36687
-0.4644
-0.50464
-0.49071
-0.43963
-0.36378
-0.27864
-0.19814
-0.15635
-0.14396
-0.13932
-0.14706
-0.14396
-0.15015
-0.14861
-0.15325
-0.15789
-0.13622
-0.077399
0.075851
0.32817
0.59598
0.76006
0.75542
0.62693
0.4195
0.31115
0.3483
0.55108
0.65944
0.57276
0.39164
0.14861
-0.051084
-0.22446
-0.36687
-0.45201
-0.47988
-0.47678
-0.43498
-0.38545
-0.35294
-0.33127
-0.29721
-0.19659
-0.094427
-0.043344
-0.10991
-0.26316
-0.43808
-0.58359
-0.69659
-0.68266
-0.47988
-0.15635
0.1904
0.37926
0.43344
0.39319
0.34985
0.23839
0.2291
0.21827
0.1548
-0.021672
-0.28328
-0.4613
-0.56037
-0.58824
-0.56037
-0.48916
-0.40867
-0.32508
-0.25077
-0.20898
-0.21053
-0.20588
-0.19969
-0.17337
-0.14087
-0.13932
-0.1517
-0.17492
-0.18885
-0.16099
-0.094427
0.075851
0.32353
0.58669
0.68885
0.65789
0.49226
0.32972
0.27399
0.39164
0.55108
0.63003
0.50929
0.28173
0.058824
-0.1161
-0.29721
-0.4257
-0.49381
-0.5
-0.47523
-0.42724
-0.39164
-0.36068
-0.3483
-0.26161
-0.13003
-0.029412
-0.080495
-0.18421
-0.37461
-0.50929
-0.60062
-0.62693
-0.48916
-0.21362
0.10372
0.35449
0.46285
0.45975
0.37152
0.33282
0.20898
0.3839
0.21207
0.17492
-0.10526
-0.31115
-0.44272
-0.50774
-0.50464
-0.4582
-0.38854
-0.31424
-0.23684
-0.17492
-0.1548
-0.1517
-0.1517
-0.17183
-0.14087
-0.13003
-0.10836
-0.10991
-0.13467
-0.14706
-0.12848
-0.012384
0.21827
0.47059
0.68885
0.74303
0.68111
0.47059
0.32817
0.31424
0.54334
0.65325
0.64396
0.43498
0.2291
-0.003096
-0.17647
-0.33127
-0.43034
-0.4613
-0.46904
-0.4257
-0.38545
-0.34675
-0.32198
-0.28328
-0.20279
-0.088235
-0.017028
-0.068111
-0.20898
-0.39628
-0.53096
-0.63777
-0.65325
-0.50464
-0.20588
0.12848
0.37152
0.4613
0.45201
0.35294
0.31734
0.22755
0.39938
0.2709
0.20743
-0.069659
-0.27399
-0.40248
-0.4582
-0.44892
-0.41022
-0.35139
-0.2678
-0.1935
-0.13313
-0.10681
-0.10991
-0.10372
-0.083591
-0.068111
-0.063467
-0.068111
-0.10062
-0.11765
-0.12229
-0.074303
0.0387
0.24458
0.47988
0.67802
0.73065
0.66099
0.43963
0.27709
0.24923
0.45511
0.58204
0.58978
0.39009
0.1935
-0.0387
-0.21207
-0.35604
-0.4644
-0.50464
-0.52167
-0.49381
-0.44892
-0.40557
-0.37926
-0.35139
-0.31115
-0.16718
-0.113
-0.11765
-0.24303
-0.42415
-0.51858
-0.62384
-0.61146
-0.48452
-0.22291
0.080495
0.31115
0.40093
0.3808
0.29102
0.27554
0.17492
0.37926
0.19814
0.19195
-0.083591
-0.30341
-0.4257
-0.48916
-0.47678
-0.43344
-0.39009
-0.31579
-0.2291
-0.16254
-0.13622
-0.14706
-0.15635
-0.16254
-0.15015
-0.13622
-0.12384
-0.13158
-0.15325
-0.17028
-0.16563
-0.113
0.037152
0.27864
0.54489
0.70743
0.72291
0.60372
0.4195
0.33746
0.41641
0.55882
0.70124
0.58514
0.387
0.16099
-0.024768
-0.20743
-0.35294
-0.44582
-0.48297
-0.48297
-0.43344
-0.38235
-0.34211
-0.33282
-0.32353
-0.28483
-0.19814
-0.0387
-0.021672
-0.05418
-0.25387
-0.39938
-0.48762
-0.52322
-0.41022
-0.19969
0.10526
0.32817
0.42105
0.39938
0.33282
0.30805
0.2322
0.37461
0.22601
0.16563
-0.11146
-0.33746
-0.48142
-0.52941
-0.52322
-0.47523
-0.41796
-0.33746
-0.25232
-0.18885
-0.15015
-0.14861
-0.14861
-0.14551
-0.13932
-0.14551
-0.16254
-0.17957
-0.17957
-0.13467
-0.051084
0.085139
0.27554
0.48297
0.62229
0.63932
0.56811
0.3808
0.28173
0.29567
0.46904
0.58824
0.55728
0.39009
0.17492
-0.027864
-0.18111
-0.3483
-0.43344
-0.50464
-0.51703
-0.47678
-0.41641
-0.35604
-0.30805
-0.28638
-0.27864
-0.26935
-0.23839
-0.19195
-0.16563
-0.17028
-0.20124
-0.23529
-0.22446
-0.17802
-0.055728
0.14861
0.39938
0.60062
0.67028
0.613
0.44582
0.36997
0.39783
0.55882
0.68266
0.57121
0.36687
0.15789
-0.068111
-0.2322
-0.37307
-0.42879
-0.38545
-0.36378
-0.32353
-0.30031
-0.36378
-0.40402
-0.48452
-0.59907
-0.65635
-0.71517
-0.72446
-0.68885
-0.64706
-0.60217
-0.5387
-0.4195
-0.16409
0.19195
0.51858
0.70588
0.72136
0.613
0.4257
0.37771
0.12693
0.36687
0.32972
0.33591
0.14706
-0.11146
-0.32663
-0.44892
-0.48916
-0.49381
-0.4644
-0.41176
-0.50464
