0.61814
0.58122
0.54219
0.52215
0.50738
0.49895
0.48945
0.46519
0.41772
0.33755
0.24473
0.11076
-0.068565
-0.29008
-0.45148
-0.46835
-0.36603
-0.26371
-0.24156
-0.28903
-0.30591
-0.27321
-0.17405
-0.047468
0.07173
0.15612
0.2173
0.26371
0.3154
0.37975
0.45359
0.51688
0.57806
0.62447
0.65823
0.6846
0.71097
0.72996
0.74473
0.74789
0.74262
0.72996
0.70253
0.66561
0.62025
0.57384
0.50316
0.41139
0.30169
0.21519
0.18249
0.2173
0.26899
0.30802
0.30063
0.25844
0.21624
0.18354
0.17089
0.17511
0.19304
0.23523
0.2827
0.33755
0.4019
0.45148
0.4789
0.47046
0.44198
0.40401
0.36076
0.32911
0.31329
0.31118
0.3154
0.30696
0.29747
0.28481
0.3154
0.36603
0.4346
0.48945
0.51793
0.51688
0.48945
0.45042
0.40612
0.35443
0.30274
0.24367
0.18038
0.12342
0.075949
0.056962
0.029536
-0.0010549
-0.050633
-0.079114
-0.11709
-0.19304
-0.32911
-0.45675
-0.4884
-0.38924
-0.20675
0.0010549
0.19831
0.34599
0.45464
0.52426
0.58122
0.63186
0.67827
0.72152
0.75422
0.77215
0.78165
0.78692
0.78376
0.78692
0.78165
0.77848
0.77004
0.7616
0.75105
0.73629
0.71097
0.68882
0.66139
0.63186
0.577
0.47785
0.34916
0.34916
0.2057
0.066456
-0.064346
-0.17511
-0.25
-0.27426
-0.26371
-0.23945
-0.23101
-0.22679
-0.2173
-0.18987
-0.14662
-0.086498
-0.027426
0.042194
0.11392
0.19304
0.27743
0.35549
0.41667
0.4557
0.48629
0.51688
0.54008
0.56751
0.56646
0.53797
0.47996
0.4135
0.35759
0.3038
0.24684
0.20359
0.16983
0.1962
0.2384
0.29641
0.32384
0.3154
0.28586
0.26055
0.25422
0.25
0.24051
0.19304
0.173
0.1519
0.15717
0.173
0.19198
0.24156
0.31118
0.3903
0.46203
0.51793
0.55802
0.57489
0.56751
0.54958
0.52637
0.50949
0.49684
0.48418
0.46414
0.42089
0.36603
0.34072
0.36814
0.42827
0.48945
0.51899
0.53165
0.52215
0.49262
0.44304
0.38186
0.3481
0.33017
0.31962
0.31329
0.30169
0.29852
0.28481
0.26582
0.22785
0.1519
0.043249
-0.10232
-0.21308
-0.27954
-0.25
-0.15084
-0.014768
0.12869
0.24789
0.36181
0.44831
0.55274
0.65823
0.75844
0.827
0.85232
0.84388
0.8365
0.82489
0.79747
0.74367
0.65401
0.58122
0.51688
0.46835
0.44198
0.42616
0.42722
0.44304
0.49367
0.56329
0.62342
0.63186
0.58122
0.49473
0.3808
0.23734
0.097046
-0.0010549
-0.018987
0.024262
0.090717
0.13502
0.15295
0.14346
0.11181
0.070675
0.031646
0.014768
0.048523
0.10865
0.18565
0.2711
0.33333
0.39241
0.42511
0.47046
0.51688
0.56857
0.62025
0.66772
0.7057
0.7289
0.73734
0.69831
0.64451
0.60232
0.61181
0.69726
0.80802
0.88291
0.90401
0.85127
0.75
0.60759
0.45359
0.28481
0.12131
-0.012658
-0.10232
-0.12553
-0.12342
-0.12342
-0.16456
-0.19937
-0.2173
-0.20781
-0.19198
-0.16561
-0.11287
-0.015823
0.093882
0.17932
0.22363
0.26055
0.31751
0.39241
0.4789
0.56224
0.64768
0.71308
0.76371
0.80063
0.81751
0.82278
0.79536
0.72468
0.62342
0.50633
0.41034
0.32278
0.24789
0.1962
0.18354
0.21519
0.24473
0.25211
0.23945
0.23312
0.22785
0.23418
0.26055
0.32173
0.42089
0.51688
0.59388
0.66245
0.72785
0.78586
0.8365
0.86498
0.88291
0.88186
0.87553
0.86287
0.83966
0.81435
0.77743
0.74051
0.70992
0.69304
0.67511
0.6403
0.58228
0.50211
0.40717
0.30907
0.20781
0.093882
-0.060127
-0.26793
-0.49262
-0.64135
-0.67722
-0.5538
-0.38502
-0.22257
-0.10127
0.017932
0.13186
0.22152
0.29219
0.35021
0.41667
0.48207
0.5538
0.6192
0.66667
0.69937
0.71097
0.71624
0.71941
0.71941
0.71519
0.70359
0.67194
0.62131
0.54747
0.46519
0.35759
0.2057
0.063291
-0.062236
-0.12447
-0.14451
-0.13819
-0.12025
-0.091772
-0.060127
-0.0094937
0.046414
0.099156
0.15401
0.19937
0.27532
0.3692
0.4789
0.57384
0.64873
0.68565
0.70464
0.69726
0.69726
0.69937
0.69831
0.69515
0.69093
0.68776
0.67194
0.64346
0.6097
0.56224
0.52215
0.4884
0.47785
0.48734
0.50844
0.52637
0.50527
0.40401
0.2057
-0.028481
-0.20886
-0.29958
-0.29747
-0.27637
-0.24684
-0.19409
-0.12447
-0.040084
0.065401
0.16878
0.26266
0.34072
0.41772
0.48629
0.54114
0.5865
0.61181
0.62975
0.64346
0.65612
0.67511
0.69409
0.72046
0.73629
0.74156
0.7289
0.72468
0.7173
0.71203
0.65295
0.5116
0.30591
0.11814
-0.017932
-0.082278
-0.10338
-0.10759
-0.14135
-0.16245
-0.17722
-0.1192
-0.026371
0.093882
0.20464
0.29958
0.38608
0.45675
0.53165
0.59494
0.6519
0.69304
0.7173
0.72785
0.72257
0.71835
0.70781
0.69937
0.69831
0.70042
0.69831
0.69831
0.69409
0.67932
0.65717
0.62131
0.58333
0.54325
0.51266
0.48207
0.45359
0.38924
0.27637
0.10654
-0.059072
-0.20359
-0.3154
-0.40295
-0.43565
-0.40506
-0.3365
-0.27743
-0.20464
-0.11181
-0.0031646
0.098101
0.17511
0.2384
0.30169
0.37869
0.46519
0.53903
0.60549
0.65401
0.68354
0.67932
0.65401
0.60443
0.52743
0.423
0.3154
0.19937
0.11181
0.056962
0.040084
0.058017
0.10549
0.1635
0.22996
0.30485
0.35549
0.39873
0.43671
0.48207
0.52637
0.56118
0.58017
0.59177
0.60865
0.61709
0.61181
0.60865
0.60759
0.61814
0.6403
0.6519
0.64873
0.61076
0.51371
0.32489
0.091772
-0.10865
-0.21519
-0.24051
-0.2289
-0.22679
-0.20148
-0.15612
-0.083333
0.0094937
0.10549
0.22574
0.3365
0.43143
0.50738
0.56118
0.60443
0.64135
0.66983
0.69515
0.71203
0.72152
0.72679
0.72679
0.73101
0.72574
0.72468
0.70886
0.69726
0.68565
0.67616
0.66772
0.65928
0.65717
0.64768
0.63608
0.62131
0.60021
0.58228
0.56857
0.55591
0.55274
0.55169
0.55907
0.55696
0.53903
0.47574
0.35443
0.12447
-0.17827
-0.48945
-0.70359
-0.74051
-0.64768
-0.47363
-0.31962
-0.21624
-0.15506
-0.12342
-0.090717
-0.029536
0.049578
0.15717
0.27637
0.3808
0.4557
0.49367
0.51793
0.5327
0.54114
0.53586
0.49473
0.43038
0.33755
0.24684
0.19409
0.16772
0.18671
0.19726
0.22785
0.24895
0.29008
0.33755
0.37342
0.41034
0.44198
0.48312
0.51266
0.54219
0.56857
0.60021
0.63608
0.68038
0.70992
0.73418
0.73523
0.71624
0.68249
0.61392
0.53059
0.39768
0.22152
0.0094937
-0.22468
-0.37447
-0.41456
-0.34599
-0.24578
-0.17511
-0.11287
-0.077004
-0.035865
0.0010549
0.017932
0.040084
0.07173
0.13608
0.20992
0.29852
0.38291
0.4557
0.51688
0.55907
0.59177
0.6192
0.64346
0.66983
0.69831
0.73734
0.74473
0.73207
0.69726
0.66667
0.63608
0.57384
0.47257
0.30485
0.085443
-0.20359
-0.45886
-0.62975
-0.62447
-0.51055
-0.3808
-0.25422
-0.13819
-0.011603
0.10443
0.19937
0.27426
0.35021
0.43671
0.5211
0.59177
0.6519
0.70253
0.73945
0.7711
0.78586
0.79641
0.80907
0.81962
0.80063
0.77004
0.72152
0.67827
0.63186
0.56329
0.46097
0.31118
0.12658
-0.099156
-0.30696
-0.45253
-0.50211
-0.46835
-0.42932
-0.37447
-0.31646
-0.22363
-0.12131
-0.043249
0.013713
0.051688
0.10021
0.15506
0.22574
0.30802
0.39241
0.47574
0.5443
0.57911
0.5981
0.6097
0.63924
0.68249
0.72574
0.75316
0.77321
0.7711
0.75105
0.71308
0.69304
0.69093
0.70148
0.69304
0.6403
0.52743
0.31857
0.052743
-0.23312
-0.46097
-0.57173
-0.56962
-0.44093
-0.22046
0.026371
0.23945
0.39979
0.51899
0.60654
0.66034
0.6846
0.6962
0.70464
0.72046
0.73418
0.74578
0.75211
0.74789
0.73523
0.72468
0.70781
0.69198
0.68354
0.68143
0.69515
0.66561
0.56435
0.39979
0.19831
0.040084
-0.075949
-0.16139
-0.20781
-0.22679
-0.21414
-0.16561
-0.099156
-0.016878
0.074895
0.17616
0.27954
0.36709
0.45042
0.52954
0.60127
0.66561
0.71203
0.74789
0.75422
0.75633
0.75
0.75105
0.75738
0.76688
0.77426
0.77954
0.78376
0.78903
0.79219
0.7943
0.78797
0.77848
0.76266
0.7616
0.75633
0.73629
0.70253
0.61814
0.423
0.14135
-0.14557
-0.32489
-0.38819
-0.3692
-0.32384
-0.24789
-0.14979
-0.048523
0.028481
0.081224
0.12342
0.18249
0.25105
0.32384
0.39662
0.46308
0.52532
0.56329
0.58966
0.60654
0.62236
0.63291
0.63713
0.60232
0.5443
0.4557
0.34072
0.23101
0.11814
0.0327
-0.0327
-0.060127
-0.020042
0.03903
0.11814
0.19198
0.26899
0.3365
0.38291
0.41772
0.45359
0.50211
0.5538
0.59388
0.61709
0.61709
0.62236
0.62553
0.64979
0.67405
0.69726
0.71624
0.73418
0.74895
0.75
0.7289
0.69831
0.65823
0.58333
0.46203
0.26266
0.014768
-0.2616
-0.50422
-0.62869
-0.61392
-0.48312
-0.30802
-0.16034
-0.052743
0.035865
0.10549
0.16667
0.22468
0.29536
0.37975
0.47785
0.56329
0.64135
0.69515
0.72679
0.74473
0.74578
0.75633
0.77215
0.78376
0.76266
0.70886
0.6192
0.51055
0.35232
0.1519
-0.052743
-0.22257
-0.34388
-0.38713
-0.34283
-0.20359
0
0.19093
0.31224
0.36498
0.38397
0.40717
0.44726
0.49789
0.55274
0.59916
0.63186
0.64873
0.66245
0.67511
0.70042
0.72046
0.73734
0.72785
0.71941
0.70675
0.70675
0.68671
0.62342
0.47363
0.26266
0.017932
-0.20675
-0.32489
-0.3903
-0.3903
-0.35654
-0.29852
-0.19937
-0.081224
0.050633
0.15823
0.24789
0.31857
0.37764
0.44198
0.49473
0.54747
0.60127
0.65717
0.6962
0.73207
0.73945
0.75105
0.75844
0.7827
0.79641
0.79325
0.77426
0.71519
0.5981
0.40401
0.18987
0.0031646
-0.12975
-0.20992
-0.24789
-0.2384
-0.18776
-0.10127
-0.012658
0.080169
0.16667
0.22996
0.27954
0.31751
0.37236
0.43776
0.51582
0.577
0.62869
0.67194
0.70253
0.72679
0.73945
0.75
0.76793
0.78165
0.79325
0.78481
0.78692
0.78586
0.7827
0.77215
0.7384
0.63186
0.43882
0.19515
-0.049578
-0.21414
-0.31013
-0.35127
-0.33122
-0.26793
-0.17722
-0.084388
0.011603
0.090717
0.14557
0.19937
0.25527
0.32173
0.3808
0.42827
0.46624
0.49578
0.52954
0.55802
0.58017
0.59599
0.60338
0.61814
0.62658
0.62764
0.62236
0.62025
0.6308
0.64873
0.66772
0.68038
0.6846
0.68671
0.68776
0.69198
0.6846
0.66983
0.63291
0.50738
0.28903
0.033755
-0.18671
-0.32489
-0.38291
-0.4135
-0.41245
-0.36076
-0.29325
-0.19726
-0.093882
-0.012658
0.060127
0.12764
0.20781
0.29219
0.36498
0.43354
0.49895
0.56013
0.62975
0.69093
0.72785
0.70886
0.65084
0.56329
0.47468
0.40823
0.32173
0.2289
0.094937
-0.017932
-0.087553
-0.10338
-0.07384
-0.0021097
0.10654
0.24473
0.38186
0.49789
0.59283
0.66878
0.71941
0.75105
0.75211
0.73312
0.69726
0.6403
0.58861
0.54747
0.53903
0.54852
0.57068
0.58861
0.60443
0.62131
0.63186
0.64451
0.65823
0.67511
0.69198
0.71414
0.73418
0.75422
0.77215
0.79114
0.78692
0.74684
0.63924
0.44304
0.14768
-0.23734
-0.55802
-0.71308
-0.68671
-0.54747
-0.39241
-0.23523
-0.091772
0.023207
0.082278
0.12025
0.1635
0.22046
0.29008
0.33755
0.36181
0.38186
0.41139
0.45042
0.4884
0.5116
0.51371
0.49473
0.46203
0.4135
0.34599
0.24473
0.11181
-0.03481
-0.1519
-0.2173
-0.1962
-0.086498
0.089662
0.26477
0.38924
0.4673
0.52215
0.56962
0.61392
0.65717
0.67194
0.66245
0.62869
0.58228
0.5443
0.50105
0.47152
0.46097
0.47363
0.50527
0.54325
0.56857
0.58755
0.6192
0.65401
0.68565
0.68565
0.6192
0.45675
0.19831
-0.099156
-0.34072
-0.46203
-0.46624
-0.40295
-0.33017
-0.22046
-0.10654
0.027426
0.1403
0.22679
0.28059
0.31435
0.36392
0.41456
0.48101
0.55063
0.60127
0.63291
0.64979
0.66983
0.69409
0.70781
0.67089
0.5865
0.46203
0.29219
0.084388
-0.094937
-0.21941
-0.25738
-0.23101
-0.16034
-0.048523
0.089662
0.24684
0.38819
0.5
0.59072
0.64979
0.69198
0.71308
0.73523
0.72152
0.67511
0.62025
0.58544
0.57806
0.58544
0.57384
0.56646
0.57068
0.59177
0.61709
0.63291
0.65401
0.67405
0.68565
0.69831
0.70781
0.72046
0.72363
0.72785
0.74367
0.77004
0.78903
0.75316
0.62025
0.36392
0.025316
-0.32489
-0.56962
-0.64135
-0.58439
-0.45886
-0.3154
-0.16983
-0.037975
0.072785
0.1403
0.17089
0.20781
0.24895
0.31646
0.38713
0.42932
0.46519
0.49895
0.53481
0.57173
0.59177
0.58755
0.57068
0.53165
0.49367
0.43143
0.33333
0.19515
0.054852
-0.06962
-0.14346
-0.1308
-0.040084
0.11287
0.26266
0.37025
0.44726
0.50949
0.57173
0.6403
0.6962
0.74051
0.74262
0.70464
0.64557
0.5981
0.56224
0.52848
0.46414
0.37025
0.24895
0.082278
-0.11076
-0.3154
-0.45148
-0.5327
-0.51688
-0.43565
-0.2943
-0.097046
0.097046
0.26477
0.41034
0.53692
0.64241
0.73945
0.81118
0.8597
0.87975
0.8808
0.85654
0.81435
0.75738
0.70464
0.65717
0.62025
0.59388
0.56857
0.55274
0.55169
0.56857
0.58966
0.60443
0.6192
0.6403
0.65928
0.68354
0.66772
0.56118
0.33333
0.067511
-0.19937
-0.36392
-0.45781
-0.4884
-0.45359
-0.36287
-0.24262
-0.11603
0.0094937
0.11603
0.21519
0.27532
0.30696
0.33861
0.37658
0.44093
0.50633
0.56118
0.59283
0.61287
0.62553
0.64241
0.66667
0.69093
0.71941
0.75211
0.78165
0.77848
0.74156
0.64768
0.51477
0.3154
0.084388
-0.11814
-0.25211
-0.29008
-0.2616
-0.173
-0.059072
0.067511
0.16034
0.23629
0.29114
0.33966
0.37764
0.4019
0.42511
0.43987
0.47785
0.52637
0.58122
0.62553
0.64979
0.66561
0.68776
0.71941
0.74156
0.7616
0.76688
0.77004
0.7711
0.76793
0.76793
0.75949
0.74684
0.73734
0.74262
0.74684
0.73207
0.67827
0.61603
0.55907
0.45886
0.21519
-0.12553
-0.50422
-0.69831
-0.75738
-0.68565
-0.56646
-0.423
-0.26793
-0.11392
0.012658
0.12764
0.19093
0.22257
0.25
0.27743
0.35654
0.43776
0.49684
0.53692
0.56013
0.59916
0.6403
0.66561
0.65928
0.61814
0.54114
0.42511
0.27426
0.11709
-0.0063291
-0.063291
-0.066456
-0.027426
0.050633
0.16245
0.28797
0.39346
0.46835
0.52954
0.58333
0.64451
0.71624
0.78059
0.83017
0.85232
0.83966
0.80591
0.74156
0.68038
0.61392
0.51899
0.38186
0.19093
-0.055907
-0.31857
-0.5538
-0.68671
-0.67089
-0.54219
-0.37131
-0.17616
0.024262
0.21308
0.37025
0.4884
0.58228
0.66139
0.73312
0.79641
0.84916
0.88713
0.91139
0.91667
0.89346
0.8481
0.78481
0.70675
0.64557
0.58544
0.54747
0.51688
0.5
0.49789
0.50211
0.52637
0.55274
0.577
0.60759
0.63397
0.65401
0.63924
0.59705
0.54219
0.41034
0.17932
-0.17932
-0.57278
-0.85443
-0.94937
-0.85338
-0.65717
-0.43671
-0.23523
-0.062236
0.090717
0.20359
0.28797
0.36181
0.42405
0.47574
0.49051
0.49262
0.49895
0.52954
0.57806
0.60338
0.61709
0.6192
0.63924
0.66139
0.65928
0.62342
0.53376
0.41772
0.25
0.074895
-0.067511
-0.15928
-0.19515
-0.17827
-0.11287
0.0010549
0.12764
0.23418
0.32806
0.41456
0.5
0.58966
0.67089
0.73101
0.75949
0.76055
0.7384
0.69831
0.64135
0.60549
0.58122
0.57806
0.5654
0.56224
0.56857
0.59494
0.61392
0.57384
0.46941
0.27004
0.028481
-0.22363
-0.40612
-0.47996
-0.45781
-0.38608
-0.28059
-0.14135
0.020042
0.17511
0.29536
0.38397
0.45359
0.50633
0.5443
0.56224
0.56857
0.56962
0.56329
0.56646
0.5865
0.61709
0.65823
0.68249
0.7057
0.73101
0.76371
0.78481
0.79852
0.80802
0.81962
0.827
0.81857
0.81857
0.81224
0.79008
0.74473
0.68671
0.6192
0.4673
0.20359
-0.10654
-0.37658
-0.54536
-0.60021
-0.57384
-0.45781
-0.28376
-0.092827
0.077004
0.22679
0.32911
0.39346
0.41983
0.41245
0.39873
0.38924
0.39241
0.43882
0.47257
0.52426
0.56962
0.62658
0.67722
0.72152
0.72468
0.69515
0.63397
0.53797
0.38608
0.18671
-0.011603
-0.14451
-0.18776
-0.17194
-0.12975
-0.047468
0.045359
0.1635
0.26793
0.36076
0.45042
0.54008
0.62764
0.70042
0.75316
0.77743
0.76477
0.72996
0.66561
0.61287
0.577
0.56224
0.5443
0.52848
0.5327
0.56224
0.59494
0.62869
0.64557
0.68143
0.70675
0.72363
0.69937
0.64768
0.57173
0.42827
0.19726
-0.14135
-0.49367
-0.75844
-0.86076
-0.80485
-0.64557
-0.44093
-0.22996
-0.03692
0.13186
0.2711
0.37869
0.4557
0.52004
0.56224
0.56646
0.55696
0.53586
0.53903
0.55169
0.56224
0.57489
0.58544
0.60759
0.63819
0.66772
0.67194
0.64873
0.57911
0.46308
0.29958
0.1192
-0.026371
-0.13397
-0.17405
-0.1846
-0.13291
-0.042194
0.072785
0.18882
0.2827
0.36076
0.41667
0.47363
0.51266
0.56435
0.59072
0.59283
0.58439
0.58755
0.62658
0.68987
0.72996
0.74684
0.76266
0.77532
0.79747
0.80907
0.82068
0.83544
0.85232
0.86392
0.84072
0.76688
0.60021
0.39135
0.19304
0.026371
-0.094937
-0.22574
-0.33966
-0.38291
-0.3597
-0.27954
-0.15612
-0.0052743
0.12131
0.21941
0.28376
0.32806
0.33017
0.34388
0.32911
0.35338
0.38924
0.45464
0.50738
0.5654
0.60654
0.65506
0.71624
0.7827
0.84916
0.89346
0.88186
0.8154
0.69515
0.53059
0.29747
0.043249
-0.15612
-0.25949
-0.25527
-0.2173
-0.1403
-0.030591
0.10232
0.24262
0.35549
0.44937
0.52004
0.57595
0.60865
0.63397
0.62764
0.61181
0.59072
0.55591
0.54536
0.54641
0.5654
0.59177
0.61076
0.6403
0.66667
0.69093
0.70675
0.72046
0.73629
0.74262
0.75211
0.76266
0.7711
0.75844
0.7289
0.70042
0.67932
0.66245
0.5981
0.47996
0.29114
0.075949
-0.13397
-0.33122
-0.47468
-0.56751
-0.56224
-0.47996
-0.37025
-0.23945
-0.1192
-0.0042194
0.085443
0.1403
0.14557
0.14346
0.13608
0.16772
0.22679
0.29008
0.34177
0.37869
0.39873
0.41139
0.40823
0.39873
0.36814
0.30696
0.20148
0.089662
0.023207
0.03481
0.10549
0.18987
0.26055
0.32911
0.40084
0.4789
0.55802
0.62869
0.69198
0.73945
0.77954
0.80802
0.83439
0.85443
0.86392
0.86392
0.83966
0.79747
0.73418
0.64135
0.54852
0.48101
0.41772
0.40084
0.41034
0.44515
0.4789
0.49051
0.48523
0.44515
0.36287
0.1846
-0.10232
-0.41667
-0.63608
-0.70359
-0.63608
-0.52532
-0.37975
-0.21624
-0.043249
0.10549
0.22574
0.3154
0.37975
0.43671
0.47468
0.50633
0.52743
0.52532
0.49895
0.48207
0.49473
0.54958
0.60654
0.64135
0.67089
0.70042
0.74473
0.7827
0.80485
0.80591
0.78165
0.74473
0.65506
0.52321
0.34388
0.15506
-0.007384
-0.14135
-0.2289
-0.29219
-0.3154
-0.2616
-0.1519
-0.011603
0.12131
0.21941
0.2943
0.35338
0.40823
0.43671
0.46203
0.46624
0.45148
0.45886
0.48523
0.53059
0.56224
0.58333
0.60127
0.63502
0.673
0.70359
0.7289
0.74473
0.74895
0.74473
0.73945
0.74367
0.74367
0.72996
0.6962
0.61076
0.46097
0.30063
0.15295
0.012658
-0.11287
-0.27004
-0.3903
-0.44726
-0.42089
-0.34072
-0.21941
-0.10549
0.0010549
0.081224
0.14451
0.17722
0.19093
0.18038
0.17722
0.20464
0.2616
0.3154
0.3597
0.4019
0.43987
0.48101
0.52532
0.57595
0.64451
0.68882
0.68882
0.62764
0.51477
0.35654
0.16878
0.007384
-0.13608
-0.22363
-0.28481
-0.28059
-0.19304
-0.062236
0.094937
0.24789
0.3808
0.49684
0.57911
0.62764
0.66034
0.66245
0.66034
0.62236
0.5654
0.51793
0.49789
0.51477
0.54325
0.56013
0.57068
0.59494
0.63291
0.66245
0.68249
0.69831
0.71203
0.72679
0.7384
0.75105
0.74895
0.74367
0.73312
0.72257
0.71203
0.7057
0.70781
0.70253
0.63819
0.47152
0.27321
0.077004
-0.086498
-0.27004
-0.47152
-0.60021
-0.62131
-0.54958
-0.44198
-0.31962
-0.19515
-0.086498
-0.007384
0.060127
0.099156
0.1192
0.12553
0.12553
0.14346
0.16456
0.18354
0.20464
0.24156
0.29114
0.33228
0.36076
0.37764
0.38608
0.38713
0.3692
0.33544
0.3038
0.25633
0.22679
0.21097
0.23312
0.27532
0.33017
0.38291
0.43249
0.48418
0.54747
0.60127
0.65928
0.70464
0.7384
0.75211
0.74789
0.73101
0.69409
0.64662
0.5538
0.3808
0.14873
-0.085443
-0.20464
-0.23101
-0.19198
-0.18143
-0.19198
-0.23734
-0.25738
-0.25105
-0.19726
-0.085443
0.055907
0.20675
0.35549
0.49051
0.61392
0.71941
0.80591
0.87025
0.91878
0.94409
0.95992
0.96308
0.96624
0.95886
0.94831
0.9346
0.92511
0.91245
0.90084
0.88291
0.85759
0.82384
0.77426
0.72046
0.68671
0.68249
0.6846
0.66245
0.58228
0.40084
0.15084
-0.092827
-0.24789
-0.3597
-0.45359
-0.58333
-0.66983
-0.68671
-0.62447
-0.53059
-0.41561
-0.28692
-0.14662
-0.0010549
0.1403
0.2616
0.37025
0.45781
0.52954
0.58228
0.61814
0.65506
0.69831
0.73945
0.76266
0.74578
0.70042
0.60127
0.45359
0.29641
0.12975
0.024262
-0.03481
-0.043249
-0.054852
-0.086498
-0.11287
-0.11709
-0.064346
0.033755
0.14873
0.27743
0.40823
0.53376
0.6403
0.72574
0.79958
0.85232
0.89135
0.91561
0.93038
0.92616
0.91878
0.9019
0.87975
0.84072
0.78376
0.71519
0.67511
0.64241
0.61814
0.58228
0.56118
0.54536
0.48418
0.36076
0.14346
-0.15928
-0.47257
-0.70886
-0.77426
-0.65717
-0.48629
-0.35654
-0.25
-0.16139
-0.050633
0.050633
0.13608
0.21941
0.31013
0.39873
0.49895
0.59599
0.69304
0.7711
0.83333
0.87131
0.87131
0.84388
0.78586
0.72574
0.67194
0.64346
0.65928
0.67827
0.68565
0.64979
0.56013
0.45148
0.33017
0.19093
0.022152
-0.18776
-0.36287
-0.49895
-0.55802
-0.5443
-0.47679
-0.34916
-0.20359
-0.058017
0.095992
0.24367
0.36287
0.47152
0.56013
0.64662
0.71519
0.75844
0.77532
0.77637
0.76266
0.73523
0.68565
0.6403
0.56857
0.51582
0.46097
0.45886
0.47363
0.50844
0.54008
0.57384
0.61181
0.64557
0.64135
0.58544
0.46097
0.327
0.2289
0.15295
0.093882
-0.0021097
-0.095992
-0.15928
-0.19831
-0.18987
-0.1519
-0.083333
0.0031646
0.10127
0.20042
0.29641
0.38713
0.44726
0.49473
0.51899
0.52743
0.52532
0.48734
0.47152
0.46414
0.49578
0.53376
0.56118
0.58122
0.60759
0.6403
0.66878
0.69726
0.72679
0.7616
0.78797
0.81329
0.81751
0.81118
0.78059
0.73207
0.64346
0.50211
0.34705
0.18671
0.016878
-0.15612
-0.31224
-0.4019
-0.38713
-0.31751
-0.21941
-0.12025
-0.0052743
0.11392
0.21308
0.29008
0.35127
0.39135
0.38713
0.35338
0.32911
0.33228
0.37447
0.42089
0.45992
0.49789
0.53903
0.577
0.61287
0.65717
0.70781
0.7616
0.79958
0.81857
0.82595
0.81962
0.78586
0.71835
0.59599
0.40084
0.17932
-0.03903
-0.19831
-0.2943
-0.35654
-0.37447
-0.33439
-0.2384
-0.10654
0.030591
0.16561
0.28903
0.39557
0.46414
0.51477
0.51688
0.46624
0.39346
0.31751
0.30802
0.31013
0.32173
0.32911
0.36814
0.44304
0.5327
0.61181
0.66667
0.69726
0.71203
0.71519
0.71835
0.72785
0.74051
0.75316
0.75633
0.75316
0.74156
0.72257
0.70359
0.67827
0.66561
0.66245
0.67405
0.6635
0.60759
0.49156
0.34388
0.19409
0.059072
-0.11392
-0.32384
-0.55169
-0.67827
-0.6962
-0.62131
-0.50949
-0.3808
-0.24051
-0.082278
0.07173
0.19831
0.27954
0.29536
0.27215
0.24156
0.23734
0.26688
0.29958
0.33017
0.36709
0.4019
0.44304
0.48734
0.49473
0.4346
0.32806
0.21097
0.12658
0.072785
0.041139
0.030591
0.070675
0.16667
0.2827
0.37658
0.42616
0.44515
0.47152
0.50633
0.56329
0.62553
0.673
0.69198
0.70042
0.72152
0.72785
0.73207
0.71308
0.65823
0.58966
0.50738
0.42089
0.31751
0.17827
0.0052743
-0.17089
-0.31013
-0.33861
-0.30169
-0.21624
-0.15612
-0.098101
-0.03903
0.03903
0.12131
0.22574
0.35443
0.47785
0.5865
0.66772
0.72996
0.78059
0.82278
0.85759
0.87447
0.88291
0.87447
0.85127
0.82068
0.77321
0.7173
0.67405
0.64873
0.64873
0.65612
0.69937
0.75211
0.78692
0.78903
0.73629
0.66034
0.54219
0.3903
0.14451
-0.16139
-0.47785
-0.64451
-0.66034
-0.54852
-0.41878
-0.3154
-0.22152
-0.10338
0.030591
0.16456
0.29008
0.38397
0.46941
0.53481
0.58755
0.62764
0.64979
0.67722
0.69937
0.67827
0.61498
0.52321
0.45675
0.4462
0.45886
0.48734
0.51371
0.54852
0.60443
0.66878
0.70886
0.70992
0.66139
0.58439
0.47679
0.32806
0.14346
-0.040084
-0.15717
-0.19515
-0.22046
-0.24156
-0.24051
-0.20886
-0.14346
-0.065401
0.03903
0.1635
0.29008
0.40295
0.49367
0.5654
0.61709
0.64241
0.66139
0.65823
0.63186
0.57278
0.50844
0.47468
0.48312
0.51055
0.53165
0.5538
0.57068
0.59283
0.61709
0.64451
0.68354
0.71941
0.74789
0.76688
0.78059
0.78903
0.80696
0.80591
0.79114
0.75422
0.70253
0.58122
0.41034
0.22785
0.074895
-0.077004
-0.22046
-0.38291
-0.47257
-0.46835
-0.41878
-0.3481
-0.26266
-0.16034
-0.054852
0.047468
0.13924
0.22996
0.28692
0.29958
0.27532
0.24367
0.24473
0.25
0.26688
0.31224
0.39135
0.48101
0.54114
0.55591
0.53903
0.49789
0.43249
0.32173
0.19198
0.079114
0.015823
-0.0010549
-0.03903
-0.066456
-0.077004
-0.040084
0.018987
0.084388
0.15506
0.24684
0.32806
0.40506
0.47574
0.55591
0.64768
0.72785
0.79008
0.83439
0.85759
0.85338
0.82595
0.77637
0.70253
0.62553
0.5654
0.54852
0.54958
0.55696
0.55274
0.53797
0.52215
0.47785
0.39557
0.31857
0.30274
0.38713
0.55169
0.68987
0.76266
0.7616
0.7289
0.68354
0.64241
0.62131
0.61392
0.62553
0.64346
0.64241
0.60232
0.51371
0.37342
0.17616
-0.093882
-0.46203
-0.74367
-0.90823
-0.86076
-0.68776
-0.4884
-0.33861
-0.25949
-0.23207
-0.21414
-0.15401
-0.067511
0.056962
0.17089
0.23945
0.26266
0.26371
0.30802
0.39557
0.49367
0.59072
0.66561
0.71519
0.73418
0.72996
0.71308
0.673
0.59599
0.4673
0.31751
0.12975
-0.080169
-0.2384
-0.2827
-0.18249
-0.0084388
0.15823
0.28376
0.4019
0.50105
0.58017
0.64979
0.70464
0.75527
0.79852
0.83017
0.86498
0.87553
0.86603
0.82278
0.77215
0.71624
0.6846
0.66983
0.67511
0.72257
0.7711
0.81013
0.80907
0.76688
0.72468
0.69831
0.69409
0.69515
0.67405
0.59072
0.44726
0.27321
0.098101
-0.078059
-0.25633
-0.36392
-0.41245
-0.36709
-0.31435
-0.2827
-0.25949
-0.20253
-0.097046
0.027426
0.14979
0.25316
0.34072
0.39873
0.43038
0.40823
0.37342
0.36076
0.37975
0.42089
0.47257
0.52532
0.57384
0.62869
0.68038
0.73629
0.78586
0.8365
0.87975
0.90401
0.88924
0.83755
0.77004
0.68565
0.55591
0.34072
0.041139
-0.28692
-0.52426
-0.63924
-0.63608
-0.54747
-0.43987
-0.3038
-0.15717
-0.017932
0.11603
0.22679
0.31329
0.37342
0.42932
0.4789
0.5327
0.58017
0.60021
0.5865
0.55063
0.48523
0.42616
0.37553
0.37131
0.39135
0.43038
0.44409
0.44304
0.43565
0.42827
0.4346
0.46308
0.49789
0.54114
0.57489
0.60865
0.63186
0.64873
0.65506
0.66245
0.66245
0.66245
0.65823
0.65401
0.64241
0.62764
0.61498
0.59705
0.57911
0.56751
0.56646
0.57595
0.58439
0.59388
0.59705
0.5654
0.46519
0.29008
0.068565
-0.1635
-0.38713
-0.59388
-0.70675
-0.68354
-0.57278
-0.48734
-0.4557
-0.42194
-0.35338
-0.25949
-0.17616
-0.091772
0.010549
0.13713
0.28059
0.41456
0.51899
0.59072
0.62764
0.65084
0.6635
0.67511
0.68354
0.68776
0.68565
0.66456
0.62236
0.53586
0.39979
0.27004
0.1635
0.099156
0.0327
-0.045359
-0.093882
-0.063291
0.024262
0.12131
0.21414
0.28481
0.33333
0.33966
0.33228
0.35654
0.40928
0.49367
0.5654
0.63502
0.69515
0.71941
0.72257
0.68143
0.65506
0.64241
0.63819
0.63186
0.61076
0.55802
0.51266
0.5
0.55169
0.6192
0.64241
0.57489
0.4135
0.19198
-0.054852
-0.30063
-0.46308
-0.49684
-0.39979
-0.24262
-0.088608
0.052743
0.19198
0.30907
0.41456
0.50211
0.58228
0.6403
0.67511
0.68671
0.6846
0.673
0.66245
0.64873
0.63924
0.64873
0.67616
0.70675
0.74051
0.76371
0.77426
0.77532
0.77321
0.77321
0.76688
0.76793
0.76477
0.76793
0.75633
0.75105
0.73734
0.71941
0.70886
0.70464
0.70359
0.71203
0.69409
0.62869
0.48207
0.2827
0.051688
-0.18143
-0.4135
-0.59599
-0.67616
-0.64346
-0.55696
-0.50211
-0.45992
-0.39768
-0.28903
-0.16139
-0.054852
0.0327
0.092827
0.12131
0.12764
0.12869
0.14241
0.19093
0.26688
0.34283
0.41772
0.47046
0.51793
0.56329
0.60338
0.64451
0.68038
0.6962
0.68038
0.61814
0.50949
0.39241
0.27426
0.16878
0.035865
-0.092827
-0.23734
-0.33861
-0.38291
-0.36603
-0.29641
-0.19093
-0.062236
0.072785
0.20042
0.30802
0.40084
0.48418
0.55802
0.62553
0.68038
0.72152
0.74051
0.74262
0.7057
0.6519
0.58439
0.53376
0.51371
0.52426
0.54852
0.56751
0.57384
0.56118
0.55591
0.5538
0.57278
0.59283
0.62131
0.64873
0.67827
0.70253
0.72046
0.73629
0.75316
0.7711
0.7711
0.76899
0.77004
0.76266
0.75844
0.70042
0.57489
0.4019
0.20992
0.0063291
-0.2173
-0.40717
-0.48629
-0.45886
-0.43882
-0.47257
-0.53059
-0.51055
-0.39768
-0.2384
-0.092827
0.0327
0.14346
0.25316
0.35232
0.43882
0.50844
0.56013
0.60549
0.64346
0.67405
0.70253
0.71835
0.74156
0.76477
0.79641
0.81435
0.79641
0.72574
0.60127
0.43565
0.19937
-0.07384
-0.31435
-0.4673
-0.5
-0.45886
-0.37342
-0.25422
-0.1097
0.048523
0.18882
0.29852
0.38713
0.46941
0.54958
0.61603
0.66245
0.67722
0.68143
0.67194
0.64768
0.6192
0.58122
0.58122
0.60549
0.63397
0.63502
0.60759
0.57595
0.55063
0.5538
0.57068
0.59283
0.61709
0.64873
0.68354
0.7173
0.74156
0.74895
0.73312
0.70675
0.68143
0.68143
0.7057
0.74895
0.78165
0.79958
0.80274
0.79219
0.73523
0.61287
0.37025
0.033755
-0.38713
-0.72046
-0.86076
-0.8154
-0.69831
-0.64873
-0.62447
-0.54852
-0.39557
-0.23101
-0.095992
0.020042
0.12342
0.23312
0.32911
0.40612
0.46835
0.51899
0.56751
0.61076
0.62975
0.60021
0.56435
0.53586
0.56646
0.6308
0.68565
0.70359
0.69831
0.66983
0.61709
0.5211
0.42194
0.30907
0.19937
0.046414
-0.14768
-0.34283
-0.49367
-0.55485
-0.5327
-0.46624
-0.37658
-0.24895
-0.088608
0.10021
0.25422
0.35549
0.41983
0.46941
0.52954
0.57595
0.62025
0.63502
0.63924
0.61287
0.577
0.54641
0.53903
0.54747
0.57173
0.60443
0.62764
0.6519
0.67089
0.69409
0.70886
0.7289
0.74684
0.75527
0.75949
0.75633
0.75633
0.75949
0.76266
0.75844
0.75
0.72679
0.6962
0.65612
0.62236
0.60232
0.62447
0.65928
0.6846
0.6962
0.6635
0.57595
0.4135
0.12342
-0.23523
-0.64241
-0.87447
-0.92722
-0.81118
-0.67932
-0.58966
-0.50105
-0.36287
-0.19304
-0.028481
0.10654
0.21941
0.31013
0.3903
0.4557
0.50527
0.54325
0.57068
0.58755
0.60338
0.61392
0.62025
0.62658
0.61181
0.55696
0.48734
0.42405
0.42932
0.47152
0.50949
0.50527
0.47574
0.45359
0.42405
0.36076
0.26793
0.15928
0.028481
-0.14241
-0.33755
-0.48734
-0.51793
-0.42616
-0.28481
-0.1519
-0.046414
0.058017
0.14557
0.23207
0.30169
0.36181
0.42827
0.50316
0.58122
0.65295
0.71203
0.75527
0.78903
0.81013
0.82911
0.83966
0.84283
0.83861
0.83017
0.81857
0.80485
0.78797
0.77321
0.74895
0.71835
0.69304
0.67089
0.64662
0.62975
0.61287
0.59177
0.56329
0.53376
0.49684
0.4789
0.43143
0.36603
0.26793
0.13397
-0.0094937
-0.15401
-0.2616
-0.30802
-0.31857
-0.34494
-0.40506
-0.43776
-0.4135
-0.327
-0.1962
-0.051688
0.084388
0.18987
0.26371
0.31224
0.3597
0.41034
0.44937
0.48734
0.52215
0.55696
0.5865
0.59599
0.58755
0.58017
0.57278
0.59494
0.62553
0.64451
0.63713
0.60232
0.55485
0.51477
0.48312
0.43354
0.34705
0.2173
0.064346
-0.10443
-0.29219
-0.38924
-0.37236
-0.2289
-0.037975
0.14979
0.31013
0.43776
0.50211
0.52321
0.51266
0.49895
0.50105
0.49367
0.50422
0.53165
0.58333
0.62342
0.62342
0.58861
0.53797
0.5
0.49051
0.49895
0.51371
0.51055
0.48312
0.45148
0.45253
0.50844
0.58966
0.64451
0.64768
0.57068
0.4346
0.22257
-0.041139
-0.29008
-0.41772
-0.42194
-0.32384
-0.22257
-0.12869
-0.03481
0.045359
0.10443
0.15084
0.20781
0.28903
0.37236
0.45675
0.49473
0.49789
0.47046
0.45464
0.47152
0.52637
0.59916
0.68776
0.76266
0.84177
0.90084
0.9557
0.98629
0.99789
1
0.9884
0.96941
0.92405
0.87447
0.82173
0.79008
0.77637
0.78586
0.80696
0.82595
0.83228
0.82173
0.79747
0.7616
0.71835
0.67511
0.64873
0.6403
0.64873
0.65506
0.65506
0.64557
0.63924
0.63924
0.59177
0.49262
0.32068
0.045359
-0.33122
-0.62447
-0.77321
-0.71941
-0.58439
-0.4557
-0.33333
-0.2173
-0.12553
-0.067511
-0.0063291
0.064346
0.14979
0.23523
0.30907
0.38291
0.44515
0.49156
0.53165
0.55907
0.58439
0.59599
0.5981
0.58966
0.56118
0.52532
0.49578
0.4884
0.49473
0.49684
0.47363
0.43565
0.40295
0.38608
0.36181
0.31329
0.24895
0.20148
0.17827
0.17722
0.16667
0.12975
0.054852
-0.051688
-0.21835
-0.39873
-0.55274
-0.62025
-0.58861
-0.46414
-0.31224
-0.16139
-0.026371
0.097046
0.20253
0.28903
0.35549
0.4019
0.44198
0.47363
0.5116
0.55591
0.60021
0.62764
0.64768
0.66878
0.69304
0.71308
0.70992
0.68565
0.65612
0.64241
0.64557
0.673
0.7057
0.74262
0.77321
0.78797
0.76899
0.72679
0.64979
0.54114
0.37975
0.14662
-0.16878
-0.41667
-0.57278
-0.54641
-0.39662
-0.19198
0.0042194
0.18565
0.31646
0.40084
0.43987
0.46414
0.48207
0.48207
0.49789
0.51899
0.56224
0.61181
0.66983
0.73629
0.81118
0.85549
0.8808
0.8597
0.84388
0.83228
0.82278
0.81329
0.80169
0.77848
0.76371
0.75633
0.75422
0.75422
0.74367
0.7384
0.74262
0.77004
0.80063
0.80591
0.77426
0.71203
0.64451
0.5981
0.57173
0.54325
0.52532
0.51055
0.47996
0.41139
0.31118
0.12658
-0.054852
-0.2827
-0.44304
-0.56013
-0.59494
-0.55591
-0.45359
-0.33017
-0.20992
-0.11603
-0.015823
0.097046
0.20675
0.3038
0.38713
0.45464
0.51266
0.54536
0.57489
0.58228
0.58861
0.58439
0.58017
0.57489
0.56013
0.5538
0.54219
0.53059
0.5211
0.51793
0.5116
0.5
0.49367
0.48523
0.46941
0.45148
0.43776
0.43143
0.43143
0.42089
0.40295
0.36814
0.327
0.26899
0.19726
0.088608
-0.037975
-0.13397
-0.19515
-0.25527
-0.38502
-0.55169
-0.673
-0.68038
-0.58861
-0.47046
-0.33755
-0.2173
-0.13291
-0.068565
-0.012658
0.053797
0.13713
0.20992
0.25105
0.28165
0.31751
0.38186
0.46414
0.54852
0.62342
0.67616
0.71308
0.72574
0.72257
0.72363
0.73101
0.76266
0.79536
0.78797
0.73418
0.63924
0.54536
0.4557
0.39135
0.327
0.26371
0.17722
0.068565
-0.064346
-0.19304
-0.26371
-0.25844
-0.18143
-0.07173
0.031646
0.14873
0.26793
0.3808
0.48207
0.55802
0.61076
0.63291
0.64557
0.66456
0.67405
0.65928
0.61709
0.57278
0.53376
0.51055
0.50949
0.53692
0.59388
0.66983
0.74684
0.81962
0.87447
0.90506
0.91456
0.90717
0.8808
0.85021
0.81646
0.77321
0.72363
0.64451
0.54747
0.46835
0.45675
0.49156
0.55169
0.60443
0.62553
0.61287
0.55274
0.4462
0.32595
0.18565
0.0094937
-0.18671
-0.37236
-0.51899
-0.60549
-0.63924
-0.59283
-0.53692
-0.45359
-0.33861
-0.17827
-0.0010549
0.15084
0.24789
0.30274
0.35127
0.4019
0.44515
0.46941
0.4673
0.4557
0.46097
0.49156
0.54219
0.60127
0.65084
0.68143
0.68776
0.69198
0.69198
0.68143
0.66772
0.64662
0.64135
0.64451
0.66772
0.69304
0.69726
0.67827
0.60654
0.49367
0.327
0.10443
-0.086498
-0.21097
-0.24789
-0.21203
-0.1192
0.0031646
0.14979
0.27215
0.35232
0.40401
0.43354
0.45359
0.47152
0.4884
0.49051
0.49684
0.47996
0.44726
0.38502
0.32173
0.2943
0.31118
0.36603
0.44198
0.53481
0.62975
0.71624
0.78797
0.82489
0.82068
0.80169
0.78059
0.78586
0.81118
0.83439
0.83544
0.80696
0.75738
0.69937
0.64662
0.61181
0.58755
0.56857
0.54325
0.52215
0.50211
0.49473
0.48945
0.47996
0.4673
0.44304
0.41983
0.38819
0.35865
0.32068
0.27743
0.17194
-0.054852
-0.44937
-0.81118
-1
-0.9557
-0.78059
-0.63608
-0.55063
-0.49051
-0.40928
-0.30591
-0.20042
-0.10021
-0.03903
0.0084388
0.047468
0.084388
0.13713
0.20359
0.29325
0.39451
0.48629
0.57595
0.63924
0.70359
0.75422
0.80063
0.83439
0.8597
0.87342
0.88924
0.89346
0.88819
0.86603
0.81857
0.75316
0.6846
0.59599
0.49367
0.38186
0.27637
0.20148
0.17089
0.16456
0.14241
0.067511
-0.083333
-0.20253
-0.26055
-0.23418
-0.18143
-0.13291
-0.06962
0.021097
0.12447
0.21519
0.29641
0.36709
0.41456
0.4346
0.42722
0.38502
0.30696
0.21835
0.14979
0.16983
0.25844
0.39873
0.54747
0.67511
0.77954
0.85127
0.90401
0.95042
0.98207
0.99789
0.99367
0.9789
0.95992
0.93882
0.91139
0.88397
0.85232
0.81857
0.78586
0.75105
0.71835
0.68671
0.65612
0.6308
0.60654
0.58228
0.55907
0.53797
0.51793
0.49895
0.48312
0.46414
0.44937
0.43776
0.423
0.41561
0.40717
0.39979
0.39346
0.38713
0.38291
0.37658
0.37236
0.36392
0.35338
0.34388
0.34072
0.34705
0.35549
0.36498
0.35127
0.29325
0.16456
0.0084388
-0.087553
-0.12236
-0.17511
-0.30274
-0.43565
-0.49367
-0.43776
-0.36392
-0.31013
-0.29641
-0.26477
-0.22574
-0.14346
-0.035865
0.080169
0.18354
0.25949
0.327
0.38713
0.44304
0.49262
0.5211
0.53059
0.5327
0.52321
0.51371
0.49895
0.45886
0.41139
0.34916
0.27848
0.22257
0.17405
0.13819
0.1097
0.090717
0.083333
0.10232
0.14662
0.20464
0.27215
0.34494
0.41245
0.44304
0.43354
0.37025
0.25738
0.077004
-0.15823
-0.37236
-0.52215
-0.60443
-0.64451
-0.64557
-0.59072
-0.47363
-0.33861
-0.20253
-0.083333
-0.0010549
0.059072
0.12869
0.2384
0.36814
0.48523
0.57595
0.64241
0.68565
0.71519
0.73101
0.7384
0.74262
0.73207
0.72152
0.7057
0.67932
0.65084
0.61709
0.59177
0.57911
0.56118
0.54852
0.52637
0.50949
0.49789
0.48629
0.45359
0.40717
0.32384
0.22257
0.10443
-0.0084388
-0.10127
-0.17932
-0.26582
-0.37553
-0.45886
-0.50949
-0.53586
-0.61603
-0.75316
-0.85654
-0.85338
-0.72574
-0.56118
-0.40717
-0.26371
-0.12764
-0.013713
0.068565
0.13291
0.19726
0.27426
0.31857
0.30907
0.23523
0.14346
0.10127
0.12131
0.19198
0.28165
0.36181
0.40823
0.45886
0.53692
0.65717
0.77321
0.84599
0.87236
0.87447
0.86709
0.85338
0.83228
0.79852
0.77848
0.78059
0.81435
0.84705
0.85021
0.83017
0.79852
0.78165
0.74684
0.66878
0.51477
0.64873
