0.67858
0.70326
0.71465
0.72667
0.73742
0.75957
0.78804
0.8336
0.81272
0.76526
0.5299
0.052199
-0.59633
-0.96267
-0.99051
-0.93673
-0.97343
-0.98988
-0.93926
-0.72793
-0.47991
-0.26416
-0.09459
0.052831
0.1895
0.30149
0.39639
0.45777
0.51345
0.53939
0.5552
0.54255
0.51977
0.50395
0.49003
0.49953
0.51281
0.52673
0.53243
0.53243
0.53179
0.53179
0.54065
0.55078
0.57419
0.5938
0.61341
0.62101
0.60835
0.58621
0.58115
0.60645
0.64568
0.65834
0.46283
-0.059158
-0.74628
-1
-0.9981
-0.99747
-0.99684
-0.91838
-0.59
-0.354
-0.21101
-0.055995
0.082569
0.18317
0.24075
0.29389
0.33945
0.39766
0.4565
0.51408
0.56976
0.60962
0.64125
0.57861
0.42423
0.12812
-0.1509
-0.26922
-0.25656
0.074344
0.13825
0.045872
-0.37804
-0.64125
-0.69314
-0.51155
-0.30339
-0.10218
0.095223
0.21987
0.33059
0.30718
0.29453
0.26163
0.26163
0.20721
0.14015
0.042075
-0.035115
-0.0022145
0.12053
0.38058
0.6286
0.90193
0.88991
0.74692
0.03385
-0.39892
-0.69377
-0.67732
-0.46536
-0.149
0.17241
0.22619
0.15976
0.073711
0.092692
0.18823
0.33755
0.44321
0.4875
0.51028
0.52673
0.54761
0.55647
0.55267
0.52863
0.51345
0.51977
0.55394
0.58937
0.60202
0.60835
0.61531
0.63429
0.64505
0.63682
0.53179
0.37551
0.11737
-0.15913
-0.51028
-0.61088
-0.5571
-0.38943
-0.42423
-0.67226
-0.67036
-0.56153
-0.34071
-0.091427
0.16229
0.36223
0.49067
0.57292
0.59886
0.57039
0.5204
0.41158
0.33059
0.31098
0.36539
0.52357
0.65201
0.71148
0.73047
0.58811
0.41221
0.023094
-0.39576
-0.68048
-0.74059
-0.38564
-0.26099
0.021829
0.024992
0.011072
-0.052831
-0.019298
0.077507
0.24771
0.40335
0.55584
0.6596
0.71908
0.57355
0.30465
-0.10028
-0.40842
-0.46473
-0.31288
0.068016
0.53369
0.51724
0.58051
0.1199
-0.44575
-0.76843
-0.73742
-0.43499
-0.14204
0.27428
0.46662
0.36792
0.17811
-0.046504
-0.15533
-0.07814
0.0015818
0.1199
0.28124
0.47042
0.60202
0.66719
0.55963
0.40019
0.18444
0.043341
-0.0085416
0.060424
0.23315
0.40652
0.53116
0.57608
0.49699
0.42297
0.38627
0.38184
0.3192
0.25783
0.19456
0.27555
0.4217
0.55837
0.5204
0.35147
0.30339
0.2186
-0.11167
-0.30085
-0.26606
-0.05726
0.19076
0.22113
0.30465
0.20531
0.0085416
-0.20025
-0.19076
-0.02689
0.19456
0.34578
0.45207
0.46599
0.43372
0.36413
0.32996
0.38564
0.51281
0.66023
0.77855
0.87156
0.91711
0.89307
0.71718
0.41854
0.012338
-0.28567
-0.37804
-0.22619
0.118
0.58494
0.70136
0.53306
-0.12876
-0.6286
-0.91585
-0.7988
-0.51471
-0.021196
0.17305
0.41095
0.3521
0.17241
0.045872
-0.052199
0.0085416
0.13951
0.30212
0.44764
0.55584
0.64885
0.75008
0.78045
0.70832
0.54255
0.25087
-0.01044
-0.20848
-0.23948
-0.068649
0.12749
0.28504
0.41411
0.33186
-0.069915
-0.71718
-0.98165
-0.99367
-0.80892
-0.43183
0.070547
0.13382
0.22493
0.011072
-0.14204
-0.21417
-0.061689
0.15976
0.36096
0.48814
0.57672
0.64189
0.69124
0.72477
0.75641
0.78045
0.79057
0.77602
0.74945
0.72097
0.6963
0.69377
0.67985
0.65897
0.6305
0.60013
0.559
0.47991
0.28314
0.080038
-0.2901
-0.48687
-0.74692
-0.75577
-0.75704
-0.6577
-0.46473
-0.21987
-0.023094
0.093325
0.1857
0.30971
0.44638
0.56027
0.64125
0.6925
0.73553
0.77792
0.81019
0.8317
0.84372
0.84688
0.83929
0.82031
0.78361
0.75008
0.71212
0.69377
0.68175
0.68048
0.67668
0.66846
0.66593
0.65391
0.64442
0.6305
0.61721
0.60456
0.59506
0.59317
0.59633
0.60962
0.62227
0.64062
0.64948
0.65391
0.64315
0.55584
0.41664
0.24581
0.118
0.12686
0.47865
0.55963
0.11674
-0.68554
-0.99873
-0.9981
-0.9981
-0.99747
-0.99747
-0.99747
-0.99684
-0.86903
-0.48497
-0.24328
-0.10661
0.016134
0.12306
0.20848
0.27491
0.3249
0.354
0.36855
0.34831
0.292
0.17052
0.090161
0.05473
0.10535
0.15913
0.33376
0.60202
0.73047
0.85131
0.46156
0.27997
-0.029421
-0.099019
-0.15786
-0.036381
-0.17368
-0.11927
-0.20911
-0.10535
-0.036381
0.066751
0.092692
0.10535
0.096488
0.11927
0.17874
0.2863
0.49067
0.59443
0.66213
0.60709
0.48434
0.36602
0.29453
0.30402
0.38754
0.48687
0.57039
0.63746
0.68301
0.64821
0.61278
0.44195
0.292
0.0851
-0.06422
-0.15407
-0.039544
0.33818
0.39956
0.37425
-0.05726
-0.5609
-0.88421
-0.82284
-0.54255
-0.15217
0.16988
0.36033
0.40905
0.10408
-0.068649
-0.25087
-0.2553
-0.19203
-0.052199
0.097121
0.39703
0.6982
0.77539
0.68681
0.33249
0.0028472
-0.21607
-0.31161
-0.21291
-0.00094907
0.26669
0.385
0.59317
0.74122
0.38121
-0.18127
-0.49953
-0.64252
-0.4603
-0.21227
0.2186
0.37235
0.65011
0.38627
0.24454
0.005378
-0.064853
-0.072445
-0.068649
0.024992
0.17748
0.39323
0.50079
0.54635
0.45017
0.31667
0.16292
0.035115
-0.03385
-0.012971
0.083834
0.19646
0.33312
0.40462
0.44385
0.40399
0.30339
0.17241
0.05726
0.030054
0.082569
0.20468
0.33059
0.42423
0.49826
0.50332
0.68175
0.60013
0.52104
-0.0066435
-0.48181
-0.84372
-0.87346
-0.60898
-0.35147
0.0028472
0.041443
-0.25783
-0.41474
-0.50649
-0.38121
-0.14394
0.070547
0.19835
0.27997
0.34198
0.39133
0.39703
0.37804
0.32553
0.30971
0.36033
0.44385
0.51091
0.54508
0.54318
0.56976
0.59696
0.54382
0.43942
0.18697
-0.071813
-0.22746
-0.23442
-0.096488
-0.021829
0.29769
0.40525
0.30908
-0.30085
-0.80512
-0.97153
-0.77096
-0.39639
0.11104
0.19899
0.50142
0.35906
0.20152
-0.074976
-0.31984
-0.34071
-0.25087
-0.053464
0.1914
0.44448
0.57672
0.68554
0.56786
0.41284
0.13888
-0.012338
-0.04777
0.11041
0.2553
0.37931
0.43815
0.49699
0.67099
0.68175
0.71085
0.52104
0.1199
-0.055362
-0.22619
-0.13761
0.005378
0.40209
0.48244
0.60456
0.46662
0.31414
0.18633
0.16545
0.21481
0.23758
0.20595
0.21797
0.27681
0.36476
0.50332
0.53369
0.4951
0.34578
0.11547
-0.0028472
-0.039544
0.047137
0.16798
0.24771
0.31161
0.40272
0.47105
0.48877
0.4565
0.35084
0.26859
0.26732
0.33629
0.44005
0.5242
0.60519
0.68364
0.75894
0.76526
0.72477
0.49953
0.19076
-0.10218
-0.3211
-0.35021
-0.23632
-0.0047453
0.19329
0.12053
-0.27934
-0.62354
-0.66213
-0.4565
-0.1199
0.1199
0.26289
0.37235
0.43942
0.48118
0.49699
0.49193
0.47865
0.46283
0.47105
0.49193
0.5223
0.56533
0.60392
0.66213
0.70642
0.66403
0.50459
0.17811
-0.17937
-0.43183
-0.51471
-0.40588
-0.042075
0.13888
0.26922
-0.12243
-0.51598
-0.68744
-0.59064
-0.30212
-0.0072762
0.23632
0.38817
0.4894
0.46093
0.44511
0.45903
0.48877
0.51787
0.51345
0.48814
0.49067
0.52357
0.58557
0.64821
0.71338
0.77475
0.80133
0.77222
0.56153
0.10788
-0.38943
-0.5299
-0.49383
-0.033217
-0.15407
-0.31984
-0.48181
-0.67668
-0.60962
-0.48687
-0.2553
-0.015501
0.17494
0.29516
0.3597
0.39576
0.42423
0.48054
0.53875
0.59506
0.60962
0.59949
0.58115
0.55394
0.53686
0.52673
0.53875
0.55457
0.57102
0.57798
0.58178
0.59
0.5919
0.59506
0.59253
0.58621
0.57672
0.5628
0.54255
0.4951
0.42866
0.33565
0.26542
0.25593
0.32933
0.39956
0.43499
0.36855
0.16292
-0.27997
-0.58115
-0.89497
-0.98608
-0.99557
-0.99747
-0.9981
-0.99747
-0.99051
-0.75324
-0.47991
-0.36413
-0.29579
-0.16229
-0.029421
0.072445
0.13192
0.16609
0.20785
0.26606
0.3268
0.39133
0.44005
0.48497
0.52357
0.53686
0.53622
0.54635
0.56976
0.58937
0.57355
0.49699
0.47928
0.4546
0.41158
0.27365
0.15533
0.01044
-0.073711
-0.33376
-0.55647
-0.67099
-0.60582
-0.39007
-0.14711
0.045872
0.18127
0.29263
0.39513
0.46852
0.51598
0.54888
0.58304
0.62101
0.65391
0.67732
0.69503
0.70642
0.71844
0.733
0.7659
0.78361
0.78741
0.71971
0.58874
0.2863
-0.046504
-0.2863
-0.39323
-0.34198
-0.0079089
0.080038
0.043341
-0.41537
-0.72161
-0.78994
-0.56469
-0.27365
-0.057893
0.088896
0.19266
0.26795
0.32869
0.33755
0.32553
0.29389
0.29959
0.33439
0.39513
0.38247
0.42803
0.46346
0.49067
0.40588
0.34008
0.29959
0.33439
0.41221
0.41348
0.42233
0.39576
0.40842
0.38311
0.27618
0.31477
0.24644
0.22113
-0.16292
-0.5976
-0.81968
-0.72667
-0.13951
-0.024992
-0.0079089
-0.099652
-0.2205
-0.37425
-0.38754
-0.28314
-0.084467
0.086998
0.23189
0.31857
0.39829
0.40272
0.29832
0.19266
0.118
0.17558
0.30402
0.40272
0.47991
0.59064
0.67542
0.72224
0.68618
0.48307
0.31224
0.11294
0.040177
0.04777
0.10408
0.21417
0.38311
0.47991
0.70263
0.56533
0.30592
-0.25467
-0.63746
-0.80323
-0.63366
-0.18633
0.01993
0.34135
0.32933
0.22556
0.078773
0.0034799
0.053464
0.24264
0.38627
0.44005
0.47295
0.51661
0.55204
0.57545
0.58557
0.60202
0.61911
0.64505
0.66719
0.68871
0.71275
0.73553
0.74628
0.71908
0.65074
0.56849
0.52357
0.61784
0.73426
0.79437
0.63493
0.43752
0.1566
-0.17621
-0.50902
-0.73426
-0.65644
-0.6963
-0.44638
-0.33882
-0.20025
-0.082569
-0.0079089
0.069915
0.14331
0.17178
0.17874
0.18317
0.21607
0.27934
0.3597
0.43372
0.49889
0.5609
0.63239
0.6925
0.74881
0.77982
0.79184
0.79247
0.78488
0.78488
0.76526
0.71022
0.48814
0.31477
0.031319
-0.20848
-0.42233
-0.5609
-0.32743
-0.17052
0.0072762
-0.096488
-0.36349
-0.48561
-0.43752
-0.22999
-0.033217
0.11674
0.20025
0.25087
0.28251
0.31288
0.34578
0.38374
0.43942
0.49826
0.56786
0.62164
0.65897
0.67605
0.68301
0.68744
0.69187
0.6982
0.69567
0.67985
0.64378
0.58178
0.52294
0.49193
0.4913
0.61848
0.63429
0.42107
0.05473
-0.33312
-0.47295
-0.56912
-0.70199
-0.90762
-0.95255
-0.88042
-0.75008
-0.55394
-0.36919
-0.20089
-0.050933
0.044606
0.14204
0.21417
0.30149
0.40082
0.46093
0.50079
0.41221
0.25593
0.12433
0.066118
0.056628
0.082569
0.024359
0.033217
0.1218
0.43625
0.64505
0.61974
0.34008
-0.062322
-0.25593
-0.27744
-0.092692
0.057893
0.34831
0.38247
0.528
0.49826
0.34325
0.31288
0.30402
0.37109
0.42613
0.3869
0.29389
0.12686
0.073078
0.035748
0.12559
0.28947
0.36855
0.34894
0.24518
0.15343
0.13382
0.16229
0.12876
0.10028
0.12116
0.20215
0.30402
0.36286
0.36223
0.34261
0.32173
0.30908
0.32047
0.35084
0.3945
0.43689
0.47485
0.50649
0.5299
0.55394
0.58811
0.62227
0.64885
0.66087
0.67289
0.6906
0.71465
0.7583
0.73236
0.53686
0.30781
0.012338
-0.19329
-0.34261
-0.46916
-0.53179
-0.25024
-0.12686
-0.055362
-0.29959
-0.60013
-0.68681
-0.53496
-0.26479
-0.082569
0.0079089
0.063587
0.14647
0.23758
0.31477
0.22177
0.13888
0.045872
0.072445
0.20152
0.25087
0.20531
0.012338
-0.059791
-0.022461
0.1237
0.19962
0.097121
-0.078773
-0.17684
-0.1838
-0.15407
0.21417
0.27808
0.5552
0.47865
0.1838
0.076242
0.0047453
0.11104
0.23822
0.3192
0.55457
0.7602
1
0.78171
0.74502
0.52167
0.37362
0.19393
-0.090161
-0.08763
-0.20531
0.10282
0.096488
0.18127
0.19962
0.13572
0.081936
0.05726
0.016134
0.10028
0.20089
0.30655
0.34261
0.36792
0.38058
0.3945
0.40335
0.40209
0.39513
0.39513
0.3945
0.40715
0.4255
0.4565
0.49193
0.52863
0.56406
0.58874
0.62607
0.60519
0.44068
0.23948
-0.035115
-0.24328
-0.34451
-0.39829
-0.42676
-0.34894
-0.12686
0.097121
0.079405
-0.22303
-0.53432
-0.63682
-0.49953
-0.27555
-0.13445
-0.023727
0.07118
0.1857
0.29516
0.36919
0.4274
0.47295
0.50269
0.50649
0.49067
0.45777
0.42803
0.39956
0.38121
0.37045
0.36729
0.36666
0.38627
0.4198
0.4622
0.51155
0.55141
0.58557
0.60266
0.60835
0.60266
0.59949
0.59633
0.60013
0.60456
0.59823
0.58494
0.5609
0.53432
0.50459
0.47358
0.44954
0.4198
0.39956
0.37615
0.36476
0.35717
0.35337
0.35463
0.34704
0.35084
0.34767
0.3521
0.36033
0.37488
0.38184
0.37298
0.34514
0.30655
0.26985
0.24328
0.22683
0.2205
0.2205
0.22113
0.21544
0.20342
0.19266
0.19266
0.20595
0.23505
0.27934
0.33755
0.41031
0.51281
0.54824
0.31098
-0.091427
-0.60898
-0.85954
-0.85195
-0.77982
-0.77159
-0.85701
-0.91648
-0.85891
-0.67226
-0.5299
-0.41158
-0.38247
-0.36223
-0.30465
-0.25024
-0.19646
-0.16609
-0.086998
-0.045872
0.053464
0.27238
0.39196
0.52357
0.2882
0.13508
0.067384
0.073711
0.20152
0.20848
0.32743
0.25277
0.32047
0.19582
-0.10661
-0.14964
-0.19329
-0.055995
-0.023727
0.12686
0.097754
0.30908
0.3192
0.20468
0.16672
0.13002
0.16356
0.16672
0.10218
0.073711
0.18886
0.20848
0.30275
0.2844
0.27301
0.27681
0.28377
0.31857
0.35463
0.37425
0.38311
0.3926
0.40019
0.40082
0.40399
0.39766
0.38564
0.37109
0.3559
0.33692
0.32426
0.30971
0.29706
0.27934
0.26669
0.25024
0.22936
0.23315
0.21797
0.20405
0.072445
-0.14774
-0.36919
-0.48181
-0.29832
-0.21607
-0.13255
-0.20342
-0.35906
-0.3249
-0.20468
-0.04777
0.097121
0.22493
0.3268
0.39133
0.44638
0.43625
0.35527
0.22366
0.11231
0.031952
0.02689
0.042708
0.088263
0.14394
0.20721
0.33186
0.3192
0.25403
-0.027523
-0.31351
-0.45777
-0.4546
-0.38374
-0.33818
-0.051566
0.16419
0.39892
0.33629
0.37298
0.29832
0.27555
0.23442
0.051566
-0.043973
-0.1199
-0.031319
0.073078
0.17874
0.28693
0.34135
0.3173
0.26416
0.17494
0.11357
0.14268
0.23315
0.31984
0.38564
0.44448
0.48244
0.50459
0.52863
0.55078
0.56976
0.5609
0.53053
0.50965
0.49067
0.49067
0.49446
0.49889
0.48814
0.47801
0.46409
0.44828
0.43689
0.41854
0.40462
0.3926
0.38943
0.37425
0.34451
0.32806
0.323
0.34514
0.35843
0.3249
0.26606
0.21354
0.20785
0.16862
0.0091743
-0.19519
-0.36982
-0.44321
-0.42929
-0.3173
-0.1914
-0.118
-0.1509
-0.39007
-0.49003
-0.47358
-0.30339
-0.13319
0.0028472
0.045872
0.043341
0.028156
-0.024992
-0.074344
-0.095223
-0.058526
0.036381
0.12876
0.19582
0.22113
0.17811
0.077507
0.022461
0.056628
0.17811
0.28567
0.38437
0.44385
0.50079
0.50332
0.43119
0.2496
0.14837
0.14837
0.12812
0.24328
0.27365
0.50585
0.56596
0.72224
0.68238
0.30528
0.049668
-0.11484
-0.099652
-0.01993
-0.0060108
0.13761
0.26352
0.44511
0.44954
0.15976
0.036381
-0.11863
-0.19835
-0.21481
-0.2243
0.025625
0.12812
0.31541
0.3888
0.41601
0.47422
0.52294
0.46789
0.27175
0.11484
-0.031319
-0.0047453
0.09459
0.2572
0.28504
0.3888
0.49826
0.50206
0.34831
0.10978
-0.081303
-0.093325
0.022461
0.15533
0.26922
0.36919
0.4565
0.53622
0.5919
0.6248
0.64948
0.6577
0.66403
0.66023
0.6577
0.65454
0.64695
0.63556
0.60456
0.55647
0.51218
0.49193
0.49003
0.48687
0.47801
0.3869
0.2591
0.086998
-0.13508
-0.33502
-0.43309
-0.34514
-0.28567
-0.15849
-0.07118
0.068016
-0.062322
-0.27744
-0.51281
-0.54571
-0.4217
-0.2534
-0.073078
0.055362
0.13382
0.18697
0.27555
0.34071
0.39323
0.41537
0.43942
0.46789
0.50332
0.52547
0.528
0.56216
0.5571
0.43562
0.27744
0.053464
-0.066751
-0.059158
0.052831
0.118
0.32047
0.41917
0.51851
0.2882
-0.064853
-0.41791
-0.4546
-0.3559
-0.23948
-0.074344
0.045239
0.16672
0.26036
0.32933
0.38184
0.39766
0.41158
0.40588
0.41031
0.41664
0.4274
0.43183
0.43372
0.43183
0.41917
0.40082
0.36792
0.33818
0.31667
0.27175
0.20468
0.06422
-0.042708
-0.080038
-0.066751
-0.12686
-0.13761
0.0066435
0.22936
0.27238
0.080038
-0.19899
-0.26732
-0.14331
0.028788
0.14141
0.21734
0.27871
0.31161
0.35084
0.36413
0.35906
0.33376
0.30971
0.292
0.2863
0.28187
0.2901
0.29832
0.30528
0.30528
0.31604
0.32426
0.32933
0.33122
0.33755
0.36159
0.32173
0.22746
0.069915
-0.0034799
0.069915
0.22303
0.38564
0.34957
0.30592
0.26416
0.13698
-0.20278
-0.55394
-0.6577
-0.34767
-0.12559
0.080038
0.12496
0.12623
0.14457
0.17748
0.2167
0.27997
0.32237
0.34514
0.34388
0.33249
0.33818
0.34704
0.3945
0.44258
0.48244
0.51471
0.55267
0.57672
0.60013
0.58811
0.47105
0.30718
0.068016
-0.086998
-0.15913
-0.12559
-0.088896
-0.046504
0.17811
0.31288
0.29136
-0.012338
-0.33312
-0.49003
-0.41221
-0.24707
-0.097121
0.028156
0.11547
0.18507
0.23885
0.32869
0.40272
0.46852
0.52294
0.53686
0.47232
0.35717
0.20721
0.13129
0.16798
0.30085
0.57419
0.78931
0.92534
0.81841
0.60772
0.36602
0.10724
-0.083202
-0.15027
-0.14141
0.098387
0.32933
0.45144
0.37931
0.018032
-0.2553
-0.4198
-0.37172
-0.23252
-0.14964
0.11357
0.17811
0.33122
0.26922
0.17115
0.14964
0.1509
0.28061
0.40968
0.46346
0.47422
0.47232
0.46662
0.45966
0.45524
0.47169
0.51028
0.56659
0.6286
0.67922
0.6963
0.65327
0.56343
0.45081
0.40652
0.50459
0.57482
0.51724
0.24328
-0.0028472
-0.095223
-0.054097
-0.14015
-0.23695
-0.25593
-0.23126
-0.22113
-0.34578
-0.36033
-0.32743
-0.22809
-0.11167
-0.027523
0.03385
0.11041
0.17178
0.21291
0.23822
0.28883
0.34704
0.3907
0.41917
0.43309
0.44385
0.44764
0.45777
0.45524
0.44448
0.40905
0.34451
0.29389
0.292
0.43119
0.52167
0.50269
0.28251
-0.00031636
-0.16735
-0.17748
-0.086365
0.049035
0.1857
0.37931
0.27491
0.081303
-0.15407
-0.27175
-0.23505
-0.14331
-0.034483
0.046504
0.11547
0.20785
0.30339
0.38247
0.43879
0.46662
0.48371
0.49953
0.51218
0.51851
0.5261
0.53369
0.53939
0.54002
0.52863
0.50459
0.47295
0.45334
0.4274
0.34704
0.20785
-0.030686
-0.34071
-0.58937
-0.59633
-0.21987
0.12939
0.49193
0.63872
0.51155
0.17558
-0.30339
-0.67542
-0.71212
-0.42929
-0.20089
0.059158
0.2167
0.24897
0.20531
0.14204
0.11863
0.14078
0.16482
0.17874
0.18886
0.21164
0.24834
0.27491
0.2863
0.26922
0.26099
0.28947
0.34767
0.40335
0.41537
0.36476
0.29516
0.2205
0.18886
0.17937
0.21038
0.27175
0.34957
0.38184
0.38627
0.39133
0.4236
0.53875
0.61405
0.54888
0.32173
-0.040177
-0.35147
-0.51155
-0.5571
-0.5204
-0.43119
-0.29136
-0.14394
-0.0174
0.062955
0.11484
0.16356
0.20531
0.24707
0.28504
0.32047
0.3578
0.39133
0.42297
0.44954
0.46726
0.48307
0.49193
0.50206
0.50522
0.50775
0.50649
0.50585
0.49383
0.47548
0.41031
0.25783
-0.0041126
-0.36982
-0.60898
-0.60456
-0.2186
0.042075
0.26226
0.37994
0.33882
0.018665
-0.32363
-0.70199
-0.67668
-0.46789
-0.16292
0.069915
0.24707
0.28187
0.1857
0.059158
-0.043973
-0.066751
-0.024992
0.068016
0.15976
0.23442
0.29389
0.34957
0.40272
0.45081
0.49636
0.53179
0.55647
0.53243
0.45587
0.28377
0.13192
0.022461
0.080671
0.28947
0.51661
0.76526
0.88485
0.79057
0.54761
0.29832
0.029421
-0.061057
-0.13761
-0.10408
-0.021196
-0.015501
-0.053464
-0.16988
-0.20405
-0.1199
0.020563
0.149
0.22366
0.25783
0.27428
0.28251
0.27491
0.25656
0.24011
0.23568
0.2534
0.27618
0.30465
0.32616
0.34514
0.35717
0.36729
0.37741
0.38627
0.39576
0.40019
0.40905
0.41664
0.42866
0.43689
0.44321
0.44701
0.44828
0.45017
0.44954
0.45144
0.4527
0.45397
0.45397
0.44764
0.45017
0.44828
0.3869
0.2844
0.19582
0.17811
0.27997
0.37804
0.36033
0.26732
0.23948
0.11547
-0.055995
-0.2534
-0.45966
-0.42993
-0.33692
-0.23568
-0.12686
-0.05726
0.013603
0.086998
0.15343
0.19709
0.22619
0.23568
0.23505
0.22556
0.21227
0.20595
0.1819
0.13888
0.074976
-0.014869
-0.067384
-0.11737
-0.12116
-0.02689
0.050933
0.1218
0.14774
0.093325
-0.01993
-0.066118
0.01993
0.16292
0.30275
0.16862
0.098387
0.005378
0.014869
0.068649
0.12812
0.14964
0.10471
0.09459
0.15723
0.28061
0.43309
0.60962
0.76337
0.86713
0.85005
0.74059
0.52357
0.28251
0.12939
0.10471
0.23505
0.42233
0.57229
0.66719
0.74185
0.64821
0.4527
0.053464
-0.31794
-0.50395
-0.51281
-0.3578
-0.13508
0.44448
0.63999
0.87093
0.50079
0.090161
-0.34198
-0.46283
-0.37994
-0.22113
0.33186
0.52104
0.77918
0.63682
0.38437
0.14584
-0.020563
-0.036381
0.038279
0.12939
0.27175
0.47485
0.61974
0.65834
0.49067
0.30149
0.12496
-0.037014
-0.068649
0.009807
0.15976
0.39386
0.56912
0.70199
0.6963
0.5204
0.26606
0.0022145
-0.1895
-0.26416
-0.21354
-0.083834
0.17431
0.36729
0.50585
0.52673
0.38184
0.17684
-0.039544
-0.22366
-0.32616
-0.27681
-0.14521
0.14584
0.35653
0.4913
0.60519
0.53559
0.47295
0.030686
-0.34135
-0.5976
-0.59
-0.47422
-0.043973
0.22873
0.61468
0.64062
0.42803
0.15976
-0.099652
-0.2186
-0.17748
-0.070547
0.090161
0.33882
0.49826
0.63113
0.64442
0.48434
0.28883
0.073078
-0.047137
-0.07118
-0.014236
0.081303
0.25656
0.354
0.36602
0.35084
0.22177
0.070547
-0.10282
-0.14584
-0.10535
-0.0085416
0.080671
0.19709
0.45081
0.61848
0.72857
0.68428
0.50902
0.24454
-0.11484
-0.34451
-0.45334
-0.34388
-0.041443
0.20911
0.36982
0.52104
0.5261
0.48054
0.032585
-0.40019
-0.7602
-0.74755
-0.56406
-0.068016
0.19456
0.62417
0.68048
0.46156
0.20468
-0.011705
-0.077507
-0.011705
0.11167
0.20974
0.26226
0.40209
0.48624
0.62607
0.62101
0.4932
0.30149
0.073711
-0.13698
-0.23505
-0.22619
-0.13572
0.041443
0.20342
0.36223
0.39007
0.28314
0.16988
0.00094907
-0.15723
-0.24518
-0.21227
-0.093325
0.10598
0.33122
0.53116
0.61721
0.58431
0.4913
0.31351
-0.059791
-0.38184
-0.50206
-0.45903
-0.26099
-0.17115
0.37804
0.62164
0.7583
0.51471
0.013603
-0.42929
-0.60013
-0.57292
-0.38564
-0.10598
0.27175
0.46789
0.52104
0.50332
0.38058
0.25087
0.15217
0.16419
0.26542
0.39196
0.46726
0.48814
0.52104
0.55837
0.60582
0.62733
0.61911
0.58368
0.53432
0.4894
0.45144
0.43183
0.42487
0.4274
0.44195
0.46536
0.4932
0.50269
0.49699
0.48244
0.48244
0.51408
0.61784
0.77665
0.85005
0.74122
0.40715
0.093325
-0.14015
-0.26289
-0.35527
-0.48181
-0.42866
-0.17052
0.16102
0.30655
0.12243
-0.2534
-0.51977
-0.51977
-0.40652
-0.23252
-0.088896
0.018665
0.075609
0.12433
0.17748
0.22999
0.27428
0.31288
0.34071
0.36096
0.385
0.41095
0.43436
0.4527
0.46599
0.48118
0.4913
0.4951
0.49003
0.4932
0.51028
0.53496
0.54002
0.48307
0.40019
0.29832
0.2243
0.2224
0.22873
0.19899
0.16356
0.07118
0.071813
0.057893
-0.14394
-0.38437
-0.65391
-0.63556
-0.48497
-0.27301
-0.054097
0.10661
0.26099
0.38247
0.48687
0.49573
0.41158
0.30592
0.20785
0.17937
0.17748
0.19456
0.2205
0.23379
0.23948
0.22873
0.1528
0.10598
-0.026258
-0.13508
-0.13888
-0.096488
0.023094
0.14078
0.2243
0.29453
0.33186
0.30655
0.23568
0.10282
-0.028156
-0.075609
-0.04081
0.080038
0.24707
0.36982
0.4217
0.47422
0.55204
0.39386
0.00031636
-0.37045
-0.59633
-0.46979
-0.28504
-0.068016
0.10788
0.21797
0.21481
0.15723
0.053464
-0.041443
-0.034483
0.035748
0.16419
0.29326
0.43499
0.58557
0.65897
0.64948
0.57355
0.37551
0.149
0.035748
0.031952
0.19519
0.37678
0.47358
0.50965
0.48181
0.47295
0.41031
0.24518
-0.12749
-0.37931
-0.50902
-0.40335
-0.21544
-0.10028
0.10851
0.42107
0.26606
-0.043973
-0.31667
-0.38564
-0.21164
-0.011705
0.21227
0.3578
0.58747
0.70199
0.74818
0.63366
0.47612
0.22493
0.0072762
-0.080038
0.0174
0.27301
0.5552
0.70199
0.72097
0.6229
0.46979
0.30212
0.10851
-0.01993
-0.068016
0.0041126
0.11294
0.26099
0.36223
0.37931
0.32047
0.29769
0.18444
0.15786
0.11231
0.11547
0.15217
0.2186
0.31604
0.41411
0.48434
0.53369
0.54698
0.5242
0.43246
0.25973
0.1547
0.099019
0.16482
0.31794
0.4932
0.67289
0.73363
0.63303
0.4236
0.16925
-0.023094
-0.19772
-0.42297
-0.51787
-0.5223
-0.42929
-0.20152
-0.035115
0.13255
0.13065
-0.21923
-0.50649
-0.70642
-0.68428
-0.56596
-0.41537
-0.1509
0.073711
0.21481
0.24581
0.24454
0.23505
0.23758
0.20658
0.14394
0.052831
0.013603
0.084467
0.24644
0.45966
0.61594
0.73553
0.72983
0.56723
0.29453
0.055995
0.03385
0.10028
0.24011
0.21734
0.23568
0.35527
0.46979
0.52167
0.4236
0.30528
0.2205
0.24328
0.32996
0.42866
0.50142
0.53559
0.54192
0.53812
0.54382
0.55647
0.57419
0.58304
0.58811
0.58304
0.57798
0.57229
0.57545
0.58368
0.5919
0.60013
0.60013
0.59949
0.5976
0.58747
0.55078
0.4603
0.32363
0.19835
0.16988
0.36539
0.50269
0.51851
0.27618
0.0047453
-0.1819
-0.42233
-0.528
-0.74249
-0.74185
-0.67415
-0.62101
-0.53749
-0.4951
-0.44891
-0.39196
-0.31667
-0.21734
-0.083202
0.039544
0.18254
0.36033
0.48624
0.58874
0.59064
0.46536
0.19582
-0.089529
-0.26099
-0.25087
-0.042708
0.13192
0.31034
0.37298
0.37931
0.33439
0.20215
0.018032
-0.22177
-0.30908
-0.26352
-0.093958
0.059791
0.081936
0.28504
0.40209
0.56469
0.47105
0.27997
0.17368
0.096488
0.040177
-0.2205
-0.30528
-0.30402
-0.14015
0.082569
0.1895
0.24518
0.25087
0.22619
0.14457
0.057893
0.054097
0.10914
0.17558
0.19899
0.20405
0.21101
0.23252
0.25846
0.28314
0.32616
0.37741
0.43815
0.50269
0.54128
0.58494
0.54382
0.39766
0.15849
-0.030054
-0.118
0.0091743
0.13002
0.22303
0.19709
0.14647
0.079405
0.024359
-0.058526
-0.3211
-0.41284
-0.52736
-0.43562
-0.34261
-0.24771
-0.047137
0.1142
0.24138
0.022461
-0.36919
-0.66972
-0.74312
-0.51408
-0.2224
0.15849
0.43942
0.54255
0.48814
0.36602
0.30339
0.31541
0.35274
0.37172
0.3888
0.40715
0.40019
0.43056
0.45966
0.51851
0.56849
0.60519
0.62227
0.62543
0.59064
0.53116
0.46852
0.45144
0.49573
0.60392
0.62164
0.53812
0.40399
0.31667
0.27491
0.14078
-0.088896
-0.28251
-0.33945
-0.22809
-0.1547
0.0174
0.17874
0.2863
0.10155
-0.17874
-0.58747
-0.7621
-0.73489
-0.64189
-0.17874
0.24391
0.74249
0.80449
0.62417
0.24897
-0.10978
-0.30465
-0.32553
-0.079405
0.28567
0.51787
0.66213
0.6653
0.5628
0.39133
0.19329
0.12559
0.17052
0.29453
0.40715
0.47865
0.54192
0.5919
0.62543
0.64505
0.65644
0.63682
0.59253
0.528
0.5299
0.57419
0.66213
0.74312
0.80386
0.84182
0.85574
0.87029
0.83486
0.71908
0.42423
0.16862
-0.043973
-0.073078
0.031319
0.12749
0.15723
0.11167
0.071813
0.030054
-0.054097
-0.32173
-0.51408
-0.66213
-0.61152
-0.47105
-0.26669
-0.020563
0.28504
0.52167
0.72857
0.82158
0.84372
0.75894
0.59696
0.3173
0.055362
-0.055362
0.005378
0.32933
0.59064
0.733
0.72414
0.57988
0.37678
0.14394
0.0047453
-0.066751
0.0079089
0.13698
0.3521
0.49193
0.59
0.53559
0.43752
0.31224
0.13888
0.066118
-0.075609
-0.11294
-0.076874
0.058526
0.27491
0.29769
0.42613
0.43183
0.62543
0.37804
0.076874
-0.32616
-0.5204
-0.45207
-0.3249
-0.069915
0.23252
0.55394
0.51028
0.36602
-0.15153
-0.46599
-0.5552
-0.46156
-0.065486
0.11484
0.31604
0.44005
0.47991
0.47675
0.36159
0.19519
0.16102
0.20658
0.33186
0.41791
0.46156
0.48561
0.50332
0.51091
0.51091
0.50649
0.49699
0.48497
0.47738
0.47042
0.46662
0.46726
0.47485
0.48814
0.49067
0.45713
0.38754
0.30592
0.26416
0.37741
0.54635
0.58874
0.46473
0.23442
0.073078
-0.042708
-0.1895
-0.45713
-0.54002
-0.51534
-0.32553
-0.075609
0.11927
0.24011
0.052199
-0.19203
-0.40842
-0.44258
-0.32237
-0.16356
0.078773
0.36096
0.60645
0.74185
0.70832
0.50522
0.1161
-0.20089
-0.37172
-0.28693
0.021196
0.1895
0.3211
0.33376
0.2572
0.11863
-0.059791
-0.17874
-0.24454
-0.354
-0.43436
-0.47612
-0.39386
-0.18823
-0.15153
0.09459
0.25277
0.58621
0.60456
0.31351
-0.25277
-0.63493
-0.79247
-0.64252
-0.29769
0.15533
0.44511
0.40272
0.30402
0.2205
0.1547
0.051566
0.0174
0.052199
0.14647
0.25593
0.35021
0.42044
0.46916
0.4913
0.47232
0.42487
0.32869
0.20405
0.19835
0.27428
0.43625
0.60139
0.73553
0.81398
0.85637
0.8317
0.74122
0.59633
0.25593
0.013603
-0.097754
0.0085416
0.28504
0.41221
0.51155
0.49573
0.47612
0.45207
0.28251
0.034483
-0.21923
-0.37235
-0.34831
-0.20089
-0.13635
0.0047453
0.22999
0.44448
0.47612
0.35653
0.026258
-0.32553
-0.47675
-0.47358
-0.21987
0.10345
0.50269
0.70769
0.84245
0.77855
0.67732
0.54318
0.35337
0.15849
0.10155
0.15343
0.26669
0.37931
0.50332
0.62101
0.73363
0.7659
0.71465
0.54761
0.31224
0.16735
0.10788
0.14268
0.21607
0.26226
0.32743
0.37425
0.40905
0.4236
0.43752
0.40209
0.35337
0.28124
0.25024
0.24771
0.27555
0.3173
0.37362
0.4603
0.56596
0.62101
0.64631
0.6906
0.5552
0.42423
0.19329
-0.1876
-0.31098
-0.36919
-0.21291
-0.10282
-0.066118
-0.016767
0.15913
0.18064
0.092059
-0.06422
-0.092692
-0.005378
0.10598
0.21417
0.31351
0.39829
0.4951
0.52926
0.55394
0.55837
0.56723
0.55773
0.53369
0.51471
0.49446
0.46283
0.41095
0.3211
0.21291
0.13445
0.11674
0.19203
0.23948
0.21101
0.12812
0.016767
-0.069915
-0.17115
-0.37804
-0.56596
-0.68428
-0.67922
-0.52167
-0.41284
-0.20405
-0.048402
0.038279
-0.22177
-0.53369
-0.94622
-0.99747
-0.99557
-0.97596
-0.60772
-0.16482
0.2572
0.33249
0.16229
-0.17241
-0.56912
-0.80576
-0.82854
-0.65201
-0.29579
-0.067384
0.12496
0.14457
0.082569
-0.021829
-0.12623
-0.23062
-0.19899
-0.056628
0.11357
0.26542
0.37741
0.46979
0.51598
0.51534
0.49699
0.50079
0.50649
0.5242
0.54065
0.55394
0.57292
0.5938
0.61405
0.62797
0.64062
0.65201
0.6596
0.66656
0.67162
0.67479
0.67605
0.68048
0.68364
0.68238
0.68681
0.68871
0.68871
0.66593
0.62607
0.58051
0.54508
0.5299
0.53306
0.54635
0.56153
0.56659
0.56343
0.56469
0.57039
0.58368
0.57608
0.52357
0.4198
0.24328
0.072445
0.073711
0.12433
0.18127
0.13129
0.018032
-0.068016
-0.29453
-0.42107
-0.55963
-0.50016
-0.37804
-0.20721
-0.04777
0.11484
0.27112
0.40019
0.48054
0.50079
0.49067
0.49573
0.5204
0.56153
0.62164
0.68491
0.75641
0.78298
0.79943
0.75451
0.62986
0.24011
-0.028156
-0.2186
-0.16735
0.0028472
0.10724
0.12939
0.12812
0.11294
0.11927
-0.052199
-0.26289
-0.43436
-0.47612
-0.37235
-0.30212
-0.28567
-0.22683
-0.0079089
0.18444
0.38437
0.50016
0.44575
0.20089
-0.1566
-0.33186
-0.23189
-0.012971
0.21101
0.35021
0.42803
0.52167
0.36159
0.048402
-0.21544
-0.42803
-0.39196
-0.3869
-0.27808
0.089529
0.50206
0.77918
0.77159
0.41917
0.085732
-0.15407
-0.10408
0.0085416
0.149
0.35147
0.49383
0.67479
0.63176
0.50649
0.22366
0.0060108
-0.17368
-0.24138
-0.062322
0.043973
0.34135
0.5223
0.73047
0.78867
0.64885
0.4198
0.086365
-0.16356
-0.26163
-0.14521
0.14774
0.4622
0.61594
0.63619
0.59823
0.4546
0.28314
0.014236
-0.16988
-0.20848
-0.097754
0.052199
0.24138
0.31351
0.39703
0.42044
0.41854
0.38437
0.23062
0.14204
0.118
0.19646
0.31098
0.43689
0.58557
0.68491
0.74755
0.69314
0.58811
0.40209
0.13255
0.013603
-0.038912
0.088263
0.29959
0.4546
0.57925
0.53749
0.43562
0.2515
0.014869
-0.22683
-0.34641
-0.26922
-0.044606
0.2224
0.40082
0.54192
0.49763
0.43119
0.3192
0.20531
0.011705
-0.074976
-0.078773
0.0015818
0.093958
0.22873
0.38627
0.47422
0.4951
0.42866
0.38184
0.32996
0.21987
0.095223
-0.23442
-0.42929
-0.47232
-0.26099
-0.074976
-0.020563
0.057893
0.12433
0.15533
-0.2186
-0.60202
-0.72604
-0.48371
-0.1218
0.18001
0.3173
0.45777
0.48877
0.45966
0.37362
0.23126
0.16609
0.14457
0.18064
0.22113
0.23315
0.26099
0.28377
0.28693
0.27618
0.26542
0.27112
0.26795
0.22366
0.17178
0.14837
0.19393
0.33755
0.38754
0.29263
0.15976
0.068016
0.037646
-0.064853
-0.29326
-0.47738
-0.55267
-0.4932
-0.28061
-0.14204
0.10028
0.2496
0.23315
-0.011705
-0.34135
-0.54888
-0.56406
-0.54192
-0.43815
-0.053464
0.40905
0.72857
0.68175
0.44575
0.149
-0.009807
-0.033217
0.033217
0.20531
0.30908
0.57355
0.68301
0.86587
0.85321
0.7292
0.55394
0.38437
0.20974
0.20911
0.28757
0.41917
0.51534
0.56786
0.60962
0.64948
0.63176
0.61405
0.57545
0.54128
0.4584
0.33376
0.1161
0.020563
0.046504
0.25973
0.56406
0.7969
0.9323
0.90256
0.73742
0.47801
-0.0041126
-0.34514
-0.55773
-0.48118
-0.11547
0.062955
0.1547
0.15596
0.13065
0.12939
-0.11167
-0.37994
-0.65644
-0.65264
-0.50206
-0.42676
-0.16672
0.14268
0.58494
0.64505
0.53559
0.33186
0.18697
0.046504
-0.14774
-0.16292
-0.089529
0.090794
0.40652
0.64442
0.75641
0.74945
0.61784
0.46979
0.31098
0.31541
0.39513
0.5204
0.58494
0.60139
0.61784
0.63303
0.63935
0.6305
0.61848
0.60202
0.58937
0.57861
0.56659
0.5552
0.54255
0.52736
0.50649
0.48561
0.46852
0.45587
0.44701
0.43562
0.42423
0.41095
0.40019
0.40209
0.40778
0.41158
0.41537
0.41664
0.41474
0.41727
0.41917
0.40652
0.37994
0.31667
0.26859
0.28693
0.41854
0.55204
0.61658
0.49003
0.13192
-0.41791
-0.85701
-0.99241
-0.99367
-0.95571
-0.81715
-0.61468
-0.43562
-0.29389
-0.14584
-0.049035
0.036381
0.092692
0.14457
0.19013
0.23442
0.28504
0.33565
0.39133
0.41284
0.37551
0.29389
0.21797
0.20152
0.33502
0.47358
0.46473
0.36729
0.16735
-0.0028472
-0.19456
-0.43183
-0.58747
-0.57861
-0.41411
-0.33376
-0.11294
0.0015818
0.11674
-0.13192
-0.31857
-0.55331
-0.56912
-0.46536
-0.45207
-0.024992
0.29326
0.62543
0.63176
0.43625
0.14774
-0.083202
-0.14331
-0.11104
0.088263
0.34198
0.53875
0.68681
0.72793
0.65074
0.5223
0.37678
0.22556
0.24518
0.32553
0.44258
0.51091
0.56343
0.62797
0.67605
0.68997
0.6596
0.61215
0.55204
0.48244
0.40082
0.33312
0.22873
0.21987
0.22303
0.26289
0.29832
0.2863
0.23189
0.18444
0.14774
0.29832
0.385
0.30212
0.083202
-0.12686
-0.20721
-0.18127
-0.20025
-0.30908
-0.44638
-0.53053
-0.57482
-0.43815
-0.25087
0.0060108
0.16419
0.13635
0.049668
0.014869
0.07814
0.24644
0.39323
0.48877
0.55394
0.62227
0.65327
0.67795
0.68744
0.67732
0.65327
0.59823
0.53812
0.51851
0.57735
0.72097
0.85827
0.94369
0.96836
0.86397
0.57102
0.11357
-0.25783
-0.46409
-0.34578
-0.21417
-0.083834
0.032585
0.10345
0.11104
-0.10345
-0.3597
-0.60519
-0.52736
-0.30022
-0.14078
0.23315
0.47232
0.69124
0.76463
0.59949
0.36159
0.12623
-0.1218
-0.1857
-0.08763
0.25656
0.47295
0.60772
0.65517
0.52736
0.39639
0.25277
0.16482
0.19393
0.26922
0.34704
0.38817
0.41917
0.44954
0.45397
0.44005
0.40272
0.36855
0.34008
0.3211
0.30908
0.30275
0.29832
0.2863
0.27997
0.27491
0.27365
0.26352
0.25593
0.24834
0.23885
0.23379
0.22619
0.2205
0.21987
0.2243
0.23632
0.25403
0.26985
0.27428
0.26226
0.22177
0.14204
0.035115
-0.050933
-0.021829
0.11167
0.27491
0.32869
0.25783
0.0072762
-0.31477
-0.60202
-0.88801
-0.84941
-0.78678
-0.57229
-0.44764
-0.20089
-0.13065
-0.11547
-0.18317
-0.21544
-0.12243
0.00094907
0.1509
0.47105
0.63809
0.74438
0.67985
0.52673
0.34325
0.12686
-0.030054
-0.030054
0.10661
0.34704
0.6305
0.87409
0.98481
0.96773
0.79817
0.5261
0.20974
0.028156
0.0060108
0.17052
0.45144
0.71908
0.87599
0.87599
0.70136
0.49383
0.20405
-0.065486
-0.25214
-0.46789
-0.39576
-0.30908
-0.15217
-0.09459
0.014869
0.024992
0.14647
-0.013603
-0.15596
-0.25783
-0.14647
0.044606
0.12686
0.21923
0.24264
0.27238
0.292
0.29896
0.22936
0.042708
-0.059791
-0.060424
0.0851
0.28377
0.43436
0.50585
0.5204
0.4198
0.34071
0.1914
-0.039544
-0.15343
-0.17052
-0.019298
0.22113
0.40272
0.46599
0.45017
0.37804
0.31541
0.20405
-0.047137
-0.20531
-0.22366
-0.086365
0.080038
0.17115
0.23442
0.26163
0.33186
0.38374
0.42866
0.36476
0.21164
0.14774
-0.10155
-0.23758
-0.32237
-0.13445
0.23568
0.52547
0.65581
0.71275
0.67668
0.49953
0.12623
-0.14774
-0.27997
-0.19203
0.023094
0.16229
0.30908
0.29959
0.33186
0.27681
0.13951
-0.076874
-0.2167
-0.24075
-0.16419
-0.053464
0.13951
0.35147
0.4951
0.43183
0.36159
0.25087
0.07814
-0.1819
-0.35084
-0.37235
-0.23126
-0.0015818
0.28567
0.44701
0.5957
0.57482
0.49067
0.33376
0.09459
-0.17621
-0.27997
-0.24454
-0.14394
-0.023727
0.069282
0.12686
-0.00094907
-0.023094
-0.058526
0.02689
-0.24707
-0.36476
-0.40715
-0.13065
0.17494
0.31414
0.46726
0.44258
0.4622
0.39323
0.3597
0.29136
0.23189
0.13129
0.11863
0.24264
0.36033
0.44321
0.48624
0.50016
0.5571
0.60266
0.73426
0.78678
0.77033
0.58178
0.26352
0.023727
-0.10218
-0.057893
0.028156
0.15027
0.25783
0.31984
0.32933
0.28187
0.18444
0.1161
0.077507
0.099019
0.13002
0.13888
0.13508
0.17368
0.24644
0.35084
0.36413
0.40209
0.44764
0.60519
0.72351
0.70263
0.40778
0.083202
-0.26099
-0.42423
-0.45966
-0.55457
-0.4951
-0.14204
0.22303
0.67479
0.54002
0.20848
-0.27491
-0.58051
-0.61974
-0.54951
-0.31667
-0.19962
0.045239
0.1218
0.20405
0.14647
0.084467
0.046504
0.086998
0.19519
0.292
0.33502
0.33755
0.34198
0.35717
0.4236
0.49067
0.5571
0.61215
0.64252
0.59
0.43499
0.092059
-0.13129
-0.21101
-0.09459
0.17241
0.38564
0.48687
0.49003
0.39766
0.28124
0.16039
0.086998
0.05726
0.10028
0.12939
0.13572
0.18823
0.29073
0.34451
0.43056
0.45207
0.54128
0.65707
0.54002
0.24834
-0.01044
-0.20531
-0.1566
-0.1199
-0.1218
0.095856
0.36855
0.68681
0.88232
0.67289
0.21734
-0.30845
-0.58178
-0.54888
-0.43119
-0.28567
-0.095856
0.091427
0.27301
0.38437
0.36729
0.25024
0.035115
-0.088896
-0.099019
-0.021196
0.063587
0.12306
0.20278
0.35527
0.47928
0.59064
0.65201
0.6615
0.59443
0.43183
0.10598
-0.1142
-0.18507
-0.07118
0.13382
0.29389
0.42297
0.41031
0.31541
0.23442
0.13888
0.098387
0.070547
0.016767
-0.057893
-0.099652
-0.088896
0.031952
0.14141
0.34514
0.45017
0.53875
0.4527
0.28757
0.055995
-0.050933
0.020563
0.27555
0.62037
0.85827
0.88295
0.8956
0.85827
0.80955
0.69693
0.38311
0.14078
-0.011072
0.036381
0.23252
0.48624
0.69124
0.78108
0.75767
0.68807
0.57672
0.34957
0.01993
-0.23822
-0.33249
-0.2515
-0.014869
-0.25593
