-0.33942
-0.60645
-0.71898
-0.6472
-0.43796
-0.19708
-0.010949
0.1247
0.20742
0.24696
0.27007
0.31144
0.36679
0.42336
0.44343
0.43248
0.39477
0.35949
0.33394
0.33577
0.34672
0.368
0.38625
0.40024
0.41058
0.41545
0.39416
0.2938
0.21594
0.14659
0.15876
0.2062
0.26764
0.33637
0.36679
0.35523
0.18431
-0.079075
-0.32847
-0.53224
-0.62895
-0.618
-0.50426
-0.24696
0.030414
0.25547
0.39599
0.45438
0.41667
0.35462
0.32117
0.36253
0.45195
0.5444
0.54988
0.52859
0.46959
0.34063
0.06326
-0.1983
-0.40146
-0.37956
-0.24513
-0.051703
0.0882
0.14051
0.086375
-0.02129
-0.15693
-0.2719
-0.35036
-0.31752
-0.16545
0.051095
0.25122
0.42092
0.42092
0.47202
0.46776
0.39416
0.26399
0.14781
0.076034
0.096107
0.21046
0.35462
0.49818
0.58394
0.59854
0.50243
0.31569
0.024939
-0.33273
-0.68613
-0.92457
-0.93309
-0.72749
-0.41484
-0.10036
0.118
0.22567
0.24027
0.21168
0.17275
0.15511
0.19404
0.26156
0.33394
0.38017
0.4045
0.40876
0.41241
0.39234
0.33212
0.26825
0.24209
0.26946
0.34732
0.41788
0.45681
0.4708
0.42153
0.3382
0.21594
0.10036
0.028589
-0.049878
-0.16302
-0.32482
-0.40633
-0.34185
-0.14477
0.040754
0.16849
0.22871
0.20499
0.12165
0.065085
0.11618
0.28102
0.44647
0.54805
0.55596
0.50365
0.42092
0.32725
0.19221
0.093066
0.069343
0.15572
0.32968
0.45073
0.5146
0.56083
0.54258
0.44769
0.14842
-0.37409
-0.89051
-0.99757
-0.91849
-0.49148
-0.079684
0.20438
0.35462
0.42397
0.37895
0.25
0.086983
-0.01764
-0.026156
0.095499
0.26946
0.42275
0.53102
0.57543
0.56995
0.51825
0.42701
0.30596
0.1545
0.049878
0.034063
0.1326
0.22932
0.34246
0.37835
0.43917
0.49453
0.50608
0.36253
-0.010341
-0.49453
-0.87956
-0.97202
-0.79745
-0.44526
-0.06691
0.21107
0.41423
0.46776
0.40389
0.29075
0.2062
0.191
0.27251
0.36922
0.48297
0.54197
0.54745
0.50426
0.39477
0.29562
0.22445
0.2281
0.30657
0.37348
0.44708
0.43917
0.41788
0.34915
0.23479
0.10827
-0.04927
-0.18613
-0.32847
-0.46411
-0.59672
-0.58637
-0.45499
-0.24513
-0.054745
0.059002
0.11618
0.10523
0.069343
0.10219
0.20864
0.37287
0.50365
0.56752
0.57299
0.55292
0.51886
0.49148
0.46898
0.44586
0.41788
0.39903
0.37591
0.34672
0.26703
0.16788
0.077859
0.053528
0.068127
0.094891
0.090633
0.076034
0.045012
0.05292
0.11436
0.16971
0.18613
-0.0012165
-0.34063
-0.55292
-0.63504
-0.46594
-0.22567
0.015207
0.22628
0.41849
0.53163
0.54501
0.45195
0.1691
-0.038321
-0.16849
-0.1028
0.097324
0.28954
0.43674
0.5073
0.49878
0.38382
0.041971
-0.38078
-0.78224
-0.88625
-0.68735
-0.33151
-0.018856
0.22324
0.37774
0.41971
0.34185
0.17457
0.026156
-0.02129
0.046837
0.18735
0.30596
0.36375
0.38017
0.35827
0.32603
0.27494
0.18491
0.044404
-0.048054
-0.072993
0.015207
0.1399
0.27798
0.40815
0.54866
0.60036
0.53224
0.32543
-0.06691
-0.47202
-0.82238
-0.88017
-0.66788
-0.21959
0.16423
0.4556
0.5882
0.55779
0.38747
0.074818
-0.17762
-0.31204
-0.23783
0.0060827
0.22202
0.40024
0.45864
0.44161
0.35827
0.19769
0.038929
-0.055353
-0.065085
0.033455
0.14842
0.24939
0.30535
0.30657
0.27859
0.21107
0.10645
0.056569
0.036496
0.0060827
-0.083333
-0.27737
-0.38443
-0.37226
-0.11436
0.15815
0.39051
0.46168
0.37774
0.14234
-0.13686
-0.33273
-0.36436
-0.27555
-0.11861
0.0079075
0.11253
0.15998
0.17883
0.16302
0.14234
0.11679
0.095499
0.060219
0.049878
0.065693
0.10584
0.17214
0.24878
0.30839
0.35341
0.36071
0.37348
0.36557
0.33698
0.24148
-0.1399
-0.45134
-0.63564
-0.46776
-0.11253
0.21411
0.41545
0.48418
0.29684
-0.18613
-0.6101
-0.85219
-0.72263
-0.39477
-0.1028
0.1983
0.43735
0.5438
0.50122
0.34367
0.11922
-0.016423
-0.024331
0.10706
0.31813
0.48175
0.54501
0.55718
0.48479
0.36557
0.16727
-0.047445
-0.23601
-0.37713
-0.3972
-0.32543
-0.12348
0.15207
0.39781
0.51217
0.42153
0.17518
-0.14355
-0.37895
-0.46898
-0.39051
-0.20012
0.01399
0.2056
0.33759
0.40268
0.40328
0.37591
0.33577
0.3163
0.29623
0.2871
0.29197
0.3163
0.38139
0.44951
0.50304
0.52555
0.48966
0.40207
0.24209
0.1247
-0.046837
-0.13686
-0.19221
-0.21046
-0.1545
-0.065693
0.038929
0.096715
0.076034
0.045012
0.03163
0.01399
-0.018856
-0.032847
0.021898
0.14599
0.28832
0.41484
0.47324
0.48905
0.45499
0.4118
0.36922
0.31204
0.1837
0.043796
-0.080292
-0.099757
0.018248
0.17822
0.37165
0.47202
0.5365
0.49453
0.33273
0.11071
-0.23844
-0.56265
-0.73844
-0.68917
-0.44404
-0.089416
0.19039
0.4118
0.52494
0.56265
0.54015
0.51034
0.48601
0.47019
0.45985
0.44465
0.42944
0.4118
0.40207
0.40024
0.40572
0.41788
0.43796
0.45864
0.47141
0.46046
0.42457
0.37774
0.33333
0.30596
0.28893
0.28102
0.26521
0.24635
0.23297
0.22445
0.22141
0.22263
0.22993
0.24148
0.24696
0.24513
0.23601
0.23418
0.24878
0.27311
0.28345
0.27555
0.24696
0.21655
0.19769
0.19282
0.20438
0.22506
0.25243
0.26582
0.26703
0.25304
0.23601
0.2135
0.19161
0.16788
0.15207
0.14234
0.13382
0.13929
0.14964
0.1618
0.16788
0.16971
0.17092
0.18248
0.21168
0.24878
0.2792
0.25852
0.18005
0.099148
0.18735
0.17883
0.041363
-0.24392
-0.52798
-0.57543
-0.40937
-0.17153
0.14355
0.34793
0.47628
0.49757
0.4483
0.37652
0.26825
0.20499
0.14659
0.11071
0.10462
0.11314
0.090633
0.047445
-0.0024331
-0.029197
0.010341
0.091849
0.12348
0.16606
0.17214
0.17457
0.15511
0.063869
-0.027981
-0.071776
-0.060219
0.012165
0.099757
0.15085
0.22263
0.21776
0.16545
0.071168
-0.056569
-0.12774
-0.14234
-0.14903
-0.132
-0.088808
-0.048054
-0.014599
-0.047445
-0.17336
-0.39903
-0.53285
-0.50304
-0.30657
-0.118
0.093674
0.16302
0.12348
-0.034672
-0.28102
-0.41606
-0.42457
-0.19891
0.043187
0.27129
0.30596
0.29015
0.16545
0.038929
-0.069343
-0.073601
0.026156
0.21898
0.35766
0.4191
0.368
0.30961
0.24635
0.18491
0.14477
0.16545
0.25973
0.40998
0.43066
0.40937
0.27068
0.18066
0.072384
0.03163
0.016423
0.048054
0.11679
0.18552
0.17275
0.12165
-0.022506
-0.14112
-0.21533
-0.24635
-0.29562
-0.42153
-0.53041
-0.58029
-0.42944
-0.26703
-0.092457
0.067518
0.15572
0.21046
0.14781
0.042579
-0.057786
-0.065085
0.065693
0.21655
0.40937
0.51095
0.59185
0.56083
0.36496
0.027981
-0.38504
-0.62105
-0.6101
-0.3455
0.038929
0.38808
0.56448
0.49392
0.21533
-0.17822
-0.45134
-0.50912
-0.3601
-0.096107
0.15268
0.30596
0.34854
0.30535
0.21959
0.15207
0.11436
0.11618
0.16849
0.26825
0.39964
0.49453
0.59063
0.59672
0.60584
0.55049
0.45134
0.31873
0.18248
0.093066
0.069951
0.12165
0.19708
0.28102
0.29197
0.28528
0.18187
0.074209
-0.040754
-0.1472
-0.23236
-0.31509
-0.40998
-0.42153
-0.38625
-0.20925
-0.024939
0.13017
0.18856
0.12287
-0.1174
-0.35036
-0.41849
-0.26703
0.0048662
0.3236
0.50973
0.60158
0.54258
0.36314
0.10645
-0.18431
-0.41667
-0.441
-0.29684
-0.062652
0.19404
0.27251
0.2646
0.1247
-0.12956
-0.35766
-0.48114
-0.40389
-0.14964
0.18552
0.44282
0.59367
0.58516
0.48966
0.36436
0.24818
0.20803
0.23175
0.32664
0.46959
0.61436
0.7354
0.81873
0.79805
0.77798
0.65572
0.43491
0.19465
-0.0024331
-0.045012
0.078467
0.29623
0.46472
0.59428
0.62895
0.58212
0.4556
0.25487
-0.073601
-0.41484
-0.6326
-0.62956
-0.31813
0.0054745
0.27311
0.41363
0.49635
0.49148
0.42214
0.29501
0.16058
0.10097
0.14416
0.28954
0.45195
0.60097
0.70134
0.70012
0.65937
0.54623
0.42822
0.37956
0.38443
0.44161
0.4927
0.52494
0.52068
0.53345
0.51399
0.50304
0.46107
0.35827
0.28771
0.22019
0.23175
0.26886
0.30292
0.30292
0.30657
0.33394
0.36071
0.35827
0.28285
0.16788
-0.085766
-0.36983
-0.56873
-0.57117
-0.37044
-0.082725
0.19343
0.41606
0.5365
0.56022
0.4483
0.2062
-0.10949
-0.27859
-0.21837
0.019465
0.3382
0.51886
0.61922
0.62287
0.55718
0.45316
0.19891
-0.1983
-0.5517
-0.66971
-0.559
-0.13564
0.20255
0.4854
0.58394
0.47019
0.19343
-0.17457
-0.3899
-0.43613
-0.25852
0.012774
0.24939
0.40572
0.49331
0.51277
0.49513
0.46533
0.43187
0.38929
0.37165
0.368
0.382
0.39355
0.38443
0.368
0.35036
0.34002
0.3455
0.3753
0.41667
0.44647
0.45195
0.42822
0.39477
0.3674
0.35645
0.35888
0.37226
0.38382
0.39903
0.40572
0.41119
0.40268
0.32664
0.191
0.034063
-0.12105
-0.26703
-0.51886
-0.71168
-0.81752
-0.75426
-0.59428
-0.42822
-0.25365
-0.069951
0.08455
0.19161
0.26277
0.32117
0.37713
0.41119
0.4264
0.42457
0.4118
0.37713
0.32543
0.26642
0.21898
0.19526
0.18552
0.18917
0.19708
0.20864
0.22689
0.24574
0.25912
0.27859
0.29805
0.32664
0.33698
0.31204
0.25912
0.19404
0.14538
0.12774
0.13747
0.15815
0.18674
0.20681
0.19891
0.14538
0.01399
-0.18735
-0.39355
-0.45073
-0.38321
-0.38504
-0.48418
-0.62287
-0.63504
-0.48601
-0.28163
-0.11071
0.047445
0.16971
0.27311
0.37287
0.45864
0.51034
0.48905
0.44161
0.31387
0.18917
0.072384
-0.03528
-0.097932
-0.15876
-0.13869
-0.016423
0.23358
0.45073
0.53224
0.39538
0.13017
-0.16849
-0.42883
-0.54927
-0.57178
-0.41363
-0.1764
0.095499
0.27251
0.34976
0.30474
0.14781
-0.069343
-0.16606
-0.14842
0.03528
0.24331
0.39173
0.53102
0.57482
0.56752
0.42336
0.11071
-0.22871
-0.45377
-0.43127
-0.19647
0.10706
0.32968
0.47384
0.48479
0.30474
-0.055961
-0.38747
-0.5146
-0.39294
-0.038321
0.20377
0.42397
0.5371
0.49939
0.37713
0.1691
-0.017032
-0.094282
-0.037105
0.15389
0.33698
0.4708
0.44586
0.35706
0.19586
0.069343
-0.057178
-0.03163
0.045012
0.23114
0.38078
0.45499
0.39538
0.22567
0.020073
-0.20377
-0.38625
-0.41119
-0.37956
-0.28406
-0.2062
-0.1247
-0.042579
0.065085
0.13869
0.17518
0.089416
0.010341
-0.045012
-0.021898
0.071776
0.15998
0.2938
0.33942
0.34793
0.33577
0.25365
0.17701
0.10401
0.038929
0.013382
0.012165
0.010949
0.041363
0.13686
0.23905
0.30353
0.22141
0.05292
-0.15876
-0.37226
-0.41119
-0.36192
-0.19951
0.017032
0.1545
0.21655
0.18309
0.090633
0.023114
-0.017032
-0.011557
0.010949
0.074818
0.18674
0.3163
0.43856
0.46655
0.44404
0.33759
0.22019
0.12348
0.071776
0.096107
0.19039
0.28041
0.40389
0.48297
0.5365
0.56083
0.49209
0.33698
0.12774
-0.088808
-0.34672
-0.39842
-0.47993
-0.40815
-0.27129
-0.17153
-0.047445
-0.0024331
-0.03528
-0.11253
-0.1472
-0.10827
0.0042579
0.15268
0.2938
0.40328
0.47871
0.50912
0.50365
0.46168
0.43796
0.44221
0.47871
0.51825
0.53832
0.54745
0.56448
0.559
0.5292
0.46655
0.31569
0.21898
0.15146
0.17397
0.25243
0.31509
0.39538
0.47932
0.51338
0.43066
0.19951
-0.08455
-0.36983
-0.49331
-0.52555
-0.35341
-0.11679
0.13808
0.34489
0.45255
0.4781
0.43735
0.33698
0.26095
0.2062
0.20195
0.23662
0.26886
0.32847
0.35341
0.37895
0.36861
0.30474
0.17214
0.067518
0.016423
0.065085
0.16058
0.28893
0.40693
0.5
0.56873
0.59367
0.45073
0.077251
-0.20925
-0.42397
-0.31387
-0.072993
0.13869
0.36983
0.48783
0.43248
0.23905
-0.0809
-0.34367
-0.41788
-0.31569
-0.086375
0.12287
0.26703
0.35706
0.39112
0.37774
0.35888
0.33637
0.32482
0.32908
0.35341
0.3899
0.41727
0.41363
0.37774
0.33151
0.29684
0.28345
0.2865
0.30109
0.31873
0.34854
0.38078
0.39173
0.36314
0.29136
0.21168
0.16119
0.13808
0.14659
0.16727
0.20377
0.20864
0.16788
0.038321
-0.046229
-0.1174
-0.17701
-0.29805
-0.47384
-0.63139
-0.66849
-0.61557
-0.53589
-0.42336
-0.29136
-0.14051
0.038321
0.18552
0.28528
0.34611
0.37044
0.38017
0.38321
0.38443
0.37652
0.3601
0.34124
0.32543
0.31204
0.29745
0.28771
0.29075
0.30292
0.31326
0.31022
0.2871
0.26156
0.24209
0.22506
0.22202
0.23479
0.26095
0.2871
0.29927
0.23905
0.083942
-0.00060827
-0.026156
0.058394
0.13321
0.017032
-0.10523
-0.28406
-0.42457
-0.51703
-0.618
-0.59611
-0.43674
-0.17762
0.0882
0.2871
0.38625
0.39477
0.35462
0.31569
0.30231
0.30657
0.32725
0.31387
0.2719
0.18005
-0.044404
-0.26399
-0.45195
-0.43187
-0.2719
0.023723
0.27433
0.32908
0.22932
0.032238
-0.14659
-0.25912
-0.29015
-0.2062
-0.031022
0.18309
0.36496
0.45377
0.47871
0.44769
0.37774
0.25608
0.10462
-0.0012165
0.0012165
0.1247
0.23662
0.36618
0.43005
0.48905
0.52737
0.54745
0.48479
0.38078
0.25487
0.19465
0.15998
0.097932
-0.056569
-0.066302
-0.073601
0.0012165
-0.006691
-0.14173
-0.28345
-0.4045
-0.43127
-0.35949
-0.13747
0.081509
0.23054
0.34428
0.33698
0.28589
0.23297
0.20803
0.24574
0.29927
0.32603
0.34611
0.35401
0.34915
0.29136
0.16119
-0.032238
-0.20134
-0.25182
-0.075426
0.23844
0.4635
0.59246
0.58394
0.35645
0.093066
-0.22324
-0.4562
-0.4629
-0.31204
0.04562
0.23966
0.34976
0.35219
0.29501
0.22567
0.11131
-0.029197
-0.08455
-0.051703
0.079075
0.24088
0.33394
0.4191
0.43856
0.47445
0.45499
0.3899
0.29562
0.22324
0.21776
0.26156
0.34124
0.35766
0.41667
0.41971
0.48844
0.50487
0.45925
0.36679
0.14538
-0.12774
-0.3236
-0.35219
-0.20742
0.11253
0.34611
0.54319
0.56204
0.40572
0.11679
-0.087591
-0.17518
-0.12287
-0.015815
0.10158
0.24696
0.37287
0.43187
0.41484
0.34611
0.27068
0.2573
0.2938
0.3753
0.44951
0.48297
0.47749
0.45255
0.40511
0.35584
0.29805
0.1618
0.029805
-0.096107
-0.13139
-0.068127
0.0024331
0.052311
0.17944
0.33942
0.43309
0.35706
0.1399
-0.12774
-0.3674
-0.58698
-0.61557
-0.52555
-0.28528
-0.026156
0.15511
0.26886
0.27859
0.19526
0.1253
0.082725
0.10401
0.18005
0.23479
0.28832
0.29988
0.32238
0.30718
0.26946
0.15572
0.056569
-0.011557
-0.006691
0.043796
0.0882
0.14355
0.18735
0.28771
0.32238
0.31752
0.22445
0.047445
-0.17518
-0.31752
-0.27676
-0.14477
0.10158
0.19891
0.28954
0.30414
0.21229
0.041363
-0.15876
-0.28467
-0.30231
-0.22628
-0.11192
0.011557
0.12713
0.18431
0.2281
0.19404
0.15024
0.052311
-0.038929
-0.1101
-0.12044
-0.048054
0.082725
0.2129
0.35888
0.48358
0.60036
0.63869
0.5219
0.30231
0.050487
-0.13504
-0.27372
-0.38139
-0.52981
-0.57117
-0.53589
-0.38747
-0.16849
-0.0030414
0.09854
0.13929
0.12044
0.043187
-0.0018248
-0.0097324
0.050487
0.14659
0.24392
0.31934
0.35523
0.35036
0.32786
0.30292
0.29623
0.29197
0.29258
0.2871
0.25426
0.093674
0.0060827
-0.023723
0.089416
0.23966
0.30718
0.29197
0.33394
0.4927
0.63625
0.61861
0.29927
-0.13504
-0.53345
-0.69708
-0.64659
-0.44526
-0.1837
0.079684
0.2427
0.33698
0.33881
0.30779
0.25365
0.15754
-0.085766
-0.24088
-0.31083
-0.16606
0.10888
0.35341
0.58698
0.72689
0.75243
0.65693
0.47141
0.27676
0.1247
0.015207
-0.074818
-0.18674
-0.2719
-0.28832
-0.18127
0.042579
0.25365
0.39964
0.46472
0.35462
0.079684
-0.34976
-0.72749
-0.95985
-0.88929
-0.65024
-0.30292
0.034063
0.30109
0.46655
0.51703
0.48783
0.40024
0.25122
0.081509
-0.0809
-0.14416
-0.11679
0.037713
0.14416
0.29562
0.31022
0.30535
0.26886
0.19039
0.096715
0.011557
-0.025547
0.023723
0.14051
0.28285
0.41484
0.49088
0.5517
0.52616
0.49331
0.43127
0.26946
0.037105
-0.32725
-0.51399
-0.58942
-0.368
-0.046229
0.35158
0.66727
0.80414
0.77433
0.57725
0.23844
-0.22567
-0.49878
-0.55292
-0.30109
-0.019465
0.17214
0.23783
0.21898
0.19161
0.16119
0.13504
0.087591
0.045012
0.0091241
0.0042579
0.030414
0.10158
0.20316
0.3455
0.46898
0.53528
0.5292
0.43978
0.33029
0.19282
0.11314
0.1028
0.19647
0.35219
0.46655
0.53406
0.56144
0.6253
0.66971
0.62105
0.41606
0.08455
-0.29015
-0.59307
-0.70742
-0.67032
-0.45316
-0.20073
0.018248
0.1764
0.2354
0.21229
0.15998
0.10949
0.10219
0.13504
0.19039
0.24818
0.30718
0.34854
0.3674
0.37226
0.36253
0.33637
0.28041
0.24148
0.24088
0.30292
0.40693
0.51217
0.57786
0.57238
0.54684
0.45499
0.28467
-0.012774
-0.27616
-0.45499
-0.40146
-0.2281
0.054136
0.19039
0.19404
0.063869
-0.09854
-0.18066
-0.21229
-0.17883
-0.046837
0.14294
0.36192
0.50304
0.54745
0.49757
0.37895
0.24209
0.097324
-0.045012
-0.12348
-0.14112
-0.065693
0.073601
0.21533
0.34915
0.40633
0.49939
0.5882
0.59002
0.47263
0.22749
-0.027372
-0.20073
-0.22263
-0.15268
-0.045012
0.02129
-0.063869
-0.14477
-0.20255
-0.28102
-0.43066
-0.64781
-0.70377
-0.55718
-0.21472
0.1399
0.36253
0.4629
0.48844
0.46107
0.40328
0.29015
0.15876
0.083942
0.082117
0.16119
0.26886
0.34246
0.36436
0.35523
0.32725
0.2871
0.24148
0.16788
0.13929
0.15146
0.21594
0.29745
0.35584
0.38321
0.38625
0.39659
0.3753
0.34793
0.25912
0.11253
-0.029805
-0.13747
-0.15024
-0.086983
0.0042579
0.17457
0.36861
0.45925
0.39903
0.19404
-0.074818
-0.30049
-0.47993
-0.47567
-0.29805
-0.0012165
0.28771
0.51156
0.59611
0.60036
0.51521
0.40389
0.25547
0.038321
-0.16849
-0.25791
-0.20681
0.07056
0.31448
0.5
0.61375
0.57421
0.45134
0.24878
0.015207
-0.23418
-0.45681
-0.64964
-0.66849
-0.559
-0.29684
-0.024939
0.19951
0.33394
0.33455
0.24513
0.13078
0.032847
-0.032238
-0.074209
-0.054745
0.024331
0.16423
0.33759
0.46533
0.52433
0.50426
0.47202
0.39477
0.309
0.15146
0.024939
-0.034063
0.037713
0.18917
0.32421
0.41058
0.42883
0.45864
0.55718
0.65572
0.64112
0.4854
0.20377
-0.14477
-0.40633
-0.65876
-0.65693
-0.60584
-0.36922
-0.14659
0.048054
0.18187
0.21168
0.11071
-0.088808
-0.28832
-0.36983
-0.27555
-0.048662
0.20864
0.40633
0.55839
0.63139
0.61375
0.51399
0.35706
0.2135
0.118
0.10036
0.16302
0.26521
0.36071
0.41302
0.43917
0.40146
0.32482
0.19404
0.049878
-0.073601
-0.19526
-0.25426
-0.26156
-0.2056
-0.069951
0.091241
0.23723
0.42092
0.53467
0.5882
0.56326
0.35097
0.013382
-0.38625
-0.58029
-0.59915
-0.382
-0.12409
0.10158
0.29745
0.36071
0.34672
0.27433
0.13443
-0.0809
-0.22749
-0.2427
-0.023114
0.22324
0.48358
0.5809
0.55353
0.43978
0.25122
0.068127
-0.076642
-0.17579
-0.21715
-0.18978
-0.13929
-0.040146
0.060219
0.17457
0.28589
0.32786
0.36192
0.37044
0.34915
0.30414
0.16302
-0.10888
-0.45012
-0.64659
-0.63869
-0.29623
0.0882
0.40633
0.54136
0.47689
0.20742
-0.23175
-0.5365
-0.68674
-0.57299
-0.31691
-0.054745
0.14781
0.28467
0.33516
0.34124
0.32847
0.28589
0.25791
0.25912
0.29745
0.36436
0.41788
0.43552
0.42397
0.39781
0.38747
0.3747
0.36618
0.34002
0.2573
0.18735
0.13078
0.15754
0.2573
0.36071
0.4629
0.48662
0.55231
0.61253
0.60706
0.44647
0.017032
-0.34854
-0.68431
-0.60341
-0.34854
0.014599
0.22506
0.36192
0.38808
0.31022
0.12652
-0.091241
-0.27676
-0.29805
-0.16423
0.063869
0.27737
0.40572
0.44282
0.4556
0.44769
0.42032
0.36983
0.27981
0.20377
0.17701
0.20742
0.27433
0.34732
0.40572
0.43309
0.47506
0.48054
0.4927
0.43066
0.28893
0.11071
-0.024939
-0.06691
0.030414
0.091849
0.13321
0.16119
0.14964
0.11618
0.032847
-0.18187
-0.48783
-0.72932
-0.82178
-0.65268
-0.35219
-0.042579
0.18674
0.34611
0.37165
0.3236
0.24818
0.15085
-0.01399
-0.14964
-0.23297
-0.1399
0.10158
0.31387
0.53041
0.65937
0.70255
0.62287
0.45073
0.21594
0.058394
-0.01399
0.0091241
0.042579
0.083333
0.11557
0.17032
0.22689
0.30779
0.3528
0.39051
0.37652
0.26886
0.050487
-0.24939
-0.36618
-0.4045
-0.17579
0.046837
0.34246
0.57543
0.70864
0.70803
0.6174
0.47993
0.16119
-0.15876
-0.40389
-0.38929
-0.14903
0.083333
0.17518
0.15693
0.11253
0.083333
0.078467
0.0809
0.0809
0.073601
0.04562
-0.012774
-0.055353
-0.058394
0.02129
0.16606
0.28528
0.36861
0.39112
0.39538
0.39781
0.3899
0.35219
0.20499
0.060827
-0.060827
-0.037713
0.093066
0.2573
0.39599
0.43917
0.44647
0.35401
0.16727
-0.040146
-0.2944
-0.46898
-0.53467
-0.44161
-0.25791
-0.046837
0.13808
0.26946
0.34793
0.38139
0.37652
0.36679
0.35462
0.35036
0.34124
0.32178
0.2938
0.26946
0.26338
0.27007
0.28406
0.29988
0.30961
0.31204
0.30109
0.28345
0.26217
0.24392
0.22749
0.2135
0.20438
0.2062
0.20985
0.2135
0.21229
0.20985
0.2135
0.23054
0.26277
0.3017
0.33394
0.36679
0.38808
0.41484
0.44769
0.46655
0.39964
0.15024
-0.1837
-0.49818
-0.72019
-0.8674
-0.98175
-0.98236
-0.8601
-0.6028
-0.36679
-0.19769
-0.079075
0.0030414
0.047445
0.068735
0.093674
0.15876
0.24209
0.29745
0.30414
0.22628
0.11557
0.0091241
-0.069951
-0.086375
-0.049878
0.04562
0.23358
0.47324
0.72202
0.81265
0.7135
0.44891
0.10097
-0.29501
-0.55474
-0.71411
-0.60888
-0.4562
-0.22324
-0.066302
0.048054
0.089416
0.06691
-0.011557
-0.090024
-0.11253
-0.052311
0.092457
0.27494
0.41727
0.4781
0.47871
0.45925
0.43856
0.4191
0.40146
0.37835
0.36375
0.35645
0.36436
0.37835
0.38625
0.38686
0.38564
0.3826
0.37895
0.37348
0.37713
0.382
0.38929
0.39903
0.40754
0.41971
0.43066
0.44039
0.44647
0.45195
0.46655
0.47749
0.49453
0.50669
0.52433
0.54501
0.54197
0.49696
0.36375
0.24696
0.17032
0.036496
-0.23175
-0.51156
-0.69465
-0.76034
-0.73783
-0.79927
-0.76217
-0.64842
-0.4635
-0.30109
-0.20255
-0.15572
-0.11314
-0.044404
0.074818
0.2129
0.32238
0.3747
0.36192
0.26703
0.093674
-0.12835
-0.32786
-0.45499
-0.34915
-0.12652
0.17153
0.36679
0.40998
0.37105
0.27494
0.14294
-0.065085
-0.24148
-0.37226
-0.35766
-0.2056
0.039538
0.23966
0.36436
0.35888
0.27251
0.15815
0.076642
0.06691
0.1399
0.23723
0.34367
0.40146
0.42579
0.42944
0.39051
0.32664
0.22506
0.14234
0.10219
0.10645
0.14903
0.20985
0.28893
0.39659
0.51338
0.58881
0.59732
0.54927
0.45012
0.35888
0.26946
0.21168
0.13504
0.055353
0.046229
0.068127
0.1472
0.20803
0.20073
0.11253
-0.065693
-0.35158
-0.59124
-0.76277
-0.70985
-0.49331
-0.20012
0.052311
0.27007
0.35706
0.33881
0.23479
0.054745
-0.2135
-0.48054
-0.64599
-0.5955
-0.29562
0.068127
0.39294
0.55049
0.60523
0.54988
0.42762
0.22749
0.040754
-0.061436
-0.061436
0.020073
0.087591
0.14964
0.1837
0.26703
0.30718
0.3017
0.21533
0.12713
0.11071
0.15024
0.19951
0.24878
0.26764
0.31509
0.38078
0.41667
0.45255
0.4635
0.44708
0.40633
0.29805
0.057786
-0.22567
-0.368
-0.40815
-0.22506
0.030414
0.25912
0.47019
0.5
0.30657
-0.090633
-0.42214
-0.62165
-0.54988
-0.33698
-0.15024
0.022506
0.11861
0.21655
0.25608
0.25791
0.21715
0.14112
0.051703
-0.018248
-0.01764
0.029197
0.21594
0.38808
0.53771
0.58029
0.52251
0.48844
0.43735
0.33516
0.10341
-0.118
-0.24088
-0.25243
-0.051095
0.16363
0.36557
0.54075
0.6028
0.5736
0.4562
0.23175
-0.056569
-0.39964
-0.51703
-0.53345
-0.38504
-0.23601
-0.048054
0.11436
0.22445
0.23844
0.17883
0.12713
0.081509
0.05292
0.078467
0.13625
0.23054
0.3236
0.3747
0.41727
0.41119
0.39051
0.33637
0.24818
0.19282
0.18796
0.24696
0.37652
0.47993
0.55049
0.56387
0.56387
0.52007
0.44647
0.31144
0.18978
0.099757
0.030414
-0.12409
-0.29562
-0.56022
-0.72263
-0.75669
-0.71533
-0.52798
-0.33516
-0.15085
0.010341
0.097324
0.10706
0.03528
-0.019465
-0.064477
-0.019465
0.080292
0.18796
0.28163
0.33455
0.34002
0.32968
0.32299
0.33455
0.35523
0.36375
0.36861
0.36496
0.36192
0.37409
0.39355
0.40937
0.3899
0.31873
0.18978
0.10827
0.10158
0.22628
0.33577
0.43066
0.55718
0.67822
0.77251
0.66788
0.24513
-0.29136
-0.69221
-0.86192
-0.70742
-0.58333
-0.38869
-0.20681
-0.041363
0.081509
0.10523
-0.006691
-0.14964
-0.2281
-0.1472
0.051703
0.24331
0.38747
0.51034
0.57482
0.60523
0.53345
0.40207
0.29197
0.23662
0.25973
0.33577
0.43856
0.51399
0.57117
0.58333
0.5438
0.44039
0.29988
0.13017
0.038321
0.067518
0.10645
0.077251
-0.096715
-0.27129
-0.38747
-0.37348
-0.40207
-0.43248
-0.43248
-0.42762
-0.34307
-0.26277
-0.1691
-0.054136
0.072384
0.21411
0.34063
0.42457
0.43978
0.40633
0.34489
0.27251
0.24027
0.24696
0.29805
0.36922
0.42762
0.44647
0.46046
0.43674
0.38686
0.28102
0.089416
-0.082725
-0.15754
-0.080292
0.041971
0.26825
0.50608
0.73175
0.84793
0.71655
0.42822
0.089416
-0.26338
-0.54745
-0.68674
-0.64781
-0.42579
-0.21715
0.024939
0.21046
0.36436
0.39294
0.32238
0.14112
-0.051703
-0.22506
-0.27433
-0.16058
0.068127
0.31387
0.53589
0.69769
0.75547
0.68917
0.50547
0.31387
0.21411
0.21776
0.31144
0.41971
0.49027
0.47567
0.40328
0.29319
0.18309
0.1174
0.088808
0.079684
0.10523
0.14781
0.20985
0.27068
0.31022
0.3163
0.31144
0.28528
0.27007
0.26521
0.26217
0.25061
0.19526
0.11253
0.072993
0.11496
0.22993
0.39964
0.45864
0.45985
0.45316
0.45012
0.47871
0.40693
0.18491
-0.15146
-0.45499
-0.68491
-0.76217
-0.78345
-0.63625
-0.43066
-0.17518
0.040146
0.12226
0.021898
-0.20803
-0.36922
-0.38625
-0.18187
0.10827
0.31509
0.4556
0.52129
0.52798
0.52251
0.45073
0.33212
0.22506
0.18309
0.23418
0.35584
0.47932
0.52372
0.55961
0.49818
0.43674
0.35462
0.24331
0.14842
0.097932
0.12165
0.12105
0.15633
0.076642
-0.1101
-0.28285
-0.45499
-0.46898
-0.40146
-0.31752
-0.26582
-0.28041
-0.32056
-0.35523
-0.2792
-0.14294
0.045012
0.2062
0.31448
0.38382
0.39477
0.37226
0.34185
0.3309
0.33577
0.34185
0.34976
0.36071
0.37165
0.37105
0.33029
0.23783
0.10949
0.030414
0.048662
0.15876
0.43309
0.69343
0.85584
0.80961
0.56691
0.26825
-0.096715
-0.48054
-0.74331
-0.8309
-0.6399
-0.39234
-0.13564
0.041971
0.13747
0.15998
0.086983
-0.067518
-0.22628
-0.33029
-0.26886
-0.082117
0.118
0.31448
0.40754
0.45195
0.41058
0.31022
0.18005
0.11679
0.15268
0.29197
0.45864
0.5809
0.61192
0.57482
0.53041
0.47689
0.44161
0.37105
0.2944
0.25791
0.30961
0.40754
0.51521
0.57482
0.53224
0.3972
0.17518
-0.063869
-0.30839
-0.51095
-0.62165
-0.6399
-0.54623
-0.39234
-0.19769
-0.03528
0.099148
0.21776
0.29197
0.30596
0.24331
0.15207
0.07056
0.018856
0.01764
0.068735
0.15754
0.27129
0.38504
0.46533
0.46959
0.35584
0.19586
0.05292
0.13321
0.30839
0.44951
0.45925
0.30961
0.18674
0.10645
0.015815
-0.086375
-0.17518
-0.18917
-0.13564
-0.019465
0.15511
0.31144
0.47384
0.58394
0.63139
0.61861
0.50182
0.31873
0.0882
-0.16423
-0.27068
-0.26277
-0.15268
0.10706
0.28406
0.43796
0.47871
0.37774
0.15998
-0.11922
-0.47263
-0.64416
-0.63504
-0.35401
-0.041971
0.15815
0.22689
0.22628
0.21168
0.19161
0.15633
0.11253
0.07056
0.025547
-0.043796
-0.14294
-0.23723
-0.28102
-0.23601
-0.074209
0.096715
0.25973
0.37287
0.44769
0.48723
0.46776
0.37105
0.16545
-0.050487
-0.21533
-0.26703
-0.15998
0.0048662
0.25243
0.51582
0.69404
0.72993
0.63321
0.47871
0.2719
0.071776
-0.12774
-0.29562
-0.2938
-0.26217
-0.15511
-0.04562
-0.006691
0.015207
-0.023723
-0.10341
-0.17214
-0.17762
-0.12591
-0.010341
0.09854
0.17822
0.24574
0.30839
0.36557
0.3747
0.33394
0.21411
0.11679
0.073601
0.13382
0.27068
0.43552
0.54075
0.58516
0.6472
0.70377
0.75912
0.66788
0.49088
0.28102
0.15815
0.12105
0.10584
0.016423
-0.11922
-0.27555
-0.40937
-0.49696
-0.5219
-0.51338
-0.45864
-0.35097
-0.25182
-0.18491
-0.17518
-0.18127
-0.13139
-0.024331
0.14903
0.26277
0.29501
0.22384
0.13443
0.10219
0.16606
0.28467
0.40328
0.50669
0.5736
0.6247
0.618
0.57117
0.51764
0.43066
0.34793
0.26521
0.23114
0.25304
0.33759
0.36071
0.37835
0.35827
0.39781
0.43309
0.32725
0.06326
-0.24939
-0.47871
-0.54562
-0.49513
-0.35584
-0.26703
-0.29623
-0.309
-0.2573
-0.097932
0.04927
0.090633
0.076034
0.037105
-0.012774
-0.043796
-0.01399
0.063869
0.18735
0.29075
0.35097
0.39294
0.4045
0.40085
0.39538
0.39538
0.39538
0.40207
0.41058
0.4191
0.42214
0.41545
0.3972
0.3753
0.35827
0.32664
0.33455
0.35341
0.38747
0.40268
0.38686
0.36131
0.33698
0.32725
0.34124
0.37165
0.43309
0.49757
0.56448
0.54501
0.39477
0.2646
0.13929
0.11192
0.023114
-0.073601
-0.18856
-0.26399
-0.34672
-0.44526
-0.47871
-0.43005
-0.30231
-0.17214
-0.1028
-0.1028
-0.12652
-0.11436
-0.034672
0.11618
0.27737
0.37774
0.40389
0.34063
0.28041
0.13686
-0.019465
-0.1253
-0.15572
0.042579
0.26095
0.47324
0.53832
0.5073
0.45012
0.36131
0.23783
0.10888
0.024939
0.01764
0.079075
0.17701
0.24513
0.31144
0.32664
0.27433
0.13564
-0.052311
-0.20742
-0.27311
-0.091849
0.056569
0.11131
0.021898
-0.086983
-0.11679
-0.00060827
0.062044
0.015207
-0.068127
-0.23297
-0.30535
-0.29075
-0.17214
0.013382
0.15146
0.25791
0.29745
0.29684
0.27433
0.26946
0.2792
0.28893
0.29197
0.24331
0.11496
-0.033455
-0.12956
-0.059002
0.24818
0.51217
0.59428
0.43491
0.18187
0.00060827
-0.085158
-0.17092
-0.26946
-0.34428
-0.35219
-0.20985
-0.023114
0.17092
0.31569
0.38564
0.40998
0.3674
0.2281
0.024939
-0.18856
-0.36983
-0.37652
-0.28345
-0.091241
0.15085
0.31265
0.41727
0.41971
0.28771
-0.090633
-0.45073
-0.6764
-0.64051
-0.26217
0.027981
0.26277
0.35949
0.32725
0.25791
0.18552
0.12348
0.094891
0.099148
0.1247
0.14051
0.12348
0.07056
0.012774
-0.015815
0.023723
0.093066
0.17275
0.22871
0.25852
0.26277
0.26642
0.27068
0.26095
0.24088
0.1764
0.072384
-0.01399
-0.021898
0.097324
0.26642
0.41667
0.51764
0.56934
0.61314
0.61131
0.56995
0.4927
0.3826
0.26338
0.15754
0.097324
0.13321
0.21107
0.33212
0.47506
0.56569
0.57847
0.46776
0.18978
-0.22202
-0.53893
-0.91971
-0.93917
-0.80839
-0.42397
0.042579
0.32482
0.4337
0.31448
0.18552
0.046229
-0.027372
-0.086983
-0.12895
-0.066302
0.068735
0.22506
0.31326
0.34063
0.30292
0.24696
0.1837
0.14599
0.12287
0.14964
0.21533
0.32299
0.45012
0.55596
0.58759
0.56691
0.45255
0.37226
0.33698
0.37409
0.49513
0.5517
0.56509
0.44951
0.31691
0.17397
0.0809
0.032847
0.055961
0.11679
0.15815
0.19221
0.21655
0.22324
0.15693
0.021898
-0.18978
-0.42092
-0.53832
-0.54623
-0.36375
-0.14599
0.12165
0.33516
0.48114
0.44769
0.2646
0.092457
-0.16119
-0.4045
-0.51095
-0.48418
-0.18856
0.077251
0.26156
0.30657
0.27859
0.23844
0.19769
0.15815
0.13139
0.12591
0.13382
0.13929
0.1253
0.075426
-0.014599
-0.089416
-0.11861
-0.04927
0.061436
0.16849
0.27311
0.34915
0.42032
0.44282
0.35341
0.13808
-0.1326
-0.32968
-0.48783
-0.37348
-0.17822
0.1101
0.37652
0.53102
0.59063
0.56873
0.46715
0.28406
0.10219
-0.068127
-0.20195
-0.18491
-0.16423
-0.03528
0.10462
0.19465
0.21837
0.14659
-0.024939
-0.20438
-0.28893
-0.24513
-0.082117
0.096715
0.24513
0.34246
0.43735
0.441
0.43005
0.37652
0.31326
0.20438
0.029197
-0.043796
-0.071776
0.04562
0.15693
0.25365
0.25
0.23601
0.1837
0.13443
0.083333
0.0054745
-0.080292
-0.16423
-0.25608
-0.30292
-0.28893
-0.19891
-0.097932
0.05292
0.18005
0.31569
0.39842
0.31326
0.12713
-0.091849
-0.24513
-0.42032
-0.25547
-0.010341
0.28041
0.49696
0.5219
0.50243
0.49453
0.43613
0.34124
0.28224
0.2719
0.31204
0.35401
0.36253
0.34732
0.31873
0.31083
0.32178
0.33881
0.35158
0.34185
0.3163
0.31083
0.33151
0.38686
0.44282
0.46959
0.4562
0.42883
0.39416
0.38869
0.40146
0.41971
0.40389
0.34367
0.23844
0.18552
0.22993
0.34915
0.53467
0.62226
0.68309
0.72202
0.77372
0.81448
0.74635
0.45316
0.055353
-0.30657
-0.49027
-0.51825
-0.56265
-0.56144
-0.53345
-0.41788
-0.33029
-0.34063
-0.43127
-0.50304
-0.47384
-0.28528
-0.0091241
0.21959
0.39112
0.45499
0.49696
0.48114
0.382
0.18127
-0.056569
-0.16606
-0.15998
0.13747
0.48114
0.65876
0.71533
0.5809
0.45803
0.36679
0.28406
0.20195
0.15389
0.14112
0.15815
0.19221
0.23479
0.27616
0.29684
0.2646
0.25304
0.21898
0.24513
0.27251
0.28041
0.2646
0.22019
0.12409
0.030414
-0.034063
-0.010341
0.13078
0.27737
0.47263
0.60219
0.67944
0.67457
0.55231
0.28893
-0.17457
-0.79927
-1
-0.99757
-0.97141
-0.46898
0.2944
0.68856
0.73054
0.5
0.18735
-0.15815
-0.32603
-0.3747
-0.30049
-0.13625
0.027981
0.13686
0.19404
0.21472
0.22871
0.25
0.27859
0.30109
0.31144
0.30961
0.2871
0.27007
0.23418
0.20255
0.19404
0.26338
0.33333
0.63382
0.79927
0.89112
0.75061
0.39355
0.118
-0.10036
-0.17762
-0.17883
-0.14112
-0.118
-0.079684
-0.030414
0.039538
0.14659
0.22567
0.27555
0.2865
0.25791
0.18978
0.11131
0.040754
0.026156
0.078467
0.14842
0.26886
0.35341
0.40146
0.39416
0.26642
0.0012165
-0.3753
-0.59915
-0.83212
-0.8236
-0.67701
-0.34002
0.076642
0.3601
0.44647
0.33151
0.17275
-0.045012
-0.191
-0.25365
-0.22506
-0.097324
0.0882
0.22993
0.2938
0.2944
0.23966
0.14842
0.018856
-0.11861
-0.20316
-0.191
-0.023723
0.19708
0.37591
0.49696
0.53467
0.51703
0.4337
0.23114
-0.087591
-0.33394
-0.46776
-0.36922
-0.118
0.1247
0.32664
0.44161
0.47689
0.46898
0.38443
0.23723
0.076642
-0.095499
-0.26946
-0.25912
-0.22628
-0.029197
0.13747
0.27433
0.36436
0.3528
0.23297
0.023723
-0.18491
-0.26825
-0.22932
-0.077251
0.10219
0.26034
0.3972
0.44708
0.48054
0.44161
0.4337
0.38564
0.31934
0.20377
0.1399
0.15207
0.23114
0.37287
0.41727
0.42457
0.45803
0.49878
0.52372
0.40754
0.16849
-0.10523
-0.33029
-0.49331
-0.55292
-0.52372
-0.42214
-0.25304
-0.042579
0.16545
0.32543
0.40937
0.40633
0.3309
0.23358
0.14599
0.10036
0.12226
0.17336
0.2573
0.36496
0.45012
0.51156
0.48783
0.34672
0.051095
-0.29197
-0.56022
-0.71411
-0.54319
-0.35888
-0.11679
0.023723
0.071168
0.01399
-0.13869
-0.4483
-0.69465
-0.80353
-0.6764
-0.36253
-0.065693
0.19891
0.38139
0.46533
0.45985
0.40024
0.34611
0.33942
0.36131
0.39355
0.42762
0.45499
0.47871
0.4927
0.49878
0.49635
0.4854
0.46898
0.44161
0.40328
0.35462
0.31509
0.32786
0.37591
0.44039
0.48844
0.49574
0.49209
0.46837
0.4556
0.46411
0.45925
0.44404
0.36983
0.22384
0.12105
0.036496
0.073601
0.10401
0.14355
0.23479
0.32664
0.40511
0.29197
-0.037713
-0.43127
-0.68613
-0.70499
-0.51338
-0.22263
0.01399
0.17579
0.26399
0.27798
0.25243
0.16302
0.062044
-0.033455
-0.076034
-0.051095
0.05292
0.17336
0.29319
0.38382
0.47445
0.60341
0.691
0.6618
0.49757
0.26338
0.087591
0.032847
0.059611
0.13747
0.2135
0.23783
0.26399
0.32543
0.38625
0.37165
0.26156
0.032847
-0.25122
-0.5
-0.62287
-0.618
-0.51095
-0.41667
-0.29258
-0.16363
-0.0042579
0.17822
0.26095
0.20681
-0.089416
-0.46229
-0.72567
-0.68127
-0.31326
0.13869
0.42397
0.52798
0.49453
0.40572
0.31873
0.22749
0.11618
0.024331
-0.03163
0.014599
0.15937
0.37652
0.60097
0.69161
0.69526
0.61253
0.50487
0.41241
0.30414
0.19708
0.1399
0.13564
0.19891
0.29258
0.38504
0.44221
0.47993
0.48114
0.49148
0.48966
0.47141
0.42762
0.34976
0.24088
0.15268
0.10827
0.14903
0.23783
0.31204
0.33029
0.38564
0.42762
0.50791
0.5438
0.46472
0.22141
-0.083333
-0.41606
-0.58881
-0.57603
-0.51277
-0.3674
-0.2056
-0.0882
0.030414
0.10523
0.034672
-0.18735
-0.34976
-0.41667
-0.31691
-0.11496
0.080292
0.2646
0.37591
0.40085
0.37044
0.30779
0.25547
0.21959
0.18796
0.191
0.22202
0.28954
0.35827
0.40268
0.41241
0.3899
0.382
0.33881
0.31448
0.26764
0.18735
0.10523
0.040146
0.07056
0.16788
0.28589
0.34124
0.38625
0.41363
0.42336
0.40998
0.34976
0.22749
0.096107
-0.012165
-0.082725
-0.073601
-0.029805
-0.039538
-0.027372
-0.030414
-0.082117
-0.1618
-0.26764
-0.42518
-0.56752
-0.67822
-0.6174
-0.42214
-0.15572
0.11314
0.27007
0.37044
0.36557
0.31204
0.21776
0.079075
-0.060219
-0.1326
-0.091241
0.049878
0.22445
0.35949
0.43187
0.45012
0.41484
0.37409
0.32603
0.27616
0.2056
0.10706
0.0060827
-0.049878
-0.0018248
0.12409
0.28345
0.36557
0.43248
0.45803
0.50608
0.5663
0.5736
0.49939
0.38686
0.26582
0.1691
0.1545
0.15633
0.15693
0.10706
0.032238
-0.097932
-0.24088
-0.40693
-0.50608
-0.56509
-0.56144
-0.55231
-0.45864
-0.309
-0.11496
0.1101
0.23966
0.30596
0.23966
0.085766
-0.14477
-0.34185
-0.43187
-0.43005
-0.31873
-0.1545
0.035888
0.26703
0.47932
0.60706
0.67579
0.691
0.64964
0.54258
0.36436
0.12652
-0.051703
-0.086375
-0.00060827
0.18978
0.32968
0.35766
0.33455
0.31509
0.30231
0.2938
0.25487
0.19586
0.1618
0.17518
0.24635
0.34428
0.41788
0.43917
0.42457
0.39112
0.35645
0.31934
0.27007
0.27737
0.40389
0.65876
0.88017
1
0.89173
0.66484
0.40511
0.14173
-0.13869
-0.38747
-0.49027
-0.42944
-0.17944
-0.0036496
0.11861
0.14294
0.093066
-0.061436
-0.38564
-0.74148
-0.95073
-0.88443
-0.60949
-0.21837
0.083942
0.28467
0.34307
0.29258
0.10827
-0.085766
-0.19647
-0.2208
-0.12895
-0.056569
0.023723
0.1101
0.17214
0.21594
0.25426
0.34307
0.42944
0.46655
0.45316
0.39355
0.32786
0.27616
0.20681
0.10158
0.02129
-0.0079075
0.078467
0.22445
0.39051
0.45134
0.42701
0.40085
0.34185
0.30779
0.26277
0.16302
0.020681
-0.18491
-0.382
-0.56569
-0.6253
-0.59428
-0.47384
-0.25791
-0.086375
0.032847
0.061436
0.048662
0.0085158
-0.040754
-0.11375
-0.12835
-0.086983
0.040146
0.18187
0.28467
0.34611
0.37835
0.3899
0.38625
0.34854
0.26946
0.13808
0.030414
0.0024331
0.14903
0.45803
0.67153
0.74088
0.57178
0.33516
0.14294
-0.029197
-0.23175
-0.38929
-0.45438
-0.43248
-0.32908
-0.24757
-0.1472
0.01764
0.1691
0.27433
0.27737
0.20073
0.029805
-0.15024
-0.36071
-0.46776
-0.45985
-0.3747
-0.20255
0.013382
0.20255
0.27068
0.19465
-0.04562
-0.033455
