0.0129409250577060
0.0825301882205145
0.229534237402927
0.370092751125017
0.401418660690888
0.357108380718620
0.343524836983208
0.374064551511714
0.384982139957703
0.356378695089390
0.328412720857285
0.330303085701435
0.348824260406497
0.351237189872624
0.305355727437170
0.180725679498522
-0.0599089525981194
-0.447285225066452
-0.919043255349032
-1.26427525658303
-1.28037291634909
-0.981314137766890
-0.559990720042099
-0.204067869805557
0.00513126259741919
0.101228094868461
0.169708714361607
0.247826046635825
0.304768184258421
0.311656343567400
0.282512719398487
0.245212266932812
0.210797138810392
0.179119450220241
0.150123794729785
0.120795907114674
0.0851129005308420
0.0435220972859249
0.00534017685129750
-0.0208596186985153
-0.0337128104587167
-0.0344229516595825
-0.0234278562359619
-0.00610923481761413
0.00556482776072305
0.00410864250441311
-0.00389025266111384
-0.00484613113118284
0.00692048201083061
0.0256669005212458
0.0424416491492987
0.0519193888610417
0.0547172087095519
0.0576981836903076
0.0680728394654253
0.0813947036147781
0.0781117949045057
0.0369865383058856
-0.0578699978247131
-0.232798711359324
-0.515991903798452
-0.865803046130213
-1.12451099034280
-1.11609773496242
-0.822825135635515
-0.427009875616222
-0.139693279927181
-0.0127505250750604
0.0446654771691800
0.107242930202948
0.159503145646087
0.163126855343861
0.126563497603458
0.0869143030908043
0.0612967902088080
0.0422073119344046
0.0253081137553885
0.0200155136373997
0.0342199810372930
0.0625618263522870
0.0938576951591952
0.121328109892001
0.135435711018491
0.106072478521255
-0.0122274823510614
-0.231245989718717
-0.476104941237446
-0.609338134238902
-0.540489274511596
-0.311284501046205
-0.0687379505028666
0.0394089337238349
-0.0324928438383552
-0.196507959962197
-0.306021219916608
-0.273596864039462
-0.124376534936917
0.0491064364471410
0.175411283627342
0.246058476801709
0.283042151288790
0.294091718896068
0.272211843166841
0.223291493688614
0.164076748058415
0.0896220011266067
-0.0188280407971310
-0.142995692922165
-0.217500179675961
-0.181588002042984
-0.0293916810270723
0.185528420258006
0.378244738313318
0.471309530836420
0.428547035193969
0.254408228149847
-0.0239896883709183
-0.336861675051549
-0.553946177102592
-0.554948851008151
-0.341536029681025
-0.0495317848030262
0.176208177189176
0.294119525146090
0.330517083499233
0.303834419424316
0.245812822628007
0.227393894315802
0.290864664123747
0.390764746526512
0.447831065143488
0.441543134035241
0.415572080669824
0.407098731747752
0.407609964208834
0.391078941050006
0.351818765588128
0.308896974038601
0.287531388851566
0.298591849578670
0.328747541672861
0.351185779437823
0.350592551077454
0.334812985674121
0.319609482773442
0.307003074766303
0.279381288773823
0.201394016284378
0.0197483747236556
-0.299667691241044
-0.688702967136633
-0.967509268489280
-0.983210594419267
-0.757543193864673
-0.464651377916578
-0.262787581612559
-0.177286587054723
-0.140898511380493
-0.0879047662671176
0.0121462504833551
0.160410914683213
0.324726271680746
0.446170670170317
0.483807545926950
0.452951047246597
0.399125393229145
0.340581501661010
0.258995784241481
0.146109359055863
0.0414742575324028
0.00852026787000376
0.0695724288391864
0.177020665370141
0.254697249524727
0.255515103564617
0.177743600879803
0.0438957815953289
-0.124788657720622
-0.315802809654543
-0.508146028830113
-0.648931439327761
-0.665596939744755
-0.522525126957303
-0.269594428549206
-0.0273450207499051
0.0923452450135976
0.0666719765477464
-0.0276733103599204
-0.0788897479669826
-0.0261555822738581
0.102042733830965
0.230435142976677
0.309088980049974
0.333814298339462
0.305326101976478
0.196708388468388
-0.0184890480972979
-0.306531149081038
-0.553149779662679
-0.625209671199091
-0.475017332655831
-0.187854725342453
0.0855729565998223
0.249716190597757
0.294202039290286
0.215621133014633
0.00147123745871095
-0.276960951798688
-0.451467353655766
-0.398380523264938
-0.160664613346852
0.103887643757075
0.283214893442837
0.370300208883420
0.368291692296590
0.246170420258377
0.0355625117906665
-0.127763674064271
-0.129933498035069
0.00300047045382830
0.156818165819537
0.259284445109452
0.315417832528320
0.336882311488755
0.294610274727812
0.162439560648076
-0.0238265694808744
-0.178475139307777
-0.229649421700871
-0.164228694962170
-0.0253715874061505
0.123190890677963
0.235354039464832
0.289754429848561
0.276070173892952
0.198110838425134
0.0865110324943731
-0.00833615664968014
-0.0446484659426132
-0.0178558761188780
0.0375122503227797
0.0811456771973136
0.101826549938923
0.107226757755825
0.0873968111315238
0.0169672844482912
-0.103201908415949
-0.225378998781179
-0.293741846087172
-0.302956183093134
-0.288873944549272
-0.261879289015106
-0.198690623846085
-0.114806344454257
-0.0858999015881710
-0.151255429663355
-0.247498958632090
-0.288907686189077
-0.259586869313916
-0.186942664205806
-0.0831533022935592
0.0472143399774434
0.174468709446619
0.248556359663698
0.238278000074675
0.166063150874829
0.102696334274197
0.116278777276534
0.216227451780398
0.347041574213264
0.438375991936136
0.459155829893041
0.420043010290343
0.330402272187131
0.170200562103762
-0.0855624769006491
-0.409857771905730
-0.693448604511848
-0.795965898025618
-0.649932549170683
-0.322080577922117
0.0226181709069325
0.226829853371503
0.222588719276008
0.0239536518382100
-0.297802987340403
-0.597631748619603
-0.701674188557757
-0.549975449466407
-0.258456025108959
0.00195390882928551
0.155006327947638
0.222099110622571
0.214975954164721
0.104238902584349
-0.0829385090537213
-0.216731548580922
-0.182613626963994
-0.00780899912711026
0.176796778664770
0.279171290209255
0.313764585840846
0.332828333557233
0.332758898059116
0.260408483275818
0.0878877985754917
-0.152546161098097
-0.389057400665927
-0.542630162119690
-0.556039358152510
-0.425612132986120
-0.221752691439707
-0.0521493832035694
0.0124131943831316
-0.0457566829590057
-0.222368421677936
-0.476176818129156
-0.696477735352278
-0.749070989982053
-0.585672738319868
-0.300123444265836
-0.0399144854392622
0.136841603474963
0.252160435106765
0.287257016866432
0.196927564842510
0.0386994636126407
-0.0334573666009819
0.0647309625816422
0.252720456459700
0.387175268630199
0.420225116916359
0.416157197988854
0.437511008430871
0.475270351834370
0.492740485766360
0.482177279702095
0.455684687798691
0.413153655683939
0.345984640625287
0.262761004980592
0.192479876426218
0.157886640130354
0.151013045936976
0.140287074147427
0.100626881603685
0.0324153777010050
-0.0491917143252153
-0.143386406164189
-0.279125974893599
-0.484881054690036
-0.728477325944137
-0.903388937288421
-0.901991193634624
-0.707248105347742
-0.407770086913634
-0.119902826214846
0.0980910938264141
0.244467142735964
0.318733767388121
0.316192795707818
0.268659568600580
0.241603686781392
0.271817791824641
0.330725444246942
0.364673011303646
0.356256883961273
0.332825537785925
0.325162948509563
0.334781891330034
0.342798439563433
0.335790022635021
0.313828308878827
0.281399801391087
0.240453525990880
0.192348795681615
0.142146730674889
0.0982826947702516
0.0677353346893469
0.0512920037486386
0.0428831136884413
0.0343475911017357
0.0219500715876629
0.00742070887166741
-0.00717756298801106
-0.0224043122130684
-0.0389245614397019
-0.0553826433452061
-0.0693983861526102
-0.0788593922808368
-0.0821584537528087
-0.0784283301512235
-0.0682134492292754
-0.0537971404472708
-0.0387655891280466
-0.0275866728541255
-0.0285120470359553
-0.0617029577550114
-0.158239774524030
-0.332720275766442
-0.549536146338564
-0.730622796849621
-0.812628509113723
-0.794326555367854
-0.731636502574409
-0.700704374132145
-0.743703500687198
-0.819958293838863
-0.828220965786929
-0.707357769949519
-0.509941852238640
-0.348425703936840
-0.269053642046046
-0.220248885791330
-0.148543907937183
-0.0655628556531467
-0.00278567296621497
0.0432253674884690
0.0924570905127885
0.144270547317872
0.184785219072852
0.212552394650051
0.236792911593633
0.259496852421317
0.271674042009375
0.259193657528360
0.208554475276909
0.125541114690471
0.0526468402126666
0.0429633864700309
0.105346145748840
0.194094967481981
0.264695549041539
0.319289826943200
0.375690386427068
0.407164109125018
0.348699613164789
0.177231167340708
-0.0384212360604379
-0.197004144451928
-0.263775538163596
-0.283005171475908
-0.301873347239630
-0.305008122922536
-0.230241137499111
-0.0600393855388086
0.124264513868794
0.221278656650904
0.214549744842053
0.164634197142053
0.134654310786497
0.153925639070495
0.227065730024543
0.342958154164772
0.469137213814932
0.556933329295974
0.571567596495788
0.513666378240578
0.406988594624028
0.284426017100339
0.191907211420326
0.178094204068440
0.255899284377314
0.377007969135113
0.464201083061422
0.477315925539735
0.434711110027914
0.367585934914427
0.269636547328351
0.105568377714678
-0.128742798423952
-0.370745954675057
-0.525782101476320
-0.526993770496671
-0.373794645917792
-0.134848729953036
0.0854477399880321
0.180171799486977
0.0739625923884208
-0.203550862644222
-0.487780797169588
-0.591323731296930
-0.454093776722133
-0.171009837160173
0.104388262793227
0.279587823629655
0.354978698881756
0.343477524521887
0.223718099538208
0.0182497873469045
-0.153292210696225
-0.167340143195696
-0.0165973766442379
0.193378420099390
0.348024276864197
0.408840177074796
0.407442391248708
0.372493600374845
0.284616820717914
0.113810630221179
-0.112847538887115
-0.294560616724012
-0.319216935392620
-0.156769527245383
0.107074546030592
0.337793183297199
0.448333871813579
0.424873221103125
0.285506487638203
0.0509471240629562
-0.227858084478202
-0.436392069780819
-0.456179362029414
-0.280701145262542
-0.0204002589528047
0.211437236055610
0.361318983684415
0.407293255482377
0.339565347917598
0.179987562673898
0.00280401868726267
-0.0914294125626513
-0.0530535751295496
0.0766396248169328
0.217981423651528
0.322697084252380
0.381385292352239
0.393704791952983
0.356220695723485
0.269998383914190
0.148521236474179
0.0228056008824135
-0.0626063480267855
-0.0725967075773580
-0.00830607491398198
0.0928853761568496
0.185676181410839
0.241048205272460
0.248193049359209
0.204697091859414
0.110919739623123
-0.0206765514976225
-0.150511516521967
-0.219963690244760
-0.189506053531195
-0.0739773234327835
0.0650898308210960
0.169305248514977
0.218136565819700
0.211426605552619
0.141661218709155
-0.00227745711360345
-0.219651391253916
-0.494494626781819
-0.778030976622182
-0.958430403052691
-0.903886026399387
-0.589884711998451
-0.165031009070584
0.155597613389865
0.263202747020394
0.193104056474588
0.0359419736126655
-0.116853713320487
-0.180610364009278
-0.118245316002139
0.0200541740238505
0.139518463062493
0.189511037614412
0.188882631480291
0.172770152563377
0.146309117546483
0.0964547262115670
0.0315850234336780
-0.00556603094571167
0.0255522497003461
0.113452686237059
0.194353011313660
0.211018622304357
0.168988780904863
0.124891900881536
0.114567944435060
0.103264266057744
0.0144797469631602
-0.191773988722240
-0.459825930649115
-0.658284650677068
-0.678900556409098
-0.521825028876430
-0.276632455824415
-0.0403266205421164
0.112691301094375
0.107944952431104
-0.0997696125076246
-0.435871297415442
-0.694772583426878
-0.695278143677782
-0.453219767894351
-0.147165016035918
0.0783706866954339
0.207019526538015
0.260835568101258
0.206487619261472
0.000951602389961193
-0.292916017342812
-0.503108950141438
-0.496266887650745
-0.298075769909921
-0.0448809480088287
0.149841139225249
0.251877387689340
0.264873873890311
0.191200033775910
0.0425841341355875
-0.141026202981026
-0.296443214945667
-0.359988075731124
-0.302234082261747
-0.154054956158058
0.0158897311575514
0.157073655311666
0.258274284464288
0.318372499226179
0.326020990751073
0.279296399056250
0.191064537220031
0.0600997802981945
-0.117663787620968
-0.293351466627920
-0.370657778047961
-0.294718696909298
-0.111067633914040
0.0741124725458314
0.178512126785574
0.192073430417263
0.148090373201866
0.0677341900836253
-0.0315929555545503
-0.108845200311793
-0.140523902765760
-0.155683574309682
-0.180892139270435
-0.186198994780980
-0.126188209679234
-0.0110981050765199
0.0891123658401175
0.101689677651240
0.00406617360711776
-0.161614821715463
-0.311306510934993
-0.372251338319571
-0.334219642781319
-0.249255860009745
-0.175917535199455
-0.124971127567827
-0.0697610489695790
-0.00659369673830995
0.0243136883492674
-0.0109023735674746
-0.0898129887062257
-0.144864298708003
-0.119262640497939
-0.0131249905117917
0.119990207752803
0.220682312679963
0.270762497317349
0.295530401685261
0.320242093307034
0.326046692902459
0.250793035929477
0.0400744191005447
-0.285972560064885
-0.606464406640944
-0.760109871246008
-0.663205464939117
-0.380995413734904
-0.0864077820501599
0.0614004361663573
0.0235099743817926
-0.115160215312253
-0.231415739480745
-0.244622622957788
-0.142735108368037
0.0266489461073871
0.182974048869937
0.265504212602857
0.279023549301740
0.271700502059443
0.270527047405158
0.259542287960475
0.217135475412664
0.153742844926889
0.106075051611764
0.102622055689144
0.139956756907432
0.188869740865466
0.221812228471904
0.237214250221774
0.254307703190401
0.275466508335302
0.252918802764856
0.108425286870187
-0.188358809269068
-0.548977430918703
-0.792332968332293
-0.772546334353886
-0.503130800438999
-0.156898956511511
0.0729335708183256
0.108300017543223
-0.0100449704843397
-0.186758545202765
-0.306854156735185
-0.276381495064578
-0.0937929329055925
0.136602734548081
0.299451127308204
0.365839208398606
0.378985628066434
0.375438579213268
0.356542400522026
0.318385061058990
0.270337382206279
0.222313260202403
0.178779162225340
0.151660882667363
0.161207294883047
0.213391721161297
0.285546136166769
0.344222650495116
0.372907834972726
0.373138936842463
0.341919355246398
0.251618308430851
0.0492736273461805
-0.288490102784862
-0.662904125219064
-0.874825330425149
-0.811316096472577
-0.577651384088855
-0.383281710568435
-0.313336494572605
-0.277886020546651
-0.181374110648174
-0.0493142013935176
0.0437007322062500
0.0944731271238302
0.161195569067940
0.264266207315348
0.354824123132877
0.383326115367815
0.359361809390731
0.333057904296697
0.340481080445181
0.377096311241014
0.410961120337672
0.412460358229676
0.377298041627676
0.326020258335154
0.281841397242577
0.253492848138256
0.239582767709175
0.238360208410194
0.246425096054256
0.254970056558942
0.255603516653357
0.248538471381237
0.240084850651319
0.233139569897075
0.224748716416779
0.211814084572340
0.194385861590746
0.173690578147096
0.149801207712524
0.120271675852883
0.0797164130897954
0.0242896709655547
-0.0386845906196331
-0.0855798054834927
-0.0884421340383829
-0.0443731163797847
0.00381379676613475
-0.0115554563905328
-0.133753117043584
-0.361198202434226
-0.662739481069909
-0.969510161654791
-1.15992319581913
-1.12445821746876
-0.873904096671513
-0.549187791248737
-0.300112483657871
-0.166745268039738
-0.0926921401960703
-0.0273942417953386
0.0246706394261721
0.0456888028453737
0.0495954347533515
0.0682725595366950
0.110252565009240
0.151011826823509
0.164881259043568
0.156273626525652
0.154728515563706
0.183363918640229
0.237166694848786
0.293176226331598
0.336103463332052
0.367036175856559
0.389454856196927
0.399186098815376
0.396326559460590
0.395354769046576
0.404387109537531
0.396416714621456
0.324153041302897
0.178579925915390
0.0165699425273328
-0.0956705438972508
-0.157359283991270
-0.226208346038015
-0.342527300955932
-0.478253282514939
-0.562931661745490
-0.550745243672330
-0.452539209419091
-0.308080230539780
-0.146603745278041
0.0171167360843083
0.164713026021990
0.276358646950922
0.349013270804621
0.394534118719427
0.420296720917105
0.423944040189255
0.407479362687803
0.386664062327149
0.380366583068435
0.392356736170977
0.408106839925304
0.410864496075227
0.397503842520262
0.377054370941756
0.358967772215127
0.347593409074663
0.343677395566353
0.342944764628840
0.330727219646616
0.276429719973355
0.133776895033022
-0.129131522628763
-0.467695344774903
-0.742209033352095
-0.807855270341329
-0.642006893165512
-0.373784319980573
-0.183762254356079
-0.168753583534698
-0.282980451115844
-0.390308224350549
-0.378182231699322
-0.241595260285647
-0.0688084412219774
0.0516966376033163
0.105112638616425
0.133413472306956
0.166954649273969
0.192711446483343
0.180161965972811
0.122767722667676
0.0550864779586334
0.0264544388482723
0.0499718590283201
0.0851893818846097
0.0875261717497980
0.0677794665923594
0.0713500280548374
0.101027249206167
0.108798535658543
0.0741456922425880
0.0363577005180408
0.0270726693035499
0.0225459642939459
-0.00622971755709444
-0.0347703861215182
-0.00906207018490076
0.0814621656465227
0.173618861366690
0.183019632212624
0.0822723009955211
-0.0831167973425219
-0.257533526700870
-0.437596933521036
-0.638755566515204
-0.802669852637474
-0.808610854864362
-0.617680956925869
-0.349042196045902
-0.170832623560269
-0.154631482416122
-0.249750357525720
-0.349289358048397
-0.364717535434703
-0.273206754685890
-0.116606267449999
0.0449988527983705
0.177251659495011
0.273958464216220
0.330805736575679
0.330724228270062
0.263997498717711
0.161021102684494
0.0893253093317067
0.102215387206043
0.189056833981625
0.289013573181831
0.358537561716372
0.404566814152130
0.442763572896732
0.452812979865720
0.393925907139872
0.253936281335724
0.0726809524978438
-0.0870010137851478
-0.186419274088672
-0.224491227847323
-0.210991327676349
-0.137950833208055
0.00402995528697885
0.177340067588641
0.291545421165085
0.260652248410968
0.0561078359965911
-0.280334665837108
-0.631087414219421
-0.824073136424743
-0.737649142614779
-0.421652562755194
-0.0789020686460007
0.117711729614819
0.164797363327289
0.145381434003737
0.0888365190590501
0.000536978050550615
-0.0579686120789790
-0.0250112411749269
0.0678262180672815
0.132004569214136
0.134161904259252
0.119052090127624
0.129248541668432
0.154305531266268
0.166587683801917
0.165669732055411
0.169311387126908
0.183428762679673
0.198666624833920
0.208061454041946
0.213986108287531
0.215338146381700
0.195181293054018
0.131707281064171
0.0292317232614716
-0.0623335224891243
-0.0685443060725218
0.0473487899354901
0.222888510273525
0.308611685392846
0.172519904311392
-0.195411458048561
-0.675946357948078
-1.09799650760368
-1.32526223600795
-1.30237260692005
-1.06246766951071
-0.714846858316760
-0.396258420967006
-0.190652973409394
-0.0921574031814112
-0.0479345493605699
-0.0200953373366424
-0.00317454454368189
-0.00404813015353625
-0.0222826928795314
-0.0444911881565026
-0.0494429870484401
-0.0208102221658267
0.0415325973628063
0.121169716279564
0.195944298061079
0.253194141282049
0.297699540771471
0.342014958905510
0.388129485410673
0.422945243790384
0.432011698738359
0.413709364979857
0.379094098712891
0.340488792996019
0.301759479196432
0.254469322818384
0.180252666940201
0.0649270926761565
-0.0960227579196684
-0.311830149256362
-0.578318696429344
-0.826739245865001
-0.939279807351622
-0.856460070369647
-0.651061280912429
-0.458974688558868
-0.345435747090721
-0.274355916369475
-0.195263165726507
-0.108058977803920
-0.0331100621044407
0.0329852499980531
0.101551693504282
0.160204647831954
0.185162765522612
0.173915182595124
0.149018077779195
0.135300415614503
0.144549593042553
0.178034555534509
0.231158962899377
0.292328600669345
0.344170106808148
0.372991212945807
0.378389589332850
0.371145312970187
0.361792589875183
0.353118475168052
0.341271048434802
0.318755634395716
0.276318175313598
0.208465607023381
0.124074050851167
0.0527310167703966
0.0361369729090755
0.102838583309822
0.225414070797321
0.292276536834738
0.163845145221127
-0.203287974865901
-0.690136941247738
-1.08683092978492
-1.24443038609309
-1.16313848831916
-0.940854305308356
-0.673068560034968
-0.419847236436324
-0.221458733303006
-0.0933870883608146
-0.0117186867605334
0.0628994568815869
0.141084900548908
0.201237722696049
0.228631390326177
0.240009778253614
0.265620798056093
0.316037519877284
0.369580247793907
0.387488085381760
0.341628820628382
0.238607437607399
0.119878235444759
0.0260356173557420
-0.0391541434427793
-0.0943109555681282
-0.129545762488467
-0.0911080245983331
0.0631229214450289
0.295197630770954
0.491418220863018
0.541893420343409
0.415873488922274
0.177243164304929
-0.0534436731817365
-0.166099923363326
-0.125424260557945
0.00877307572801521
0.130732801554435
0.181807378987549
0.193431125791517
0.220768123723505
0.258828657346519
0.260794644017503
0.217793798209362
0.173376077988030
0.159337936740122
0.152741724154608
0.107039628381978
0.0127836650575293
-0.0801329993271478
-0.104940061065018
-0.0415827019388139
0.0632010398621277
0.134334826903899
0.129365269856486
0.0703183365623128
0.0201631197184953
0.0238740277906713
0.0692969097165436
0.108770447095881
0.115740805920788
0.111112382017239
0.130847235253677
0.177375327577830
0.215150412369972
0.210447337044003
0.164591779187193
0.107039703906924
0.0648814382788143
0.0464064173772872
0.0483975437614691
0.0671950590093768
0.100082752524253
0.142063589477240
0.185481851979461
0.222974901422878
0.250476480403118
0.267194107598731
0.273007361067964
0.267550031392542
0.253241581857661
0.237333059439277
0.227753631939999
0.226714508536075
0.223501599651764
0.187578542286026
0.0819917693373305
-0.106056289891404
-0.354549883122240
-0.612722945784998
-0.807651992124060
-0.873633629508391
-0.800019198167112
-0.647275624963889
-0.498804085158927
-0.392663597007856
-0.316330034299063
-0.252630315834588
-0.194253701579450
-0.127760793766849
-0.0439203551737922
0.0382540846072263
0.0882510752709196
0.107442299911753
0.128665378638923
0.164824756043544
0.180754845657354
0.133798941555295
0.0347158471635080
-0.0532559062846566
-0.0815840059085653
-0.0691432549970461
-0.0782672765021999
-0.136931865157398
-0.199221421433351
-0.200227738602584
-0.133376105150340
-0.0530116088827766
-0.0175818476040939
-0.0466057042579133
-0.117321592509255
-0.181310371981042
-0.187670158994440
-0.114470274010528
0.0132051184068683
0.142690800398126
0.226732958421805
0.236694265727399
0.162837599532039
0.0304249302900213
-0.0847850428380705
-0.0989980378371093
0.000512325889335846
0.141858564981974
0.255142587089616
0.348615542683756
0.455772977188661
0.539129058931886
0.514169610704664
0.349812072813891
0.0967551060865721
-0.168131244881749
-0.390235926655483
-0.529321754328176
-0.537143064063671
-0.388435588624501
-0.141331345534457
0.0756548605882798
0.164244599152248
0.130887604444633
0.0582785023617330
0.0228926515098631
0.0461089235838720
0.107831249419937
0.181217363607473
0.244556146895079
0.281398467802188
0.289365114356419
0.280720079536830
0.265880894721153
0.244754736464411
0.217039419113427
0.191031979494173
0.177500712877841
0.179604945790775
0.192483147387887
0.210335305590065
0.229965788622291
0.248251186474688
0.260315492544194
0.262263334016784
0.254649046871415
0.236878442405740
0.193508810680217
0.0973450626379842
-0.0670691651667168
-0.290940214071937
-0.538987837639339
-0.742914395847664
-0.819377463009541
-0.728577594545130
-0.526786799384026
-0.343749858073459
-0.278646564837142
-0.319089041753301
-0.376315810165389
-0.377893702847972
-0.308944444595306
-0.194050426469252
-0.0716671930345615
0.0225727460705279
0.0748403690758889
0.101546058299948
0.128752544859932
0.164949772657031
0.200780829596671
0.227812890243794
0.244833322279116
0.248941305883126
0.234149552423303
0.200779021579412
0.158546496631085
0.118774180752165
0.0872299585893104
0.0649172459916277
0.0518813473523984
0.0479532423893177
0.0529165747196478
0.0683272004610973
0.0959268517304597
0.132681244375496
0.170073511684490
0.198686109241621
0.212566227743797
0.210500947894364
0.195132534982211
0.171928985743584
0.147788339016105
0.128050588902328
0.113486559767037
0.0997701045196644
0.0804262159631529
0.0518777134968787
0.0160102666454661
-0.0224742809041973
-0.0600506573722325
-0.0950157212901191
-0.126260361145300
-0.153320227821755
-0.176380742838575
-0.194894498129054
-0.207198378837038
-0.212561729193366
-0.212964500230028
-0.211890291730338
-0.211273125444983
-0.210157374067123
-0.206591416998372
-0.199455639865226
-0.188557399910397
-0.176253190056705
-0.169611816423109
-0.177337712558414
-0.202082413219036
-0.236420976292988
-0.267490927690852
-0.285889452364764
-0.290253314587257
-0.284438843957286
-0.272794939188420
-0.259001889743110
-0.246588406896177
-0.237355242253356
-0.229660063533593
-0.220147350869128
-0.206774106250762
-0.188984741896321
-0.165241442824666
-0.130171000658767
-0.0750486048244020
-0.00380066612310839
0.0358947219686865
-0.0497912018976972
-0.332858049488407
-0.756945333242672
-1.10685841045060
-1.15271215280022
-0.868259318539133
-0.470178306243582
-0.208539660499646
-0.147003435922205
-0.170970670731905
-0.161617681024686
-0.105659229677761
-0.0558990142616496
-0.0435983357705721
-0.0522257404079075
-0.0558620052886334
-0.0533132739969738
-0.0575846914465494
-0.0665841942159200
-0.0580990631220973
-0.0181389855703823
0.0356281677517473
0.0763900657464607
0.104675683158096
0.136586827548584
0.164873573151830
0.159337742427573
0.111891953336268
0.0665818296667214
0.0830397897940669
0.165960356165748
0.250224217457004
0.269388145624017
0.223915716837435
0.158024822010836
0.0915939113076493
0.0213310845776513
-0.0309430418681232
-0.0238232426489496
0.0518974122842795
0.157315320877799
0.251816920003869
0.332449642329872
0.400888905563308
0.418131691358990
0.343899747395745
0.216495669171848
0.137967475745952
0.166047305996015
0.261618648678436
0.351013762028354
0.404332024379266
0.438583664931544
0.470451606101194
0.493676988116788
0.496353661293939
0.479764999404771
0.458481241359907
0.448369124676471
0.453756026506384
0.465306980938249
0.470993945688420
0.467027049387114
0.456782301498880
0.443055369887864
0.425066707580265
0.400764155384491
0.369539835893582
0.332837115822870
0.292055515083654
0.247785065142097
0.202550806402566
0.160600609012549
0.123677455973364
0.0916420607142036
0.0658534088716472
0.0450539288272075
0.0205767115826017
-0.0176440892227655
-0.0737124128577902
-0.154088333665077
-0.279482541921255
-0.462066764776600
-0.659802062112965
-0.781456346806210
-0.760209684644873
-0.613156153161661
-0.416299551900788
-0.235303618206841
-0.0958879687723921
0.00166149470964565
0.0720493413888482
0.142728628017144
0.235375571288382
0.342151659476518
0.430085783031141
0.472706177587724
0.469797867702099
0.434083440006146
0.372042443159298
0.286609288727597
0.186496401432464
0.0838221248440857
-0.00617105197105334
-0.0552629885109509
-0.0292731040533380
0.0685910653698720
0.170537864309509
0.197946016555002
0.141150522754247
0.0517091864371228
-0.0388541828763809
-0.143637860803361
-0.259806478461428
-0.341224506691109
-0.347056259034749
-0.278602726582206
-0.158760889246956
-0.00826139614829845
0.136777947097239
0.217411374945000
0.204533971230376
0.142763683792313
0.0995524237615101
0.0739542185123385
0.000885729668648862
-0.144156585512851
-0.288451690525678
-0.328831261139464
-0.228998631085706
-0.0410396840726930
0.147785154136234
0.273003634239163
0.312928652697958
0.282702026939448
0.220146020823788
0.168737460458944
0.160561718268392
0.200222111195636
0.263089615299652
0.317888761114208
0.348510750254088
0.351028293502363
0.324315216108059
0.275480534345974
0.224340104128799
0.188945821429752
0.169016295608069
0.151833859620090
0.131442656278732
0.113684231433457
0.104675220584249
0.101888459340747
0.0967197067625739
0.0828183570143679
0.0610373741569079
0.0359887704449455
0.0101570461878731
-0.0158783127953683
-0.0399815881002437
-0.0590127844206179
-0.0731137402628940
-0.0877473334443552
-0.108554844232318
-0.132450247625683
-0.148175409750883
-0.150227781591309
-0.149000816185519
-0.164060194633830
-0.207313860951189
-0.269781306700357
-0.325931037057391
-0.360759374020122
-0.398068408405079
-0.489416760903751
-0.656477228797577
-0.851222941435438
-0.994760247643016
-1.04407123601453
-0.997538431977379
-0.862535963200548
-0.661398855918951
-0.458036910950806
-0.333671914409124
-0.315141441587858
-0.343102480946277
-0.334847282588199
-0.270658988306547
-0.195296086551533
-0.149685312919197
-0.134953011188762
-0.137755264368368
-0.157425462236066
-0.195314579348627
-0.233952475535562
-0.243860440805722
-0.209932760017099
-0.144421090318724
-0.0756732308846990
-0.0306184422555040
-0.0248548575154770
-0.0568076513959152
-0.108192593178453
-0.152680618927949
-0.163110831388720
-0.121978297378845
-0.0391244532091215
0.0488702517046452
0.106162060002287
0.121809085244013
0.108025619446257
0.0775240765608286
0.0310637277874785
-0.0225473544881758
-0.0494524397418614
-0.0155206901082303
0.0742207318089897
0.174822903191442
0.245835456059720
0.282981984327206
0.288373219988911
0.227183827577226
0.0616549626086147
-0.168035540220865
-0.349783948176579
-0.395959006806719
-0.300765414136384
-0.118475259391733
0.0782981548972394
0.225845615277162
0.280780469544007
0.220894413482883
0.0561781266442297
-0.152242999276908
-0.308090176958311
-0.337640434294046
-0.237506306662213
-0.0661809445477730
0.107719721229905
0.244462284457951
0.332608516314429
0.371871841548934
0.367384676237349
0.327562145075588
0.249575353949962
0.119613947963247
-0.0531435584377579
-0.209644813285015
-0.261742325022570
-0.156770483460828
0.0629471026582326
0.281040732823320
0.403188141902522
0.416582075794196
0.360894534574159
0.271047747834793
0.156718114971778
0.0333078333989208
-0.0483493453129627
-0.0356509647414502
0.0671586369527697
0.202164632496857
0.315880828490718
0.393505173108779
0.443030398886933
0.470205666181319
0.476076414420629
0.465428674211143
0.445976634703605
0.422219756059275
0.395451164619972
0.367392431896269
0.340180561045949
0.313357244355071
0.282828733139843
0.244155958021131
0.198516675211219
0.154845827220868
0.122503896713281
0.101191923525637
0.0800881209343853
0.0442777420129871
-0.0208143537484766
-0.130336276214280
-0.300722178824049
-0.529473975685865
-0.757347186455436
-0.874849544063504
-0.810687356275262
-0.622876706414990
-0.467084459640900
-0.449059636780908
-0.526579770718609
-0.575544926697295
-0.528844275277961
-0.421724790081259
-0.319285932870094
-0.240906512534848
-0.165504762520189
-0.0802479439506759
0.00524276612423740
0.0815501316664327
0.148142176422626
0.199354070454758
0.221764233054459
0.212382755365316
0.189097607485840
0.176140360237596
0.183457891720812
0.203255099727819
0.222347036493467
0.234968513142612
0.242399440353252
0.235707496301144
0.182526229522946
0.0479499884570467
-0.157998177077436
-0.356127726380596
-0.434759074540939
-0.331866243678093
-0.100696041874580
0.112335074370749
0.177318675890272
0.0750220431800719
-0.111094184488494
-0.272339653981357
-0.338988449568384
-0.300672397897055
-0.195030279061347
-0.0748601200828086
0.0280215967953722
0.111725068078261
0.182105745539113
0.233396133540308
0.256027266424126
0.253535202293806
0.241350405138002
0.232117207403368
0.229145176235491
0.231897763093684
0.240791440434015
0.254828366608286
0.268355254653873
0.273735041864260
0.267195398757985
0.250688538172288
0.228960443163503
0.205669011247171
0.178399165166106
0.132768863553479
0.0468132377077107
-0.0866419746409679
-0.240211215425716
-0.366110625143954
-0.438053601591032
-0.469421370754338
-0.478731893673449
-0.450232803917638
-0.352617788979766
-0.197037470366131
-0.0504736803310340
0.0254214133048653
0.0342027143144568
0.0288047417335198
0.0532487399051444
0.116028907598514
0.200288715504370
0.278166790197925
0.324027255078589
0.329698605579672
0.309017763082788
0.282628994415681
0.259484713820365
0.236921330114267
0.212902351328096
0.190674262505934
0.174596322467135
0.167361061674846
0.169495025048613
0.177339108714543
0.183938333071000
0.185799961041994
0.185794843731486
0.186800410957245
0.187599950864851
0.188135409195899
0.190411389856197
0.182850779213805
0.128785816245271
-0.00587448740645751
-0.196852427285705
-0.347684501003007
-0.366467824647290
-0.263642225239486
-0.145689025745425
-0.108472185073527
-0.161922284817371
-0.262467655868873
-0.384570193642536
-0.514321314281795
-0.584082412926986
-0.491107521603340
-0.220573348151775
0.0954799869285695
0.293865963544615
0.336010314925084
0.307388752140825
0.290991977241661
0.296627686703721
0.301161833096942
0.298927274700750
0.295077260056499
0.284141985160403
0.258653764789128
0.226333139529103
0.204644224955115
0.203141250975063
0.218144377321132
0.239889429563541
0.259659544908500
0.273460434628399
0.281609870268511
0.284626489254080
0.279507146859781
0.254674817457013
0.185530095824856
0.0450160093663191
-0.168134711958236
-0.402772123002691
-0.559282088872582
-0.547426923001336
-0.369459898216363
-0.139244613130824
0.000848535033183761
-0.0156403837193200
-0.149161579140888
-0.302599282234762
-0.387724336385410
-0.365163983484155
-0.254055714948625
-0.116870981960434
-0.0182818735728794
0.0216959273809452
0.0326262173562228
0.0497431546167913
0.0796509245083924
0.112459699355202
0.146143206294720
0.183306842596493
0.213682754789512
0.213733952487429
0.162849132131331
0.0578195614572938
-0.0748792882294309
-0.172202581475160
-0.162543120773750
-0.0217079231508590
0.199248302112726
0.398097003653330
0.480973724877597
0.418366056251044
0.246439346382213
0.0210778833705999
-0.214391418521679
-0.415522515013799
-0.514883347803170
-0.462932771540408
-0.301374590838063
-0.151722938504691
-0.110153372108234
-0.169162353565068
-0.257769169709052
-0.333116729940991
-0.388880164149051
-0.404547134202814
-0.352679637047901
-0.249168918399836
-0.145686013934594
-0.0697346685170653
-0.00995500987488189
0.0403909557503081
0.0632054605396418
0.0506872419460971
0.0366226197093187
0.0651992072208498
0.134119607484471
0.195812119390402
0.215251094391828
0.202992649034669
0.188406220514920
0.183304993165591
0.183799385108747
0.192114743425200
0.217732004032329
0.259557952609685
0.299867490624180
0.315902411747574
0.289352829234898
0.210701127430430
0.0923368247267796
-0.0165294017374692
-0.0445592101681502
0.0412824838237221
0.176244205940765
0.218680176250486
0.0598889198196384
-0.268063971823693
-0.599439569808178
-0.770038797233233
-0.750620328284326
-0.639218358014307
-0.536048158916210
-0.459894604881919
-0.381585565407937
-0.295911258442302
-0.236845135099733
-0.226130981670115
-0.235006993763554
-0.217549663143678
-0.162209891454638
-0.0922490347944777
-0.0308769462161864
0.0153473772875900
0.0476792415801492
0.0711162885684665
0.0974676010386750
0.135321501343160
0.176451853695140
0.203521446045234
0.210237032915259
0.205428585118385
0.199229556758852
0.191962702302978
0.174326542603310
0.133778538363802
0.0656369356210946
-0.0127340187819466
-0.0571180680108646
-0.0173502803268221
0.113820768695718
0.261985427299879
0.300981578199201
0.146594475308407
-0.163427323943201
-0.477884270758541
-0.637892208266488
-0.593055869714952
-0.423967866727674
-0.262182168154831
-0.183038731046327
-0.161821610722971
-0.132648492389926
-0.0800828242007645
-0.0481082626669892
-0.0638100713666456
-0.0910023454527147
-0.0753152199186562
-0.00855713167134573
0.0728641752190049
0.135155205932138
0.171333143453628
0.190828192640390
0.204112345059075
0.216517762068244
0.229790572035113
0.244502293094855
0.258063359330323
0.265322095049147
0.265717660503036
0.265102963455259
0.266789762051101
0.265051558390290
0.250783840419634
0.221830058836152
0.186048188119631
0.152871336452376
0.119337835338802
0.0618313016045656
-0.0584263592507304
-0.263920005062628
-0.508128484022751
-0.661833902418668
-0.591647610412473
-0.285814144019226
0.101031662073883
0.359594572085673
0.380859281487251
0.188629127364844
-0.132320763219883
-0.478552175329783
-0.711010412753502
-0.688673231371528
-0.398953100238869
-0.0210930895733183
0.222139282306693
0.267034151736246
0.211715150541985
0.156251335405618
0.113734399863247
0.0612297288852233
0.00448652218527809
-0.0311092935181101
-0.0376797839017166
-0.0254652156296400
-0.000504086599014002
0.0365904661426555
0.0757521134165750
0.100488202005602
0.107469651394549
0.113022637102449
0.136709030964843
0.180156850517261
0.223092298431472
0.240122385839791
0.220161284220894
0.170269308934585
0.106906861655078
0.0489683000129721
0.0167445667349138
0.0283799476710577
0.0836243961952543
0.144633136469325
0.149235355169566
0.0684068607363065
-0.0477762338583729
-0.104878934151680
-0.0633460334889097
0.00162958227560701
-0.0407740152748534
-0.245190438338994
-0.518926699183894
-0.689254159941573
-0.650861842789779
-0.447244930180775
-0.206885830460284
-0.0250018517974198
0.0789687521313819
0.127125229942584
0.148431661187003
0.168054645188479
0.198725709502690
0.232568442112624
0.250585606372524
0.246191792978448
0.234652065406525
0.235863020790905
0.254551370076865
0.281384320784023
0.305835863820330
0.322102922647601
0.328205392415879
0.325776788472844
0.319147018553308
0.311635166999577
0.303252699335398
0.292835113479267
0.280795975792989
0.267932885038014
0.252122858862583
0.225045982645029
0.166819191541294
0.0433194258431841
-0.173613029188503
-0.453523033925617
-0.672230805965521
-0.673257441107477
-0.413934222572185
-0.0456453079871400
0.202225420057278
0.218353384045851
0.0489052067181100
-0.211519458188385
-0.476212890695339
-0.634345124588693
-0.576090660448870
-0.305086283642175
0.0228228627487715
0.230345429991317
0.274637948075623
0.234731022576833
0.176544786597031
0.0979612701874537
-0.00655603877469337
-0.0967881527033368
-0.121802456642431
-0.0747184643462338
0.00588226374813556
0.0792852726002231
0.133359416131800
0.176922246349654
0.217717594415455
0.254569222256442
0.284088050834356
0.304746292153246
0.311365820299536
0.290619006498046
0.227123179288665
0.118477174339514
-0.00730661873459109
-0.0872457352354540
-0.0559370103734081
0.0917830375018895
0.275656375794151
0.390429182783615
0.385556105325508
0.268282526415955
0.0549661064781276
-0.233088284017224
-0.524477904266864
-0.696375342577913
-0.665596149413183
-0.480548161965758
-0.278383547322232
-0.145170336981474
-0.0648317050797815
0.00150348823068355
0.0511396735548295
0.0705717287723094
0.0809946070170713
0.113335065069876
0.157415407844323
0.172418320801217
0.140456012481925
0.0842828460636216
0.0357818256422065
0.00731248317381903
-0.00321197421471685
0.00342551995433008
0.0269429705500748
0.0594948267741765
0.0893073116196382
0.110218634812858
0.122763140737996
0.129065009038211
0.130744737239223
0.129767976878516
0.127793937183108
0.124756665659951
0.119902782692729
0.114172217115862
0.109848034315210
0.107493418119749
0.104771638866125
0.0990048330556649
0.0898116799400190
0.0786373691646758
0.0669146870544071
0.0555790701144210
0.0452993550887362
0.0360249455050308
0.0267120215184698
0.0164632781104773
0.00645540167145773
-0.00313084489998953
-0.0255185447051338
-0.0896950002607477
-0.208571620979450
-0.342123381524375
-0.417155837380481
-0.400499380935605
-0.339897200396968
-0.315141756752782
-0.358580684614650
-0.440792244338449
-0.516500565448358
-0.554564254794145
-0.534820950290716
-0.452427104218496
-0.333866130802145
-0.226714076463427
-0.159797002782632
-0.121804723479229
-0.0840201723591644
-0.0352180318945532
0.0103044369959284
0.0339167502355867
0.0348271935032145
0.0285049886333609
0.0278705787394129
0.0323067743694600
0.0341815276674354
0.0300284565811264
0.0215761776436947
0.00831542343344258
-0.0146380138063758
-0.0493738188519649
-0.0893274813949146
-0.121705782087452
-0.131404946372210
-0.104851830346604
-0.0486828098758263
-0.00680308111128329
-0.0294924740003197
-0.117399695328882
-0.215152196842542
-0.260019764317733
-0.227042360326834
-0.135401485151140
-0.0313350213997246
0.0365245306632075
0.0554336019615429
0.0643185782246066
0.107333322018073
0.180106696089171
0.236106592702437
0.235178581018687
0.178961184167790
0.108109286464106
0.0757194587481330
0.116302085289379
0.221889983333888
0.347131468241150
0.448349286925742
0.513083706109960
0.543925170710537
0.527395904876400
0.436115476181762
0.261001793584357
0.0369843288886316
-0.158947407723665
-0.237050102930777
-0.145677747961625
0.0792349786432297
0.314030629676735
0.420059213627275
0.340101496544333
0.130162062350714
-0.108121073713661
-0.317088339904747
-0.485152026342278
-0.583299332516687
-0.552034769894354
-0.359998345679300
-0.0665378389887051
0.189124174377632
0.294430018578585
0.237590950246549
0.0577432728805518
-0.204412140787917
-0.473723333089841
-0.627735057306951
-0.572177377326478
-0.326610885376907
-0.0142448611513055
0.234446640376760
0.361132284873901
0.374003646277992
0.291626221070255
0.130585576130190
-0.0548858875726310
-0.173229154703787
-0.159430195539357
-0.0250474914131287
0.160788211313778
0.323822539827046
0.410750837571019
0.394261744714740
0.286908831667939
0.141702345359199
0.0107563041795444
-0.0892719922843267
-0.150098032693304
-0.138327830708784
-0.0260445086748060
0.156586109879814
0.326042846082675
0.406756233308427
0.377157098165382
0.261892951699582
0.103332097165295
-0.0599670276401939
-0.203602329737507
-0.305324490833741
-0.327497789948816
-0.234691652666005
-0.0431570661003186
0.159513758699475
0.270869173609106
0.254398995856153
0.150538874578023
0.0140785928517140
-0.137971762124696
-0.306271970820312
-0.451167055120786
-0.486774306448112
-0.346647404364018
-0.0521421667076163
0.273547469179645
0.469959985875091
0.458049489828639
0.292365612692648
0.0740882435289259
-0.152150530902169
-0.376507223902806
-0.538819360202178
-0.540251785724871
-0.354904539781213
-0.0812485966247303
0.141759970166060
0.243359895292377
0.231919435913988
0.136937170955366
-0.0117912024822617
-0.165546507635431
-0.265601949404073
-0.274923482851502
-0.188842580123502
-0.0246275848151019
0.177259097287868
0.346783693358520
0.416930577597101
0.373022807949180
0.255075776309915
0.117215932246030
-0.00774854263984669
-0.108743426238735
-0.170639965699847
-0.163019157194146
-0.0656654686162390
0.0916793498956161
0.226918665915372
0.267901644941669
0.212692981825633
0.108345736850645
-0.00643547005571734
-0.108543468822598
-0.167482938914745
-0.156554622284517
-0.0818529023655125
0.0275580935199114
0.153078470165239
0.281570502336852
0.372976856091266
0.372665360752533
0.263225652606011
0.0757510625140713
-0.152224159457233
-0.397784130115882
-0.618877915660392
-0.730851816130149
-0.649972443449267
-0.369615543383123
0.00598365318512295
0.314611319003910
0.438022338662001
0.360861724963465
0.142510667104998
-0.151617234963607
-0.465619654271009
-0.704686717361285
-0.740064099589737
-0.513495250759023
-0.123229392295356
0.227989932084767
0.397728202500026
0.396961728505252
0.304610103156913
0.165931350905410
0.0133792413798422
-0.0941943480564407
-0.109269760629253
-0.0436334722915107
0.0534980992173106
0.153560089182936
0.255775200039178
0.346326642076192
0.386460625133754
0.345385696493556
0.230601631727629
0.0827114608976731
-0.0583728914402724
-0.172801094633631
-0.244927406372793
-0.252161748687121
-0.183081289833835
-0.0556105443426423
0.0864063320983015
0.189552236864310
0.212896650102032
0.153617271168186
0.0519108251859275
-0.0465373989977781
-0.130536939289627
-0.208039562768011
-0.258166265539498
-0.226059508348523
-0.0764065928911959
0.154591008127654
0.361354010471802
0.431102039043188
0.332271386351681
0.140597507226482
-0.0509156222901466
-0.222298716520102
-0.382835024731920
-0.484074791530424
-0.446656293094730
-0.253225239838687
0.0210127347273481
0.259861151768952
0.383282310560281
0.370764317145279
0.227006181791879
-0.0213706883652969
-0.297298772647350
-0.491045582620397
-0.523777655844279
-0.396261451845593
-0.176528825768725
0.0526638536197902
0.224478630535106
0.300149796900476
0.284064298958542
0.215557675102727
0.140856891501933
0.0968318766664198
0.105901758168435
0.168518419836600
0.257262141962056
0.327973499557303
0.350218372323597
0.331118123911436
0.303457246818390
0.289388745167326
0.282231425710146
0.262615174397223
0.222453940446688
0.169873632621089
0.118519826906299
0.0785719348200640
0.0548903648866805
0.0470949263449759
0.0508265620337734
0.0616966420261951
0.0759880175392466
0.0856588581729564
0.0792618578467994
0.0552651213433703
0.0320936477527542
0.0400968866554128
0.104753066452882
0.231380966505204
0.382462505562082
0.459391858782980
0.345026713577130
0.0151395237366870
-0.404177140971984
-0.738815233325997
-0.914404116846308
-0.961464718603947
-0.910694056350864
-0.760287764295246
-0.549367134282241
-0.382861093105724
-0.333518498369820
-0.364731590524440
-0.387041508311566
-0.355340719306960
-0.288795831139096
-0.223128796292965
-0.169731506963265
-0.118861581563695
-0.0633969583868092
-0.00872827103043120
0.0347385105591169
0.0610542678381333
0.0716931422563115
0.0739408762451227
0.0772914404615428
0.0887943185390421
0.110221317663834
0.139029486132509
0.170131335504629
0.196755457337859
0.213594432368184
0.221055701780882
0.223715739617620
0.223519157812916
0.218123675847424
0.208445415046486
0.203702858251785
0.211249802810668
0.217357937050766
0.182609770584984
0.0697479545390781
-0.112296627143445
-0.292536912860504
-0.376848940463848
-0.321693152038052
-0.178175712500084
-0.0545458676605915
-0.0361700597259814
-0.137701621301944
-0.306613515060260
-0.467108179869747
-0.569134911052183
-0.596559039101418
-0.547762472264653
-0.427408019053287
-0.255603801215702
-0.0737275653500835
0.0790747784656066
0.195727879559207
0.290205677474164
0.363120404081840
0.393922787780110
0.364076976252392
0.280492749124076
0.175876941751779
0.0875954114171812
0.0354507785471201
0.0165804767462210
0.0202692085325671
0.0434144894820842
0.0823220617925086
0.116575427314778
0.123578703806072
0.109576518894070
0.101532105275361
0.104027822832778
0.0919555080332030
0.0540859255071256
0.0170607779091330
0.0137045744734600
0.0439787428367495
0.0790084570883514
0.0938429076184007
0.0813271123297113
0.0402834123721768
-0.0316482631379021
-0.131953729093733
-0.242074693516993
-0.318925787430070
-0.310103674424385
-0.195874077858004
-0.0183524645556279
0.142068342169866
0.229824426243265
0.244223188557373
0.196406432599668
0.0700387741026158
-0.134009246638236
-0.334363395610714
-0.405202777942786
-0.293993768677565
-0.0799619747790120
0.103664213574484
0.190710917590146
0.206905302729546
0.197406184887374
0.170259643921692
0.113652819451714
0.0419775035859987
0.00503459965350957
0.0467171936380492
0.163577271508522
0.309882971778646
0.433644643390337
0.505247167528984
0.522217965358537
0.492413670628915
0.414485675699733
0.280829359098409
0.106662801596684
-0.0494204841275928
-0.115107517787100
-0.0644088359714086
0.0613232955266474
0.196754351762963
0.306943226589771
0.387133568730339
0.418910393033449
0.356397752811483
0.167758902567156
-0.124308192194894
-0.441250619903379
-0.670099786490322
-0.710090244191190
-0.543280991780178
-0.262989014287469
-0.0110873446368358
0.116408954127771
0.104110357623291
-0.00893820818736786
-0.156585538805146
-0.258435159661507
-0.249195891451413
-0.124470875458255
0.0527276661133142
0.211905308680414
0.325626590177069
0.382232201042512
0.349482673753586
0.210249882676324
0.00952662067237257
-0.173511828193582
-0.284174845647117
-0.298599607908447
-0.202422741379231
-0.00810129538606256
0.213403199833832
0.362686425795208
0.391810619063141
0.331157258699596
0.230874920668273
0.105403929828917
-0.0503853372954879
-0.211652161759835
-0.317841271434877
-0.319925844160476
-0.219575381615327
-0.0647274333521427
0.0806472205916284
0.170034291650350
0.191780428201264
0.156763704928703
0.0801813636018289
-0.0127185337884558
-0.0824503603498385
-0.102636873432381
-0.0824062899879623
-0.0469719735677943
-0.00762526771110066
0.0389535769115290
0.0925799920009451
0.142486194629561
0.174706959953224
0.175212836923325
0.128198090058685
0.0324293268144112
-0.0756418434733998
-0.136306992364625
-0.111556895045058
-0.0103955322872305
0.123258034513972
0.239249058445870
0.297851364428964
0.274285739923210
0.169320380063282
0.0118364513903833
-0.166052461910670
-0.356555534981349
-0.562505152896763
-0.746267678105328
-0.821674068213027
-0.732272786867638
-0.520439916284159
-0.297011936475317
-0.157029217371334
-0.127415905224123
-0.179387982687267
-0.270587006870961
-0.355456021551897
-0.375840950643560
-0.291542177760329
-0.129095475143342
0.0308783569786779
0.125961099611571
0.155511582033725
0.153849394075948
0.142605676137184
0.117309929792554
0.0682697790550079
0.000473790187433699
-0.0656647595817173
-0.100156188132803
-0.0719890860391120
0.0302839744685085
0.180352715271510
0.325170372657940
0.418723983344303
0.440114981563653
0.381737243407766
0.244523539729445
0.0639679785078251
-0.0772890877601154
-0.102718044577167
-0.0204602969514263
0.0787501603934536
0.117026097832169
0.105992959244734
0.115007558770140
0.172410776975704
0.228482651486014
0.225259695094467
0.166352979847265
0.0983439931191701
0.0541535197019468
0.0366831895713647
0.0378893206204026
0.0505532610429153
0.0664158797511845
0.0789520976256089
0.0901758284382451
0.107196957237693
0.130865999352560
0.152671727688537
0.163587772391260
0.162176596905035
0.153310917549189
0.142454962954315
0.133210211160606
0.128117324032727
0.127946893711905
0.129592614537269
0.127484227555210
0.118479864807072
0.103959253745582
0.0847224560670706
0.0511186361546880
-0.0193586307277963
-0.141014747420818
-0.285098491904015
-0.371015061496822
-0.310778089225157
-0.0924598778276038
0.167222451305382
0.279890396758175
0.123919215267191
-0.260016438850622
-0.699719441695961
-1.01167679076341
-1.10103528326168
-0.980523199029940
-0.737264785231888
-0.489264559478289
-0.330361019287141
-0.276591692970478
-0.276069111150867
-0.281430791591484
-0.287989375707634
-0.297562194378727
-0.280958833417852
-0.200266238802278
-0.0560208097430349
0.106165968211150
0.232471102322642
0.297463240984757
0.308843932089103
0.277631668640445
0.190394985671077
0.0280047838067095
-0.183852856203223
-0.355284244009656
-0.381927013767741
-0.227888827936515
0.0418741527284215
0.309648086774442
0.476060101178359
0.498385720235278
0.392068808950927
0.212652571151376
0.0261365168482597
-0.124233047038331
-0.223936112072756
-0.261150850834998
-0.217007329110928
-0.0899459894922979
0.0808656385178003
0.227847685442098
0.309219770917342
0.337216446290868
0.320928340610875
0.229058728096099
0.0589751833179243
-0.119025313532412
-0.234997589588670
-0.287054319800301
-0.299967666912747
-0.259265428577129
-0.133688633320517
0.0520194512443179
0.209021626573317
0.264518739033554
0.230528860282613
0.171355630475252
0.123958258085721
0.0841841573371362
0.0525065363715368
0.0493090334132578
0.0815909502047475
0.123235524748858
0.142295221831295
0.136380233243064
0.131435273494385
0.154228491822299
0.213470845306536
0.298512682190183
0.384949027901929
0.443974818470994
0.459006008572819
0.438520893250462
0.401490157852802
0.342671920122082
0.228495170110092
0.0495755560810926
-0.128195637605501
-0.199001702829750
-0.122087979316845
0.0311924119687538
0.154629075300349
0.207777030013476
0.217631126809868
0.207128108395094
0.159513876534149
0.0484395615596526
-0.123800603843224
-0.315537395043674
-0.457760024031242
-0.489896799186173
-0.400683253425287
-0.237412553747307
-0.0788236701276320
0.0145348906526821
0.0301284406006790
-0.0319915141198952
-0.183086332468299
-0.381483574154328
-0.499403043648632
-0.424020065396076
-0.176904059090678
0.104567885626910
0.297743796018427
0.372026353939011
0.354338562163648
0.280644073207361
0.192341432316111
0.137685652689056
0.144072380614123
0.192544361557385
0.241252348669743
0.272468687942909
0.297999782073468
0.327366349495535
0.355134395713624
0.376307693010814
0.393581517202772
0.406000288490983
0.401612116646398
0.366237153385790
0.297487712064291
0.212327854739347
0.145542963494939
0.138140970313782
0.212471465167332
0.338420436712394
0.427097356490296
0.392159699780135
0.231855089433481
0.0246733695559229
-0.169198271779647
-0.370530563661347
-0.609685659638184
-0.817912480598200
-0.858182851475710
-0.677608012141629
-0.379691352333498
-0.125170981383329
0.00256433522203892
0.00936724897035941
-0.0882555288230636
-0.282425583693663
-0.510829917158989
-0.642282625300233
-0.573272573993473
-0.328143464212843
-0.0314215220965986
0.207652809248276
0.338762932098842
0.332708925104147
0.179234960427606
-0.0806116532689718
-0.357058241093467
-0.544616170936318
-0.558284226007883
-0.369150505837780
-0.0384883798357897
0.286791690614856
0.466834667481501
0.471937005299157
0.366972232434365
0.224455970939055
0.0910803258051038
0.00767731341434478
0.00909620610514109
0.0896978898754262
0.192483570067068
0.254056889484901
0.255945735254328
0.224749731276395
0.193549719579059
0.175384301732052
0.166212261811491
0.157012036290712
0.141177478582375
0.122501868979929
0.118958516034737
0.146565305252791
0.196787938139331
0.240182026520599
0.254548841292087
0.243560703939243
0.226086361498881
0.209688499956270
0.173170335341284
0.0743784275405277
-0.109936294444491
-0.340836838889805
-0.528490706725745
-0.598113777796520
-0.542782219276387
-0.414977802027400
-0.274767298193656
-0.158475984842158
-0.0953967634014497
-0.123006970100703
-0.261864983689998
-0.482895798665466
-0.708586081498633
-0.845132516674574
-0.825917552427639
-0.650533912457856
-0.391839083809961
-0.144865696967309
0.0472208074600852
0.198447260031224
0.309795235631862
0.340331760845670
0.265759001502654
0.119918947870303
-0.0483680753755171
-0.221062657550019
-0.375683654045296
-0.438181037757266
-0.331809386351434
-0.0804590417371300
0.173828185955888
0.287934695741155
0.240761144602346
0.112670295636672
-0.0276595643569237
-0.168965868609889
-0.311229689688595
-0.421042262922781
-0.442900324021045
-0.348508860933859
-0.172809513908784
0.00406600494733449
0.111111017255999
0.124527605284991
0.0687069726520622
-0.0118364647258777
-0.0849973944026417
-0.138501572852845
-0.171954439048237
-0.189080092888582
-0.182008173188328
-0.125494314419018
-0.00748496482711109
0.130519445873657
0.211968676062110
0.196790438863669
0.0996619556384722
-0.0548247715714915
-0.242252767237414
-0.415246360788980
-0.509433923726526
-0.477080650421980
-0.323011814180765
-0.113895285771475
0.0611445677712856
0.145964727358678
0.126793165742808
-0.00422906925819447
-0.241107564479023
-0.495364704050696
-0.611412989039756
-0.507161671173699
-0.255213687038296
0.00390214457943281
0.191581869619999
0.312907886151040
0.384919284928251
0.399049612417498
0.357500346556689
0.300560117113494
0.280563907301469
0.320548269437951
0.398588512883042
0.468621807341307
0.498590093942292
0.490607314567240
0.466760507940304
0.442236155811811
0.417295451806052
0.388707421417020
0.358304521934631
0.329935639360870
0.304662489142379
0.281631223551623
0.261431615798931
0.246531424286828
0.237675796428095
0.227497820398296
0.196634232084202
0.125535861467377
0.0224127805009417
-0.0600782497502128
-0.0445039536945132
0.112499431428553
0.353258229446566
0.522449194274737
0.478284916556094
0.212546921297082
-0.154495930749869
-0.493194714947130
-0.748183069092825
-0.900960434373389
-0.907717406933874
-0.734869592904102
-0.435338663740449
-0.128955740440306
0.0880845547121591
0.181037735652021
0.148348144307537
0.00511514180979970
-0.190165842212028
-0.324545089778442
-0.297758214478239
-0.113247546551566
0.126761378364456
0.321086545210500
0.434264274289042
0.464911505504310
0.397511019717153
0.214204475723415
-0.0563257584013219
-0.317970364283078
-0.447537776307903
-0.374913868177699
-0.142168995652992
0.121659728290539
0.303601166272556
0.374782794455811
0.353290971094512
0.250324448919835
0.0842874020399661
-0.0927387885890198
-0.227868365693307
-0.315056918302047
-0.378798816469835
-0.415849879238840
-0.378135691753194
-0.226163810700221
0.00544260439754523
0.225374826309513
0.372409537446452
0.435416824041940
0.391769524607085
0.201551116170293
-0.111670947869342
-0.415613582958063
-0.546830670708701
-0.442967228937186
-0.179577629271589
0.114955230271496
0.339855777865087
0.438646933311572
0.409629121903656
0.310321734272629
0.211130516210295
0.142985324132514
0.107280753429005
0.113784227869166
0.175256272950482
0.274426136817203
0.367115050128186
0.423110503416731
0.447429174744147
0.456298625173066
0.449021752419869
0.413817682219811
0.350723512173932
0.285023306504307
0.260933698186649
0.309434774329428
0.415583473253601
0.526277513649893
0.591953150642414
0.597732647881758
0.557257449031206
0.485253648023083
0.380414783424423
0.227992094344118
0.0265988012680286
-0.174321230761207
-0.287510710967665
-0.262095167873308
-0.132842838070574
0.0177229588500841
0.140210844220671
0.238886703431037
0.309517625552893
0.299507700637794
0.159690884725382
-0.0869794107163278
-0.354918418279834
-0.558765078104546
-0.648414263243033
-0.607345082103294
-0.454638565136322
-0.248011020420208
-0.0634649954854624
0.0393456898525049
0.0437445863176119
-0.0367878819000767
-0.197353442133976
-0.421066508473207
-0.621462865347078
-0.678348700065213
-0.545961928187026
-0.285377645764233
-0.00235237052237737
0.209944641347715
0.291453147226222
0.232836819483136
0.0840885911323964
-0.0785385301200878
-0.205389744392046
-0.283514895167198
-0.306679042999340
-0.270539207916614
-0.194057925272947
-0.109181375491990
-0.0252376696221321
0.0729909682929356
0.185859774540702
0.272021812227537
0.274910720025669
0.175327300524758
0.0129390261927097
-0.139815165770082
-0.224769446228200
-0.229363528294963
-0.182759291590374
-0.126947705261924
-0.0871017360087377
-0.0611822361360352
-0.0323620577804230
0.00760722043966215
0.0427581699779587
0.0436358186042916
-0.00384288566549688
-0.0808509266525578
-0.144327988802493
-0.159488616102791
-0.129273829017376
-0.0851942798989616
-0.0485878418421247
-0.00722523015694015
0.0678634603605515
0.183700289354516
0.300834117650078
0.342893395195475
0.247404460591500
0.0297245605920524
-0.227105537967550
-0.461980520880243
-0.662270377066787
-0.791755990772505
-0.774165306696418
-0.589055565367516
-0.334361508306857
-0.146364935992539
-0.0788438739945878
-0.0944485672413072
-0.149381174845943
-0.237915121182599
-0.348629541207626
-0.423905559195968
-0.403938411033300
-0.294785213922655
-0.157519443579100
-0.0381819153902130
0.0581759400042905
0.130305440094933
0.159582774240727
0.138585572232762
0.0938607161645651
0.0617706161371346
0.0518657210411246
0.0469174126422736
0.0307035217608735
-0.00107148890726558
-0.0533973883614723
-0.132462778821418
-0.222798379847772
-0.277031944591381
-0.245066089579705
-0.120593113293264
0.0377203421762123
0.135551533971268
0.108994028879581
-0.0294638071046940
-0.214978434472672
-0.400635215917415
-0.586541588655630
-0.765356163635187
-0.868355968582562
-0.809821774970743
-0.582625705704528
-0.279993063266937
-0.0213214393450608
0.119823713728217
0.118128747962945
-0.0260150213262230
-0.272220261886858
-0.514836564195481
-0.617499997269897
-0.506463227504467
-0.230875788477419
0.0850908708620712
0.341021075267291
0.490525730540275
0.508821538926501
0.385614208963097
0.147203046758581
-0.135449167995437
-0.357021175301813
-0.411216920020025
-0.255794791395152
0.0397747239019551
0.330713056451963
0.500907371837462
0.535193138294747
0.495288008226770
0.445763409063068
0.410498398681343
0.386083941335752
0.380023062038078
0.415343487084106
0.494595239385215
0.585276469262505
0.651846494135264
0.685141400818808
0.695105657593392
0.691541398711267
0.680524786131585
0.667748685236942
0.655861107130565
0.643273189881823
0.629490131803697
0.617647403018090
0.609947545261635
0.603989691930445
0.595041051216679
0.580286377400887
0.560362769604542
0.537506044912181
0.513185936963504
0.488116415017574
0.462920352056161
0.437274944911612
0.410163053838443
0.381560540718694
0.351721395659542
0.320298804358972
0.288846533419902
0.260409304091011
0.232501011399521
0.194533774789402
0.138714999289788
0.0727705825454866
0.0163472975994112
-0.0159987174388748
-0.0251365044637195
-0.0219705468012331
-0.0168319366916979
-0.0154303094641366
-0.0200933368901815
-0.0306699878957140
-0.0467569948105994
-0.0740013960099453
-0.128193566343322
-0.226102417862946
-0.364476365669311
-0.502267223250857
-0.567086974692944
-0.505224610150700
-0.345042741195168
-0.201255015056197
-0.199601868559968
-0.378603630543295
-0.651700133608119
-0.862237622671409
-0.885440701286310
-0.713523962884367
-0.458521539061301
-0.252757083810624
-0.146195872986439
-0.103677136360288
-0.0739795979641124
-0.0390818662856612
-0.00735408809633729
0.0138672637974615
0.0253004403175492
0.0272498213677275
0.0201404219173338
0.0118335467587677
0.0142357139294399
0.0316518101109437
0.0572098014842738
0.0800068297718204
0.0918226523573168
0.0862624057945584
0.0476177641236731
-0.0584703816676603
-0.252311023098915
-0.481466384197834
-0.637515270420133
-0.652392446690457
-0.547326716418682
-0.386261290548640
-0.213210512438538
-0.0513022589627741
0.0552147388065513
0.0445961416861585
-0.101081712814360
-0.328499947405391
-0.554136075880739
-0.709350485460331
-0.752150421141285
-0.674780176848576
-0.516003417624405
-0.336451020555958
-0.164530159096779
0.00547213414282993
0.155854821534666
0.222906180848242
0.143829141308493
-0.0837374499807796
-0.372914942745310
-0.570102036279357
-0.544522777164835
-0.293814573512095
0.0372752845693421
0.268661699994040
0.330623766393740
0.274611149075482
0.155799519567263
-0.0246954949420073
-0.264495033590263
-0.501766105868654
-0.622761811142088
-0.534906757118453
-0.246811274984334
0.128192562029221
0.446188615591491
0.610542112053461
0.586302326605550
0.378749482342577
0.0586540016236309
-0.217743146521951
-0.298739072186956
-0.163132484095069
0.0730099686246898
0.275860612505957
0.394601366442202
0.438961274889556
0.402893429902557
0.263632215441443
0.0477053694303446
-0.152626303633533
-0.243614591880568
-0.193901875798862
-0.0379566303303552
0.162270506922958
0.349960040052239
0.484541412807804
0.540589516913386
0.504392363897954
0.380747025910872
0.198443644112443
-0.000356452568050999
-0.161663048086471
-0.216019139094026
-0.115676974295107
0.106816229697927
0.334151940658092
0.444770548898904
0.416080959441073
0.325296038941937
0.233217264312050
0.113655688490728
-0.0755067408533716
-0.288257206355942
-0.398733979624487
-0.322719391893638
-0.104405703585056
0.133214423596421
0.296875153563073
0.369749772428284
0.377366481238574
0.341682559652434
0.276690552582370
0.200835554903774
0.138107406358080
0.114257870442194
0.145038328427330
0.222228465990461
0.318999733863372
0.409017101000248
0.476479735405331
0.510732098391301
0.493831765830388
0.398492503389808
0.210836410393406
-0.0317989467965614
-0.228965393582691
-0.270350618813450
-0.123277445028626
0.130194887937130
0.344339103574189
0.405294555448340
0.295656497118706
0.0847405985867098
-0.140081690520804
-0.334862643116653
-0.488304428413492
-0.568057301819024
-0.522179327230236
-0.343186434180890
-0.0990185523487783
0.111703170531019
0.224112862381616
0.231645426349017
0.167694169829116
0.0694851258913860
-0.0480236498532341
-0.177341710877875
-0.283556106030208
-0.318005252275485
-0.270220758146879
-0.174370917494552
-0.0644497827144811
0.0472927545694623
0.150280017185814
0.223578622791678
0.247309334250715
0.209443984845896
0.102571406768900
-0.0651405260157101
-0.254789027510661
-0.422196214461036
-0.549193576047605
-0.614941039255582
-0.572476313382126
-0.404620047672554
-0.180123190873415
-0.0126110312683492
0.0335176865422016
-0.0358505625139769
-0.202969877463784
-0.441517763706879
-0.653826733257308
-0.697504433778325
-0.523116463828344
-0.238430773446753
0.00681609372457059
0.160326374750064
0.247240556757788
0.269980577780277
0.204908177366961
0.0737694589524830
-0.0456170982424638
-0.0891700515160194
-0.0617568381368733
-0.0161430280835441
0.00694356791140271
0.00648270992020297
-0.000198122511398457
-0.00507314517706427
-0.00963071753377984
-0.0131750811568724
-0.0175290269291716
-0.0385760369626476
-0.0903460029438120
-0.149612528144279
-0.154136269900356
-0.0503673586296504
0.146786124872359
0.332568852001827
0.378358633201246
0.249032369219435
0.0311714972110916
-0.173585733299206
-0.350303489466109
-0.535797815637483
-0.704663563994203
-0.746220968677746
-0.574094982287354
-0.231790455768558
0.129749759875011
0.374762154914628
0.463444099553086
0.415427339724834
0.247327905296286
-0.0156816180290401
-0.291132339957690
-0.448056838279646
-0.388397053627542
-0.115485659026952
0.271611691903771
0.626475464530286
0.817201856972173
0.785083448128148
0.563295656506980
0.257737531937454
0.00593470247045542
-0.0907441439477778
-0.0255432484678844
0.129047473770661
0.297522514817481
0.445132145000430
0.558025287752014
0.620065146648725
0.617234777013286
0.549538377355499
0.434086003841740
0.300282055154081
0.188288086124159
0.142515731949296
0.181120825012784
0.270474609351369
0.349610638525478
0.382224862270648
0.375050399683312
0.350296398535425
0.317283400298197
0.275754640870417
0.228919687284673
0.177910441271007
0.110191749684399
0.00911318559606192
-0.112299701902001
-0.191826190234914
-0.158395858664679
-0.00176790031376637
0.207481506945969
0.365198014192682
0.401883650924753
0.316631550909922
0.150346897814177
-0.0668758941151852
-0.326154344975139
-0.594444938768357
-0.784497012865989
-0.800503730067813
-0.626339839215182
-0.356996982724082
-0.119128317173177
0.0221549170566591
0.0567424060383125
-0.0218156651606834
-0.216429127443352
-0.487095704941106
-0.735336045733503
-0.845851135410465
-0.757340096945488
-0.501476986362670
-0.170568029750554
0.145220110464073
0.366044066974274
0.412554971859431
0.262303556518969
-0.00153734677676040
-0.246826756308676
-0.393554212869359
-0.439932654257651
-0.404046410783044
-0.283903724761171
-0.0841048225692813
0.149366263190880
0.334895853491127
0.405677594772417
0.361855532524854
0.257281816516607
0.145925381599315
0.0659663575839729
0.0486533853323194
0.101477480486795
0.189017089787527
0.257546365275957
0.282003520655226
0.276812880272149
0.264151159522664
0.248372237701526
0.223676085400929
0.191311263359454
0.159860216791154
0.134562483545073
0.113323605722029
0.0919495921951531
0.0691989414783275
0.0457309855216147
0.0208321201665832
-0.00680953223561215
-0.0356050232286189
-0.0611011546807601
-0.0803076993952150
-0.0944834205135728
-0.106879116290207
-0.118781878934842
-0.128593062867259
-0.133745630984150
-0.132864333405228
-0.127404210905033
-0.121349662189768
-0.118002721984141
-0.117405962269972
-0.117385708087530
-0.117150849839920
-0.121089101997481
-0.138829297872048
-0.180364074425862
-0.247161209404459
-0.319243113266300
-0.357286378718843
-0.342353305196383
-0.313219314228279
-0.332668418306465
-0.414648176086090
-0.522248813717445
-0.636245142728607
-0.766129016349323
-0.882120057306602
-0.905552192370906
-0.797259255730113
-0.608680580114547
-0.420350282311193
-0.266236979181102
-0.140895739345524
-0.0414482449120085
0.0317796070201454
0.0900464888011391
0.143804524763592
0.190511419665481
0.226696657931867
0.257227892820560
0.285462363742439
0.304979792949121
0.303349671219579
0.266828923642554
0.189495758563208
0.0932082826015780
0.0359037997045239
0.0845489592234268
0.256654619233737
0.472560336737638
0.589566577661615
0.515159926794939
0.279217624135665
-0.0162947942458766
-0.295349262759200
-0.527178855273606
-0.663921284627312
-0.622746973448999
-0.375553602672832
-0.0282605207770847
0.242897940735279
0.334605506003245
0.265318449888057
0.0974034894443170
-0.124445279217347
-0.339148698066041
-0.442618481809429
-0.353169490182732
-0.0927687971597036
0.220554355000344
0.464314337105447
0.584715235969447
0.573733198424268
0.424967744749331
0.170123460068600
-0.0786204430166394
-0.187082759246877
-0.102639482965279
0.113980589430502
0.349250615548179
0.516327393929699
0.589835877744374
0.588509164252021
0.538071200781585
0.456370235146830
0.363016392840245
0.288264868770380
0.266487828512514
0.310464258461578
0.392285925948408
0.465288720388232
0.505205312900483
0.518282006540997
0.514211144714313
0.488538329095782
0.434834336339782
0.360302827134893
0.280172231123486
0.202716306609097
0.127552426459577
0.0554464959319726
-0.00465429661290147
-0.0390039220923469
-0.0446241067942236
-0.0423818545027044
-0.0676677123870049
-0.141725461751778
-0.244004806400742
-0.307966359253462
-0.255637898092226
-0.0678065509063921
0.162558087779375
0.278523693594135
0.192787803819495
-0.0385815265875354
-0.287338425816202
-0.475052826739147
-0.603774725992361
-0.693863688177698
-0.736601290123732
-0.708875360900421
-0.603546968190683
-0.433908582167659
-0.226362598705693
-0.0203335170631944
0.134744068971541
0.198182082574071
0.167049453566053
0.0875556659499158
0.0286628272909684
0.0373934166070955
0.111059048603326
0.205092790752414
0.270264779302457
0.288843685966552
0.277719589278025
0.261212277178537
0.247032732721567
0.225242200957724
0.182917890025442
0.122741251230293
0.0734884316401517
0.0787127335244410
0.166090397793700
0.318622857662908
0.471997580188241
0.549098085945068
0.503710179702706
0.326729389288400
0.0260373769849863
-0.360206599525959
-0.727356907569678
-0.930644985320716
-0.883164504983316
-0.625243984951993
-0.294401991896701
-0.0367875505865441
0.0606905074353988
-0.00809435415270350
-0.188902701519823
-0.408163729916080
-0.587603276454740
-0.644310190314809
-0.530897622380238
-0.288450579892072
-0.0260519061737194
0.170811063867897
0.280017899955511
0.288723223358302
0.169811234411493
-0.0621996397777176
-0.321293683456944
-0.496034736720756
-0.510809142953913
-0.356052508166179
-0.0979384562961689
0.142046064677837
0.264725885794680
0.259546497614002
0.178949356712752
0.0778492452151108
-0.00746195016333129
-0.0529448029111871
-0.0429570104324387
0.0197399376297069
0.106378994318486
0.179520606814771
0.217813809040077
0.219462367301826
0.191842100248194
0.146801837418257
0.0995163393113396
0.0624196832762585
0.0385989526562330
0.0230653836556001
0.0106837607662105
0.000482844368162367
-0.00789331524471282
-0.0165386806328887
-0.0254688516294669
-0.0316826543285213
-0.0347199885118457
-0.0385343724663567
-0.0457674030885707
-0.0541085699337558
-0.0598871086627971
-0.0621639519365443
-0.0623022983632126
-0.0614642738628342
-0.0593258925203334
-0.0545816848548751
-0.0460650648123776
-0.0343860724890146
-0.0247838613872516
-0.0285245184997344
-0.0594106532858477
-0.126270106720771
-0.221873322750916
-0.308983560219971
-0.319550646345371
-0.193389979892037
0.0556001326626715
0.314864438474304
0.435061959305241
0.325321738556859
-0.00285903560846638
-0.451253279506803
-0.868047045209870
-1.09332607151939
-1.03138962324639
-0.720461411012751
-0.322498870341258
-0.00543747190376513
0.165958135913517
0.214872260805566
0.177502491497020
0.0826521478938904
-0.0220276308785176
-0.0675359409006793
-0.00476222481237529
0.155909133667449
0.345096907637097
0.471808878467663
0.482503247266296
0.397149387501835
0.275983513840469
0.157033561367008
0.0453822455318046
-0.0414105961991269
-0.0490315645876777
0.0673817441139887
0.285114742350129
0.521779668323212
0.691934733348594
0.750310620260222
0.694659530082220
0.539793589073543
0.304581993663976
0.0337735380498154
-0.189249834521576
-0.279645552465811
-0.206225377866420
-0.0115910612097972
0.213385856199484
0.383600821324106
0.462820335355084
0.448800024922739
0.328756542469303
0.0897653096153996
-0.216101182509853
-0.465575937677942
-0.571197287031957
-0.563137326697077
-0.521648076971534
-0.465304446429077
-0.354545420556465
-0.190034213139223
-0.0504463746670470
-0.0140505196853257
-0.0814477008792646
-0.187993916525336
-0.264140901385093
-0.272489103320940
-0.205297109409491
-0.0812790676294037
0.0493633203315709
0.135498531719844
0.173925001219216
0.200061040351834
0.225492081049050
0.213586228403338
0.135520014693106
0.0338876805927401
-0.00188393603896346
0.0735321068971948
0.216256931481950
0.338307596030419
0.382293521883063
0.350818354627597
0.278425424891602
0.192676224222073
0.100250068628667
0.00208486119274433
-0.0768262624750128
-0.0861050268620168
0.000800346014584192
0.140120565472580
0.239619444724333
0.237917862879628
0.163579726263392
0.111235673208638
0.147525915301597
0.232625421978572
0.251258445247528
0.140406369530111
-0.0329170103917468
-0.143554191894985
-0.136528084413644
-0.0596462935654567
0.0131583798132350
0.0582843606810177
0.0965976977956289
0.131756875767968
0.120940996531190
0.0213700627878465
-0.138977629571294
-0.263282909228606
-0.281739138873053
-0.221867405911656
-0.149711546778546
-0.0704202969047853
0.0593244695768794
0.232810839024224
0.364967570626198
0.372882383377044
0.249034224557835
0.0428335584403368
-0.192380739821670
-0.399872317686157
-0.505074776659177
-0.458053357256265
-0.287726330344482
-0.0888496898928063
0.0514447417285075
0.113120154812450
0.126117612650734
0.103589959315636
0.0206154468876820
-0.129441469645251
-0.285722675683724
-0.359074039827046
-0.312872510157887
-0.178383500323788
-0.00451121048231734
0.163515445753104
0.268015218563241
0.266429773848546
0.181538352944153
0.0720137781682629
-0.0435357979012418
-0.179922040838142
-0.308865075844197
-0.349605491096743
-0.252082078790267
-0.0543230873830195
0.153054570330940
0.299898792670053
0.370189087759144
0.376593709513918
0.323625857835119
0.202134063088367
0.00258948533516567
-0.257789271257983
-0.505091213643250
-0.634978230895693
-0.591313924925012
-0.408127084961526
-0.179567435903080
0.00118179283274398
0.0897887297469322
0.0994438698655702
0.0658651693146164
0.00159831093030110
-0.106791814425943
-0.248897656217633
-0.352763765402976
-0.329238747538033
-0.164886556502227
0.0497970515781972
0.197933922841930
0.235099140500641
0.203392437026992
0.159278542618271
0.114619846133621
0.0545012088713864
-0.0130951389642987
-0.0468437395493719
-0.00761917592632798
0.101190540842158
0.225684490340716
0.297766690292195
0.292489283560141
0.250842437857603
0.237327605913232
0.280849610799559
0.355496221492070
0.395731541361240
0.332360974939633
0.140046780585911
-0.133089079575594
-0.379161826229298
-0.494819911069607
-0.453751838545877
-0.313172710513261
-0.152929723796985
-0.0207825935094524
0.0720665350082071
0.126406436205550
0.137081689556055
0.0972991428202540
0.0191244474030704
-0.0597834111714317
-0.103664865979537
-0.108685091868436
-0.0932832090424389
-0.0657794179035963
-0.0154668087580629
0.0693660858342510
0.183036607947722
0.295806810870817
0.367929013113943
0.381581129767127
0.349474588195806
0.286074471810530
0.185377122766855
0.0256565109403349
-0.209449311856220
-0.499463182911559
-0.767487794989157
-0.899331409549864
-0.805761642267177
-0.494442708668528
-0.0856717384861092
0.256239745898643
0.418520134687368
0.371008636974942
0.131773366794160
-0.239451573313707
-0.610030879036516
-0.809491269132317
-0.755128351686929
-0.524177147581925
-0.265184256759094
-0.0661395341092627
0.0644193547060375
0.133907866766920
0.135330152566783
0.0761779734506007
0.00193659250091864
-0.0328225798869504
-0.0122211521751775
0.0337979115067171
0.0693700787945188
0.0905229080877529
0.121573013149696
0.184846117878886
0.277683090059603
0.370558335597292
0.427387741160095
0.431523161141851
0.387523994227440
0.297834884142311
0.150829355927250
-0.0467318817446538
-0.225405927452714
-0.281347839504357
-0.170321442075414
0.0442486567106234
0.243007322271308
0.349628376914100
0.379044244431283
0.385405071829714
0.385963225650800
0.354773954536284
0.269448442618587
0.143556462271948
0.0165900081262472
-0.0763506711601463
-0.119584560609339
-0.109471629837545
-0.0449901569119591
0.0632028283473803
0.179076986426927
0.259551380128853
0.286634345825998
0.258880992584244
0.160128276414943
-0.0304821032644082
-0.290293343088253
-0.530505666341859
-0.637720583354297
-0.554235601689224
-0.324283747882888
-0.0565541619086878
0.158101496041997
0.285957522801400
0.313677297956237
0.205017285566498
-0.0665446140013706
-0.440267464950517
-0.757279589887913
-0.859289659573899
-0.710060490514530
-0.416943905791058
-0.132312305665734
0.0598959009699220
0.167798217981610
0.228966085671413
0.247764790931070
0.203339847963580
0.104161231774859
0.00401600645098405
-0.0453190958772804
-0.0376335181285796
0.00250761760792306
0.0632145076937737
0.161123199979877
0.312796534829739
0.492552631134331
0.631498747436811
0.666863524617449
0.586020402880372
0.420541065073109
0.207065438454802
-0.0245551907094340
-0.219565086805808
-0.298464371107813
-0.225680041859005
-0.0591848363276091
0.0951656270970008
0.171262454376246
0.172351700512974
0.136004576404158
0.0927235439545631
0.0400466764563323
-0.0540869157188474
-0.201765897358699
-0.348318844209499
-0.400653160861848
-0.312893070972952
-0.131596262417448
0.0514219519787362
0.178719406357019
0.248476525207911
0.275851118218928
0.261754525543825
0.196779309139652
0.0862842276970407
-0.0287972815736871
-0.0876384143503477
-0.0507150110602912
0.0780340860383712
0.256115234523504
0.419082734037599
0.511105195971530
0.515226579204671
0.446634012408324
0.320278471864863
0.141911814207076
-0.0691995842664115
-0.260184370254466
-0.358541473947945
-0.317779621262944
-0.155203523631785
0.0522555462836112
0.210009202752069
0.260727720387968
0.215211992143904
0.124963586177945
0.0188166338893371
-0.113774218289061