1) 
    [b, a] = butter(5, [0.53/fmax, 40/fmax],'bandpass');
    
   **Depends only on fmax**
   **They don't change each iteration**
   **fmax = 173.61/2**
   **Values of b (Check Photo)**

0.0363534820525664
	0	
-0.181767410262832	
                 0	
0.363534820525664
	0	
-0.363534820525664	
                 0	
0.181767410262832	
                 0	
-0.0363534820525664

    **Values of a (Check Photo)**
1	
-5.35448842539065	
12.5169436286371	
-17.3370603670267	
16.4838197904024	
-11.5631929743302	
5.92078744304580	
-2.09978055488287	
0.514726637743414	
-0.0859453368183458	
0.00419016181055992



2)
   