0.056856
0.056856
-0.0033445
-0.083612
-0.1505
-0.20401
-0.19732
-0.25084
-0.056856
0.12375
0.37124
0.44482
0.3913
0.31773
0.23746
0.23077
0.35786
0.52508
0.61873
0.59866
0.48495
0.15719
0.070234
0.036789
0.14381
0.20401
0.18395
0.15719
0.19064
0.17726
0.19064
0.13712
0.043478
-0.043478
-0.090301
-0.083612
0.023411
0.13712
0.1505
0.090301
0.12375
0.10368
0.016722
-0.10368
-0.10368
-0.043478
0.070234
0.25084
0.31104
0.35786
0.37793
0.43144
0.43813
0.40468
0.45151
0.44482
0.34448
0.19064
0.056856
-0.11706
-0.17057
-0.22408
-0.29766
-0.17057
-0.090301
0.15719
0.29097
0.31104
0.33779
0.30435
0.25753
0.2107
0.1505
0.0301
-0.070234
-0.010033
0.14381
0.27759
0.34448
0.37793
0.31773
0.23746
0.083612
0.023411
-0.11037
0.056856
0.17726
0.29097
0.33779
0.26421
0.23746
0.23077
0.37124
0.45151
0.55184
0.53177
0.3311
0.2709
0.076923
0.036789
-0.083612
-0.2107
-0.19064
-0.016722
0.11706
0.10368
0.083612
0.0301
0.023411
0.056856
-0.070234
-0.19732
-0.31773
-0.33779
-0.30435
-0.24415
-0.2709
-0.2709
-0.26421
-0.35117
-0.43813
-0.35117
-0.26421
-0.16388
-0.20401
-0.20401
-0.26421
-0.2107
-0.09699
-0.050167
-0.09699
-0.19064
-0.33779
-0.41137
-0.37124
-0.22408
0.0033445
0.090301
0.19064
0.17057
0.083612
0.0033445
0.0033445
0.023411
0.016722
0.1505
0.25084
0.37124
0.3913
0.3913
0.34448
0.26421
0.25753
0.31104
0.37793
0.43813
0.44482
0.36455
0.35117
0.38462
0.39799
0.2709
0.17057
0.090301
0.070234
0.0301
-0.023411
-0.23077
-0.19064
-0.18395
0.0301
0.13043
0.10368
-0.010033
-0.11706
-0.076923
0.090301
0.31773
0.45151
0.49164
0.47157
0.42475
0.36455
0.23746
0.2107
0.16388
0.2107
0.21739
0.15719
0.016722
-0.0301
-0.10368
0.016722
0.036789
0.010033
-0.13043
-0.27759
-0.25084
-0.083612
-0.010033
-0.0301
-0.070234
-0.056856
-0.0033445
0.13043
0.24415
0.19732
0.10368
0.050167
0.050167
0.11706
0.19064
0.2709
0.2709
0.19064
0.11706
0.050167
0.010033
-0.043478
0.083612
0.17726
0.37793
0.53177
0.61204
0.63211
0.73244
0.77926
0.83946
0.82609
0.79933
0.63211
0.43813
0.30435
0.13712
0.2107
0.26421
0.45151
0.48495
0.39799
0.29097
0.13043
0.0301
0.016722
0.14381
0.25084
0.33779
0.41137
0.3913
0.063545
-0.056856
-0.2107
-0.21739
-0.25084
-0.34448
-0.45151
-0.54515
-0.56522
-0.49833
-0.44482
-0.38462
-0.31104
-0.32441
-0.36455
-0.37793
-0.3311
-0.21739
-0.11037
-0.0033445
-0.056856
-0.13712
-0.13043
-0.10368
-0.13043
-0.21739
-0.2107
-0.12375
0.0033445
0.12375
0.1505
0.11037
0.070234
0.063545
0.016722
-0.090301
-0.15719
-0.22408
-0.20401
-0.19064
-0.13043
-0.10368
-0.16388
-0.090301
-0.076923
-0.036789
-0.063545
-0.13712
-0.22408
-0.17057
-0.070234
-0.036789
-0.076923
-0.19732
-0.22408
-0.23077
-0.17057
-0.076923
-0.010033
0.0301
0.010033
-0.010033
-0.016722
0.010033
0.13043
0.23077
0.16388
-0.0033445
-0.13712
-0.25084
-0.2709
-0.13043
-0.0033445
0.063545
-0.023411
0.070234
-0.023411
0.076923
0.16388
0.15719
0.063545
0.043478
0.016722
-0.0033445
-0.016722
-0.036789
0.036789
0.09699
0.16388
0.0033445
-0.050167
-0.17726
-0.16388
-0.19732
-0.18395
-0.09699
0.016722
0.023411
-0.010033
-0.063545
-0.090301
-0.10368
0.0033445
0.070234
0.13043
0.1505
0.13043
0.090301
0.010033
-0.25084
-0.28428
-0.35786
-0.32441
-0.2107
-0.17057
-0.070234
0.023411
0.063545
0.090301
0.13043
0.16388
0.16388
0.1505
0.3913
0.45819
0.49833
0.41137
0.30435
0.20401
0.22408
0.23746
0.25084
0.22408
0.19732
0.18395
0.09699
-0.063545
-0.016722
0.043478
0.11037
0.17057
0.12375
0.016722
-0.056856
-0.11706
-0.11706
-0.13712
-0.11037
-0.16388
-0.21739
-0.23746
-0.14381
-0.0301
-0.056856
-0.070234
-0.090301
-0.10368
-0.036789
-0.0033445
0.13712
0.2107
0.21739
0.13712
0.050167
0.010033
-0.016722
-0.10368
-0.2107
-0.39799
-0.44482
-0.51839
-0.46488
-0.37793
-0.36455
-0.29097
-0.29766
-0.3311
-0.3913
-0.37793
-0.17726
0.070234
0.25084
0.49164
0.5786
0.52508
0.3311
0.17726
-0.083612
-0.25753
-0.37793
-0.35786
-0.28428
-0.27759
-0.0301
0.036789
0.14381
0.23077
0.22408
0.19064
0.18395
0.19064
0.21739
0.23746
0.23746
0.18395
0.083612
-0.050167
0.070234
0.16388
0.31104
0.37124
0.41806
0.44482
0.55853
0.59197
0.51839
0.3913
0.35117
0.37124
0.2709
0.43144
0.41806
0.42475
0.3311
0.2709
0.31773
0.41137
0.50502
0.48495
0.3311
0.16388
-0.010033
0.050167
0.19732
0.44482
0.55853
0.53846
0.53846
0.58528
0.55184
0.41137
0.3311
0.24415
0.29097
0.2709
0.25084
0.18395
0.20401
0.22408
0.1505
0.010033
-0.083612
-0.13712
-0.023411
0.070234
0.30435
0.37793
0.2107
-0.0301
-0.2709
-0.42475
-0.44482
-0.3311
-0.19064
-0.13712
0.050167
0.1505
0.2709
0.30435
0.23077
0.14381
0.076923
0.063545
-0.036789
-0.21739
-0.37793
-0.49833
-0.56522
-0.59866
-0.55184
-0.42475
-0.3311
-0.26421
-0.19064
-0.18395
-0.20401
-0.24415
-0.33779
-0.40468
-0.45819
-0.45151
-0.37124
-0.20401
0.070234
0.25753
0.26421
0.19064
0.063545
-0.063545
-0.15719
-0.15719
-0.09699
-0.11037
-0.10368
-0.16388
-0.076923
0.010033
0.20401
0.29097
0.29766
0.32441
0.35117
0.29766
0.23077
0.26421
0.47826
0.60535
0.63211
0.40468
0.083612
-0.13043
-0.2107
-0.14381
-0.09699
-0.076923
-0.036789
-0.056856
0.1505
0.37124
0.49164
0.43144
0.36455
0.19732
0.036789
-0.083612
-0.17057
-0.036789
0.056856
0.23746
0.31104
0.28428
0.30435
0.41806
0.50502
0.43813
0.35117
0.076923
0.050167
-0.010033
0.11706
0.1505
0.016722
-0.036789
-0.11706
-0.036789
0.090301
0.35786
0.51839
0.6388
0.69231
0.58528
0.45151
0.32441
0.25753
0.076923
-0.12375
-0.34448
-0.32441
-0.31773
-0.17726
-0.056856
-0.050167
0.0301
0.14381
0.31104
0.44482
0.46488
0.44482
0.2709
0.13043
-0.056856
-0.090301
-0.076923
0.12375
0.22408
0.2709
0.25753
0.18395
0.21739
0.22408
0.33779
0.35117
0.17726
0.056856
0.016722
-0.010033
-0.016722
-0.0033445
-0.10368
-0.043478
-0.036789
0.10368
0.25753
0.3311
0.39799
0.35786
0.25753
0.16388
0.11706
0.076923
-0.063545
-0.010033
0.036789
0.1505
0.056856
0.016722
-0.090301
-0.10368
-0.056856
-0.090301
-0.090301
-0.22408
-0.19064
-0.21739
-0.11706
0.023411
0.12375
0.11706
0.083612
0.056856
-0.070234
-0.22408
-0.26421
-0.21739
-0.0301
0.14381
0.1505
0.023411
-0.10368
-0.16388
-0.22408
-0.27759
-0.2709
-0.20401
-0.23746
-0.37793
-0.3913
-0.44482
-0.41137
-0.39799
-0.48495
-0.63211
-0.73244
-0.81271
-0.77926
-0.77926
-0.59866
-0.43144
-0.37124
-0.26421
-0.25753
-0.15719
-0.09699
0.063545
0.11037
0.036789
-0.16388
-0.36455
-0.47826
-0.55853
-0.55184
-0.58528
-0.52508
-0.43813
-0.36455
-0.45819
-0.5786
-0.53846
-0.43813
-0.24415
-0.10368
-0.0301
-0.13043
-0.34448
-0.40468
-0.43144
-0.39799
-0.39799
-0.35117
-0.3311
-0.24415
-0.19064
-0.15719
-0.090301
-0.0301
0.16388
0.23077
0.23077
0.2107
0.25084
0.23746
0.19064
0.19732
0.13712
0.18395
0.18395
0.20401
0.17057
0.11706
0.09699
0.056856
0.083612
0.17057
0.25753
0.23077
0.13712
-0.13712
-0.21739
-0.34448
-0.26421
-0.19732
-0.12375
0.063545
0.20401
0.23077
0.1505
0.1505
0.18395
0.19732
0.20401
0.11706
0.076923
0.063545
0.083612
0.090301
0.056856
0.11706
0.13043
0.09699
0.050167
0.083612
0.13043
0.18395
0.27759
0.24415
0.34448
0.30435
0.34448
0.19732
0.070234
0.023411
0.050167
0.12375
0.20401
0.25753
0.23077
0.1505
0.31773
0.40468
0.52508
0.61204
0.5786
0.40468
0.22408
0.063545
0.043478
0.016722
0.0301
-0.016722
-0.16388
-0.12375
-0.016722
0.21739
0.39799
0.49164
0.47826
0.40468
0.29766
0.17057
0.09699
0.076923
0.14381
0.16388
0.21739
0.27759
0.26421
0.44482
0.47826
0.60535
0.68562
0.73244
0.72575
0.61873
0.35117
0.09699
-0.016722
-0.056856
-0.016722
0.0033445
0.036789
0.050167
0.09699
0.13043
0.13043
0.056856
0.010033
0.083612
0.18395
0.40468
0.6388
0.66555
0.51839
0.29097
0.20401
0.2107
0.35117
0.42475
0.52508
0.50502
0.57191
0.65886
0.60535
0.39799
0.083612
-0.1505
-0.32441
-0.29766
-0.21739
-0.19064
-0.11706
0.0033445
0.090301
0.090301
0.083612
0.070234
0.010033
-0.010033
-0.0033445
-0.0301
-0.19064
-0.056856
0.036789
0.23746
0.31773
0.30435
0.19064
0.070234
-0.063545
-0.17726
-0.27759
-0.35786
-0.45151
-0.33779
-0.23746
0.0301
0.19732
0.25084
0.28428
0.37793
0.37793
0.32441
0.20401
0.050167
-0.17057
-0.070234
0.12375
0.38462
0.53177
0.47157
0.3311
0.13043
-0.083612
-0.21739
-0.35117
-0.34448
-0.23746
-0.13043
-0.083612
-0.2107
-0.11706
-0.16388
-0.11037
-0.090301
-0.056856
0.043478
0.23746
0.45819
0.59197
0.65886
0.71906
0.78595
0.74582
0.6388
0.48495
0.23077
0.11706
0.12375
0.09699
0.13043
0.19732
0.2709
0.29766
0.17726
0.043478
-0.11037
-0.30435
-0.16388
-0.15719
-0.16388
-0.23077
-0.2107
-0.15719
-0.076923
-0.0033445
0.010033
0.010033
0.0301
0.016722
0.010033
0.023411
-0.083612
-0.076923
-0.26421
-0.33779
-0.36455
-0.40468
-0.36455
-0.31773
-0.35786
-0.48495
-0.56522
-0.52508
-0.47826
-0.33779
-0.29766
-0.23746
-0.2709
-0.25753
-0.21739
-0.28428
-0.38462
-0.46488
-0.53177
-0.60535
-0.62542
-0.58528
-0.59866
-0.57191
-0.59866
-0.52508
-0.42475
-0.29097
-0.26421
-0.41137
-0.61873
-0.81271
-0.74582
-0.71237
-0.50502
-0.35117
-0.3311
-0.3913
-0.45819
-0.53846
-0.59866
-0.53177
-0.41806
-0.40468
-0.24415
-0.18395
-0.15719
-0.24415
-0.33779
-0.36455
-0.31773
-0.2107
-0.050167
0.036789
-0.0033445
-0.063545
-0.063545
0.036789
0.083612
0.34448
0.36455
0.42475
0.50502
0.49833
0.45819
0.31104
0.11706
-0.050167
-0.043478
0.11706
0.24415
0.19064
0.090301
0.070234
0.13043
0.25753
0.51839
0.6388
0.73244
0.69231
0.59197
0.41806
0.24415
0.13043
0.010033
0.036789
0.11706
0.18395
0.1505
0.11037
0.063545
-0.050167
-0.010033
-0.016722
-0.023411
-0.13712
-0.26421
-0.25753
-0.2107
-0.14381
-0.023411
-0.043478
-0.17057
-0.25753
-0.27759
-0.09699
0.083612
0.17726
0.1505
-0.010033
-0.17057
-0.25084
-0.20401
-0.090301
0.09699
0.25753
0.33779
0.29766
0.27759
0.13043
0.0301
0.0301
-0.036789
0.14381
0.19064
0.31104
0.29766
0.25084
0.17057
0.09699
0.0301
0.043478
0.1505
0.21739
0.31104
0.31773
0.3311
0.22408
0.056856
0.18395
0.18395
0.25753
0.23077
0.11706
-0.043478
-0.11706
-0.10368
-0.17057
-0.17057
-0.14381
-0.0301
0.17057
0.48495
0.67893
0.7592
0.59866
0.37124
0.1505
-0.056856
-0.0301
-0.016722
0.12375
0.25084
0.44482
0.55853
0.63211
0.699
0.62542
0.55184
0.49164
0.50502
0.49833
0.41806
0.33779
0.20401
0.30435
0.44482
0.59866
0.56522
0.47826
0.47826
0.5786
0.65886
0.67224
0.62542
0.52508
0.45151
0.3913
0.35117
0.28428
0.23746
0.28428
0.26421
0.32441
0.41137
0.36455
0.40468
0.28428
0.20401
0.09699
0.043478
0.070234
0.11706
0.036789
-0.043478
-0.09699
-0.070234
0.12375
0.31104
0.41806
0.2107
-0.010033
-0.17057
-0.20401
-0.11706
-0.15719
-0.22408
-0.30435
-0.28428
-0.31104
-0.3913
-0.45819
-0.41137
-0.25753
-0.19732
0.056856
0.070234
0.070234
0.043478
0.023411
0.076923
0.010033
-0.13712
-0.41137
-0.61873
-0.80602
-0.89298
-1
-0.97993
-0.78595
-0.45819
-0.13043
0.076923
0.2709
0.34448
0.3913
0.42475
0.42475
0.33779
0.19732
0.090301
-0.0301
-0.050167
0.0301
0.17057
0.25753
0.28428
0.37124
0.33779
0.29766
0.23077
0.14381
0.070234
0.050167
-0.010033
-0.22408
-0.33779
-0.35786
-0.19064
-0.0301
0.076923
0.056856
-0.076923
-0.14381
-0.10368
0.070234
0.22408
0.35786
0.35117
0.25084
0.12375
0.016722
-0.050167
-0.17726
-0.14381
-0.09699
-0.063545
-0.1505
-0.34448
-0.54515
-0.66555
-0.59866
-0.45151
-0.31104
-0.17726
-0.090301
-0.10368
-0.14381
-0.11037
-0.070234
-0.0033445
0.050167
0.11706
0.076923
-0.010033
-0.090301
-0.15719
-0.23746
-0.26421
-0.32441
-0.35117
-0.3311
-0.18395
0.0033445
0.056856
0.10368
0.076923
0.010033
-0.056856
-0.090301
-0.056856
-0.056856
-0.0301
-0.043478
-0.090301
0.023411
0.17057
0.29097
0.31773
0.25753
0.21739
0.20401
0.19732
0.29097
0.29097
0.28428
0.25753
0.19064
0.13712
0.15719
0.13712
0.12375
-0.090301
-0.20401
-0.31104
-0.31104
-0.25084
-0.09699
0.0301
0.11037
0.22408
0.26421
0.17057
0.0301
-0.0301
-0.050167
0.050167
0.23077
0.32441
0.29097
0.12375
-0.076923
-0.32441
-0.45819
-0.45151
-0.3913
-0.31773
-0.27759
-0.2107
-0.15719
-0.13712
-0.10368
-0.13043
-0.15719
-0.15719
-0.11037
0.010033
0.0301
0.056856
0.10368
0.1505
0.2709
0.40468
0.38462
0.30435
0.17057
0.056856
-0.090301
-0.12375
-0.070234
-0.036789
0.070234
0.17726
0.24415
0.14381
0.14381
0.11706
0.10368
0.076923
0.070234
0.076923
0.050167
0.050167
-0.0301
-0.023411
0.076923
0.22408
0.33779
0.35786
0.38462
0.29766
0.1505
-0.023411
-0.063545
-0.036789
0.056856
0.070234
0.13043
0.070234
0.14381
0.25753
0.31773
0.37124
0.40468
0.40468
0.37124
0.3311
0.33779
0.25084
0.18395
0.1505
0.1505
0.12375
0.076923
0.090301
0.036789
0.010033
-0.083612
-0.010033
-0.11706
-0.11037
-0.13043
-0.09699
0.023411
0.16388
0.24415
0.25084
0.16388
0.090301
-0.0033445
0.016722
0.063545
0.12375
0.090301
0.070234
0.070234
0.010033
0.010033
0.036789
0.17726
0.31104
0.47157
0.51839
0.41806
0.45819
0.44482
0.43813
0.29097
0.1505
-0.0033445
-0.13712
-0.25753
-0.35117
-0.3913
-0.34448
-0.11037
0.09699
0.24415
0.36455
0.43144
0.66555
0.82609
1
0.92642
0.65886
0.36455
0.23746
0.1505
0.20401
0.23077
0.22408
0.16388
0.12375
0.18395
0.2709
0.38462
0.44482
0.41137
0.29766
0.21739
0.15719
0.050167
-0.0301
-0.076923
0.070234
0.24415
0.47157
0.5786
0.51839
0.40468
0.3311
0.36455
0.39799
0.45819
0.47157
0.35117
0.19732
-0.016722
-0.24415
-0.37124
-0.32441
-0.24415
-0.15719
-0.10368
0.036789
0.15719
0.21739
0.28428
0.27759
0.36455
0.52508
0.7592
0.85284
0.77258
0.62542
0.41806
0.2709
0.15719
0.10368
-0.023411
-0.10368
-0.1505
-0.16388
-0.11037
-0.016722
0.083612
0.16388
0.29766
0.43813
0.56522
0.55853
0.50502
0.40468
0.25753
0.17057
0.13712
0.16388
0.14381
0.043478
-0.023411
-0.056856
0.023411
0.23746
0.34448
0.28428
0.083612
-0.10368
-0.22408
-0.19064
-0.13043
-0.11706
-0.22408
-0.21739
-0.14381
-0.016722
0.083612
0.09699
0.11706
0.12375
0.25084
0.42475
0.45151
0.33779
0.15719
0.0033445
0.036789
0.21739
0.33779
0.38462
0.27759
0.12375
0.0033445
-0.13043
-0.13043
-0.2107
-0.31104
-0.46488
-0.46488
-0.43144
-0.30435
-0.13043
0.010033
0.070234
0.16388
0.22408
0.20401
0.21739
0.2107
0.20401
0.21739
0.19064
0.21739
0.19064
0.20401
0.19732
0.18395
0.09699
0.070234
0.15719
0.23746
0.23746
0.18395
0.11037
-0.016722
-0.0301
0.0033445
0.036789
0.070234
0.010033
-0.063545
-0.19732
-0.29097
-0.35786
-0.41137
-0.41137
-0.35786
-0.25084
-0.12375
0.0301
0.090301
0.090301
0.17057
0.26421
0.3913
0.36455
0.31104
0.13043
-0.010033
-0.076923
0.016722
0.076923
0.070234
0.076923
0.10368
0.17726
0.23746
0.30435
0.25084
0.18395
0.14381
0.11706
0.13043
0.11037
0.076923
0.0301
-0.0033445
0.0301
0.17057
0.29766
0.35786
0.38462
0.29766
0.20401
0.12375
0.0033445
-0.11037
-0.20401
-0.21739
-0.25084
-0.23746
-0.15719
-0.050167
-0.0033445
-0.010033
-0.0033445
-0.016722
0.036789
0.13712
0.25753
0.31773
0.34448
0.29097
0.14381
0.076923
0.070234
0.083612
-0.070234
-0.11706
-0.20401
-0.26421
-0.21739
-0.063545
0.14381
0.1505
0.12375
-0.076923
-0.19064
-0.23746
-0.17057
-0.090301
-0.11706
-0.13712
-0.20401
-0.23077
-0.17057
-0.043478
0.056856
0.070234
0.11037
-0.0033445
-0.11706
-0.29766
-0.3913
-0.48495
-0.50502
-0.52508
-0.54515
-0.48495
-0.35786
-0.09699
0.083612
0.22408
0.30435
0.29766
0.23077
0.10368
-0.0033445
-0.11037
-0.16388
-0.24415
-0.33779
-0.5786
-0.77258
-0.88629
-0.91304
-0.79264
-0.6388
-0.47826
-0.39799
-0.23746
-0.11706
-0.13043
-0.20401
-0.29097
-0.29097
-0.29097
-0.22408
-0.23077
-0.27759
-0.29766
-0.25753
-0.15719
-0.083612
-0.016722
-0.076923
-0.24415
-0.42475
-0.47157
-0.37793
-0.28428
-0.17057
-0.20401
-0.27759
-0.24415
-0.063545
0.023411
0.023411
0.036789
0.036789
0.11037
0.2709
0.38462
0.45151
0.50502
0.58528
0.56522
0.45151
0.20401
0.050167
0.0033445
0.13043
0.30435
0.37124
0.26421
0.11037
0.11037
0.15719
0.25084
0.35786
0.37793
0.29097
0.11706
0.0033445
-0.13712
-0.17057
-0.050167
0.0301
0.083612
0.11037
0.10368
0.076923
0.043478
-0.063545
-0.12375
-0.17726
-0.13043
-0.19064
-0.37124
-0.53177
-0.47826
-0.25753
0.056856
0.35786
0.50502
0.53177
0.50502
0.43813
0.39799
0.32441
0.34448
0.3913
0.3913
0.29097
0.15719
-0.036789
-0.14381
-0.056856
0.090301
0.25084
0.30435
0.21739
0.010033
-0.23077
-0.3311
-0.3311
-0.29766
-0.27759
-0.22408
-0.21739
-0.13043
-0.023411
0.11037
0.23077
0.23746
0.17726
-0.016722
-0.11037
-0.13043
-0.083612
-0.010033
0.023411
0.076923
0.076923
0.11037
0.23077
0.37124
0.43144
0.44482
0.45819
0.3913
0.34448
0.29097
0.23746
0.11706
0.070234
-0.056856
-0.25753
-0.37793
-0.41137
-0.31104
-0.17726
-0.016722
-0.016722
-0.083612
-0.19064
-0.24415
-0.21739
-0.16388
-0.0301
0.023411
0.023411
-0.010033
-0.010033
-0.010033
-0.0033445
0.010033
-0.043478
-0.063545
-0.11037
-0.090301
-0.11037
-0.023411
0.016722
-0.023411
-0.13712
-0.25753
-0.23746
-0.16388
-0.083612
0.0301
0.0301
0.043478
0.063545
0.17726
0.21739
0.2107
0.17057
0.063545
-0.023411
-0.043478
0.0301
0.090301
0.11037
0.16388
0.2107
0.17726
0.076923
-0.056856
-0.2107
-0.25753
-0.16388
0.0033445
0.09699
0.17057
0.090301
0.016722
-0.023411
-0.010033
-0.023411
-0.13043
-0.19064
-0.26421
-0.3311
-0.29766
-0.15719
0.043478
0.17057
0.23077
0.16388
-0.0033445
-0.18395
-0.15719
-0.043478
0.13712
0.30435
0.32441
0.29766
0.30435
0.38462
0.41806
0.3913
0.37124
0.29766
0.25753
0.19732
0.17057
0.090301
0.070234
0.14381
0.23077
0.24415
0.26421
0.25084
0.2709
0.25753
0.33779
0.3913
0.37793
0.29097
0.13043
-0.15719
-0.25753
-0.22408
-0.016722
0.16388
0.2709
0.25753
0.19732
0.16388
0.20401
0.21739
0.10368
0.043478
0.010033
-0.023411
0.0301
0.063545
0.070234
0.13043
0.23077
0.35117
0.47157
0.51839
0.49833
0.36455
0.1505
0.0301
-0.043478
-0.056856
-0.0033445
0.083612
0.21739
0.29097
0.37793
0.36455
0.36455
0.35786
0.35117
0.2107
0.010033
-0.17057
-0.2107
-0.15719
-0.070234
0.11037
0.14381
0.11037
-0.010033
-0.083612
-0.090301
0.023411
0.18395
0.23077
0.20401
0.13043
0.10368
0.13043
0.29766
0.55184
0.61204
0.50502
0.23077
-0.023411
-0.21739
-0.19064
0.010033
0.19732
0.37793
0.41806
0.33779
0.12375
-0.050167
-0.070234
0.070234
0.27759
0.49833
0.65886
0.64548
0.63211
0.53846
0.52508
0.61204
0.69231
0.699
0.50502
0.25084
-0.083612
-0.3311
-0.49833
-0.44482
-0.31104
-0.19064
-0.11706
-0.16388
-0.35117
-0.42475
-0.39799
-0.30435
-0.13712
0.050167
0.18395
0.19064
0.11037
0.023411
-0.090301
-0.16388
-0.23077
-0.23077
-0.23077
-0.25084
-0.23077
-0.26421
-0.17057
0.016722
0.22408
0.37124
0.47826
0.51171
0.48495
0.43144
0.31104
0.18395
0.0033445
-0.050167
0.010033
0.076923
0.16388
0.20401
0.20401
0.050167
-0.043478
-0.070234
-0.090301
-0.016722
0.056856
0.10368
0.083612
0.056856
0.0301
-0.0301
-0.070234
-0.076923
-0.11706
-0.11037
-0.076923
-0.090301
-0.13043
-0.18395
-0.13712
-0.076923
0.0301
0.14381
0.20401
0.18395
0.12375
0.11037
0.11706
0.16388
0.13043
-0.050167
-0.3913
-0.68562
-0.85284
-0.97324
-1
-0.99331
-0.93311
-0.84615
-0.67224
-0.37793
-0.13043
0.083612
0.25753
0.37124
0.40468
0.3311
0.30435
0.17057
0.0301
-0.16388
-0.36455
-0.60535
-0.7592
-0.88629
-0.97324
-0.94649
-0.78595
-0.58528
-0.42475
-0.29097
-0.19064
-0.2107
-0.25084
-0.25753
-0.17726
-0.083612
-0.056856
-0.056856
-0.050167
0.063545
0.25753
0.34448
0.23077
0.083612
-0.13712
-0.32441
-0.35117
-0.32441
-0.2107
-0.16388
-0.056856
-0.063545
-0.13712
-0.30435
-0.44482
-0.5786
-0.67224
-0.61204
-0.51171
-0.37124
-0.22408
-0.016722
0.090301
0.19064
0.23746
0.19732
0.18395
0.083612
0.010033
-0.17726
-0.29766
-0.26421
-0.13043
0.016722
0.070234
0.12375
0.036789
-0.010033
0.023411
0.22408
0.44482
0.53177
0.47157
0.24415
0.11706
0.11037
0.2107
0.23077
0.31773
0.39799
0.42475
0.48495
0.44482
0.43144
0.41806
0.47157
0.63211
0.71237
0.81271
0.89967
0.90635
0.78595
0.66555
0.52508
0.44482
0.3913
0.27759
0.11706
-0.043478
-0.090301
-0.11037
-0.09699
-0.043478
0.050167
0.1505
0.21739
0.23746
0.19064
0.11037
0.043478
0.056856
0.036789
0.016722
-0.036789
-0.11706
-0.19732
-0.14381
0.016722
0.1505
0.2107
0.13043
0.070234
-0.016722
-0.070234
-0.083612
-0.18395
-0.23077
-0.24415
-0.13712
-0.043478
0.043478
0.036789
-0.070234
-0.20401
-0.21739
-0.14381
-0.083612
0.016722
0.010033
-0.0033445
0.063545
0.11037
0.17726
0.14381
0.13712
0.1505
0.18395
0.24415
0.27759
0.26421
0.1505
0.0301
-0.016722
0.056856
0.19064
0.31773
0.35786
0.34448
0.45151
0.54515
0.53177
0.44482
0.31104
0.18395
0.063545
0.016722
0.023411
0.010033
-0.0033445
0.010033
-0.036789
-0.09699
-0.063545
0.050167
0.17726
0.23077
0.21739
0.13712
0.010033
-0.083612
-0.1505
-0.17726
-0.056856
0.19732
0.37793
0.47157
0.49164
0.45151
0.44482
0.55853
0.70569
0.71237
0.56522
0.29097
0.11037
0.0033445
-0.043478
0.016722
-0.0301
-0.023411
-0.036789
0.023411
-0.056856
0.12375
0.19064
0.28428
0.21739
0.09699
0.063545
-0.010033
0.036789
0.11037
0.1505
0.15719
0.13043
0.010033
-0.17057
-0.21739
-0.2709
-0.25084
-0.22408
-0.17726
-0.17057
-0.11037
0.010033
0.1505
0.2709
0.36455
0.43813
0.41806
0.40468
0.37793
0.37124
0.30435
0.16388
0.043478
-0.070234
-0.090301
0.036789
0.12375
0.14381
0.14381
0.19064
0.19732
0.25753
0.35786
0.42475
0.37124
0.27759
0.17726
0.12375
0.13043
0.12375
0.1505
0.10368
0.12375
0.17726
0.22408
0.3311
0.39799
0.40468
0.29097
0.17726
0.083612
0.010033
0.010033
0.043478
0.10368
0.076923
0.043478
-0.016722
-0.070234
-0.11706
-0.16388
-0.22408
-0.2709
-0.17057
-0.043478
0.043478
0.063545
0.0033445
-0.12375
-0.16388
-0.13043
-0.043478
-0.11706
-0.17726
-0.2107
-0.2107
-0.11706
0.0301
0.15719
0.24415
0.25753
0.1505
-0.10368
-0.37793
-0.43813
-0.35786
-0.19732
-0.023411
0.17057
0.25084
0.30435
0.25753
0.19064
0.14381
0.090301
0.0033445
-0.22408
-0.35786
-0.3311
-0.27759
-0.2709
-0.21739
-0.09699
0.050167
0.24415
0.42475
0.50502
0.49833
0.43144
0.2107
-0.056856
-0.30435
-0.41137
-0.37793
-0.31104
-0.1505
-0.016722
0.09699
0.19064
0.23077
0.26421
0.29097
0.42475
0.46488
0.39799
0.25084
0.12375
-0.0033445
-0.063545
-0.036789
-0.0033445
-0.063545
-0.17057
-0.20401
-0.12375
0.016722
0.14381
0.11037
-0.016722
-0.10368
-0.09699
0.050167
0.31773
0.54515
0.58528
0.45151
0.33779
0.31773
0.30435
0.21739
0.076923
-0.10368
-0.25084
-0.29097
-0.21739
-0.063545
0.11037
0.29097
0.37793
0.37793
0.43144
0.53846
0.59197
0.699
0.69231
0.61873
0.39799
0.17057
-0.043478
-0.2107
-0.25084
-0.25084
-0.19732
-0.063545
0.11706
0.25084
0.23077
0.11706
-0.0301
-0.16388
-0.28428
-0.31104
-0.30435
-0.27759
-0.22408
-0.11706
0.0301
0.17726
0.37793
0.50502
0.5786
0.61873
0.67893
0.63211
0.52508
0.43144
0.13712
-0.19732
-0.5786
-0.77926
-0.79933
-0.65886
-0.39799
-0.12375
0.076923
0.2107
0.29097
0.21739
0.14381
0.056856
-0.023411
-0.09699
-0.12375
-0.11037
-0.23746
-0.3913
-0.44482
-0.35786
-0.21739
-0.12375
-0.10368
-0.14381
-0.17726
-0.15719
-0.070234
-0.016722
0.016722
-0.056856
-0.18395
-0.22408
-0.13712
0.076923
0.15719
0.18395
0.11037
0.0301
0.063545
0.09699
0.076923
-0.16388
-0.36455
-0.49164
-0.45151
-0.34448
-0.17726
-0.17726
-0.39799
-0.55853
-0.66555
-0.59866
-0.36455
-0.063545
0.11037
0.2107
0.23077
0.20401
0.19732
0.1505
0.19732
0.13043
0.043478
-0.043478
-0.13712
-0.24415
-0.35786
-0.40468
-0.48495
-0.50502
-0.40468
-0.2709
-0.09699
0.043478
0.083612
0.010033
-0.063545
-0.13712
-0.21739
-0.37124
-0.49164
-0.55184
-0.65886
-0.71237
-0.73244
-0.65217
-0.48495
-0.22408
0.0301
0.13712
0.19064
0.16388
0.12375
-0.010033
-0.076923
-0.1505
-0.30435
-0.45819
-0.47826
-0.35117
-0.16388
0.070234
0.19732
0.25084
0.23746
0.18395
0.12375
0.11037
0.18395
0.19064
0.09699
-0.050167
-0.19064
-0.3311
-0.31773
-0.14381
0.083612
0.23746
0.24415
0.19732
0.056856
-0.036789
-0.036789
0.0033445
0.056856
0.13043
0.27759
0.35117
0.39799
0.41137
0.33779
0.20401
0.036789
-0.0033445
-0.070234
-0.010033
0.0301
0.11706
0.14381
0.15719
0.070234
-0.076923
-0.09699
-0.010033
0.13712
0.20401
0.20401
0.2107
0.20401
0.20401
0.25753
0.28428
0.24415
0.19732
0.12375
0.076923
0.10368
0.17726
0.23746
0.19732
0.18395
0.19064
0.28428
0.45151
0.56522
0.54515
0.39799
0.32441
0.31104
0.31104
0.37124
0.43813
0.45151
0.36455
0.26421
0.2107
0.21739
0.21739
0.19064
0.09699
0.050167
0.063545
0.090301
0.023411
-0.10368
-0.12375
-0.11706
-0.016722
0.043478
0.050167
0.010033
-0.010033
0.056856
0.070234
0.076923
0.043478
-0.036789
-0.13043
-0.083612
0.070234
0.2107
0.22408
0.19064
0.14381
0.076923
0.070234
0.056856
-0.056856
-0.083612
-0.0033445
0.11037
0.15719
0.25084
0.27759
0.31104
0.38462
0.55853
0.72575
0.77926
0.66555
0.40468
0.076923
-0.15719
-0.17726
-0.12375
-0.043478
0.0301
0.016722
-0.0033445
0.13043
0.3311
0.49164
0.53846
0.54515
0.48495
0.41806
0.37793
0.34448
0.26421
0.23077
0.14381
0.11706
0.070234
0.090301
0.16388
0.19064
0.17726
0.17726
0.17726
0.19064
0.19064
0.23746
0.2107
0.19064
0.2107
0.25753
0.30435
0.32441
0.31773
0.23077
0.20401
0.17726
0.16388
0.12375
0.10368
0.13043
0.13043
0.1505
0.23077
0.31104
0.30435
0.41137
0.46488
0.42475
0.35117
0.24415
0.16388
0.070234
0.0301
-0.010033
-0.036789
-0.056856
-0.0301
-0.056856
-0.17057
-0.17057
-0.083612
0.070234
0.17057
0.21739
0.090301
-0.023411
0.010033
-0.036789
-0.063545
-0.063545
0.016722
0.12375
0.27759
0.40468
0.30435
0.083612
-0.16388
-0.23746
-0.17726
-0.023411
0.10368
0.076923
-0.070234
-0.23077
-0.18395
-0.010033
0.19732
0.2709
0.25753
0.13043
0.11706
0.18395
0.24415
0.36455
0.37793
0.32441
0.17057
0.090301
0.070234
0.16388
0.21739
0.25084
0.20401
0.11706
0.11706
0.13043
0.076923
-0.0033445
-0.11037
-0.16388
-0.19064
-0.12375
-0.13043
-0.19064
-0.25753
-0.28428
-0.23746
-0.16388
-0.076923
-0.083612
-0.043478
-0.0301
0.10368
0.2107
0.29097
0.36455
0.35786
0.2709
0.1505
0.070234
0.11037
0.12375
0.17726
0.19064
0.13712
0.10368
0.11037
0.076923
0.090301
0.11706
0.17726
0.18395
0.09699
0.050167
0.083612
0.23077
0.40468
0.51171
0.45151
0.29097
0.16388
0.043478
0.036789
0.11706
0.1505
0.070234
-0.036789
-0.14381
-0.18395
-0.090301
0.10368
0.28428
0.36455
0.36455
0.32441
0.33779
0.31104
0.35117
0.41137
0.33779
0.27759
0.16388
0.023411
-0.063545
-0.050167
-0.0033445
0.11037
0.25084
0.25084
0.26421
0.24415
0.24415
0.1505
0.0033445
-0.13712
-0.25084
-0.30435
-0.31104
-0.19732
-0.13043
-0.023411
0.13712
0.30435
0.3311
0.29097
0.18395
-0.0033445
-0.14381
-0.2709
-0.41137
-0.43144
-0.43813
-0.3311
-0.24415
-0.15719
-0.083612
0.0301
0.083612
0.15719
0.25084
0.17726
0.076923
-0.050167
-0.14381
-0.16388
-0.09699
0.036789
0.056856
0.063545
0.050167
0.036789
-0.043478
0.023411
0.063545
0.09699
0.090301
0.10368
0.09699
0.043478
0.016722
-0.056856
-0.083612
-0.10368
-0.09699
-0.090301
-0.070234
-0.036789
-0.043478
-0.043478
-0.010033
0.070234
0.11706
0.10368
0.09699
0.056856
0.036789
0.0033445
0.0301
0.043478
0.016722
0.070234
0.11706
0.19732
0.31104
0.42475
0.41806
0.35786
0.29766
0.22408
0.09699
-0.13712
-0.29766
-0.41137
-0.45819
-0.42475
-0.3311
-0.22408
-0.076923
0.056856
0.063545
0.043478
-0.023411
-0.10368
-0.17057
-0.28428
-0.49833
-0.73244
-0.86622
-0.79933
-0.59866
-0.48495
-0.41806
-0.47157
-0.49164
-0.42475
-0.21739
-0.023411
0.0033445
0.023411
-0.083612
-0.17726
-0.19732
-0.20401
-0.15719
-0.15719
-0.023411
0.056856
0.17057
0.27759
0.39799
0.42475
0.2709
0.11706
-0.016722
-0.10368
-0.15719
-0.17726
-0.26421
-0.28428
-0.17726
0.056856
0.29766
0.45151
0.52508
0.44482
0.35117
0.30435
0.30435
0.2709
0.18395
0.16388
0.016722
-0.043478
0.083612
0.25084
0.43813
0.49833
0.40468
0.2709
0.20401
0.23077
0.3311
0.31773
0.25753
0.14381
-0.010033
-0.11706
-0.11037
-0.056856
-0.12375
-0.12375
-0.070234
0.076923
0.24415
0.3913
0.34448
0.21739
0.14381
0.056856
-0.023411
-0.11706
-0.23077
-0.35117
-0.44482
-0.40468
-0.26421
-0.13712
-0.010033
0.063545
0.076923
0.070234
0.18395
0.32441
0.45151
0.41137
0.19064
-0.070234
-0.23077
-0.19064
-0.09699
0.023411
0.056856
0.090301
0.11706
0.23077
0.45151
0.59197
0.55184
0.35786
0.19064
0.036789
0.0301
0.083612
0.13712
0.10368
0.050167
0.063545
0.11037
0.19732
0.33779
0.44482
0.47157
0.44482
0.42475
0.32441
0.25753
0.17057
0.09699
0.0301
-0.0301
-0.063545
-0.023411
0.063545
0.14381
0.1505
0.083612
0.0033445
-0.043478
-0.11037
-0.09699
-0.050167
0.0033445
0.050167
0.22408
0.3913
0.55184
0.58528
0.55184
0.41137
0.22408
0.15719
0.17726
0.28428
0.31104
0.26421
0.12375
-0.050167
-0.050167
0.016722
0.076923
0.11706
0.12375
0.010033
-0.083612
-0.13712
-0.16388
-0.19732
-0.21739
-0.1505
-0.083612
0.016722
0.12375
0.09699
0.010033
-0.070234
-0.11037
-0.076923
-0.010033
0.0033445
0.010033
-0.036789
-0.0033445
0.070234
0.11037
0.11706
0.076923
0.0301
-0.17057
-0.3311
-0.43144
-0.36455
-0.20401
-0.076923
-0.050167
-0.070234
-0.036789
0.050167
0.070234
0.036789
0.023411
-0.050167
-0.1505
-0.17057
-0.2107
-0.16388
-0.070234
0.016722
0.083612
0.09699
0.17057
0.32441
0.50502
0.69231
0.75251
0.55184
0.22408
-0.043478
-0.13712
-0.083612
-0.0033445
0.090301
0.043478
0.0033445
-0.0301
-0.0033445
-0.043478
-0.050167
0.023411
0.043478
0.090301
0.076923
0.0301
-0.070234
-0.11706
-0.0301
0.050167
0.13712
0.17057
0.13712
0.043478
-0.010033
-0.0033445
-0.050167
-0.13712
-0.23077
-0.30435
-0.37124
-0.35786
-0.25753
-0.11706
0.083612
0.25084
0.3311
0.29097
0.19064
0.083612
-0.083612
-0.19732
-0.26421
-0.31773
-0.3913
-0.43144
-0.47826
-0.55184
-0.53846
-0.38462
-0.2107
-0.016722
0.21739
0.3913
0.47826
0.46488
0.47157
0.45151
0.37124
0.27759
0.14381
-0.023411
-0.18395
-0.2709
-0.35117
-0.29766
-0.13043
0.10368
0.28428
0.36455
0.3311
0.21739
0.12375
0.050167
0.010033
-0.076923
-0.13043
-0.14381
-0.20401
-0.25084
-0.23746
-0.21739
-0.21739
-0.19064
-0.1505
-0.12375
-0.083612
-0.0301
-0.043478
-0.20401
-0.3311
-0.39799
-0.39799
-0.33779
-0.32441
-0.31104
-0.30435
-0.23746
-0.20401
-0.22408
-0.23077
-0.14381
-0.016722
0.11037
0.25753
0.2709
0.28428
0.30435
0.35786
0.30435
0.090301
-0.15719
-0.3311
-0.39799
-0.35117
-0.19732
0.016722
0.18395
0.29766
0.30435
0.23077
0.17726
0.2107
0.25753
0.3311
0.47826
0.57191
0.56522
0.45819
0.35117
0.25753
0.23746
0.30435
0.39799
0.47157
0.49164
0.48495
0.31773
0.13712
0.0301
0.043478
0.070234
0.17057
0.22408
0.25753
0.37124
0.51171
0.67893
0.79264
0.83946
0.81271
0.67893
0.5786
0.50502
0.39799
0.19732
0.0301
-0.090301
-0.15719
-0.16388
-0.15719
-0.13043
-0.16388
-0.070234
0.016722
0.15719
0.38462
0.59197
0.699
0.65217
0.55853
0.3913
0.2107
0.070234
-0.0033445
-0.050167
-0.13043
-0.14381
-0.19064
-0.24415
-0.2709
-0.17057
-0.063545
0.050167
0.17057
0.32441
0.34448
0.3311
0.21739
0.010033
-0.15719
-0.29766
-0.41137
-0.49833
-0.53846
-0.40468
-0.28428
-0.1505
-0.09699
-0.09699
-0.10368
-0.11706
-0.13043
-0.1505
-0.09699
0.050167
0.1505
0.13712
0.016722
-0.010033
-0.043478
0.016722
0.016722
0.016722
-0.0301
0.0301
0.0301
0.023411
0.010033
-0.043478
-0.09699
-0.20401
-0.20401
-0.17726
-0.16388
-0.13712
-0.10368
-0.09699
-0.12375
-0.036789
-0.010033
0.010033
-0.0033445
0.043478
0.050167
0.056856
0.090301
0.17057
0.27759
0.31773
0.25084
0.083612
-0.14381
-0.31773
-0.40468
-0.46488
-0.39799
-0.29097
-0.22408
-0.1505
-0.11706
-0.050167
0.0301
0.19064
0.45819
0.5786
0.5786
0.42475
0.2709
0.11037
0.043478
0.063545
0.016722
-0.063545
-0.13712
-0.21739
-0.25753
-0.23077
-0.13043
-0.070234
-0.023411
-0.010033
0.016722
-0.076923
-0.090301
-0.17057
-0.32441
-0.43813
-0.43144
-0.3311
-0.25753
-0.2107
-0.19064
-0.15719
-0.10368
-0.0033445
0.0301
0.0033445
-0.0033445
-0.050167
-0.063545
-0.050167
-0.010033
0.0301
0.0301
0.083612
0.10368
0.0033445
-0.13043
-0.20401
-0.23746
-0.19732
-0.13043
-0.11037
-0.13043
-0.23077
-0.26421
-0.29097
-0.20401
-0.12375
-0.063545
-0.17057
-0.23077
-0.15719
-0.0301
0.13043
0.20401
0.20401
0.070234
-0.13043
-0.30435
-0.40468
-0.40468
-0.26421
-0.17057
-0.090301
0.043478
0.21739
0.32441
0.3913
0.44482
0.49164
0.43813
0.36455
0.1505
-0.14381
-0.2709
-0.29097
-0.2709
-0.34448
-0.32441
-0.25753
-0.11706
0.050167
0.18395
0.26421
0.20401
0.11037
-0.063545
-0.11706
-0.11037
0.050167
0.2107
0.29097
0.38462
0.40468
0.46488
0.55853
0.59866
0.44482
0.17057
-0.063545
-0.20401
-0.29097
-0.31104
-0.19732
-0.0301
0.20401
0.32441
0.36455
0.2709
0.17726
0.13712
0.063545
0.09699
0.18395
0.22408
0.17726
0.083612
0.090301
0.016722
0.010033
0.056856
0.12375
0.16388
0.29097
0.41137
0.3913
0.34448
0.30435
0.29097
0.32441
0.43813
0.56522
0.57191
0.53177
0.47157
0.49833
0.51839
0.59197
0.61873
0.55184
0.39799
0.29097
0.16388
0.10368
0.13043
0.09699
0.12375
0.083612
0.09699
0.10368
0.11037
0.14381
0.14381
0.12375
0.12375
0.2107
0.21739
0.21739
0.29097
0.36455
0.41806
0.35786
0.22408
0.076923
0.09699
0.17057
0.29097
0.3311
0.3311
0.23746
0.11706
0.070234
0.063545
0.15719
0.25753
0.30435
0.29766
0.13043
-0.0033445
-0.056856
-0.070234
-0.12375
-0.14381
-0.056856
0.010033
0.12375
0.20401
0.25084
0.23077
0.17057
0.12375
0.083612
0.0301
0.083612
0.083612
0.19064
0.29766
0.35117
0.29766
0.2107
0.1505
0.20401
0.26421
0.41137
0.44482
0.37124
0.21739
0.16388
0.20401
0.25753
0.35786
0.31104
0.23077
0.14381
0.09699
0.13043
0.076923
0.070234
0.070234
0.083612
0.10368
0.056856
0.016722
0.0301
0.11706
0.19732
0.23077
0.23746
0.27759
0.17057
0.063545
-0.023411
-0.050167
-0.070234
-0.076923
-0.11037
-0.20401
-0.21739
-0.1505
-0.036789
0.11706
0.22408
0.35117
0.2709
0.2107
0.19732
0.21739
0.18395
0.18395
0.17726
0.18395
0.1505
0.11037
0.016722
0.023411
0.050167
0.13712
0.15719
0.19732
0.2107
0.1505
0.083612
-0.043478
-0.13043
-0.23746
-0.23746
-0.13712
-0.0033445
0.016722
0.010033
-0.0033445
-0.12375
-0.076923
0.056856
0.3913
0.6388
0.79264
0.73244
0.61873
0.45819
0.31104
0.010033
-0.2709
-0.41137
-0.35786
-0.23077
-0.083612
0.10368
0.23077
0.35117
0.42475
0.37124
0.25753
0.070234
-0.11037
-0.36455
-0.51839
-0.56522
-0.47826
-0.41137
-0.36455
-0.29097
-0.2107
-0.090301
0.076923
0.18395
0.15719
0.076923
0.016722
-0.10368
-0.17057
-0.18395
-0.19064
-0.22408
-0.19732
-0.17726
-0.17726
-0.12375
-0.023411
0.076923
0.1505
0.23077
0.30435
0.26421
0.056856
-0.14381
-0.35786
-0.45151
-0.37124
-0.2709
-0.16388
-0.10368
-0.016722
0.050167
0.070234
0.070234
0.043478
-0.0301
-0.090301
-0.11706
-0.17726
-0.31104
-0.31773
-0.32441
-0.28428
-0.21739
-0.090301
-0.023411
0.0033445
-0.023411
-0.10368
-0.22408
-0.38462
-0.45819
-0.54515
-0.61873
-0.65886
-0.65886
-0.64548
-0.51171
-0.30435
-0.12375
0.13043
0.26421
0.36455
0.30435
0.21739
0.1505
0.070234
0.050167
0.043478
0.0033445
-0.11037
-0.13043
-0.0301
0.12375
0.35786
0.49833
0.55853
0.53846
0.51839
0.49833
0.43813
0.32441
0.13712
-0.050167
-0.32441
-0.44482
-0.49833
-0.42475
-0.23077
0.09699
0.36455
0.53177
0.61204
0.61204
0.57191
0.52508
0.46488
0.31104
0.14381
0.036789
-0.10368
-0.25753
-0.37793
-0.34448
-0.19064
0.056856
0.3311
0.49833
0.58528
0.61204
0.68562
0.699
0.66555
0.58528
0.46488
0.29766
0.2107
0.28428
0.31104
0.41137
0.46488
0.51839
0.54515
0.55184
0.48495
0.29766
0.16388
0.090301
0.070234
0.016722
0.09699
0.20401
0.17057
0.12375
-0.043478
-0.11037
-0.12375
-0.036789
0.043478
0.063545
0.010033
0.0033445
-0.016722
-0.09699
-0.17057
-0.23746
-0.25753
-0.25753
-0.16388
-0.13043
-0.13712
-0.16388
-0.19064
-0.13043
0.010033
0.19064
0.26421
0.19732
0.12375
0.036789
0.010033
0.070234
0.22408
0.19732
0.063545
-0.11706
-0.29097
-0.35117
-0.26421
-0.043478
0.16388
0.23746
0.20401
0.11037
0.016722
0.036789
0.09699
0.11037
0.12375
0.13712
0.14381
0.17726
0.25084
0.37124
0.42475
0.37793
0.28428
0.15719
0.0301
-0.090301
-0.13712
-0.26421
-0.27759
-0.24415
-0.16388
-0.14381
-0.1505
-0.17726
-0.16388
-0.090301
0.063545
0.11706
0.11037
0.063545
-0.016722
0.0033445
0.070234
0.20401
0.24415
0.23077
0.28428
0.25753
0.19732
0.10368
0.070234
0.0033445
-0.070234
-0.0301
0.023411
0.12375
0.2107
0.29097
0.32441
0.37124
0.41806
0.35786
0.20401
0.0301
0.010033
-0.0033445
0.016722
0.043478
0.016722
-0.0033445
-0.010033
0.023411
0.043478
0.11706
0.20401
0.29097
0.27759
0.17726
0.09699
-0.076923
-0.13043
-0.070234
0.0301
0.076923
0.090301
0.070234
-0.010033
0.036789
0.1505
0.33779
0.47826
0.58528
0.58528
0.43144
0.29097
0.17726
0.11706
0.090301
0.063545
0.036789
0.023411
0.050167
0.1505
0.29766
0.36455
0.44482
0.34448
0.17726
0.070234
0.043478
-0.016722
-0.14381
-0.19064
-0.19732
-0.11037
0.050167
0.28428
0.43813
0.48495
0.44482
0.35786
0.27759
0.20401
-0.35117
