-0.19328
0.042017
0.2605
0.27731
0.10924
-0.058824
-0.21008
-0.32773
-0.21008
-0.21008
-0.22689
-0.2605
-0.28571
-0.32773
-0.22689
-0.15966
-0.067227
-0.084034
-0.28571
-0.39496
-0.27731
-0.2521
-0.2437
-0.31092
-0.44538
-0.55462
-0.57983
-0.4958
-0.33613
-0.19328
-0.092437
-0.10084
-0.07563
-0.18487
-0.10924
-0.15966
-0.2521
-0.2521
-0.21008
-0.02521
0.084034
0.13445
0.05042
0.016807
0.067227
0.084034
0.07563
-0.016807
-0.02521
-0.16807
-0.19328
-0.19328
-0.07563
-0.05042
-0.092437
-0.016807
0.058824
0.058824
0.16807
0.07563
-0.084034
-0.22689
-0.27731
-0.26891
-0.17647
-0.016807
0.10924
0.15966
0.23529
0.28571
0.21849
0.10924
0.0084034
0.016807
0.058824
0.14286
0.18487
-0.033613
-0.15126
-0.31933
-0.30252
-0.21849
0.22689
0.2521
0.22689
-0.05042
-0.15966
-0.07563
0.058824
0.2605
0.40336
0.45378
0.26891
0.042017
-0.16807
-0.31933
-0.32773
-0.31092
-0.21849
-0.092437
0.092437
0.084034
-0.084034
-0.30252
-0.33613
-0.30252
-0.058824
0.15966
0.18487
0.12605
0.17647
0.21849
0.23529
0.21008
0.16807
-0.058824
-0.15966
-0.16807
-0.07563
0.0084034
0.058824
0.23529
0.30252
0.57983
0.83193
0.92437
0.83193
0.59664
0.44538
0.36975
0.29412
0.35294
0.38655
0.47899
0.54622
0.54622
0.31933
0.17647
0.26891
0.36134
0.35294
0.22689
0.11765
0.033613
0.0084034
-0.0084034
0.033613
-0.058824
-0.058824
-0.067227
-0.033613
0.18487
0.2605
0.40336
0.27731
0.21008
0.17647
0.15966
0.19328
0.092437
-0.02521
-0.14286
-0.19328
-0.2437
-0.2605
-0.13445
0.042017
0.02521
-0.016807
-0.10924
-0.05042
-0.10084
0
-0.0084034
-0.15966
-0.30252
-0.37815
-0.2605
-0.15126
0.016807
0.19328
0.05042
0
-0.05042
0.07563
0.26891
0.33613
0.35294
0.31933
0.21849
0.21008
0.2521
0.35294
0.42857
0.47059
0.38655
0.47059
0.66387
0.62185
0.38655
0.084034
-0.05042
-0.0084034
-0.016807
-0.042017
-0.14286
-0.15966
-0.058824
0.016807
0.084034
0.12605
-0.0084034
-0.10084
-0.2521
-0.29412
-0.31092
-0.27731
-0.21849
0.084034
0.21008
0.20168
0.10924
-0.067227
-0.067227
-0.17647
-0.2605
-0.2437
-0.2605
-0.084034
0.10084
0.31933
0.37815
0.41176
0.2605
0.26891
0.28571
0.16807
0.016807
-0.092437
-0.10924
-0.016807
0.067227
0.27731
0.33613
0.21008
0.067227
-0.092437
-0.30252
-0.44538
-0.4958
-0.52101
-0.46218
-0.44538
-0.29412
-0.34454
-0.29412
-0.29412
-0.26891
-0.27731
-0.2437
-0.20168
-0.2605
-0.19328
-0.16807
-0.10924
-0.067227
0.16807
0.28571
0.36134
0.31092
0.2605
0.18487
0.084034
0.016807
-0.02521
-0.092437
-0.10084
0.0084034
0.15966
0.26891
0.32773
0.2521
0.15126
0.084034
0.16807
0.15966
0.05042
-0.07563
-0.21849
-0.22689
0.0084034
0.084034
0.16807
0.07563
0.12605
0.17647
0.16807
0.11765
-0.0084034
-0.22689
-0.35294
-0.33613
-0.20168
-0.14286
-0.12605
-0.084034
-0.067227
0.0084034
0.02521
-0.02521
0.016807
-0.067227
0.016807
0.0084034
-0.0084034
0.16807
0.21849
0.15966
0.07563
-0.016807
-0.042017
-0.18487
-0.17647
-0.15966
-0.18487
-0.21008
-0.28571
-0.22689
-0.092437
-0.016807
-0.10924
-0.21008
-0.22689
-0.20168
-0.2605
-0.21008
0.07563
0.11765
0.042017
-0.15126
-0.29412
-0.30252
-0.22689
-0.11765
-0.02521
-0.11765
-0.20168
-0.18487
-0.16807
-0.10084
0.0084034
0.058824
0.058824
0.05042
-0.016807
-0.0084034
0
0.042017
0.05042
0.10924
0.28571
0.41176
0.47899
0.4958
0.67227
0.48739
0.29412
0.0084034
-0.084034
-0.05042
0
0.21849
0.15966
0.15966
0.10924
0.016807
0.0084034
0
-0.02521
-0.11765
-0.092437
-0.13445
-0.14286
-0.092437
-0.016807
0.11765
0.084034
0.033613
-0.02521
-0.084034
-0.07563
-0.033613
0.016807
-0.084034
-0.17647
-0.26891
-0.22689
-0.16807
0.042017
0.15126
0.17647
0.2605
0.39496
0.58824
0.59664
0.62185
0.43697
0.31933
0.12605
0.092437
0.05042
0.084034
0.21849
0.43697
0.26891
0.033613
-0.29412
-0.33613
-0.40336
-0.32773
-0.43697
-0.53782
-0.57983
-0.48739
-0.45378
-0.41176
-0.30252
-0.31092
-0.2521
-0.29412
-0.31933
-0.42017
-0.34454
-0.11765
0.016807
0.07563
0.11765
0.02521
0.033613
-0.092437
-0.18487
-0.2605
-0.19328
-0.02521
0.15126
0.10924
-0.042017
-0.21008
-0.37815
-0.46218
-0.47059
-0.28571
-0.016807
0.12605
0.14286
-0.042017
-0.29412
-0.34454
-0.23529
-0.02521
0.14286
0.36134
0.37815
0.35294
0.33613
0.2437
0.11765
0
-0.0084034
0
0.14286
0.084034
0.084034
0.02521
0.042017
0.10924
0.10924
-0.0084034
-0.042017
-0.016807
-0.11765
-0.2437
-0.34454
-0.42857
-0.36134
-0.12605
-0.067227
-0.016807
0.14286
0.016807
-0.27731
-0.45378
-0.42017
-0.11765
0.067227
0.05042
0.15126
0.15126
0.19328
0.2521
0.11765
0.067227
-0.084034
-0.14286
-0.15966
-0.11765
0.042017
0.05042
0.11765
0.033613
0.02521
-0.10084
0
0.15126
0.2605
0.35294
0.30252
0.28571
0.016807
-0.033613
-0.084034
-0.092437
-0.2521
-0.31933
-0.34454
-0.31933
-0.18487
-0.0084034
-0.05042
-0.15126
-0.2605
-0.27731
-0.14286
0.033613
0.13445
0.18487
-0.05042
-0.20168
-0.33613
-0.38655
-0.38655
-0.36134
-0.27731
-0.15126
0.016807
-0.016807
0.0084034
-0.016807
-0.067227
-0.07563
-0.16807
-0.15126
-0.20168
-0.28571
-0.26891
-0.21849
-0.23529
-0.30252
-0.21849
-0.18487
-0.23529
-0.15126
-0.05042
0.016807
0.16807
0.28571
0.55462
0.7395
0.69748
0.51261
0.2521
0.18487
0.21849
0.16807
0.033613
-0.016807
0.07563
0.11765
0.23529
0.29412
0.30252
0.2521
0.12605
0
-0.19328
-0.21849
-0.21849
-0.067227
-0.058824
-0.092437
-0.22689
-0.37815
-0.44538
-0.30252
-0.084034
0.17647
0.27731
0.15966
-0.084034
-0.27731
-0.23529
-0.15126
-0.067227
0.0084034
-0.067227
-0.17647
-0.18487
-0.05042
0.2521
0.36134
0.47899
0.47059
0.31933
0.11765
0.033613
-0.058824
-0.07563
0.05042
-0.042017
-0.12605
-0.16807
-0.033613
0.12605
0.12605
-0.0084034
-0.23529
-0.40336
-0.29412
-0.092437
0
0.07563
0.07563
0.042017
-0.042017
-0.17647
-0.13445
-0.14286
-0.19328
-0.21008
-0.34454
-0.38655
-0.41176
-0.32773
-0.35294
-0.29412
-0.15126
-0.13445
-0.19328
-0.15966
-0.22689
-0.27731
-0.34454
-0.34454
-0.26891
-0.15966
-0.084034
-0.07563
-0.21849
-0.29412
-0.33613
-0.31933
-0.31092
-0.22689
-0.23529
-0.27731
-0.33613
-0.30252
-0.16807
-0.084034
0.13445
0.36975
0.42017
0.40336
0.37815
0.36975
0.31092
0.31933
0.2437
0.27731
0.31933
0.30252
0.22689
0.20168
0.32773
0.39496
0.35294
0.20168
0.10084
-0.05042
0
0.16807
0.23529
0.21849
0.10084
0.15966
0.18487
0.12605
0.016807
-0.10924
-0.05042
0.042017
0.12605
0.016807
-0.084034
-0.15966
-0.11765
-0.084034
-0.0084034
0.15126
0.21849
0.18487
0.10084
-0.033613
-0.21849
-0.27731
-0.30252
-0.20168
-0.058824
0.092437
0.21849
0.16807
0.27731
0.28571
0.34454
0.43697
0.69748
0.89916
0.88235
0.73109
0.34454
0.05042
-0.22689
-0.27731
-0.12605
0.067227
0.31092
0.39496
0.28571
0.11765
-0.033613
-0.14286
-0.21008
-0.10084
-0.15966
-0.07563
-0.05042
0.084034
0.21008
0.18487
0.21849
0.042017
-0.11765
-0.2437
-0.17647
-0.20168
-0.15966
-0.10924
-0.092437
0.033613
0.067227
0.16807
0.31092
0.52101
0.55462
0.33613
-0.07563
-0.37815
-0.40336
-0.36975
-0.26891
-0.19328
-0.17647
-0.15966
-0.10924
-0.016807
0.02521
0.17647
0.31933
0.39496
0.31092
0.14286
-0.016807
-0.38655
-0.63025
-0.77311
-0.68908
-0.60504
-0.47899
-0.37815
-0.2605
-0.20168
-0.14286
-0.17647
-0.16807
-0.058824
-0.042017
0.016807
0.042017
0.21008
0.23529
0.07563
-0.02521
-0.033613
0.14286
0.2437
0.37815
0.29412
0.2437
0.2521
0.12605
0.092437
0.11765
0.20168
0.17647
0.07563
0.02521
0.05042
0.084034
0.016807
-0.084034
-0.20168
-0.10924
0.10924
0.32773
0.31092
0.18487
0.15126
0.15126
0.2605
0.22689
0.016807
-0.11765
-0.11765
-0.05042
-0.23529
-0.27731
-0.2605
-0.22689
-0.26891
-0.35294
-0.32773
-0.22689
-0.14286
-0.14286
-0.26891
-0.36975
-0.21849
-0.07563
-0.092437
-0.21008
-0.35294
-0.39496
-0.48739
-0.41176
-0.48739
-0.36975
-0.37815
-0.44538
-0.48739
-0.47899
-0.34454
-0.16807
-0.05042
-0.05042
-0.033613
0
0.0084034
0.20168
0.34454
0.41176
0.32773
0.2437
0.092437
0.07563
0.10084
0.07563
-0.016807
-0.058824
-0.07563
-0.07563
0.033613
0.11765
0.17647
0.30252
0.12605
0.10924
-0.084034
-0.15126
-0.14286
-0.13445
-0.17647
-0.13445
-0.0084034
-0.084034
-0.058824
-0.10924
-0.15126
-0.20168
-0.19328
-0.14286
-0.084034
-0.016807
0.12605
0.29412
0.36975
0.27731
0.10924
-0.16807
-0.29412
-0.2605
-0.16807
-0.10084
0.016807
0.16807
0.15966
0.11765
0.02521
-0.02521
-0.12605
-0.18487
-0.17647
-0.14286
-0.05042
0.18487
0.37815
0.42017
0.44538
0.20168
-0.05042
-0.30252
-0.44538
-0.47059
-0.31933
-0.21008
-0.19328
-0.19328
-0.042017
0.10084
0.15126
0.092437
0.10084
0.12605
0.10084
0.067227
0.084034
0.10924
0.07563
0.05042
-0.016807
-0.033613
-0.033613
-0.0084034
0.042017
0.10084
0.30252
0.42857
0.44538
0.35294
0.47059
0.31933
0.33613
0.35294
0.38655
0.36975
0.28571
0.16807
0.058824
0.02521
0.067227
0.058824
0.092437
0.092437
0.18487
0.21849
0.20168
0.18487
0.10924
-0.13445
-0.32773
-0.37815
-0.17647
0.21849
0.40336
0.32773
0.07563
0
0
-0.05042
0.07563
0.14286
0.15966
0.033613
-0.067227
-0.11765
-0.058824
0.033613
0.17647
0.31092
0.27731
0.17647
-0.092437
-0.36134
-0.38655
-0.13445
0.084034
0.13445
-0.033613
-0.2605
-0.40336
-0.42017
-0.41176
-0.39496
-0.28571
-0.092437
0.042017
-0.042017
-0.17647
-0.26891
-0.33613
-0.23529
-0.14286
0.02521
0.17647
0.14286
0.058824
-0.10924
-0.2437
-0.2605
-0.2521
-0.26891
-0.2437
-0.17647
-0.14286
-0.042017
0.11765
0.20168
0.2521
0.23529
0.20168
0.15966
0.28571
0.39496
0.54622
0.30252
0.058824
-0.15126
-0.12605
-0.15966
-0.10084
-0.12605
-0.10084
0.042017
0.10924
0.058824
-0.033613
-0.092437
-0.11765
-0.2437
-0.21008
-0.22689
-0.20168
-0.15126
0.058824
0.033613
-0.033613
-0.10924
-0.15966
-0.02521
0.17647
0.47899
0.52101
0.38655
0.15966
-0.092437
-0.22689
-0.34454
-0.2521
-0.2521
0.0084034
0.11765
0.15126
-0.02521
-0.16807
-0.11765
-0.0084034
0.14286
0.2605
0.34454
0.16807
-0.016807
-0.15966
-0.22689
-0.26891
-0.28571
-0.20168
-0.0084034
0.15126
0.084034
-0.15126
-0.33613
-0.30252
-0.27731
-0.26891
-0.067227
0.02521
0.067227
0.016807
-0.033613
0.02521
0.033613
0.16807
0.23529
0.33613
0.38655
0.48739
0.57143
0.44538
0.31092
0.10084
0.10084
0.042017
0.05042
-0.058824
-0.17647
-0.10924
-0.15126
-0.19328
-0.19328
-0.10924
-0.084034
-0.10924
-0.17647
-0.2437
-0.28571
-0.23529
-0.20168
-0.21008
-0.10924
0.0084034
0.10084
0.042017
-0.092437
-0.15966
-0.23529
-0.092437
0
0.092437
-0.10084
-0.14286
-0.17647
-0.15126
-0.07563
-0.084034
-0.10084
-0.11765
-0.2437
-0.26891
-0.37815
-0.23529
-0.17647
-0.07563
-0.16807
-0.27731
-0.29412
-0.29412
-0.15966
0.033613
0.10084
-0.092437
-0.2605
-0.36975
-0.28571
-0.084034
-0.033613
-0.033613
-0.14286
-0.13445
-0.15126
-0.2521
-0.23529
-0.15966
-0.058824
-0.05042
-0.05042
-0.11765
-0.067227
0
0.21849
0.2437
0.07563
0.02521
-0.0084034
0.0084034
0.058824
0.15126
0.23529
0.21849
0.21849
0.067227
-0.02521
-0.19328
-0.23529
-0.27731
-0.2437
-0.11765
-0.10084
-0.07563
-0.22689
-0.19328
-0.15126
-0.092437
-0.21008
-0.36975
-0.47059
-0.4958
-0.42017
-0.37815
-0.2437
-0.31092
-0.44538
-0.66387
-0.68908
-0.32773
-0.084034
0.02521
-0.0084034
-0.18487
-0.29412
-0.27731
-0.20168
-0.29412
-0.34454
-0.29412
-0.16807
-0.11765
0.02521
0.10084
0.084034
0.07563
0.10084
0.22689
0.36975
0.47899
0.46218
0.36134
0.42017
0.42857
0.37815
0.19328
0.042017
-0.067227
-0.042017
0.016807
0.17647
0.23529
0.20168
0.20168
0.16807
0.13445
0.042017
0.10924
0.23529
0.42857
0.72269
0.87395
0.78151
0.58824
0.42857
0.34454
0.31933
0.36134
0.35294
0.42017
0.55462
0.52101
0.31092
0.084034
-0.033613
-0.084034
-0.15966
-0.092437
-0.016807
0.042017
0.02521
-0.10924
-0.13445
-0.17647
-0.16807
-0.16807
-0.28571
-0.12605
-0.084034
-0.016807
-0.15126
-0.17647
-0.14286
-0.11765
-0.19328
-0.2437
-0.30252
-0.34454
-0.18487
-0.058824
-0.058824
-0.11765
-0.19328
-0.11765
-0.067227
0.10084
-0.0084034
-0.084034
-0.18487
0.033613
0.19328
0.20168
0.16807
-0.02521
0.058824
0.042017
0.18487
0.27731
0.2605
0.16807
-0.084034
-0.29412
-0.2437
-0.10084
-0.05042
0.033613
0.10924
0.16807
0.12605
0.033613
0.092437
0.11765
0.11765
0.10084
0.05042
-0.0084034
-0.092437
-0.05042
-0.10924
-0.07563
-0.0084034
-0.10084
-0.22689
-0.35294
-0.35294
-0.22689
-0.02521
0.0084034
-0.042017
0.0084034
0.10924
0.2605
0.22689
0.19328
0.10084
0.042017
-0.10924
-0.17647
-0.2437
-0.23529
-0.14286
0.02521
0.15126
0.07563
0
0.12605
0.058824
0
-0.21008
-0.41176
-0.40336
-0.18487
0.10924
0.28571
0.46218
0.52101
0.52941
0.44538
0.36975
0.26891
0.18487
0.067227
0.0084034
-0.16807
-0.30252
-0.2605
-0.21849
-0.05042
0.30252
0.57143
0.64706
0.51261
0.28571
0.092437
-0.0084034
-0.05042
0.11765
0.20168
0.26891
0.17647
0.067227
-0.084034
-0.058824
-0.092437
-0.10084
-0.058824
-0.02521
0.10924
0.21849
0.33613
0.36134
0.19328
0.02521
-0.07563
-0.19328
-0.58824
-0.84034
-1
-0.95798
-0.66387
-0.45378
-0.28571
-0.30252
-0.30252
-0.2437
-0.15126
0.016807
0.17647
0.10084
-0.14286
-0.38655
-0.58824
-0.48739
-0.27731
0.033613
0.31092
0.39496
0.48739
0.43697
0.20168
-0.042017
-0.15126
-0.13445
-0.11765
-0.05042
-0.058824
-0.07563
-0.19328
-0.35294
-0.44538
-0.37815
-0.18487
-0.058824
-0.092437
-0.26891
-0.35294
-0.46218
-0.48739
-0.41176
-0.31092
-0.18487
-0.10924
0
0.13445
0.11765
0.2521
0.13445
-0.05042
-0.2521
-0.28571
-0.30252
-0.10924
0.084034
0.26891
0.31933
0.36134
0.42857
0.42857
0.45378
0.34454
0.17647
-0.016807
-0.02521
0.016807
0.07563
0.092437
0.07563
0.23529
0.2437
0.2605
0.2437
0.14286
0.34454
0.43697
0.42017
0.30252
0.21008
0.18487
0.11765
-0.033613
-0.042017
-0.18487
-0.43697
-0.54622
-0.57983
-0.4958
-0.45378
-0.44538
-0.60504
-0.69748
-0.59664
-0.54622
-0.53782
-0.64706
-0.62185
-0.55462
-0.45378
-0.32773
-0.20168
-0.092437
0.092437
0.15966
0.23529
0.05042
-0.05042
-0.15126
-0.20168
0.033613
0.31933
0.4958
0.60504
0.62185
0.67227
0.65546
0.57983
0.38655
0.02521
-0.31092
-0.51261
-0.57143
-0.52101
-0.36975
-0.21849
-0.10084
0.12605
0.38655
0.59664
0.62185
0.57983
0.53782
0.38655
0.16807
-0.02521
-0.058824
-0.11765
-0.12605
-0.23529
-0.2521
-0.21008
-0.10924
-0.2521
-0.36134
-0.57143
-0.59664
-0.51261
-0.31933
0.016807
0.14286
0.058824
-0.058824
-0.16807
-0.2521
-0.2437
-0.12605
-0.067227
-0.05042
-0.07563
-0.07563
0.033613
0.21849
0.34454
0.30252
0.2437
0.23529
0.2605
0.2605
0.2437
0.18487
0.067227
0
-0.067227
0.14286
0.0084034
0.0084034
0
-0.092437
-0.092437
-0.14286
-0.17647
-0.092437
0
0.042017
0.0084034
-0.016807
-0.058824
-0.05042
-0.07563
-0.067227
-0.067227
-0.13445
-0.23529
-0.17647
-0.042017
0.016807
0.092437
0.19328
0.2437
0.30252
0.40336
0.38655
0.21849
0.22689
0.2521
0.40336
0.42857
0.35294
0.26891
0.28571
0.39496
0.43697
0.47899
0.46218
0.53782
0.59664
0.47899
0.36134
0.13445
0.02521
0.02521
0.10084
0.092437
0.11765
0.2605
0.57983
0.66387
0.64706
0.46218
0.23529
0.20168
0.15966
0.07563
0.067227
0.016807
-0.0084034
-0.033613
-0.084034
-0.10084
-0.084034
-0.13445
-0.10084
0
-0.05042
-0.11765
-0.042017
0.11765
0.36975
0.5042
0.61345
0.68908
0.58824
0.60504
0.46218
0.2521
0.15126
0.084034
0.067227
-0.02521
-0.084034
-0.10924
-0.033613
0.11765
0.2605
0.34454
0.44538
0.59664
0.69748
0.62185
0.51261
0.33613
0.2605
0.21849
0.41176
0.40336
0.39496
0.18487
-0.10084
-0.41176
-0.5042
-0.36975
-0.14286
-0.042017
0.07563
0.042017
-0.033613
-0.084034
0.033613
0.10084
0.10924
0.084034
0.12605
0.13445
0.15126
0.21849
0.22689
0.28571
0.17647
0.05042
-0.20168
-0.41176
-0.47899
-0.48739
-0.29412
-0.033613
0.15966
0.2521
0.2437
0.15126
-0.10084
-0.35294
-0.48739
-0.46218
-0.39496
-0.2605
-0.15966
-0.18487
-0.11765
-0.0084034
0.02521
0.042017
0.067227
0.0084034
-0.033613
-0.16807
-0.15126
-0.14286
-0.15126
-0.12605
-0.084034
-0.084034
-0.11765
-0.15966
-0.20168
-0.2605
-0.2605
-0.30252
-0.31933
-0.2521
-0.12605
-0.058824
-0.033613
0.033613
0.0084034
0.02521
0.07563
0.18487
0.05042
-0.11765
-0.23529
-0.067227
-0.0084034
-0.05042
-0.12605
-0.17647
-0.16807
-0.033613
-0.02521
-0.07563
-0.20168
-0.21008
-0.14286
-0.033613
0.13445
0.19328
0.12605
-0.042017
-0.21008
-0.39496
-0.44538
-0.2521
-0.15126
-0.11765
-0.16807
-0.20168
-0.20168
-0.21008
-0.26891
-0.16807
-0.15126
-0.067227
-0.05042
-0.067227
-0.042017
-0.042017
-0.05042
-0.17647
-0.26891
-0.29412
-0.34454
-0.34454
-0.31933
-0.27731
-0.27731
-0.2437
-0.2605
-0.26891
-0.016807
0.22689
0.32773
0.21008
0.12605
0.02521
0.033613
-0.067227
-0.016807
0.0084034
0.05042
0.15966
0.20168
0.2521
0.2437
0.12605
-0.10924
-0.31092
-0.36975
-0.2437
-0.10084
-0.0084034
0
-0.15966
-0.38655
-0.42857
-0.48739
-0.37815
-0.45378
-0.47059
-0.52101
-0.54622
-0.36134
-0.28571
-0.31092
-0.37815
-0.38655
-0.22689
-0.02521
0.15966
0.22689
0.27731
0.22689
0.12605
-0.10084
-0.21008
-0.30252
-0.32773
-0.32773
-0.23529
-0.05042
0
-0.0084034
-0.21849
-0.37815
-0.54622
-0.47059
-0.31933
-0.15966
-0.10924
-0.10084
-0.058824
-0.10084
-0.05042
-0.07563
0.016807
0.10924
0.2521
0.39496
0.31933
0.35294
0.26891
0.084034
-0.07563
-0.092437
-0.033613
0
0.16807
0.35294
0.32773
0.34454
0.16807
-0.10924
-0.30252
-0.40336
-0.42017
-0.42017
-0.5042
-0.63866
-0.80672
-0.83193
-0.72269
-0.53782
-0.36134
-0.2521
-0.067227
-0.058824
0.016807
0.033613
-0.084034
-0.2605
-0.34454
-0.34454
-0.23529
-0.22689
-0.22689
-0.17647
-0.14286
-0.0084034
0.07563
-0.02521
-0.15126
-0.22689
-0.17647
-0.07563
-0.042017
-0.033613
-0.17647
-0.18487
-0.11765
-0.092437
-0.15966
-0.28571
-0.39496
-0.31092
-0.092437
0.21008
0.40336
0.4958
0.48739
0.32773
0.10084
-0.058824
-0.02521
0.10084
0.16807
0.27731
0.17647
0.18487
0.12605
0.21008
0.29412
0.34454
0.48739
0.52941
0.42017
0.21008
0
-0.14286
-0.19328
-0.10084
0
0.067227
0.11765
0.15966
0.02521
-0.12605
-0.12605
-0.084034
0
-0.05042
-0.084034
-0.033613
-0.042017
-0.10084
-0.20168
-0.31092
-0.2605
-0.21008
-0.22689
-0.10084
-0.0084034
0.16807
0.084034
0.02521
-0.0084034
-0.042017
-0.033613
-0.0084034
0.02521
0.02521
0.02521
0.016807
-0.084034
-0.07563
-0.07563
-0.016807
-0.016807
-0.10924
-0.2437
-0.36134
-0.17647
0.10084
0.17647
0.05042
-0.11765
-0.058824
-0.058824
-0.10084
-0.16807
-0.22689
-0.2437
-0.15966
-0.17647
-0.14286
-0.22689
-0.16807
-0.23529
-0.2521
-0.31933
-0.33613
-0.35294
-0.21849
-0.15126
-0.05042
-0.19328
-0.32773
-0.33613
-0.48739
-0.51261
-0.45378
-0.34454
-0.13445
0.084034
0.14286
0.21008
0.22689
0.19328
0.016807
-0.14286
-0.14286
-0.042017
0.11765
0.17647
0.15126
0.05042
0.0084034
-0.07563
-0.042017
-0.07563
0
0.092437
0.058824
-0.033613
-0.02521
0.02521
0.042017
0.15126
0.22689
0.18487
0.092437
0.042017
-0.092437
-0.10924
-0.07563
0.016807
0.16807
0.35294
0.46218
0.40336
0.11765
-0.058824
-0.19328
-0.23529
-0.12605
0
0.10084
0.10084
0.13445
0.14286
0.14286
0.21008
0.17647
0.07563
-0.11765
-0.26891
-0.2437
-0.17647
-0.02521
0.15966
0.40336
0.48739
0.5042
0.27731
0.13445
0.067227
-0.016807
-0.067227
-0.067227
0.2437
0.40336
0.46218
0.36975
0.36134
0.34454
0.33613
0.42857
0.32773
0.28571
0.18487
0.17647
0.23529
0.21849
0.19328
0.20168
0.19328
0.2521
0.15966
0.15126
-0.016807
-0.016807
-0.11765
-0.16807
-0.058824
-0.067227
-0.05042
-0.12605
-0.016807
0.10084
0.12605
0.19328
0.15126
0.058824
0.042017
0.21849
0.29412
0.31092
0.39496
0.2521
0.17647
-0.058824
-0.2521
-0.2521
-0.13445
0.13445
0.21849
0.12605
-0.07563
-0.058824
0.05042
0.21008
0.28571
0.15126
-0.067227
-0.20168
-0.21849
-0.042017
-0.0084034
-0.02521
-0.12605
-0.2521
-0.17647
-0.092437
-0.13445
0.016807
0.084034
0.07563
-0.042017
-0.22689
-0.2605
-0.29412
-0.27731
-0.21849
-0.18487
-0.17647
-0.15966
0.0084034
-0.016807
0.016807
0.02521
0.02521
0.0084034
0.084034
0.067227
0.042017
0.10084
0.17647
0.16807
0.0084034
-0.033613
-0.05042
0.016807
-0.0084034
-0.058824
-0.05042
0.0084034
0.12605
0.11765
0.05042
0.058824
0.13445
0.17647
0.016807
-0.033613
-0.092437
-0.14286
-0.02521
0.15966
0.26891
0.21849
0.084034
-0.11765
-0.21849
-0.2521
-0.14286
-0.02521
0.05042
0.067227
-0.02521
-0.15966
-0.2605
-0.2605
-0.31933
-0.27731
-0.15966
0.0084034
0.12605
0.14286
0.15966
0.10924
0.14286
0.19328
0.058824
-0.042017
-0.033613
0.16807
0.2605
0.2605
0.15966
-0.033613
-0.21849
-0.2437
-0.20168
-0.067227
0.058824
0.15966
0.12605
-0.02521
-0.15126
-0.29412
-0.32773
-0.21008
-0.042017
0.12605
0.0084034
-0.016807
-0.2521
-0.45378
-0.56303
-0.33613
-0.058824
0.05042
0.033613
-0.15966
-0.34454
-0.44538
-0.40336
-0.29412
-0.02521
0.15966
0.22689
0.15126
0.092437
0.092437
0.02521
-0.02521
-0.02521
-0.05042
-0.11765
-0.10924
-0.058824
-0.17647
-0.21849
-0.36975
-0.44538
-0.41176
-0.10924
0.29412
0.43697
0.34454
0.15126
0.0084034
-0.07563
-0.05042
0
0.02521
0.058824
0.13445
0.26891
0.45378
0.42017
0.31092
0.084034
0.016807
0.02521
0.10084
0.02521
0.0084034
0.05042
0.14286
0.43697
0.67227
0.65546
0.40336
0.16807
-0.13445
-0.34454
-0.4958
-0.41176
-0.26891
-0.16807
0
0.23529
0.45378
0.60504
0.66387
0.53782
0.33613
0.12605
-0.14286
-0.35294
-0.42857
-0.27731
-0.067227
0.07563
0.32773
0.33613
0.46218
0.5042
0.63866
0.67227
0.68908
0.67227
0.68908
0.59664
0.46218
0.33613
0.067227
-0.13445
-0.20168
-0.28571
-0.2521
-0.19328
-0.10084
-0.0084034
0.033613
-0.07563
-0.2521
-0.5042
-0.54622
-0.47899
-0.38655
-0.26891
-0.02521
0.084034
0.05042
-0.016807
-0.15126
-0.29412
-0.29412
-0.21008
-0.042017
-0.016807
0.07563
0.10084
0.05042
0.092437
0.18487
0.59664
0.77311
1
0.84034
0.54622
0.12605
-0.2521
-0.47899
-0.54622
-0.47059
-0.41176
-0.34454
-0.2521
-0.13445
-0.10084
0.092437
0.22689
0.2605
0.10924
-0.067227
-0.092437
-0.10924
-0.13445
-0.18487
-0.34454
-0.52101
-0.65546
-0.65546
-0.52941
-0.36975
-0.067227
-0.042017
0
-0.0084034
0.042017
0.05042
0.15126
0.23529
0.34454
0.28571
0.15966
0.067227
-0.2521
-0.47899
-0.61345
-0.70588
-0.7563
-0.7563
-0.67227
-0.63866
-0.61345
-0.4958
-0.28571
-0.07563
0.15966
0.2437
0.33613
0.36134
0.19328
-0.0084034
-0.31092
-0.41176
-0.45378
-0.4958
-0.41176
-0.16807
0.05042
0.15966
0.33613
0.32773
0.2521
0.05042
-0.033613
-0.19328
-0.39496
-0.42017
-0.56303
-0.65546
-0.81513
-0.78151
-0.7395
-0.55462
-0.47059
-0.38655
-0.2605
-0.084034
0.067227
0.0084034
0.0084034
-0.058824
-0.15126
-0.37815
-0.61345
-0.7479
-0.70588
-0.61345
-0.55462
-0.62185
-0.64706
-0.63025
-0.42017
-0.39496
-0.29412
-0.21008
-0.22689
-0.28571
-0.22689
-0.042017
-0.0084034
0.10924
0.10924
0.084034
-0.0084034
-0.084034
-0.14286
-0.16807
-0.058824
0.10084
0.2605
0.2605
0.31933
0.42857
0.67227
0.78992
0.69748
0.45378
0.033613
-0.15966
-0.35294
-0.46218
-0.45378
-0.31092
-0.10084
-0.067227
-0.016807
-0.0084034
-0.02521
0.13445
0.016807
-0.067227
-0.2437
-0.30252
-0.26891
-0.28571
-0.31933
-0.20168
-0.092437
0.0084034
0.14286
0.15966
0.2437
0.36134
0.51261
0.51261
0.36975
0.36975
0.058824
-0.13445
-0.39496
-0.39496
-0.31933
-0.19328
-0.14286
-0.092437
-0.20168
-0.19328
-0.12605
-0.067227
0
0
0.084034
0.11765
0.20168
0.23529
0.084034
0.084034
0.33613
0.48739
0.58824
0.45378
0.31933
0.23529
0.23529
0.28571
0.37815
0.39496
0.41176
0.31933
0.12605
-0.05042
-0.14286
-0.21008
-0.19328
-0.21849
-0.29412
-0.35294
-0.2521
-0.084034
-0.033613
-0.19328
-0.2521
-0.34454
-0.42017
-0.52941
-0.51261
-0.42017
-0.26891
-0.05042
0.07563
0.13445
0.15966
0.13445
0.19328
0.058824
-0.07563
-0.21008
-0.29412
-0.14286
0.05042
0.02521
-0.016807
-0.21849
-0.2521
-0.28571
-0.15126
-0.058824
-0.07563
-0.18487
-0.35294
-0.52101
-0.66387
-0.65546
-0.5042
-0.2437
-0.05042
0.16807
0.28571
0.19328
0.12605
-0.0084034
-0.10084
-0.084034
-0.02521
0.10924
0.19328
0.41176
0.47899
0.36975
0.23529
0.10924
0.084034
0.16807
0.15966
0.12605
0.033613
-0.016807
0.0084034
0.17647
0.35294
0.57983
0.58824
0.36975
0.19328
0.16807
0.16807
0.13445
0.12605
0.13445
0.10084
0.058824
0.10924
0.084034
0.10924
0.13445
0.16807
0.16807
0.23529
0.26891
0.21849
0.31933
0.34454
0.28571
-0.042017
-0.40336
-0.47899
-0.31933
-0.02521
0.16807
0.31092
0.2605
0.2521
0.2605
0.18487
0.10084
0.0084034
0.033613
-0.11765
-0.15966
-0.31092
-0.40336
-0.30252
-0.13445
-0.016807
0.02521
0.15126
0.27731
0.2521
0.21849
-0.016807
-0.17647
-0.31933
-0.32773
-0.26891
-0.17647
-0.042017
0.02521
-0.058824
-0.2437
-0.40336
-0.35294
-0.32773
-0.31933
-0.35294
-0.34454
-0.38655
-0.21008
-0.36975
-0.34454
-0.39496
-0.31092
-0.28571
-0.37815
-0.30252
-0.36975
-0.42857
-0.44538
-0.32773
-0.21849
-0.05042
0.12605
0.15966
0.15126
0.15966
0.21008
0.2605
0.2521
0.2605
0.27731
0.31933
0.52941
0.47899
0.37815
0.092437
-0.02521
-0.016807
-0.0084034
-0.084034
-0.13445
-0.26891
-0.2521
-0.12605
0.0084034
0.067227
0.10924
0.26891
0.41176
0.63866
0.78151
0.81513
0.63025
0.61345
0.29412
-0.0084034
-0.23529
-0.27731
-0.12605
-0.067227
-0.0084034
0.0084034
0.033613
0.084034
0.10084
0.05042
-0.10084
-0.2605
-0.36975
-0.39496
-0.34454
-0.2521
-0.17647
-0.13445
-0.0084034
0.16807
0.084034
0.0084034
-0.092437
-0.092437
0.033613
0.20168
0.23529
0.19328
0.11765
0.084034
0.11765
0.15966
0.2605
0.31092
0.30252
0.26891
0.28571
0.18487
0.15126
0.15126
0.092437
-0.0084034
-0.05042
-0.0084034
0.016807
0.13445
0.30252
0.4958
0.60504
0.73109
0.59664
0.39496
0.15126
0.10924
0.13445
0.15126
0.18487
0.2521
0.26891
0.38655
0.37815
0.36134
0.26891
0.28571
0.29412
0.37815
0.31092
0.2521
0.23529
-0.033613
-0.042017
-0.067227
-0.02521
0.084034
0.17647
0.18487
0.07563
0.07563
0.0084034
-0.0084034
-0.0084034
0.05042
-0.016807
-0.11765
-0.23529
-0.32773
-0.38655
-0.40336
-0.30252
-0.15126
-0.084034
0.067227
0.092437
0.10084
0.12605
0.067227
-0.033613
-0.22689
-0.19328
-0.30252
-0.44538
-0.57143
-0.53782
-0.37815
-0.058824
0.23529
0.36134
0.31933
0.21849
0.15966
0.067227
-0.10084
-0.32773
-0.52101
-0.61345
-0.55462
-0.35294
-0.2521
-0.15966
-0.10924
0.0084034
0.042017
0.067227
-0.02521
-0.10924
0.10084
0.02521
0
-0.23529
-0.31933
-0.2437
-0.22689
-0.18487
-0.14286
-0.10924
-0.05042
0.058824
0.23529
0.31933
0.33613
0.32773
0.22689
0.05042
0.033613
-0.033613
0.016807
0.18487
0.30252
0.27731
0.12605
0.0084034
-0.042017
0
0.084034
0.17647
0.22689
0.18487
0.21849
0.10924
0.0084034
-0.12605
-0.13445
-0.19328
-0.15126
-0.02521
0.17647
0.40336
0.46218
0.42017
0.2521
0.27731
0.43697
0.54622
0.53782
0.37815
0.17647
-0.12605
-0.31092
-0.35294
-0.30252
-0.22689
-0.21008
-0.11765
-0.16807
-0.11765
-0.042017
0.22689
0.2437
0.20168
-0.084034
-0.23529
-0.15966
0.058824
0.16807
0.18487
0.15966
0.18487
0.2437
0.38655
0.39496
0.38655
0.19328
0.16807
0.10924
0.084034
0.042017
0.20168
0.29412
0.33613
0.29412
0.21849
0.12605
0.092437
0.05042
-0.05042
-0.21008
-0.31092
-0.37815
-0.43697
-0.43697
-0.33613
-0.29412
-0.21008
-0.17647
-0.14286
-0.15126
-0.18487
-0.15966
-0.2521
-0.02521
-0.084034
-0.13445
-0.36134
-0.42857
-0.20168
-0.033613
0.17647
0.28571
0.2437
0.13445
0.10924
0.16807
0.17647
0.2437
0.31092
0.39496
0.38655
0.33613
0.34454
0.20168
0.19328
0.092437
0.067227
-0.13445
-0.20168
-0.21008
-0.19328
-0.16807
0.02521
0.092437
0.23529
0.21849
0.21849
0.20168
0.18487
0.26891
0.33613
0.42857
0.4958
0.42857
0.41176
0.19328
0.07563
-0.18487
-0.38655
-0.37815
-0.34454
-0.20168
-0.067227
0.042017
-0.10084
-0.21008
-0.30252
-0.35294
-0.42017
-0.46218
-0.36134
-0.47059
-0.47899
-0.47059
-0.36975
-0.15126
0.02521
0.22689
0.18487
0.067227
-0.07563
-0.19328
-0.29412
-0.38655
-0.40336
-0.45378
-0.52941
-0.45378
-0.35294
-0.28571
-0.26891
-0.28571
-0.41176
-0.42857
-0.35294
-0.20168
-0.092437
-0.033613
-0.05042
0.033613
0.042017
0.15966
-0.0084034
-0.067227
-0.0084034
0.12605
0.19328
-0.016807
-0.22689
-0.47899
-0.67227
-0.63025
-0.52941
-0.46218
-0.47899
-0.52941
-0.54622
-0.46218
-0.20168
0.042017
0.084034
0.092437
0.058824
0.033613
0.0084034
0.042017
0.0084034
-0.016807
-0.016807
0.084034
0.11765
0.13445
0.11765
0.033613
-0.033613
-0.058824
-0.05042
-0.07563
-0.12605
-0.13445
-0.067227
-0.20168
-0.15126
-0.15966
-0.12605
-0.15126
-0.13445
-0.19328
-0.20168
-0.2605
-0.31933
-0.51261
-0.58824
-0.57143
-0.37815
-0.10084
0.084034
0.22689
0.18487
0.18487
0.23529
0.26891
0.14286
0.067227
0.12605
0.17647
0.22689
0.21849
0.36975
0.27731
0.28571
0.15966
0.016807
-0.05042
-0.11765
-0.19328
-0.22689
-0.19328
-0.21008
-0.2605
-0.32773
-0.31092
-0.29412
-0.2605
-0.12605
-0.13445
-0.10924
-0.067227
0.14286
0.43697
0.55462
0.61345
0.41176
0.067227
-0.12605
-0.16807
-0.2605
-0.2437
-0.18487
-0.13445
-0.058824
0.02521
0.18487
0.26891
0.29412
0.30252
0.32773
0.28571
0.2521
0.15966
0.016807
0.11765
0.12605
0.2437
0.20168
0.17647
0.067227
-0.092437
-0.10924
-0.033613
0.084034
0.084034
0.067227
-0.0084034
-0.07563
-0.033613
-0.0084034
-0.0084034
-0.016807
0.084034
0.067227
0.13445
0.21849
0.30252
0.26891
0.084034
-0.016807
-0.092437
-0.13445
-0.10084
-0.042017
0.042017
0
0.05042
-0.0084034
-0.12605
-0.34454
-0.28571
-0.20168
-0.016807
0.16807
0.31092
0.38655
0.30252
0.21008
0.07563
-0.15966
-0.17647
-0.28571
-0.19328
-0.19328
-0.17647
-0.29412
-0.31092
-0.17647
0.042017
0.15126
0.2605
0.31092
0.21849
0.20168
0.092437
0.042017
-0.10084
-0.10924
-0.17647
-0.28571
-0.41176
-0.4958
-0.39496
-0.29412
-0.15126
-0.0084034
-0.13445
-0.2521
-0.30252
-0.27731
-0.10924
-0.07563
0.092437
0.23529
0.23529
0.2605
0.10924
-0.042017
-0.02521
0.05042
0.058824
0.14286
0.19328
0.2521
0.22689
0.17647
0.07563
-0.016807
0.058824
0.35294
0.44538
0.44538
0.45378
0.39496
0.32773
0.16807
0.05042
0.067227
0.084034
0.14286
0.11765
0.10924
0.17647
0.28571
0.35294
0.33613
0.35294
0.32773
0.26891
0.20168
0.28571
0.11765
0.05042
0.07563
0.19328
0.29412
0.2521
0.21849
0.2521
0.53782
0.7563
0.80672
0.58824
0.32773
0.14286
-0.05042
-0.092437
-0.0084034
0.10084
0.14286
0.2437
0.39496
0.52101
0.52941
0.35294
0.16807
-0.067227
-0.17647
-0.21008
-0.2605
-0.18487
-0.17647
-0.16807
-0.28571
-0.33613
-0.35294
-0.31933
-0.26891
-0.19328
-0.15966
-0.11765
-0.10924
-0.15126
-0.21849
-0.17647
-0.05042
-0.016807
-0.084034
-0.058824
-0.084034
-0.042017
0.042017
0.20168
0.32773
0.21849
0.15966
0.067227
0.042017
0.12605
0.27731
0.18487
0.10924
0.016807
-0.058824
-0.042017
-0.12605
-0.22689
-0.35294
-0.36134
-0.21008
-0.092437
-0.02521
0.02521
0.11765
0.15966
0.18487
0.084034
-0.058824
-0.39496
-0.63866
-0.78151
-0.71429
-0.62185
-0.39496
-0.33613
-0.2605
-0.19328
-0.092437
-0.14286
-0.19328
-0.2521
-0.35294
-0.40336
-0.39496
-0.39496
-0.42017
-0.39496
-0.35294
-0.15126
-0.11765
0.11765
0.084034
-0.042017
-0.20168
-0.2437
-0.13445
-0.18487
-0.18487
-0.30252
-0.32773
-0.29412
-0.22689
-0.18487
-0.20168
-0.067227
-0.12605
-0.18487
-0.2521
-0.22689
-0.092437
0.058824
0.2437
0.31933
0.35294
0.31092
0.36975
0.31933
0.38655
0.43697
0.34454
0.16807
-0.0084034
-0.07563
-0.21849
-0.2437
-0.29412
-0.27731
-0.33613
-0.35294
-0.31092
-0.37815
-0.29412
-0.21849
-0.10084
0.02521
0.21008
0.31092
0.26891
0.18487
0.21849
0.17647
-0.033613
-0.28571
-0.40336
-0.35294
-0.12605
-0.0084034
0.05042
0.084034
0.10084
0.15966
0.067227
0.02521
0.10084
0.11765
0.05042
0
-0.033613
-0.084034
-0.17647
-0.16807
-0.11765
-0.15966
-0.23529
-0.2521
-0.32773
-0.21849
-0.12605
0.033613
0.092437
0.26891
0.31933
0.39496
0.46218
0.47059
0.45378
0.47059
0.52941
0.57983
0.58824
0.51261
0.44538
0.28571
0.20168
0.11765
0.033613
-0.058824
-0.10084
-0.05042
-0.12605
-0.15966
-0.10924
-0.15966
-0.21849
-0.31933
-0.2605
-0.21849
0.016807
0.13445
0.17647
0.058824
-0.058824
-0.042017
-0.07563
-0.14286
-0.084034
-0.07563
-0.14286
-0.20168
-0.22689
-0.30252
-0.34454
-0.2605
-0.30252
-0.36134
-0.47059
-0.56303
-0.52941
-0.45378
-0.18487
0.016807
0.11765
0.15126
0.033613
-0.0084034
-0.10084
-0.067227
0.016807
0.13445
0.31933
0.32773
0.29412
0.27731
0.2521
0.31933
0.31933
0.54622
0.41176
0.27731
0.15966
0.16807
0.2521
0.2605
0.30252
0.2521
0.11765
-0.13445
-0.21849
-0.28571
-0.21008
-0.07563
-0.02521
-0.10084
-0.21849
-0.32773
-0.47059
-0.47899
-0.29412
-0.27731
-0.35294
-0.56303
-0.56303
-0.39496
-0.20168
-0.016807
-0.07563
-0.20168
-0.30252
-0.16807
0.016807
0.17647
0.21849
0.29412
0.27731
0.30252
0.2605
0.13445
0.067227
0.033613
0.13445
0.067227
0.11765
0.042017
-0.0084034
0.067227
0.15126
0.033613
-0.21008
-0.39496
-0.44538
-0.2605
-0.067227
0.05042
0.15966
0.18487
0.30252
0.31933
0.28571
0.27731
0.26891
0.17647
0.15126
0.02521
0.0084034
-0.12605
-0.13445
0.0084034
0.19328
0.30252
0.36975
0.36134
0.40336
0.41176
0.43697
0.30252
0.16807
0.16807
0.22689
0.38655
0.56303
0.61345
0.45378
0.23529
0.15966
0.28571
0.31092
0.41176
0.56303
0.4958
0.46218
0.28571
0.19328
0.02521
-0.042017
-0.02521
0.02521
0.19328
0.30252
0.40336
0.44538
0.34454
0.15126
-0.10924
-0.31092
-0.2605
-0.14286
-0.10924
0.0084034
0.10924
0.28571
0.42857
0.40336
0.31092
0.033613
0.07563
-0.02521
-0.02521
-0.10924
-0.10924
-0.058824
-0.02521
0.10924
0.21849
0.23529
0.10924
-0.058824
-0.23529
-0.34454
-0.29412
-0.22689
-0.19328
-0.18487
-0.13445
-0.28571
-0.47899
-0.53782
-0.46218
-0.46218
-0.46218
-0.58824
-0.62185
-0.57143
-0.4958
-0.5042
-0.52941
-0.54622
-0.42017
-0.17647
-0.058824
-0.042017
-0.20168
-0.37815
-0.42857
-0.33613
-0.31933
-0.21008
-0.10924
-0.02521
-0.13445
-0.21849
-0.20168
-0.10924
-0.15966
-0.15966
-0.23529
-0.2437
-0.19328
-0.18487
-0.18487
-0.13445
0.033613
0.12605
0.2437
0.2605
0.23529
0.13445
0.10924
0.10084
0.10924
0.07563
0.033613
-0.016807
0.033613
0.02521
0.22689
0.30252
0.19328
0.17647
0
0.042017
0.092437
0.19328
0.21849
0.15126
0.084034
0
0.033613
0.02521
0.033613
-0.02521
-0.13445
-0.16807
-0.23529
-0.18487
-0.14286
-0.13445
-0.21008
-0.21008
-0.13445
-0.084034
-0.042017
-0.042017
0.058824
0.067227
0.15966
0.19328
0.31933
0.52101
0.45378
0.43697
0.27731
0.15126
0.13445
-0.042017
-0.11765
-0.067227
0.058824
0.15126
0.16807
0.07563
-0.07563
-0.19328
-0.16807
-0.05042
0.07563
0.21008
0.27731
0.23529
0.15126
0.18487
0.14286
0.016807
0.084034
0.21849
0.2437
0.13445
0
-0.05042
-0.10084
-0.10084
-0.14286
-0.10924
-0.05042
0.0084034
-0.016807
-0.10084
-0.21849
-0.21849
-0.21849
-0.29412
-0.29412
-0.39496
-0.47899
-0.5042
-0.42857
-0.32773
-0.2437
-0.11765
-0.0084034
0.07563
0.067227
0.084034
-0.084034
-0.15126
0.0084034
0.02521
0.058824
-0.02521
-0.067227
-0.11765
-0.14286
-0.15126
-0.15966
-0.23529
-0.18487
-0.042017
0.07563
0.26891
0.42017
0.46218
0.34454
0.26891
0.042017
-0.14286
-0.13445
0.12605
0.56303
0.7563
0.71429
0.57143
0.31933
0.22689
0.17647
0.12605
0.13445
0.18487
0.15966
0.15966
0.10084
0.10924
0.05042
-0.02521
-0.016807
0.05042
0.15966
0.31933
0.5042
0.58824
0.48739
0.40336
0.092437
-0.042017
-0.14286
-0.067227
0
0.10084
0.10084
0.033613
-0.15126
-0.22689
-0.092437
0.0084034
0.042017
0.016807
0.0084034
0.016807
0.02521
0.033613
-0.07563
0.058824
0.05042
0.02521
-0.14286
-0.21008
-0.084034
-0.067227
0.10084
0.2605
0.36975
0.40336
0.34454
0.41176
0.30252
0.26891
0.19328
0.15126
0.15126
0.084034
0.067227
0.0084034
0.033613
0.15126
0.35294
0.42017
0.44538
0.2437
0.02521
-0.11765
-0.15966
-0.11765
-0.092437
-0.02521
0
-0.0084034
-0.092437
-0.11765
-0.15966
-0.084034
0
0.042017
0.016807
-0.016807
-0.02521
-0.07563
-0.20168
-0.11765
-0.033613
-0.10924
-0.21849
-0.31092
-0.36134
-0.35294
-0.34454
-0.42857
-0.45378
-0.36134
-0.2437
-0.28571
-0.36975
-0.47059
-0.42857
-0.38655
-0.35294
-0.2605
-0.2521
-0.21008
-0.05042
0.10084
0.21849
0.21008
0.10084
-0.20168
-0.47899
-0.55462
-0.5042
-0.36134
-0.22689
-0.0084034
-0.067227
-0.067227
-0.23529
-0.34454
-0.2437
-0.058824
-0.016807
-0.15966
-0.29412
-0.2437
-0.15966
-0.13445
-0.10924
-0.15126
-0.19328
-0.21008
-0.16807
-0.067227
-0.058824
-0.0084034
-0.042017
-0.14286
-0.2437
-0.21849
-0.12605
-0.067227
0.11765
0.05042
0.067227
-0.033613
0
-0.033613
-0.084034
-0.042017
0.016807
0.11765
0.23529
0.36134
0.34454
0.2605
0.13445
0.033613
-0.10084
-0.19328
-0.2605
-0.31092
-0.22689
-0.17647
-0.14286
-0.27731
-0.36975
-0.42017
-0.47899
-0.39496
-0.17647
0.042017
0.15966
0.13445
0.084034
0.067227
0.10924
0.23529
0.29412
0.28571
0.22689
0.20168
0.058824
-0.033613
0.0084034
-0.02521
0.10084
0.10924
0.19328
0.17647
0.22689
0.36975
0.44538
0.39496
0.35294
0.31933
0.26891
0.27731
0.43697
0.61345
0.59664
0.4958
0.23529
0.13445
0.17647
0.30252
0.32773
0.26891
0.16807
0
-0.15966
-0.13445
-0.10924
0.05042
-0.016807
-0.0084034
-0.033613
-0.092437
-0.13445
-0.13445
-0.15966
-0.12605
-0.12605
-0.14286
-0.2521
-0.33613
-0.37815
-0.46218
-0.48739
-0.47899
-0.36975
-0.27731
-0.23529
-0.2437
-0.36134
-0.40336
-0.36975
-0.37815
-0.42017
-0.51261
-0.47899
-0.43697
-0.042017
