-0.072848
0.086093
0.21854
0.23179
0.11258
0.013245
0.033113
0.25166
0.37748
0.3245
0.10596
-0.092715
-0.17219
-0.092715
0.13245
0.29801
0.34437
0.25166
0.17881
0.18543
0.22517
0.4106
0.49669
0.47682
0.31788
0.18543
0.099338
0.15232
0.25828
0.29801
0.18543
0.046358
-0.0066225
0.033113
0.17881
0.29139
0.27815
0.17219
0.059603
0.11258
0.15894
0.16556
0.099338
-0.10596
-0.29801
-0.33113
-0.13245
0.099338
0.099338
0.36424
0.45695
0.42384
0.27815
0.19868
0.18543
0.21192
0.29139
0.3245
0.33775
0.30464
0.30464
0.41722
0.50993
0.56291
0.49007
0.28477
0.11258
0.059603
0.099338
0.17881
0.22517
0.19205
0.12583
0.05298
0.05298
0.07947
0.092715
0.092715
0.15894
0.1457
0.10596
0.046358
-0.02649
-0.019868
0.10596
0.3245
0.49007
0.49007
0.45033
0.33113
0.21192
0.15894
0.18543
0.15232
0.07947
-0.019868
-0.07947
-0.066225
0.0066225
0.12583
0.19205
0.21854
0.25828
0.27815
0.27152
0.19205
0.2053
0.072848
-0.046358
-0.15232
-0.31788
-0.37748
-0.35762
-0.2053
-0.099338
-0.013245
0.046358
0.033113
0.0066225
0.02649
0.099338
0.11258
0.066225
0
0.066225
0.25166
0.49669
0.60265
0.46358
0.23179
0.099338
0.10596
0.15894
0.2649
0.21854
0.092715
-0.019868
-0.02649
0.033113
0.039735
0.046358
-0.039735
-0.13907
-0.17881
-0.07947
0.092715
0.19868
0.28477
0.22517
0.092715
0.039735
0.046358
0.092715
0.11258
0.12583
0.07947
0.072848
0.11921
0.17881
0.15232
0.059603
-0.039735
0.013245
0.13907
0.29801
0.37086
0.21192
0.033113
-0.05298
0.019868
0.15894
0.23841
0.24503
0.066225
-0.07947
-0.10596
0.0066225
0.11258
0.16556
0.059603
-0.21192
-0.39073
-0.29801
-0.072848
0.059603
0.066225
-0.033113
-0.15232
-0.13245
0.033113
0.27815
0.45033
0.45033
0.31126
0.099338
-0.033113
0.0066225
0.039735
0.05298
0.05298
-0.02649
-0.16556
-0.22517
-0.15232
-0.013245
0.02649
-0.05298
-0.23841
-0.4106
-0.40397
-0.25166
-0.07947
0
0.019868
-0.092715
-0.17881
-0.15894
0.0066225
0.15232
0.18543
0.11258
-0.086093
-0.22517
-0.25166
-0.07947
0.13245
0.29139
0.27152
0.07947
-0.10596
-0.17219
-0.033113
-0.019868
-0.039735
-0.19868
-0.39073
-0.48344
-0.41722
-0.11258
0.15232
0.38411
0.45695
0.37748
0.23841
0.13245
0.12583
0.066225
0.013245
-0.013245
-0.039735
-0.099338
-0.10596
-0.019868
0.10596
0.22517
0.27152
0.23179
0.17219
0.15894
0.17881
0.15894
0.11258
0.05298
-0.072848
-0.2053
-0.29801
-0.43046
-0.54967
-0.62914
-0.64901
-0.62914
-0.66887
-0.63576
-0.64901
-0.62914
-0.54305
-0.29139
-0.019868
0.092715
0.15232
0.046358
0.013245
0.086093
0.23841
0.2649
0.11258
-0.086093
-0.29139
-0.33113
-0.25828
-0.059603
-0.0066225
0.046358
0.039735
0.039735
0.07947
0.13907
0.15232
0.046358
-0.039735
-0.039735
0.02649
0.11258
0.18543
0.19868
0.13907
0.23179
0.48344
0.7351
0.78146
0.5894
0.28477
-0.019868
-0.11921
-0.033113
0.10596
0.17881
0.15894
0.07947
-0.05298
-0.066225
-0.033113
0.11921
0.18543
0.25828
0.23841
0.17881
0.16556
0.23179
0.25166
0.22517
0.15232
-0.0066225
-0.11921
-0.15894
0
0.1457
0.19205
0.19205
0.092715
0.033113
0.05298
0.1457
0.24503
0.22517
0.2053
0.15232
0.11258
0.13245
0.15894
0.18543
0.11258
0
-0.15232
-0.21854
-0.16556
0.05298
0.17219
0.23841
0.23179
0.19868
0.099338
0.12583
0.35762
0.50993
0.45695
0.2053
-0.086093
-0.19205
-0.11258
0.0066225
0.013245
-0.019868
-0.11921
-0.19205
-0.28477
-0.24503
-0.019868
0.12583
0.21854
0.2053
0.13245
0.07947
0.11258
0.15232
0.1457
0.1457
0.15232
0.19868
0.18543
0.16556
0.15894
0.12583
0.11921
0.086093
0.072848
-0.05298
-0.17881
-0.29801
-0.33775
-0.33113
-0.2053
-0.072848
0.046358
0.13245
0.17881
0.15894
0.17881
0.19205
0.13907
-0.0066225
-0.13907
-0.2649
-0.37748
-0.43046
-0.45033
-0.42384
-0.3245
-0.11258
0.039735
0.15232
0.17881
0.15894
0.033113
-0.18543
-0.28477
-0.2649
-0.16556
-0.059603
-0.033113
-0.13245
-0.15894
-0.086093
0.086093
0.19205
0.15232
0.0066225
-0.13907
-0.086093
0.10596
0.21192
0.11258
-0.15894
-0.43046
-0.58278
-0.47682
-0.19868
0.033113
0.039735
-0.12583
-0.25828
-0.30464
-0.15232
0.13907
0.29801
0.25828
-0.019868
-0.25166
-0.3245
-0.099338
0.22517
0.34437
0.19868
0.039735
-0.072848
-0.02649
0.15232
0.31788
0.39735
0.21192
-0.0066225
-0.19868
-0.16556
0.046358
0.24503
0.16556
-0.059603
-0.25166
-0.23841
-0.07947
0.13907
0.28477
0.27152
0.092715
-0.059603
-0.15232
-0.019868
0.21854
0.50331
0.51656
0.37086
0.22517
0.11258
0.16556
0.25828
0.30464
0.11258
-0.11258
-0.27152
-0.29139
-0.19205
-0.059603
0.0066225
-0.013245
-0.02649
0.059603
0.15232
0.27815
0.36424
0.37086
0.16556
0.013245
-0.059603
0.046358
0.13907
0.25828
0.23179
0.1457
0.099338
0.12583
0.15894
0.15232
0.07947
-0.019868
-0.21854
-0.2649
-0.21192
-0.059603
0.013245
0.066225
-0.013245
-0.07947
-0.05298
0.086093
0.21192
0.18543
0.11921
0.033113
0.05298
0.05298
0.092715
0.092715
0.092715
0.1457
0.19205
0.17881
0.15894
0.066225
-0.046358
-0.072848
0.046358
0.25166
0.35762
0.4106
0.36424
0.2649
0.21192
0.24503
0.29801
0.3245
0.31788
0.29139
0.22517
0.2053
0.22517
0.27152
0.27152
0.19205
0.19205
0.21854
0.39073
0.59603
0.64238
0.50331
0.28477
0.17219
0.12583
0.15232
0.24503
0.28477
0.35099
0.46358
0.48344
0.39735
0.24503
0.11258
0.02649
0.019868
0.033113
-0.019868
-0.16556
-0.31788
-0.33775
-0.19868
-0.046358
0.11921
0.05298
-0.15894
-0.34437
-0.23841
0.12583
0.5298
0.84768
0.8543
0.68874
0.48344
0.35762
0.38411
0.39073
0.39735
0.25166
-0.046358
-0.27152
-0.37086
-0.33775
-0.31126
-0.33775
-0.45695
-0.57616
-0.52318
-0.38411
-0.3245
-0.35762
-0.45033
-0.49669
-0.48344
-0.34437
-0.13245
-0.0066225
0
-0.10596
-0.25828
-0.28477
-0.10596
0.23841
0.45033
0.5298
0.35762
0.13245
-0.092715
-0.1457
-0.05298
-0.066225
-0.092715
-0.2053
-0.2649
-0.28477
-0.15232
0.1457
0.27152
0.22517
0.0066225
-0.21854
-0.31126
-0.11921
0.2649
0.68212
0.92715
0.87417
0.56954
0.18543
0.02649
0.019868
0.086093
0.11921
0.11921
0.07947
0.072848
0.19868
0.35099
0.35762
0.30464
0.13245
-0.066225
-0.15894
-0.13245
-0.12583
-0.11258
-0.092715
0.013245
0.13245
0.17219
0.18543
0.0066225
-0.11258
-0.2649
-0.19868
-0.033113
0.13245
0.27152
0.13245
-0.15894
-0.4702
-0.54967
-0.46358
-0.19205
0.039735
0.092715
-0.07947
-0.29139
-0.30464
-0.10596
0.23179
0.45695
0.42384
0.15894
-0.059603
-0.19868
-0.21192
-0.07947
0.07947
0.1457
0.07947
0
-0.07947
-0.11258
-0.019868
0.15894
0.2649
0.19205
0.013245
-0.24503
-0.33775
-0.24503
0.059603
0.29139
0.31788
0.21854
0.0066225
-0.092715
-0.02649
0.17881
0.22517
0.02649
-0.22517
-0.46358
-0.48344
-0.31126
0.072848
0.39735
0.59603
0.62914
0.49007
0.30464
0.12583
0.05298
-0.059603
-0.1457
-0.23841
-0.27152
-0.3245
-0.25166
-0.086093
-0.0066225
0.086093
0.13907
0.23841
0.30464
0.29139
0.21192
0.019868
-0.12583
-0.11921
0.013245
0.18543
0.27152
0.27815
0.086093
-0.059603
-0.21192
-0.21854
-0.22517
-0.17881
-0.039735
0.013245
0.033113
0
-0.092715
-0.18543
-0.18543
-0.13907
-0.066225
0.013245
0.046358
-0.02649
-0.21854
-0.35099
-0.45695
-0.39735
-0.2053
0.046358
0.22517
0.23179
0.30464
0.3245
0.30464
0.21854
0.059603
-0.05298
-0.15894
-0.086093
-0.046358
0.05298
0
-0.099338
-0.21192
-0.2649
-0.12583
0.092715
0.28477
0.30464
0.18543
0.0066225
-0.046358
0.086093
0.22517
0.29801
0.25828
0.25828
0.17881
0.11258
0.12583
0.086093
0.0066225
-0.086093
-0.17881
-0.25166
-0.18543
0.05298
0.25828
0.35762
0.25166
0.072848
-0.19205
-0.28477
-0.23841
-0.072848
0.02649
0.033113
-0.0066225
-0.019868
0.066225
0.24503
0.34437
0.31788
0.2649
0.17219
0.13245
0.10596
0.10596
0.07947
0.0066225
0
-0.013245
-0.039735
-0.092715
-0.13245
-0.15894
-0.17219
-0.05298
0.02649
0.072848
0.046358
0.05298
0.05298
0.046358
0.059603
-0.019868
-0.11921
-0.17219
-0.13907
-0.0066225
0.12583
0.21854
0.18543
0.05298
-0.013245
0
0.033113
0.059603
0.072848
0.05298
0.0066225
0.099338
0.25166
0.31126
0.27815
0.23179
0.19205
0.13907
0.039735
-0.066225
-0.2053
-0.19868
-0.072848
0.039735
0.086093
0.033113
-0.039735
-0.12583
-0.15894
-0.039735
0.16556
0.29139
0.36424
0.30464
0.15894
0.059603
-0.013245
0.013245
-0.0066225
0.013245
0.046358
0.039735
0.13245
0.23179
0.33775
0.33113
0.35099
0.29139
0.15232
0.046358
-0.019868
0
-0.019868
-0.013245
-0.059603
-0.099338
-0.046358
0.02649
0.0066225
-0.072848
-0.11921
-0.15232
-0.039735
0.19205
0.4702
0.50331
0.38411
0.27815
0.3245
0.5298
0.66225
0.71523
0.5298
0.24503
0.072848
-0.039735
0.033113
0.05298
0.039735
-0.18543
-0.40397
-0.49669
-0.40397
-0.2053
-0.0066225
0.17881
0.13907
0.066225
0
0.059603
0.19868
0.29139
0.27152
0.086093
-0.11921
-0.2053
-0.21192
-0.10596
0.039735
0.15232
0.092715
0.02649
-0.02649
-0.033113
-0.019868
0.0066225
0.02649
-0.059603
-0.13245
-0.13907
-0.059603
0
0.066225
-0.013245
-0.11258
-0.1457
-0.10596
-0.07947
-0.11258
-0.12583
-0.17219
-0.16556
-0.15232
-0.039735
0.033113
0.046358
0.05298
-0.019868
-0.099338
-0.12583
-0.02649
0.11921
0.17219
0.18543
0.086093
-0.059603
-0.13245
-0.16556
-0.17219
-0.12583
-0.07947
-0.13907
-0.17881
-0.19205
-0.059603
-0.05298
0.0066225
0.013245
0.019868
-0.0066225
-0.013245
-0.019868
-0.10596
-0.13245
-0.066225
0.059603
0.17881
0.19868
0.15894
0.033113
-0.039735
0.013245
0.12583
0.22517
0.28477
0.2649
0.15894
0.05298
0.12583
0.27152
0.37748
0.43046
0.29139
0.11258
-0.0066225
-0.019868
0.066225
0.13245
0.19205
0.18543
0.086093
0.05298
0.17219
0.4106
0.59603
0.65563
0.52318
0.23841
0.099338
0.13245
0.41722
0.66225
0.80132
0.64238
0.37748
0.13245
0.07947
0.092715
0.16556
0.21192
0.17881
0.013245
-0.086093
-0.039735
0.11258
0.35099
0.51656
0.48344
0.3245
0.22517
0.2649
0.34437
0.43709
0.39735
0.27815
0.039735
-0.13245
-0.15232
-0.11258
-0.019868
0.02649
-0.066225
-0.17219
-0.25166
-0.19868
-0.11921
0.039735
0.17219
0.24503
0.17881
0.17219
0.25828
0.45033
0.62252
0.64238
0.47682
0.21192
0.02649
-0.11921
-0.21854
-0.17219
-0.099338
-0.0066225
-0.066225
-0.10596
-0.05298
0.11921
0.36424
0.53642
0.52318
0.34437
0.19205
0.11258
0.11258
0.21192
0.2649
0.23179
0.13907
0.13245
0.18543
0.27152
0.39735
0.50993
0.50331
0.41722
0.33775
0.23841
0.17219
0.15894
0.17219
0.17881
0.19205
0.25828
0.25828
0.21192
0.092715
0.05298
-0.10596
-0.16556
-0.17881
-0.1457
-0.1457
-0.17881
-0.17219
-0.086093
0.072848
0.15894
0.059603
-0.12583
-0.27815
-0.2649
-0.24503
-0.17219
-0.13245
-0.16556
-0.17881
-0.13907
0.039735
0.17881
0.27815
0.33113
0.24503
0.16556
0.16556
0.17219
0.13245
-0.019868
-0.17219
-0.31126
-0.23841
-0.013245
0.23841
0.37748
0.28477
0.10596
-0.033113
-0.13245
-0.059603
-0.10596
-0.2053
-0.31126
-0.29139
-0.17219
-0.039735
0.099338
0.11258
0.039735
-0.019868
0.046358
0.13245
0.15232
0.086093
-0.07947
-0.22517
-0.2053
-0.039735
0.039735
0.072848
0.019868
-0.066225
-0.11258
-0.086093
-0.033113
-0.072848
-0.19205
-0.24503
-0.23841
-0.13245
-0.013245
0.10596
0.0066225
-0.039735
-0.086093
-0.019868
0.046358
0.086093
0.10596
0.013245
-0.013245
0.11921
0.35762
0.49669
0.48344
0.23179
-0.11258
-0.25828
-0.13245
0.1457
0.37748
0.48344
0.35099
0.13245
-0.05298
-0.05298
0.02649
0.039735
-0.10596
-0.44371
-0.82119
-1
-0.82119
-0.4702
-0.19205
-0.05298
-0.17219
-0.31788
-0.33775
-0.19868
-0.059603
-0.033113
-0.013245
-0.11258
-0.1457
-0.15894
-0.092715
-0.13907
-0.18543
-0.2649
-0.27815
-0.23179
-0.16556
-0.05298
-0.07947
-0.072848
-0.02649
0.013245
-0.0066225
-0.059603
-0.11921
-0.23179
-0.23841
-0.10596
0.10596
0.24503
0.27152
0.2053
0
-0.092715
-0.046358
0.099338
0.24503
0.29139
0.21854
0.013245
-0.11921
-0.12583
-0.013245
0.046358
0.07947
0.059603
-0.013245
-0.066225
-0.092715
-0.092715
-0.18543
-0.29801
-0.49007
-0.62914
-0.54305
-0.21854
0.092715
0.22517
0.19868
-0.0066225
-0.13245
-0.066225
0.24503
0.55629
0.6755
0.60927
0.37748
0.10596
0.013245
0.099338
0.19205
0.22517
0.1457
-0.072848
-0.21192
-0.22517
-0.046358
0.19205
0.35762
0.35762
0.17881
-0.072848
-0.19205
-0.072848
0.066225
0.15894
0.07947
-0.10596
-0.30464
-0.36424
-0.2649
-0.21854
-0.16556
-0.1457
-0.11258
-0.066225
0.099338
0.25828
0.27152
0.27152
0.23841
0.33113
0.31788
0.22517
0.066225
-0.16556
-0.29139
-0.31126
-0.25166
-0.19205
-0.16556
-0.18543
-0.21192
-0.16556
-0.066225
-0.019868
-0.046358
-0.12583
-0.23179
-0.25828
-0.19205
-0.05298
0.039735
-0.02649
-0.10596
-0.24503
-0.37748
-0.45695
-0.4106
-0.3245
-0.21854
-0.046358
-0.013245
0.05298
-0.0066225
0
-0.013245
-0.059603
-0.05298
-0.11258
-0.066225
0
0.11258
0.11258
0.0066225
-0.15894
-0.27152
-0.3245
-0.24503
-0.066225
-0.033113
-0.099338
-0.23179
-0.28477
-0.17219
0.039735
0.25166
0.2053
0.019868
-0.21192
-0.29801
-0.16556
0.11921
0.4106
0.4106
0.25166
0.033113
-0.11258
-0.17219
-0.072848
0.11258
0.25166
0.29139
0.24503
0.11921
0.046358
0.092715
0.23179
0.27152
0.22517
0.092715
-0.033113
-0.059603
0.059603
0.1457
0.13245
0.039735
-0.033113
-0.086093
-0.13907
-0.033113
0.07947
0.15894
0.11258
-0.019868
-0.21192
-0.2649
-0.1457
0.033113
0.15232
0.2053
0.19868
0.19868
0.15232
0.15894
0.10596
0.02649
-0.02649
0.046358
0.072848
0.11258
0.17219
0.17881
0.19868
0.27815
0.35762
0.40397
0.36424
0.30464
0.21192
0.15894
0.15894
0.18543
0.16556
0.19868
0.23841
0.2053
0.072848
0
0.046358
0.1457
0.29801
0.37748
0.36424
0.18543
0.12583
0.19205
0.36424
0.49007
0.49007
0.40397
0.25166
0.24503
0.33113
0.43709
0.52318
0.4702
0.42384
0.42384
0.56291
0.60265
0.46358
0.22517
0.02649
0.033113
0.21854
0.52318
0.66887
0.56291
0.29801
0.099338
0.066225
0.15232
0.4702
0.65563
0.68874
0.41722
0.046358
-0.24503
-0.33775
-0.16556
0.072848
0.2649
0.31788
0.29139
0.19205
0.12583
0.21854
0.24503
0.2053
0.10596
0.072848
0.0066225
-0.02649
0.033113
0.019868
-0.05298
-0.13245
-0.12583
-0.11258
0.07947
0.31126
0.42384
0.39735
0.3245
0.30464
0.31788
0.39735
0.50993
0.46358
0.36424
0.23179
0.16556
0.15232
0.17881
0.2649
0.2649
0.17219
0.07947
0.066225
0.059603
0.16556
0.19868
0.1457
0.066225
0.086093
0.19205
0.27152
0.30464
0.23841
0.12583
0.02649
0.046358
0.15894
0.29801
0.35099
0.30464
0.17219
-0.0066225
-0.013245
0.066225
0.092715
0.099338
0.072848
0.10596
0.17219
0.31126
0.3245
0.25828
0.072848
-0.11258
-0.21854
-0.16556
0.033113
0.19205
0.16556
0.059603
-0.046358
-0.19205
-0.25828
-0.31126
-0.30464
-0.31126
-0.28477
-0.22517
-0.28477
-0.29139
-0.2053
-0.12583
-0.07947
-0.11921
-0.19205
-0.24503
-0.19868
0
0.21854
0.33113
0.28477
0.2649
0.23179
0.31126
0.39073
0.30464
0.046358
-0.18543
-0.27815
-0.22517
-0.07947
0.013245
-0.019868
-0.13907
-0.13245
-0.072848
0.0066225
0.10596
0.1457
0.19205
0.092715
0.10596
0.07947
0.05298
-0.046358
-0.17881
-0.31126
-0.36424
-0.31788
-0.27815
-0.23179
-0.17219
-0.11258
-0.059603
-0.039735
0.013245
-0.02649
-0.11921
-0.2649
-0.34437
-0.44371
-0.41722
-0.33775
-0.28477
-0.27152
-0.31788
-0.31126
-0.33775
-0.28477
-0.23179
-0.21854
-0.29801
-0.43046
-0.45695
-0.4106
-0.21854
-0.0066225
0.072848
0.019868
-0.099338
-0.086093
-0.10596
-0.02649
0.02649
0.013245
0.013245
0.033113
0.11921
0.13907
0.11921
0.066225
0.059603
-0.0066225
0.02649
0.02649
0.013245
-0.02649
-0.046358
-0.05298
-0.092715
-0.099338
-0.17219
-0.29139
-0.37086
-0.30464
-0.16556
-0.019868
0.12583
0.15894
0.15894
0.17219
0.17881
0.19868
0.21192
0.15232
-0.05298
-0.27152
-0.45033
-0.37748
-0.19868
-0.019868
0.23179
0.33113
0.25166
0.05298
-0.13907
-0.25828
-0.12583
0.17219
0.43709
0.48344
0.34437
0.11921
-0.11921
-0.18543
-0.19205
-0.15894
-0.2053
-0.21854
-0.17219
-0.033113
0.16556
0.37086
0.41722
0.29139
0
-0.21192
-0.40397
-0.33113
-0.11921
0.046358
0.092715
0.066225
-0.0066225
-0.086093
-0.07947
0.099338
0.24503
0.24503
0.092715
-0.1457
-0.27815
-0.22517
-0.046358
0.092715
0.046358
-0.092715
-0.25828
-0.25828
-0.099338
0.13907
0.33113
0.36424
0.31788
0.15894
-0.092715
-0.2649
-0.25828
-0.11258
0.086093
0.2053
0.059603
-0.16556
-0.37086
-0.30464
-0.16556
-0.02649
0.0066225
-0.046358
-0.11921
-0.11258
-0.0066225
0.039735
0.02649
-0.05298
-0.17881
-0.22517
-0.18543
0.019868
0.10596
0.086093
-0.013245
-0.15894
-0.15894
-0.039735
0.19205
0.28477
0.31126
0.15232
-0.019868
-0.13907
-0.2053
-0.15894
-0.21192
-0.24503
-0.29139
-0.33113
-0.34437
-0.25166
-0.12583
-0.092715
-0.13245
-0.27152
-0.44371
-0.5298
-0.38411
-0.19205
-0.11258
-0.27815
-0.56954
-0.82119
-0.80132
-0.44371
-0.02649
0.21854
0.18543
-0.019868
-0.25828
-0.35762
-0.2053
0.046358
0.19868
0.17881
0.033113
-0.21854
-0.36424
-0.16556
0.11258
0.36424
0.29801
0.059603
-0.21192
-0.36424
-0.24503
0.10596
0.45033
0.56291
0.33113
-0.086093
-0.41722
-0.40397
-0.13907
0.24503
0.52318
0.54967
0.21192
-0.11258
-0.28477
-0.17219
0.046358
0.25828
0.38411
0.21192
0.02649
-0.13245
-0.19205
-0.05298
0.086093
0.16556
0.02649
-0.18543
-0.31126
-0.25166
-0.046358
0.17219
0.22517
0.11921
-0.033113
-0.07947
-0.0066225
0.1457
0.4106
0.62252
0.64901
0.48344
0.29139
0.12583
-0.0066225
-0.019868
-0.092715
-0.11258
-0.22517
-0.40397
-0.53642
-0.56954
-0.37086
-0.13245
-0.02649
-0.046358
-0.099338
-0.12583
-0.13245
-0.13245
-0.16556
-0.27152
-0.29139
-0.21192
-0.072848
0.05298
0.16556
0.17881
0.15894
0.1457
0.12583
0.072848
0.046358
0.033113
0.02649
-0.033113
-0.02649
0.05298
0.099338
0.11921
0.11258
0.072848
0.019868
0.0066225
0.033113
0.013245
0.019868
0.05298
0.092715
0.17219
0.29139
0.34437
0.29801
0.2649
0.31788
0.42384
0.43709
0.35099
0.21854
0.066225
0.039735
0.092715
0.1457
0.19205
0.27815
0.42384
0.62914
0.84106
1
0.93377
0.66225
0.38411
0.21192
0.18543
0.24503
0.24503
0.15894
0.019868
-0.033113
-0.07947
-0.10596
-0.013245
0.21192
0.41722
0.51656
0.54305
0.50331
0.45695
0.39073
0.4106
0.37748
0.42384
0.47682
0.47682
0.46358
0.36424
0.30464
0.2053
0.18543
0.17219
0.21854
0.25166
0.29801
0.2649
0.039735
-0.11921
-0.15894
-0.072848
0.0066225
0.02649
0.072848
-0.059603
-0.066225
0
0.11921
0.17881
0.13245
0.059603
0.019868
0.11258
0.21854
0.25166
0.13245
0.033113
-0.046358
-0.059603
-0.02649
0.072848
0.10596
0.059603
0.019868
0.0066225
0.066225
0.15232
0.18543
0.039735
-0.2053
-0.29139
-0.25166
-0.11258
0.05298
0.1457
0.13907
0.10596
0.1457
0.21192
0.25166
0.27815
0.33113
0.28477
0.13907
-0.046358
-0.21854
-0.30464
-0.23841
-0.11921
-0.019868
0.046358
0.086093
0.059603
0.092715
0.16556
0.30464
0.33113
0.28477
0.2053
0.099338
0.046358
0.086093
0.25166
0.29139
0.24503
0.066225
-0.11921
-0.1457
-0.033113
0.18543
0.27815
0.23179
0.092715
0.046358
0.21192
0.47682
0.63576
0.56954
0.35762
0.19205
0.10596
0.059603
0.11921
0.086093
-0.033113
-0.23841
-0.37748
-0.36424
-0.27152
-0.05298
0.013245
-0.046358
-0.16556
-0.19205
-0.07947
0.12583
0.34437
0.37086
0.18543
-0.092715
-0.25166
-0.21854
-0.05298
0.23179
0.31126
0.21192
0.02649
-0.066225
-0.066225
0
0.059603
0.046358
-0.033113
-0.12583
-0.21192
-0.22517
-0.13245
0.046358
0.17219
0.19205
0.11258
0.10596
0.13907
0.25828
0.37748
0.39735
0.2649
0.0066225
-0.25166
-0.54967
-0.64238
-0.54305
-0.34437
-0.21192
-0.17881
-0.12583
-0.039735
0.092715
0.2053
0.17219
0.086093
0.059603
0.059603
-0.013245
-0.11258
-0.27815
-0.39735
-0.46358
-0.4106
-0.33775
-0.35099
-0.39073
-0.3245
-0.2053
-0.086093
0.019868
0.066225
0.07947
0.072848
0.099338
0.13907
0.11258
0.16556
0.099338
0.013245
-0.11921
-0.19868
-0.28477
0.16556
0.11921
0.059603
0.086093
0.19868
0.24503
0.23179
0.066225
-0.019868
-0.099338
-0.0066225
0.15232
0.21854
0.033113
-0.23841
-0.39735
-0.42384
-0.29801
-0.15232
-0.086093
-0.12583
-0.19868
-0.19868
-0.13907
0.039735
0.2053
0.28477
0.21192
0.17219
0.22517
0.33775
0.53642
0.68212
0.66887
0.49669
0.21854
0
-0.15232
-0.13245
0.033113
0.15232
0.086093
0.0066225
-0.11258
-0.23841
-0.2649
-0.28477
-0.27815
-0.2649
-0.21854
-0.07947
0.11258
0.31788
0.44371
0.41722
0.31788
0.29139
0.31126
0.27152
0.13245
-0.013245
-0.17219
-0.29139
-0.27815
-0.19205
-0.066225
0
0.013245
-0.11921
-0.25828
-0.25166
-0.11921
0.02649
0.072848
0.013245
-0.13907
-0.22517
-0.18543
-0.10596
-0.033113
-0.013245
-0.046358
-0.11258
-0.072848
0
0.039735
-0.019868
-0.13907
-0.25166
-0.33113
-0.27815
-0.11258
0
-0.039735
-0.13245
-0.086093
-0.033113
0.099338
0.19868
0.28477
0.29139
0.29801
0.27152
0.24503
0.18543
0.10596
-0.013245
-0.07947
0.039735
0.21854
0.31126
0.28477
0.16556
0.0066225
-0.19868
-0.16556
-0.07947
0.019868
0.086093
0.086093
-0.072848
-0.29801
-0.35762
-0.29139
-0.15894
-0.15894
-0.22517
-0.36424
-0.27152
-0.0066225
0.21192
0.28477
0.17219
0.059603
-0.039735
-0.072848
-0.059603
-0.1457
-0.31126
-0.45033
-0.41722
-0.23179
0
0.15232
0.13907
0.066225
0.07947
0.29801
0.50993
0.65563
0.56954
0.3245
0.099338
0.059603
0.21854
0.28477
0.25828
0.10596
-0.033113
-0.092715
0.039735
0.33113
0.51656
0.52318
0.2649
-0.05298
-0.21854
-0.099338
0.15232
0.33113
0.29139
0.02649
-0.21854
-0.28477
-0.019868
0.39735
0.78808
0.99338
0.98675
0.77483
0.49007
0.33113
0.25828
0.21192
0.066225
-0.23179
-0.5894
-0.82781
-0.60927
-0.25828
0.12583
0.27815
0.23179
0.11921
0.059603
0.29801
0.55629
0.72848
0.62914
0.37748
0.086093
-0.02649
0.013245
0.13907
0.27152
0.29801
0.29801
0.23179
0.22517
0.34437
0.47682
0.5298
0.50993
0.43046
0.3245
0.28477
0.29801
0.25166
0.1457
0.059603
0.11258
0.2053
0.29801
0.33775
0.31788
0.19205
0.066225
-0.086093
-0.19868
-0.19205
0.033113
0.31126
0.43046
0.31788
0.086093
-0.05298
0.033113
0.24503
0.39735
0.42384
0.4106
0.28477
0.092715
-0.1457
-0.30464
-0.31788
-0.27152
-0.039735
0.16556
0.31788
0.4106
0.44371
0.37086
0.21854
0.07947
-0.072848
-0.17881
-0.22517
-0.23179
-0.28477
-0.36424
-0.43046
-0.43709
-0.35762
-0.11921
0.15232
0.25166
0.22517
0.15894
0.072848
0.059603
0.086093
0.13907
0.10596
0.046358
-0.0066225
-0.02649
0.013245
0.066225
0.12583
0.092715
0.07947
0.046358
0.039735
0.046358
0.10596
0.2053
0.17219
0.059603
-0.02649
-0.12583
-0.13245
-0.013245
0.1457
0.2053
0.21854
0.19205
0.23179
0.24503
0.28477
0.30464
0.22517
0.17219
0.15232
0.15232
0.11921
0.046358
-0.11258
-0.25828
-0.36424
-0.31126
-0.17219
-0.05298
0.066225
0.086093
0.013245
-0.07947
-0.092715
-0.07947
-0.05298
0.05298
0.072848
0
-0.10596
-0.17881
-0.24503
-0.21854
-0.099338
-0.019868
0.066225
0.18543
0.3245
0.35762
0.33113
0.25166
0.10596
-0.0066225
-0.046358
0.059603
0.16556
0.17219
0.046358
-0.15894
-0.3245
-0.33113
-0.13907
-0.072848
-0.092715
-0.19205
-0.27815
-0.21854
-0.046358
0.15894
0.17881
0.072848
-0.092715
-0.18543
-0.092715
0.1457
0.4106
0.47682
0.37086
0.17219
0.033113
-0.019868
0.059603
0.13245
0.086093
-0.033113
-0.15894
-0.19205
-0.13907
0.019868
0.013245
-0.19868
-0.45033
-0.60265
-0.60265
-0.45033
-0.13245
0.10596
0.2649
0.25828
0.28477
0.35099
0.42384
0.48344
0.37086
0.15232
-0.039735
-0.05298
0.033113
0.13245
0.17881
-0.019868
-0.30464
-0.56291
-0.64238
-0.54305
-0.27152
0.11921
0.4106
0.54305
0.47682
0.39073
0.31126
0.33775
0.40397
0.40397
0.29801
0.1457
-0.059603
-0.29139
-0.42384
-0.39073
-0.25166
-0.12583
-0.039735
0.046358
0.10596
0.21854
0.39073
0.54305
0.56291
0.5298
0.4106
0.29801
0.33113
0.49007
0.6755
0.65563
0.5298
0.28477
0.17219
0.21192
0.28477
0.25828
-0.019868
-0.31126
-0.64901
-0.83444
-0.84106
-0.64901
-0.43046
-0.35099
-0.30464
-0.31788
-0.22517
0.033113
0.38411
0.54967
0.45695
0.18543
-0.15232
-0.28477
-0.27815
-0.1457
-0.05298
-0.072848
-0.11258
-0.15894
-0.10596
0.066225
0.31126
0.43709
0.45033
0.29801
0.059603
-0.19868
-0.31788
-0.25166
-0.16556
-0.13245
-0.19205
-0.33113
-0.42384
-0.38411
-0.17219
-0.033113
0.0066225
-0.15894
-0.39073
-0.59603
-0.57616
-0.34437
0.0066225
0.31788
0.51656
0.48344
0.34437
0.21854
0.16556
0.17219
0.21192
0.17219
0.066225
-0.16556
-0.19205
-0.1457
-0.019868
0.10596
0.2053
0.21854
0.15894
0.15232
0.13245
0.11921
0.12583
0.18543
0.18543
0.072848
-0.019868
-0.18543
-0.28477
-0.24503
-0.059603
0.16556
0.28477
0.34437
0.25828
0.18543
0.072848
0.013245
-0.05298
-0.0066225
0.086093
0.12583
-0.0066225
-0.19205
-0.2053
-0.10596
0.072848
0.16556
0.12583
-0.0066225
-0.11921
-0.10596
-0.072848
-0.0066225
0.11921
0.11258
-0.0066225
-0.16556
-0.17219
-0.18543
-0.10596
-0.092715
-0.13907
-0.22517
-0.2649
-0.19868
-0.046358
0.15232
0.36424
0.4702
0.53642
0.59603
0.57616
0.37086
0.086093
-0.099338
-0.17219
-0.15894
-0.18543
-0.31126
-0.45695
-0.45695
-0.21854
0.086093
0.31126
0.4106
0.34437
0.22517
0.11921
0.1457
0.17881
0.11258
0.013245
-0.21854
-0.37086
-0.37748
-0.19868
0.02649
0.19205
0.25166
0.17219
0.066225
-0.05298
-0.13245
-0.25166
-0.25828
-0.19205
-0.13907
-0.13245
-0.12583
-0.013245
0.07947
0.19205
0.19868
0.13245
0.0066225
-0.086093
-0.033113
0
-0.013245
-0.086093
-0.19205
-0.19205
-0.046358
0.21854
0.28477
0.25828
0.15894
0.013245
-0.066225
-0.12583
-0.12583
-0.16556
-0.21192
-0.16556
-0.033113
0.092715
0.2649
0.34437
0.35099
0.29801
0.3245
0.37086
0.29139
0.21192
0.033113
-0.13907
-0.21854
-0.19868
-0.13907
-0.092715
-0.0066225
-0.033113
-0.046358
0.019868
0.12583
0.22517
0.18543
0.18543
0.10596
0.092715
0.11258
0.18543
0.19205
0.17219
0.19868
0.25828
0.29801
0.3245
0.28477
0.2053
0.2053
0.23179
0.25828
0.25166
0.17219
0.072848
-0.099338
-0.13907
-0.092715
0.10596
0.29139
0.44371
0.5298
0.45695
0.39735
0.36424
0.34437
0.21854
0.066225
-0.05298
-0.15894
-0.099338
0
0.039735
-0.0066225
-0.033113
0.046358
0.21854
0.41722
0.54305
0.48344
0.29139
0.11921
0.013245
0.039735
0.10596
0.13245
0.059603
-0.05298
-0.013245
0.066225
0.17881
0.28477
0.36424
0.37748
0.19868
0.10596
0.05298
0.15894
0.31126
0.4702
0.48344
0.40397
0.33775
0.25828
0.24503
0.27152
0.33775
0.2649
0.15894
0.033113
-0.072848
-0.12583
-0.11921
-0.07947
-0.05298
0
0.12583
0.2649
0.25166
0.092715
-0.17219
-0.41722
-0.46358
-0.38411
-0.29801
-0.2649
-0.29139
-0.30464
-0.31126
-0.17881
0.02649
0.15894
0.066225
-0.16556
-0.37748
-0.41722
-0.21192
0.07947
0.22517
0.1457
-0.033113
-0.17219
-0.2053
-0.072848
0.10596
0.23841
0.17881
0.072848
-0.019868
-0.092715
-0.07947
0.0066225
0.10596
0.15232
0.19205
0.13245
0.059603
0
0.013245
0.086093
0.13245
0.2053
0.18543
0.15232
0.099338
0.15894
0.17881
0.21192
0.24503
0.24503
0.2649
0.31126
0.34437
0.33113
0.21192
0.092715
-0.0066225
0.02649
0.15894
0.3245
0.33775
0.30464
0.29139
0.33775
0.33775
0.25828
0.25828
0.2053
0.17881
0.10596
-0.086093
-0.34437
-0.47682
-0.39073
-0.22517
0.013245
0.17881
0.2053
0.13907
0.07947
0.16556
0.24503
0.29139
0.18543
-0.02649
-0.2053
-0.19205
-0.046358
0.039735
0.013245
-0.10596
-0.2649
-0.33113
-0.27815
-0.066225
0.099338
0.25828
0.28477
0.23841
0.033113
0.066225
0.19205
0.34437
0.39073
0.27152
0.086093
-0.11258
-0.11921
-0.07947
0.02649
0.059603
-0.019868
-0.15232
-0.17881
-0.059603
0.086093
0.23841
0.25166
0.24503
0.092715
0.033113
0.13245
0.33775
0.49669
0.45695
0.25828
-0.039735
-0.25166
-0.23841
-0.11921
-0.013245
0.0066225
-0.039735
-0.16556
-0.15894
-0.013245
0.17219
0.27152
0.2649
0.16556
-0.02649
-0.086093
0
0.21854
0.35099
0.31788
0.1457
-0.086093
-0.25166
-0.27815
-0.19205
-0.12583
-0.059603
-0.066225
-0.13907
-0.07947
0.066225
0.2649
0.33775
0.31126
0.13245
-0.02649
0.033113
0.31788
0.60927
0.62914
0.46358
0.10596
-0.17219
-0.30464
-0.25166
-0.1457
-0.19205
-0.23841
-0.39073
-0.37748
-0.16556
0.12583
0.31126
0.25828
0.07947
-0.066225
-0.15894
-0.072848
0.18543
0.4106
0.50331
0.4106
0.11258
-0.15232
-0.27815
-0.2053
-0.13245
-0.13907
-0.31126
-0.58278
-0.76159
-0.72848
-0.45033
-0.23841
-0.13245
-0.25166
-0.45033
-0.62914
-0.57616
-0.27815
0.039735
0.23841
0.21854
0.11921
0.013245
0.092715
0.25828
0.31788
0.30464
0.21192
0.07947
-0.066225
-0.10596
0.013245
0.11258
0.15232
0.046358
-0.11921
-0.2053
-0.15232
-0.0066225
0.099338
0.05298
-0.07947
-0.25166
-0.27815
-0.07947
0.18543
0.2649
0.16556
-0.07947
-0.31788
-0.37748
-0.15232
0.18543
0.45695
0.45033
0.23179
-0.092715
-0.33113
-0.30464
-0.13245
0.02649
0.086093
-0.019868
-0.18543
-0.25828
-0.13245
0
0.033113
-0.10596
-0.33775
-0.53642
-0.61589
-0.48344
-0.2649
-0.099338
-0.046358
-0.16556
-0.35099
-0.39073
-0.23179
-0.019868
0.11258
0.15894
0.039735
-0.1457
-0.21192
-0.099338
0.17219
0.31126
0.3245
0.19205
-0.019868
-0.11258
-0.072848
0.059603
0.12583
0
-0.19868
-0.43709
-0.45033
-0.27152
0.039735
0.25828
0.39735
0.37086
0.27152
0.16556
0.086093
0.046358
0.013245
0.05298
0
-0.072848
-0.11258
-0.059603
0.02649
0.02649
0.046358
-0.039735
-0.11258
-0.19205
-0.17881
-0.19205
-0.2649
-0.28477
-0.3245
-0.21854
-0.072848
0.019868
-0.0066225
-0.07947
-0.019868
0.10596
0.22517
0.23841
0.16556
-0.0066225
-0.07947
-0.07947
-0.046358
-0.072848
-0.13907
-0.23179
-0.34437
-0.34437
-0.18543
-0.039735
0.11921
0.10596
0.019868
-0.17881
-0.2649
-0.21192
-0.039735
0.066225
0.07947
0.05298
-0.072848
-0.059603
0.07947
0.2649
0.37748
0.44371
0.40397
0.30464
0.2053
0.21854
0.27152
0.21854
0.15232
-0.092715
-0.29139
-0.34437
-0.21192
0
0.11921
0.24503
0.29139
0.33113
0.3245
0.33113
0.25166
0.11258
-0.013245
-0.059603
-0.072848
0
0.059603
0.13907
0.18543
0.23841
0.2053
0.1457
0.092715
0.099338
0.099338
0.046358
0.033113
-0.046358
-0.22517
-0.37748
-0.44371
-0.41722
-0.28477
-0.17219
-0.17881
-0.23841
-0.2649
-0.13907
0
0.1457
0.25166
0.23841
0.07947
-0.066225
-0.086093
-0.059603
0.039735
0.11921
0.059603
-0.066225
-0.072848
-0.046358
0.0066225
0
0.02649
0.11921
0.23841
0.37086
0.45695
0.43709
0.37748
0.2649
0.2053
0.2053
0.29801
0.36424
0.34437
0.23841
0.12583
0.0066225
-0.099338
0.02649
0.19205
0.35099
0.39073
0.24503
0.046358
-0.16556
-0.22517
-0.18543
-0.05298
0.10596
0.28477
0.35762
0.37748
0.28477
0.10596
-0.15232
-0.37748
-0.42384
-0.31788
-0.11921
0.0066225
-0.066225
-0.24503
-0.35762
-0.38411
-0.39735
-0.31788
-0.15232
0.046358
0.18543
0.19868
0.13907
0.013245
-0.033113
0.046358
0.17881
0.23841
0.07947
-0.099338
-0.25166
-0.099338
0.19868
0.46358
0.45033
0.23179
-0.059603
-0.27815
-0.28477
-0.033113
0.24503
0.36424
0.29801
0.086093
-0.25166
-0.45695
-0.49007
-0.31788
-0.092715
0.092715
0.092715
-0.013245
-0.013245
0.17881
0.46358
0.61589
0.63576
0.50331
0.31788
0.28477
0.36424
0.4106
0.29801
0.066225
-0.21192
-0.38411
-0.27815
0
0.27152
0.34437
0.35099
0.27815
0.28477
0.37748
0.54967
0.5894
0.50331
0.38411
0.29139
0.41722
0.64901
0.83444
0.70199
0.39735
0.092715
-0.092715
-0.13245
-0.092715
0.013245
-0.019868
-0.059603
-0.13245
-0.16556
-0.24503
-0.1457
0.12583
0.39735
0.58278
0.53642
0.35099
0.19868
0.24503
0.43709
0.51656
0.4702
0.27152
0.013245
-0.10596
-0.05298
0.10596
0.1457
0.02649
-0.15232
-0.25828
-0.25166
-0.11921
-0.05298
-0.086093
-0.11921
-0.059603
0.019868
0.099338
0.23179
0.27815
0.2649
0.13907
0.0066225
-0.10596
-0.21192
-0.07947
-0.046358
-0.05298
-0.15232
-0.25828
-0.28477
-0.21854
-0.059603
0.066225
0.039735
-0.05298
-0.092715
-0.066225
0.059603
0.15232
0.15894
0.12583
0.033113
0.059603
-0.02649
-0.07947
-0.10596
-0.11258
-0.23841
-0.3245
-0.40397
-0.39073
-0.31126
-0.17881
-0.046358
0
-0.033113
-0.099338
-0.25828
-0.31788
-0.22517
0.0066225
0.19868
0.25166
0.17219
-0.033113
-0.16556
-0.2053
-0.092715
0.033113
0.18543
0.23179
0.30464
0.33775
0.37086
0.30464
0.16556
0.19205
0.31126
0.47682
0.56291
0.49669
0.25828
-0.092715
-0.34437
-0.4702
-0.4106
-0.22517
-0.046358
0.086093
0.19205
0.34437
0.35099
0.17219
-0.11258
-0.27815
-0.2649
0.05298
0.4702
0.71523
0.65563
0.34437
0.046358
-0.19205
-0.25828
-0.19205
-0.11921
-0.039735
-0.039735
0.0066225
0.033113
0.11921
0.099338
-0.019868
-0.27815
-0.41722
-0.43709
-0.29139
0.019868
0.33113
0.43709
0.28477
0.07947
-0.046358
-0.10596
-0.086093
-0.0066225
0.019868
-0.046358
-0.15894
-0.25828
-0.27152
-0.1457
-0.02649
0
-0.12583
-0.1457
-0.11921
0.13907
0.49007
0.80795
0.88079
0.71523
0.45033
0.25828
0.21192
0.24503
0.23841
0.033113
-0.28477
-0.47682
-0.53642
-0.30464
-0.013245
0.23179
0.15894
-0.086093
-0.21192
-0.17219
0.019868
0.27152
0.51656
0.56291
0.41722
0.22517
0.066225
-0.039735
-0.05298
0.02649
0.05298
0.05298
-0.013245
-0.066225
-0.099338
-0.039735
0.066225
-0.0066225
-0.046358
-0.13245
-0.039735
0.059603
0.21192
0.28477
0.12583
-0.046358
-0.17219
-0.18543
-0.12583
-0.019868
0.11258
0.10596
0.11921
0.15232
0.22517
0.23841
0.27815
0.25166
0.16556
0.059603
0.019868
0
-0.05298
-0.046358
-0.066225
-0.092715
-0.12583
-0.12583
-0.099338
-0.13245
-0.11258
-0.16556
-0.22517
-0.17881
-0.02649
0.086093
0.05298
0.02649
0.039735
0.13245
0.19205
0.11258
-0.039735
-0.12583
-0.066225
0.072848
0.11258
0.07947
-0.033113
-0.19868
-0.22517
-0.092715
0.11258
0.17881
0.039735
-0.17881
-0.4106
-0.37086
-0.17219
0.013245
0.039735
-0.099338
-0.22517
-0.28477
-0.16556
0.02649
0.11921
0.072848
-0.072848
-0.13245
-0.18543
-0.11258
-0.086093
-0.11258
-0.24503
-0.37748
-0.47682
-0.49007
-0.39073
-0.25166
-0.15894
-0.19868
-0.27152
-0.29139
-0.28477
-0.15894
-0.019868
0.059603
0.046358
0.066225
0.059603
0
-0.17881
-0.27152
-0.3245
-0.24503
-0.066225
0.086093
0.18543
0.25166
0.30464
0.34437
0.39073
0.51656
0.59603
0.5894
0.46358
0.27815
0.11921
0.059603
0.17881
0.24503
0.17881
-0.0066225
-0.17219
-0.2053
0.033113
0.41722
0.66887
0.61589
0.29139
0.033113
-0.086093
-0.0066225
0.11258
0.15232
-0.059603
-0.31788
-0.44371
-0.4106
-0.17881
0.02649
0.033113
-0.13907
-0.31126
-0.29801
-0.10596
0.21854
0.45033
0.4106
0.07947
-0.17219
-0.22517
-0.019868
0.17219
0.29801
0.25166
0.086093
-0.0066225
-0.033113
0.092715
0.21854
0.28477
0.22517
0.046358
0.0066225
-0.0066225
0.059603
0.059603
-0.02649
-0.10596
-0.1457
0.033113
0.24503
0.36424
0.33113
0.19868
0.0066225
-0.16556
-0.22517
-0.2649
-0.17881
-0.019868
0.10596
0.15232
0.15894
0.25828
0.37748
0.45695
0.4702
0.49007
0.33775
0.27815
0.25828
0.33775
0.38411
0.3245
0.15894
-0.05298
-0.1457
-0.0066225
0.19205
0.35762
0.4106
0.35099
0.15894
0.013245
-0.019868
0
-0.019868
-0.039735
-0.0066225
0.059603
0.17219
0.27152
0.34437
0.29139
0.25828
0.18543
0.15894
0.23179
0.36424
0.36424
0.21854
0.066225
0.0066225
0.099338
0.25828
0.38411
0.39735
0.2649
0.16556
0.059603
0.033113
0.099338
0.23179
0.35762
0.37086
0.40397
0.35099
0.29139
0.24503
0.25166
0.25828
0.19205
0.15232
0.07947
0.092715
0.17881
0.30464
0.38411
0.37086
0.35099
0.34437
0.3245
0.31126
0.31126
0.28477
0.25828
0.23179
0.25166
0.29801
0.36424
0.37086
0.18543
0.0066225
-0.02649
0.1457
0.36424
0.45033
0.35762
0.013245
-0.27152
-0.38411
-0.22517
0.02649
0.17219
0.092715
-0.24503
-0.56291
-0.66887
-0.50331
-0.17881
0.10596
0.17881
0.072848
0.019868
0.13907
0.25828
0.29139
0.24503
0.13907
-0.033113
-0.16556
-0.27152
-0.36424
-0.41722
-0.37086
-0.33113
-0.30464
-0.2649
-0.25166
-0.23179
-0.29139
-0.25166
-0.1457
-0.033113
-0.013245
-0.033113
-0.099338
-0.086093
0.13907
0.27815
0.25166
0.072848
-0.07947
-0.17881
-0.16556
-0.072848
-0.019868
-0.039735
-0.086093
-0.11258
-0.13245
-0.12583
-0.17881
-0.27815
-0.39735
-0.40397
-0.25166
-0.15232
-0.05298
-0.099338
-0.2053
-0.33113
-0.31788
-0.059603
0.15894
0.27815
0.15232
-0.046358
-0.23841
-0.27815
-0.15232
-0.046358
0.072848
0.15232
0.13907
0.059603
-0.0066225
-0.099338
-0.099338
0
0.15232
0.19205
0.072848
-0.059603
-0.17219
-0.25166
-0.22517
-0.13907
-0.059603
-0.10596
-0.092715
-0.13245
-0.092715
-0.039735
0.0066225
0.013245
-0.013245
0.05298
0.2053
0.3245
0.27152
0.033113
-0.22517
-0.31126
-0.07947
0.17219
0.25166
0.11258
-0.12583
-0.29139
-0.33775
-0.33113
-0.33775
-0.31126
-0.28477
-0.21192
-0.22517
-0.1457
0.10596
0.35762
0.51656
0.53642
0.41722
0.22517
0.033113
0
-0.019868
-0.05298
-0.17219
-0.35099
-0.56291
-0.53642
-0.2649
0.07947
0.2649
0.24503
0.099338
-0.086093
-0.099338
-0.013245
0.17881
0.27815
0.30464
0.21854
0.086093
0.019868
0.02649
0.033113
0.02649
0.072848
0.086093
0.072848
-0.0066225
-0.07947
-0.07947
-0.11921
-0.059603
-0.092715
-0.15232
-0.16556
-0.15232
-0.033113
0.11258
0.33113
0.37086
0.23841
-0.033113
-0.16556
-0.13907
-0.046358
0.11258
0.013245
-0.17219
-0.36424
-0.40397
-0.27815
-0.10596
0.086093
0.13245
0.086093
0.013245
0.07947
0.12583
0.23841
0.31788
0.29801
0.2053
0.15232
0.19205
0.19205
0.22517
0.25828
0.31126
0.27152
0.17219
0.086093
-0.013245
0.033113
0.15894
0.23841
0.2053
0.10596
0.07947
0.013245
0.046358
0.046358
-0.013245
-0.21854
-0.30464
-0.27152
-0.21192
-0.092715
-0.033113
