-0.22727
-0.15455
-0.1
0.0090909
0.027273
-0.063636
-0.24545
-0.4
-0.4
-0.49091
-0.46364
-0.43636
-0.43636
-0.46364
-0.46364
-0.36364
-0.25455
-0.16364
-0.17273
-0.2
-0.25455
-0.27273
-0.20909
-0.20909
-0.17273
-0.19091
-0.22727
-0.37273
-0.46364
-0.53636
-0.62727
-0.62727
-0.61818
-0.54545
-0.52727
-0.44545
-0.43636
-0.47273
-0.44545
-0.30909
-0.15455
-0.072727
0.0090909
-0.0090909
-0.027273
0.0090909
0.11818
0.21818
0.2
0.063636
-0.18182
-0.41818
-0.62727
-0.65455
-0.60909
-0.47273
-0.19091
-0.018182
-0.0090909
-0.054545
-0.17273
-0.34545
-0.48182
-0.50909
-0.43636
-0.28182
-0.090909
0.0090909
-0.0090909
0.1
0.19091
0.26364
0.23636
0.13636
0.12727
0.027273
0.027273
0.0090909
0.036364
-0.0090909
0.018182
0.036364
0.027273
0.090909
0.2
0.30909
0.38182
0.43636
0.44545
0.29091
0.11818
0.0090909
-0.054545
-0.17273
-0.2
-0.18182
-0.081818
0.16364
0.40909
0.52727
0.51818
0.5
0.39091
0.30909
0.21818
0.23636
0.30909
0.31818
0.36364
0.28182
0.16364
0.072727
0.10909
0.081818
0.054545
0.072727
0
-0.036364
0.0090909
0.2
0.40909
0.58182
0.61818
0.44545
0.24545
0.24545
0.036364
-0.054545
-0.081818
-0.0090909
0.081818
0.20909
0.26364
0.32727
0.34545
0.14545
-0.045455
-0.15455
-0.17273
-0.10909
-0.072727
-0.0090909
-0.027273
0.0090909
0.10909
0.19091
0.20909
0.22727
0.29091
0.25455
0.17273
0.072727
0.027273
-0.018182
0.063636
0.072727
0.054545
0.15455
0.21818
0.32727
0.25455
0.17273
0.054545
-0.063636
-0.081818
0.045455
0.14545
0.045455
0.036364
-0.072727
-0.12727
-0.14545
-0.15455
-0.19091
-0.20909
-0.090909
0
0.090909
0.19091
0.31818
0.24545
0.12727
0.0090909
-0.090909
-0.13636
-0.1
-0.018182
0.018182
0.027273
0
-0.1
-0.17273
-0.24545
-0.2
-0.17273
0.045455
0.29091
0.47273
0.55455
0.48182
0.34545
0.054545
-0.081818
-0.1
-0.054545
-0.036364
0
0.10909
0.11818
0.15455
0.16364
0.2
0.24545
0.32727
0.4
0.40909
0.38182
0.32727
0.15455
-0.045455
-0.045455
0.027273
0.10909
0.16364
0.23636
0.30909
0.25455
0.16364
-0.045455
-0.17273
-0.19091
-0.13636
-0.045455
-0.054545
-0.063636
-0.21818
-0.37273
-0.40909
-0.30909
-0.18182
-0.081818
-0.0090909
0.0090909
-0.018182
-0.072727
-0.036364
-0.054545
0.072727
0.26364
0.36364
0.35455
0.3
0.35455
0.35455
0.34545
0.3
0.17273
0.13636
0.20909
0.33636
0.37273
0.39091
0.46364
0.56364
0.62727
0.62727
0.64545
0.55455
0.47273
0.39091
0.27273
0.18182
0.2
0.32727
0.4
0.47273
0.42727
0.29091
0.090909
0
-0.018182
0.018182
0.1
0.15455
0.23636
0.22727
0.31818
0.37273
0.37273
0.4
0.47273
0.5
0.44545
0.43636
0.32727
0.32727
0.33636
0.47273
0.53636
0.46364
0.41818
0.28182
0.22727
0.25455
0.3
0.28182
0.16364
0.090909
0.018182
-0.054545
-0.1
-0.13636
-0.29091
-0.38182
-0.36364
-0.22727
0.018182
0.22727
0.46364
0.49091
0.50909
0.44545
0.42727
0.45455
0.46364
0.46364
0.3
0.16364
0.15455
0.15455
0.081818
-0.081818
-0.13636
-0.18182
-0.054545
0.1
0.21818
0.2
0.16364
0.10909
-0.054545
-0.072727
-0.11818
-0.045455
-0.045455
-0.045455
-0.072727
-0.1
-0.11818
-0.054545
-0.072727
-0.14545
-0.11818
-0.10909
-0.081818
-0.081818
-0.081818
-0.072727
-0.14545
-0.13636
-0.16364
-0.15455
-0.063636
0.063636
0.15455
0.21818
0.40909
0.46364
0.43636
0.30909
0.20909
0.10909
0.036364
0.063636
0.045455
0.081818
0.16364
0.33636
0.44545
0.53636
0.51818
0.44545
0.37273
0.32727
0.33636
0.29091
0.26364
0.28182
0.30909
0.32727
0.35455
0.38182
0.33636
0.39091
0.48182
0.55455
0.58182
0.57273
0.58182
0.52727
0.51818
0.55455
0.52727
0.44545
0.43636
0.4
0.36364
0.31818
0.27273
0.23636
0.14545
0.22727
0.19091
0.15455
0.1
0.090909
0.10909
0.027273
0.036364
0
0
0
-0.018182
-0.10909
-0.2
-0.22727
-0.21818
-0.23636
-0.23636
-0.15455
-0.036364
0.072727
0.2
0.2
0.11818
0.018182
0.0090909
-0.045455
-0.027273
0.036364
0.054545
0.072727
0.045455
0.054545
0.027273
0.027273
0.027273
0
-0.072727
-0.12727
-0.19091
-0.30909
-0.33636
-0.3
-0.26364
-0.29091
-0.31818
-0.3
-0.42727
-0.50909
-0.60909
-0.63636
-0.63636
-0.53636
-0.4
-0.32727
-0.3
-0.26364
-0.26364
-0.29091
-0.25455
-0.21818
-0.19091
-0.15455
-0.14545
-0.15455
-0.17273
-0.14545
-0.16364
-0.18182
-0.20909
-0.24545
-0.29091
-0.37273
-0.32727
-0.34545
-0.38182
-0.4
-0.32727
-0.21818
-0.19091
-0.10909
-0.13636
-0.11818
-0.054545
0.027273
0.090909
0.090909
0.1
0.036364
-0.081818
-0.14545
-0.1
-0.072727
-0.045455
-0.10909
-0.16364
-0.16364
-0.15455
-0.063636
-0.045455
-0.0090909
0.0090909
0
-0.072727
-0.19091
-0.25455
-0.37273
-0.40909
-0.36364
-0.26364
-0.32727
-0.38182
-0.49091
-0.59091
-0.54545
-0.4
-0.31818
-0.31818
-0.34545
-0.37273
-0.43636
-0.41818
-0.26364
-0.090909
-0.0090909
0
-0.1
-0.18182
-0.28182
-0.21818
-0.1
-0.027273
0.072727
-0.0090909
-0.19091
-0.35455
-0.40909
-0.40909
-0.47273
-0.47273
-0.50909
-0.48182
-0.4
-0.27273
-0.16364
-0.10909
-0.036364
-0.081818
-0.20909
-0.37273
-0.43636
-0.5
-0.46364
-0.35455
-0.23636
-0.21818
-0.18182
-0.090909
-0.11818
-0.081818
-0.045455
-0.090909
-0.2
-0.27273
-0.27273
-0.33636
-0.33636
-0.3
-0.24545
-0.18182
-0.21818
-0.22727
-0.35455
-0.39091
-0.33636
-0.19091
-0.1
-0.027273
-0.018182
-0.14545
-0.16364
-0.21818
-0.25455
-0.36364
-0.30909
-0.13636
0.045455
0.21818
0.31818
0.26364
0.090909
-0.054545
-0.23636
-0.34545
-0.31818
-0.11818
0.0090909
0.027273
0
-0.17273
-0.38182
-0.57273
-0.7
-0.70909
-0.63636
-0.37273
-0.045455
0.2
0.29091
0.30909
0.27273
0.25455
0.28182
0.21818
0.12727
0.063636
0.045455
-0.036364
-0.045455
0.036364
0.11818
0.18182
0.2
0.24545
0.20909
0.22727
0.3
0.36364
0.33636
0.27273
0.19091
0.027273
0
0.081818
0.26364
0.39091
0.47273
0.50909
0.40909
0.31818
0.22727
0.15455
0.063636
0.1
0.18182
0.24545
0.36364
0.42727
0.39091
0.22727
0.1
0.036364
-0.027273
0.0090909
0
0.054545
-0.036364
0.027273
0.11818
0.3
0.40909
0.41818
0.37273
0.24545
0.28182
0.24545
0.20909
0.14545
0.10909
0.045455
0.045455
0.13636
0.16364
0.11818
0.0090909
-0.072727
-0.16364
-0.18182
-0.081818
-0.018182
0.072727
0.14545
0.23636
0.18182
0.090909
-0.018182
-0.15455
-0.32727
-0.39091
-0.33636
-0.22727
-0.081818
0.045455
0.054545
0.0090909
-0.054545
-0.081818
-0.17273
-0.25455
-0.3
-0.30909
-0.29091
-0.26364
-0.2
-0.23636
-0.28182
-0.22727
-0.081818
0.1
0.36364
0.50909
0.51818
0.42727
0.27273
0.11818
-0.063636
-0.19091
-0.23636
-0.30909
-0.27273
-0.23636
-0.14545
-0.063636
0.2
0.38182
0.47273
0.43636
0.35455
0.27273
0.2
0.2
0.18182
0.15455
0.090909
0.0090909
-0.22727
-0.42727
-0.49091
-0.48182
-0.43636
-0.4
-0.4
-0.39091
-0.32727
-0.23636
-0.21818
-0.20909
-0.20909
-0.054545
0.072727
0.21818
0.33636
0.33636
0.26364
0.13636
-0.027273
-0.27273
-0.49091
-0.60909
-0.72727
-0.73636
-0.6
-0.4
-0.32727
-0.27273
-0.17273
-0.090909
-0.054545
-0.090909
-0.17273
-0.32727
-0.40909
-0.38182
-0.28182
-0.20909
-0.054545
0.081818
0.19091
0.33636
0.35455
0.3
0.17273
0.0090909
-0.16364
-0.39091
-0.55455
-0.55455
-0.48182
-0.45455
-0.33636
-0.30909
-0.16364
0.063636
0.35455
0.57273
0.66364
0.75455
0.68182
0.56364
0.38182
0.33636
0.29091
0.28182
0.28182
0.19091
0.13636
0.15455
0.18182
0.13636
0.081818
0.10909
0.12727
0.11818
0.018182
-0.054545
-0.15455
-0.090909
0.054545
0.19091
0.22727
0.23636
0.34545
0.42727
0.52727
0.56364
0.4
0.17273
0.0090909
-0.0090909
-0.027273
0.090909
0.20909
0.29091
0.26364
0.23636
0.17273
0.090909
0.045455
0.072727
0.13636
0.16364
0.27273
0.28182
0.26364
0.16364
0.10909
0.13636
0.18182
0.30909
0.28182
0.2
0.14545
0.21818
0.3
0.36364
0.47273
0.47273
0.4
0.30909
0.29091
0.3
0.32727
0.43636
0.44545
0.36364
0.23636
0.16364
0.081818
0.081818
0.13636
0.26364
0.31818
0.34545
0.4
0.41818
0.5
0.55455
0.6
0.58182
0.55455
0.5
0.28182
0.11818
0.063636
0.081818
0.12727
0.19091
0.18182
0.11818
0.090909
0.13636
0.23636
0.30909
0.4
0.45455
0.40909
0.36364
0.31818
0.29091
0.19091
0.12727
0.081818
0.027273
0.045455
0.054545
0.036364
-0.0090909
0.036364
0.072727
0.12727
0.15455
0.26364
0.32727
0.34545
0.42727
0.44545
0.49091
0.49091
0.46364
0.3
0.14545
0.11818
0.072727
0.0090909
-0.090909
-0.19091
-0.27273
-0.27273
-0.12727
-0.018182
0.027273
-0.054545
-0.054545
-0.027273
0.13636
0.35455
0.47273
0.53636
0.49091
0.4
0.23636
0.1
0.0090909
-0.045455
-0.10909
-0.14545
-0.14545
-0.19091
-0.21818
-0.17273
-0.14545
-0.15455
-0.13636
-0.090909
-0.20909
-0.28182
-0.33636
-0.34545
-0.34545
-0.3
-0.24545
-0.3
-0.4
-0.47273
-0.47273
-0.37273
-0.21818
-0.090909
-0.036364
-0.0090909
0.054545
0.072727
-0.018182
-0.054545
-0.18182
-0.27273
-0.36364
-0.35455
-0.46364
-0.54545
-0.46364
-0.33636
-0.13636
-0.018182
0.036364
0.027273
-0.045455
-0.0090909
-0.054545
-0.036364
-0.081818
-0.072727
-0.14545
-0.18182
-0.10909
-0.036364
0.036364
0.081818
0.13636
0.090909
0
-0.072727
-0.12727
-0.15455
-0.12727
-0.045455
0.027273
0.16364
0.21818
0.2
0.054545
-0.090909
-0.20909
-0.36364
-0.34545
-0.25455
-0.17273
-0.090909
0.0090909
0.090909
0.063636
0.027273
0.0090909
0.036364
0
0.054545
0.036364
0.018182
-0.063636
-0.10909
-0.10909
-0.20909
-0.29091
-0.43636
-0.58182
-0.64545
-0.63636
-0.53636
-0.47273
-0.26364
-0.18182
-0.12727
-0.063636
0.018182
0.045455
-0.018182
-0.036364
-0.063636
-0.072727
-0.13636
-0.26364
-0.50909
-0.77273
-0.86364
-0.78182
-0.56364
-0.25455
0.027273
0.1
0.072727
-0.018182
-0.081818
-0.15455
-0.10909
0.018182
0.072727
0.17273
0.23636
0.26364
0.3
0.33636
0.43636
0.35455
0.22727
0.018182
-0.21818
-0.46364
-0.57273
-0.59091
-0.50909
-0.27273
-0.10909
-0.0090909
-0.036364
-0.063636
-0.20909
-0.43636
-0.61818
-0.64545
-0.58182
-0.49091
-0.32727
-0.21818
-0.19091
-0.15455
-0.12727
-0.12727
-0.22727
-0.3
-0.41818
-0.51818
-0.54545
-0.5
-0.43636
-0.30909
-0.072727
0.090909
0.12727
0.027273
-0.2
-0.53636
-0.87273
-1
-0.94545
-0.74545
-0.5
-0.35455
-0.39091
-0.52727
-0.7
-0.81818
-0.89091
-0.89091
-0.74545
-0.59091
-0.39091
-0.22727
-0.12727
-0.081818
-0.027273
0.054545
-0.0090909
-0.036364
-0.045455
-0.12727
-0.21818
-0.3
-0.30909
-0.32727
-0.20909
-0.036364
0.090909
0.14545
0.18182
0.18182
0.11818
0.036364
-0.036364
-0.027273
-0.018182
0.072727
0.14545
0.18182
0.25455
0.34545
0.34545
0.15455
0.027273
-0.090909
-0.10909
-0.054545
0.090909
0.24545
0.35455
0.50909
0.54545
0.51818
0.49091
0.46364
0.35455
0.16364
0.10909
0.027273
0.045455
0.063636
0.18182
0.22727
0.25455
0.29091
0.26364
0.18182
0.1
0.063636
0.0090909
-0.054545
-0.063636
-0.063636
-0.0090909
0.081818
0.25455
0.4
0.51818
0.54545
0.43636
0.25455
0.10909
0.081818
0.018182
0.090909
0.21818
0.28182
0.30909
0.31818
0.36364
0.27273
0.21818
0.15455
0.081818
0.0090909
-0.0090909
0
0
0.054545
0.16364
0.27273
0.20909
0.13636
-0.027273
-0.17273
-0.23636
-0.16364
-0.018182
0.090909
0.27273
0.36364
0.45455
0.40909
0.35455
0.20909
0.054545
0.018182
-0.045455
-0.036364
-0.036364
0.027273
0.027273
-0.0090909
-0.045455
-0.15455
-0.18182
-0.20909
-0.12727
-0.13636
-0.13636
-0.11818
-0.1
-0.063636
0.063636
0.18182
0.18182
0.18182
0.23636
0.24545
0.2
0.14545
0.090909
-0.045455
-0.090909
-0.1
0.036364
0.13636
0.26364
0.37273
0.34545
0.3
0.20909
0.11818
-0.036364
-0.081818
-0.054545
-0.027273
0.081818
0.20909
0.28182
0.26364
0.17273
0.036364
-0.1
-0.22727
-0.16364
-0.018182
0.2
0.44545
0.45455
0.29091
0.063636
-0.054545
-0.054545
-0.1
-0.036364
-0.081818
-0.16364
-0.26364
-0.31818
-0.41818
-0.50909
-0.53636
-0.49091
-0.38182
-0.29091
-0.22727
-0.21818
-0.23636
-0.15455
-0.11818
-0.15455
-0.10909
-0.0090909
0.12727
0.28182
0.41818
0.37273
0.21818
0.054545
-0.036364
-0.090909
-0.1
-0.081818
-0.0090909
0.1
0.23636
0.38182
0.37273
0.40909
0.34545
0.20909
-0.072727
-0.30909
-0.35455
-0.31818
-0.19091
-0.1
-0.018182
0.036364
0.16364
0.23636
0.2
0.090909
0.072727
0.045455
-0.027273
-0.018182
-0.081818
-0.13636
-0.063636
0.10909
0.21818
0.27273
0.23636
0.10909
-0.027273
-0.20909
-0.29091
-0.33636
-0.4
-0.3
-0.28182
-0.23636
-0.25455
-0.21818
-0.20909
-0.2
-0.12727
-0.072727
-0.018182
0.090909
0.20909
0.22727
0.18182
0.11818
0.0090909
-0.1
-0.15455
-0.072727
-0.0090909
0.1
0.063636
-0.054545
-0.28182
-0.53636
-0.65455
-0.7
-0.58182
-0.41818
-0.28182
-0.22727
-0.15455
-0.054545
-0.081818
-0.018182
0.072727
0.11818
0.1
0.081818
0.090909
0.036364
0.0090909
-0.045455
-0.090909
-0.13636
-0.081818
0.036364
0.14545
0.24545
0.3
0.25455
0.054545
0
-0.10909
-0.11818
-0.10909
0
0.063636
0.13636
0.30909
0.42727
0.54545
0.60909
0.66364
0.6
0.44545
0.36364
0.29091
0.28182
0.31818
0.34545
0.29091
0.21818
0.15455
0.10909
0.16364
0.28182
0.44545
0.50909
0.62727
0.78182
0.87273
0.79091
0.57273
0.35455
0.045455
-0.15455
-0.36364
-0.53636
-0.70909
-0.72727
-0.57273
-0.37273
-0.090909
0.15455
0.30909
0.39091
0.53636
0.65455
0.66364
0.54545
0.43636
0.17273
-0.19091
-0.52727
-0.77273
-0.80909
-0.64545
-0.33636
0.027273
0.38182
0.77273
0.98182
0.97273
0.76364
0.46364
0.19091
-0.054545
-0.072727
-0.081818
-0.072727
-0.081818
-0.045455
0.0090909
0.10909
0.25455
0.22727
0.12727
0.036364
0.072727
0.13636
0.18182
0.24545
0.090909
-0.11818
-0.32727
-0.29091
-0.13636
0.036364
0.17273
0.063636
-0.12727
-0.31818
-0.23636
-0.14545
0.10909
0.3
0.34545
0.27273
0.17273
0.11818
-0.054545
-0.20909
-0.36364
-0.44545
-0.50909
-0.43636
-0.36364
-0.31818
-0.35455
-0.36364
-0.3
-0.2
-0.081818
-0.027273
-0.045455
-0.063636
-0.072727
-0.054545
-0.13636
-0.11818
-0.19091
-0.25455
-0.28182
-0.24545
-0.090909
-0.045455
0.036364
-0.045455
-0.20909
-0.30909
-0.29091
-0.2
-0.10909
0.027273
0.027273
-0.10909
-0.34545
-0.47273
-0.52727
-0.45455
-0.30909
-0.25455
-0.20909
-0.13636
0.027273
0.054545
0.0090909
-0.036364
-0.18182
-0.33636
-0.43636
-0.38182
-0.31818
-0.21818
-0.19091
-0.21818
-0.29091
-0.26364
-0.20909
-0.18182
-0.14545
-0.054545
0.018182
0.027273
-0.0090909
-0.063636
-0.18182
-0.22727
-0.25455
-0.30909
-0.43636
-0.54545
-0.63636
-0.83636
-0.97273
-0.97273
-0.76364
-0.50909
-0.25455
-0.11818
-0.1
-0.090909
-0.072727
0
0.081818
0.21818
0.16364
-0.063636
-0.46364
-0.73636
-0.80909
-0.73636
-0.45455
-0.28182
-0.22727
-0.23636
-0.16364
-0.072727
0.018182
0.16364
0.21818
0.23636
0.29091
0.37273
0.40909
0.38182
0.32727
0.20909
0.13636
0.18182
0.33636
0.36364
0.3
0.19091
0.063636
0.036364
0.2
0.42727
0.5
0.45455
0.32727
0.14545
-0.027273
-0.14545
-0.17273
-0.21818
-0.24545
-0.18182
-0.10909
-0.018182
0.081818
0.17273
0.17273
0.18182
0.19091
0.12727
0.072727
0.13636
0.27273
0.32727
0.32727
0.22727
0.12727
0.018182
-0.0090909
-0.081818
-0.14545
-0.15455
-0.11818
-0.11818
-0.054545
0.018182
0.036364
0.0090909
0.0090909
0.063636
0.054545
0.018182
0.0090909
-0.045455
-0.036364
-0.018182
0.090909
0.17273
0.21818
0.3
0.31818
0.3
0.30909
0.28182
0.14545
-0.054545
-0.26364
-0.49091
-0.64545
-0.7
-0.56364
-0.4
-0.13636
0.10909
0.11818
-0.12727
-0.40909
-0.55455
-0.65455
-0.58182
-0.41818
-0.19091
0
0.16364
0.27273
0.21818
0.17273
0.10909
-0.018182
-0.18182
-0.28182
-0.25455
-0.22727
-0.054545
0.1
0.19091
0.13636
0.036364
-0.045455
-0.054545
0.072727
0.27273
0.35455
0.25455
0.15455
0.090909
0.10909
0.18182
0.22727
0.18182
0.027273
-0.018182
-0.036364
-0.081818
-0.090909
-0.13636
-0.14545
-0.16364
0
0.11818
0.21818
0.17273
0.1
-0.027273
0.0090909
0.22727
0.44545
0.54545
0.50909
0.48182
0.36364
0.29091
0.18182
0.1
0.018182
-0.018182
-0.0090909
-0.063636
-0.054545
0
0.1
0.23636
0.41818
0.6
0.59091
0.51818
0.39091
0.3
0.21818
0.17273
0.16364
0.054545
-0.036364
-0.11818
-0.21818
-0.35455
-0.35455
-0.29091
-0.17273
-0.027273
0.018182
0.0090909
-0.10909
-0.2
-0.32727
-0.40909
-0.36364
-0.20909
-0.090909
-0.072727
-0.054545
-0.16364
-0.23636
-0.23636
-0.2
-0.12727
-0.11818
-0.063636
-0.1
-0.20909
-0.32727
-0.34545
-0.34545
-0.3
-0.18182
-0.18182
-0.27273
-0.37273
-0.39091
-0.4
-0.35455
-0.24545
-0.18182
-0.15455
-0.14545
-0.072727
-0.1
-0.045455
0.072727
0.18182
0.28182
0.29091
0.29091
0.13636
0
-0.1
-0.10909
-0.090909
-0.054545
0.027273
-0.018182
0.054545
0.090909
0.10909
0.1
0.063636
0.036364
-0.081818
-0.15455
-0.17273
-0.12727
-0.16364
-0.1
-0.0090909
0.090909
0.24545
0.4
0.4
0.22727
0.072727
-0.1
-0.16364
-0.14545
-0.036364
0.16364
0.25455
0.35455
0.33636
0.27273
0.27273
0.31818
0.33636
0.3
0.28182
0.22727
0.17273
0.13636
0.12727
0.045455
-0.018182
0.027273
0.063636
0.12727
0.12727
0.12727
0.054545
0.027273
0.036364
0.018182
-0.036364
-0.027273
0.081818
0.072727
-0.018182
-0.18182
-0.24545
-0.16364
0.027273
0.2
0.19091
0.20909
0.27273
0.35455
0.31818
0.25455
0.25455
0.20909
0.20909
0.22727
0.25455
0.2
0.15455
0.1
0.063636
0.13636
0.21818
0.22727
0.11818
0.054545
-0.054545
-0.13636
-0.20909
-0.23636
-0.23636
-0.35455
-0.36364
-0.46364
-0.50909
-0.5
-0.45455
-0.42727
-0.40909
-0.3
-0.28182
-0.22727
-0.21818
-0.12727
-0.018182
0.018182
0.0090909
-0.072727
-0.19091
-0.22727
-0.19091
-0.22727
-0.24545
-0.2
-0.13636
-0.13636
-0.19091
-0.26364
-0.40909
-0.52727
-0.57273
-0.63636
-0.68182
-0.7
-0.63636
-0.52727
-0.24545
0.10909
0.40909
0.50909
0.46364
0.30909
0.081818
-0.027273
-0.018182
0.10909
0.26364
0.4
0.4
0.21818
0.1
0.063636
0.11818
0.081818
0.045455
-0.018182
-0.1
-0.090909
-0.045455
0.045455
0.10909
0.20909
0.29091
0.37273
0.59091
0.86364
1
0.83636
0.51818
0.11818
-0.10909
-0.19091
-0.090909
-0.090909
-0.072727
-0.045455
-0.018182
-0.027273
-0.054545
-0.0090909
0.10909
0.16364
0.29091
0.33636
0.34545
0.38182
0.40909
0.39091
0.41818
0.52727
0.53636
0.47273
0.33636
0.24545
0.10909
0.10909
0.16364
0.27273
0.25455
0.22727
0.20909
0.18182
0.24545
0.38182
0.54545
0.69091
0.75455
0.69091
0.4
0.072727
-0.21818
-0.35455
-0.40909
-0.36364
-0.21818
-0.072727
0.13636
0.3
0.38182
0.31818
0.32727
0.32727
0.31818
0.32727
0.29091
0.26364
0.20909
0.3
0.33636
0.30909
0.22727
0.20909
0.20909
0.2
0.28182
0.20909
0.11818
0.036364
-0.0090909
-0.090909
-0.23636
-0.31818
-0.45455
-0.53636
-0.61818
-0.56364
-0.52727
-0.47273
-0.43636
-0.40909
-0.34545
-0.27273
-0.10909
-0.090909
-0.11818
-0.17273
-0.29091
-0.40909
-0.47273
-0.47273
-0.44545
-0.34545
-0.17273
0.018182
0.17273
0.24545
0.26364
0.16364
0.081818
0.072727
0.13636
0.13636
0.14545
0.081818
-0.054545
-0.17273
-0.25455
-0.34545
-0.36364
-0.29091
-0.21818
-0.17273
-0.081818
0.036364
0.19091
0.22727
0.21818
0.16364
0.10909
0.12727
0.16364
0.13636
0.063636
0.063636
0.072727
0.1
0.12727
0.18182
0.30909
0.42727
0.55455
0.50909
0.41818
0.36364
0.36364
0.39091
0.35455
0.30909
0.22727
0.16364
0.23636
0.31818
0.29091
0.19091
0.090909
0.036364
0.072727
0.16364
0.36364
0.39091
0.36364
0.35455
0.30909
0.30909
0.29091
0.24545
0.081818
0.027273
0.054545
0.1
0.12727
0.20909
0.36364
0.4
0.45455
0.48182
0.45455
0.38182
0.38182
0.43636
0.46364
0.48182
0.41818
0.27273
0.090909
0.090909
0.14545
0.25455
0.34545
0.46364
0.54545
0.57273
0.63636
0.58182
0.49091
0.37273
0.35455
0.36364
0.32727
0.31818
0.22727
0.081818
0
-0.036364
-0.14545
-0.14545
-0.027273
0.1
0.19091
0.2
0.21818
0.18182
0.19091
0.23636
0.25455
0.23636
0.2
0.12727
0.018182
-0.054545
-0.13636
-0.23636
-0.20909
-0.11818
0.090909
0.12727
0.12727
0.072727
-0.036364
-0.17273
-0.30909
-0.33636
-0.42727
-0.44545
-0.42727
-0.36364
-0.36364
-0.4
-0.47273
-0.55455
-0.55455
-0.58182
-0.61818
-0.66364
-0.56364
-0.4
-0.26364
-0.11818
0.045455
0.22727
0.31818
0.39091
0.30909
0.20909
0.15455
0.13636
0.11818
0
-0.072727
-0.21818
-0.32727
-0.36364
-0.32727
-0.19091
-0.15455
-0.063636
-0.12727
-0.26364
-0.35455
-0.31818
-0.25455
-0.10909
0.036364
0.027273
-0.054545
-0.26364
-0.4
-0.55455
-0.61818
-0.56364
-0.46364
-0.27273
-0.17273
-0.081818
-0.15455
-0.16364
-0.11818
-0.018182
0.045455
0.063636
0.13636
0.11818
0.1
0.054545
-0.054545
-0.15455
-0.14545
-0.045455
-0.054545
-0.090909
-0.14545
-0.12727
-0.1
-0.0090909
0.027273
0.018182
-0.018182
-0.072727
-0.13636
-0.3
-0.29091
-0.29091
-0.2
-0.10909
-0.090909
-0.13636
-0.30909
-0.38182
-0.38182
-0.27273
-0.13636
-0.036364
-0.1
-0.36364
-0.5
-0.60909
-0.52727
-0.4
-0.20909
-0.12727
-0.10909
-0.054545
-0.054545
-0.045455
-0.045455
0.0090909
0.027273
0.027273
-0.036364
-0.13636
-0.26364
-0.30909
-0.20909
-0.20909
-0.2
-0.2
-0.22727
-0.27273
-0.35455
-0.33636
-0.31818
-0.17273
-0.063636
-0.081818
-0.12727
-0.18182
-0.14545
-0.16364
-0.18182
-0.14545
-0.15455
-0.22727
-0.27273
-0.29091
-0.32727
-0.34545
-0.31818
-0.24545
-0.19091
-0.054545
-0.018182
-0.072727
-0.10909
-0.13636
-0.1
-0.2
-0.21818
-0.28182
-0.32727
-0.25455
-0.090909
0.17273
0.33636
0.49091
0.41818
0.14545
-0.20909
-0.49091
-0.58182
-0.52727
-0.3
-0.11818
-0.018182
0.054545
0.14545
0.12727
0.12727
0.11818
0.018182
-0.1
-0.20909
-0.17273
-0.14545
-0.072727
0.027273
0.081818
0.054545
0.018182
0.036364
0.027273
0.1
0.14545
0.14545
0.072727
0
-0.0090909
-0.090909
-0.1
-0.063636
-0.063636
-0.11818
-0.21818
-0.3
-0.34545
-0.24545
-0.045455
0.17273
0.23636
0.26364
0.29091
0.25455
0.21818
0.25455
0.28182
0.31818
0.36364
0.29091
0.17273
0.10909
0.063636
0.13636
0.19091
0.3
0.22727
0.072727
-0.063636
-0.15455
-0.18182
-0.24545
-0.19091
-0.11818
0.018182
0.22727
0.47273
0.081818
0.081818
0
0.072727
0.081818
0.1
0.14545
0.19091
0.20909
0.20909
0.32727
0.36364
0.39091
0.3
0.1
-0.1
-0.20909
-0.081818
-0.081818
-0.027273
-0.072727
-0.13636
-0.3
-0.41818
-0.41818
-0.33636
-0.13636
0.018182
0.072727
0.018182
-0.0090909
-0.036364
-0.090909
-0.1
-0.045455
-0.027273
-0.072727
-0.072727
-0.14545
-0.20909
-0.20909
-0.12727
-0.036364
-0.0090909
0.018182
-0.072727
-0.17273
-0.3
-0.34545
-0.37273
-0.3
-0.12727
-0.090909
-0.13636
-0.18182
-0.2
-0.24545
-0.31818
-0.33636
-0.4
-0.40909
-0.35455
-0.25455
-0.21818
-0.14545
-0.045455
0.018182
0
-0.018182
-0.036364
-0.0090909
0.054545
0.2
0.33636
0.42727
0.46364
0.4
0.17273
0.027273
-0.054545
-0.090909
-0.1
-0.072727
0.027273
-0.063636
-0.0090909
0.13636
0.33636
0.48182
0.51818
0.45455
0.35455
0.3
0.22727
0.10909
-0.11818
-0.23636
-0.32727
-0.36364
-0.32727
-0.1
0.13636
0.35455
0.54545
0.66364
0.65455
0.56364
0.43636
0.3
0.2
0.23636
0.2
0.23636
0.29091
0.34545
0.35455
0.29091
0.3
0.24545
0.15455
0.15455
0.25455
0.34545
0.36364
0.33636
0.20909
0.036364
-0.10909
-0.14545
-0.12727
0.018182
0.19091
0.28182
0.31818
0.35455
0.4
0.39091
0.5
0.59091
0.6
0.49091
0.3
0.16364
-0.045455
-0.13636
-0.17273
-0.15455
-0.11818
-0.072727
0.018182
0.036364
0.090909
0.18182
0.22727
0.25455
0.27273
0.26364
0.15455
0.15455
0.31818
0.53636
0.74545
0.88182
0.84545
0.69091
0.48182
0.39091
0.3
0.16364
0.081818
-0.018182
-0.054545
-0.027273
0.072727
0.18182
0.22727
0.30909
0.30909
0.31818
0.31818
0.28182
0.26364
0.22727
0.23636
0.10909
-0.045455
-0.20909
-0.22727
-0.28182
-0.2
-0.10909
-0.018182
-0.036364
-0.081818
-0.045455
-0.036364
0.045455
0.072727
0.16364
0.2
0.17273
0.081818
-0.090909
-0.15455
-0.11818
-0.036364
0.045455
0.15455
0.21818
0.16364
0.063636
0.027273
0.027273
0.027273
-0.018182
-0.1
-0.23636
-0.25455
-0.15455
-0.072727
-0.063636
0
0
-0.018182
-0.036364
0
0.10909
0.13636
0.14545
0.0090909
-0.2
-0.36364
-0.33636
-0.22727
-0.16364
-0.063636
-0.090909
-0.045455
0.072727
0.28182
0.40909
0.40909
0.34545
0.23636
0.15455
0.090909
0.036364
-0.063636
-0.072727
0.018182
0.090909
0.1
0.081818
0.14545
0.12727
0.14545
0.21818
0.29091
0.41818
0.45455
0.48182
0.36364
0.27273
0.21818
0.21818
0.19091
0.12727
0.063636
-0.063636
-0.018182
0.045455
0.15455
0.18182
0.22727
0.22727
0.1
0.11818
0.23636
0.43636
0.50909
0.52727
0.42727
0.31818
0.25455
0.26364
0.32727
0.30909
0.29091
0.14545
-0.054545
-0.16364
-0.18182
-0.11818
-0.063636
0.054545
0.15455
0.19091
0.23636
0.32727
0.40909
0.36364
0.31818
0.15455
-0.036364
-0.090909
-0.045455
-0.027273
-0.0090909
0
-0.036364
-0.15455
-0.21818
-0.29091
-0.33636
-0.25455
-0.15455
-0.10909
-0.11818
-0.19091
-0.23636
-0.29091
-0.28182
-0.25455
-0.22727
-0.28182
-0.34545
-0.34545
-0.40909
-0.37273
-0.30909
-0.31818
-0.39091
-0.46364
-0.4
-0.44545
-0.45455
-0.50909
-0.58182
-0.60909
-0.51818
-0.36364
-0.21818
-0.036364
0.11818
0.2
0.090909
0.027273
-0.081818
-0.15455
-0.20909
-0.18182
-0.19091
-0.21818
-0.090909
0.027273
0.11818
0.17273
0.17273
0.11818
-0.027273
-0.15455
-0.31818
-0.43636
-0.42727
-0.33636
-0.26364
-0.22727
-0.15455
-0.20909
-0.29091
-0.33636
-0.28182
-0.17273
-0.081818
0.0090909
-0.027273
-0.063636
-0.1
-0.027273
0.0090909
0.1
0.21818
0.3
0.3
0.20909
0.090909
-0.11818
-0.24545
-0.23636
-0.16364
-0.1
0.0090909
0.13636
0.1
0.090909
0
-0.11818
-0.31818
-0.4
-0.40909
-0.40909
-0.35455
-0.21818
-0.090909
-0.054545
-0.036364
-0.018182
-0.027273
-0.045455
-0.15455
-0.3
-0.47273
-0.57273
-0.59091
-0.51818
-0.41818
-0.30909
-0.30909
-0.32727
-0.3
-0.30909
-0.33636
-0.21818
-0.036364
0.12727
0.11818
0.10909
-0.036364
-0.17273
-0.34545
-0.5
-0.64545
-0.72727
-0.67273
-0.60909
-0.50909
-0.36364
-0.20909
-0.18182
-0.19091
-0.25455
-0.26364
-0.32727
-0.31818
-0.3
-0.30909
-0.29091
-0.29091
-0.27273
-0.36364
-0.4
-0.44545
-0.57273
-0.64545
-0.70909
-0.71818
-0.67273
-0.54545
-0.40909
-0.36364
-0.24545
-0.14545
-0.063636
-0.10909
-0.13636
-0.15455
-0.15455
-0.16364
-0.16364
-0.16364
-0.24545
-0.27273
-0.29091
-0.27273
-0.11818
0.090909
0.24545
0.27273
0.27273
0.16364
0.072727
0.0090909
-0.018182
-0.081818
-0.15455
-0.072727
-0.018182
0.027273
0.045455
0.045455
-0.0090909
-0.10909
-0.16364
-0.28182
-0.3
-0.24545
-0.054545
0.027273
0.10909
0.2
0.25455
0.25455
0.28182
0.40909
0.49091
0.60909
0.61818
0.54545
0.37273
0.21818
0.15455
0.063636
0.12727
0.22727
0.37273
0.42727
0.40909
0.4
0.25455
0.17273
0.081818
0.027273
-0.081818
-0.081818
-0.054545
-0.12727
-0.16364
-0.12727
-0.054545
-0.072727
-0.072727
-0.045455
0.045455
0.19091
0.37273
0.48182
0.52727
0.50909
0.35455
0.14545
-0.018182
-0.063636
-0.036364
0
0.12727
0.17273
0.20909
0.20909
0.24545
0.21818
0.15455
0.19091
0.21818
0.20909
0.19091
0.22727
0.20909
0.17273
0.12727
0.054545
0.018182
0
0.018182
0.0090909
0.1
0.28182
0.42727
0.49091
0.52727
0.56364
0.49091
0.47273
0.44545
0.4
0.31818
0.24545
0.24545
0.23636
0.3
0.32727
0.30909
0.17273
0
-0.1
-0.27273
-0.35455
-0.39091
-0.37273
-0.32727
-0.21818
-0.12727
-0.072727
-0.081818
-0.12727
-0.063636
-0.054545
0.1
0.21818
0.19091
0.072727
-0.018182
-0.11818
-0.14545
-0.081818
-0.081818
-0.054545
-0.18182
-0.3
-0.42727
-0.47273
-0.29091
-0.054545
0.14545
0.27273
0.33636
0.20909
0.018182
-0.081818
-0.22727
-0.35455
-0.45455
-0.4
-0.36364
-0.32727
-0.26364
-0.26364
-0.15455
-0.045455
0.15455
0.22727
0.3
0.36364
0.31818
0.30909
0.30909
0.40909
0.49091
0.55455
0.5
0.40909
0.29091
0.23636
0.27273
0.2
0.11818
0.018182
-0.1
-0.19091
-0.17273
-0.054545
-0.0090909
0.1
0.15455
0.22727
0.19091
0.23636
0.19091
0.12727
-0.063636
-0.018182
0.018182
0.14545
0.24545
0.19091
0.063636
-0.018182
-0.063636
-0.1
-0.2
-0.23636
-0.20909
-0.090909
0.045455
0.2
0.26364
0.20909
0.15455
0.0090909
-0.072727
-0.072727
0.0090909
0.027273
-0.054545
-0.090909
-0.13636
-0.081818
0.036364
0.30909
0.45455
0.52727
0.41818
0.21818
0.027273
-0.081818
-0.081818
-0.090909
-0.054545
0.072727
0.21818
0.27273
0.31818
0.34545
0.28182
0.28182
0.30909
0.31818
0.3
0.31818
0.33636
0.34545
0.41818
0.47273
0.54545
0.51818
0.5
0.46364
0.36364
0.35455
0.39091
0.43636
0.36364
0.23636
0.054545
-0.19091
-0.30909
-0.3
-0.20909
-0.13636
-0.036364
-0.045455
-0.090909
-0.10909
-0.054545
0.063636
0.12727
0.23636
0.27273
0.25455
0.23636
0.2
0.054545
-0.11818
-0.24545
-0.3
-0.3
-0.29091
-0.26364
-0.25455
-0.30909
-0.32727
-0.32727
-0.21818
-0.027273
0.14545
0.19091
0.2
0.22727
0.19091
0.15455
0.11818
0.16364
0.12727
0.18182
0.17273
0.10909
-0.027273
-0.17273
-0.22727
-0.25455
-0.13636
0.072727
0.28182
0.39091
0.38182
0.30909
0.12727
0
-0.11818
-0.18182
-0.24545
-0.19091
-0.11818
-0.054545
0.036364
0.13636
0.21818
0.2
0.2
0.15455
0.018182
-0.036364
-0.036364
0
-0.027273
-0.063636
-0.11818
-0.17273
-0.10909
0.054545
0.16364
0.22727
0.28182
0.28182
0.21818
0.14545
0.072727
-0.081818
-0.20909
-0.18182
-0.14545
-0.12727
-0.054545
0.1
0.15455
0.13636
0.10909
0
-0.15455
-0.23636
-0.3
-0.27273
-0.15455
0.027273
0.072727
-0.018182
-0.12727
-0.15455
-0.1
0.063636
0.27273
0.45455
0.51818
0.51818
0.4
0.20909
0.036364
-0.045455
-0.036364
-0.036364
-0.072727
-0.1
-0.21818
-0.21818
-0.2
-0.20909
-0.19091
-0.10909
0
0.081818
0.15455
0.16364
0.14545
-0.045455
-0.16364
-0.39091
-0.55455
-0.66364
-0.62727
-0.57273
-0.45455
-0.30909
-0.20909
-0.14545
-0.11818
-0.14545
-0.3
-0.43636
-0.40909
-0.34545
-0.27273
-0.22727
-0.22727
-0.3
-0.47273
-0.59091
-0.70909
-0.74545
-0.69091
-0.52727
-0.42727
-0.26364
-0.17273
-0.12727
-0.2
-0.30909
-0.34545
-0.41818
-0.41818
-0.29091
-0.19091
-0.14545
-0.15455
-0.15455
-0.19091
-0.16364
-0.045455
0.045455
0.027273
-0.054545
-0.21818
-0.42727
-0.57273
-0.57273
-0.50909
-0.43636
-0.32727
-0.30909
-0.38182
-0.37273
-0.2
0.072727
0.29091
0.44545
0.41818
0.24545
0.018182
-0.063636
-0.15455
-0.2
-0.13636
-0.16364
-0.12727
-0.072727
-0.090909
-0.22727
-0.47273
-0.56364
-0.53636
-0.34545
-0.15455
0.072727
0.16364
0.16364
0.12727
0.0090909
-0.090909
-0.12727
0.018182
0.17273
0.35455
0.48182
0.45455
0.32727
0.14545
0.036364
-0.090909
-0.081818
-0.018182
0.072727
0.1
0.090909
0.12727
0.054545
0.054545
0.072727
0.10909
0.072727
0.054545
0.11818
0.18182
0.30909
0.42727
0.40909
0.21818
0
-0.20909
-0.35455
-0.36364
-0.28182
-0.11818
-0.054545
0
0.018182
0
0.10909
0.21818
0.24545
0.20909
0.15455
0.072727
0.045455
0.045455
0.13636
0.23636
0.16364
0.12727
0.0090909
-0.063636
-0.10909
-0.11818
-0.14545
-0.21818
-0.23636
-0.33636
-0.39091
-0.36364
-0.2
-0.081818
0.027273
0.018182
0
-0.1
-0.25455
-0.32727
-0.47273
-0.53636
-0.53636
-0.50909
-0.41818
-0.23636
-0.054545
-0.081818
-0.11818
-0.24545
-0.33636
-0.4
-0.40909
-0.30909
-0.32727
-0.25455
-0.17273
-0.081818
-0.018182
-0.0090909
-0.0090909
-0.054545
-0.0090909
0.045455
0.054545
-0.054545
-0.15455
-0.21818
-0.32727
-0.28182
-0.16364
-0.045455
0
0.018182
0.054545
0.081818
0.21818
0.30909
0.32727
0.29091
0.33636
0.39091
0.44545
0.45455
0.41818
0.27273
0.14545
0.14545
0.090909
0.036364
0
-0.054545
-0.072727
-0.063636
-0.027273
-0.045455
-0.2
-0.29091
-0.22727
-0.12727
0.018182
0.16364
0.19091
0.14545
0.045455
0.0090909
0
0.063636
0.2
0.28182
0.3
0.26364
0.26364
0.20909
0.2
0.18182
0.20909
0.27273
0.34545
0.37273
0.17273
0.027273
-0.081818
-0.090909
-0.16364
-0.25455
-0.26364
-0.30909
-0.2
-0.027273
0.15455
0.35455
0.52727
0.6
0.57273
0.51818
0.51818
0.51818
0.43636
0.4
0.28182
0.18182
0.1
0.045455
0.018182
-0.027273
0
-0.018182
-0.027273
0
0.12727
0.29091
0.39091
0.56364
0.63636
0.67273
0.60909
0.53636
0.31818
0.036364
-0.21818
-0.43636
-0.5
-0.37273
-0.063636
0.16364
0.34545
0.46364
0.45455
0.41818
0.38182
0.44545
0.51818
0.61818
0.70909
0.7
0.59091
0.4
0.26364
0.063636
0.1
0.24545
0.34545
0.29091
0.15455
0.036364
-0.054545
-0.036364
0.081818
0.19091
0.16364
0.11818
0.072727
0.018182
0.018182
0.063636
0.036364
-0.036364
-0.10909
-0.29091
-0.5
-0.68182
-0.7
-0.62727
-0.49091
-0.2
-0.045455
-0.018182
-0.15455
-0.30909
-0.4
-0.36364
-0.16364
-0.027273
0.072727
0.14545
0.21818
0.18182
0.036364
-0.045455
-0.12727
-0.24545
-0.3
-0.30909
-0.29091
-0.22727
-0.17273
-0.21818
-0.29091
-0.31818
-0.24545
-0.17273
-0.054545
0.018182
0.0090909
-0.12727
-0.17273
-0.081818
-0.027273
0.081818
0.16364
0.14545
0.054545
-0.063636
-0.072727
-0.16364
-0.22727
-0.25455
-0.23636
-0.12727
0.0090909
0.081818
0.027273
-0.090909
-0.21818
-0.28182
-0.31818
-0.26364
-0.24545
-0.28182
-0.28182
-0.29091
-0.26364
-0.26364
-0.15455
0
0.063636
0.090909
0.13636
0.18182
0.26364
0.35455
0.35455
0.29091
0.2
0.11818
-0.018182
-0.15455
-0.17273
-0.15455
-0.12727
-0.054545
-0.018182
-0.081818
-0.14545
-0.21818
-0.22727
-0.18182
-0.027273
0.14545
0.15455
0.10909
0.072727
0.027273
0.018182
0.1
0.28182
0.4
0.5
0.53636
0.53636
0.46364
0.39091
0.29091
0.13636
0.072727
0.081818
0.11818
0.20909
0.3
0.47273
0.46364
0.40909
0.36364
0.32727
0.24545
0.20909
0.17273
0.1
0.10909
0.14545
0.15455
0.13636
0.19091
0.20909
0.17273
0.081818
-0.027273
-0.12727
-0.24545
-0.24545
-0.18182
-0.17273
-0.18182
-0.2
-0.16364
-0.17273
-0.1
-0.090909
-0.16364
-0.22727
-0.11818
-0.045455
-0.018182
0.063636
0.063636
0.1
0.19091
0.26364
0.23636
0.14545
0.1
-0.027273
-0.036364
0.027273
0.072727
0.045455
0.018182
0.054545
0.10909
0.19091
0.24545
0.32727
0.27273
0.24545
0.20909
0.18182
0.14545
0.15455
0.27273
0.23636
0.22727
0.15455
0.10909
0.11818
0.14545
0.27273
0.21818
0.17273
0.18182
0.23636
0.20909
0.17273
0.1
0.027273
0.036364
0.13636
0.20909
0.17273
0.18182
0.072727
-0.018182
-0.081818
-0.072727
-0.054545
0
0.081818
0.090909
0
-0.045455
-0.027273
-0.018182
-0.081818
-0.036364
-0.11818
-0.14545
-0.13636
-0.036364
0.090909
0.18182
0.27273
0.2
0.072727
-0.11818
-0.2
-0.2
-0.054545
0.090909
0.20909
0.28182
0.36364
0.36364
0.19091
-0.072727
-0.23636
-0.24545
-0.18182
-0.054545
0.14545
0.25455
0.33636
0.34545
0.26364
0.11818
0.018182
-0.090909
-0.27273
-0.33636
-0.28182
-0.14545
-0.072727
0.036364
0.13636
0.22727
0.29091
0.35455
0.38182
0.26364
0.090909
-0.11818
-0.24545
-0.19091
0.018182
0.2
0.24545
0.28182
0.18182
0.072727
0
-0.027273
0.0090909
-0.018182
0.045455
0.018182
0.018182
0.072727
0.21818
0.29091
0.29091
0.28182
0.15455
-0.072727
-0.34545
-0.48182
-0.58182
-0.55455
-0.36364
-0.10909
0.036364
0.11818
0.18182
0.2
0.28182
0.38182
0.4
0.39091
0.4
0.43636
0.30909
0.14545
0.027273
-0.072727
-0.090909
-0.10909
-0.027273
-0.036364
-0.063636
-0.036364
-0.0090909
0
0.018182
0.054545
0.063636
0.20909
0.32727
0.4
0.29091
0.12727
0.0090909
-0.027273
0.045455
0.16364
0.22727
0.2
0.16364
0.063636
-0.063636
-0.081818
-0.0090909
0.090909
0.14545
0.20909
0.20909
0.14545
0.081818
0.1
0.1
0.063636
0.036364
-0.063636
-0.11818
-0.14545
-0.072727
-0.027273
0
0.072727
0.081818
0.081818
0.1
0.2
0.23636
0.24545
0.35455
0.39091
0.43636
0.42727
0.39091
0.27273
0.18182
0.19091
0.23636
0.24545
0.27273
0.29091
0.11818
-0.054545
-0.20909
-0.25455
-0.20909
-0.10909
-0.10909
-0.19091
-0.21818
-0.2
-0.17273
-0.20909
-0.22727
-0.2
-0.063636
0.14545
0.40909
0.59091
0.51818
0.33636
0.090909
-0.090909
-0.13636
-0.10909
-0.090909
-0.12727
-0.10909
-0.23636
-0.32727
-0.31818
-0.13636
0.072727
0.20909
0.30909
0.2
-0.054545
-0.33636
-0.57273
-0.75455
-0.91818
-0.86364
-0.8
-0.6
-0.49091
-0.4
-0.40909
-0.5
-0.50909
-0.57273
-0.6
-0.57273
-0.5
-0.52727
-0.50909
-0.49091
-0.41818
-0.41818
-0.36364
-0.26364
-0.26364
-0.28182
-0.36364
-0.44545
-0.49091
-0.45455
-0.39091
-0.33636
-0.20909
0
0.15455
0.14545
0.036364
-0.14545
-0.39091
-0.53636
-0.56364
-0.47273
-0.35455
-0.2
-0.045455
-0.090909
-0.081818
-0.081818
-0.081818
-0.063636
0.036364
0.11818
0.10909
0.0090909
-0.054545
-0.12727
-0.19091
-0.11818
-0.14545
-0.12727
-0.12727
-0.11818
-0.11818
-0.15455
-0.072727
-0.036364
-0.045455
-0.018182
0.072727
0.16364
0.25455
0.38182
0.41818
0.34545
0.23636
0.19091
0.13636
0.14545
0.2
0.25455
0.26364
0.33636
0.4
0.29091
0.11818
-0.054545
-0.20909
-0.27273
-0.19091
0.0090909
0.16364
0.29091
0.35455
0.30909
0.19091
0.081818
0.072727
0.054545
0.18182
0.3
0.33636
0.23636
0.1
0.027273
-0.036364
0.018182
0.13636
0.12727
0.054545
0.045455
0.063636
0.036364
-0.027273
-0.17273
