-0.13555
-0.089514
0.0025575
0.12532
0.22251
0.30946
0.24297
0.24808
0.25831
0.24808
0.19182
0.15601
0.21228
0.25831
0.29412
0.3913
0.3555
0.30946
0.32992
0.38619
0.44246
0.40665
0.24808
0.094629
-0.043478
0.0025575
0.089514
0.17647
0.084399
-0.048593
-0.22251
-0.24297
-0.14578
0.0025575
0.14578
0.22762
0.24808
0.13043
-0.0076726
0.023018
0.074169
0.22762
0.24297
0.19693
0.043478
-0.14066
-0.27366
-0.37596
-0.48849
-0.40665
-0.31458
-0.26854
-0.31458
-0.44246
-0.53964
-0.49872
-0.32992
-0.058824
0.10486
0.16624
0.15601
0.10486
0.043478
-0.10997
-0.22251
-0.36061
-0.36061
-0.29412
-0.25831
-0.25831
-0.289
-0.29923
-0.26343
-0.12532
-0.043478
0.012788
0.038363
0.0076726
0.10486
0.023018
-0.028133
-0.099744
-0.089514
-0.023018
0.023018
0.089514
0.028133
-0.089514
-0.15601
-0.13555
-0.10486
-0.11509
-0.16624
-0.26343
-0.37596
-0.46803
-0.47826
-0.43223
-0.3555
-0.22762
-0.20716
-0.24297
-0.25831
-0.20716
-0.1867
-0.15601
-0.14066
0.017903
0.22251
0.41176
0.47826
0.28389
0.1202
0.033248
0.048593
0.048593
-0.053708
-0.19693
-0.38107
-0.41688
-0.39642
-0.29923
-0.1867
-0.043478
0.089514
0.14066
0.23274
0.29923
0.34015
0.26343
0.17647
0.084399
0.028133
-0.0076726
-0.023018
-0.028133
-0.10997
-0.19182
-0.27366
-0.29412
-0.27366
-0.2532
-0.24297
-0.20205
-0.089514
-0.017903
0.012788
-0.012788
-0.023018
-0.063939
-0.15601
-0.13043
-0.069054
-0.028133
-0.043478
-0.069054
-0.084399
-0.10997
-0.10486
-0.21228
-0.29923
-0.36061
-0.36573
-0.36573
-0.28389
-0.069054
0.1202
0.30946
0.2532
0.18159
-0.043478
-0.20205
-0.21739
-0.17647
-0.10486
-0.023018
0.033248
0.017903
-0.017903
-0.13043
-0.23274
-0.29412
-0.26343
-0.14578
-0.043478
0.069054
0.19182
0.19182
0.089514
-0.079284
-0.063939
0.099744
0.35038
0.43734
0.27877
-0.048593
-0.289
-0.33504
-0.30946
-0.13555
0.023018
0.1867
0.19693
0.1509
-0.017903
-0.13555
-0.15601
-0.14066
-0.11509
-0.1867
-0.17647
-0.1867
-0.14578
-0.074169
-0.0025575
0.0076726
-0.038363
-0.1202
-0.14578
-0.14066
-0.043478
0.079284
0.15601
0.16113
0.16624
0.19182
0.20716
0.24808
0.34015
0.32481
0.29412
0.23274
0.16624
0.19182
0.20716
0.28389
0.24297
0.22251
0.26854
0.33504
0.3913
0.40153
0.36573
0.29412
0.20716
0.19693
0.12532
0.079284
0.058824
0.094629
0.19693
0.25831
0.29412
0.25831
0.20205
0.23785
0.19182
0.12532
0.043478
0.048593
0.048593
-0.0025575
-0.012788
-0.074169
-0.12532
-0.13555
-0.084399
0.058824
0.15601
0.24297
0.17136
0.043478
-0.094629
-0.15601
-0.063939
0.043478
0.13555
0.10997
0.079284
0.15601
0.31458
0.44757
0.41176
0.34527
0.23274
0.16624
0.15601
0.13043
0.058824
0.069054
0.12532
0.17136
0.12532
0.063939
0.058824
0.079284
0.14578
0.1867
0.20716
0.17647
0.074169
0.063939
0.0025575
0.017903
0.028133
0.0025575
-0.089514
-0.14578
-0.15601
-0.1509
-0.22762
-0.28389
-0.29412
-0.28389
-0.13555
-0.10486
-0.12532
-0.21228
-0.21228
-0.1202
-0.0025575
0.079284
0.023018
0.0076726
0.074169
0.21739
0.289
0.15601
-0.028133
-0.1509
-0.22762
-0.14066
-0.094629
-0.094629
-0.15601
-0.2532
-0.27366
-0.289
-0.30946
-0.29412
-0.34527
-0.34527
-0.30946
-0.26343
-0.21228
-0.094629
0.0076726
0.089514
0.14066
0.16624
0.1202
0.017903
-0.10486
-0.16113
-0.21739
-0.19693
-0.15601
-0.17136
-0.26343
-0.34527
-0.40153
-0.3913
-0.26343
-0.15601
-0.074169
-0.15601
-0.21228
-0.19182
-0.14578
-0.058824
0.0025575
0.058824
0.028133
0.0076726
-0.043478
-0.12532
-0.16624
-0.14066
-0.12532
-0.23274
-0.26854
-0.23785
-0.053708
0.074169
0.079284
-0.079284
-0.25831
-0.36061
-0.38619
-0.37084
-0.33504
-0.26854
-0.14066
-0.017903
0.16113
0.18159
0.033248
-0.16113
-0.23785
-0.24808
-0.15601
-0.099744
-0.11509
-0.1509
-0.12532
-0.058824
-0.048593
-0.12532
-0.15601
-0.16113
-0.089514
-0.079284
-0.043478
-0.038363
0.028133
0.15601
0.30435
0.3913
0.3913
0.25831
0.012788
-0.048593
-0.0076726
0.1509
0.27366
0.31458
0.25831
0.21228
0.20205
0.23785
0.22251
0.17136
0.24808
0.29412
0.39642
0.33504
0.24297
0.13043
0.0076726
-0.012788
-0.017903
-0.028133
-0.012788
0.094629
0.14066
0.17136
0.18159
0.11509
0.058824
0.058824
0.15601
0.20716
0.16624
0.099744
0.012788
-0.023018
0.084399
0.24297
0.34015
0.32481
0.22762
0.094629
0.089514
0.084399
0.22251
0.16113
0.13043
0.14066
0.16113
0.1867
0.10486
0.058824
-0.028133
-0.033248
-0.012788
-0.048593
-0.069054
-0.13555
-0.15601
-0.22251
-0.27366
-0.34015
-0.34527
-0.30946
-0.17136
-0.063939
-0.074169
-0.10997
-0.16113
-0.17136
-0.1867
-0.10997
0.028133
0.17136
0.19182
0.18159
0.1202
0.043478
-0.0076726
-0.069054
-0.058824
-0.043478
-0.012788
-0.084399
-0.17647
-0.22251
-0.22251
-0.16113
-0.043478
0.16624
0.22762
0.23274
0.19693
0.11509
0.069054
0.043478
0.094629
0.16624
0.23785
0.34527
0.33504
0.22251
0.043478
-0.069054
-0.10997
0.017903
0.13043
0.19693
0.16113
0.038363
-0.038363
-0.16113
-0.1867
-0.15601
-0.058824
0.0076726
0.10997
0.16113
0.12532
-0.0076726
-0.17136
-0.35038
-0.52941
-0.60614
-0.58056
-0.51918
-0.45269
-0.44757
-0.4578
-0.49361
-0.47315
-0.43223
-0.48338
-0.5243
-0.49872
-0.42711
-0.36061
-0.30435
-0.27366
-0.25831
-0.21739
-0.20205
-0.21228
-0.29923
-0.28389
-0.16113
0.043478
0.26343
0.26343
0.089514
-0.13555
-0.22251
-0.20205
-0.17136
-0.10486
-0.053708
-0.0076726
-0.033248
-0.0025575
0.038363
0.099744
0.089514
0.14578
0.13555
0.30946
0.44246
0.51407
0.47826
0.42199
0.47315
0.43223
0.40665
0.36573
0.27366
0.1509
0.033248
-0.0076726
0.089514
0.22251
0.29412
0.27877
0.14066
0.048593
-0.038363
-0.099744
-0.14578
-0.11509
-0.048593
0.079284
0.21228
0.24297
0.17647
0.023018
-0.058824
-0.084399
0.033248
0.20716
0.38619
0.44757
0.44757
0.51407
0.46803
0.39642
0.32992
0.2532
0.22251
0.19693
0.27366
0.26343
0.27366
0.23274
0.20716
0.12532
0.069054
0.048593
0.079284
0.13555
0.25831
0.30946
0.31969
0.24297
0.10486
-0.023018
-0.069054
-0.10486
-0.069054
-0.1509
-0.10486
-0.038363
-0.012788
0.069054
0.069054
0.048593
0.012788
-0.028133
0.0076726
0.0076726
-0.043478
-0.069054
-0.14066
-0.19182
-0.14578
-0.038363
0.017903
-0.0076726
-0.033248
-0.063939
-0.053708
-0.0025575
0.017903
0.017903
-0.017903
-0.0076726
0.017903
-0.074169
-0.053708
-0.0076726
0.069054
0.1202
0.038363
-0.10997
-0.19693
-0.058824
0.10997
0.19693
0.17136
0.13043
0.069054
0.043478
0.053708
0.043478
0.043478
0.0025575
0.063939
0.089514
0.14066
0.23785
0.22762
0.15601
0.048593
0.0025575
-0.053708
-0.053708
-0.10486
-0.053708
-0.0076726
0.043478
-0.023018
-0.16113
-0.13043
0.038363
0.37084
0.55499
0.55499
0.39642
0.18159
0.017903
0.043478
0.094629
0.14066
0.1509
0.1509
0.24297
0.45269
0.60102
0.58056
0.40153
0.21739
0.10997
-0.017903
-0.14066
-0.20716
-0.22251
-0.19693
-0.048593
0.12532
0.27877
0.43223
0.46803
0.43223
0.34015
0.31458
0.23785
0.17647
0.10486
0.13555
0.17647
0.1509
0.14578
0.079284
0.048593
-0.048593
-0.053708
-0.053708
-0.033248
-0.012788
-0.012788
-0.053708
-0.033248
0.058824
0.1509
0.31458
0.40665
0.38619
0.25831
0.063939
0.0076726
-0.074169
-0.069054
-0.053708
-0.10997
-0.19182
-0.29412
-0.32481
-0.3555
-0.27366
-0.1867
-0.13555
-0.13555
-0.12532
-0.058824
0.069054
0.24297
0.41176
0.46803
0.42199
0.36573
0.24808
0.099744
0.0076726
-0.043478
-0.0025575
-0.10997
-0.27366
-0.40665
-0.5601
-0.52941
-0.45269
-0.3913
-0.36573
-0.30435
-0.20205
-0.14066
-0.13043
-0.16624
-0.21228
-0.17136
-0.089514
-0.11509
-0.10486
-0.1509
-0.10997
-0.11509
-0.094629
-0.12532
-0.18159
-0.17647
-0.16113
-0.033248
-0.028133
-0.048593
-0.11509
-0.084399
-0.079284
-0.053708
-0.017903
-0.033248
-0.038363
0.017903
0.033248
0.043478
-0.048593
-0.1202
-0.20205
-0.17136
-0.099744
-0.033248
0.079284
0.17136
0.33504
0.41688
0.46803
0.46803
0.29412
0.048593
-0.14578
-0.21739
-0.289
-0.26854
-0.24808
-0.1509
-0.11509
-0.012788
0.14066
0.34527
0.49361
0.50384
0.40665
0.18159
0.023018
-0.11509
-0.1867
-0.14066
-0.10997
-0.079284
-0.10486
-0.053708
-0.074169
-0.10997
-0.13043
-0.17136
-0.21228
-0.31458
-0.34527
-0.289
-0.23785
-0.13043
-0.074169
-0.14066
-0.20205
-0.18159
-0.15601
-0.14066
-0.053708
0.043478
0.19182
0.30435
0.37084
0.43734
0.41688
0.35038
0.289
0.19182
0.1867
0.21228
0.16113
0.058824
-0.038363
-0.094629
-0.074169
-0.043478
-0.069054
-0.13043
-0.15601
-0.10997
0.0025575
0.089514
0.21739
0.32992
0.41176
0.34527
0.30435
0.16113
0.074169
0.043478
0.1509
0.23785
0.31458
0.25831
0.14578
-0.012788
-0.048593
-0.028133
-0.038363
-0.14578
-0.1509
-0.14066
-0.099744
-0.038363
0.074169
0.13043
0.14578
0.053708
-0.094629
-0.20205
-0.14066
0.0025575
0.19182
0.1867
0.13043
-0.063939
-0.26343
-0.37596
-0.289
-0.12532
0.11509
0.2532
0.26854
0.21228
0.15601
0.23274
0.22762
0.1867
0.089514
-0.017903
-0.058824
-0.048593
0.043478
0.023018
-0.053708
-0.17647
-0.23785
-0.21739
-0.023018
0.20205
0.289
0.30435
0.22762
0.1867
0.16624
0.23785
0.30435
0.26343
0.16624
0.063939
0.033248
0.043478
0.1867
0.29923
0.37596
0.46292
0.41176
0.2532
0.0025575
-0.094629
-0.19182
-0.1509
-0.13043
-0.023018
0.012788
0.048593
0.1202
0.16624
0.10997
0.058824
0.023018
0.074169
0.20205
0.27366
0.21228
0.043478
-0.084399
-0.12532
-0.058824
-0.033248
-0.094629
-0.26343
-0.44757
-0.5243
-0.37084
-0.2532
-0.1509
-0.1509
-0.19693
-0.23785
-0.23785
-0.21228
-0.20716
-0.14066
-0.079284
0.0025575
-0.079284
-0.099744
-0.18159
-0.20716
-0.20205
-0.079284
0.089514
0.14578
0.11509
0.017903
-0.043478
-0.053708
0.012788
0.033248
0.069054
0.053708
0.023018
0.023018
0.10486
0.21228
0.17647
0.023018
-0.053708
-0.074169
-0.038363
-0.033248
0.0076726
0.089514
0.19693
0.289
0.26854
0.15601
0.053708
-0.099744
-0.21228
-0.27366
-0.21739
-0.16113
-0.1509
-0.17136
-0.17136
-0.13555
-0.16113
-0.13043
-0.15601
-0.13043
-0.1509
-0.079284
-0.12532
-0.17647
-0.22251
-0.25831
-0.28389
-0.30946
-0.3913
-0.55499
-0.59591
-0.50384
-0.30946
-0.12532
-0.033248
-0.074169
-0.22251
-0.30435
-0.25831
-0.017903
0.15601
0.35038
0.289
0.094629
-0.058824
-0.038363
-0.028133
-0.11509
-0.28389
-0.45269
-0.5243
-0.48338
-0.40153
-0.2532
-0.15601
0.028133
0.094629
0.10997
0.084399
0.058824
-0.033248
-0.14578
-0.19182
-0.30946
-0.3913
-0.46292
-0.41176
-0.30435
-0.22762
-0.16624
-0.21739
-0.24808
-0.2532
-0.1509
-0.0076726
0.14066
0.21228
0.15601
-0.038363
-0.21228
-0.32481
-0.42711
-0.49872
-0.58056
-0.53453
-0.3913
-0.1202
0.099744
0.12532
0.069054
-0.0025575
0.063939
0.17647
0.26343
0.14066
-0.1202
-0.34527
-0.30435
-0.10997
0.017903
0.058824
-0.079284
-0.20716
-0.23274
-0.14578
-0.0025575
0.11509
0.17136
0.14066
0.058824
0.094629
0.19182
0.24808
0.20205
0.17647
0.074169
0.033248
-0.074169
-0.16624
-0.21739
-0.19182
-0.0076726
0.21739
0.38107
0.43223
0.40153
0.31458
0.24297
0.18159
0.079284
0.012788
0.058824
0.28389
0.48338
0.61125
0.61125
0.51918
0.41688
0.32481
0.30946
0.20716
0.14066
0.063939
0.10997
0.20716
0.36061
0.44246
0.43734
0.39642
0.43734
0.53964
0.63171
0.59079
0.45269
0.2532
0.16624
0.23785
0.33504
0.46292
0.41176
0.29923
0.074169
-0.089514
-0.079284
0.063939
0.29412
0.49872
0.47826
0.25831
0.094629
0.048593
0.15601
0.26854
0.4578
0.51407
0.50384
0.29412
0.10997
-0.084399
-0.12532
-0.063939
0.048593
0.094629
0.053708
0.028133
0.069054
0.15601
0.21228
0.17136
0.099744
0.089514
0.19182
0.21739
0.26343
0.23274
0.13555
0.094629
0.1202
0.15601
0.094629
-0.0025575
-0.074169
-0.099744
-0.19182
-0.22251
-0.22762
-0.1509
-0.074169
-0.028133
-0.058824
-0.12532
-0.27366
-0.34015
-0.37596
-0.24297
-0.017903
0.15601
0.27366
0.29923
0.31969
0.31458
0.3913
0.42711
0.42199
0.30946
0.37084
0.48849
0.64194
0.64194
0.51407
0.30435
0.1509
0.1867
0.17647
0.14066
-0.012788
-0.11509
-0.13555
-0.069054
-0.017903
-0.033248
-0.16624
-0.28389
-0.21739
-0.14066
-0.017903
0.14578
0.27366
0.43223
0.48338
0.5243
0.49872
0.46803
0.41176
0.24808
0.017903
-0.13043
-0.18159
-0.17647
-0.033248
0.16624
0.21228
0.16113
0.058824
-0.017903
0.038363
0.079284
0.1867
0.24297
0.28389
0.2532
0.1867
0.063939
-0.069054
-0.1509
-0.19693
-0.28389
-0.37084
-0.31458
-0.14066
0.13043
0.26343
0.25831
0.1202
0.053708
-0.0025575
0.048593
0.058824
0.079284
0.19693
0.27877
0.46292
0.52941
0.48338
0.42199
0.40665
0.3555
0.29923
0.29412
0.20716
0.12532
0.084399
0.063939
0.11509
0.058824
0.038363
-0.053708
-0.038363
-0.0076726
0.12532
0.11509
0.033248
-0.069054
-0.12532
-0.10486
0.0025575
0.14578
0.20205
0.23274
0.16624
0.038363
-0.1509
-0.22251
-0.20716
-0.16624
-0.058824
-0.038363
-0.13555
-0.26343
-0.31969
-0.32992
-0.30435
-0.18159
-0.038363
0.089514
0.094629
0.048593
0.089514
0.20716
0.3913
0.50384
0.52941
0.35038
0.17647
0.0076726
-0.069054
-0.033248
0.017903
0.012788
-0.1202
-0.16624
-0.28389
-0.2532
-0.21739
-0.023018
0.058824
0.017903
-0.038363
-0.094629
-0.089514
-0.094629
-0.11509
-0.17136
-0.1509
0.0076726
0.13043
0.089514
-0.048593
-0.22251
-0.3555
-0.40153
-0.38619
-0.32481
-0.32481
-0.32481
-0.25831
-0.16113
0.023018
0.16624
0.24297
0.13555
0.063939
-0.028133
-0.074169
-0.089514
-0.063939
-0.074169
-0.1509
-0.22762
-0.25831
-0.19693
-0.038363
0.1202
0.16624
0.18159
0.14066
0.089514
-0.033248
-0.16113
-0.18159
-0.19182
-0.16624
-0.058824
-0.012788
0.079284
0.18159
0.17136
0.12532
0.10997
0.10486
0.063939
-0.079284
-0.25831
-0.31458
-0.34527
-0.30435
-0.23785
-0.19182
-0.099744
-0.043478
0.053708
0.099744
0.099744
0.17136
0.1202
-0.0025575
-0.16113
-0.18159
-0.17647
-0.079284
0.079284
0.24297
0.35038
0.38107
0.40665
0.32481
0.3555
0.31969
0.30946
0.19182
-0.017903
-0.22251
-0.35038
-0.31458
-0.094629
0.094629
0.1867
0.22762
0.2532
0.27877
0.20716
0.099744
0.017903
-0.0076726
0.043478
0.058824
-0.074169
-0.24808
-0.31458
-0.20205
-0.084399
0.028133
0.0025575
-0.0076726
0.074169
0.21739
0.34527
0.3555
0.36573
0.25831
0.19693
0.1202
0.084399
0.099744
0.084399
0.14578
0.1202
0.0025575
-0.069054
-0.069054
0.017903
0.043478
-0.0076726
-0.099744
-0.20716
-0.23274
-0.15601
-0.12532
-0.10997
-0.1867
-0.23274
-0.20716
-0.038363
0.16113
0.18159
0.043478
-0.1509
-0.28389
-0.34527
-0.29923
-0.1509
-0.023018
-0.0076726
-0.1867
-0.4578
-0.71867
-0.70844
-0.54476
-0.32992
-0.17647
-0.1509
-0.22251
-0.27366
-0.19182
-0.12532
-0.10997
-0.16113
-0.17647
-0.18159
-0.2532
-0.33504
-0.36061
-0.36061
-0.37596
-0.29923
-0.29923
-0.30435
-0.3555
-0.40665
-0.37084
-0.18159
0.028133
0.21739
0.289
0.26343
0.11509
-0.012788
-0.089514
0.038363
0.058824
0.10997
0.13555
0.22251
0.37084
0.46292
0.45269
0.27366
0.074169
-0.069054
-0.079284
-0.089514
-0.15601
-0.23274
-0.33504
-0.26343
-0.1202
0.0025575
-0.0025575
0.0076726
0.10997
0.16624
0.24297
0.23785
0.14578
0.053708
0.012788
0.15601
0.25831
0.31969
0.23785
0.12532
0.089514
0.1867
0.29412
0.36061
0.38107
0.37596
0.26343
0.079284
-0.10486
-0.18159
-0.1867
-0.084399
0.074169
0.14066
0.14066
0.11509
0.038363
-0.023018
0.048593
0.24808
0.46803
0.46292
0.24297
-0.099744
-0.42711
-0.58056
-0.51918
-0.41688
-0.42711
-0.51918
-0.65217
-0.67263
-0.57545
-0.3555
-0.27366
-0.20205
-0.17647
-0.21739
-0.21228
-0.20716
-0.11509
-0.063939
-0.094629
-0.17136
-0.24297
-0.24297
-0.079284
0.13555
0.1867
0.033248
-0.27366
-0.57033
-0.65729
-0.50895
-0.38619
-0.39642
-0.49872
-0.5601
-0.51918
-0.36061
-0.17136
-0.074169
-0.13043
-0.1867
-0.19693
-0.10997
-0.11509
-0.13555
-0.1867
-0.24297
-0.22762
-0.14066
-0.069054
-0.038363
0.017903
0.033248
0.017903
0.012788
-0.023018
-0.0025575
0.063939
0.043478
-0.033248
-0.099744
-0.033248
0.17647
0.36573
0.38619
0.32481
0.18159
0.074169
-0.048593
-0.063939
-0.058824
0.012788
0.043478
-0.0025575
-0.094629
-0.1867
-0.12532
0.0025575
0.20716
0.31969
0.22251
0.038363
-0.16113
-0.22251
-0.26343
-0.17647
-0.058824
0.048593
0.084399
0.094629
0.089514
0.028133
0.048593
0.079284
0.094629
0.1202
0.14066
0.21228
0.20716
0.26343
0.34527
0.42711
0.49361
0.57033
0.53453
0.3913
0.18159
0.14578
0.23785
0.32481
0.3555
0.27877
0.19693
0.20716
0.24297
0.2532
0.23785
0.20205
0.18159
0.099744
-0.028133
-0.079284
-0.0025575
0.16113
0.3913
0.49361
0.47315
0.41688
0.40153
0.38107
0.38619
0.33504
0.23274
0.14066
0.22251
0.32992
0.36061
0.27366
0.14578
0.15601
0.24297
0.39642
0.45269
0.3913
0.3555
0.31969
0.32992
0.29923
0.18159
0.13043
-0.048593
-0.18159
-0.20716
-0.094629
0.028133
0.10486
0.10486
0.023018
0.0076726
0.028133
0.038363
0.043478
0.069054
0.048593
0.033248
0.012788
-0.048593
-0.21228
-0.38107
-0.36573
-0.20205
0.048593
0.17136
0.19182
0.13043
0.10486
0.23274
0.38107
0.40153
0.37596
0.30946
0.2532
0.24297
0.23274
0.20716
0.12532
0.048593
0.1202
0.19693
0.25831
0.24297
0.16624
0.084399
0.063939
0.074169
0.028133
0.0076726
-0.012788
-0.048593
0.0025575
0.058824
0.053708
-0.089514
-0.23274
-0.24297
-0.19693
-0.14578
-0.1202
-0.10486
-0.063939
-0.012788
-0.028133
-0.063939
-0.18159
-0.18159
-0.16624
-0.058824
0.074169
0.21228
0.26854
0.24297
0.22762
0.27877
0.30946
0.31969
0.30946
0.17647
0.028133
0.012788
-0.0076726
0.16113
0.19693
0.10486
-0.043478
-0.27366
-0.35038
-0.289
0.017903
0.34527
0.67263
0.74936
0.63683
0.38619
0.094629
-0.099744
-0.15601
-0.11509
-0.038363
0.028133
0.069054
0.0076726
-0.069054
-0.12532
-0.058824
0.023018
0.17647
0.26854
0.26854
0.19182
0.13043
0.14066
0.14066
0.1509
0.18159
0.23274
0.29412
0.36573
0.40153
0.32481
0.2532
0.16113
0.1202
0.079284
0.069054
0.058824
0.033248
0.063939
0.16624
0.17136
0.079284
-0.053708
-0.089514
-0.069054
-0.028133
-0.0076726
-0.0025575
-0.048593
0.043478
0.023018
-0.028133
-0.20716
-0.38107
-0.42711
-0.34527
-0.20716
-0.13043
-0.1509
-0.20205
-0.1867
-0.1509
-0.13555
-0.074169
-0.13043
-0.19693
-0.23785
-0.22762
-0.19693
-0.14066
-0.14066
-0.21739
-0.37596
-0.40665
-0.38107
-0.31969
-0.29412
-0.26343
-0.22762
-0.13555
-0.063939
-0.038363
-0.19693
-0.37084
-0.43223
-0.35038
-0.21228
-0.11509
-0.033248
0.017903
0.048593
0.094629
0.094629
0.094629
0.10486
0.14066
0.099744
0.10997
0.16624
0.21739
0.27366
0.30435
0.29412
0.29412
0.289
0.35038
0.36061
0.34015
0.36573
0.35038
0.30946
0.21228
0.053708
-0.14066
-0.3555
-0.46803
-0.54987
-0.56522
-0.5601
-0.50895
-0.41688
-0.51918
-0.6266
-0.8312
-0.91304
-0.89258
-0.68286
-0.53453
-0.31969
-0.14578
-0.0076726
0.14578
0.27877
0.5601
0.81586
1
0.93862
0.67775
0.37596
0.1867
0.17647
0.22251
0.36061
0.57545
0.76471
0.77494
0.74936
0.70844
0.73913
0.86189
0.90281
0.90281
0.88235
0.84655
0.81586
0.78005
0.75959
0.78005
0.81074
0.78005
0.78517
0.91304
0.93862
0.93862
0.8312
0.66752
0.63171
0.62148
0.49872
0.33504
0.26343
0.30946
0.42199
0.50384
0.61637
0.63171
0.58568
0.5601
0.49361
0.57033
0.58568
0.59591
0.5243
0.36573
0.27877
0.29412
0.38619
0.43223
0.49872
0.44246
0.36573
0.29923
0.17136
0.012788
-0.043478
-0.089514
-0.074169
-0.069054
-0.069054
0.058824
0.13555
0.19182
0.26343
0.27366
0.22251
0.038363
-0.1867
-0.40665
-0.49361
-0.43223
-0.34527
-0.25831
-0.19693
-0.13555
-0.048593
0.053708
0.15601
0.17647
0.017903
-0.14066
-0.32992
-0.45269
-0.49872
-0.47315
-0.44757
-0.41688
-0.33504
-0.26343
-0.21739
-0.13043
-0.063939
-0.028133
-0.058824
-0.094629
-0.19182
-0.29412
-0.29923
-0.24808
-0.13555
-0.017903
0.033248
0.058824
0.069054
0.028133
0.084399
0.017903
0.028133
0.094629
0.14578
0.10997
-0.012788
-0.084399
-0.17647
-0.21228
-0.15601
-0.058824
0.023018
0.033248
0.028133
-0.048593
-0.043478
-0.10486
-0.16624
-0.13043
0.099744
0.41176
0.61637
0.66752
0.5243
0.26854
-0.033248
-0.21228
-0.2532
-0.28389
-0.1867
-0.16113
-0.1509
-0.1509
-0.048593
0.14578
0.29923
0.33504
0.30435
0.2532
0.22762
0.30435
0.37084
0.38619
0.27877
0.069054
-0.19182
-0.33504
-0.289
-0.14578
-0.074169
-0.074169
-0.089514
-0.14578
-0.1867
-0.24297
-0.26343
-0.24808
-0.048593
0.094629
0.15601
0.12532
0.1202
0.22762
0.28389
0.24808
0.069054
-0.1509
-0.2532
-0.22762
-0.084399
-0.017903
0.017903
-0.028133
-0.043478
0.038363
0.10486
0.11509
-0.048593
-0.18159
-0.23274
-0.26343
-0.19182
-0.11509
-0.053708
0.028133
0.043478
0.094629
0.1202
0.12532
0.16113
0.11509
0.033248
0.0025575
-0.033248
-0.033248
-0.043478
0.0025575
0.043478
0.063939
0.094629
0.099744
0.089514
0.094629
0.094629
0.099744
0.048593
-0.012788
-0.12532
-0.18159
-0.20205
-0.043478
-0.0076726
-0.017903
-0.14066
-0.16624
-0.10997
0.084399
0.22762
0.29923
0.24297
0.21228
0.23274
0.26854
0.30435
0.34527
0.23274
0.12532
-0.012788
-0.099744
-0.16624
-0.19693
-0.17136
-0.23785
-0.23785
-0.22251
-0.13043
-0.079284
-0.038363
0.0076726
-0.023018
-0.012788
-0.0076726
0.058824
0.16113
0.289
0.32992
0.18159
0.0025575
-0.17136
-0.26343
-0.27877
-0.24297
-0.15601
-0.1509
-0.10997
-0.094629
-0.069054
-0.1509
-0.2532
-0.34015
-0.34527
-0.25831
-0.15601
-0.13555
-0.20716
-0.17136
-0.14066
-0.033248
0.063939
0.079284
0.063939
-0.048593
-0.13555
-0.18159
-0.10486
0.023018
0.15601
0.1509
0.089514
0.033248
-0.012788
-0.069054
-0.099744
-0.084399
-0.053708
0.023018
0.094629
0.094629
0.0025575
-0.13043
-0.17136
-0.14578
-0.069054
0.028133
0.028133
-0.048593
-0.10997
-0.16113
-0.18159
-0.12532
0.0076726
0.1202
0.14578
0.074169
-0.048593
-0.20205
-0.21228
-0.16624
-0.058824
-0.023018
0.017903
-0.012788
-0.10486
-0.15601
-0.13043
-0.069054
-0.048593
-0.10997
-0.19182
-0.29412
-0.289
-0.16624
-0.12532
-0.20716
-0.31458
-0.39642
-0.3913
-0.22251
-0.1202
-0.12532
-0.21739
-0.21739
-0.16624
-0.028133
0.10486
0.094629
0.023018
-0.048593
-0.058824
0.043478
0.14578
0.1867
0.17647
0.069054
-0.012788
-0.038363
-0.017903
-0.069054
-0.15601
-0.19182
-0.31458
-0.27366
-0.20205
-0.069054
0.0076726
0.0025575
0.017903
-0.012788
0.038363
0.069054
0.094629
0.063939
0.017903
-0.043478
-0.089514
-0.1509
-0.20716
-0.31458
-0.37084
-0.33504
-0.21739
-0.13555
-0.089514
-0.063939
-0.094629
-0.12532
-0.069054
-0.043478
-0.089514
-0.099744
-0.11509
-0.053708
-0.074169
-0.028133
-0.012788
0.089514
0.14066
0.16624
0.14578
0.069054
0.084399
0.053708
0.033248
0.012788
0.038363
0.017903
-0.048593
-0.028133
-0.048593
-0.11509
-0.16624
-0.18159
-0.14578
-0.048593
-0.0025575
-0.038363
-0.1202
-0.20716
-0.23274
-0.289
-0.24808
-0.1202
-0.043478
-0.0025575
-0.069054
-0.058824
-0.063939
-0.017903
0.048593
0.063939
0.074169
0.048593
0.063939
-0.053708
-0.1202
-0.19182
-0.13555
-0.0025575
0.089514
0.14578
0.043478
-0.017903
-0.079284
-0.10486
-0.13555
-0.14066
-0.20205
-0.26854
-0.37084
-0.42199
-0.44246
-0.50384
-0.50895
-0.36061
-0.29412
-0.30946
-0.45269
-0.70332
-0.85678
-0.81586
-0.73402
-0.56522
-0.3913
-0.20716
-0.048593
-0.038363
-0.043478
-0.11509
-0.21228
-0.24808
-0.17647
-0.074169
-0.0025575
0.10997
0.023018
0.017903
0.017903
0.10997
0.21739
0.37084
0.47826
0.45269
0.27877
0.063939
-0.038363
-0.10997
-0.069054
-0.084399
-0.14578
-0.26854
-0.31969
-0.13043
0.038363
0.27366
0.42199
0.48849
0.47826
0.48338
0.40665
0.26343
0.063939
-0.074169
-0.16113
-0.25831
-0.35038
-0.39642
-0.44246
-0.41688
-0.3913
-0.34015
-0.28389
-0.14578
-0.12532
-0.14578
-0.23785
-0.29412
-0.3555
-0.36061
-0.22251
-0.12532
-0.14578
-0.26854
-0.38107
-0.36061
-0.21228
0.043478
0.19693
0.15601
-0.012788
-0.099744
-0.10486
-0.0076726
0.017903
-0.017903
-0.14578
-0.26854
-0.37596
-0.47826
-0.43734
-0.30435
-0.20716
-0.21228
-0.28389
-0.32481
-0.24297
-0.099744
0.084399
0.1202
0.16624
0.21228
0.29412
0.3555
0.41688
0.4578
0.44246
0.27877
0.20716
0.1867
0.30435
0.32481
0.32481
0.24808
0.27877
0.40153
0.48849
0.47826
0.40153
0.39642
0.3555
0.35038
0.37084
0.35038
0.27366
0.2532
0.24808
0.29412
0.24297
0.20205
0.14578
0.22251
0.34527
0.51918
0.5601
0.50895
0.45269
0.43223
0.53453
0.64706
0.65217
0.47826
0.36573
0.44757
0.68798
0.84655
0.7954
0.54987
0.21228
0.038363
-0.0076726
0.079284
0.17647
0.28389
0.40153
0.4578
0.46292
0.43734
0.47826
0.53964
0.65217
0.73402
0.64194
0.49872
0.3555
0.22251
0.17647
0.31458
0.47315
0.57545
0.54476
0.49872
0.41176
0.29923
0.19693
0.1202
0.10997
0.16113
0.24808
0.27366
0.21228
0.13555
0.043478
-0.038363
-0.043478
0.058824
0.1867
0.2532
0.27366
0.1509
0.053708
0.094629
0.27366
0.45269
0.48338
0.44246
0.31969
0.17647
0.043478
-0.0025575
-0.053708
-0.038363
0.094629
0.24297
0.32992
0.34015
0.30946
0.2532
0.26854
0.26343
0.22251
0.18159
0.21739
0.38107
0.32992
0.1867
-0.063939
-0.16624
-0.1202
0.028133
0.16624
0.1509
0.13555
0.16624
0.24808
0.37084
0.40153
0.36061
0.19693
0.058824
0.0076726
0.023018
-0.0025575
0.028133
-0.0076726
-0.0025575
0.053708
0.19693
0.31969
0.28389
0.21228
0.053708
-0.10486
-0.19182
-0.21228
-0.19182
-0.14066
-0.048593
-0.058824
-0.1202
-0.22251
-0.27877
-0.21228
-0.10997
0.012788
0.099744
0.10997
0.074169
0.0025575
-0.048593
-0.063939
0.058824
0.14066
0.17647
0.14066
0.069054
-0.028133
-0.074169
-0.074169
-0.1509
-0.30946
-0.39642
-0.35038
-0.22762
-0.084399
-0.048593
-0.094629
-0.16113
-0.15601
-0.038363
0.023018
0.038363
0.028133
0.033248
-0.028133
-0.10486
-0.23274
-0.32992
-0.34015
-0.23785
-0.14066
-0.099744
-0.058824
-0.0076726
0.063939
0.079284
0.063939
0.028133
-0.048593
-0.069054
-0.053708
-0.043478
-0.058824
-0.038363
-0.043478
-0.10486
-0.14578
-0.22251
-0.24808
-0.30435
-0.30435
-0.35038
-0.38107
-0.38619
-0.53964
-0.71355
-0.80051
-0.75959
-0.65217
-0.60614
-0.6624
-0.72379
-0.82609
-0.92327
-0.88747
-0.75959
-0.57033
-0.48849
-0.54987
-0.62148
-0.59079
-0.46803
-0.42711
-0.43223
-0.41688
-0.36573
-0.35038
-0.38619
-0.45269
-0.5243
-0.47315
-0.43734
-0.44757
-0.50384
-0.52941
-0.49361
-0.45269
-0.34015
-0.25831
-0.19182
-0.28389
-0.32992
-0.3555
-0.35038
-0.33504
-0.30946
-0.34527
-0.3913
-0.37084
-0.32481
-0.289
-0.32992
-0.44757
-0.57545
-0.53964
-0.35038
-0.1202
-0.023018
-0.063939
-0.15601
-0.15601
-0.10486
-0.0025575
-0.012788
-0.1202
-0.1867
-0.043478
0.17647
0.45269
0.61125
0.52941
0.289
0.1202
-0.023018
-0.094629
-0.13043
-0.1509
-0.13043
-0.12532
-0.16624
-0.20716
-0.29412
-0.31969
-0.23785
-0.084399
0.11509
0.24808
0.28389
0.1509
0.074169
0.0076726
-0.017903
-0.10997
-0.23785
-0.34527
-0.43223
-0.41176
-0.26854
-0.11509
-0.023018
0.063939
0.033248
-0.058824
-0.094629
-0.069054
0.053708
0.22762
0.37084
0.39642
0.32992
0.27366
0.29412
0.38107
0.41176
0.48338
0.3913
0.20205
-0.033248
-0.18159
-0.15601
-0.063939
0.058824
0.074169
0.053708
0.048593
0.18159
0.37084
0.48338
0.43734
0.19693
-0.038363
-0.10997
-0.028133
0.028133
0.058824
-0.012788
-0.048593
-0.094629
-0.058824
0.023018
0.069054
0.13043
0.26343
0.289
0.23274
0.10486
0.074169
0.063939
0.1509
0.20205
0.20205
0.16113
0.20205
0.25831
0.30946
0.30435
0.23785
0.084399
-0.1202
-0.19182
-0.12532
0.043478
0.1867
0.22251
0.17647
0.20205
0.28389
0.34015
0.25831
0.1202
0.023018
0.023018
0.099744
0.28389
0.37596
0.38107
0.29923
0.27877
0.31458
0.32481
0.27366
0.1509
-0.0076726
-0.038363
-0.053708
-0.053708
-0.038363
0.063939
0.19693
0.37084
0.41688
0.41688
0.22762
0.028133
-0.048593
0.0025575
0.1202
0.1202
-0.0025575
-0.25831
-0.36573
-0.41176
-0.32992
-0.30946
-0.33504
-0.36573
-0.3913
-0.34015
-0.20716
-0.058824
0.0025575
0.089514
0.16624
0.1867
0.20205
0.24297
0.289
0.29923
0.30435
0.24808
0.10997
0.028133
0.012788
0.063939
0.1202
0.15601
0.12532
0.084399
0.048593
0.15601
0.37596
0.53964
0.69821
0.62148
0.38619
0.089514
-0.10486
-0.19182
-0.20205
-0.1867
-0.16113
-0.14066
-0.10486
0.0025575
0.058824
0.017903
-0.043478
-0.17136
-0.33504
-0.45269
-0.51407
-0.51407
-0.39642
-0.20205
-0.069054
-0.094629
-0.25831
-0.41176
-0.49872
-0.3913
-0.21739
-0.038363
-0.028133
-0.079284
-0.089514
-0.10997
-0.089514
-0.11509
-0.25831
-0.38107
-0.41176
-0.28389
-0.22251
-0.17647
-0.1867
-0.24297
-0.25831
-0.20205
-0.069054
0.012788
0.048593
0.053708
0.017903
0.0025575
0.033248
0.058824
0.084399
0.1202
0.21228
0.32992
0.35038
0.36061
0.29923
0.21228
0.14066
0.10997
0.079284
0.033248
0.058824
0.069054
0.094629
0.13043
0.289
0.34015
0.23785
0.094629
-0.017903
0.023018
0.16624
0.34015
0.44246
0.43734
0.32481
0.16113
0.058824
0.028133
0.012788
-0.12532
-0.22251
-0.28389
-0.27366
-0.26343
-0.20716
-0.084399
-0.038363
-0.023018
-0.023018
0.028133
0.079284
0.14578
0.18159
0.23785
0.32481
0.43223
0.58568
0.67775
0.7289
0.67263
0.47826
0.30946
0.1867
0.17136
0.13555
0.11509
0.079284
0.0076726
0.038363
0.13555
0.24808
0.3555
0.38619
0.36061
0.26854
0.079284
-0.10997
-0.27877
-0.48849
-0.51918
-0.44246
-0.2532
-0.084399
-0.012788
-0.038363
-0.023018
0.1202
0.23274
0.289
0.20716
0.099744
-0.017903
-0.048593
0.058824
0.1867
0.3555
0.37596
0.42199
0.36061
0.34527
0.3555
0.29923
0.17647
-0.017903
-0.22251
-0.34015
-0.289
-0.1202
0.017903
-0.043478
-0.11509
-0.17136
-0.17136
-0.053708
0.017903
0.094629
0.16624
0.17647
0.20716
0.20205
0.27366
0.38107
0.4578
0.48849
0.52941
0.59591
0.57545
0.47826
0.41688
0.45269
0.41688
0.42199
0.31969
0.39642
0.52941
0.68798
0.74936
0.72379
0.74936
0.81074
0.81074
0.85166
0.79028
0.73402
0.67775
0.74425
0.86189
0.88747
0.87212
0.78517
0.69309
0.57033
0.48849
0.51918
0.6266
0.76471
0.85166
0.75959
0.61125
0.53453
0.46292
0.39642
0.37596
0.41176
0.47315
0.5601
0.63171
0.7289
0.71867
0.67775
0.62148
0.53964
0.5243
0.48338
0.35038
0.20205
0.023018
-0.017903
0.079284
0.22251
0.48849
0.6266
0.63683
0.58056
0.42711
0.33504
0.36061
0.48849
0.61637
0.58056
0.46803
0.27366
0.19182
0.26854
0.43223
0.48338
0.36573
0.1867
-0.0076726
-0.063939
0.0076726
0.1509
0.17647
0.13043
0.053708
-0.063939
-0.19693
-0.32481
-0.29412
-0.20205
-0.043478
0.099744
0.16113
0.1867
0.14578
0.14066
0.074169
0.079284
0.10997
0.074169
0.023018
-0.048593
-0.033248
-0.043478
-0.058824
-0.13555
-0.19182
-0.17136
-0.084399
0.028133
-0.033248
-0.16113
-0.28389
-0.27366
-0.1202
0.023018
0.074169
-0.048593
-0.17136
-0.21739
-0.19693
-0.16113
-0.17136
-0.28389
-0.46803
-0.57033
-0.51918
-0.43734
-0.37084
-0.37596
-0.43734
-0.54476
-0.69309
-0.73913
-0.72379
-0.59591
-0.4578
-0.40665
-0.41176
-0.51918
-0.55499
-0.54476
-0.44757
-0.27877
-0.24297
-0.25831
-0.29412
-0.29412
-0.23274
-0.14066
-0.0025575
0.053708
-0.043478
-0.19182
-0.289
-0.31458
-0.24297
-0.084399
-0.069054
-0.094629
-0.22251
-0.29923
-0.32992
-0.32992
-0.28389
-0.289
-0.31969
-0.46292
-0.55499
-0.68798
-0.68286
-0.57033
-0.54476
-0.56522
-0.61637
-0.57033
-0.47826
-0.32481
-0.24297
-0.20205
-0.29412
-0.40153
-0.53964
-0.55499
-0.47826
-0.32992
-0.33504
-0.36061
-0.27366
-0.13555
-0.048593
-0.14066
-0.26854
-0.35038
-0.39642
-0.32481
-0.29923
-0.24808
-0.19182
-0.11509
-0.10486
-0.14066
-0.22251
-0.29412
-0.30435
-0.26854
-0.17647
-0.1867
-0.2532
-0.34527
-0.42199
-0.37596
-0.22762
-0.089514
-0.063939
-0.094629
-0.13043
-0.1202
-0.15601
-0.10997
-0.13555
-0.21228
-0.31458
-0.40153
-0.36061
-0.26854
-0.099744
0.043478
0.094629
0.13555
0.13555
0.13555
0.079284
-0.012788
-0.058824
-0.17136
-0.24297
-0.289
-0.3555
-0.31969
-0.16624
-0.038363
0.0076726
-0.058824
-0.0025575
0.16113
0.32481
0.42199
0.3555
0.18159
0.079284
-0.038363
-0.012788
0.017903
0.14578
0.20205
0.22762
0.21228
0.24297
0.2532
0.23785
0.28389
0.31458
0.30946
0.29412
0.30946
0.30435
0.25831
0.17647
0.084399
-0.063939
-0.048593
0.033248
0.063939
0.079284
0.063939
0.074169
0.12532
0.19693
0.22762
0.19182
0.099744
0.038363
0.053708
0.079284
0.033248
0.038363
-0.048593
-0.0076726
0.11509
0.14578
0.063939
0.017903
-0.043478
0.017903
0.079284
0.084399
0.053708
-0.0025575
-0.089514
-0.1509
-0.30435
-0.26343
-0.13043
0.043478
0.17647
0.24808
0.34015
0.38107
0.3913
0.38619
0.36061
0.36061
0.39642
0.34527
0.17647
0.017903
-0.017903
0.11509
0.26343
0.4578
0.46292
0.44757
0.38107
0.3555
0.27877
0.1867
0.16624
0.1509
0.14066
0.074169
0.017903
-0.048593
-0.038363
0.028133
0.1202
0.22251
0.21739
0.17647
0.089514
0.079284
0.14578
0.18159
0.1509
0.13555
0.22251
0.29412
0.40665
0.48338
0.4578
0.36573
0.27366
0.23274
0.23274
0.26854
0.35038
0.30435
0.20716
0.11509
0.089514
0.074169
0.043478
0.048593
0.058824
0.053708
0.15601
0.14578
0.17136
0.16624
0.12532
0.14578
0.10486
0.13555
0.16624
0.16624
0.18159
0.15601
0.13555
0.14066
0.15601
0.14578
0.089514
-0.048593
-0.14578
-0.289
-0.34527
-0.26343
-0.17136
-0.1202
-0.12532
-0.11509
-0.11509
-0.089514
0.017903
0.10997
0.13555
0.069054
-0.0025575
-0.099744
-0.20716
-0.31458
-0.40153
-0.39642
-0.27877
-0.19693
-0.19693
-0.13043
-0.069054
0.0076726
0.017903
0.012788
-0.023018
-0.058824
-0.12532
-0.16113
-0.17136
-0.19182
-0.18159
-0.14578
-0.14578
-0.063939
-0.012788
-0.023018
-0.10486
-0.22762
-0.23274
-0.21739
-0.19693
-0.24808
-0.32481
-0.41688
-0.25831
-0.12532
0.0076726
0.069054
0.074169
0.12532
0.084399
0.14578
0.13043
0.079284
0.023018
-0.079284
-0.17647
-0.34527
-0.40153
-0.40665
-0.31969
-0.16624
-0.13043
-0.17647
-0.32992
-0.45269
-0.56522
-0.62148
-0.70844
-0.78005
-0.94373
-1
-0.98977
-0.79028
-0.6624
-0.59079
-0.63171
-0.5601
-0.45269
-0.26343
-0.19693
-0.26343
-0.31969
-0.34015
-0.36573
-0.38619
-0.4578
-0.51918
-0.53453
-0.42199
-0.18159
-0.063939
0.012788
-0.0076726
0.012788
-0.0076726
-0.074169
-0.27366
-0.48849
-0.5601
-0.49361
-0.22762
-0.033248
0.038363
0.038363
-0.053708
-0.1202
-0.14578
-0.058824
0.084399
0.19693
0.15601
0.033248
-0.084399
-0.094629
-0.028133
0.058824
0.12532
0.10486
-0.028133
-0.063939
-0.043478
0.043478
0.21739
0.34527
0.30435
0.12532
-0.13043
-0.289
-0.30435
-0.17647
0.0076726
0.099744
0.099744
0.0025575
0.048593
-0.0025575
0.089514
0.17647
0.25831
0.18159
0.0076726
-0.099744
-0.12532
-0.017903
0.17136
0.34015
0.36573
0.3555
0.27366
0.13555
-0.0025575
-0.079284
-0.1202
-0.079284
0.0076726
0.14066
0.20716
0.18159
0.18159
0.21739
0.24297
0.31458
0.27877
0.21228
0.26343
0.30946
0.3913
0.38619
0.41176
0.37596
0.31458
0.30435
0.38619
0.53964
0.61637
0.71867
0.65217
0.57545
0.49872
0.51407
0.50895
0.47826
0.40153
0.28389
0.20716
0.23274
0.29923
0.38619
0.49872
0.58056
0.6266
0.54987
0.42199
0.37084
0.289
0.30946
0.32992
0.35038
0.37084
0.31969
0.33504
0.33504
0.37084
0.44757
0.42711
0.36573
0.26343
0.20716
0.17136
0.21228
0.21739
0.15601
0.012788
-0.033248
-0.048593
0.058824
0.084399
0.094629
0.084399
0.17136
0.289
0.26343
0.079284
-0.14066
-0.26343
-0.23785
-0.16113
-0.0025575
0.033248
-0.069054
-0.17136
-0.14066
-0.099744
-0.084399
-0.1202
-0.23785
-0.32992
-0.29412
-0.16113
-0.033248
-0.10486
-0.21739
-0.36573
-0.35038
-0.33504
-0.29412
-0.44757
-0.59079
-0.58056
-0.48338
-0.35038
-0.30435
-0.24808
-0.23785
-0.17647
-0.094629
0.069054
0.079284
0.048593
-0.058824
-0.21228
-0.26854
-0.23785
-0.16624
-0.17136
-0.13555
-0.1202
-0.074169
0.012788
0.074169
0.094629
-0.0076726
-0.10997
-0.20205
-0.22251
-0.21228
-0.21228
-0.25831
-0.3555
-0.34015
-0.23274
-0.1202
-0.14578
-0.22251
-0.38619
-0.45269
-0.32481
-0.1867
-0.11509
-0.10997
-0.13555
-0.094629
-0.033248
0.053708
0.079284
0.048593
0.058824
0.094629
0.11509
0.063939
0.033248
0.048593
0.1202
0.24808
0.35038
0.289
0.094629
-0.13555
-0.27877
-0.34015
-0.33504
-0.26854
-0.22251
-0.089514
0.048593
0.16624
0.13555
-0.0025575
-0.24297
-0.48849
-0.50384
-0.38107
-0.37084
-0.49872
-0.73402
-0.85166
-0.80051
-0.69821
-0.60614
-0.58568
-0.61637
-0.61637
-0.65729
-0.73913
-0.71355
-0.53964
-0.40153
-0.40153
-0.48338
-0.53964
-0.43734
-0.26854
-0.14578
-0.17136
-0.22762
-0.23785
-0.14066
-0.012788
0.20205
0.42199
0.49872
0.41176
0.22762
0.0025575
-0.089514
0.038363
0.22251
0.289
0.1867
0.043478
-0.028133
-0.0076726
0.084399
0.14066
0.18159
0.21739
0.20716
0.21228
0.17136
0.22251
0.31969
0.47315
0.55499
0.51918
0.36061
0.14578
0.089514
0.16113
0.24808
0.29412
0.24808
0.21228
0.1202
0.089514
0.084399
0.079284
0.17647
0.27877
0.29412
0.20205
0.15601
0.12532
0.21228
0.26854
0.32481
0.30946
0.26343
0.35038
0.41688
0.39642
0.32481
0.17647
0.084399
-0.012788
0.0025575
0.023018
0.0025575
-0.074169
-0.14578
-0.11509
0.012788
0.24297
0.36061
0.36061
0.26854
0.1867
0.14578
0.16113
0.15601
0.099744
-0.017903
-0.084399
-0.028133
0.017903
0.16624
0.26854
0.31969
0.27877
0.24297
0.20205
0.094629
-0.0076726
-0.084399
-0.10997
-0.084399
-0.084399
-0.043478
-0.063939
-0.058824
-0.048593
0.038363
0.14578
0.26854
0.29923
0.20205
0.063939
-0.033248
-0.069054
-0.063939
-0.043478
-0.0076726
0.069054
0.22762
0.36573
0.37596
0.26343
0.16113
0.038363
0.012788
0.043478
0.079284
0.14578
0.17647
0.27877
0.26854
0.19182
0.053708
-0.043478
0.012788
0.13555
0.2532
0.22251
0.0076726
-0.23274
-0.36061
-0.32992
-0.14578
0.094629
0.17647
0.1202
0.10486
0.25831
0.48338
0.62148
0.65217
0.50384
0.26343
0.084399
0.0025575
-0.0025575
-0.0025575
-0.094629
-0.23785
-0.27366
-0.099744
0.29412
0.63683
0.91304
0.94885
0.76471
0.50895
0.32481
0.30946
0.40153
0.53964
0.5601
0.48338
0.27366
0.11509
0.0025575
0.033248
0.1202
0.30435
0.46292
0.49361
0.53964
0.55499
0.53964
0.47315
0.32992
0.12532
-0.028133
-0.012788
0.13555
0.27366
0.3555
0.37084
0.37084
0.37596
0.3913
0.3555
0.35038
0.36573
0.47315
0.52941
0.54987
0.51407
0.29923
0.21228
