0.10606
-0.18939
-0.31061
0.037879
0.36364
0.56818
0.93939
0.76515
0.75
0.37879
0.14394
-0.045455
0
0.47727
0.97727
1
0.66667
0.2197
0.015152
0.083333
0.31818
0.26515
0.22727
0.24242
0.42424
0.50758
0.47727
0.41667
0.38636
0.26515
0.31061
0.090909
-0.13636
-0.10606
0.015152
0.16667
0.037879
-0.18182
-0.32576
-0.31061
-0.26515
0.098485
0.083333
0.0075758
-0.50758
-1
-0.87121
-0.59848
-0.37879
-0.2803
-0.26515
-0.19697
-0.030303
0.33333
0.34091
0.4697
0.20455
-0.075758
0.16667
0.24242
0.28788
0.18182
0.060606
0.2197
0.21212
0.26515
0.22727
0.26515
0.56061
0.5
0.48485
0.12879
0.25758
0.13636
0.24242
0.43939
0.56061
0.50758
0.39394
0.26515
0.32576
0.57576
0.59848
0.61364
0.5
0.32576
0.14394
0.045455
0.0075758
0.015152
0.16667
0.43939
0.71212
0.65152
0.24242
-0.25
-0.43939
-0.31818
-0.43182
-0.23485
0.075758
0.57576
0.77273
0.94697
0.73485
0.59091
0.25
0
-0.090909
-0.19697
-0.20455
0.045455
0.19697
0.21212
0.060606
-0.14394
-0.2803
-0.27273
-0.33333
-0.15909
-0.083333
0.15909
0.22727
0.2803
0.19697
0.022727
-0.26515
-0.24242
-0.022727
0.38636
0.24242
0.36364
0.015152
-0.090909
-0.030303
0.45455
0.60606
0.80303
0.51515
0.35606
0.16667
0.083333
0.045455
-0.12121
-0.075758
0.15152
0.50758
0.78788
0.73485
0.59091
0.17424
-0.068182
0.35606
0.35606
0.57576
0.31061
0.31061
0.25758
0.25758
0.26515
0.090909
-0.17424
-0.43939
-0.54545
-0.41667
-0.32576
-0.20455
-0.037879
0.5
0.34091
0.20455
-0.15909
-0.31061
-0.15909
-0.14394
-0.15909
-0.16667
0.05303
0.20455
0.22727
0.10606
-0.083333
0
0.10606
0.21212
0.12121
0.022727
0.0075758
0.29545
0.60606
0.7803
0.77273
0.43182
0.13636
-0.20455
-0.045455
0.22727
0.45455
0.48485
0.71212
0.62879
0.91667
0.73485
0.38636
0.083333
0.022727
0.15909
0.24242
0.10606
-0.030303
-0.14394
-0.0075758
0.25
0.35606
0.2197
0.15909
0.075758
-0.05303
0.045455
0.098485
0.015152
-0.19697
-0.5
-0.44697
-0.20455
0.090909
0.28788
0.27273
0.075758
-0.022727
-0.045455
-0.015152
0.0075758
0.25758
0.060606
0.15152
0.17424
0.37121
0.40152
0.2803
0.27273
0.39394
0.31061
0.30303
-0.0075758
-0.030303
-0.0075758
-0.015152
0.045455
0.015152
0.14394
0.31061
0.15909
0.10606
0.030303
0.26515
0.32576
0.35606
0.12879
-0.17424
-0.11364
0.28788
0.32576
0.31818
0.25
0.068182
0.17424
0.16667
0.19697
0.14394
0.075758
0.14394
0.31818
0.45455
0.46212
0.34848
0.51515
0.44697
0.38636
0.14394
0.14394
0.075758
0.62879
0.41667
0.31061
-0.037879
-0.25758
-0.19697
-0.015152
0.12879
0.030303
-0.05303
-0.098485
0.13636
0.30303
0.22727
0.098485
-0.090909
-0.0075758
0.075758
0.22727
0.17424
0.2803
0.34848
0.39394
0.39394
0.10606
-0.21212
-0.51515
-0.40909
-0.14394
0.15152
0.12121
0.060606
-0.060606
-0.10606
0.17424
0.17424
0.037879
0.045455
0.2197
0.45455
0.37879
0.17424
0.18939
0.25758
0.2803
0.19697
0
0.075758
0.12879
0.17424
0.045455
0.41667
0.5303
0.67424
0.39394
0.18939
0.090909
0.29545
0.28788
0.32576
0.21212
0.40909
0.28788
0.29545
0.05303
-0.16667
0.068182
-0.10606
0
0
0.10606
0.060606
0.13636
0.12121
0.0075758
-0.14394
-0.12879
-0.037879
-0.068182
0.015152
-0.075758
-0.15909
-0.17424
-0.18182
-0.060606
-0.20455
-0.2197
-0.2197
-0.15909
-0.31061
-0.068182
-0.18939
-0.19697
-0.083333
-0.090909
0.083333
-0.05303
-0.05303
-0.075758
-0.030303
-0.0075758
0.0075758
0.12121
0.33333
0.50758
0.7197
0.59848
0.5303
0.5
0.48485
0.45455
0.34848
0.13636
0.31818
0.27273
0.2197
-0.083333
-0.022727
-0.037879
-0.045455
-0.05303
0.11364
0.5
0.54545
0.38636
0.15152
-0.05303
-0.098485
-0.23485
-0.28788
-0.05303
-0.083333
-0.075758
-0.36364
-0.31818
-0.16667
-0.13636
-0.2197
-0.12121
0
0.24242
0.32576
0.5
0.25758
-0.05303
-0.37879
-0.56061
-0.51515
-0.50758
-0.45455
-0.48485
-0.33333
-0.083333
-0.14394
-0.19697
-0.49242
-0.54545
-0.2803
-0.15152
-0.083333
-0.090909
-0.40909
-0.40152
-0.41667
-0.4697
-0.33333
-0.083333
0
0.060606
0.098485
0.20455
0.12121
0.098485
0.16667
0.36364
0.39394
0.58333
0.22727
0.12879
0.11364
0.23485
0.33333
0.21212
0.030303
-0.030303
-0.10606
0.075758
0.16667
0.15152
0.090909
0.36364
0.33333
0.30303
-0.068182
-0.31818
-0.26515
0.083333
0.18182
0.25758
0.037879
0.05303
0.14394
0.35606
0.31061
0.43182
0.66667
0.71212
0.40909
0.0075758
-0.39394
-0.47727
-0.39394
-0.31818
-0.19697
0.022727
0.11364
0.15152
0.045455
0.075758
0.05303
-0.075758
0.13636
0.13636
0.21212
0.31818
0.29545
0.26515
0.045455
-0.075758
0
0.098485
0.26515
0.52273
0.58333
0.60606
0.45455
0.45455
0.40152
0.37879
0.43182
0.41667
0.44697
0.50758
0.66667
0.65909
0.49242
0.19697
0.11364
0.37879
0.51515
0.65152
0.4697
0.34848
0.2803
0.35606
0.31818
0.40152
0.23485
0.060606
0.098485
0.13636
0.5303
0.65909
0.56818
0.4697
0.22727
0.15909
0.11364
-0.030303
-0.090909
-0.10606
-0.18182
0.030303
0.037879
0.2197
0.34848
0.37121
0.43939
0.12879
-0.20455
-0.19697
-0.05303
0.18182
0.4697
0.50758
0.57576
0.26515
0.0075758
0.015152
-0.12879
0.34848
0.18182
0.21212
-0.083333
-0.21212
-0.015152
0.0075758
-0.05303
-0.18939
-0.23485
-0.25758
-0.21212
0.075758
0.075758
0.18939
0.15909
-0.030303
-0.13636
0.12121
0.17424
0.31818
0.22727
0.098485
0.15909
0.18182
0.14394
-0.0075758
0.015152
-0.10606
-0.075758
-0.26515
-0.35606
-0.24242
0.037879
0.060606
0.13636
0.13636
0.045455
-0.083333
-0.17424
0.083333
0.39394
0.73485
0.77273
0.54545
0.27273
0.05303
0.037879
-0.05303
0.015152
0.015152
0.060606
0.2803
0.5303
0.98485
0.90909
0.84091
0.51515
0.030303
-0.060606
-0.068182
-0.11364
0.045455
0.083333
0.17424
0.16667
0.11364
0.31061
0.45455
0.54545
0.37121
0.18939
0.090909
0.43939
0.59091
0.64394
0.48485
0.45455
0.5
0.34848
0.20455
0.068182
0.030303
0.15152
0.23485
0.38636
0.40909
0.2197
0.13636
-0.16667
-0.28788
-0.2197
-0.13636
-0.15909
-0.098485
0.068182
0.10606
0.10606
0.10606
0.015152
0.13636
0.0075758
-0.10606
-0.21212
-0.15909
0.16667
0.045455
-0.16667
-0.58333
-0.64394
-0.49242
-0.24242
-0.13636
-0.022727
0.075758
0.10606
0.068182
-0.060606
-0.12121
0.0075758
0.090909
0.015152
0
-0.045455
-0.05303
0.045455
0.35606
0.61364
0.61364
0.39394
0.05303
-0.083333
-0.037879
0.12121
0.37879
0.55303
0.5
0.41667
0.24242
0.43182
0.70455
0.75758
0.61364
0.35606
0.23485
0.31818
0.31818
0.23485
0.068182
0
0.098485
0.060606
-0.022727
0.05303
0.23485
0.37879
0.4697
0.29545
0.37879
0.37879
0.44697
0.5
0.43182
0.51515
0.52273
0.50758
0.19697
0.030303
0.0075758
0
0.36364
0.32576
0.31818
-0.060606
-0.34091
-0.5
-0.59848
-0.59848
-0.45455
-0.35606
-0.33333
-0.18939
-0.045455
0.015152
0.23485
0.12121
0.22727
0.13636
-0.015152
-0.068182
-0.11364
-0.12879
0.05303
0.43939
0.50758
0.37121
0.2197
-0.068182
-0.090909
-0.12879
-0.0075758
0.05303
0.075758
0.13636
0.2803
0.32576
0.43939
0.34091
0.26515
0.63636
0.65909
0.64394
0.25
0.060606
-0.045455
0.10606
0.16667
0.16667
0.16667
-0.0075758
-0.075758
0.13636
0.24242
0.2803
0.30303
0.18939
0.34848
0.34091
0.24242
0.12879
0.030303
0.037879
0.098485
0.17424
0.16667
0.20455
0.15909
0.43182
0.62121
0.62121
0.38636
0.28788
0.15152
0.068182
-0.23485
-0.32576
-0.27273
-0.10606
-0.075758
-0.0075758
0.075758
0.18182
0.11364
-0.022727
0.090909
0.2803
0.40152
0.37879
0.19697
0.17424
0.27273
0.62879
0.84091
0.7197
0.31818
0.090909
0.15152
0.18182
0.25
0.14394
0.25758
0.49242
0.48485
0.34091
-0.037879
-0.037879
0.015152
0.060606
0.015152
0.43182
0.41667
0.55303
0.34848
0.13636
0.15152
0.12121
0.12121
0.11364
0.15909
0.37121
0.49242
0.40152
0.11364
-0.17424
-0.39394
-0.26515
-0.31818
-0.16667
-0.19697
-0.037879
-0.098485
-0.098485
-0.060606
0.068182
0.27273
0.18939
0.16667
0.4697
0.42424
0.37121
-0.060606
-0.090909
-0.083333
0.17424
0.060606
-0.26515
-0.53788
-0.54545
-0.34091
-0.14394
0.075758
-0.0075758
-0.022727
-0.075758
-0.05303
-0.10606
-0.21212
-0.075758
0.24242
0.56818
0.55303
0.56818
0.25758
0.022727
-0.14394
-0.25
-0.27273
-0.24242
-0.060606
-0.098485
0.0075758
-0.18939
-0.41667
-0.51515
-0.31061
-0.0075758
0.12879
0.37879
0.15152
0.068182
-0.21212
-0.2197
0.083333
0.14394
0.10606
-0.12879
-0.075758
-0.060606
0.045455
0.13636
0.31061
0.39394
0.51515
0.62121
0.59091
0.61364
0.5
0.15152
0.11364
-0.060606
-0.075758
-0.068182
-0.15152
-0.2197
-0.40152
-0.25
-0.15152
0.12121
0.090909
0.0075758
0
-0.18182
-0.35606
-0.37879
-0.30303
-0.037879
0.14394
0.20455
0.090909
-0.12121
-0.16667
0.13636
0.14394
0.4697
0.42424
0.27273
0.037879
-0.045455
-0.15909
-0.12121
-0.0075758
0.060606
0.18939
0.068182
0
-0.15152
-0.17424
-0.18182
-0.24242
-0.22727
0.0075758
0.23485
0.15909
0.11364
0.060606
0.098485
0.10606
-0.030303
0.0075758
-0.075758
0.12879
0
0.030303
-0.0075758
-0.083333
0.015152
-0.060606
-0.0075758
0.23485
0.28788
0.2803
0.090909
0.05303
0.16667
0.2197
0.38636
0.18182
0.090909
0.0075758
-0.068182
0.045455
0.13636
0.20455
0.24242
0.2803
0.40152
0.34848
0.39394
0.15909
0.30303
0.15909
0.14394
0.19697
0.19697
0.29545
0.28788
0.35606
0.28788
0.13636
0.098485
0.045455
0.0075758
-0.045455
-0.14394
0.20455
0.27273
0.22727
0
-0.37879
-0.31061
-0.34848
-0.35606
-0.2197
0.045455
0.23485
0.22727
0.21212
0.075758
0.18182
0.44697
0.44697
0.35606
0.20455
0.015152
0.25758
0.35606
0.41667
0.37879
0.25
0.12121
0.10606
0.25758
0.43182
0.68182
0.68939
0.80303
0.74242
0.43939
0.090909
-0.35606
-0.33333
-0.13636
-0.022727
-0.030303
0.10606
0.14394
0.25
0.15152
0.15152
0.30303
0.61364
0.78788
0.67424
0.48485
0.18182
0.12879
0.2803
0.54545
0.58333
0.40152
0.11364
0.022727
0.10606
0.2197
0.075758
0.33333
0.26515
0.18182
0.25
0.030303
-0.022727
-0.15909
-0.19697
-0.083333
0.090909
0.31818
0.45455
0.38636
0.19697
0.10606
-0.14394
-0.31061
-0.46212
-0.090909
0
0.12121
0.015152
0.18182
0.25758
0.63636
0.50758
0.26515
-0.022727
0.15909
0.2197
0.34848
0.34091
0.2197
0.17424
0.068182
0.068182
0.083333
0.068182
-0.0075758
-0.11364
0.098485
-0.045455
0.31061
0.2803
0.23485
0.090909
-0.015152
-0.15152
-0.098485
-0.24242
-0.25
-0.25758
-0.098485
0.10606
0.13636
0.18182
0.10606
0.17424
0.31061
0.30303
-0.022727
-0.39394
-0.65152
-0.50758
-0.36364
-0.18939
-0.05303
0.090909
-0.022727
-0.14394
-0.2197
-0.18939
0.32576
0.40909
0.34091
-0.022727
-0.045455
0.10606
0.068182
-0.083333
-0.098485
0.098485
0.068182
0
0
-0.0075758
0.31818
0.25758
0.15909
-0.098485
0.23485
0.2197
0.18939
-0.16667
-0.2803
-0.23485
-0.2197
-0.015152
0.068182
0.037879
-0.17424
-0.16667
0.083333
0.2803
0.37879
0.32576
0.25
0.18939
0.42424
0.37879
0.31061
0.25758
-0.030303
-0.10606
-0.037879
-0.060606
-0.083333
-0.12121
-0.22727
-0.2197
-0.25
-0.11364
-0.060606
-0.10606
-0.2803
-0.40909
-0.17424
-0.11364
0
0
-0.060606
-0.060606
-0.16667
-0.32576
-0.49242
-0.49242
-0.31818
-0.075758
-0.0075758
-0.15909
0
-0.26515
-0.18182
-0.18182
-0.20455
0
0.18182
0.39394
0.25758
0.16667
-0.037879
0.05303
0.21212
0.13636
-0.068182
0
0.27273
0.52273
0.5
0.25758
0.10606
0.21212
0.19697
0.2197
0.23485
0.41667
0.39394
0.53788
0.23485
0.25
0.18939
0.098485
0.28788
0.20455
0.28788
0.18939
-0.068182
-0.10606
0
0.045455
0.26515
0.28788
0.18939
0.083333
0.037879
-0.12879
0.090909
0.022727
-0.0075758
-0.17424
-0.37121
-0.27273
0.060606
0.2803
0.41667
0.41667
0.4697
0.62121
0.69697
0.50758
0.17424
0.25
0.19697
0.35606
0.48485
0.5
0.62879
0.34848
0.14394
0.030303
0.13636
0.35606
0.42424
0.57576
0.25758
0.12879
0.030303
0.24242
0.46212
0.57576
0.32576
0.068182
-0.16667
-0.18182
-0.14394
-0.090909
0.11364
0.31818
0.68182
0.65909
0.47727
0.12879
0.15152
0.11364
0.090909
0.16667
0.12879
0.29545
0.23485
0.26515
0.24242
0.21212
0.045455
0.037879
0.27273
0.34848
0.43182
0.45455
0.49242
0.4697
0.39394
-0.0075758
-0.44697
-0.31061
-0.29545
-0.20455
-0.21212
0.18939
0.38636
0.54545
0.30303
0.18939
0.16667
0.25
0.18939
0.12121
0.15152
0.25
0.31818
0.25
0.05303
0.28788
0.38636
0.41667
0.31818
0.26515
0.29545
0.53788
0.68939
0.92424
0.75
0.50758
0.25758
0.2197
0.59091
0.63636
0.54545
0.28788
0.17424
0.19697
0.60606
0.52273
0.60606
0.34091
0.40152
0.43939
0.33333
0.098485
-0.090909
0.075758
0.25
0.35606
0.42424
0.26515
0.30303
0.53788
0.39394
0.54545
0.24242
0.12121
-0.030303
-0.29545
-0.42424
-0.43182
-0.47727
-0.25
-0.05303
0.15909
0.068182
0.090909
0.098485
0.16667
0.28788
0.17424
0.098485
-0.060606
-0.068182
0.022727
0.25
0.18182
0.31818
0.34848
0.34091
0.33333
0.34848
0.30303
0.20455
0.26515
0.15909
0.10606
0.05303
0.015152
0.13636
0.26515
0.40909
0.49242
0.35606
0.31061
0.40152
0.44697
0.5303
0.5303
0.2197
0.25758
0.083333
0.20455
0.15909
0.10606
0.2197
0.30303
0.33333
0.28788
0.015152
-0.037879
0.022727
0.11364
0.25
0.16667
0.20455
0.10606
0.083333
0.10606
0.61364
0.5303
0.46212
0.15152
0.037879
0.022727
0.045455
0.12121
-0.045455
0
0.17424
0.24242
0.41667
0.19697
-0.075758
0.19697
0.2803
0.5
0.35606
0.12121
0.075758
0.11364
0.28788
0.22727
0.24242
0.083333
0.045455
0.23485
0.43939
0.40909
0.32576
0.14394
0.16667
0.25758
0.2197
0.16667
0.27273
0.14394
0.51515
0.42424
0.34091
0.18182
-0.083333
-0.20455
-0.32576
-0.36364
0.060606
0.18939
0.53788
0.52273
0.37121
0.29545
0.29545
0.15909
0.068182
-0.083333
-0.25
-0.28788
0.12121
0.060606
0.022727
-0.27273
-0.11364
-0.060606
0.0075758
-0.068182
-0.12121
0.18182
0.22727
0.11364
-0.15909
-0.36364
-0.33333
0.13636
0.10606
0.12121
-0.16667
0.068182
0.090909
0.39394
0.37879
0.31818
0.060606
0.015152
0.060606
0.0075758
0.29545
0.037879
-0.022727
-0.10606
-0.083333
0.19697
0.31818
0.18939
0.030303
-0.075758
-0.090909
-0.045455
-0.05303
-0.090909
0.28788
0.63636
0.76515
0.76515
0.70455
0.43182
0.31061
0.11364
-0.0075758
-0.037879
0.11364
0.11364
0.37121
0.42424
0.51515
0.44697
0.31818
0.26515
0.72727
0.62121
0.58333
0.25
0.083333
0.26515
0.43939
0.54545
0.32576
0.10606
0.21212
0.19697
0.4697
0.31818
0.29545
0.20455
0.18182
0.37121
0.23485
0.068182
-0.12879
-0.37121
-0.34848
-0.2197
-0.15152
-0.12879
-0.21212
-0.18182
0.022727
-0.068182
-0.12879
-0.19697
-0.15152
-0.075758
0.030303
-0.0075758
-0.0075758
0.20455
0.2803
0.37879
0.27273
0.27273
0.30303
0.15909
0.15152
-0.10606
-0.18939
-0.31061
-0.19697
-0.24242
-0.25758
-0.30303
-0.17424
-0.037879
0.075758
0.0075758
-0.022727
-0.060606
-0.21212
-0.18939
-0.060606
0.075758
0.38636
0.71212
0.70455
0.59091
0.28788
-0.075758
-0.05303
-0.037879
-0.045455
-0.083333
-0.090909
-0.0075758
0.31061
0.27273
0.16667
-0.098485
-0.37879
-0.24242
0
0.060606
0.045455
0.15909
0.10606
0.12879
0.05303
0.05303
0.14394
0.18939
0.20455
0.22727
0.11364
0.26515
0.21212
0.28788
0.56818
0.49242
0.37879
-0.10606
-0.26515
-0.030303
0.21212
0.43939
0.40909
0.25
0.16667
0.17424
0.23485
0.41667
0.4697
0.59091
0.38636
0.21212
0.060606
0.18939
0.068182
0.16667
-0.022727
-0.068182
-0.14394
-0.068182
0.022727
0
-0.090909
-0.022727
-0.12879
0.037879
0.12121
0.28788
0.5
0.38636
0.39394
0.05303
0.36364
0.17424
0.090909
-0.34091
-0.51515
-0.39394
-0.25
-0.14394
0.14394
0.26515
0.36364
0.2197
-0.015152
-0.060606
-0.037879
0.068182
0.030303
0.16667
0.12121
0.083333
0.090909
-0.12121
0.045455
0.083333
0.32576
0.25758
0.37879
0.22727
0.19697
0.31818
0.31061
0.5
0.27273
0.17424
-0.05303
-0.0075758
0.29545
0.62121
0.56061
0.37121
0.090909
0.05303
0.28788
0.20455
0.13636
-0.20455
-0.15152
0.11364
0.21212
0.25758
0.22727
0.30303
0.33333
0.49242
0.23485
0.15152
-0.022727
0.022727
-0.015152
0.31061
0.39394
0.40152
0.24242
0.075758
0.34091
0.45455
0.53788
0.64394
0.53788
0.47727
0.40152
0.18182
0.28788
0.28788
0.71212
0.66667
0.63636
0.39394
0.15152
0.12879
0.030303
0.030303
0.030303
-0.05303
0
-0.075758
0.030303
0.12121
0.37879
0.35606
0.2197
0.11364
0.045455
0.098485
0.43939
0.50758
0.41667
-0.060606
-0.31818
-0.42424
-0.20455
-0.11364
-0.12879
-0.21212
-0.05303
-0.030303
0.17424
0.090909
-0.022727
0.15152
0.045455
0.48485
0.37121
0.31818
0.0075758
-0.15152
0.14394
0.17424
0.25
0.18939
0.15909
0.075758
-0.098485
-0.21212
0.015152
0.13636
0.26515
0.068182
0.12121
0.083333
0.14394
-0.030303
0.0075758
-0.022727
0.14394
0.12879
0.2803
0.37879
0.10606
-0.068182
-0.30303
-0.38636
-0.35606
-0.36364
-0.030303
-0.022727
0.083333
0.022727
-0.045455
0.0075758
0.13636
0.12121
0.098485
0.21212
0.098485
0.14394
-0.13636
0.05303
0.098485
-0.022727
0.015152
-0.25
-0.0075758
-0.25
-0.30303
-0.5
-0.56061
-0.46212
-0.11364
0.098485
0.11364
0.14394
-0.10606
-0.33333
-0.34091
-0.12121
-0.045455
0.083333
-0.015152
-0.05303
-0.10606
-0.18939
-0.31818
-0.060606
0.083333
0.19697
0.060606
-0.30303
-0.36364
-0.2197
0.060606
0.2803
0.43939
0.29545
0.090909
-0.12121
-0.33333
-0.41667
-0.43182
-0.17424
0.090909
0.13636
0.098485
0.090909
0.098485
0.19697
0.098485
0.037879
0.0075758
0.25
0.068182
0.0075758
-0.23485
-0.28788
-0.35606
-0.37121
-0.16667
0.12121
0.28788
0.55303
0.64394
0.49242
0.26515
0.41667
0.36364
0.44697
0.24242
0.25758
0.40152
0.47727
0.42424
0.40909
0.26515
0.27273
0.66667
0.69697
0.80303
0.70455
0.87121
0.93182
0.7197
0.34848
0.045455
0.18939
0.23485
0.098485
-0.18182
-0.16667
0.045455
0.20455
0.2803
0.34848
0.34091
0.22727
0.05303
0.068182
0
0.34091
0.43939
0.56818
0.40152
0.2803
0.26515
0.090909
0.14394
0.39394
0.37879
0.31061
-0.083333
-0.15152
-0.10606
0.13636
0.27273
0.18939
0.34091
0.13636
0.11364
0.0075758
-0.05303
0.10606
0.32576
0.31818
0.37879
0.29545
0.18939
0.16667
0.10606
0.31818
0.54545
0.60606
0.37121
0.022727
0.05303
0.2197
0.40909
0.40152
0.32576
0.18182
0.10606
0.068182
-0.030303
-0.13636
-0.068182
-0.16667
-0.18939
-0.20455
-0.19697
-0.037879
0.075758
0.33333
0.76515
0.7803
0.70455
0.48485
0.55303
0.62121
0.36364
0.10606
-0.17424
-0.30303
-0.26515
-0.060606
-0.015152
0
0.015152
-0.24242
0.05303
-0.045455
0.12879
0.060606
0.29545
0.22727
0.26515
0.098485
0.11364
0.25
0.15152
-0.060606
-0.34091
-0.45455
-0.23485
-0.090909
0.19697
0.10606
-0.015152
-0.090909
0.098485
0.098485
0.098485
0.17424
0.090909
0.2197
0.18182
0.32576
0.34091
0.38636
0.12879
0.18939
0.30303
0.47727
0.54545
0.31818
0.15152
-0.015152
-0.19697
-0.11364
0.068182
0.090909
0.40909
0.28788
0.38636
0.32576
0.29545
0.28788
0.22727
0.13636
0.10606
-0.037879
-0.05303
-0.12879
0.25
0.29545
0.2197
0.030303
-0.31818
-0.23485
0
0.21212
0.15152
0.15909
0.060606
-0.10606
0
0.090909
0.090909
0.25758
0
0
-0.10606
-0.12879
-0.090909
-0.18182
-0.28788
-0.30303
-0.27273
-0.25
0.030303
0.15152
0.25
0.022727
-0.30303
-0.41667
-0.35606
-0.2803
-0.34091
-0.4697
-0.45455
-0.34091
0.098485
0.16667
0.18939
0.29545
0.0075758
-0.15152
-0.2197
-0.25758
0.030303
0.18939
0.05303
-0.32576
-0.71212
-0.65152
-0.44697
-0.25758
-0.18939
-0.17424
0.098485
-0.045455
-0.05303
-0.29545
-0.38636
-0.25758
-0.19697
-0.20455
-0.037879
-0.11364
-0.27273
-0.28788
-0.25
-0.13636
0.098485
-0.17424
-0.18182
-0.075758
0.11364
0.30303
0.22727
0.05303
-0.11364
-0.0075758
0.17424
0.17424
0.38636
0.33333
0.25758
0.16667
0.25
0.2803
0.30303
0.14394
0.11364
-0.022727
-0.060606
0.10606
0.37879
0.64394
0.56818
0.43182
0.18182
0.30303
0.27273
0.23485
-0.022727
0.037879
0.18939
0.58333
0.66667
0.63636
0.54545
0.28788
0.17424
0.15909
0.030303
0.16667
0.26515
0.12121
-0.075758
-0.21212
-0.075758
0.068182
0.083333
0.20455
0.16667
0.48485
0.58333
0.59848
0.32576
0.098485
0.11364
0.38636
0.29545
0.25758
0.21212
0.17424
0.36364
0.62879
0.48485
0.28788
0.045455
-0.05303
0.10606
0.10606
0.40909
0.2803
0.10606
-0.083333
-0.18182
-0.05303
-0.20455
-0.15152
-0.31061
-0.37121
-0.17424
-0.22727
-0.31818
-0.51515
-0.21212
0.14394
0.5
0.40152
0.090909
-0.068182
0.24242
0.38636
0.42424
0.29545
0.38636
0.4697
0.21212
-0.12121
0
-0.045455
0.38636
0.12121
-0.030303
-0.098485
-0.0075758
0.31818
0.18939
0.05303
-0.10606
0
0.14394
0.47727
0.58333
0.34091
0.26515
-0.098485
-0.20455
-0.13636
0.14394
0.30303
0.43939
0.40909
0.43182
0.34848
0.15152
0.38636
0.59848
0.66667
0.56061
0.22727
0.14394
0.060606
0.44697
0.33333
0.42424
0.075758
0.12879
0.5
0.63636
0.89394
0.66667
0.53788
0.31818
0.13636
0.060606
0.075758
0.54545
0.55303
0.63636
0.51515
0.53788
0.57576
0.43939
0.12121
0.10606
0.29545
0.55303
0.62879
0.40152
0.53788
0.47727
0.84091
0.60606
0.58333
0.58333
0.62121
0.4697
0.44697
0.17424
0.13636
0.037879
0.34091
0.36364
0.47727
0.15909
0.037879
-0.10606
-0.045455
0
0.030303
0.15909
0.40152
0.48485
0.32576
0.20455
-0.015152
0.30303
0.69697
0.90152
0.87121
0.59848
0.47727
0.4697
0.28788
0.11364
-0.10606
-0.10606
-0.27273
-0.20455
-0.22727
-0.30303
0.083333
-0.0075758
0.13636
-0.25
-0.32576
-0.19697
-0.11364
-0.030303
-0.098485
-0.2197
-0.24242
-0.30303
-0.37879
-0.31061
-0.19697
0.29545
0.24242
0.31818
-0.0075758
-0.37879
-0.49242
-0.47727
-0.28788
-0.21212
-0.10606
-0.15909
0.098485
-0.11364
0.060606
0.26515
0.19697
0.21212
-0.083333
-0.34848
-0.25758
-0.037879
0.098485
0.2197
0.11364
0.30303
0.40909
0.40152
0.49242
0.37121
0.10606
-0.24242
-0.47727
-0.17424
-0.075758
0.18939
0.18182
0.015152
0.27273
0.2197
0.63636
0.41667
0.40909
0.18939
0.030303
-0.0075758
-0.0075758
0.10606
0.13636
0.2197
0.098485
-0.19697
-0.15152
0.25
0.40152
0.36364
0.25758
0.37121
0.51515
0.47727
0.35606
0.068182
0.39394
0.71212
0.76515
0.59848
0.21212
0.34091
0.40909
0.44697
0.41667
0.47727
0.52273
0.47727
0.24242
0.045455
0.22727
0.12879
0.030303
-0.12121
-0.18939
-0.17424
-0.26515
-0.12879
0.022727
0.25
0.28788
0.57576
0.74242
0.57576
0.39394
0.23485
0.21212
0.29545
0.24242
0.17424
0.2197
0.11364
0.022727
-0.05303
0.037879
0.20455
0.28788
0.39394
0.29545
0.29545
0.21212
0.36364
0.25
0.12879
-0.26515
-0.28788
-0.015152
0.18182
0.26515
0.47727
0.42424
0.2803
0.068182
-0.15909
-0.18182
-0.15152
0.16667
0.075758
0.015152
-0.26515
-0.27273
-0.037879
0.14394
0.16667
0.15152
0.37879
0.43939
0.46212
0.18939
0.31818
0.33333
0.42424
0.16667
0.29545
0.43939
0.62879
0.40152
-0.060606
-0.21212
-0.31818
-0.16667
-0.090909
-0.25758
-0.31061
-0.28788
-0.25758
0.05303
0.083333
0.26515
0.31818
0.083333
-0.075758
-0.37121
-0.36364
-0.17424
-0.14394
-0.11364
-0.12879
0.22727
0.71212
0.87121
0.83333
0.72727
0.44697
0.27273
0.045455
-0.11364
-0.060606
0.045455
0.16667
0.14394
0.15152
0.27273
0.12121
0.16667
0.15909
0.12121
0.13636
-0.05303
0
-0.05303
0.18182
0.15909
0.068182
-0.2197
-0.41667
-0.14394
-0.18939
-0.030303
-0.098485
-0.16667
-0.26515
-0.29545
-0.030303
0.17424
0.37879
0.27273
0.37879
0.70455
1
0.84091
0.24242
-0.060606
0.068182
0.18939
0.31818
0.2197
0.083333
0.045455
0.098485
0.40909
0.37879
0.69697
0.52273
0.51515
0.2803
0.12879
0.21212
0.30303
0.42424
0.45455
0.46212
0.33333
0.20455
0.18182
0.37879
0.46212
0.51515
0.42424
0.12121
0.12879
0.030303
-0.13636
-0.31061
-0.2197
-0.0075758
-0.022727
-0.083333
-0.0075758
-0.12879
-0.29545
-0.25
-0.060606
0.12121
0.05303
0
0.17424
0.20455
0.17424
-0.12121
0.045455
0
0.30303
-0.030303
-0.26515
-0.26515
-0.36364
-0.24242
-0.27273
-0.29545
-0.25758
-0.34848
-0.31818
-0.15152
0
0.35606
0.40909
0.5
0.40152
0.2197
0.030303
-0.16667
-0.11364
0.022727
0.045455
0.12879
0.25
0.27273
-0.090909
-0.19697
-0.34091
-0.29545
-0.25758
-0.083333
0
0.23485
0.4697
0.33333
0.20455
-0.060606
0.030303
0.12121
0.22727
0.13636
0.05303
0.05303
0.037879
0.10606
0.075758
0.060606
0
-0.015152
-0.037879
0.068182
0.25
0.38636
0.58333
0.77273
0.59848
0.2803
0.05303
0.022727
0.33333
0.59848
0.62879
0.56061
0.33333
0.26515
0.25
0.18182
0.2803
0.68182
0.59848
0.51515
0.19697
0.090909
0
0.17424
0.075758
0.13636
-0.098485
-0.12121
0.045455
0.030303
0.18939
0.083333
0.23485
0.12121
0.4697
0.40909
0.26515
0.18182
-0.0075758
0.098485
0.25
0.38636
0.59091
0.66667
0.44697
0.13636
-0.037879
0.083333
0.19697
0.14394
-0.2197
-0.045455
-0.068182
0.12121
-0.037879
0.15909
0.15909
0.29545
0.037879
-0.19697
-0.34848
-0.30303
0.22727
0.34848
0.40909
0.12121
0.12879
0.030303
0.090909
0.31818
0.10606
-0.0075758
-0.22727
-0.20455
0.030303
0.18182
0.083333
0.0075758
-0.14394
-0.083333
0.037879
-0.030303
0.060606
0.083333
0.18182
0.015152
0.098485
0.037879
0.05303
-0.0075758
0.15152
0.40909
0.46212
0.2803
-0.030303
-0.18939
-0.15152
-0.0075758
0.13636
0.25
0.16667
0
-0.098485
-0.068182
0.15152
0.39394
0.5303
0.38636
0.2197
-0.068182
0.090909
0.36364
0.36364
0.26515
0.13636
0.075758
0.29545
0.37879
0.5303
0.35606
0.14394
0.030303
0
0.075758
0.25
0.18939
0.10606
0.27273
0.81818
0.9697
0.70455
0.15152
-0.030303
0.22727
0.2197
0.21212
0.18939
0.20455
0.40152
0.23485
0.15152
-0.037879
-0.05303
-0.16667
-0.18939
-0.25
0.075758
0.075758
0.15909
0.2197
0.22727
0.46212
0.51515
0.47727
0.41667
0.28788
0.2197
0.15152
-0.068182
0.12879
0.18939
0.2197
0.05303
-0.030303
0.045455
0.022727
0.34091
0.23485
0.25
-0.090909
-0.29545
-0.30303
-0.21212
-0.20455
-0.28788
-0.31061
-0.083333
-0.11364
-0.12121
0.015152
0.090909
0.2197
-0.037879
-0.20455
-0.2197
-0.030303
0.0075758
0.083333
0.18939
0.37879
0.34848
0.50758
0.60606
0.78788
0.66667
0.42424
0.15909
0.10606
0.45455
0.54545
0.59091
0.52273
0.53788
0.37121
0.34848
0.40152
0.43939
0.56061
0.31061
0.34848
0.015152
0.10606
-0.075758
-0.15152
-0.045455
0.030303
0.23485
0.083333
0.25
-0.12879
-0.33333
-0.63636
-0.68182
-0.36364
-0.31061
-0.16667
-0.34091
-0.45455
-0.45455
-0.37121
-0.12879
-0.0075758
0.2803
0.060606
-0.27273
-0.56061
-0.49242
-0.2803
-0.15152
0
-0.10606
-0.23485
-0.20455
0.015152
0.18182
0.45455
0.45455
0.25758
0.22727
0.17424
0.21212
0.12879
-0.12879
0.12121
0.27273
0.31818
-0.0075758
-0.31061
-0.2803
0.060606
0.15152
0.13636
-0.19697
-0.037879
-0.037879
0.037879
-0.015152
-0.030303
0.030303
0.0075758
0.30303
0.31818
0.24242
0.0075758
-0.12879
0.068182
0.11364
0.24242
0.05303
0.24242
0.44697
0.45455
0.31061
-0.083333
-0.27273
-0.23485
-0.18939
-0.045455
0
0.12879
0.10606
0.25758
0.060606
-0.090909
-0.18939
-0.098485
-0.037879
-0.075758
0
-0.030303
-0.05303
-0.2197
-0.12879
-0.23485
0.068182
0.083333
0.20455
0.037879
-0.12121
-0.098485
0.10606
0.40152
0.42424
0.41667
0.37121
0.37121
0.44697
0.31061
0.20455
0.26515
0.4697
0.69697
0.51515
0.25
-0.0075758
0.15909
0.38636
0.55303
0.45455
0.43182
0.40152
0.36364
0.36364
0.39394
0.40909
0.24242
0.05303
-0.23485
-0.098485
0.16667
0.38636
0.24242
0.090909
-0.083333
-0.28788
-0.59091
-0.62121
-0.43182
-0.037879
0.12121
0.19697
0.31061
0.12121
0.015152
-0.18939
-0.2803
-0.25
-0.068182
-0.030303
0.40152
0.42424
0.50758
0.15152
0.083333
0.068182
0.045455
-0.037879
0.030303
0.14394
0.16667
0.12879
0.022727
-0.045455
-0.11364
-0.090909
0.14394
0.11364
0.51515
0.46212
0.56061
0.34091
0.15152
0.30303
0.34091
0.36364
0.21212
-0.068182
-0.18939
-0.10606
0.12879
0.15152
0.41667
0.20455
0.030303
-0.14394
-0.35606
-0.2197
-0.17424
0
0.13636
0.5
0.34848
0.5
0.12121
0.0075758
-0.075758
0
0.46212
0.42424
0.50758
0.25758
-0.022727
-0.15152
-0.12121
0.05303
0.05303
0.13636
0.14394
0.19697
0.21212
0.075758
-0.27273
-0.38636
-0.34848
-0.24242
-0.17424
-0.18182
0.30303
0.29545
0.36364
0.20455
0.037879
0.14394
0.037879
0
0.068182
0.26515
0.46212
0.51515
0.24242
0.022727
0.045455
0.29545
0.46212
0.53788
0.47727
0.31818
0.2197
0.18939
0
-0.037879
-0.015152
0
-0.090909
0.38636
0.30303
0.31061
0.19697
-0.0075758
0.12121
-0.0075758
-0.15152
-0.05303
0.060606
0.30303
0.30303
0.26515
0
-0.022727
-0.045455
-0.22727
-0.26515
-0.22727
-0.20455
-0.18939
-0.22727
-0.34091
-0.25
-0.21212
-0.098485
-0.037879
-0.060606
0.21212
0.037879
0.20455
-0.083333
0.0075758
-0.037879
0.030303
0.18939
0.19697
0.10606
0.022727
-0.030303
0.15152
0.26515
0.13636
-0.068182
-0.30303
-0.18182
0.39394
0.30303
0.61364
0.37879
0.52273
0.33333
0.060606
-0.098485
-0.26515
-0.18939
0.083333
0.25
0.31061
0.33333
0.57576
0.48485
0.49242
0.2197
0.26515
0.022727
-0.098485
-0.21212
-0.28788
-0.075758
0.12879
0.14394
0.045455
-0.13636
-0.11364
0.10606
0.18939
0.12879
-0.037879
-0.10606
0.022727
0.18182
0.21212
0.14394
0.12879
0.022727
-0.068182
0.075758
0.21212
0.41667
0.78788
0.94697
0.93939
0.70455
0.31061
0.16667
0.045455
0.037879
0
-0.068182
-0.037879
0.022727
-0.037879
-0.090909
-0.18182
0.022727
0.26515
0.25
0.29545
0.05303
0.022727
-0.0075758
0.022727
0.037879
0.11364
0.24242
0.45455
0.65909
0.59848
0.42424
0.20455
0.18939
0.22727
0.075758
-0.25758
-0.33333
-0.12879
0.12121
0.41667
0.56061
0.7803
0.62121
0.50758
0.15152
-0.098485
-0.037879
-0.10606
0.022727
0.2197
0.17424
0.39394
0.15152
0.18182
0.30303
0.65909
0.43939
0.25
-0.05303
0.068182
0.34848
0.65152
0.80303
0.70455
0.61364
0.37879
0.25758
0.14394
0.090909
-0.0075758
0.075758
0.23485
0.28788
0.14394
0.030303
0.15152
0.24242
0.31818
0.58333
0.5303
0.45455
0.40909
0.13636
0.37121
0.18939
0.10606
-0.060606
-0.090909
-0.05303
0.15909
0.25
0.28788
0.24242
0.11364
-0.10606
-0.060606
-0.090909
-0.05303
0.060606
0.52273
0.48485
0.28788
-0.31061
-0.51515
-0.47727
-0.34091
-0.13636
0.098485
0.12879
0.15152
0.090909
0.068182
0.28788
0.37121
0.40152
0.32576
0.47727
0.35606
0.27273
0.0075758
0.22727
0.22727
0.2197
-0.030303
-0.27273
-0.0075758
0.18182
0.25
0.10606
-0.068182
0.05303
0.20455
0.21212
0.36364
0.25
0.31818
0.075758
0.16667
0.15152
0.098485
0.31818
0.31818
0.24242
0.05303
-0.068182
0.090909
-0.030303
-0.20455
-0.0075758
-0.068182
0.075758
-0.11364
-0.25758
-0.16667
-0.075758
0.11364
0.075758
0.12879
0.075758
0.10606
0.29545
0.34848
0.59848
0.2803
0.43182
0.37121
0.35606
0.14394
0.2197
0.05303
0.030303
-0.12121
-0.13636
-0.0075758
-0.030303
-0.030303
-0.05303
0.20455
0.25
0.24242
0.090909
-0.022727
0.36364
0.43182
0.34848
0.098485
-0.12879
-0.10606
0.068182
0.060606
0.16667
0.045455
0.068182
0.083333
-0.0075758
0.18939
0.068182
0.36364
0.23485
0.30303
0.4697
0.37121
0.42424
0.43939
0.51515
0.78788
0.84848
0.7803
0.52273
0.34091
0.36364
0.45455
0.42424
0.40909
0.43939
0.56061
0.68182
0.49242
0.15152
-0.2197
-0.21212
0.022727
0.19697
0.13636
0.083333
0.075758
0.27273
0.30303
0.31061
0.0075758
-0.2197
-0.31818
-0.32576
-0.30303
-0.19697
-0.015152
-0.022727
-0.045455
-0.15152
0.098485
0.11364
0.28788
0.18939
-0.022727
-0.0075758
-0.10606
-0.10606
0.022727
0.037879
0.15909
-0.0075758
-0.12121
-0.25
-0.015152
0.022727
0.15152
0.030303
-0.11364
0.060606
0.045455
-0.030303
-0.022727
0.13636
0.21212
0.20455
0.098485
0.015152
0.030303
0.28788
0.2197
0.21212
-0.068182
-0.16667
-0.05303
0.060606
0.28788
0.24242
0.16667
0.030303
-0.045455
-0.11364
-0.15152
-0.26515
-0.16667
-0.12121
0.045455
-0.045455
0.19697
0.16667
0.49242
0.59848
0.50758
0.40152
0.33333
0.15152
0.068182
0.12879
0.36364
0.4697
0.35606
0.2197
0.30303
0.45455
0.52273
0.33333
0.15909
0.098485
0.43939
0.81061
0.62121
0.38636
0.098485
0.05303
0.068182
0.045455
-0.15909
0.14394
0.045455
0.2197
0.14394
0.2197
0.47727
0.43939
0.35606
0.17424
0.25
0.20455
-0.11364
-0.43182
-0.59091
-0.31061
-0.030303
0.30303
0.40909
0.28788
0.10606
0.022727
-0.15152
-0.21212
-0.34091
-0.39394
-0.34848
-0.27273
-0.25
-0.31061
-0.17424
-0.15909
-0.17424
-0.18182
-0.037879
0.11364
0.090909
0.16667
0.2197
0.75
0.68182
0.80303
0.34848
0.24242
0.27273
0.24242
0.19697
0.25
0.31818
0.5303
0.50758
0.43939
0.41667
0.45455
0.71212
0.81061
0.80303
0.54545
0.39394
0.43939
0.61364
0.96212
0.81818
0.51515
0.05303
-0.075758
0.060606
0.24242
0.18939
0.43182
0.40152
0.39394
0.083333
-0.17424
-0.25
0.015152
0.13636
0.083333
0.060606
-0.037879
-0.030303
-0.25
-0.49242
-0.40909
-0.10606
0.2803
0.48485
0.40152
0.23485
0.40152
0.50758
0.54545
0.59091
0.48485
0.37879
0.29545
0.12879
0.22727
0.0075758
-0.068182
0
-0.037879
0.05303
0.015152
0.15152
0.37121
0.53788
0.58333
0.61364
0.56818
0.53788
0.27273
0.27273
0.2197
0.46212
0.88636
0.71212
0.56061
0.18182
0.11364
0.22727
0.42424
0.44697
0.34091
0.40909
0.49242
0.38636
0.59848
0.4697
0.64394
0.5303
0.42424
0.33333
0.52273
0.62879
0.89394
0.81061
0.59091
0.61364
0.60606
0.63636
0.57576
0.63636
0.49242
0.45455
0.36364
0.64394
0.57576
0.52273
0.33333
0.0075758
0.030303
0.15909
0.083333
-0.022727
-0.022727
-0.24242
-0.18939
-0.045455
0.060606
0.19697
0.35606
0.66667
0.67424
0.45455
0.15152
-0.037879
-0.030303
0.022727
-0.11364
-0.16667
-0.29545
-0.15909
-0.022727
0.075758
0.060606
0.098485
0.33333
0.33333
0.26515
0.25758
0.10606
-0.0075758
-0.060606
-0.15909
-0.015152
0.13636
0.24242
0.35606
0.34091
0.2197
0.098485
-0.10606
-0.25
-0.060606
0.10606
0.43182
0.37121
0.30303
0.068182
-0.05303
0.060606
0.022727
0.12121
0.22727
0.25758
0.18939
0.18182
0.31818
0.33333
0.34091
0.55303
0.43939
0.39394
0.12121
0.098485
-0.030303
-0.045455
-0.29545
-0.29545
-0.14394
-0.05303
0
-0.12121
-0.12121
-0.060606
0.12121
0.2197
0.47727
0.43939
0.20455
0.17424
0.015152
0.15909
-0.015152
-0.17424
-0.18182
0.090909
0.10606
0.43182
0.53788
0.50758
0.37121
0.20455
0.2803
0.19697
0.15909
0.25758
0.090909
0.81061
0.94697
0.96212
0.72727
0.30303
0.22727
0.13636
0.15152
0.31061
0.63636
0.45455
0.25758
0.030303
-0.015152
0.31061
0.58333
0.54545
0.64394
0.49242
0.24242
-0.045455
-0.2197
-0.12121
-0.05303
0.16667
0.022727
-0.030303
0
0.015152
0.075758
-0.05303
-0.17424
-0.068182
0.17424
0.49242
0.69697
0.72727
0.18182
-0.060606
-0.31818
-0.11364
-0.083333
0.090909
-0.068182
-0.21212
-0.25758
-0.23485
-0.26515
-0.090909
0.0075758
0.090909
-0.075758
0.14394
0.11364
0.17424
0.12879
-0.045455
-0.098485
-0.083333
0.068182
0.28788
0.34091
0.19697
0.16667
0.030303
0.030303
-0.05303
0.12879
0.0075758
-0.083333
-0.33333
-0.37879
-0.40909
-0.22727
-0.21212
-0.34848
-0.61364
-0.68939
-0.62121
-0.31061
0.32576
0.36364
0.37121
0.21212
-0.10606
0.098485
-0.19697
-0.37121
-0.44697
-0.31818
-0.16667
-0.060606
-0.25
-0.24242
-0.18182
-0.12121
-0.26515
-0.35606
-0.42424
0.05303
0.18182
0.33333
0.075758
-0.26515
-0.35606
-0.15152
0.015152
0.16667
0.15909
0.098485
0.015152
-0.037879
0.28788
0.083333
-0.015152
-0.12121
-0.18182
-0.2803
-0.40909
-0.24242
-0.12121
-0.098485
-0.13636
-0.25
-0.25
-0.23485
-0.045455
-0.12879
-0.0075758
0.05303
0.068182
0.14394
0.34848
0.16667
-0.13636
-0.54545
-0.92424
-0.91667
-0.86364
-0.73485
-0.31818
-0.19697
-0.068182
-0.27273
-0.24242
-0.12121
0.037879
0.045455
-0.21212
0.05303
0.11364
0.13636
0.24242
0.23485
0.26515
0.14394
0.0075758
0.35606
0.23485
0.13636
-0.098485
-0.2197
-0.20455
-0.12121
0.12879
0.19697
0.37121
0.5
0.25758
0.068182
-0.083333
-0.18182
-0.098485
0.022727
0.12121
0.045455
-0.16667
-0.12121
-0.098485
0
-0.037879
-0.10606
-0.098485
-0.29545
-0.39394
-0.34091
-0.46212
-0.4697
-0.48485
-0.58333
-0.015152
0.31061
0.47727
0.22727
0.15909
0.2197
0.40152
0.25
0.10606
-0.16667
-0.30303
-0.16667
-0.068182
0.12879
0.25758
0.43939
0.37879
0.62121
0.19697
-0.0075758
-0.18182
-0.068182
0.15909
0.20455
0.12121
0.030303
0.0075758
-0.060606
-0.18182
-0.14394
-0.20455
-0.12121
0.090909
0.15152
-0.030303
-0.35606
-0.43939
-0.26515
-0.36364
-0.50758
-0.40909
-0.18939
0.090909
-0.030303
-0.20455
-0.12121
-0.19697
-0.14394
-0.40909
-0.56061
-0.5
-0.4697
-0.42424
-0.17424
-0.05303
-0.12879
-0.33333
-0.41667
-0.2197
0.29545
0.4697
0.31061
-0.11364
-0.19697
-0.15909
0.037879
-0.26515
-0.37879
-0.20455
-0.2197
-0.12879
-0.33333
-0.28788
-0.2197
0.0075758
0.068182
-0.075758
-0.13636
-0.015152
0.33333
0.65909
0.55303
0.49242
0.21212
0.12879
-0.15909
-0.21212
-0.10606
0.14394
0.23485
0.25758
0.44697
0.33333
0.33333
0.10606
0.19697
0.5
0.56061
0.48485
0.26515
0.14394
0.22727
