-0.070336
-0.10907
-0.14781
-0.19674
-0.24159
-0.2946
-0.32518
-0.34149
-0.31702
-0.27625
-0.22732
-0.18247
-0.15189
-0.1315
-0.1682
-0.31498
-0.55963
-0.77574
-0.88379
-0.83078
-0.70234
-0.51478
-0.36188
-0.21305
-0.072375
0.058104
0.11111
0.14781
0.15189
0.14985
0.14781
0.15392
0.18654
0.21305
0.23751
0.25586
0.26809
0.30275
0.32926
0.31702
0.28236
0.20285
0.13354
0.041794
-0.027523
-0.074414
-0.078491
-0.066259
-0.035678
-0.0091743
-0.0010194
-0.0071356
-0.011213
-0.029562
-0.043833
-0.068298
-0.08053
-0.094801
-0.11315
-0.13354
-0.15596
-0.20082
-0.24975
-0.30071
-0.33945
-0.37003
-0.37003
-0.35984
-0.31498
-0.26402
-0.20897
-0.16616
-0.14781
-0.17227
-0.25994
-0.44954
-0.66972
-0.8104
-0.85933
-0.76758
-0.62691
-0.47604
-0.35372
-0.22324
-0.082569
0.017329
0.088685
0.10907
0.060143
0.045872
-0.021407
-0.019368
-0.037717
-0.0050968
-0.0050968
0.04791
0.10092
0.13965
0.1682
0.158
0.14577
0.084608
0.035678
-0.019368
-0.070336
-0.082569
-0.054027
-0.029562
-0.0050968
-0.0071356
-0.011213
-0.029562
-0.058104
-0.082569
-0.11111
-0.12946
-0.13965
-0.158
-0.18451
-0.20082
-0.22936
-0.26198
-0.29867
-0.34149
-0.38634
-0.41692
-0.41896
-0.41488
-0.36799
-0.30479
-0.2314
-0.18043
-0.14781
-0.16004
-0.2314
-0.38022
-0.59429
-0.74108
-0.82467
-0.80224
-0.70234
-0.59021
-0.44954
-0.34353
-0.23547
-0.16616
-0.12538
-0.082569
-0.060143
-0.051988
-0.035678
-0.0010194
0.035678
0.066259
0.10092
0.12334
0.15596
0.17227
0.16208
0.12538
0.070336
-0.035678
-0.15596
-0.27421
-0.31702
-0.28848
-0.2314
-0.17431
-0.12538
-0.074414
-0.051988
-0.037717
-0.035678
-0.033639
-0.021407
-0.027523
-0.039755
-0.066259
-0.086646
-0.10296
-0.11927
-0.14577
-0.16208
-0.19062
-0.21916
-0.25178
-0.2844
-0.31498
-0.32926
-0.34353
-0.35984
-0.37207
-0.37615
-0.37615
-0.38838
-0.3945
-0.3945
-0.40469
-0.40469
-0.39246
-0.3843
-0.37207
-0.36391
-0.34353
-0.32926
-0.32722
-0.32314
-0.31906
-0.31702
-0.29664
-0.27421
-0.24567
-0.20285
-0.16004
-0.10499
-0.054027
-0.0071356
0.025484
0.035678
0.011213
-0.12334
-0.32518
-0.58206
-0.77574
-0.80632
-0.76758
-0.64526
-0.50663
-0.37003
-0.2314
-0.10296
0.0091743
0.088685
0.13558
0.18654
0.24567
0.28236
0.2844
0.26809
0.2314
0.19062
0.14577
0.10499
0.082569
0.098879
0.13354
0.17023
0.20693
0.25178
0.27829
0.26606
0.23344
0.12946
0.021407
-0.074414
-0.11723
-0.088685
-0.027523
0.037717
0.086646
0.11723
0.16616
0.18654
0.21305
0.22324
0.24975
0.2212
0.16616
0.027523
-0.11723
-0.24159
-0.30683
-0.27829
-0.20489
-0.12334
-0.070336
-0.021407
0.023445
0.070336
0.098879
0.092762
0.015291
-0.076453
-0.15189
-0.21305
-0.21101
-0.18654
-0.15596
-0.13558
-0.12334
-0.11927
-0.11927
-0.13354
-0.14577
-0.158
-0.17839
-0.18247
-0.18858
-0.20693
-0.21713
-0.2314
-0.25382
-0.2946
-0.33333
-0.39042
-0.44546
-0.46789
-0.47197
-0.421
-0.33945
-0.25586
-0.21713
-0.21916
-0.22324
-0.27625
-0.42508
-0.6738
-0.88991
-0.97554
-0.93476
-0.8002
-0.64322
-0.46585
-0.31295
-0.16208
-0.066259
0.0030581
0.043833
0.086646
0.10703
0.11927
0.12946
0.14169
0.14577
0.16616
0.17431
0.16616
0.16616
0.17431
0.1315
0.076453
-0.076453
-0.22324
-0.3476
-0.39042
-0.34353
-0.24771
-0.13761
-0.058104
0.0071356
0.029562
0.082569
0.11111
0.14781
0.084608
0.017329
-0.078491
-0.15189
-0.19266
-0.17635
-0.12538
-0.078491
-0.027523
0.029562
0.082569
0.090724
0.08053
0.06422
0.068298
0.054027
-0.029562
-0.21509
-0.36799
-0.46789
-0.45566
-0.37819
-0.28644
-0.20285
-0.1213
-0.06422
-0.017329
0.0050968
0.029562
0.039755
0.0071356
-0.072375
-0.17839
-0.27421
-0.32518
-0.31091
-0.24771
-0.21305
-0.18858
-0.18451
-0.18043
-0.17023
-0.17431
-0.18451
-0.20285
-0.22324
-0.24363
-0.25382
-0.2579
-0.26809
-0.2844
-0.30887
-0.34353
-0.35984
-0.35372
-0.34149
-0.3211
-0.25178
-0.19062
-0.16208
-0.16004
-0.17839
-0.18654
-0.21713
-0.34353
-0.54332
-0.68603
-0.72885
-0.68603
-0.61468
-0.52905
-0.43119
-0.3211
-0.23344
-0.16208
-0.11315
-0.088685
-0.070336
-0.074414
-0.058104
-0.029562
0.013252
0.068298
0.086646
0.094801
0.082569
0.094801
0.072375
0.021407
-0.11111
-0.28848
-0.40061
-0.43527
-0.39653
-0.31498
-0.23751
-0.16616
-0.11111
-0.056065
-0.0050968
0.029562
0.04791
0.058104
0.04791
0.029562
0.0050968
-0.015291
-0.051988
-0.082569
-0.11315
-0.14373
-0.18247
-0.21509
-0.24975
-0.28644
-0.31702
-0.34149
-0.36799
-0.37615
-0.38838
-0.3945
-0.41081
-0.421
-0.42915
-0.43527
-0.4475
-0.44546
-0.43731
-0.421
-0.40061
-0.38226
-0.36188
-0.36188
-0.35576
-0.3578
-0.35984
-0.35372
-0.34149
-0.32722
-0.30887
-0.27421
-0.23547
-0.16616
-0.11723
-0.041794
0.0050968
0.025484
0.023445
-0.054027
-0.20693
-0.43323
-0.67584
-0.83078
-0.85729
-0.76758
-0.61264
-0.46177
-0.30887
-0.13761
0.0091743
0.13558
0.24363
0.3211
0.36391
0.39857
0.46993
0.52701
0.5474
0.51886
0.42915
0.3476
0.27217
0.21713
0.21509
0.25178
0.26402
0.26402
0.2579
0.2946
0.31498
0.28033
0.1682
0.045872
-0.043833
-0.074414
-0.041794
0.017329
0.068298
0.10092
0.1213
0.13558
0.13354
0.1315
0.11927
0.088685
0.066259
0.041794
0.051988
0.078491
0.068298
0.035678
-0.037717
-0.04791
-0.078491
-0.16412
-0.34149
-0.52497
-0.64322
-0.66565
-0.61876
-0.53721
-0.45566
-0.35984
-0.28236
-0.23344
-0.19674
-0.1682
-0.14985
-0.158
-0.15596
-0.13965
-0.12334
-0.11315
-0.11111
-0.10907
-0.12334
-0.16004
-0.20285
-0.2579
-0.29867
-0.32314
-0.33537
-0.33945
-0.34149
-0.32926
-0.33537
-0.34149
-0.36391
-0.37819
-0.39653
-0.40061
-0.39653
-0.38838
-0.37207
-0.3578
-0.33333
-0.32722
-0.30683
-0.30275
-0.30275
-0.31091
-0.31906
-0.33129
-0.33741
-0.35168
-0.36391
-0.37615
-0.39042
-0.38838
-0.38226
-0.35984
-0.34964
-0.33333
-0.33333
-0.33537
-0.3211
-0.3211
-0.31498
-0.30683
-0.29052
-0.2844
-0.2844
-0.28033
-0.27013
-0.27013
-0.26606
-0.25382
-0.24159
-0.21713
-0.19266
-0.18043
-0.18247
-0.17227
-0.16208
-0.16208
-0.17023
-0.16412
-0.17227
-0.17431
-0.18247
-0.1682
-0.16412
-0.14985
-0.14781
-0.13965
-0.14577
-0.14781
-0.14373
-0.14985
-0.14373
-0.13558
-0.13354
-0.12538
-0.070336
0.08053
0.20693
0.3211
0.32722
0.30071
0.19266
-0.025484
-0.31498
-0.61264
-0.72069
-0.68603
-0.54536
-0.41692
-0.28236
-0.13558
0.0050968
0.12742
0.22324
0.29867
0.37207
0.43527
0.46381
0.45973
0.4475
0.43731
0.421
0.41488
0.41896
0.40673
0.38226
0.37411
0.37819
0.34964
0.30275
0.19266
0.11927
0.049949
0.049949
0.088685
0.16208
0.25382
0.28848
0.30479
0.26606
0.28848
0.28236
0.2212
0.082569
-0.072375
-0.17023
-0.19062
-0.158
-0.074414
0.0030581
0.13761
0.22528
0.23955
0.19878
0.1315
0.13558
0.11927
0.021407
-0.12742
-0.2579
-0.32314
-0.30479
-0.2314
-0.10092
-0.045872
-0.017329
-0.045872
-0.043833
0.015291
0.04791
-0.011213
-0.10907
-0.19266
-0.23344
-0.2212
-0.18451
-0.14985
-0.12742
-0.10296
-0.076453
-0.06422
-0.060143
-0.058104
-0.074414
-0.10703
-0.14985
-0.19266
-0.23547
-0.26606
-0.26809
-0.26606
-0.17839
-0.12334
-0.074414
-0.12334
-0.18247
-0.1947
-0.22528
-0.37615
-0.59225
-0.76962
-0.84098
-0.75331
-0.58818
-0.41896
-0.27625
-0.17227
-0.070336
0.0010194
0.041794
-0.011213
-0.070336
-0.13761
-0.16004
-0.15189
-0.14373
-0.037717
0.035678
0.10499
0.076453
0.054027
0.058104
0.049949
-0.0010194
-0.10907
-0.20285
-0.27013
-0.26198
-0.22324
-0.17431
-0.13965
-0.11519
-0.10092
-0.10907
-0.12538
-0.14373
-0.16412
-0.17635
-0.18858
-0.19878
-0.22732
-0.25994
-0.31702
-0.37615
-0.42712
-0.43323
-0.43731
-0.30887
-0.18247
-0.082569
-0.09684
-0.18247
-0.21916
-0.27217
-0.40061
-0.60449
-0.79409
-0.88175
-0.85117
-0.737
-0.6106
-0.46177
-0.32926
-0.20897
-0.10907
-0.013252
0.029562
0.0316
0.0010194
-0.0071356
-0.015291
-0.0050968
-0.0050968
0.090724
0.16004
0.20489
0.17227
0.11723
0.078491
0.056065
-0.043833
-0.1947
-0.31702
-0.36799
-0.34149
-0.25994
-0.18247
-0.13354
-0.09684
-0.062181
-0.0316
-0.021407
-0.025484
-0.041794
-0.070336
-0.11111
-0.14781
-0.17431
-0.19062
-0.20897
-0.22528
-0.26402
-0.31702
-0.34964
-0.36595
-0.31091
-0.16412
-0.072375
-0.017329
-0.10092
-0.15189
-0.17635
-0.25178
-0.44139
-0.69215
-0.87564
-0.91233
-0.82671
-0.67992
-0.54944
-0.40877
-0.27421
-0.15392
-0.06422
-0.0071356
0.025484
0.043833
0.056065
0.051988
0.041794
0.019368
-0.0010194
-0.025484
-0.06422
-0.09684
-0.12742
-0.16208
-0.22936
-0.27625
-0.27625
-0.26198
-0.098879
0.0316
0.12742
0.09684
-0.015291
-0.066259
-0.13354
-0.2579
-0.48828
-0.71662
-0.87156
-0.85729
-0.76962
-0.63914
-0.50663
-0.37819
-0.25586
-0.15596
-0.06422
-0.025484
-0.0071356
-0.0050968
0.0050968
0.0071356
0.0050968
0.0030581
-0.019368
-0.043833
-0.086646
-0.11315
-0.14781
-0.18247
-0.20693
-0.23344
-0.26402
-0.2844
-0.29867
-0.3211
-0.35372
-0.38022
-0.42304
-0.41692
-0.3945
-0.21101
-0.062181
0.08053
0.066259
-0.023445
-0.070336
-0.13761
-0.26809
-0.50663
-0.72681
-0.82263
-0.78186
-0.68603
-0.56983
-0.45566
-0.34353
-0.22528
-0.11723
-0.019368
0.058104
0.1213
0.16412
0.18043
0.19266
0.18858
0.18451
0.16208
0.15392
0.13965
0.11519
0.088685
0.062181
0.043833
0.011213
-0.017329
-0.060143
-0.10907
-0.15596
-0.19266
-0.22528
-0.24771
-0.2579
-0.25178
-0.25178
-0.27421
-0.28644
-0.30071
-0.24363
-0.025484
0.11723
0.25586
0.19674
0.10499
0.027523
-0.10703
-0.32926
-0.61672
-0.85117
-0.88787
-0.8002
-0.64322
-0.50255
-0.3578
-0.19878
-0.051988
0.094801
0.2212
0.30887
0.39857
0.47808
0.51478
0.50255
0.46585
0.44546
0.41081
0.39857
0.36799
0.3476
0.31906
0.2946
0.31702
0.36391
0.37615
0.34964
0.30071
0.26606
0.23751
0.12946
-0.019368
-0.158
-0.2314
-0.24159
-0.2212
-0.16412
-0.098879
-0.0316
0.11111
0.22528
0.30887
0.28644
0.24567
0.21509
0.19674
0.088685
-0.066259
-0.27217
-0.38838
-0.40877
-0.3476
-0.25382
-0.17635
-0.058104
0.084608
0.158
0.16616
0.09684
0.056065
0.082569
0.088685
-0.0071356
-0.13558
-0.23751
-0.28236
-0.27829
-0.24567
-0.20897
-0.158
-0.056065
0.051988
0.088685
0.060143
0.0030581
0.029562
0.070336
0.054027
-0.060143
-0.21101
-0.34149
-0.3843
-0.36595
-0.31498
-0.27217
-0.23547
-0.21101
-0.19062
-0.16412
-0.14169
-0.13761
-0.14373
-0.14985
-0.158
-0.17023
-0.19266
-0.21916
-0.2579
-0.2844
-0.30683
-0.34149
-0.36391
-0.39653
-0.421
-0.45362
-0.47401
-0.48012
-0.48216
-0.47808
-0.47808
-0.47401
-0.48012
-0.46585
-0.44954
-0.43731
-0.42508
-0.40673
-0.39042
-0.38226
-0.3843
-0.38226
-0.37819
-0.35984
-0.33537
-0.32518
-0.31702
-0.28644
-0.24975
-0.16208
-0.04791
0.021407
0.058104
-0.0091743
-0.082569
-0.17023
-0.38022
-0.65953
-0.91845
-1
-0.91641
-0.77778
-0.64118
-0.51274
-0.33945
-0.15189
0.021407
0.12946
0.19878
0.22936
0.23344
0.23547
0.21713
0.20489
0.18247
0.17431
0.16412
0.14373
0.11315
0.08053
0.051988
0.023445
0.015291
-0.0010194
-0.013252
-0.029562
-0.049949
-0.08053
-0.13558
-0.18043
-0.2314
-0.28236
-0.31091
-0.32518
-0.33945
-0.34557
-0.36391
-0.36595
-0.37207
-0.37615
-0.37411
-0.37819
-0.38022
-0.38226
-0.39246
-0.40673
-0.41081
-0.3945
-0.37003
-0.33537
-0.30071
-0.27013
-0.22732
-0.18043
-0.12334
-0.0071356
0.043833
0.1213
0.084608
0.025484
-0.049949
-0.21916
-0.48828
-0.7472
-0.85525
-0.77982
-0.64118
-0.51478
-0.42304
-0.2946
-0.12334
0.033639
0.16208
0.23955
0.29052
0.32518
0.33741
0.33741
0.32926
0.32314
0.31091
0.3476
0.3211
0.27013
0.18451
0.13354
0.14985
0.1315
0.04791
-0.11723
-0.28033
-0.34353
-0.29867
-0.18858
-0.058104
0.068298
0.11519
0.09684
0.072375
0.11927
0.18247
0.18654
0.11927
0.021407
-0.043833
-0.051988
-0.023445
0.04791
0.15596
0.21305
0.21509
0.13761
0.11315
0.14373
0.15596
0.078491
-0.060143
-0.18451
-0.23955
-0.22324
-0.17431
-0.1315
-0.092762
-0.088685
-0.088685
-0.11111
-0.1213
-0.14781
-0.17635
-0.20082
-0.21713
-0.22528
-0.24567
-0.24975
-0.26198
-0.29664
-0.30887
-0.31295
-0.31295
-0.30887
-0.30479
-0.29867
-0.29256
-0.29256
-0.30683
-0.32722
-0.35372
-0.36391
-0.38634
-0.40061
-0.41488
-0.43119
-0.44954
-0.46789
-0.46585
-0.45973
-0.44343
-0.42915
-0.39246
-0.36391
-0.33537
-0.29867
-0.25586
-0.21713
-0.1213
-0.062181
0.0091743
0.0091743
-0.017329
-0.072375
-0.22732
-0.48828
-0.75127
-0.9103
-0.89602
-0.77778
-0.65341
-0.56167
-0.43731
-0.27829
-0.10499
0.043833
0.16412
0.23751
0.27625
0.28236
0.26606
0.22936
0.20897
0.20285
0.22936
0.21101
0.17023
0.098879
0.056065
0.084608
0.074414
0.0091743
-0.14781
-0.27217
-0.30887
-0.27625
-0.20897
-0.14781
-0.092762
-0.049949
-0.011213
0.0091743
0.0071356
0.0030581
-0.011213
-0.019368
-0.037717
-0.049949
-0.082569
-0.11723
-0.15392
-0.17023
-0.18451
-0.19266
-0.20489
-0.23344
-0.27013
-0.31091
-0.33945
-0.36188
-0.37819
-0.38634
-0.41081
-0.43935
-0.46585
-0.47197
-0.4842
-0.48216
-0.48828
-0.48624
-0.48216
-0.4842
-0.46789
-0.4577
-0.41896
-0.38226
-0.34964
-0.30275
-0.27421
-0.18858
-0.10092
-0.056065
-0.0050968
-0.04791
-0.082569
-0.14781
-0.30479
-0.56371
-0.76555
-0.81448
-0.73089
-0.60652
-0.53721
-0.47401
-0.3578
-0.18858
-0.0050968
0.15189
0.23955
0.29052
0.32722
0.33945
0.34557
0.35576
0.36391
0.38838
0.41896
0.40469
0.3476
0.2579
0.20285
0.19878
0.13354
0.037717
-0.13965
-0.27013
-0.31906
-0.28848
-0.22324
-0.15596
-0.082569
-0.0316
0.015291
0.039755
0.072375
0.088685
0.098879
0.09684
0.074414
0.056065
0.039755
0.039755
0.027523
0.019368
0.0050968
-0.019368
-0.056065
-0.11111
-0.15392
-0.20082
-0.23344
-0.2579
-0.2844
-0.30683
-0.33945
-0.35576
-0.38022
-0.39653
-0.41692
-0.44139
-0.45973
-0.4577
-0.44139
-0.43119
-0.41896
-0.40877
-0.39042
-0.36799
-0.32926
-0.29052
-0.24975
-0.22528
-0.158
-0.037717
0.011213
0.076453
0.011213
-0.062181
-0.12334
-0.2579
-0.51274
-0.79205
-0.93272
-0.88175
-0.70438
-0.5841
-0.50663
-0.41692
-0.25994
-0.092762
0.027523
0.074414
0.10499
0.14985
0.17431
0.19878
0.24771
0.30275
0.3211
0.2946
0.25586
0.2579
0.30071
0.31091
0.22528
0.072375
-0.086646
-0.17431
-0.1947
-0.1682
-0.10703
-0.037717
0.015291
0.049949
0.070336
0.06422
0.060143
0.054027
0.041794
0.027523
-0.0030581
-0.0071356
-0.037717
-0.054027
-0.072375
-0.10092
-0.12742
-0.15392
-0.18858
-0.2212
-0.24771
-0.26809
-0.26809
-0.28848
-0.30479
-0.34149
-0.37411
-0.40061
-0.41284
-0.41896
-0.41896
-0.41692
-0.40673
-0.41081
-0.40469
-0.39653
-0.40061
-0.39042
-0.38838
-0.38838
-0.37411
-0.36188
-0.32926
-0.30683
-0.27421
-0.21713
-0.11723
-0.10092
-0.074414
-0.11723
-0.13965
-0.16616
-0.28033
-0.55148
-0.78389
-0.87971
-0.81244
-0.67176
-0.57798
-0.47604
-0.33129
-0.15189
0.0030581
0.11723
0.18247
0.23751
0.27625
0.30071
0.31091
0.31091
0.3476
0.33741
0.28236
0.19266
0.14577
0.1947
0.28644
0.26402
0.13354
-0.084608
-0.2314
-0.27421
-0.24363
-0.13965
-0.023445
0.043833
0.062181
0.035678
0.025484
0.078491
0.14781
0.14577
0.058104
-0.062181
-0.13761
-0.13354
-0.076453
0.043833
0.11723
0.12946
0.070336
0.013252
0.025484
0.10499
0.14781
0.092762
-0.0316
-0.14169
-0.17635
-0.15189
-0.13558
-0.10296
-0.078491
-0.049949
-0.029562
-0.0071356
-0.0050968
-0.0010194
0.0071356
-0.0050968
-0.015291
-0.043833
-0.054027
-0.082569
-0.092762
-0.10703
-0.12946
-0.16208
-0.1947
-0.23955
-0.27625
-0.30887
-0.33537
-0.35168
-0.36188
-0.36391
-0.3578
-0.37207
-0.37819
-0.3843
-0.38838
-0.40061
-0.39857
-0.39246
-0.38226
-0.37003
-0.36188
-0.3476
-0.33741
-0.32314
-0.31906
-0.29664
-0.2579
-0.21101
-0.16004
-0.11315
-0.043833
0.04791
0.049949
0.017329
-0.094801
-0.17227
-0.23751
-0.34964
-0.60041
-0.81244
-0.89195
-0.81244
-0.71662
-0.66972
-0.60652
-0.47401
-0.28848
-0.14577
-0.037717
0.033639
0.084608
0.11519
0.1213
0.11927
0.11927
0.13558
0.20285
0.22732
0.22732
0.158
0.098879
0.12946
0.16412
0.13354
-0.011213
-0.19266
-0.3211
-0.34557
-0.30071
-0.21101
-0.10092
-0.039755
-0.023445
-0.04791
-0.041794
0.023445
0.082569
0.066259
-0.0030581
-0.086646
-0.12334
-0.11519
-0.070336
0.025484
0.10092
0.10703
0.062181
-0.011213
-0.0091743
0.070336
0.094801
0.033639
-0.08053
-0.18858
-0.21916
-0.20897
-0.16412
-0.11927
-0.082569
-0.054027
-0.039755
-0.035678
-0.04791
-0.049949
-0.060143
-0.088685
-0.11927
-0.14577
-0.16004
-0.17635
-0.1947
-0.21713
-0.23751
-0.25382
-0.26809
-0.2946
-0.30683
-0.31498
-0.33741
-0.3578
-0.37615
-0.38634
-0.39857
-0.38838
-0.37411
-0.37207
-0.37615
-0.38226
-0.39042
-0.39857
-0.40061
-0.38634
-0.38022
-0.38634
-0.37819
-0.38226
-0.37615
-0.37411
-0.35576
-0.33537
-0.31498
-0.29256
-0.25586
-0.20693
-0.16004
-0.10703
-0.082569
0.025484
0.11111
0.15189
0.09684
-0.045872
-0.12946
-0.20082
-0.34964
-0.55556
-0.70846
-0.75127
-0.684
-0.63507
-0.58614
-0.46789
-0.27421
-0.084608
0.058104
0.1682
0.25178
0.30683
0.32518
0.3476
0.36188
0.421
0.47197
0.44954
0.37207
0.26809
0.23751
0.26809
0.21713
0.092762
-0.084608
-0.23547
-0.30071
-0.2844
-0.21916
-0.10703
0.015291
0.094801
0.084608
0.027523
-0.0091743
0.039755
0.092762
0.09684
0.04791
-0.0316
-0.06422
-0.072375
-0.04791
0.035678
0.13558
0.17431
0.12538
0.043833
0.0030581
0.041794
0.043833
-0.023445
-0.13354
-0.2314
-0.26809
-0.24771
-0.20693
-0.15596
-0.11519
-0.084608
-0.06422
-0.068298
-0.070336
-0.088685
-0.11111
-0.12946
-0.15189
-0.16616
-0.18043
-0.19062
-0.20489
-0.22732
-0.23344
-0.24567
-0.27217
-0.29867
-0.32518
-0.3578
-0.38226
-0.40061
-0.42304
-0.43527
-0.45362
-0.45158
-0.46177
-0.45973
-0.4475
-0.43323
-0.42712
-0.42712
-0.43527
-0.45362
-0.45158
-0.4475
-0.43323
-0.421
-0.41081
-0.39857
-0.39246
-0.39246
-0.3843
-0.37411
-0.36595
-0.36188
-0.35576
-0.35372
-0.31498
-0.27421
-0.2212
-0.16004
-0.084608
0.076453
0.11723
0.11723
-0.025484
-0.1315
-0.20082
-0.28848
-0.50051
-0.68603
-0.80632
-0.80428
-0.75535
-0.70031
-0.57594
-0.38634
-0.1947
-0.039755
0.08053
0.158
0.21305
0.26402
0.3476
0.40265
0.37003
0.27829
0.19674
0.19266
0.24771
0.21101
0.098879
-0.037717
-0.11723
-0.12742
-0.084608
-0.023445
0.0316
0.051988
0.066259
0.076453
0.088685
0.10092
0.094801
0.088685
0.062181
0.043833
0.033639
0.011213
0.0050968
-0.0091743
-0.033639
-0.068298
-0.10907
-0.15392
-0.19878
-0.20693
-0.20082
-0.12742
-0.058104
-0.076453
-0.14781
-0.31906
-0.35984
-0.3476
-0.35576
-0.49235
-0.684
-0.78797
-0.77982
-0.74516
-0.73496
-0.70234
-0.59225
-0.36799
-0.15392
0.0030581
0.10499
0.17023
0.19878
0.19062
0.18043
0.16004
0.14373
0.13354
0.13761
0.15189
0.15596
0.18858
0.26809
0.30887
0.26809
0.158
0.051988
0.023445
-0.023445
-0.14781
-0.32314
-0.44343
-0.47604
-0.44954
-0.37411
-0.22528
-0.06422
-0.019368
-0.06422
-0.13354
-0.12946
-0.033639
0.0030581
-0.029562
-0.10296
-0.1682
-0.18654
-0.19674
-0.1682
-0.13558
-0.10907
-0.10296
-0.10703
-0.10296
-0.11315
-0.11315
-0.11315
-0.12334
-0.13354
-0.14985
-0.16616
-0.19674
-0.2212
-0.24975
-0.27217
-0.2946
-0.31702
-0.34353
-0.37819
-0.40673
-0.42508
-0.44343
-0.45362
-0.46381
-0.48012
-0.49032
-0.49235
-0.48216
-0.47808
-0.47604
-0.47197
-0.48012
-0.49643
-0.50051
-0.49847
-0.48828
-0.48828
-0.4842
-0.4842
-0.48624
-0.47604
-0.45566
-0.43527
-0.41692
-0.40469
-0.3945
-0.40061
-0.40877
-0.40469
-0.41692
-0.41284
-0.39857
-0.37207
-0.32722
-0.25994
-0.19674
-0.13965
-0.088685
0.09684
0.19878
0.23344
0.084608
-0.076453
-0.15392
-0.1947
-0.30683
-0.48624
-0.6738
-0.74516
-0.68807
-0.56371
-0.3945
-0.21916
-0.08053
0.0316
0.14985
0.28236
0.41896
0.43527
0.38226
0.29867
0.29664
0.36595
0.3843
0.31295
0.20489
0.10907
0.062181
0.062181
0.11315
0.19062
0.31498
0.38022
0.35168
0.24771
0.16412
0.20897
0.27013
0.24159
0.11519
-0.045872
-0.15392
-0.19674
-0.14781
-0.062181
0.0050968
0.043833
0.088685
0.20693
0.27217
0.22936
0.11927
0.04791
0.11927
0.18858
0.13761
-0.015291
-0.158
-0.2314
-0.24771
-0.22324
-0.18451
-0.11723
0.035678
0.19062
0.22528
0.12538
0.0030581
-0.017329
0.056065
0.054027
-0.035678
-0.18043
-0.28644
-0.30683
-0.27013
-0.2212
-0.17635
-0.13761
-0.098879
-0.070336
-0.045872
-0.037717
-0.037717
-0.041794
-0.043833
-0.060143
-0.084608
-0.11315
-0.14577
-0.18247
-0.21101
-0.23751
-0.24771
-0.26606
-0.28848
-0.31702
-0.35168
-0.37003
-0.37411
-0.39653
-0.42304
-0.45362
-0.4842
-0.49847
-0.49847
-0.49032
-0.47808
-0.47197
-0.45973
-0.46789
-0.46993
-0.46585
-0.44343
-0.43323
-0.43323
-0.4475
-0.46381
-0.46789
-0.46381
-0.44954
-0.44343
-0.44139
-0.44139
-0.44546
-0.44546
-0.43527
-0.40877
-0.40469
-0.38838
-0.38226
-0.36595
-0.34964
-0.32926
-0.31906
-0.31702
-0.31295
-0.3211
-0.32518
-0.32518
-0.28236
-0.22528
-0.14985
-0.10703
0.054027
0.17839
0.20082
0.10703
-0.08053
-0.15596
-0.1682
-0.26402
-0.48012
-0.71458
-0.80428
-0.70031
-0.52294
-0.34964
-0.1947
-0.039755
0.06422
0.1315
0.1682
0.21509
0.30887
0.39653
0.43119
0.43527
0.41284
0.39857
0.36799
0.37207
0.41488
0.38022
0.29867
0.2212
0.23344
0.3211
0.3476
0.27217
0.10703
-0.0316
-0.10703
-0.11927
-0.09684
-0.066259
-0.027523
-0.0091743
0.017329
0.098879
0.19062
0.17227
0.070336
-0.0316
-0.023445
0.058104
0.054027
-0.074414
-0.24771
-0.34353
-0.36799
-0.33333
-0.24159
-0.09684
0.0316
0.0010194
-0.084608
-0.13761
-0.0316
0.12334
0.16616
0.074414
-0.058104
-0.12946
-0.15189
-0.14169
-0.12742
-0.11111
-0.090724
-0.074414
-0.058104
-0.062181
-0.062181
-0.070336
-0.06422
-0.070336
-0.090724
-0.10296
-0.1213
-0.14169
-0.17431
-0.20082
-0.24363
-0.2844
-0.30275
-0.33741
-0.35372
-0.37003
-0.37003
-0.38022
-0.39653
-0.41896
-0.43527
-0.45158
-0.47401
-0.47808
-0.49235
-0.48828
-0.48624
-0.48624
-0.49847
-0.50663
-0.50663
-0.50866
-0.50255
-0.49032
-0.46381
-0.4475
-0.421
-0.40673
-0.41896
-0.44139
-0.45158
-0.44343
-0.42304
-0.39246
-0.38634
-0.37411
-0.37411
-0.36799
-0.36595
-0.37003
-0.36391
-0.34964
-0.30479
-0.20285
-0.084608
-0.025484
-0.0091743
-0.0010194
0.068298
0.16616
0.24975
0.12538
-0.12946
-0.49439
-0.70642
-0.70642
-0.56575
-0.37819
-0.22324
-0.13354
-0.098879
-0.068298
0.0010194
0.10703
0.20082
0.26606
0.29867
0.34353
0.36799
0.37411
0.36799
0.42304
0.50866
0.47197
0.37615
0.28033
0.27421
0.32518
0.29256
0.16412
0.0030581
-0.1213
-0.18043
-0.17635
-0.12538
-0.070336
-0.0091743
0.027523
0.076453
0.11723
0.14781
0.15189
0.1315
0.11111
0.076453
0.06422
0.051988
0.027523
-0.011213
-0.051988
-0.10092
-0.14373
-0.18654
-0.22732
-0.25178
-0.26198
-0.15596
-0.10907
-0.12946
-0.24363
-0.31702
-0.27013
-0.21713
-0.24363
-0.3843
-0.55963
-0.7105
-0.79001
-0.76758
-0.66157
-0.49439
-0.35168
-0.22732
-0.13965
-0.054027
0.011213
0.062181
0.11519
0.13558
0.14169
0.13558
0.1682
0.26198
0.2946
0.24567
0.15392
0.10296
0.17227
0.19266
0.076453
-0.12334
-0.31091
-0.41081
-0.41488
-0.3476
-0.27421
-0.2212
-0.18654
-0.14985
-0.12538
-0.09684
-0.070336
0.037717
0.14577
0.15596
0.068298
0.0030581
0.0030581
0.08053
0.0316
-0.11723
-0.2844
-0.37207
-0.3945
-0.36391
-0.25382
-0.10296
0.039755
0.027523
-0.076453
-0.16616
-0.15392
-0.049949
-0.021407
-0.054027
-0.11723
-0.13761
-0.13965
-0.13354
-0.11723
-0.1213
-0.12538
-0.13558
-0.13965
-0.15596
-0.17839
-0.19062
-0.1947
-0.19878
-0.21305
-0.22936
-0.2579
-0.28848
-0.30071
-0.32518
-0.34964
-0.37615
-0.38838
-0.41284
-0.42915
-0.4475
-0.45566
-0.46789
-0.47808
-0.47808
-0.48828
-0.48624
-0.48012
-0.47808
-0.48012
-0.47604
-0.47197
-0.47604
-0.48012
-0.48216
-0.47808
-0.46993
-0.4475
-0.42304
-0.41081
-0.38634
-0.36188
-0.34557
-0.33945
-0.33333
-0.32314
-0.31295
-0.30479
-0.2946
-0.29052
-0.29256
-0.29256
-0.28644
-0.29867
-0.28848
-0.27013
-0.24771
-0.23547
-0.21509
-0.21713
-0.21713
-0.21101
-0.20285
-0.19674
-0.20285
-0.20285
-0.20693
-0.21305
-0.21305
-0.21509
-0.2212
-0.2314
-0.24363
-0.24567
-0.24771
-0.25178
-0.25178
-0.25586
-0.25178
-0.24771
-0.24363
-0.23547
-0.22936
-0.21713
-0.20489
-0.17023
0.041794
0.1947
0.28033
0.23751
0.10092
0.08053
0.011213
-0.21101
-0.49439
-0.69623
-0.69215
-0.52294
-0.37003
-0.25586
-0.17227
-0.051988
0.066259
0.18858
0.28644
0.33129
0.37819
0.42304
0.40469
0.39857
0.38226
0.42508
0.44546
0.42915
0.37819
0.33129
0.30071
0.27829
0.26606
0.30275
0.33537
0.27013
0.15392
0.06422
0.092762
0.20082
0.21305
0.12334
-0.019368
-0.15392
-0.22528
-0.23344
-0.20489
-0.16004
-0.11927
-0.078491
-0.049949
-0.0316
-0.019368
-0.017329
-0.029562
-0.037717
-0.035678
-0.037717
-0.033639
-0.029562
-0.037717
-0.060143
-0.08053
-0.10092
-0.12946
-0.17431
-0.22732
-0.24159
-0.15189
-0.074414
-0.090724
-0.24363
-0.41692
-0.46177
-0.40673
-0.36391
-0.421
-0.5841
-0.76555
-0.88175
-0.85321
-0.73293
-0.58818
-0.44954
-0.32722
-0.22732
-0.12946
-0.051988
0.0091743
0.049949
0.11519
0.20082
0.30275
0.32314
0.20285
0.045872
-0.054027
-0.021407
0.0030581
-0.062181
-0.18451
-0.29052
-0.33129
-0.31702
-0.27625
-0.22528
-0.20082
-0.18451
-0.16004
-0.14781
-0.11519
-0.088685
-0.062181
-0.058104
-0.068298
-0.10092
-0.14373
-0.18451
-0.21916
-0.24159
-0.26402
-0.29256
-0.30887
-0.33333
-0.34557
-0.36391
-0.38634
-0.40877
-0.41692
-0.421
-0.42712
-0.43527
-0.43119
-0.43119
-0.44139
-0.44343
-0.44954
-0.44546
-0.44954
-0.4475
-0.45158
-0.4475
-0.43935
-0.43323
-0.44343
-0.44139
-0.43119
-0.40265
-0.37207
-0.33537
-0.3211
-0.29867
-0.23751
-0.16004
-0.076453
-0.14169
-0.19674
-0.27013
-0.23547
-0.14985
-0.13965
-0.28848
-0.54128
-0.78797
-0.87156
-0.75943
-0.58614
-0.42304
-0.31091
-0.18043
-0.045872
0.084608
0.1682
0.19266
0.18247
0.18043
0.20285
0.25382
0.29867
0.3476
0.38838
0.41488
0.37411
0.32518
0.27625
0.24159
0.19878
0.15189
0.12334
0.10499
0.098879
0.10092
0.11111
0.11927
0.13354
0.17227
0.27013
0.33945
0.31091
0.14373
-0.0050968
-0.056065
-0.058104
-0.10499
-0.2314
-0.32518
-0.37819
-0.39042
-0.3211
-0.19062
-0.051988
-0.011213
-0.11927
-0.19266
-0.1947
-0.056065
0.060143
0.11723
0.10907
0.078491
0.045872
0.015291
0.023445
0.041794
0.049949
0.0316
0.013252
-0.019368
-0.04791
-0.070336
-0.082569
-0.06422
-0.04791
-0.021407
0.043833
0.18247
0.28236
0.24975
0.049949
-0.17635
-0.28236
-0.34149
-0.38634
-0.44546
-0.50051
-0.51886
-0.50663
-0.4577
-0.37411
-0.24771
-0.158
-0.17227
-0.28644
-0.3476
-0.27625
-0.14373
-0.035678
0.015291
0.0091743
-0.0010194
-0.019368
-0.027523
-0.013252
0.0091743
0.019368
0.029562
0.078491
0.17227
0.21509
0.12946
-0.082569
-0.26402
-0.3476
-0.38226
-0.39653
-0.42915
-0.44546
-0.42304
-0.38226
-0.34557
-0.31295
-0.27013
-0.24771
-0.2212
-0.18858
-0.14781
-0.11111
-0.098879
-0.094801
-0.11723
-0.158
-0.18654
-0.21713
-0.2579
-0.29867
-0.3476
-0.3945
-0.42915
-0.44343
-0.42508
-0.41081
-0.39857
-0.3843
-0.38838
-0.40673
-0.44139
-0.47604
-0.51478
-0.52905
-0.53721
-0.52497
-0.5107
-0.47808
-0.4475
-0.42915
-0.40673
-0.3843
-0.37207
-0.38226
-0.40265
-0.42915
-0.4475
-0.43935
-0.41896
-0.3843
-0.34557
-0.2946
-0.24771
-0.23344
-0.2212
-0.20285
-0.19062
-0.18247
-0.18043
-0.18247
-0.18247
-0.18247
-0.18043
-0.17431
-0.18247
-0.17839
-0.1947
-0.20285
-0.20897
-0.1947
-0.19674
-0.20489
-0.21509
-0.21916
-0.21916
-0.19878
-0.17227
-0.16004
-0.13761
-0.11927
-0.10499
-0.10703
-0.11315
-0.1315
-0.15189
-0.17635
-0.18451
-0.18247
-0.18654
-0.18451
-0.18858
-0.19878
-0.20897
-0.058104
0.039755
0.062181
-0.033639
-0.14373
-0.11519
-0.019368
-0.011213
-0.20285
-0.4577
-0.61672
-0.59837
-0.45362
-0.26198
-0.12334
0.0030581
0.090724
0.12742
0.14781
0.18247
0.25994
0.37207
0.4577
0.47604
0.4475
0.40469
0.34964
0.32722
0.33537
0.29052
0.26606
0.27625
0.3476
0.47197
0.48012
0.41488
0.28644
0.15392
0.078491
0.056065
0.086646
0.17839
0.25994
0.2314
0.11315
0.062181
0.10092
0.20285
0.24975
0.18654
0.068298
-0.062181
-0.19674
-0.27421
-0.28848
-0.25382
-0.17227
-0.088685
-0.0050968
0.076453
0.12538
0.14577
0.14781
0.12946
0.09684
0.066259
0.0316
-0.0091743
-0.074414
-0.13965
-0.20285
-0.25178
-0.26809
-0.27421
-0.26809
-0.29052
-0.32518
-0.35984
-0.40877
-0.44139
-0.42712
-0.37411
-0.10907
0.094801
0.20489
0.06422
-0.19266
-0.36595
-0.41284
-0.37411
-0.35576
-0.36799
-0.44546
-0.48216
-0.46381
-0.40469
-0.33945
-0.28033
-0.2314
-0.1947
-0.16412
-0.060143
0.098879
0.23547
0.36595
0.42304
0.46993
0.43119
0.33537
0.19674
0.08053
-0.0091743
-0.074414
-0.10499
-0.10703
-0.076453
-0.060143
-0.041794
-0.037717
-0.0316
-0.043833
-0.072375
-0.098879
-0.14577
-0.18247
-0.23547
-0.27217
-0.31702
-0.33333
-0.31702
-0.30071
-0.27421
-0.27013
-0.27421
-0.29256
-0.31091
-0.32926
-0.37411
-0.41488
-0.45973
-0.49643
-0.53721
-0.55759
-0.56779
-0.57187
-0.56983
-0.56779
-0.56983
-0.58002
-0.56371
-0.53925
-0.50866
-0.47604
-0.4577
-0.44954
-0.46177
-0.47808
-0.49847
-0.51886
-0.52905
-0.5107
-0.43323
-0.27625
-0.0071356
0.20693
0.26809
0.22528
0.1213
0.058104
0.033639
-0.039755
-0.21916
-0.45158
-0.64526
-0.63507
-0.46993
-0.2844
-0.14577
-0.011213
0.13761
0.27217
0.37411
0.40877
0.44954
0.49032
0.50663
0.49847
0.46789
0.43323
0.40061
0.38634
0.37819
0.37819
0.49439
0.59225
0.70642
0.60652
0.42304
0.26198
0.15596
0.066259
-0.0316
-0.11519
-0.1682
-0.18858
-0.19674
-0.18247
-0.14985
-0.13761
-0.1315
-0.13558
-0.12946
-0.11723
-0.10703
-0.10703
-0.10907
-0.1315
-0.16004
-0.19674
-0.21916
-0.2314
-0.25178
-0.24975
-0.25586
-0.26402
-0.27421
-0.29867
-0.32926
-0.37615
-0.40877
-0.44546
-0.48828
-0.51274
-0.52905
-0.54536
-0.5739
-0.5841
-0.60245
-0.59837
-0.59633
-0.58614
-0.5841
-0.58614
-0.58614
-0.5841
-0.57798
-0.5739
-0.56779
-0.56167
-0.54128
-0.51274
-0.48624
-0.47604
-0.47197
-0.46585
-0.47197
-0.47401
-0.47604
-0.48216
-0.50051
-0.52294
-0.53517
-0.56371
-0.56167
-0.54128
-0.5107
-0.48624
-0.47197
-0.46177
-0.43119
-0.40673
-0.3843
-0.36188
-0.33333
-0.2946
-0.27625
-0.28033
-0.2844
-0.28236
-0.27217
-0.27013
-0.25382
-0.26402
-0.27829
-0.29664
-0.30887
-0.3211
-0.3211
-0.31702
-0.30275
-0.29256
-0.28033
-0.2579
0.033639
0.39653
0.76962
0.91845
0.84098
0.77982
0.78186
0.74516
0.61672
0.40877
0.18858
0.084608
0.092762
0.19674
0.30479
0.40265
0.4842
0.53109
0.58206
0.66972
0.74924
0.77982
0.77574
0.77778
0.8104
0.85729
0.88379
0.92661
0.89602
0.87564
0.82059
0.72681
0.6371
0.52294
0.44343
0.35576
0.28033
0.20897
0.13354
0.072375
0.043833
0.072375
0.3211
0.48828
0.6738
0.60245
0.40673
0.24567
0.10092
-0.0091743
-0.10907
-0.18247
-0.21509
-0.24975
-0.26809
-0.28644
-0.28644
-0.2844
-0.2579
-0.23955
-0.23751
-0.24771
-0.26809
-0.28848
-0.29052
-0.30275
-0.32518
-0.3578
-0.38634
-0.41284
-0.44139
-0.46381
-0.47808
-0.50459
-0.52905
-0.55963
-0.59633
-0.6371
-0.6738
-0.70234
-0.72681
-0.73293
-0.737
-0.76351
-0.77982
-0.76147
-0.46585
-0.1213
0.18043
0.20285
-0.017329
-0.28236
-0.46381
-0.50866
-0.50663
-0.47604
-0.46585
-0.4475
-0.40265
-0.33945
-0.28033
-0.20897
-0.045872
0.13558
0.27625
0.31295
0.27625
0.20693
0.1315
0.019368
-0.058104
-0.10092
-0.094801
-0.08053
-0.098879
-0.12334
-0.11723
-0.086646
-0.062181
-0.06422
-0.082569
-0.10907
-0.14373
-0.18451
-0.21713
-0.27217
-0.32722
-0.40265
-0.49235
-0.5841
-0.65545
-0.66565
-0.6473
-0.61264
-0.58002
-0.58614
-0.60652
-0.62895
-0.63507
-0.64322
-0.6371
-0.6208
-0.60652
-0.59837
-0.6106
-0.61468
-0.62691
-0.62487
-0.63914
-0.67176
-0.71458
-0.75535
-0.77166
-0.77778
-0.75943
-0.7472
-0.75943
-0.79409
-0.80428
-0.7737
-0.72069
-0.66565
-0.62691
-0.59837
-0.59225
-0.56167
-0.54332
-0.52497
-0.50866
-0.49235
-0.48828
-0.49032
-0.49643
-0.5107
-0.51682
-0.51886
-0.51274
-0.50663
-0.50866
-0.49235
-0.4577
-0.41692
-0.37819
-0.36799
-0.37411
-0.38226
-0.37615
-0.35168
-0.33333
-0.3211
-0.30479
-0.30683
-0.30683
-0.30887
-0.3211
-0.32314
-0.31906
-0.30887
-0.30479
-0.31702
-0.3211
-0.3211
-0.31091
-0.28644
-0.25994
-0.24975
-0.23955
-0.23955
-0.24771
-0.26402
-0.27421
-0.25382
-0.20693
0.13558
0.49235
0.85933
0.94292
0.84709
0.73293
0.68603
0.59633
0.4475
0.22528
0.0316
-0.013252
0.074414
0.2212
0.33537
0.44139
0.54536
0.6371
0.70234
0.73089
0.72885
0.74108
0.79409
0.87156
0.92457
1
0.98573
0.93884
0.84098
0.72681
0.6473
0.56779
0.47808
0.38838
0.29867
0.22324
0.30275
0.44343
0.56983
0.61468
0.51274
0.39653
0.31498
0.2212
0.14781
0.084608
0.017329
-0.0316
-0.049949
-0.033639
0.0071356
0.017329
0.021407
0.017329
0.0071356
-0.019368
-0.056065
-0.09684
-0.14781
-0.19878
-0.2579
-0.30887
-0.36391
-0.40061
-0.43119
-0.4577
-0.48012
-0.49235
-0.48624
-0.46993
-0.45158
-0.44139
-0.4475
-0.45973
-0.47808
-0.49643
-0.52497
-0.54536
-0.58206
-0.62691
-0.67176
-0.5739
-0.27217
0.039755
0.2314
0.13354
-0.10907
-0.32314
-0.45566
-0.48624
-0.49847
-0.45566
-0.46177
-0.43935
-0.39653
-0.34353
-0.31498
-0.18247
0.045872
0.27421
0.42915
0.43935
0.38022
0.28848
0.17431
0.06422
-0.0010194
-0.029562
-0.049949
-0.056065
-0.076453
-0.074414
-0.074414
-0.090724
-0.11315
-0.12946
-0.13558
-0.14373
-0.14985
-0.16208
-0.17023
-0.1947
-0.2314
-0.26809
-0.3211
-0.37003
-0.41284
-0.44546
-0.48012
-0.51682
-0.55759
-0.6208
-0.66769
-0.7105
-0.72477
-0.737
-0.72885
-0.72477
-0.73496
-0.74108
-0.737
-0.70642
-0.66565
-0.61264
-0.57594
-0.55148
-0.54128
-0.54128
-0.55352
-0.57187
-0.5841
-0.59633
-0.60652
-0.60652
-0.59429
-0.57798
-0.55963
-0.53313
-0.50255
-0.49032
-0.48216
-0.49439
-0.5107
-0.52497
-0.53109
-0.51478
-0.49235
-0.45973
-0.421
-0.39042
-0.36595
-0.34964
-0.34149
-0.35984
-0.37411
-0.3945
-0.40469
-0.40673
-0.39653
-0.39653
-0.40265
-0.40469
-0.3843
-0.36391
-0.33129
-0.30275
-0.28848
-0.2844
-0.28644
-0.28644
-0.26809
-0.23751
-0.20897
-0.18451
-0.19674
-0.20897
-0.22324
-0.090724
0.25382
0.52905
0.67788
0.57187
0.45158
0.41081
0.40061
0.34964
0.23547
0.054027
-0.084608
-0.062181
0.041794
0.18247
0.26809
0.34964
0.44546
0.56167
0.70234
0.8002
0.85933
0.84302
0.79817
0.73496
0.65749
0.59633
0.51274
0.421
0.45566
0.61264
0.72069
0.80428
0.69827
0.60449
0.50255
0.37615
0.27421
0.20082
0.13965
0.11111
0.14985
0.35372
0.51274
0.61876
0.51274
0.36799
0.22936
0.15189
0.078491
0.019368
-0.017329
-0.088685
-0.13761
-0.16616
-0.15392
-0.12946
-0.11315
-0.11315
-0.13558
-0.14373
-0.14169
-0.14169
-0.158
-0.16208
-0.17431
-0.18247
-0.18247
-0.19674
-0.21305
-0.23547
-0.26809
-0.31091
-0.36391
-0.42304
-0.47197
-0.51682
-0.56167
-0.58206
-0.59837
-0.6208
-0.64934
-0.66972
-0.68196
-0.67788
-0.64934
-0.61468
-0.59633
-0.5841
-0.5739
-0.5739
-0.56167
-0.55963
-0.56575
-0.56575
-0.56371
-0.53925
-0.53313
-0.52701
-0.52701
-0.53517
-0.56167
-0.59021
-0.59633
-0.60041
-0.59429
-0.59429
-0.59021
-0.57798
-0.54944
-0.50255
-0.46585
-0.42915
-0.40469
-0.38634
-0.38226
-0.38226
-0.40061
-0.41692
-0.42915
-0.42508
-0.41896
-0.41896
-0.41081
-0.39246
-0.40265
-0.40877
-0.42508
-0.42915
-0.43323
-0.42712
-0.41692
-0.39653
-0.37003
-0.3476
-0.31702
-0.29664
-0.27013
-0.25994
-0.2579
-0.25586
-0.25994
-0.26809
-0.27829
-0.2844
-0.30887
-0.3211
-0.24975
0.10499
0.34149
0.54944
0.47401
0.34353
0.26402
0.25178
0.19878
0.11927
-0.049949
-0.158
-0.14577
-0.027523
0.11723
0.23344
0.30275
0.37207
0.45566
0.55759
0.65138
0.72069
0.75535
0.72681
0.6738
0.60041
0.52497
0.41081
0.31702
0.37003
0.49032
0.61876
0.67176
0.58818
0.51886
0.44139
0.34353
0.28848
0.2579
0.22936
0.18654
0.12334
0.17023
0.35576
0.48012
0.54128
0.45158
0.33537
0.23955
0.15189
0.070336
0.011213
-0.041794
-0.09684
-0.12946
-0.15596
-0.14985
-0.15596
-0.16208
-0.14169
-0.12742
-0.10296
-0.10092
-0.11111
-0.13965
-0.18043
-0.2212
-0.25178
-0.29256
-0.33333
-0.3843
-0.44546
-0.50051
-0.54944
-0.5739
-0.59837
-0.61468
-0.61876
-0.62487
-0.63303
-0.63914
-0.63507
-0.62691
-0.60856
-0.59225
-0.58614
-0.59633
-0.60652
-0.62283
-0.64118
-0.64322
-0.62895
-0.61468
-0.6106
-0.61672
-0.61468
-0.62283
-0.6208
-0.61672
-0.61468
-0.61264
-0.60245
-0.59837
-0.60449
-0.61876
-0.62895
-0.61264
-0.59633
-0.55352
-0.51682
-0.48828
-0.47401
-0.47604
-0.47197
-0.49643
-0.50459
-0.52701
-0.54944
-0.5739
-0.59021
-0.59021
-0.59225
-0.55759
-0.54536
-0.53721
-0.53925
-0.52497
-0.5107
-0.50866
-0.47808
-0.32518
-0.23344
-0.11315
-0.13354
-0.15189
-0.13354
-0.14781
-0.20285
-0.36391
-0.54128
-0.65545
-0.65545
-0.56779
-0.45158
-0.36391
-0.32926
-0.32926
-0.33537
-0.34964
-0.28236
-0.16412
-0.017329
0.060143
0.098879
0.098879
0.10703
0.090724
0.090724
0.12334
0.15392
0.1947
0.18247
0.158
0.11519
0.037717
-0.04791
-0.11519
-0.12334
-0.10499
-0.070336
-0.043833
-0.019368
-0.011213
-0.037717
-0.062181
-0.092762
-0.11111
-0.11927
-0.10499
-0.10092
-0.10499
-0.1213
-0.14169
-0.16208
-0.17227
-0.18043
-0.19266
-0.21509
-0.23344
-0.26402
-0.28848
-0.31498
-0.33129
-0.34149
-0.36188
-0.37411
-0.39042
-0.3945
-0.38634
-0.35168
-0.33741
-0.31091
-0.2946
-0.27625
-0.27625
-0.28236
-0.28848
-0.30887
-0.3211
-0.33129
-0.33945
-0.35168
-0.37003
-0.38022
-0.39042
-0.37819
-0.36188
-0.36391
-0.38838
-0.42304
-0.42915
-0.41896
-0.37819
-0.32926
-0.26606
-0.20082
-0.13761
-0.09684
-0.074414
-0.076453
-0.070336
-0.072375
-0.068298
-0.062181
-0.068298
-0.082569
-0.10499
-0.11519
-0.12946
-0.13354
-0.12946
-0.12538
-0.12538
-0.12334
-0.12334
-0.1315
-0.14373
-0.13558
-0.12334
-0.092762
-0.070336
-0.041794
-0.017329
-0.0010194
0.011213
0.0091743
-0.0071356
-0.025484
-0.037717
-0.04791
-0.060143
-0.056065
-0.06422
-0.074414
-0.086646
-0.082569
-0.070336
0.11315
0.072375
0.08053
-0.12742
-0.27217
-0.25382
-0.1682
-0.18654
-0.29867
-0.5474
-0.75535
-0.80632
-0.69419
-0.52905
-0.36799
-0.23344
-0.12334
-0.0316
-0.035678
0.0030581
0.017329
0.10703
0.2212
0.31702
0.35168
0.33741
0.25586
0.025484
-0.11723
-0.11723
0.0010194
0.28848
0.44546
0.53925
0.54944
0.45362
0.33741
0.16616
