0.18812
0.25318
0.30693
0.16549
-0.08628
-0.27864
-0.32956
-0.28147
-0.14003
-0.009901
0.14003
0.22489
0.2843
0.29844
0.28996
0.23338
0.16549
0.11457
0.157
0.26167
0.38331
0.471
0.4512
0.39745
0.31825
0.18246
0.072136
0.13154
0.21075
0.22772
0.046676
-0.20226
-0.30693
-0.30127
-0.19378
-0.069307
0.094767
0.24187
0.34653
0.39463
0.40594
0.36068
0.29279
0.23055
0.19378
0.23338
0.34653
0.45403
0.49081
0.46535
0.39745
0.25601
0.10891
0.097595
0.18246
0.27581
0.19661
-0.052334
-0.28147
-0.37765
-0.34653
-0.25035
-0.10891
0.066478
0.2447
0.36917
0.41443
0.4116
0.33522
0.26167
0.22207
0.20226
0.25035
0.29279
0.33522
0.32956
0.28147
0.19661
0.12023
0.21075
0.26733
0.32107
0.32107
0.18529
-0.032532
-0.16832
-0.22207
-0.1768
-0.069307
0.018388
0.1174
0.18529
0.23621
0.23338
0.20509
0.14851
0.083451
0.029703
0.049505
0.14286
0.25035
0.31259
0.30976
0.28996
0.20792
0.097595
0.094767
0.16549
0.24187
0.18812
-0.066478
-0.29844
-0.39463
-0.36634
-0.25884
-0.10042
0.029703
0.15417
0.20792
0.24752
0.2645
0.22489
0.16832
0.12588
0.12588
0.19661
0.31542
0.40594
0.42574
0.4116
0.34088
0.21641
0.072136
0.06082
0.18246
0.2447
0.14003
-0.097595
-0.30976
-0.36068
-0.30976
-0.19661
-0.077793
0.083451
0.18812
0.27016
0.25884
0.20792
0.18529
0.21075
0.3041
0.4314
0.46535
0.43423
0.34653
0.26167
0.17963
0.094767
0.049505
0.19661
0.2447
0.2645
0.091938
-0.1372
-0.23621
-0.23621
-0.14851
-0.01273
0.13437
0.25601
0.35502
0.39745
0.38897
0.36068
0.29279
0.23338
0.2645
0.32673
0.42291
0.49646
0.48515
0.46818
0.36917
0.25035
0.29279
0.34371
0.40877
0.27016
-0.0014144
-0.19095
-0.28147
-0.23055
-0.12871
-0.0014144
0.12306
0.20509
0.27581
0.29279
0.25884
0.20226
0.20792
0.2645
0.35219
0.41443
0.38897
0.32673
0.23904
0.157
0.074965
-0.055163
0.052334
0.13154
0.19943
0.12306
-0.14569
-0.27016
-0.31259
-0.24187
-0.11174
0.041018
0.17115
0.2843
0.33239
0.34936
0.32673
0.25601
0.19095
0.18529
0.2447
0.33239
0.41443
0.45403
0.43423
0.40028
0.30693
0.21641
0.16549
0.28147
0.34088
0.28147
0.015559
-0.22772
-0.33522
-0.3239
-0.23055
-0.08628
0.032532
0.12588
0.15983
0.18812
0.17115
0.12871
0.12023
0.17397
0.2843
0.40877
0.44837
0.42574
0.36068
0.2645
0.14569
0.03819
-0.032532
0.11174
0.18529
0.16266
-0.024045
-0.26733
-0.36917
-0.36634
-0.25035
-0.094767
0.035361
0.097595
0.14569
0.16832
0.18812
0.16266
0.12588
0.13154
0.21641
0.31542
0.39745
0.41443
0.38897
0.31825
0.21641
0.10042
-0.0014144
0.12023
0.13154
0.13154
-0.072136
-0.32107
-0.46252
-0.47666
-0.38897
-0.21641
-0.066478
0.063649
0.14003
0.21075
0.21358
0.18246
0.13154
0.14569
0.24752
0.38614
0.50778
0.54738
0.50495
0.44272
0.34936
0.21924
0.089109
0.12871
0.20509
0.25601
0.1372
-0.15983
-0.36068
-0.39745
-0.31825
-0.13437
0.009901
0.12588
0.15983
0.22207
0.25601
0.27581
0.23904
0.23055
0.28147
0.40594
0.53041
0.62376
0.64356
0.6181
0.56719
0.48515
0.38897
0.32956
0.45969
0.50778
0.45403
0.21358
-0.03819
-0.16266
-0.15417
-0.024045
0.1372
0.25318
0.34088
0.38614
0.41443
0.42574
0.40028
0.36351
0.36634
0.45686
0.5785
0.66902
0.65488
0.58982
0.48515
0.36351
0.24752
0.11174
0.21075
0.22772
0.21924
0.021216
-0.27581
-0.41443
-0.42857
-0.32107
-0.157
-0.0042433
0.12588
0.19661
0.25601
0.25601
0.22772
0.17397
0.16832
0.25601
0.40028
0.53324
0.58416
0.58416
0.51909
0.4314
0.28996
0.13437
0.17115
0.24187
0.25601
0.083451
-0.1768
-0.38048
-0.40311
-0.30976
-0.14003
0.026874
0.10891
0.13437
0.14851
0.15134
0.14003
0.10325
0.10042
0.17397
0.30976
0.42291
0.44837
0.38048
0.24187
0.1174
0.20509
0.23055
0.23338
0.026874
-0.19661
-0.31259
-0.34088
-0.27864
-0.15417
-0.03819
0.046676
0.12023
0.16832
0.19943
0.19095
0.11174
0.029703
-0.032532
-0.024045
0.03819
0.10325
0.17115
0.20509
0.17963
0.097595
0.1372
0.22772
0.33239
0.26733
0.015559
-0.24187
-0.38331
-0.39463
-0.31542
-0.21924
-0.091938
0.015559
0.089109
0.12588
0.10325
0.052334
-0.0014144
-0.06082
-0.10042
-0.057992
0.03819
0.15983
0.2447
0.25884
0.23904
0.16549
0.074965
-0.074965
-0.094767
0.0070721
0.057992
-0.009901
-0.2843
-0.50495
-0.58133
-0.53324
-0.38331
-0.20226
-0.055163
0.041018
0.072136
0.10325
0.11174
0.089109
0.041018
0.089109
0.17397
0.31259
0.40028
0.41443
0.38897
0.30976
0.22207
0.097595
-0.015559
0.12871
0.18529
0.19095
-0.009901
-0.3041
-0.46818
-0.46252
-0.33805
-0.16549
-0.029703
0.074965
0.14286
0.17963
0.17115
0.12306
0.074965
0.063649
0.12588
0.23621
0.33522
0.34653
0.35785
0.3239
0.25601
0.12871
-0.009901
0.080622
0.14569
0.1768
0.032532
-0.27864
-0.4314
-0.46535
-0.37482
-0.19661
-0.024045
0.14569
0.23904
0.28713
0.27016
0.2843
0.3239
0.42857
0.49081
0.50212
0.45403
0.38614
0.32107
0.20226
0.097595
0.009901
0.14003
0.21075
0.19943
-0.0042433
-0.25884
-0.35785
-0.36634
-0.26733
-0.12023
0.046676
0.19943
0.35785
0.44554
0.471
0.39745
0.29844
0.20509
0.18246
0.23055
0.2843
0.31542
0.3239
0.31259
0.23338
0.14851
0.20509
0.28713
0.36068
0.2447
-0.009901
-0.21358
-0.28996
-0.25884
-0.14569
0.0014144
0.15417
0.27016
0.32107
0.27298
0.25318
0.22489
0.2645
0.32673
0.44554
0.52475
0.53041
0.46252
0.38331
0.29562
0.21358
0.12306
0.16266
0.27581
0.32956
0.23055
-0.083451
-0.31825
-0.39463
-0.36068
-0.21075
-0.03819
0.15983
0.33522
0.471
0.51344
0.44554
0.34088
0.2645
0.25035
0.30693
0.37199
0.4314
0.4314
0.40028
0.33522
0.24187
0.12023
0.03819
0.16832
0.19661
0.15134
-0.10325
-0.36068
-0.48798
-0.49081
-0.35502
-0.20509
-0.057992
0.055163
0.13437
0.16832
0.18812
0.16549
0.14569
0.14003
0.17963
0.24187
0.30127
0.33805
0.35785
0.32956
0.23338
0.12023
-0.015559
0.03819
0.10042
0.12588
0.009901
-0.24752
-0.44272
-0.471
-0.40028
-0.23904
-0.074965
0.021216
0.11457
0.18246
0.20509
0.1768
0.1372
0.10891
0.1174
0.20509
0.28713
0.34653
0.33239
0.28996
0.19943
0.10042
-0.018388
-0.063649
0.08628
0.15417
0.11174
-0.12023
-0.37199
-0.48232
-0.45403
-0.29279
-0.11174
0.074965
0.21075
0.30127
0.34088
0.33239
0.26733
0.21924
0.21641
0.25601
0.34653
0.42008
0.43989
0.41443
0.35219
0.25318
0.12588
-0.021216
0.055163
0.16832
0.21924
0.094767
-0.21358
-0.40594
-0.45403
-0.36351
-0.18812
-0.0042433
0.14569
0.23621
0.26167
0.24752
0.22489
0.19661
0.20792
0.23904
0.33522
0.41726
0.48232
0.48798
0.46818
0.38897
0.25884
0.12871
0.035361
0.16266
0.19943
0.15983
-0.06082
-0.31542
-0.42291
-0.41443
-0.27864
-0.10042
0.029703
0.12588
0.157
0.20792
0.20792
0.19095
0.20792
0.29844
0.42291
0.50212
0.48798
0.44272
0.38897
0.29562
0.18812
0.052334
0.12588
0.21641
0.26167
0.157
-0.10608
-0.30127
-0.36068
-0.30976
-0.14286
0.035361
0.17397
0.26733
0.31259
0.3239
0.30976
0.30693
0.33239
0.41443
0.52475
0.58416
0.55021
0.47666
0.38614
0.3041
0.20792
0.10608
0.23338
0.2447
0.2645
0.10608
-0.15417
-0.28147
-0.31542
-0.23338
-0.074965
0.06082
0.157
0.20792
0.22489
0.25035
0.19378
0.12023
0.080622
0.10608
0.18529
0.28996
0.37482
0.38897
0.37199
0.30693
0.24187
0.13154
0.029703
0.20792
0.22772
0.22489
0.009901
-0.2645
-0.39745
-0.38331
-0.25318
-0.049505
0.13437
0.2447
0.31825
0.35502
0.37482
0.37765
0.34653
0.34653
0.36917
0.41726
0.46252
0.4314
0.32107
0.23904
0.34371
0.3918
0.37482
0.1372
-0.10325
-0.21924
-0.24187
-0.16832
-0.046676
0.066478
0.16832
0.22772
0.27298
0.27298
0.2843
0.2447
0.18529
0.094767
-0.0070721
-0.077793
-0.06082
0.021216
0.16266
0.23904
0.27864
0.33522
0.38331
0.43989
0.38048
0.19378
-0.035361
-0.21924
-0.30127
-0.28996
-0.21358
-0.10891
0.009901
0.10325
0.17397
0.26733
0.29844
0.3041
0.27298
0.23904
0.23055
0.2843
0.36917
0.42008
0.39745
0.36068
0.32673
0.28996
0.20792
0.14569
0.25318
0.29279
0.25601
0.01273
-0.22207
-0.33522
-0.31259
-0.20509
-0.074965
0.06082
0.17115
0.27864
0.34653
0.38048
0.33522
0.28713
0.21641
0.19661
0.20509
0.26167
0.34371
0.39745
0.40028
0.36068
0.25884
0.15134
0.018388
-0.032532
0.091938
0.13437
0.077793
-0.22772
-0.47666
-0.5983
-0.53041
-0.36634
-0.17963
0.0070721
0.1372
0.20509
0.25318
0.24187
0.23338
0.22489
0.25318
0.3239
0.37482
0.40594
0.3918
0.31825
0.23904
0.22207
0.29279
0.36351
0.30976
0.052334
-0.15983
-0.28147
-0.28713
-0.16549
-0.032532
0.12588
0.20792
0.29562
0.31825
0.34936
0.3041
0.22772
0.14851
0.080622
0.066478
0.089109
0.14286
0.19661
0.23621
0.40594
0.47383
0.51344
0.34653
0.11457
-0.026874
-0.057992
-0.041018
0.057992
0.14003
0.2645
0.34936
0.38048
0.39463
0.37482
0.30976
0.23621
0.14003
0.055163
-0.072136
-0.16832
-0.18529
-0.10608
0.052334
0.17115
0.28147
0.41443
0.51627
0.54738
0.40877
0.16266
-0.083451
-0.29562
-0.37482
-0.38048
-0.3239
-0.25035
-0.157
-0.066478
0.041018
0.15134
0.23338
0.28713
0.33239
0.41443
0.46535
0.53607
0.58699
0.62659
0.62942
0.5785
0.52192
0.44837
0.37199
0.23055
0.1174
0.23338
0.27298
0.29279
0.074965
-0.17963
-0.31542
-0.31259
-0.19378
-0.041018
0.10042
0.18812
0.27016
0.3041
0.31825
0.25884
0.17115
0.08628
0.057992
0.06082
0.13437
0.22489
0.30693
0.32107
0.2843
0.21358
0.14003
0.018388
-0.089109
0.066478
0.097595
0.091938
-0.12871
-0.4116
-0.51344
-0.45969
-0.29279
-0.10891
0.080622
0.21075
0.29279
0.34371
0.32956
0.32956
0.28147
0.2447
0.24752
0.30693
0.4116
0.48798
0.50778
0.42291
0.35785
0.25035
0.157
0.043847
0.03819
0.15134
0.21924
0.14569
-0.10042
-0.27581
-0.32673
-0.25884
-0.080622
0.091938
0.21924
0.29562
0.3239
0.30976
0.30693
0.27864
0.24752
0.23621
0.28996
0.39463
0.471
0.49081
0.43989
0.36351
0.27864
0.18529
0.043847
-0.074965
0.069307
0.10891
0.10325
-0.10325
-0.36068
-0.47666
-0.45403
-0.31542
-0.12871
0.035361
0.12871
0.17963
0.19661
0.19943
0.17115
0.12871
0.097595
0.12306
0.23621
0.28996
0.36634
0.36634
0.33239
0.26733
0.20792
0.14286
0.089109
0.25035
0.35502
0.42857
0.30127
0.035361
-0.12023
-0.12588
-0.009901
0.1768
0.35219
0.44554
0.49364
0.52758
0.5587
0.57001
0.56436
0.56436
0.57567
0.5587
0.50495
0.38614
0.27298
0.23904
0.40028
0.45686
0.49646
0.29279
0.072136
-0.057992
-0.08628
-0.021216
0.10891
0.22489
0.35785
0.40028
0.39463
0.34371
0.25601
0.16832
0.089109
0.08628
0.13437
0.18529
0.19095
0.1768
0.34371
0.4512
0.50212
0.34371
0.11174
0.0014144
-0.0070721
0.035361
0.10891
0.16832
0.24187
0.30976
0.35502
0.36634
0.35785
0.31542
0.27298
0.16266
0.063649
-0.03819
-0.10042
-0.077793
0.0042433
0.14286
0.40877
0.5587
0.60679
0.41443
0.15417
-0.018388
-0.069307
-0.009901
0.077793
0.14851
0.19943
0.23055
0.2843
0.28996
0.27864
0.23621
0.18246
0.12023
0.032532
-0.074965
-0.22207
-0.34371
-0.3918
-0.32673
-0.17115
0.10891
0.41726
0.62093
0.63508
0.39745
0.097595
-0.16266
-0.32107
-0.32956
-0.29844
-0.20226
-0.08628
0.009901
0.10325
0.14569
0.20792
0.42008
0.53607
0.57284
0.42857
0.18812
0.018388
-0.14286
-0.18812
-0.10608
0.091938
0.2645
0.37482
0.40311
0.44554
0.45686
0.41443
0.30127
0.2447
0.17115
0.10325
-0.077793
-0.24752
-0.38331
-0.42857
-0.3918
-0.27581
-0.13437
-0.0070721
0.22207
0.36917
0.46252
0.42857
0.32107
0.28996
0.27581
0.30693
0.34936
0.40877
0.4116
0.36917
0.27864
0.15417
0.157
0.17397
0.19095
0.091938
-0.15983
-0.34653
-0.40877
-0.33805
-0.1768
-0.029703
0.046676
0.06082
0.066478
0.052334
0.057992
0.052334
0.077793
0.10608
0.14286
0.15134
0.11174
0.041018
-0.041018
0.063649
0.14569
0.2447
0.21075
0.024045
-0.14286
-0.21358
-0.19378
-0.094767
0.021216
0.12588
0.19661
0.24187
0.26167
0.25318
0.20509
0.15134
0.074965
-0.0014144
-0.097595
-0.15134
-0.15417
-0.094767
-0.041018
0.046676
0.22207
0.31542
0.3041
0.063649
-0.19943
-0.32673
-0.31259
-0.18812
-0.035361
0.094767
0.20226
0.25601
0.27581
0.28147
0.26167
0.20792
0.14003
0.077793
0.015559
-0.03819
-0.055163
-0.021216
0.057992
0.16266
0.40028
0.52192
0.58982
0.4116
0.14003
-0.077793
-0.15983
-0.1372
-0.057992
-0.009901
0.072136
0.13154
0.18246
0.19661
0.17963
0.15983
0.13437
0.11174
0.06082
-0.01273
-0.083451
-0.16266
-0.2645
-0.33522
-0.35785
-0.28996
-0.15417
-0.024045
0.043847
0.06082
0.13437
0.13154
0.18246
0.089109
-0.094767
-0.3041
-0.52758
-0.63791
-0.61245
-0.50212
-0.32956
-0.1372
0.0042433
0.13154
0.19661
0.22772
0.22207
0.19943
0.17963
0.11457
0.046676
0.0014144
0.055163
0.23055
0.38331
0.51344
0.52758
0.48232
0.39463
0.27581
0.14286
0.01273
0.14569
0.15983
0.15983
-0.069307
-0.33522
-0.46535
-0.44272
-0.31542
-0.14003
0.018388
0.16266
0.27864
0.35219
0.36634
0.33805
0.27864
0.23055
0.23338
0.27298
0.36351
0.48232
0.56436
0.57001
0.49081
0.37765
0.2645
0.14286
0.0042433
0.029703
0.077793
0.13154
0.041018
-0.23055
-0.4116
-0.46535
-0.38331
-0.2447
-0.10325
-0.021216
0.024045
0.066478
0.12588
0.17397
0.17115
0.14286
0.15417
0.19095
0.28996
0.39745
0.47949
0.49364
0.42574
0.34653
0.23338
0.14003
-0.0042433
0.0014144
0.080622
0.14286
0.077793
-0.157
-0.35502
-0.3918
-0.29562
-0.1372
0.032532
0.17115
0.27298
0.34936
0.37482
0.35785
0.30976
0.26167
0.22772
0.26733
0.36917
0.50212
0.59547
0.61245
0.56153
0.48232
0.35502
0.23621
0.057992
0.024045
0.11457
0.17397
0.10608
-0.1372
-0.36634
-0.4512
-0.3918
-0.23904
-0.043847
0.10608
0.20792
0.28713
0.35219
0.36351
0.31542
0.28996
0.33805
0.44554
0.5389
0.58133
0.53607
0.46818
0.37482
0.29279
0.20509
0.041018
0.063649
0.10042
0.15417
0.069307
-0.17963
-0.37482
-0.41726
-0.32956
-0.16266
0.0042433
0.11174
0.17963
0.21641
0.24187
0.2645
0.26167
0.21924
0.18246
0.19378
0.2645
0.37199
0.471
0.51344
0.47949
0.4116
0.30976
0.20509
0.03819
-0.083451
0.0042433
0.035361
0.063649
-0.12871
-0.35785
-0.4512
-0.42008
-0.26167
-0.072136
0.066478
0.18812
0.24187
0.28713
0.28713
0.26733
0.25035
0.2843
0.34088
0.38614
0.36917
0.29844
0.20226
0.19661
0.30127
0.34936
0.32107
0.10608
-0.091938
-0.18812
-0.19095
-0.11457
0.024045
0.15134
0.25035
0.31542
0.36068
0.40311
0.40311
0.34371
0.24752
0.14003
0.06082
-0.0070721
-0.018388
0.043847
0.15134
0.25884
0.48232
0.5983
0.60679
0.3918
0.063649
-0.16549
-0.22489
-0.14286
-0.009901
0.094767
0.17397
0.24187
0.30693
0.33239
0.33805
0.3041
0.26167
0.21075
0.15417
0.057992
-0.083451
-0.19095
-0.22489
-0.157
-0.032532
0.1174
0.38331
0.60679
0.78501
0.75955
0.52192
0.20226
-0.072136
-0.30976
-0.3239
-0.25601
-0.17397
-0.14569
-0.26167
-0.31542
-0.2843
-0.19378
-0.077793
0.035361
0.12023
0.18812
0.21075
0.19943
0.16832
0.11174
0.12023
0.15134
0.23338
0.3239
0.38614
0.40028
0.32956
0.24752
0.18246
0.097595
0.01273
-0.080622
0.043847
0.12023
0.14003
-0.043847
-0.30127
-0.41726
-0.40594
-0.2843
-0.10608
0.024045
0.12023
0.20509
0.2645
0.27581
0.25035
0.20226
0.14569
0.157
0.15134
0.23338
0.33805
0.40877
0.41726
0.32956
0.23904
0.15417
0.049505
-0.074965
-0.018388
0.089109
0.14286
0.069307
-0.1768
-0.34936
-0.38331
-0.30693
-0.157
-0.018388
0.094767
0.1372
0.19943
0.22489
0.23338
0.21075
0.16549
0.14851
0.18812
0.2843
0.38614
0.44554
0.43706
0.36917
0.27298
0.17397
0.063649
-0.080622
-0.12871
-0.032532
0.041018
0.041018
-0.14851
-0.35219
-0.43423
-0.38048
-0.22772
-0.032532
0.12306
0.22772
0.26733
0.32107
0.33805
0.33805
0.29562
0.23055
0.22489
0.22489
0.31259
0.40877
0.46535
0.44272
0.36068
0.29279
0.19661
0.15134
0.021216
0.08628
0.13154
0.19378
0.10891
-0.11457
-0.28713
-0.28996
-0.20792
-0.024045
0.12588
0.25601
0.30127
0.35785
0.38897
0.40877
0.40028
0.40594
0.42291
0.46818
0.48515
0.48798
0.43989
0.35785
0.45403
0.51061
0.54738
0.43423
0.18246
-0.01273
-0.089109
-0.069307
0.021216
0.12306
0.21075
0.28996
0.32956
0.33805
0.33239
0.29562
0.20226
0.1174
0.029703
-0.069307
-0.08628
-0.049505
0.080622
0.19943
0.28713
0.45686
0.58699
0.54455
0.34371
-0.026874
-0.26733
-0.35785
-0.31542
-0.21924
-0.089109
0.03819
0.14851
0.23904
0.28713
0.32107
0.3239
0.30693
0.27864
0.23621
0.11457
-0.015559
-0.14003
-0.17397
-0.10042
0.063649
0.3041
0.56719
0.77935
0.86704
0.7454
0.50778
0.22207
0.029703
-0.10891
-0.14286
-0.14003
-0.12588
-0.10891
-0.06082
0.018388
0.1372
0.2447
0.33239
0.4116
0.46535
0.46818
0.43989
0.38048
0.32673
0.27864
0.25601
0.28996
0.38897
0.47383
0.49081
0.44554
0.51344
0.5389
0.52758
0.35785
0.049505
-0.18246
-0.29562
-0.30693
-0.24752
-0.13154
0.021216
0.16266
0.2645
0.3041
0.30976
0.28996
0.26167
0.21075
0.16832
0.17397
0.18812
0.22772
0.21641
0.22207
0.28996
0.41726
0.49646
0.43423
0.19943
-0.063649
-0.21358
-0.22489
-0.14851
-0.035361
0.06082
0.15134
0.25318
0.3041
0.32107
0.32107
0.30976
0.30693
0.2645
0.20792
0.14286
0.074965
0.032532
-0.026874
-0.0042433
0.049505
0.15134
0.38897
0.54738
0.57567
0.39463
0.091938
-0.14286
-0.24187
-0.23338
-0.13154
-0.0042433
0.1174
0.22772
0.32673
0.36068
0.35502
0.33522
0.30976
0.29562
0.27864
0.21075
0.1174
0.043847
-0.024045
-0.066478
-0.052334
0.0042433
0.21924
0.50495
0.8331
1
0.95757
0.7256
0.40594
0.083451
-0.21075
-0.37765
-0.31259
-0.27298
-0.21075
-0.29562
-0.47949
-0.52758
-0.47666
-0.3239
-0.12871
0.035361
0.15134
0.23055
0.25601
0.28996
0.29844
0.30127
0.25318
0.21075
0.21924
0.27864
0.37482
0.42857
0.42857
0.38897
0.33805
0.2645
0.16832
-0.0014144
0.091938
0.097595
0.12871
-0.021216
-0.26733
-0.41726
-0.43423
-0.34371
-0.17397
0.0042433
0.13437
0.16549
0.19943
0.23338
0.25035
0.27016
0.23338
0.1768
0.14851
0.1768
0.25884
0.38331
0.48798
0.53607
0.48232
0.3918
0.27016
0.12306
-0.029703
-0.1768
-0.12023
-0.094767
-0.063649
-0.20792
-0.42857
-0.57567
-0.59264
-0.49646
-0.3041
-0.16266
-0.041018
0.029703
0.080622
0.15983
0.19095
0.18246
0.14851
0.13154
0.12588
0.16549
0.25035
0.35219
0.40028
0.34088
0.24752
0.15134
0.046676
-0.074965
-0.1174
-0.03819
0.032532
-0.0014144
-0.17397
-0.34936
-0.37765
-0.29562
-0.15417
-0.01273
0.10325
0.19943
0.27016
0.29562
0.2843
0.25601
0.21924
0.18812
0.1768
0.18529
0.24752
0.36351
0.46818
0.50495
0.46252
0.36351
0.25884
0.18812
0.077793
-0.066478
-0.046676
0.021216
0.11174
0.06082
-0.157
-0.34936
-0.38614
-0.28713
-0.1174
0.06082
0.16549
0.23904
0.27864
0.31259
0.30976
0.27016
0.23055
0.20509
0.20792
0.24187
0.27581
0.30976
0.3041
0.29562
0.41726
0.46535
0.45686
0.26733
0.035361
-0.12871
-0.20226
-0.157
-0.052334
0.089109
0.22489
0.3041
0.36917
0.3918
0.3918
0.36351
0.30693
0.23621
0.18812
0.12023
0.052334
0.032532
0.080622
0.21641
0.33239
0.51909
0.68883
0.75955
0.66054
0.34936
0.0014144
-0.24187
-0.34088
-0.31825
-0.23904
-0.11457
0.041018
0.19095
0.29279
0.32956
0.34088
0.35502
0.34371
0.28147
0.21641
0.069307
-0.080622
-0.18529
-0.23621
-0.16266
0.0014144
0.19095
0.43706
0.64922
0.82178
0.83593
0.63225
0.33522
0.063649
-0.14569
-0.24752
-0.28713
-0.25035
-0.19943
-0.091938
0.009901
0.12306
0.2447
0.2843
0.28996
0.26167
0.2645
0.22207
0.18812
0.15417
0.1174
0.16549
0.21358
0.31259
0.37482
0.40311
0.43423
0.54173
0.58133
0.53324
0.2843
0.0042433
-0.16266
-0.22207
-0.15983
-0.077793
0.035361
0.15983
0.26733
0.33522
0.34088
0.34653
0.32956
0.28713
0.23055
0.15417
0.026874
-0.08628
-0.21075
-0.27298
-0.1768
0.0070721
0.22772
0.37765
0.59547
0.70014
0.70863
0.50778
0.10891
-0.17115
-0.32673
-0.28996
-0.16266
-0.0042433
0.1372
0.2843
0.38614
0.46535
0.48232
0.48515
0.47666
0.4314
0.41726
0.36351
0.30976
0.23621
0.14286
0.077793
0.066478
0.1174
0.21924
0.28713
0.34936
0.33805
0.28996
0.22772
0.23055
0.25884
0.28147
0.17397
-0.069307
-0.31259
-0.47383
-0.55304
-0.49364
-0.38048
-0.19943
-0.052334
0.072136
0.19378
0.25884
0.27298
0.24752
0.19943
0.1768
0.16832
0.14851
0.16266
0.24752
0.36634
0.41443
0.41443
0.52758
0.59547
0.60396
0.40877
0.094767
-0.12588
-0.20509
-0.19943
-0.12306
-0.0070721
0.10891
0.19661
0.23904
0.28147
0.29844
0.29844
0.26167
0.20226
0.15417
0.14003
0.15983
0.19378
0.25601
0.33805
0.38897
0.36351
0.29562
0.35785
0.32956
0.28147
0.11457
-0.14851
-0.27864
-0.27864
-0.19095
-0.055163
0.074965
0.18812
0.25035
0.27864
0.29279
0.29279
0.28996
0.25884
0.20509
0.1372
0.089109
0.026874
-0.026874
-0.077793
-0.08628
-0.046676
0.049505
0.2447
0.53607
0.71711
0.67751
0.37199
-0.043847
-0.35502
-0.51061
-0.53041
-0.43423
-0.27016
-0.0042433
0.19661
0.35785
0.40028
0.37199
0.33805
0.30976
0.29844
0.28147
0.24187
0.19943
0.15417
0.12023
0.072136
0.032532
0.03819
0.074965
0.1768
0.29844
0.37765
0.38048
0.31825
0.22489
0.11457
0.009901
-0.14851
-0.23904
-0.14003
-0.055163
-0.026874
-0.16549
-0.34371
-0.45686
-0.47383
-0.38614
-0.2447
-0.089109
0.024045
0.1174
0.19378
0.23621
0.23904
0.20509
0.14569
0.10608
0.08628
0.12588
0.22772
0.35502
0.45403
0.47666
0.42574
0.2843
0.17115
0.077793
0.0014144
-0.12588
-0.38048
-0.60679
-0.73692
-0.74823
-0.63508
-0.45403
-0.26733
-0.12871
-0.0070721
0.08628
0.17115
0.21641
0.19095
0.157
0.10325
0.046676
0.0014144
-0.035361
-0.01273
0.10325
0.23055
0.31259
0.30127
0.26167
0.22489
0.1768
0.094767
-0.052334
-0.032532
-0.009901
0.026874
-0.052334
-0.27864
-0.39745
-0.40877
-0.3239
-0.17115
-0.01273
0.12871
0.22207
0.30127
0.36351
0.37482
0.36351
0.34936
0.3041
0.24752
0.23621
0.23338
0.31825
0.42291
0.51344
0.54455
0.48232
0.39745
0.28147
0.17397
0.046676
-0.12023
-0.069307
-0.03819
0.029703
-0.052334
-0.26733
-0.42574
-0.46535
-0.36634
-0.21075
-0.01273
0.097595
0.20226
0.23338
0.27581
0.25601
0.2447
0.22489
0.27581
0.36068
0.4512
0.52192
0.52475
0.47666
0.50495
0.50495
0.47949
0.32956
-0.0070721
-0.21924
-0.31259
-0.28147
-0.16266
-0.0070721
0.19943
0.36068
0.43706
0.45403
0.47666
0.50778
0.51344
0.46818
0.37765
0.27581
0.20226
0.12871
0.094767
0.08628
0.14569
0.26167
0.36917
0.41443
0.47383
0.59264
0.60962
0.50495
0.19661
-0.18812
-0.40594
-0.5389
-0.51909
-0.4314
-0.2645
-0.11174
0.035361
0.1768
0.27298
0.31825
0.32673
0.30127
0.25601
0.20509
0.15134
0.094767
0.01273
-0.026874
-0.083451
-0.024045
0.08628
0.23055
0.40028
0.471
0.49364
0.44837
0.46818
0.49364
0.45686
0.26167
-0.083451
-0.36068
-0.48232
-0.51344
-0.4314
-0.28713
-0.12023
0.072136
0.20792
0.31259
0.38048
0.37482
0.36634
0.3041
0.25601
0.22207
0.1768
0.17397
0.18246
0.23338
0.30127
0.36351
0.38614
0.32673
0.3239
0.37765
0.40028
0.31259
0.080622
-0.20509
-0.34088
-0.42008
-0.34936
-0.18246
-0.052334
0.074965
0.16266
0.22207
0.30127
0.32956
0.3239
0.28713
0.25884
0.23621
0.25884
0.30127
0.38048
0.47666
0.52192
0.49364
0.47949
0.50778
0.49929
0.36351
0.097595
-0.18246
-0.32673
-0.34653
-0.2447
-0.1174
0.018388
0.12023
0.20509
0.27016
0.3041
0.33239
0.34371
0.32107
0.27581
0.19378
0.14851
0.091938
0.046676
-0.029703
-0.077793
-0.077793
-0.015559
0.1174
0.2843
0.36917
0.36917
0.29844
0.36068
0.36351
0.29279
0.083451
-0.2447
-0.44272
-0.5587
-0.55304
-0.45969
-0.31825
-0.14003
0.018388
0.16266
0.25318
0.32107
0.32673
0.32673
0.29844
0.25318
0.23055
0.18246
0.18529
0.22772
0.29562
0.36351
0.39745
0.38048
0.34371
0.28147
0.14003
0.0014144
0.077793
0.11457
0.10325
-0.069307
-0.32107
-0.50495
-0.57284
-0.5389
-0.41726
-0.24187
-0.13437
-0.035361
0.046676
0.12306
0.16549
0.15983
0.13437
0.1174
0.16266
0.22207
0.32673
0.43423
0.49364
0.51909
0.57567
0.57001
0.55304
0.44554
0.20792
-0.015559
-0.21924
-0.27864
-0.25035
-0.16266
-0.026874
0.10891
0.21641
0.29279
0.33522
0.38897
0.39745
0.36351
0.31825
0.25884
0.19943
0.12871
0.043847
-0.032532
-0.043847
0.026874
0.14851
0.27581
0.35219
0.34371
0.28713
0.20792
0.12871
0.032532
-0.10042
-0.12871
-0.063649
0.0070721
0.018388
-0.10608
-0.25318
-0.30976
-0.30976
-0.23621
-0.097595
0.049505
0.16549
0.25035
0.29279
0.29279
0.28713
0.27016
0.25884
0.25318
0.27298
0.34936
0.46535
0.52475
0.53041
0.56436
0.59547
0.58982
0.45686
0.17397
-0.12306
-0.33805
-0.38897
-0.32956
-0.1768
-0.024045
0.12306
0.24187
0.3041
0.34653
0.36917
0.37765
0.34936
0.28147
0.22207
0.16832
0.15983
0.097595
0.026874
-0.009901
0.0070721
0.077793
0.21075
0.32107
0.38048
0.36351
0.3041
0.21641
0.11457
-0.015559
-0.15983
-0.24752
-0.18529
-0.10891
-0.066478
-0.16549
-0.3041
-0.32107
-0.3041
-0.20226
-0.063649
0.074965
0.18529
0.27016
0.33522
0.38897
0.41726
0.40028
0.33522
0.27864
0.24752
0.29844
0.38614
0.52192
0.62659
0.66902
0.62659
0.51061
0.44837
0.43423
0.39463
0.25601
-0.049505
-0.30976
-0.45969
-0.48798
-0.43423
-0.30127
-0.12588
0.024045
0.1372
0.21924
0.27298
0.30127
0.29562
0.28147
0.25884
0.23338
0.19378
0.14851
0.14286
0.18812
0.27016
0.34653
0.39745
0.38614
0.32673
0.38897
0.40877
0.42291
0.28147
0.009901
-0.21075
-0.3239
-0.33239
-0.21358
-0.055163
0.10325
0.23904
0.32673
0.38614
0.41443
0.42574
0.40877
0.36917
0.31259
0.26167
0.23055
0.20509
0.19095
0.20792
0.26733
0.38897
0.51909
0.59264
0.60396
0.65488
0.70297
0.61245
0.38897
0.0042433
-0.35502
-0.62659
-0.74823
-0.73126
-0.60113
-0.3918
-0.16832
-0.0070721
0.10891
0.15417
0.17115
0.1768
0.15134
0.13437
0.10891
0.080622
0.035361
0.009901
0.0014144
0.06082
0.18529
0.31825
0.42291
0.46252
0.4314
0.35219
0.2645
0.15983
0.015559
-0.15134
-0.19661
-0.14851
-0.063649
-0.052334
-0.18246
-0.3041
-0.36917
-0.35219
-0.27016
-0.12871
0.032532
0.17397
0.2447
0.28147
0.28713
0.2843
0.27581
0.21924
0.20792
0.23621
0.31825
0.43423
0.51627
0.50778
0.45969
0.49364
0.50495
0.50495
0.32107
0.021216
-0.23621
-0.36634
-0.36634
-0.25035
-0.083451
0.077793
0.21641
0.28996
0.34653
0.39463
0.40877
0.40311
0.37199
0.31825
0.27016
0.22772
0.19943
0.14286
0.089109
0.049505
0.08628
0.18246
0.29562
0.40028
0.4314
0.42291
0.38614
0.42008
0.3918
0.30976
0.072136
-0.24752
-0.50212
-0.63791
-0.65771
-0.55021
-0.34653
-0.1174
0.097595
0.25318
0.33805
0.37482
0.38331
0.36917
0.31825
0.26167
0.21075
0.14851
0.08628
0.069307
0.10608
0.20792
0.33805
0.43989
0.49081
0.47383
0.38048
0.28147
0.17397
0.052334
-0.097595
-0.23338
-0.17115
-0.1372
-0.066478
-0.13437
-0.2843
-0.34653
-0.35219
-0.27864
-0.14003
0.029703
0.17115
0.27298
0.33805
0.34088
0.34088
0.33522
0.31542
0.27581
0.2645
0.30976
0.43989
0.53324
0.5785
0.53041
0.51909
0.51344
0.48798
0.38331
0.12306
-0.12306
-0.2843
-0.33805
-0.28996
-0.16549
-0.024045
0.1174
0.21641
0.25035
0.26167
0.29279
0.31259
0.29844
0.25035
0.17963
0.13437
0.066478
-0.009901
-0.069307
-0.10608
-0.091938
-0.029703
0.080622
0.17115
0.25884
0.29844
0.3041
0.25318
0.26167
0.30976
0.27581
0.14003
-0.16266
-0.43706
-0.58699
-0.62093
-0.52192
-0.35502
-0.13154
0.063649
0.23338
0.36068
0.45403
0.46535
0.43423
0.37199
0.31825
0.26733
0.23904
0.20226
0.19943
0.19378
0.22772
0.30976
0.36917
0.4116
0.38614
0.31542
0.22207
0.12871
0.032532
-0.077793
-0.18529
-0.1174
-0.026874
0.035361
-0.0042433
-0.1768
-0.2843
-0.33239
-0.23904
-0.072136
0.11174
0.22772
0.29844
0.33522
0.36068
0.37199
0.35502
0.31542
0.27298
0.25035
0.27864
0.37765
0.50495
0.58416
0.57567
0.57567
0.60113
0.57001
0.43989
0.12023
-0.14286
-0.32107
-0.33805
-0.26167
-0.1174
0.03819
0.20792
0.33522
0.40311
0.4512
0.47949
0.47949
0.46535
0.41726
0.34371
0.28147
0.23055
0.18246
0.14851
0.14003
0.18529
0.2645
0.37199
0.49364
0.57284
0.59264
0.54455
0.43706
0.32107
0.23338
0.1372
0.032532
-0.01273
0.089109
0.16266
0.20792
0.094767
-0.032532
-0.10042
-0.11174
-0.041018
0.074965
0.20792
0.32107
0.37765
0.40311
0.37482
0.3239
0.29562
0.27016
0.26733
0.30127
0.32956
0.40028
0.46818
0.51344
0.55587
0.62093
0.64356
0.55587
0.33522
0.06082
-0.15134
-0.2447
-0.24187
-0.14286
-0.03819
0.10325
0.1768
0.23055
0.25601
0.28147
0.30693
0.30127
0.27298
0.21641
0.16832
0.12871
0.089109
0.018388
-0.052334
-0.12306
-0.12306
-0.080622
0.0042433
0.12306
0.21641
0.23904
0.16832
0.046676
-0.074965
-0.17397
-0.26733
-0.37482
-0.39463
-0.29279
-0.20792
-0.17963
-0.31825
-0.47383
-0.53324
-0.51061
-0.36068
-0.14851
0.029703
0.15983
0.21924
0.25601
0.28996
0.2843
0.25318
0.18529
0.089109
0.049505
0.10325
0.19378
0.32107
0.41726
0.46252
0.47666
0.5983
0.62659
0.55587
0.29562
-0.074965
-0.31542
-0.4116
-0.37482
-0.25601
-0.091938
0.069307
0.20226
0.28147
0.34653
0.40877
0.44554
0.4512
0.43989
0.40311
0.33805
0.28713
0.23621
0.22207
0.17397
0.19095
0.21641
0.2843
0.36634
0.3918
0.36917
0.30127
0.23338
0.17397
0.12306
0.0070721
-0.021216
-0.0042433
0.041018
0.01273
-0.18812
-0.42291
-0.55304
-0.5785
-0.47949
-0.31259
-0.16549
-0.035361
0.089109
0.14851
0.19943
0.17963
0.15983
0.14851
0.10891
0.069307
0.097595
0.16266
0.29562
0.38048
0.41443
0.37482
0.44837
0.43423
0.40028
0.21358
-0.097595
-0.33522
-0.47949
-0.48232
-0.36634
-0.18246
-0.0014144
0.15134
0.25601
0.31542
0.37199
0.41726
0.40877
0.38614
0.33239
0.29279
0.25035
0.19378
0.16266
0.11457
0.083451
0.077793
0.10325
0.17397
0.29562
0.41726
0.52192
0.5785
0.68883
0.68034
0.56153
0.24187
-0.1768
-0.49646
-0.67751
-0.7058
-0.57284
-0.34088
-0.077793
0.10608
0.22489
0.28713
0.33239
0.34088
0.31542
0.27581
0.23904
0.20792
0.1768
0.17397
0.16832
0.16549
0.157
0.22207
0.34088
0.49364
0.59264
0.61245
0.5587
0.48798
0.41726
0.34088
0.25035
0.1174
0.043847
0.10325
0.1372
0.12306
-0.046676
-0.26733
-0.38897
-0.39463
-0.28996
-0.12588
0.026874
0.12023
0.20509
0.24752
0.2645
0.25601
0.23055
0.19943
0.19095
0.20509
0.25035
0.30693
0.36068
0.40594
0.4512
0.49364
0.46818
0.38614
0.37199
0.37199
0.35502
0.22772
-0.06082
-0.30976
-0.43423
-0.43706
-0.31259
-0.1174
0.072136
0.20509
0.29279
0.33522
0.37482
0.37765
0.35219
0.30693
0.27581
0.22772
0.18246
0.13437
0.091938
0.074965
0.10608
0.1768
0.25318
0.34653
0.40594
0.59264
0.63791
0.5785
0.32673
-0.10891
-0.50212
-0.81047
-1
-0.96888
-0.73692
-0.44554
-0.18246
-0.021216
-0.029703
-0.015559
-0.021216
0.015559
0.069307
0.11174
0.14851
0.14003
0.14003
0.12871
0.10891
0.074965
0.035361
0.021216
0.052334
0.12588
0.23904
0.32956
0.36917
0.32107
0.22772
0.14286
0.035361
-0.069307
-0.19943
-0.32956
-0.27864
-0.17397
-0.066478
-0.080622
-0.25884
-0.39745
-0.46818
-0.42857
-0.27581
-0.11457
0.052334
0.1372
0.19095
0.23904
0.25035
0.23904
0.19378
0.10325
-0.0070721
-0.077793
-0.063649
0.021216
0.14569
0.28996
0.4116
0.50212
0.51061
0.50495
0.52192
0.47383
0.34653
0.077793
-0.23055
-0.50212
-0.69731
-0.73692
-0.62093
-0.45969
-0.26167
-0.074965
0.094767
0.2447
0.3239
0.37765
0.35502
0.34653
0.29562
0.25035
0.19661
0.16266
0.14569
0.094767
0.077793
0.11174
0.19095
0.27298
0.3239
0.30693
0.25035
0.16266
0.091938
0.01273
-0.091938
-0.21641
-0.18529
-0.083451
0.0070721
0.0070721
-0.157
-0.33239
-0.41726
-0.40028
-0.28147
-0.10042
0.08628
0.23338
0.35502
0.42574
0.45686
0.43989
0.41443
0.34088
0.21924
0.13154
0.077793
0.14003
0.2645
0.4116
0.55304
0.65771
0.72843
0.73409
0.77086
0.8727
0.8331
0.70297
0.38897
0.083451
-0.12871
-0.26733
-0.2843
-0.18812
-0.021216
0.1372
0.28713
0.41443
0.50495
0.5587
0.57001
0.55304
0.49646
0.4314
0.37482
0.3041
0.25318
0.21358
0.15417
0.12023
0.12588
0.17397
0.2645
0.34936
0.39463
0.38331
0.29844
0.18246
0.077793
-0.018388
-0.15134
-0.28996
-0.21924
-0.15983
-0.052334
-0.080622
-0.2447
-0.36068
-0.45403
-0.42857
-0.30693
-0.14569
0.0070721
0.1372
0.23621
0.29279
0.3239
0.31542
0.29844
0.23904
0.12023
0.03819
0.0070721
0.069307
0.17963
0.32956
0.51061
0.64356
0.69731
0.78784
0.8133
0.74823
0.57284
0.2843
-0.0014144
-0.22207
-0.42291
-0.45686
-0.35785
-0.21924
-0.046676
0.11174
0.22772
0.34371
0.40311
0.43423
0.40877
0.34371
0.27581
0.24187
0.24752
0.23338
0.19661
0.14569
0.08628
0.074965
0.11174
0.21075
0.31542
0.38614
0.38897
0.30693
0.20792
0.12023
0.06082
-0.03819
-0.17397
-0.29562
-0.24187
-0.19095
-0.14003
-0.2447
-0.40877
-0.53041
-0.57567
-0.50495
-0.36068
-0.19095
-0.052334
0.072136
0.157
0.19943
0.21924
0.17397
0.12871
0.0042433
-0.13154
-0.22772
-0.19943
-0.077793
0.052334
0.16266
0.25318
0.34653
0.42574
0.51909
0.52475
0.40594
0.20792
-0.052334
-0.25884
-0.4512
-0.59264
-0.58133
-0.47666
-0.28996
-0.10608
0.049505
0.18246
0.28996
0.38048
0.40877
0.36351
0.30976
0.27016
0.25318
0.23055
0.18246
0.12588
0.094767
0.089109
0.10042
0.16832
0.26167
0.35502
0.39463
0.33239
0.25318
0.1768
0.10608
0.049505
-0.032532
-0.12306
-0.018388
0.043847
0.11457
0.043847
-0.1372
-0.25601
-0.3239
-0.25035
-0.14003
0.01273
0.14003
0.22772
0.3239
0.36917
0.38897
0.36634
0.30127
0.20226
0.069307
-0.041018
-0.077793
0.0014144
0.12588
0.27298
0.42291
0.57284
0.67185
0.73975
0.83593
0.81895
0.6662
0.4116
0.12588
-0.11457
-0.31542
-0.48515
-0.52475
-0.44554
-0.30976
-0.13437
0.035361
0.18812
0.28996
0.34653
0.37765
0.34088
0.30976
0.27581
0.25601
0.23904
0.18246
0.10042
0.041018
0.01273
0.026874
0.072136
0.14286
0.2447
0.28996
0.27016
0.20509
0.12871
0.080622
0.035361
-0.063649
-0.17397
-0.26167
-0.16266
-0.083451
-0.029703
-0.10325
-0.28713
-0.38897
-0.40311
-0.3041
-0.13437
0.032532
0.17963
0.29562
0.37765
0.43423
0.45403
0.4314
0.34653
0.23904
0.1372
0.074965
0.11174
0.19661
0.3239
0.471
0.61528
0.70863
0.77369
0.81895
0.91231
0.84158
0.64922
0.38331
0.094767
-0.13154
-0.32107
-0.43423
-0.39745
-0.27864
-0.11457
0.055163
0.21641
0.32673
0.40877
0.44272
0.45686
0.43706
0.38897
0.30127
0.25884
0.21075
0.20226
0.15417
0.10325
0.069307
0.066478
0.12871
0.23621
0.30693
0.35785
0.34936
0.28996
0.22489
0.17397
0.10042
-0.009901
-0.1372
-0.094767
0.0042433
0.11174
0.12588
-0.021216
-0.15134
-0.21075
-0.21924
-0.13437
0.01273
0.14569
0.25035
0.32673
0.38897
0.4116
0.38048
0.33522
0.22772
0.089109
-0.024045
-0.091938
-0.032532
0.057992
0.18246
0.33805
0.48798
0.58982
0.67185
0.73692
0.7454
0.67185
0.48232
0.2645
0.072136
-0.083451
-0.22207
-0.28713
-0.25884
-0.16549
-0.032532
0.10325
0.24187
0.38331
0.48232
0.51627
0.49081
0.43989
0.40594
0.38048
0.35219
0.30976
0.27298
0.23055
0.19943
0.17963
0.19661
0.26733
0.38331
0.49364
0.55587
0.53041
0.46252
0.38331
0.32673
0.28147
0.20509
0.069307
0.06082
0.091938
0.157
0.13154
-0.083451
-0.26733
-0.40594
-0.45403
-0.40594
-0.29279
-0.16832
-0.021216
0.10608
0.15134
0.18246
0.18246
0.14569
0.069307
-0.049505
-0.17397
-0.23904
-0.20226
-0.083451
0.069307
0.23904
0.37482
0.46252
0.50778
0.49929
0.5389
0.51061
0.40311
0.24752
0.032532
-0.157
-0.30693
-0.43706
-0.44554
-0.35502
-0.20792
-0.032532
0.13437
0.27581
0.38331
0.45403
0.47666
0.43706
0.3918
0.32956
0.28996
0.25318
0.20509
0.157
0.1174
0.08628
0.057992
0.080622
0.16266
0.26733
0.33805
0.33805
0.26733
0.19095
0.091938
0.026874
-0.055163
-0.157
-0.23055
-0.10608
-0.015559
0.066478
-0.015559
-0.17963
-0.32107
-0.3918
-0.34088
-0.20509
-0.041018
0.094767
0.21358
0.29279
0.35785
0.36068
0.31259
0.25601
0.14851
0.029703
-0.06082
-0.072136
-0.0042433
0.097595
0.25601
0.37765
0.50778
0.57001
0.58982
0.57001
0.50495
0.45969
0.43706
0.34936
0.20509
-0.06082
-0.28996
-0.43423
-0.44554
-0.34936
-0.1768
-0.0042433
0.18529
0.3239
0.40028
0.41726
0.42574
0.40311
0.38331
0.35219
0.34088
0.30127
0.27298
0.25035
0.23338
0.23904
0.27864
0.34088
0.4314
0.51909
0.53607
0.48232
0.37765
0.27298
0.19661
0.1174
0.01273
-0.091938
-0.021216
0.066478
0.16832
0.1372
-0.043847
-0.19943
-0.3041
-0.31825
-0.2447
-0.10608
0.024045
0.157
0.2645
0.33805
0.35219
0.30976
0.26167
0.24752
0.20226
0.13154
0.080622
0.17963
0.28147
0.38048
0.39745
0.37765
0.3918
0.38614
0.38897
0.42008
0.47666
0.44837
0.36634
0.23338
0.12023
0.19661
0.21641
0.18812
-0.069307
-0.36917
-0.51627
-0.51344
-0.40594
-0.23338
-0.083451
0.049505
0.13154
0.18529
0.21924
0.23338
0.21924
0.18529
0.15417
0.12023
0.094767
0.077793
0.074965
0.13437
0.22489
0.36634
0.45969
0.50778
0.4512
0.32956
0.21641
0.19095
0.19378
0.11457
-0.03819
-0.29279
-0.47949
-0.56719
-0.53324
-0.43423
-0.28996
-0.157
0.35219
