-0.58098
-0.58296
-0.5998
-0.65131
-0.67905
-0.6424
-0.53343
-0.40862
-0.41951
-0.50471
-0.54829
-0.45022
-0.19168
0.0064388
0.11738
0.11045
0.060921
0.0024765
-0.090639
-0.1996
-0.29965
-0.36899
-0.42546
-0.45914
-0.46805
-0.45815
-0.42348
-0.474
-0.50471
-0.47895
-0.38881
-0.24715
-0.20951
-0.22833
-0.27786
-0.32046
-0.36404
-0.35711
-0.20158
0.02526
0.2422
0.37494
0.3472
0.25508
0.11045
-0.082714
-0.24418
-0.38782
-0.47003
-0.52254
-0.62358
-0.74542
-0.74344
-0.66221
-0.48291
-0.3789
-0.37692
-0.39673
-0.42348
-0.48588
-0.56315
-0.61664
-0.48687
-0.24814
0.029222
0.19069
0.19069
0.10748
-0.0074294
-0.11342
-0.24418
-0.38881
-0.53244
-0.68697
-0.87221
-0.8742
-0.77514
-0.56414
-0.39079
-0.32244
-0.29074
-0.25805
-0.23626
-0.24022
-0.24319
-0.23725
-0.22239
-0.19168
-0.12432
-0.10451
-0.086677
-0.078752
-0.085686
-0.088658
-0.13621
-0.23526
-0.36503
-0.50669
-0.62952
-0.58593
-0.43338
-0.22239
-0.069837
-0.022288
-0.033185
-0.045072
-0.084695
-0.11441
-0.11738
-0.11243
-0.11838
-0.1689
-0.25607
-0.32739
-0.32739
-0.24814
-0.17583
-0.14809
-0.17484
-0.26003
-0.35215
-0.47499
-0.60773
-0.57008
-0.40069
-0.15899
0.032194
0.082714
0.053987
0.0014859
-0.079742
-0.17583
-0.26498
-0.37098
-0.4522
-0.48291
-0.45518
-0.37395
-0.27984
-0.18375
-0.14017
-0.13422
-0.14611
-0.14611
-0.14809
-0.19762
-0.29272
-0.39277
-0.31352
-0.1372
0.085686
0.16592
0.055968
-0.12333
-0.30064
-0.42843
-0.50074
-0.52452
-0.53145
-0.46211
-0.36602
-0.25805
-0.17088
-0.12333
-0.10649
-0.10847
-0.13224
-0.17781
-0.21842
-0.21842
-0.27489
-0.37692
-0.43338
-0.40466
-0.31253
-0.18673
-0.16295
-0.20456
-0.26994
-0.33234
-0.39079
-0.43735
-0.4839
-0.51461
-0.52155
-0.49381
-0.44626
-0.36503
-0.29866
-0.22536
-0.16196
-0.11441
-0.07578
-0.080733
-0.11937
-0.21446
-0.29272
-0.25012
-0.14314
0.012382
0.065874
0.036157
-0.013373
-0.095592
-0.18078
-0.25805
-0.32541
-0.34819
-0.38583
-0.39574
-0.38881
-0.40466
-0.40961
-0.41753
-0.38881
-0.31947
-0.22338
-0.17781
-0.1372
-0.051015
0.079742
0.19168
0.20357
0.11342
-0.00842
-0.11937
-0.22041
-0.32244
-0.39871
-0.45617
-0.48588
-0.4948
-0.49282
-0.49282
-0.47994
-0.45518
-0.42348
-0.39475
-0.39574
-0.41852
-0.42249
-0.40367
-0.31253
-0.12927
0.16097
0.4215
0.59782
0.60178
0.48985
0.31154
0.10946
-0.098564
-0.26696
-0.37791
-0.45121
-0.48687
-0.50173
-0.5057
-0.48093
-0.45121
-0.40267
-0.35215
-0.2947
-0.25111
-0.23427
-0.23526
-0.29173
-0.3789
-0.48886
-0.65032
-0.7583
-0.59683
-0.30857
0.18574
0.53541
0.69787
0.7157
0.58494
0.42348
0.26696
0.10451
-0.039128
-0.16592
-0.26895
-0.33829
-0.36899
-0.37989
-0.3789
-0.37296
-0.37494
-0.37296
-0.38088
-0.38583
-0.41951
-0.49381
-0.64735
-0.85339
-0.85934
-0.69589
-0.24517
0.23229
0.57107
0.74542
0.78108
0.69985
0.56513
0.38583
0.18276
-0.00842
-0.20258
-0.38484
-0.50966
-0.57504
-0.58197
-0.56909
-0.53938
-0.51857
-0.50768
-0.51263
-0.53442
-0.58593
-0.71471
-0.78801
-0.69193
-0.49084
-0.24715
-0.16691
-0.21149
-0.2838
-0.29272
-0.18772
-0.00049529
0.20158
0.34027
0.34819
0.32739
0.22338
0.10253
-0.057949
-0.23031
-0.39079
-0.51461
-0.60872
-0.68995
-0.78108
-0.79
-0.70084
-0.52055
-0.34621
-0.2739
-0.29272
-0.33234
-0.36206
-0.36107
-0.36602
-0.40267
-0.48192
-0.56612
-0.58395
-0.48588
-0.34918
-0.14413
-0.0094106
0.09262
0.11144
0.072808
-0.032194
-0.17979
-0.33531
-0.38385
-0.32244
-0.19267
-0.087667
-0.061912
-0.096582
-0.16989
-0.26102
-0.35513
-0.43041
-0.48192
-0.50669
-0.50371
-0.47003
-0.42843
-0.34819
-0.23725
-0.13522
-0.031204
0.021298
0.041109
0.0421
0.065874
0.15106
0.27192
0.33333
0.2531
0.059931
-0.18177
-0.42447
-0.59782
-0.69391
-0.71669
-0.68202
-0.62952
-0.579
-0.54433
-0.51164
-0.49381
-0.47895
-0.48588
-0.49183
-0.50272
-0.46013
-0.40565
-0.2947
-0.13026
0.060921
0.24418
0.31154
0.28083
0.1471
0.0064388
-0.15106
-0.2947
-0.40961
-0.49876
-0.5582
-0.58296
-0.59188
-0.58296
-0.58891
-0.57999
-0.5582
-0.51956
-0.45518
-0.38385
-0.32442
-0.28777
-0.27588
-0.26597
-0.22833
-0.17484
-0.10946
-0.10154
-0.11342
-0.15701
-0.23824
-0.33333
-0.41852
-0.43635
-0.40168
-0.35315
-0.25904
-0.088658
0.073799
0.20059
0.22338
0.18177
0.12927
0.054978
-0.023279
-0.096582
-0.14116
-0.15998
-0.16394
-0.1372
-0.1055
-0.071818
-0.062902
-0.10154
-0.17187
-0.30064
-0.43536
-0.57207
-0.6206
-0.60178
-0.44626
-0.21149
0.0014859
0.28975
0.45815
0.60674
0.61268
0.51956
0.38484
0.22833
0.084695
-0.028232
-0.12729
-0.19861
-0.24517
-0.26696
-0.27885
-0.28083
-0.28678
-0.30064
-0.32244
-0.35017
-0.38782
-0.45419
-0.51956
-0.54334
-0.55027
-0.48588
-0.41654
-0.37494
-0.24319
0.02526
0.42249
0.75037
0.89401
0.75433
0.53541
0.2947
0.065874
-0.12828
-0.28579
-0.40763
-0.48787
-0.53739
-0.5473
-0.54037
-0.51659
-0.49282
-0.47598
-0.45815
-0.48093
-0.56315
-0.57107
-0.50669
-0.3789
-0.25508
-0.21743
-0.21149
-0.23824
-0.39079
-0.56909
-0.41753
-0.14809
0.2838
0.50669
0.48687
0.38583
0.20258
0.0054482
-0.18673
-0.32541
-0.43536
-0.50768
-0.53442
-0.54532
-0.53541
-0.51758
-0.51461
-0.52749
-0.58692
-0.65329
-0.68598
-0.62655
-0.4948
-0.31253
-0.20059
-0.19564
-0.29173
-0.46409
-0.54631
-0.45121
-0.20753
0.10451
0.30362
0.37494
0.31649
0.20258
0.049034
-0.094601
-0.21942
-0.32145
-0.39178
-0.44032
-0.47895
-0.49084
-0.50074
-0.50272
-0.50966
-0.50272
-0.46508
-0.42447
-0.40466
-0.41357
-0.48291
-0.59386
-0.72263
-0.81278
-0.79693
-0.67112
-0.51857
-0.23328
0.055968
0.37098
0.54532
0.53541
0.4215
0.25805
0.090639
-0.05894
-0.18673
-0.29866
-0.37395
-0.41654
-0.42744
-0.42546
-0.40466
-0.37395
-0.34522
-0.33234
-0.33631
-0.40862
-0.51758
-0.64339
-0.69589
-0.65726
-0.50669
-0.36503
-0.29569
-0.19564
0.0094106
0.27786
0.5364
0.56315
0.46706
0.29965
0.11144
-0.07578
-0.21149
-0.33829
-0.40466
-0.45419
-0.474
-0.48489
-0.48588
-0.47499
-0.474
-0.46112
-0.4522
-0.43933
-0.49579
-0.61565
-0.62556
-0.56711
-0.37395
-0.17979
-0.1154
-0.19663
-0.15404
0.022288
0.33531
0.61367
0.64042
0.50669
0.31451
0.10054
-0.090639
-0.25607
-0.37494
-0.47003
-0.53541
-0.57504
-0.59188
-0.59485
-0.59386
-0.58891
-0.57603
-0.58494
-0.65726
-0.63546
-0.58494
-0.5156
-0.46112
-0.45022
-0.41852
-0.33531
-0.15998
0.078752
0.3264
0.49084
0.4948
0.39772
0.2422
0.062902
-0.12432
-0.2739
-0.40466
-0.49777
-0.56018
-0.59386
-0.60376
-0.59089
-0.57603
-0.58296
-0.65131
-0.64636
-0.56315
-0.43041
-0.3155
-0.3056
-0.29569
-0.23923
-0.21347
-0.25409
-0.35116
-0.40664
-0.31352
-0.087667
0.1263
0.26795
0.25607
0.16989
0.049034
-0.084695
-0.19861
-0.30263
-0.39772
-0.51461
-0.60178
-0.62159
-0.53541
-0.41852
-0.32937
-0.3264
-0.38286
-0.42744
-0.45914
-0.45914
-0.4522
-0.46706
-0.50173
-0.55423
-0.58296
-0.54829
-0.42051
-0.20654
0.0074294
0.15998
0.2105
0.19366
0.13621
0.055968
-0.018326
-0.074789
-0.11342
-0.16394
-0.22239
-0.31451
-0.4106
-0.51164
-0.60376
-0.66023
-0.67707
-0.64537
-0.60376
-0.56216
-0.52155
-0.4839
-0.47103
-0.48687
-0.51164
-0.50074
-0.38088
-0.1689
0.084695
0.25012
0.3264
0.31451
0.23427
0.13224
0.00049529
-0.14413
-0.29173
-0.43735
-0.56612
-0.66419
-0.70084
-0.69094
-0.63843
-0.5899
-0.53739
-0.49579
-0.45716
-0.42249
-0.38583
-0.35612
-0.34522
-0.35215
-0.39475
-0.46805
-0.53145
-0.5265
-0.41753
-0.23328
0.030213
0.25409
0.40862
0.47103
0.41159
0.29767
0.13819
-0.059931
-0.24319
-0.38583
-0.48787
-0.53839
-0.54433
-0.52155
-0.4839
-0.45319
-0.42645
-0.41159
-0.39277
-0.38484
-0.37692
-0.38583
-0.39475
-0.43041
-0.49579
-0.56612
-0.63249
-0.67905
-0.60475
-0.39475
-0.085686
0.22239
0.46904
0.58593
0.6107
0.53541
0.37197
0.18474
0.028232
-0.095592
-0.18871
-0.24517
-0.28281
-0.31253
-0.34225
-0.37098
-0.38088
-0.37593
-0.35017
-0.3155
-0.28479
-0.26696
-0.26003
-0.263
-0.26201
-0.25211
-0.23626
-0.22734
-0.19663
-0.13323
-0.16989
-0.36107
-0.69985
-0.96434
-1
-0.68995
-0.2531
0.1689
0.43437
0.51362
0.50669
0.43338
0.32541
0.19564
0.052997
-0.062902
-0.16295
-0.22635
-0.28281
-0.31154
-0.32739
-0.3373
-0.34423
-0.36305
-0.37197
-0.37494
-0.36503
-0.35017
-0.34918
-0.3472
-0.36107
-0.3581
-0.35711
-0.40961
-0.57603
-0.70976
-0.78405
-0.80485
-0.67806
-0.43735
-0.12036
0.22338
0.38286
0.39574
0.32739
0.21545
0.084695
-0.047053
-0.18474
-0.29965
-0.38286
-0.44824
-0.48588
-0.51362
-0.53442
-0.53442
-0.53046
-0.5364
-0.53046
-0.53343
-0.53145
-0.56216
-0.60971
-0.57306
-0.48886
-0.4215
-0.47301
-0.61961
-0.70084
-0.65527
-0.47895
-0.20753
0.059931
0.25409
0.3056
0.25904
0.15602
0.016345
-0.1263
-0.25111
-0.33928
-0.40664
-0.44428
-0.44725
-0.44626
-0.42546
-0.41555
-0.39673
-0.38484
-0.36701
-0.32838
-0.32343
-0.36008
-0.52055
-0.7157
-0.84547
-0.81773
-0.68004
-0.50471
-0.21942
0.087667
0.37989
0.53938
0.52055
0.42843
0.29272
0.13422
-0.020307
-0.158
-0.26696
-0.3373
-0.38187
-0.39772
-0.3997
-0.39376
-0.37593
-0.36305
-0.35414
-0.34225
-0.33928
-0.32937
-0.35414
-0.40267
-0.50966
-0.57008
-0.55225
-0.5582
-0.54037
-0.57405
-0.39475
-0.041109
0.37593
0.64339
0.69787
0.61862
0.47003
0.29272
0.11441
-0.054978
-0.19564
-0.31253
-0.39277
-0.44428
-0.45617
-0.46013
-0.44428
-0.42546
-0.40862
-0.39376
-0.37989
-0.37692
-0.38583
-0.38683
-0.41159
-0.42348
-0.45022
-0.48093
-0.50074
-0.48489
-0.40862
-0.29866
-0.18078
-0.12135
-0.059931
0.035166
0.20357
0.41159
0.5582
0.57008
0.44032
0.27489
0.086677
-0.069837
-0.20357
-0.30064
-0.37494
-0.41357
-0.4215
-0.41357
-0.39574
-0.40565
-0.45022
-0.52155
-0.56216
-0.55324
-0.50669
-0.47202
-0.42447
-0.33631
-0.24319
-0.17187
-0.17781
-0.2838
-0.38782
-0.34423
-0.15404
0.12333
0.32739
0.39376
0.34027
0.21743
0.032194
-0.16592
-0.33928
-0.45716
-0.52848
-0.55721
-0.55225
-0.5265
-0.50074
-0.47895
-0.49084
-0.5265
-0.60475
-0.57504
-0.44131
-0.28479
-0.16989
-0.18375
-0.23031
-0.28479
-0.36008
-0.3056
-0.098564
0.21347
0.5156
0.64438
0.62952
0.5364
0.39178
0.2214
0.040119
-0.11937
-0.27984
-0.39475
-0.47202
-0.50669
-0.50867
-0.51857
-0.51461
-0.51659
-0.56414
-0.6107
-0.58395
-0.47598
-0.32046
-0.20852
-0.23626
-0.30362
-0.39772
-0.49183
-0.65032
-0.64537
-0.40466
0.017335
0.45419
0.65428
0.65726
0.57306
0.40961
0.21743
0.013373
-0.18871
-0.35017
-0.48985
-0.5899
-0.65131
-0.67112
-0.67211
-0.6632
-0.68004
-0.69292
-0.66419
-0.58593
-0.4948
-0.45914
-0.47697
-0.50272
-0.54334
-0.60277
-0.58692
-0.43239
-0.15305
0.158
0.36404
0.4423
0.40664
0.31352
0.16196
0.028232
-0.11639
-0.22437
-0.32244
-0.4215
-0.49975
-0.54037
-0.56711
-0.579
-0.61169
-0.67013
-0.77018
-0.83061
-0.79297
-0.63546
-0.42447
-0.25211
-0.17286
-0.19762
-0.24814
-0.31451
-0.35711
-0.37296
-0.36107
-0.32145
-0.25805
-0.20555
-0.15106
-0.061912
0.065874
0.17484
0.23229
0.1996
0.13918
0.035166
-0.11738
-0.28678
-0.42942
-0.55423
-0.64042
-0.69985
-0.68202
-0.6206
-0.53046
-0.46013
-0.41456
-0.42447
-0.48192
-0.5582
-0.60178
-0.6107
-0.579
-0.55919
-0.52155
-0.45319
-0.37791
-0.28975
-0.22041
-0.12531
0.0064388
0.18772
0.31947
0.3581
0.27786
0.17583
0.061912
-0.0421
-0.17583
-0.27687
-0.34819
-0.37791
-0.38286
-0.41456
-0.47202
-0.56513
-0.61169
-0.61367
-0.55423
-0.48291
-0.40763
-0.3581
-0.28579
-0.22635
-0.1689
-0.16691
-0.14413
-0.13323
-0.068846
0.020307
0.077761
0.12036
0.10352
0.069837
0.028232
-0.032194
-0.12927
-0.263
-0.39772
-0.47003
-0.45815
-0.38484
-0.31451
-0.29569
-0.3155
-0.36008
-0.37395
-0.35116
-0.29866
-0.25211
-0.21347
-0.158
-0.16097
-0.12333
-0.083705
-0.00049529
0.095592
0.16592
0.1996
0.17385
0.11937
0.054978
-0.010401
-0.093611
-0.15503
-0.22932
-0.29569
-0.3997
-0.49084
-0.53046
-0.46211
-0.34522
-0.23626
-0.21347
-0.22536
-0.20258
-0.18574
-0.16493
-0.19267
-0.2313
-0.2105
-0.13522
0.034175
0.19564
0.30956
0.35513
0.33928
0.27093
0.1996
0.12729
0.045072
-0.039128
-0.13422
-0.23427
-0.32541
-0.40069
-0.47598
-0.49777
-0.52055
-0.52254
-0.58296
-0.62457
-0.71075
-0.70183
-0.62259
-0.474
-0.32343
-0.25904
-0.22635
-0.15106
0.0064388
0.24022
0.43933
0.55622
0.57702
0.49084
0.34522
0.20059
0.052997
-0.065874
-0.17781
-0.26795
-0.32937
-0.37989
-0.40267
-0.43735
-0.45518
-0.46706
-0.47202
-0.47994
-0.46013
-0.44923
-0.5364
-0.57801
-0.55622
-0.47301
-0.35909
-0.30461
-0.35612
-0.33135
-0.19366
0.05894
0.39475
0.60872
0.64834
0.58593
0.44131
0.27489
0.10748
-0.063893
-0.24715
-0.40069
-0.50669
-0.56612
-0.57801
-0.55324
-0.52155
-0.48886
-0.47697
-0.49381
-0.51065
-0.57801
-0.64933
-0.64834
-0.54532
-0.37989
-0.26399
-0.21545
-0.21446
-0.23427
-0.26399
-0.20158
-0.062902
0.14908
0.27984
0.30956
0.29074
0.22041
0.14611
0.040119
-0.078752
-0.20753
-0.31055
-0.38683
-0.44725
-0.47994
-0.49876
-0.49282
-0.49381
-0.51659
-0.55126
-0.57107
-0.54532
-0.49777
-0.4631
-0.44032
-0.38683
-0.32046
-0.25904
-0.26003
-0.2531
-0.24913
-0.23328
-0.23427
-0.1996
-0.12531
0.0014859
0.12432
0.20852
0.18871
0.13125
0.0074294
-0.12234
-0.27885
-0.42051
-0.53244
-0.64042
-0.7266
-0.75433
-0.70877
-0.60971
-0.52749
-0.52947
-0.52551
-0.49381
-0.43041
-0.35315
-0.31847
-0.26994
-0.24418
-0.23626
-0.24517
-0.26102
-0.2422
-0.16493
-0.027241
0.088658
0.15106
0.12036
0.029222
-0.074789
-0.15701
-0.21743
-0.31649
-0.43834
-0.55523
-0.62754
-0.63348
-0.58891
-0.55721
-0.55423
-0.57306
-0.57801
-0.54334
-0.48588
-0.40565
-0.36305
-0.30857
-0.2838
-0.26994
-0.24022
-0.19762
-0.11144
0.0044577
0.12828
0.21347
0.23725
0.17781
0.087667
0.00049529
-0.086677
-0.14215
-0.21743
-0.27984
-0.38683
-0.50768
-0.60376
-0.65032
-0.57999
-0.48093
-0.36899
-0.32046
-0.31748
-0.32442
-0.31055
-0.30857
-0.26102
-0.21644
-0.16989
-0.12234
-0.090639
-0.041109
0.080733
0.21347
0.28281
0.27192
0.20456
0.11441
0.047053
-0.049034
-0.15899
-0.29173
-0.37296
-0.40763
-0.45914
-0.54334
-0.6632
-0.72263
-0.68004
-0.56315
-0.46409
-0.38583
-0.39277
-0.42843
-0.44428
-0.41555
-0.35116
-0.30758
-0.26399
-0.24913
-0.1788
-0.072808
0.10847
0.26102
0.36008
0.32541
0.26201
0.17286
0.078752
-0.021298
-0.12432
-0.24715
-0.33531
-0.41258
-0.46805
-0.51362
-0.54136
-0.53145
-0.46904
-0.38187
-0.3056
-0.28083
-0.36305
-0.44824
-0.50272
-0.4631
-0.3898
-0.32838
-0.26003
-0.21446
-0.13918
-0.11045
-0.045072
0.024269
0.13522
0.20555
0.28975
0.29173
0.22734
0.098564
-0.053987
-0.19267
-0.29074
-0.35017
-0.39574
-0.3997
-0.40069
-0.37494
-0.33631
-0.31352
-0.25904
-0.21942
-0.19168
-0.24913
-0.3472
-0.47103
-0.53839
-0.50272
-0.42249
-0.28281
-0.19663
-0.15305
-0.1055
-0.015354
0.14908
0.37692
0.54433
0.59584
0.53938
0.39376
0.21743
0.014364
-0.15998
-0.29074
-0.38385
-0.44824
-0.46706
-0.48787
-0.47301
-0.45419
-0.44527
-0.42645
-0.45716
-0.4423
-0.38881
-0.31748
-0.35612
-0.46904
-0.56018
-0.50966
-0.39079
-0.32145
-0.32541
-0.23328
-0.039128
0.25904
0.4948
0.61169
0.60971
0.5057
0.31154
0.10451
-0.12531
-0.31154
-0.44923
-0.5265
-0.54532
-0.5364
-0.5364
-0.5364
-0.5156
-0.49282
-0.44527
-0.40763
-0.34819
-0.3264
-0.37692
-0.55721
-0.76424
-0.82962
-0.7266
-0.54136
-0.42843
-0.263
-0.09163
0.13621
0.3155
0.41456
0.51263
0.55721
0.50471
0.4106
0.21942
0.027241
-0.13323
-0.27687
-0.38484
-0.44923
-0.48985
-0.50074
-0.50074
-0.50173
-0.49975
-0.49777
-0.52452
-0.54334
-0.5057
-0.42843
-0.31154
-0.24121
-0.21248
-0.21248
-0.1996
-0.18871
-0.19762
-0.19762
-0.19267
-0.16691
-0.14809
-0.083705
-0.040119
0.049034
0.10154
0.15007
0.12729
0.083705
-0.027241
-0.15007
-0.27489
-0.37098
-0.45121
-0.46805
-0.48291
-0.44626
-0.4215
-0.34324
-0.3056
-0.26795
-0.27885
-0.35711
-0.46112
-0.63051
-0.74938
-0.8207
-0.74344
-0.6107
-0.39277
-0.18871
-0.052006
0.10451
0.26399
0.42645
0.53739
0.56909
0.4839
0.36701
0.2105
0.053987
-0.088658
-0.2531
-0.37395
-0.45617
-0.49084
-0.49876
-0.50471
-0.48886
-0.45716
-0.40763
-0.34126
-0.28182
-0.29965
-0.38187
-0.51659
-0.62259
-0.60178
-0.4948
-0.35711
-0.21149
-0.10946
-0.0054482
0.069837
0.16592
0.27687
0.39871
0.47895
0.45815
0.35711
0.23031
0.084695
-0.055968
-0.18673
-0.28876
-0.3898
-0.45022
-0.49777
-0.49282
-0.4839
-0.46409
-0.45319
-0.45419
-0.43536
-0.42744
-0.41654
-0.45617
-0.45716
-0.50768
-0.55523
-0.57801
-0.56117
-0.44032
-0.34918
-0.25409
-0.1897
-0.093611
0.048044
0.23725
0.37989
0.45716
0.4423
0.32442
0.1788
-0.0094106
-0.14908
-0.27588
-0.37989
-0.45716
-0.51065
-0.5364
-0.54631
-0.52353
-0.50371
-0.46112
-0.40565
-0.38385
-0.39079
-0.47796
-0.6632
-0.74146
-0.74542
-0.56612
-0.40565
-0.31253
-0.28777
-0.20852
-0.055968
0.1689
0.43041
0.57504
0.61268
0.50173
0.34918
0.12927
-0.040119
-0.20456
-0.32244
-0.45617
-0.52848
-0.61862
-0.65428
-0.67112
-0.64636
-0.62259
-0.58098
-0.53839
-0.49678
-0.49678
-0.54829
-0.64834
-0.72462
-0.7266
-0.58891
-0.41555
-0.27786
-0.20951
-0.18474
-0.078752
0.10649
0.30263
0.47202
0.53244
0.52155
0.44626
0.29767
0.13918
-0.037147
-0.19069
-0.3264
-0.40069
-0.46706
-0.47499
-0.50371
-0.52055
-0.53839
-0.56414
-0.58593
-0.62556
-0.64339
-0.63546
-0.57405
-0.53343
-0.48489
-0.42645
-0.34423
-0.27192
-0.1788
-0.13323
-0.11738
-0.095592
-0.1055
-0.080733
-0.050025
0.010401
0.052997
0.069837
0.065874
0.033185
-0.013373
-0.09163
-0.19762
-0.30263
-0.41654
-0.49975
-0.54334
-0.56909
-0.51164
-0.42051
-0.33829
-0.37494
-0.46013
-0.58296
-0.58791
-0.51263
-0.3789
-0.22635
-0.15106
-0.098564
-0.034175
0.033185
0.053987
0.068846
0.090639
0.1263
0.17484
0.19465
0.16592
0.064884
-0.048044
-0.17385
-0.29074
-0.38286
-0.45121
-0.4948
-0.50669
-0.54037
-0.53343
-0.5364
-0.53046
-0.53739
-0.55126
-0.49579
-0.40168
-0.35513
-0.3898
-0.43437
-0.41951
-0.32937
-0.27291
-0.28281
-0.27192
-0.25904
-0.16493
-0.033185
0.18673
0.33333
0.4215
0.43437
0.33531
0.23923
0.059931
-0.12828
-0.33036
-0.47994
-0.55523
-0.59386
-0.56612
-0.5473
-0.5364
-0.50768
-0.49183
-0.45319
-0.41852
-0.4631
-0.59881
-0.69688
-0.73749
-0.59287
-0.42447
-0.32739
-0.30362
-0.27192
-0.15998
0.038138
0.26895
0.50966
0.6632
0.70282
0.63843
0.45617
0.24814
-0.0064388
-0.22833
-0.42051
-0.56414
-0.63249
-0.65032
-0.65726
-0.63051
-0.64042
-0.60674
-0.59089
-0.57207
-0.63249
-0.68499
-0.67707
-0.56612
-0.35513
-0.2313
-0.13621
-0.13323
-0.11045
-0.086677
-0.0074294
0.049034
0.1263
0.16592
0.20357
0.17385
0.10451
0.0024765
-0.11342
-0.19564
-0.25508
-0.31947
-0.38385
-0.42942
-0.45518
-0.48588
-0.47598
-0.48985
-0.51065
-0.59089
-0.66815
-0.71273
-0.63843
-0.51164
-0.36305
-0.263
-0.19564
-0.14809
-0.11838
-0.12828
-0.14413
-0.14512
-0.11937
-0.082714
0.0014859
0.10054
0.18276
0.1897
0.12531
0.033185
-0.07578
-0.17187
-0.26498
-0.35116
-0.39376
-0.43338
-0.49777
-0.56612
-0.66419
-0.74245
-0.76424
-0.71174
-0.57999
-0.47697
-0.39772
-0.34819
-0.30659
-0.26399
-0.22437
-0.19762
-0.15701
-0.13522
-0.12828
-0.085686
-0.029222
0.067855
0.12729
0.13918
0.096582
0.011392
-0.0421
-0.10847
-0.15007
-0.24319
-0.33135
-0.44824
-0.54829
-0.65627
-0.6949
-0.67905
-0.59089
-0.49381
-0.42447
-0.37692
-0.31451
-0.27093
-0.21446
-0.18871
-0.20753
-0.22635
-0.22932
-0.26399
-0.25805
-0.24913
-0.17583
-0.098564
-0.0074294
0.035166
0.015354
-0.021298
-0.070827
-0.1055
-0.15701
-0.22338
-0.33036
-0.42942
-0.50768
-0.54334
-0.50272
-0.4215
-0.34819
-0.31748
-0.34027
-0.39079
-0.38583
-0.35909
-0.3056
-0.24418
-0.20357
-0.14908
-0.11738
-0.12927
-0.11045
-0.10748
-0.047053
0.0074294
0.035166
0.035166
0.020307
-0.013373
-0.032194
-0.070827
-0.10253
-0.15305
-0.22437
-0.31748
-0.41456
-0.50669
-0.5473
-0.52551
-0.43735
-0.37296
-0.31649
-0.27291
-0.22833
-0.16097
-0.13819
-0.12135
-0.088658
-0.096582
-0.095592
-0.069837
-0.018326
0.056959
0.10649
0.096582
0.081724
0.026251
-0.038138
-0.064884
-0.11937
-0.17781
-0.21347
-0.27687
-0.32739
-0.40763
-0.4948
-0.4948
-0.46805
-0.40168
-0.3581
-0.35215
-0.33234
-0.30362
-0.2531
-0.20158
-0.14116
-0.11937
-0.10946
-0.14413
-0.12333
-0.094601
-0.030213
0.031204
0.05894
0.044081
-0.0074294
-0.073799
-0.099554
-0.12333
-0.15503
-0.17583
-0.23229
-0.28678
-0.32739
-0.36107
-0.39277
-0.38683
-0.38583
-0.41357
-0.44428
-0.49282
-0.49678
-0.47796
-0.40565
-0.34027
-0.29272
-0.28281
-0.2531
-0.2313
-0.23526
-0.20555
-0.16394
-0.052006
0.064884
0.16097
0.23031
0.24022
0.20258
0.13522
0.0064388
-0.097573
-0.20158
-0.28876
-0.32244
-0.34027
-0.35315
-0.36305
-0.3997
-0.40168
-0.39475
-0.37296
-0.35017
-0.35116
-0.37197
-0.4522
-0.53145
-0.69688
-0.71273
-0.6424
-0.46904
-0.29074
-0.23427
-0.17583
-0.035166
0.18574
0.46409
0.68301
0.77216
0.76226
0.61466
0.45121
0.24517
0.015354
-0.18673
-0.39178
-0.52848
-0.68301
-0.7682
-0.7791
-0.74344
-0.6424
-0.53739
-0.46706
-0.42447
-0.37098
-0.39574
-0.38583
-0.49084
-0.52749
-0.57504
-0.53739
-0.45815
-0.35711
-0.27786
-0.20456
-0.12135
0.00049529
0.17484
0.26696
0.34621
0.3789
0.41852
0.39673
0.31649
0.17583
0.035166
-0.15206
-0.31154
-0.44329
-0.53145
-0.57702
-0.58494
-0.60575
-0.57999
-0.54532
-0.50471
-0.49381
-0.47697
-0.48787
-0.52155
-0.59584
-0.66221
-0.68598
-0.64339
-0.54334
-0.44725
-0.3155
-0.2313
-0.1372
-0.055968
0.014364
0.07578
0.15007
0.21743
0.33135
0.36999
0.36602
0.30263
0.17781
0.0421
-0.084695
-0.22437
-0.35711
-0.45518
-0.52452
-0.55324
-0.5681
-0.55919
-0.61466
-0.5899
-0.61169
-0.57801
-0.5998
-0.57801
-0.5998
-0.6315
-0.61763
-0.52452
-0.40069
-0.25706
-0.17979
-0.12531
-0.05894
-0.032194
0.027241
0.10847
0.19069
0.27489
0.28678
0.23923
0.15106
0.0094106
-0.1154
-0.23725
-0.33829
-0.40069
-0.43635
-0.42744
-0.40565
-0.37989
-0.39178
-0.45914
-0.61466
-0.75235
-0.7999
-0.73254
-0.55027
-0.36999
-0.25508
-0.20258
-0.16592
-0.12432
-0.084695
-0.066865
-0.052006
0.00842
0.082714
0.20059
0.27192
0.3056
0.24121
0.14413
0.041109
-0.064884
-0.16394
-0.22833
-0.2947
-0.3264
-0.37791
-0.43041
-0.46706
-0.51857
-0.53442
-0.56117
-0.58395
-0.58791
-0.60971
-0.61169
-0.58296
-0.5057
-0.39574
-0.29965
-0.24715
-0.21942
-0.19069
-0.1471
-0.074789
0.044081
0.19861
0.33432
0.40466
0.38782
0.27687
0.12432
-0.053987
-0.23626
-0.37395
-0.48588
-0.52848
-0.54928
-0.56711
-0.52055
-0.49282
-0.44725
-0.42843
-0.45617
-0.54334
-0.66221
-0.7266
-0.71867
-0.61466
-0.45518
-0.33432
-0.24418
-0.21942
-0.16394
-0.065874
0.044081
0.17088
0.28975
0.41159
0.49183
0.49282
0.40267
0.23229
0.047053
-0.13323
-0.263
-0.37989
-0.44923
-0.52749
-0.5681
-0.61169
-0.63249
-0.61367
-0.56414
-0.50966
-0.45419
-0.41654
-0.41951
-0.44131
-0.53541
-0.63943
-0.72065
-0.67509
-0.54928
-0.41357
-0.32442
-0.24319
-0.18772
-0.071818
0.021298
0.12927
0.2214
0.33531
0.43338
0.44032
0.36701
0.21644
0.040119
-0.1372
-0.26399
-0.37098
-0.43437
-0.48192
-0.54433
-0.58692
-0.62655
-0.63348
-0.65924
-0.65131
-0.66221
-0.67112
-0.68499
-0.68202
-0.68598
-0.61961
-0.579
-0.47994
-0.368
-0.28479
-0.2313
-0.18574
-0.15007
-0.045072
0.081724
0.25904
0.4106
0.45419
0.44824
0.35612
0.19762
0.033185
-0.17781
-0.29866
-0.39178
-0.44725
-0.49678
-0.55126
-0.58395
-0.61169
-0.62457
-0.62457
-0.64042
-0.66914
-0.64537
-0.61565
-0.57504
-0.50966
-0.45419
-0.37494
-0.31847
-0.25607
-0.18673
-0.11144
0.0094106
0.10154
0.21545
0.28281
0.37098
0.36701
0.29569
0.1679
0.036157
-0.074789
-0.158
-0.2531
-0.30857
-0.35711
-0.40664
-0.41357
-0.43735
-0.49183
-0.52551
-0.58197
-0.61763
-0.68301
-0.72263
-0.72957
-0.68499
-0.55225
-0.45319
-0.36206
-0.29074
-0.25706
-0.2214
-0.18871
-0.13224
-0.067855
-0.0064388
0.083705
0.14413
0.23526
0.31748
0.3581
0.34423
0.2739
0.18078
0.063893
-0.05894
-0.16196
-0.2531
-0.32145
-0.37494
-0.46904
-0.54235
-0.61367
-0.68103
-0.73353
-0.82467
-0.84844
-0.80287
-0.64438
-0.47003
-0.30163
-0.18871
-0.12729
-0.055968
-0.038138
0.037147
0.051015
0.069837
0.11342
0.1897
0.26597
0.31352
0.29866
0.21149
0.074789
-0.052997
-0.15404
-0.25904
-0.33432
-0.42843
-0.49876
-0.54334
-0.58593
-0.61268
-0.60575
-0.57008
-0.52155
-0.54928
-0.60277
-0.66122
-0.63546
-0.53442
-0.40565
-0.27786
-0.18673
-0.1263
-0.094601
-0.065874
-0.049034
-0.0044577
0.017335
0.087667
0.16196
0.23626
0.25111
0.24022
0.15206
0.07578
-0.028232
-0.10748
-0.24022
-0.32739
-0.44626
-0.49777
-0.55423
-0.58197
-0.57107
-0.53938
-0.50768
-0.51065
-0.54433
-0.56612
-0.51164
-0.42843
-0.3155
-0.2422
-0.18375
-0.14809
-0.10649
-0.09262
-0.078752
-0.065874
-0.09163
-0.088658
-0.10847
-0.094601
-0.1055
-0.15206
-0.16295
-0.1372
-0.10847
-0.078752
-0.09262
-0.15305
-0.22734
-0.32838
-0.38484
-0.43239
-0.44428
-0.48291
-0.47202
-0.47895
-0.50272
-0.52353
-0.5364
-0.54037
-0.55225
-0.54136
-0.51461
-0.44725
-0.37593
-0.27093
-0.17583
-0.11045
-0.12333
-0.11639
-0.036157
0.085686
0.20654
0.263
0.31649
0.27984
0.23031
0.14413
-0.0014859
-0.097573
-0.21149
-0.24616
-0.28579
-0.31055
-0.32541
-0.36602
-0.42348
-0.47003
-0.48489
-0.51857
-0.58791
-0.63943
-0.66815
-0.57107
-0.42645
-0.36206
-0.32145
-0.29173
-0.23229
-0.077761
0.10154
0.28083
0.46112
0.57306
0.64042
0.61961
0.51758
0.39376
0.18276
0.015354
-0.18474
-0.33928
-0.44626
-0.50471
-0.56018
-0.5582
-0.56117
-0.5582
-0.54334
-0.53839
-0.48985
-0.44626
-0.40664
-0.36899
-0.36602
-0.44329
-0.56216
-0.7474
-0.81872
-0.75929
-0.57405
-0.4106
-0.32244
-0.27885
-0.17979
0.0094106
0.24121
0.48489
0.6632
0.75929
0.73353
0.59584
0.37791
0.14809
-0.10748
-0.29569
-0.49381
-0.58692
-0.64537
-0.62358
-0.56909
-0.54829
-0.49084
-0.4631
-0.40466
-0.34918
-0.3155
-0.39772
-0.57999
-0.81674
-0.93363
-0.85835
-0.64042
-0.44923
-0.31451
-0.25211
-0.17187
-0.0094106
0.16097
0.3155
0.41654
0.49777
0.51461
0.48093
0.36404
0.2105
0.027241
-0.11045
-0.22239
-0.30263
-0.35315
-0.42843
-0.48787
-0.53739
-0.579
-0.55919
-0.5681
-0.49876
-0.46508
-0.42348
-0.38484
-0.33631
-0.36107
-0.4215
-0.61268
-0.74344
-0.75136
-0.60674
-0.40664
-0.26895
-0.19861
-0.12333
-0.051015
0.034175
0.10253
0.19564
0.29965
0.41159
0.50471
0.49282
0.38484
0.21149
-0.049034
-0.25607
-0.4423
-0.56711
-0.62655
-0.65527
-0.65329
-0.64834
-0.62556
-0.5681
-0.48291
-0.37197
-0.31451
-0.35414
-0.49975
-0.64438
-0.70579
-0.61367
-0.46904
-0.32937
-0.26597
-0.18276
-0.097573
0.0014859
0.05894
0.071818
0.084695
0.12432
0.1788
0.21545
0.24418
0.20753
0.15602
0.041109
-0.07578
-0.21347
-0.34324
-0.44329
-0.4839
-0.47994
-0.46409
-0.43536
-0.4631
-0.46508
-0.53938
-0.6107
-0.59782
-0.56414
-0.47796
-0.37197
-0.29074
-0.25111
-0.23824
-0.23626
-0.19267
-0.13819
-0.076771
-0.00049529
0.097573
0.2105
0.26597
0.2739
0.20852
0.158
0.066865
0.016345
-0.09163
-0.2105
-0.29965
-0.40168
-0.43437
-0.46805
-0.49777
-0.4839
-0.42546
-0.31649
-0.25607
-0.35414
-0.60475
-0.86429
-0.97524
-0.86528
-0.66419
-0.48093
-0.39475
-0.368
-0.31847
-0.21842
-0.060921
0.10946
0.27885
0.39673
0.4839
0.50867
0.4631
0.42546
0.30659
0.16493
-0.046062
-0.27984
-0.43437
-0.54532
-0.54532
-0.53442
-0.48291
-0.45419
-0.45121
-0.45121
-0.44527
-0.41159
-0.36503
-0.29569
-0.27687
-0.34819
-0.52254
-0.67707
-0.7474
-0.60475
-0.43239
-0.26399
-0.24121
-0.18078
-0.12333
-0.031204
0.080733
0.18772
0.33531
0.45022
0.47301
0.41852
0.28579
0.12135
-0.048044
-0.2214
-0.35017
-0.42645
-0.45121
-0.44032
-0.46706
-0.43041
-0.43834
-0.38683
-0.36899
-0.37395
-0.43933
-0.55225
-0.66221
-0.69787
-0.64438
-0.51659
-0.4106
-0.3373
-0.28678
-0.2739
-0.19564
-0.10154
0.015354
0.12927
0.23031
0.29668
0.33829
0.32343
0.28579
0.20456
0.067855
-0.060921
-0.24814
-0.34027
-0.44824
-0.47598
-0.46013
-0.45419
-0.45319
-0.43834
-0.41951
-0.38187
-0.35315
-0.33531
-0.29371
-0.24517
-0.17385
-0.1996
-0.31748
-0.55423
-0.72957
-0.7682
-0.65329
-0.50173
-0.40168
-0.34126
-0.24319
-0.12234
0.018326
0.13621
0.27984
0.43338
0.5473
0.55225
0.49381
0.32145
0.15404
-0.053987
-0.22239
-0.3789
-0.48489
-0.53244
-0.52749
-0.5156
-0.44824
-0.40565
-0.34522
-0.33631
-0.3898
-0.53343
-0.69094
-0.80287
-0.79198
-0.67806
-0.56909
-0.42942
-0.35315
-0.28281
-0.20357
-0.13224
-0.055968
0.0421
0.20059
0.34027
0.44824
0.47697
0.42348
0.29272
0.09262
-0.11144
-0.31649
-0.48093
-0.60674
-0.67013
-0.70381
-0.68895
-0.64636
-0.6315
-0.57008
-0.53145
-0.45419
-0.36404
-0.31748
-0.27687
-0.31055
-0.35215
-0.40069
-0.43536
-0.43338
-0.42546
-0.43536
-0.4314
-0.3997
-0.31352
-0.21446
-0.069837
0.072808
0.24022
0.368
0.44626
0.43933
0.35315
0.1897
0.016345
-0.1788
-0.28777
-0.39772
-0.49678
-0.50867
-0.48588
-0.43041
-0.36206
-0.32937
-0.2739
-0.25904
-0.2531
-0.30659
-0.39277
-0.53839
-0.75235
-0.9366
-0.98316
-0.85537
-0.6424
-0.47796
-0.39574
-0.31055
-0.14512
0.053987
0.21446
0.30956
0.36008
0.44626
0.51461
0.52254
0.45815
0.31055
0.15404
-0.036157
-0.21149
-0.37989
-0.45815
-0.51362
-0.51461
-0.50173
-0.53343
-0.51956
-0.5364
-0.52155
-0.43933
-0.40664
-0.38683
-0.41555
-0.44923
-0.46904
-0.50768
-0.57999
-0.55126
-0.50669
-0.40961
-0.33234
-0.31748
-0.27192
-0.22734
-0.12729
-0.052006
0.015354
0.041109
0.078752
0.12729
0.15899
0.17286
0.15305
0.1055
-0.011392
-0.15602
-0.29866
-0.38385
-0.41159
-0.41555
-0.43437
-0.43635
-0.4631
-0.43635
-0.41357
-0.40664
-0.35612
-0.29965
-0.23824
-0.17187
-0.17286
-0.27885
-0.50371
-0.77613
-0.89104
-0.84547
-0.64141
-0.50768
-0.43437
-0.37395
-0.26201
-0.098564
0.074789
0.24715
0.38484
0.46607
0.45419
0.38385
0.24121
0.076771
-0.067855
-0.19663
-0.29569
-0.34621
-0.4314
-0.47994
-0.56513
-0.58494
-0.54928
-0.47796
-0.40069
-0.35612
-0.37494
-0.4106
-0.43834
-0.44032
-0.46409
-0.44923
-0.36305
-0.24616
-0.2313
-0.26597
-0.38782
-0.53145
-0.67013
-0.71471
-0.60674
-0.35711
-0.047053
0.25706
0.51857
0.66617
0.64339
0.51263
0.27291
0.052006
-0.17583
-0.33432
-0.44131
-0.47895
-0.4631
-0.42447
-0.38881
-0.32046
-0.29371
-0.26994
-0.25607
-0.26102
-0.30064
-0.33432
-0.36008
-0.37395
-0.3789
-0.39772
-0.4948
-0.67608
-0.8425
-0.86825
-0.76523
-0.60971
-0.50867
-0.44725
-0.2838
-0.070827
0.20059
0.46409
0.65924
0.74146
0.74938
0.59881
0.43635
0.20158
-0.019316
-0.21149
-0.38683
-0.49678
-0.56414
-0.56711
-0.57504
-0.55027
-0.5364
-0.5156
-0.50471
-0.47697
-0.43536
-0.39376
-0.3581
-0.34918
-0.31947
-0.36008
-0.42942
-0.46805
-0.44923
-0.34324
-0.22536
-0.17979
-0.20555
-0.27291
-0.32739
-0.30758
-0.27885
-0.11045
-0.036157
0.14116
0.25508
0.31847
0.30956
0.23328
0.13125
-0.039128
-0.1679
-0.29668
-0.36899
-0.3898
-0.43239
-0.45518
-0.44626
-0.4423
-0.40565
-0.35909
-0.32343
-0.29074
-0.26895
-0.23328
-0.17682
-0.14017
-0.098564
-0.088658
-0.11838
-0.23229
-0.46805
-0.73056
-0.88707
-0.90986
-0.8633
-0.85736
-0.7791
-0.62259
-0.28678
0.11838
0.49183
0.72759
0.87122
0.82566
0.73254
0.49084
0.25805
-0.013373
-0.18772
-0.30758
-0.36701
-0.41852
-0.45319
-0.48291
-0.48093
-0.48687
-0.51659
-0.50173
-0.54334
-0.55027
-0.53839
-0.48192
-0.4106
-0.31649
-0.24715
-0.28182
-0.42051
-0.62952
-0.72363
-0.684
-0.53839
-0.38484
-0.3056
-0.2422
-0.15602
-0.041109
0.090639
0.25607
0.41258
0.51164
0.49777
0.41258
0.21149
0.027241
-0.18871
-0.3789
-0.51758
-0.60971
-0.61961
-0.60178
-0.56216
-0.51263
-0.45419
-0.36602
-0.2838
-0.19663
-0.15998
-0.158
-0.19069
-0.20357
-0.22239
-0.24319
-0.27786
-0.34621
-0.35612
-0.34522
-0.28876
-0.26003
-0.34621
-0.53938
-0.70579
-0.74245
-0.70976
-0.71075
-0.67211
-0.51164
-0.15404
0.27093
0.57405
0.72263
0.71273
0.58494
0.3997
0.2105
0.00842
-0.16493
-0.29767
-0.38088
-0.43933
-0.46508
-0.45914
-0.40267
-0.35612
-0.30758
-0.26994
-0.26696
-0.2214
-0.26597
-0.28975
-0.47994
-0.65131
-0.81971
-0.82268
-0.69985
-0.57008
-0.49678
-0.50768
-0.47895
-0.37989
-0.1679
0.11243
0.33928
0.48588
0.49777
0.42546
0.26795
0.11144
-0.057949
-0.19564
-0.3155
-0.38881
-0.42348
-0.41654
-0.40069
-0.37989
-0.368
-0.33531
-0.32442
-0.3472
-0.35711
-0.39673
-0.39376
-0.37197
-0.34423
-0.33135
-0.30263
-0.27291
-0.2313
-0.14611
-0.070827
-0.12828
-0.34522
-0.66419
-0.88113
-0.93957
-0.90788
-0.79
-0.61268
-0.25508
0.23328
0.63447
0.94849
1
0.87221
0.61367
0.31154
0.010401
-0.24121
-0.4423
-0.52452
-0.56315
-0.55126
-0.52254
-0.47202
-0.42942
-0.41951
-0.38484
-0.34918
-0.28975
-0.28579
-0.4314
-0.6632
-0.84943
-0.87717
-0.72561
-0.55126
-0.42447
-0.30263
-0.13918
0.031204
0.19564
0.27489
0.28579
0.3373
0.39574
0.43536
0.4314
0.31451
0.13918
-0.011392
-0.14017
-0.24715
-0.27786
-0.36701
-0.40466
-0.52055
-0.59287
-0.64933
-0.63051
-0.59188
-0.53145
-0.49876
-0.49579
-0.53839
-0.57702
-0.59881
-0.60773
-0.57405
-0.47301
-0.33531
-0.20951
-0.18177
-0.26201
-0.31055
-0.31352
-0.21942
-0.052006
0.10649
0.25409
0.3581
0.38782
0.32046
0.17682
-0.012382
-0.1689
-0.27687
-0.39277
-0.5057
-0.57999
-0.61367
-0.58791
-0.58296
-0.54829
-0.49975
-0.41258
-0.34423
-0.27192
-0.25012
-0.23031
-0.21842
-0.20852
-0.19267
-0.15998
-0.17781
-0.25805
-0.42843
-0.60178
-0.69193
-0.64636
-0.56612
-0.45815
-0.41456
-0.31748
-0.18078
-0.035166
0.086677
0.17385
0.27687
0.32838
0.36503
0.32145
0.20456
0.045072
-0.11937
-0.28479
-0.36503
-0.44131
-0.44032
-0.44725
-0.44032
-0.40862
-0.38187
-0.36305
-0.34918
-0.34522
-0.35414
-0.37692
-0.40168
-0.40565
-0.39574
-0.37989
-0.34621
-0.34225
-0.32145
-0.31154
-0.28579
-0.25409
-0.263
-0.41159
-0.6632
-0.85736
-0.86033
-0.72065
-0.5364
-0.40267
-0.29965
-0.15404
-0.0064388
0.21545
0.4314
0.65032
0.79396
0.75532
0.55523
0.29074
0.018326
-0.19069
-0.36404
-0.46211
-0.5364
-0.57107
-0.61862
-0.60575
-0.57801
-0.53145
-0.47994
-0.46805
-0.46211
-0.44527
-0.41654
-0.38683
-0.35513
-0.34126
-0.33135
-0.33829
-0.34324
-0.35909
-0.34918
-0.38088
-0.42051
-0.43735
-0.40664
-0.30857
-0.19861
-0.083705
0.062902
0.18474
0.36701
0.42942
0.45022
0.35017
0.12234
-0.1154
-0.31847
-0.44329
-0.48291
-0.48489
-0.46706
-0.40168
-0.34324
-0.31451
-0.30659
-0.28876
-0.32244
-0.30857
-0.30362
-0.28083
-0.22536
-0.22338
-0.19267
-0.27291
-0.35711
-0.54829
-0.63843
-0.62259
-0.51758
-0.37296
-0.28579
-0.2214
-0.11441
-0.040119
0.034175
0.088658
0.1679
0.24715
0.28579
0.25805
0.17682
0.052006
-0.080733
-0.19861
-0.30956
-0.39475
-0.4522
-0.4948
-0.49183
-0.4631
-0.38286
-0.30263
-0.263
-0.24418
-0.25904
-0.25211
-0.24022
-0.25111
-0.31055
-0.33829
-0.39871
-0.36008
-0.3373
-0.30461
-0.25805
-0.2214
-0.18574
-0.30263
-0.49183
-0.69787
-0.74542
-0.65825
-0.51362
-0.38385
-0.27687
-0.098564
0.1154
0.32343
0.53839
0.65924
0.65726
0.5582
0.38881
0.17979
-0.061912
-0.26003
-0.41357
-0.49975
-0.53145
-0.53145
-0.52452
-0.49282
-0.4839
-0.46112
-0.45914
-0.44527
-0.4215
-0.38683
-0.3155
-0.32541
-0.40565
-0.54532
-0.65825
-0.62358
-0.54235
-0.46112
-0.44923
-0.38088
-0.2739
-0.038138
0.19762
0.41258
0.54829
0.57405
0.50966
0.36305
0.16097
-0.029222
-0.25904
-0.41951
-0.50867
-0.56513
-0.57702
-0.59287
-0.56612
-0.54433
-0.52452
-0.50768
-0.45121
-0.41753
-0.35513
-0.35612
-0.29866
-0.27786
-0.25409
-0.25904
-0.27489
-0.31947
-0.39772
-0.53442
-0.61961
-0.6315
-0.579
-0.56513
-0.63051
-0.62358
-0.47994
-0.20852
0.089648
0.32244
0.49381
0.54928
0.50471
0.38683
0.24319
0.10649
-0.036157
-0.19762
-0.3264
-0.41456
-0.47202
-0.51362
-0.56414
-0.56909
-0.50966
-0.45121
-0.37989
-0.33036
-0.29668
-0.30064
-0.28975
-0.27489
-0.24814
-0.22932
-0.24913
-0.28777
-0.34126
-0.36503
-0.38583
-0.37494
-0.37692
-0.41951
-0.44725
-0.47003
-0.4215
-0.37098
-0.33531
-0.39079
-0.45319
-0.46112
-0.37593
-0.22041
-0.065874
0.05894
0.18474
0.28083
0.34225
0.29272
0.16196
-0.0074294
-0.15701
-0.26696
-0.31748
-0.30857
-0.28083
-0.27588
-0.33631
-0.40961
-0.45914
-0.4948
-0.50669
-0.51956
-0.54136
-0.55919
-0.58692
-0.56216
-0.52155
-0.46211
-0.40664
-0.38583
-0.37593
-0.40466
-0.3997
-0.33036
-0.19861
-0.09262
0.0074294
0.048044
0.056959
0.095592
0.083705
0.078752
0.010401
-0.046062
-0.13918
-0.21347
-0.26795
-0.31649
-0.36899
-0.40961
-0.42942
-0.43735
-0.44725
-0.45121
-0.43635
-0.44131
-0.41159
-0.37296
-0.34423
-0.32343
-0.34522
-0.37197
-0.39079
-0.37395
-0.3373
-0.29767
-0.24715
-0.15701
-0.060921
0.033185
0.061912
0.056959
0.053987
0.078752
0.05894
0.070827
0.012382
0.0054482
0.012382
-0.040119
-0.13323
-0.28083
-0.38782
-0.46607
-0.50768
-0.52353
-0.53839
-0.49678
-0.46706
-0.39574
-0.3472
-0.33928
-0.31154
-0.30064
-0.27588
-0.2739
-0.31055
-0.368
-0.38583
-0.39475
-0.34621
-0.28975
-0.23031
-0.17682
-0.16097
-0.23725
-0.43041
-0.62952
-0.7048
-0.63843
-0.48886
-0.37296
-0.28777
-0.17682
0.021298
0.30461
0.56909
0.70679
0.67211
0.53046
0.27786
0.085686
-0.14809
-0.29866
-0.36503
-0.39079
-0.34819
-0.32046
-0.32739
-0.35215
-0.34324
-0.33333
-0.29866
-0.34423
-0.46904
-0.68103
-0.80386
-0.80089
-0.64141
-0.46013
-0.30461
-0.1996
-0.083705
-0.00842
0.052006
0.072808
0.10847
0.15305
0.22041
0.26597
0.25012
0.19366
0.05894
-0.10154
-0.26003
-0.37692
-0.44131
-0.45617
-0.45815
-0.46409
-0.47003
-0.47202
-0.47103
-0.44329
-0.40664
-0.37692
-0.34522
-0.32442
-0.31154
-0.29569
-0.27093
-0.22734
-0.12432
-0.10847
-0.043091
-0.034175
-0.062902
-0.10054
-0.1679
-0.21942
-0.27489
-0.41258
-0.61664
-0.69391
-0.68995
-0.55126
-0.4839
-0.42447
-0.37296
-0.24517
0.016345
0.2838
0.4839
0.60575
0.55721
0.41357
0.21248
0.00842
-0.15899
-0.27885
-0.3581
-0.40961
-0.42843
-0.42843
-0.42546
-0.42645
-0.40466
-0.39277
-0.36107
-0.33135
-0.29965
-0.28876
-0.29569
-0.33829
-0.4839
