0.3625
0.60694
0.73194
0.73472
0.64444
0.48333
0.3
0.11528
-0.059722
-0.22222
-0.37222
-0.47222
-0.51806
-0.52639
-0.5125
-0.49444
-0.47639
-0.45833
-0.44306
-0.43889
-0.47222
-0.52639
-0.57639
-0.58056
-0.50278
-0.37917
-0.24583
-0.16528
-0.17778
-0.29583
-0.44861
-0.56806
-0.5875
-0.49722
-0.30139
-0.0625
0.17778
0.37222
0.49861
0.54306
0.5
0.32917
0.088889
-0.18333
-0.39444
-0.53472
-0.64028
-0.6625
-0.65694
-0.58611
-0.475
-0.33611
-0.21389
-0.12639
-0.10556
-0.13472
-0.15556
-0.17361
-0.15
-0.11389
-0.065278
-0.019444
-0.020833
-0.081944
-0.175
-0.24028
-0.27083
-0.28472
-0.30556
-0.36528
-0.40972
-0.42222
-0.36806
-0.26111
-0.1625
-0.076389
-0.0125
0.031944
0.031944
0.031944
0.031944
-0.0041667
-0.045833
-0.1
-0.16111
-0.19306
-0.18056
-0.14306
-0.090278
-0.015278
0.054167
0.10556
0.10139
0.048611
-0.0375
-0.12222
-0.18889
-0.24444
-0.28056
-0.27778
-0.27222
-0.29306
-0.35556
-0.46806
-0.56528
-0.66528
-0.74444
-0.81389
-0.78472
-0.70278
-0.52778
-0.31528
-0.11667
0.0625
0.16944
0.14583
0.069444
0.072222
0.16806
0.375
0.54722
0.64306
0.67639
0.625
0.50972
0.35694
0.20694
0.077778
-0.043056
-0.15278
-0.23333
-0.30417
-0.34583
-0.37083
-0.40833
-0.425
-0.45972
-0.49722
-0.54861
-0.63472
-0.72639
-0.79722
-0.83056
-0.78611
-0.65972
-0.54167
-0.45694
-0.46806
-0.52083
-0.54028
-0.49722
-0.45
-0.38194
-0.38889
-0.35694
-0.14861
0.11111
0.42639
0.6125
0.68889
0.73889
0.72222
0.64861
0.51667
0.3375
0.15833
-0.0055556
-0.14306
-0.25972
-0.37639
-0.48056
-0.54861
-0.56389
-0.55278
-0.52639
-0.51667
-0.51111
-0.48611
-0.42778
-0.35556
-0.30556
-0.30556
-0.35278
-0.39306
-0.40972
-0.38333
-0.34167
-0.34722
-0.43889
-0.5625
-0.69028
-0.74306
-0.75694
-0.76528
-0.76667
-0.62639
-0.35556
0.038889
0.41667
0.65972
0.78194
0.79028
0.70417
0.56944
0.42361
0.25556
0.095833
-0.066667
-0.19861
-0.2875
-0.34167
-0.37222
-0.36944
-0.32778
-0.26806
-0.21944
-0.20833
-0.24861
-0.30556
-0.35833
-0.39861
-0.425
-0.45972
-0.51528
-0.55694
-0.54444
-0.49722
-0.475
-0.52639
-0.65139
-0.73472
-0.75972
-0.7625
-0.73056
-0.50694
-0.17639
0.24722
0.55139
0.70694
0.77639
0.76806
0.68056
0.55556
0.40417
0.25972
0.10556
-0.0375
-0.15
-0.21667
-0.24306
-0.26528
-0.30139
-0.3625
-0.43333
-0.50278
-0.57361
-0.58333
-0.57639
-0.54583
-0.50972
-0.47222
-0.40556
-0.325
-0.27778
-0.29028
-0.39861
-0.58611
-0.725
-0.65
-0.425
-0.058333
0.29861
0.54861
0.67917
0.66528
0.54861
0.42083
0.33333
0.25278
0.15972
0.023611
-0.12083
-0.25694
-0.33889
-0.34722
-0.34167
-0.31389
-0.31944
-0.3625
-0.425
-0.49028
-0.53333
-0.51111
-0.45556
-0.375
-0.35
-0.35833
-0.40417
-0.46528
-0.46528
-0.46667
-0.44861
-0.46667
-0.53889
-0.6375
-0.70278
-0.6375
-0.46944
-0.2
0.084722
0.33611
0.50278
0.53889
0.45139
0.31944
0.16667
0.040278
-0.0875
-0.20278
-0.3
-0.375
-0.40417
-0.40972
-0.40833
-0.39583
-0.38333
-0.38472
-0.39583
-0.40417
-0.39028
-0.35278
-0.29722
-0.29306
-0.33472
-0.39583
-0.475
-0.5375
-0.575
-0.59444
-0.61389
-0.60833
-0.61111
-0.62083
-0.60833
-0.62917
-0.63611
-0.6375
-0.60556
-0.52917
-0.44722
-0.38194
-0.39167
-0.55694
-0.45417
-0.29444
0.11389
0.45972
0.66944
0.73472
0.69722
0.54444
0.33472
0.10417
-0.080556
-0.20417
-0.25694
-0.28194
-0.33472
-0.41944
-0.53889
-0.62778
-0.69444
-0.69167
-0.68333
-0.6625
-0.65417
-0.69583
-0.76389
-0.86944
-0.94167
-0.91944
-0.8875
-0.79444
-0.66528
-0.49722
-0.34306
-0.25972
-0.18333
-0.020833
0.21528
0.45833
0.58194
0.62917
0.60972
0.51667
0.39861
0.23472
0.058333
-0.10556
-0.20556
-0.27361
-0.325
-0.4
-0.4875
-0.58611
-0.65833
-0.71389
-0.71944
-0.64167
-0.51667
-0.39722
-0.34444
-0.37778
-0.42778
-0.44861
-0.44861
-0.54028
-0.63194
-0.70417
-0.73056
-0.61528
-0.54306
-0.45417
-0.28194
0.0069444
0.35833
0.71389
0.90139
0.96944
0.91806
0.77361
0.55417
0.30972
0.080556
-0.11667
-0.2625
-0.36667
-0.45278
-0.51944
-0.59583
-0.66667
-0.70556
-0.70278
-0.64861
-0.5625
-0.47917
-0.42778
-0.38889
-0.35972
-0.31111
-0.23056
-0.12917
-0.072222
-0.073611
-0.14722
-0.25694
-0.39583
-0.55694
-0.67778
-0.64028
-0.525
-0.28889
-0.073611
0.13333
0.34167
0.49028
0.49444
0.4125
0.27361
0.15417
0.084722
0.0027778
-0.0875
-0.19028
-0.27917
-0.35833
-0.46528
-0.55417
-0.61111
-0.60556
-0.56806
-0.52917
-0.50694
-0.47361
-0.40972
-0.32361
-0.26667
-0.24861
-0.27917
-0.32222
-0.35556
-0.39306
-0.40694
-0.43056
-0.44583
-0.46528
-0.45417
-0.43889
-0.4
-0.33472
-0.29444
-0.37917
-0.40833
-0.425
-0.31806
-0.14028
0.029167
0.24306
0.45139
0.59861
0.66389
0.66389
0.62917
0.55833
0.46111
0.34722
0.22222
0.10417
0
-0.077778
-0.12778
-0.1375
-0.12222
-0.090278
-0.093056
-0.14583
-0.22917
-0.31944
-0.38611
-0.36944
-0.32222
-0.28611
-0.29167
-0.35556
-0.39583
-0.42639
-0.45833
-0.48056
-0.45417
-0.38056
-0.26667
-0.15
-0.1
-0.12222
-0.30833
-0.35556
-0.22917
0.1375
0.54167
0.7875
0.86667
0.84028
0.74306
0.59722
0.42778
0.23333
0.043056
-0.17222
-0.32639
-0.45833
-0.54444
-0.61528
-0.6875
-0.74028
-0.73194
-0.70139
-0.59583
-0.45694
-0.38472
-0.36944
-0.42083
-0.48194
-0.49167
-0.45278
-0.43611
-0.4
-0.33194
-0.22778
-0.12917
-0.13611
-0.20972
-0.21667
-0.14167
0.034722
0.17778
0.27917
0.34444
0.40417
0.42639
0.43194
0.3875
0.3
0.18472
0.054167
-0.079167
-0.23333
-0.38611
-0.47361
-0.51528
-0.53472
-0.52639
-0.49722
-0.4625
-0.44306
-0.44583
-0.45833
-0.46528
-0.44306
-0.41944
-0.39444
-0.34306
-0.28611
-0.18889
-0.097222
-0.059722
-0.040278
-0.0027778
0.055556
0.13472
0.15417
0.17778
0.22361
0.3
0.38472
0.44028
0.44722
0.38333
0.24028
0.090278
-0.048611
-0.15
-0.225
-0.29722
-0.36806
-0.45
-0.4875
-0.50556
-0.48889
-0.46389
-0.4125
-0.36111
-0.34444
-0.36806
-0.41528
-0.42917
-0.40694
-0.3875
-0.38611
-0.40972
-0.43472
-0.44722
-0.45278
-0.425
-0.38056
-0.28611
-0.19028
-0.10972
-0.11667
-0.13889
-0.11111
-0.033333
0.083333
0.18889
0.26944
0.4
0.48472
0.51667
0.48194
0.39306
0.29583
0.20972
0.13889
0.063889
-0.044444
-0.18194
-0.35139
-0.52917
-0.66528
-0.74583
-0.77083
-0.70556
-0.61944
-0.53889
-0.51111
-0.57778
-0.65278
-0.70417
-0.68472
-0.61528
-0.47917
-0.30139
-0.1
0.038889
0.047222
0.022222
0.0625
0.20278
0.44306
0.61389
0.68611
0.63333
0.4875
0.32361
0.17639
0.058333
-0.026389
-0.10972
-0.20833
-0.30417
-0.36111
-0.37917
-0.35278
-0.3375
-0.33194
-0.33194
-0.34861
-0.38472
-0.475
-0.56528
-0.64306
-0.63472
-0.55972
-0.44861
-0.37917
-0.39028
-0.41806
-0.43333
-0.375
-0.28056
-0.25417
-0.29028
-0.36944
-0.35417
-0.19167
0.056944
0.31528
0.49444
0.61667
0.64306
0.59167
0.4625
0.30972
0.15
0.0069444
-0.10417
-0.1875
-0.2625
-0.33056
-0.42639
-0.50972
-0.57639
-0.59028
-0.5625
-0.49861
-0.43611
-0.38333
-0.35556
-0.34444
-0.32778
-0.34583
-0.35694
-0.41944
-0.47639
-0.55139
-0.61667
-0.64861
-0.6375
-0.56111
-0.46667
-0.42361
-0.38472
-0.32361
-0.22917
-0.11111
0.034722
0.2
0.42361
0.57778
0.63889
0.62083
0.57361
0.49722
0.325
0.094444
-0.17361
-0.38333
-0.48889
-0.51806
-0.5
-0.46667
-0.43194
-0.40972
-0.38472
-0.38472
-0.40139
-0.41667
-0.43333
-0.4375
-0.43194
-0.40417
-0.39028
-0.34444
-0.32917
-0.28056
-0.23056
-0.19306
-0.17361
-0.18333
-0.20833
-0.24028
-0.26944
-0.29167
-0.33889
-0.36389
-0.41806
-0.42917
-0.42222
-0.40278
-0.36667
-0.36944
-0.40556
-0.475
-0.52639
-0.52083
-0.49444
-0.44583
-0.23056
0.066667
0.43611
0.65
0.72361
0.67639
0.56667
0.4125
0.22639
0.040278
-0.12222
-0.24861
-0.33889
-0.41806
-0.50556
-0.60556
-0.69583
-0.74583
-0.75
-0.71667
-0.66389
-0.61806
-0.57083
-0.525
-0.46944
-0.44167
-0.47222
-0.50417
-0.43056
-0.31944
-0.13611
-0.0041667
0.11389
0.23611
0.29722
0.3
0.25972
0.20278
0.15278
0.1
0.059722
0.013889
-0.034722
-0.076389
-0.12361
-0.19722
-0.27639
-0.35556
-0.42639
-0.46528
-0.4375
-0.43194
-0.43889
-0.53472
-0.6625
-0.70139
-0.62083
-0.45972
-0.32361
-0.23056
-0.17083
-0.097222
-0.080556
-0.11806
-0.13611
-0.093056
0.12917
0.37917
0.59444
0.72222
0.76806
0.77361
0.72639
0.60972
0.45278
0.28611
0.10694
-0.048611
-0.19028
-0.32639
-0.44167
-0.54722
-0.63194
-0.68611
-0.70833
-0.70833
-0.67361
-0.64167
-0.59722
-0.55694
-0.51944
-0.4875
-0.47639
-0.49306
-0.50833
-0.52639
-0.53194
-0.52361
-0.5375
-0.51528
-0.52083
-0.49861
-0.45972
-0.40694
-0.36389
-0.28611
-0.080556
0.17222
0.45833
0.59861
0.6375
0.64444
0.60278
0.52361
0.40139
0.25139
0.10278
-0.0375
-0.14444
-0.2125
-0.28333
-0.37361
-0.46806
-0.55556
-0.56944
-0.5
-0.39028
-0.29861
-0.27639
-0.34306
-0.40417
-0.44306
-0.4625
-0.47361
-0.47361
-0.45833
-0.44444
-0.46667
-0.4875
-0.49444
-0.42083
-0.28056
-0.15556
-0.12917
-0.1
-0.027778
0.14306
0.325
0.35972
0.32361
0.26667
0.22083
0.16667
0.080556
-0.0097222
-0.086111
-0.13333
-0.18194
-0.23194
-0.29722
-0.34028
-0.34167
-0.29167
-0.22917
-0.20139
-0.22917
-0.31389
-0.42639
-0.50833
-0.57222
-0.60139
-0.61389
-0.62361
-0.63333
-0.575
-0.54583
-0.48472
-0.43611
-0.37361
-0.325
-0.33333
-0.26806
-0.073611
0.15417
0.39028
0.48056
0.47778
0.49444
0.42778
0.325
0.18056
0.0055556
-0.14306
-0.25417
-0.32361
-0.37083
-0.41806
-0.44861
-0.46528
-0.5
-0.50833
-0.51528
-0.5
-0.45417
-0.38056
-0.2875
-0.22361
-0.19583
-0.22361
-0.2875
-0.38889
-0.55
-0.68194
-0.75139
-0.7625
-0.74583
-0.73056
-0.68194
-0.56806
-0.3625
-0.13611
0.12778
0.375
0.56806
0.65417
0.64861
0.59861
0.52222
0.4125
0.21528
-0.0013889
-0.22361
-0.375
-0.48472
-0.54583
-0.56667
-0.56111
-0.52778
-0.48056
-0.46111
-0.43611
-0.44306
-0.425
-0.38333
-0.33333
-0.28056
-0.22361
-0.20139
-0.14861
-0.10833
-0.055556
-0.036111
-0.066667
-0.12917
-0.19444
-0.22083
-0.22778
-0.21389
-0.20139
-0.18333
-0.20972
-0.26528
-0.35417
-0.44722
-0.49167
-0.50278
-0.47639
-0.42778
-0.36944
-0.28194
-0.2375
-0.35278
-0.59861
-0.67222
-0.54722
-0.125
0.28889
0.53889
0.63611
0.57917
0.44028
0.25417
0.056944
-0.1375
-0.31111
-0.44861
-0.54722
-0.6125
-0.64306
-0.64306
-0.61111
-0.56111
-0.49167
-0.41944
-0.38889
-0.39722
-0.43889
-0.47222
-0.49583
-0.525
-0.53611
-0.53333
-0.50417
-0.42222
-0.36944
-0.31111
-0.30139
-0.32639
-0.35139
-0.35278
-0.35417
-0.37778
-0.40139
-0.375
-0.30278
-0.20694
-0.14167
-0.075
0.034722
0.1625
0.29444
0.35694
0.36389
0.30278
0.18333
0.040278
-0.058333
-0.0875
-0.072222
-0.075
-0.10694
-0.18194
-0.24722
-0.29306
-0.31944
-0.32917
-0.32639
-0.30139
-0.30556
-0.32917
-0.35278
-0.36111
-0.29444
-0.20139
-0.14861
-0.19722
-0.31667
-0.47778
-0.59167
-0.66389
-0.625
-0.5375
-0.45417
-0.41667
-0.41667
-0.38611
-0.32917
-0.18889
-0.015278
0.2
0.39167
0.52361
0.59306
0.59861
0.53889
0.41944
0.27222
0.13056
0.0027778
-0.1
-0.20694
-0.28333
-0.34306
-0.35278
-0.33611
-0.28472
-0.21806
-0.14722
-0.10278
-0.070833
-0.056944
-0.034722
-0.033333
-0.030556
-0.025
-0.034722
-0.045833
-0.051389
-0.0083333
0.0375
0.083333
0.088889
0.083333
0.061111
0.0083333
-0.05
-0.11667
-0.21528
-0.30972
-0.36944
-0.35556
-0.31528
-0.28472
-0.30972
-0.33056
-0.30556
-0.2375
-0.13889
-0.075
-0.075
-0.19444
-0.26944
-0.23056
-0.043056
0.26667
0.54583
0.75694
0.87778
0.88333
0.79861
0.66111
0.48472
0.28889
0.097222
-0.077778
-0.2125
-0.28611
-0.30694
-0.29028
-0.26528
-0.26944
-0.35139
-0.49028
-0.66389
-0.76944
-0.80417
-0.77778
-0.71111
-0.65417
-0.59583
-0.56389
-0.52917
-0.47778
-0.45139
-0.45278
-0.47917
-0.4875
-0.45972
-0.38194
-0.26944
-0.13611
-0.040278
0.011111
0.094444
0.20417
0.36528
0.48056
0.51806
0.5125
0.47917
0.43333
0.36806
0.29167
0.17361
0.015278
-0.175
-0.39028
-0.56389
-0.6875
-0.69861
-0.64306
-0.59722
-0.54028
-0.53194
-0.54583
-0.56667
-0.5375
-0.48472
-0.38333
-0.34861
-0.35556
-0.375
-0.3875
-0.34167
-0.31806
-0.26667
-0.19167
-0.086111
-0.018056
-0.047222
-0.125
-0.12917
-0.081944
0.040278
0.13333
0.20694
0.28889
0.33889
0.33611
0.26667
0.14583
-0.0013889
-0.17083
-0.31389
-0.41389
-0.45278
-0.47639
-0.49306
-0.53611
-0.58889
-0.64028
-0.66806
-0.68889
-0.68611
-0.64306
-0.57639
-0.50417
-0.45
-0.39722
-0.36389
-0.32361
-0.3125
-0.29444
-0.28056
-0.25694
-0.23056
-0.2125
-0.21667
-0.20972
-0.22222
-0.225
-0.23611
-0.24722
-0.24583
-0.22639
-0.18194
-0.125
-0.084722
-0.054167
-0.054167
-0.05
-0.091667
-0.13472
-0.19583
-0.26667
-0.34306
-0.39861
-0.39583
-0.35694
-0.29306
-0.26111
-0.26389
-0.3125
-0.4
-0.50417
-0.54722
-0.50556
-0.45139
-0.25694
-0.023611
0.3125
0.62083
0.80278
0.88889
0.89861
0.80556
0.65694
0.46528
0.27917
0.13194
0.031944
-0.066667
-0.14583
-0.21806
-0.28194
-0.32778
-0.31944
-0.25833
-0.19028
-0.11389
-0.081944
-0.11806
-0.19028
-0.27083
-0.39028
-0.49028
-0.55556
-0.56944
-0.53611
-0.51528
-0.47639
-0.42639
-0.3
-0.18889
-0.12778
-0.12083
-0.11806
-0.0875
-0.0083333
0.061111
0.12222
0.19722
0.25833
0.31111
0.32778
0.32083
0.275
0.20278
0.12361
0.0375
-0.027778
-0.077778
-0.13889
-0.19722
-0.27778
-0.34167
-0.41806
-0.45417
-0.45694
-0.40833
-0.3375
-0.3
-0.27361
-0.30139
-0.31944
-0.34167
-0.34306
-0.31667
-0.32222
-0.30556
-0.28611
-0.24444
-0.16111
-0.10278
-0.058333
-0.066667
-0.088889
-0.084722
-0.088889
-0.090278
-0.088889
-0.055556
0.059722
0.16667
0.26111
0.23333
0.19861
0.12361
0.056944
0.0069444
-0.070833
-0.17361
-0.30278
-0.39861
-0.48472
-0.51389
-0.49306
-0.49167
-0.44028
-0.42361
-0.38889
-0.34861
-0.35139
-0.3375
-0.31528
-0.27361
-0.25
-0.21111
-0.19028
-0.16667
-0.15833
-0.20556
-0.27639
-0.33056
-0.39722
-0.43333
-0.45972
-0.45
-0.35278
-0.23889
-0.098611
0.036111
0.0875
0.058333
-0.048611
-0.16528
-0.18889
-0.18194
-0.16389
-0.125
-0.14444
-0.14444
-0.22778
-0.29028
-0.34444
-0.34028
-0.325
-0.36806
-0.41389
-0.45556
-0.47778
-0.45
-0.3625
-0.26806
-0.18611
-0.15694
-0.18472
-0.21944
-0.25694
-0.29722
-0.30556
-0.30139
-0.30694
-0.29861
-0.3
-0.3125
-0.33194
-0.39444
-0.42361
-0.45139
-0.44306
-0.40278
-0.36944
-0.34722
-0.35278
-0.37083
-0.39861
-0.43333
-0.4625
-0.48333
-0.46806
-0.41806
-0.35556
-0.27917
-0.21528
-0.20139
-0.1875
-0.19306
-0.2
-0.21667
-0.24028
-0.275
-0.33611
-0.39861
-0.45278
-0.46111
-0.44306
-0.4125
-0.39028
-0.39167
-0.43333
-0.51667
-0.61389
-0.63889
-0.575
-0.50972
-0.45694
-0.30833
-0.13889
0.12222
0.29028
0.37361
0.41944
0.4125
0.3625
0.25833
0.12083
-0.0097222
-0.12361
-0.21944
-0.30556
-0.35972
-0.38194
-0.38194
-0.39722
-0.42917
-0.47917
-0.5
-0.48333
-0.44306
-0.3625
-0.31944
-0.28472
-0.29861
-0.31389
-0.32361
-0.29306
-0.20833
-0.10972
-0.098611
-0.15
-0.26528
-0.34444
-0.38889
-0.40972
-0.43472
-0.46944
-0.46806
-0.41528
-0.28472
-0.1375
-0.0055556
0.093056
0.15556
0.15556
0.10972
0.0055556
-0.1125
-0.22222
-0.28333
-0.32778
-0.34167
-0.35417
-0.35417
-0.35972
-0.38056
-0.40694
-0.45
-0.44722
-0.44444
-0.39861
-0.3625
-0.325
-0.29583
-0.26806
-0.28333
-0.33333
-0.35833
-0.34167
-0.25556
-0.175
-0.14861
-0.14583
-0.17361
-0.17222
-0.17639
-0.14167
-0.073611
0.013889
0.091667
0.12639
0.13333
0.1375
0.12778
0.1
0.048611
-0.025
-0.10278
-0.19861
-0.28472
-0.34306
-0.39028
-0.39444
-0.44028
-0.48333
-0.52639
-0.55139
-0.54167
-0.50556
-0.47083
-0.41944
-0.35833
-0.28333
-0.2125
-0.14028
-0.073611
-0.011111
0.045833
0.073611
0.090278
0.088889
0.030556
-0.047222
-0.10417
-0.10278
-0.036111
0.059722
0.14722
0.17361
0.15139
0.051389
-0.052778
-0.18889
-0.32778
-0.39306
-0.40417
-0.38611
-0.37639
-0.50972
-0.56806
-0.52778
-0.35694
-0.069444
0.19722
0.44722
0.62083
0.69444
0.6625
0.56806
0.46528
0.37083
0.28611
0.19722
0.094444
-0.023611
-0.125
-0.21944
-0.29167
-0.34722
-0.38472
-0.40417
-0.40972
-0.40139
-0.39861
-0.4
-0.40694
-0.42917
-0.45
-0.46667
-0.4875
-0.46944
-0.42917
-0.33611
-0.25694
-0.16389
-0.12917
-0.12639
-0.1875
-0.26667
-0.35278
-0.35694
-0.38333
-0.43472
-0.60417
-0.7875
-0.85417
-0.73194
-0.48194
-0.19306
0.0375
0.22778
0.3875
0.50833
0.57917
0.55278
0.46389
0.31528
0.14306
-0.019444
-0.15278
-0.25972
-0.34722
-0.41528
-0.46806
-0.51944
-0.55139
-0.56806
-0.57917
-0.57639
-0.575
-0.57083
-0.5625
-0.55
-0.53194
-0.48194
-0.40694
-0.31528
-0.23472
-0.16944
-0.11806
-0.048611
0.0027778
0.030556
-0.022222
-0.19722
-0.375
-0.44444
-0.34306
-0.13333
0.072222
0.22083
0.34028
0.42361
0.44028
0.36389
0.19722
-0.0097222
-0.19444
-0.29167
-0.31667
-0.26944
-0.25417
-0.24306
-0.25833
-0.26944
-0.27639
-0.27917
-0.27639
-0.26667
-0.26111
-0.24444
-0.25417
-0.26806
-0.31667
-0.35139
-0.39583
-0.43889
-0.48472
-0.51944
-0.51389
-0.48333
-0.44861
-0.42083
-0.42778
-0.45694
-0.44722
-0.43611
-0.4125
-0.39028
-0.36528
-0.2875
-0.14861
0
0.13472
0.23611
0.30972
0.35
0.38056
0.3625
0.24028
0.090278
-0.090278
-0.22083
-0.29583
-0.325
-0.34028
-0.36806
-0.38194
-0.39861
-0.45556
-0.52083
-0.57083
-0.56111
-0.4875
-0.44028
-0.39444
-0.36389
-0.31528
-0.25694
-0.21806
-0.19028
-0.19444
-0.23611
-0.28194
-0.33194
-0.35
-0.35278
-0.35139
-0.36806
-0.44028
-0.55417
-0.65
-0.64028
-0.55417
-0.43889
-0.38194
-0.34306
-0.30417
-0.19444
-0.070833
0.068056
0.20972
0.3375
0.45833
0.49583
0.45833
0.325
0.15694
-0.0041667
-0.15694
-0.23611
-0.28333
-0.30139
-0.29306
-0.30139
-0.3625
-0.47083
-0.575
-0.59306
-0.5875
-0.55556
-0.55417
-0.51389
-0.47639
-0.39861
-0.33611
-0.27917
-0.22639
-0.1625
-0.15972
-0.20417
-0.22361
-0.17917
-0.029167
0.083333
0.16528
0.15972
0.15278
0.14028
0.11111
0.063889
0
-0.088889
-0.18333
-0.26111
-0.30139
-0.32917
-0.32917
-0.3375
-0.34722
-0.35417
-0.36111
-0.36806
-0.3875
-0.42778
-0.47083
-0.48056
-0.45694
-0.43889
-0.46111
-0.54028
-0.63333
-0.63333
-0.58333
-0.52917
-0.475
-0.40972
-0.24028
0.033333
0.27222
0.51389
0.62222
0.63611
0.60833
0.50972
0.41667
0.31806
0.20694
0.097222
-0.013889
-0.079167
-0.14583
-0.19861
-0.25
-0.30694
-0.34167
-0.35139
-0.32083
-0.27083
-0.19583
-0.1125
-0.040278
-0.0125
-0.013889
-0.043056
-0.076389
-0.10556
-0.15972
-0.20694
-0.29028
-0.38194
-0.47361
-0.54444
-0.55694
-0.51667
-0.4625
-0.41806
-0.44306
-0.5
-0.52222
-0.49028
-0.43611
-0.38611
-0.41667
-0.45417
-0.38472
-0.14583
0.2
0.4875
0.63056
0.675
0.65833
0.61528
0.55139
0.46389
0.38056
0.28611
0.16944
0.051389
-0.073611
-0.16944
-0.23472
-0.27778
-0.29306
-0.28194
-0.27917
-0.26389
-0.25556
-0.27639
-0.29583
-0.36528
-0.4375
-0.5125
-0.55
-0.525
-0.45417
-0.34167
-0.29444
-0.28472
-0.33333
-0.39861
-0.41111
-0.39306
-0.33472
-0.27361
-0.25278
-0.25139
-0.2125
-0.088889
0.065278
0.26806
0.39583
0.49722
0.52639
0.5
0.42639
0.34722
0.24861
0.14167
0.0083333
-0.12361
-0.24306
-0.34444
-0.41528
-0.49167
-0.54444
-0.59861
-0.63472
-0.65694
-0.6375
-0.56667
-0.475
-0.40556
-0.34583
-0.32917
-0.3375
-0.31667
-0.28056
-0.20972
-0.17222
-0.17083
-0.22361
-0.29861
-0.375
-0.47639
-0.58056
-0.68194
-0.75278
-0.69167
-0.47778
-0.14861
0.17778
0.49306
0.675
0.775
0.76528
0.65694
0.50139
0.31944
0.14028
-0.016667
-0.13333
-0.22222
-0.27083
-0.29583
-0.28333
-0.27083
-0.275
-0.29306
-0.31944
-0.34306
-0.35694
-0.36111
-0.35556
-0.34167
-0.31667
-0.26111
-0.20139
-0.16389
-0.15
-0.15
-0.15417
-0.18194
-0.22083
-0.27361
-0.32917
-0.39722
-0.49028
-0.59167
-0.66944
-0.67361
-0.63889
-0.61944
-0.63194
-0.65694
-0.63472
-0.50833
-0.38056
-0.28194
-0.26944
-0.10694
0.11528
0.43611
0.65
0.70833
0.67917
0.60694
0.50972
0.38194
0.22361
0.077778
-0.070833
-0.16806
-0.25417
-0.31806
-0.36667
-0.40972
-0.42639
-0.41806
-0.37361
-0.32361
-0.27361
-0.23333
-0.19722
-0.16667
-0.16528
-0.18333
-0.23194
-0.24167
-0.25417
-0.26528
-0.30278
-0.35278
-0.39861
-0.425
-0.47222
-0.53472
-0.64722
-0.77222
-0.85833
-0.8125
-0.69444
-0.55278
-0.41667
-0.19861
0.093056
0.43056
0.63333
0.72222
0.7125
0.64722
0.53056
0.39444
0.22778
0.059722
-0.095833
-0.22778
-0.32083
-0.38611
-0.42917
-0.45
-0.46389
-0.4625
-0.45139
-0.43194
-0.42222
-0.42778
-0.46944
-0.53056
-0.59444
-0.62083
-0.60417
-0.57917
-0.53889
-0.49167
-0.43611
-0.38889
-0.37639
-0.41806
-0.41667
-0.40417
-0.41111
-0.425
-0.43889
-0.39722
-0.29444
-0.23056
-0.2125
-0.27778
-0.17222
0.036111
0.32917
0.52222
0.56389
0.54306
0.52361
0.51111
0.47778
0.42917
0.33611
0.19167
0.013889
-0.17083
-0.31528
-0.45139
-0.56806
-0.70139
-0.82639
-0.93333
-1
-0.99583
-0.94167
-0.84028
-0.7375
-0.64167
-0.56528
-0.49028
-0.42917
-0.36667
-0.35417
-0.40694
-0.53333
-0.5375
-0.45694
-0.26806
-0.069444
0.10833
0.28056
0.43056
0.48194
0.47083
0.39444
0.27917
0.14306
0.0055556
-0.098611
-0.17639
-0.20139
-0.2
-0.20972
-0.22917
-0.27917
-0.325
-0.35694
-0.38194
-0.36389
-0.33889
-0.31944
-0.32639
-0.37778
-0.45139
-0.53611
-0.59722
-0.64028
-0.64722
-0.63472
-0.60694
-0.61528
-0.66111
-0.71806
-0.76111
-0.73889
-0.66111
-0.59722
-0.54583
-0.58333
-0.41528
-0.18194
0.17222
0.43056
0.53056
0.55278
0.52778
0.475
0.38333
0.2625
0.11389
-0.040278
-0.19722
-0.33889
-0.44444
-0.52639
-0.55417
-0.56111
-0.54028
-0.48194
-0.42361
-0.36944
-0.33194
-0.3375
-0.33889
-0.34028
-0.29722
-0.24306
-0.16944
-0.10417
-0.12778
-0.16111
-0.2125
-0.24444
-0.20139
-0.14306
-0.070833
-0.034722
-0.068056
-0.14028
-0.21944
-0.27361
-0.3125
-0.34583
-0.35972
-0.30278
-0.14583
0.070833
0.25694
0.39306
0.42361
0.375
0.28056
0.15278
0.025
-0.11667
-0.2375
-0.33472
-0.4
-0.44444
-0.45833
-0.48056
-0.47361
-0.46528
-0.44444
-0.42639
-0.40833
-0.39861
-0.39583
-0.43333
-0.51806
-0.61667
-0.68889
-0.66528
-0.55417
-0.39444
-0.24306
-0.1125
0.0069444
0.12917
0.25139
0.29167
0.24167
0.14444
0.066667
0.077778
0.12639
0.13194
0.098611
0.022222
-0.090278
-0.24167
-0.40556
-0.55417
-0.64583
-0.65417
-0.625
-0.54306
-0.48611
-0.44583
-0.43611
-0.42917
-0.42361
-0.40417
-0.37917
-0.32778
-0.29028
-0.24306
-0.20694
-0.16111
-0.10694
-0.079167
-0.055556
-0.031944
0.023611
0.098611
0.1875
0.24722
0.27778
0.27917
0.24583
0.18889
0.11944
0.058333
0.018056
-0.029167
-0.1
-0.21111
-0.35417
-0.48611
-0.5875
-0.63472
-0.60278
-0.55139
-0.49583
-0.48611
-0.52361
-0.56667
-0.59167
-0.57639
-0.53472
-0.49583
-0.49167
-0.38611
-0.21667
0.054167
0.3125
0.5
0.59444
0.63056
0.57778
0.49583
0.37083
0.23056
0.076389
-0.079167
-0.20139
-0.33056
-0.43333
-0.49167
-0.55
-0.56944
-0.5875
-0.57778
-0.54306
-0.49583
-0.45139
-0.4
-0.35
-0.29306
-0.27361
-0.27083
-0.31389
-0.34444
-0.33889
-0.29167
-0.20278
-0.1
0.011111
0.069444
0.080556
0.038889
-0.047222
-0.094444
-0.14306
-0.18056
-0.21806
-0.28056
-0.3125
-0.3125
-0.29028
-0.29444
-0.29861
-0.33194
-0.33611
-0.34861
-0.34861
-0.36111
-0.37917
-0.38056
-0.37361
-0.36111
-0.35
-0.34444
-0.34861
-0.23611
-0.066667
0.17361
0.36389
0.43194
0.42778
0.37778
0.34861
0.30417
0.2375
0.14722
0.054167
-0.013889
-0.084722
-0.12222
-0.15556
-0.18194
-0.23333
-0.3125
-0.39167
-0.46528
-0.52639
-0.53889
-0.49861
-0.42083
-0.38472
-0.39583
-0.46111
-0.49306
-0.5
-0.5125
-0.54167
-0.57361
-0.58194
-0.55278
-0.48472
-0.38889
-0.36111
-0.44167
-0.4875
-0.36111
-0.1
0.23472
0.43333
0.5375
0.575
0.53194
0.43472
0.29861
0.14306
-0.0097222
-0.12361
-0.1875
-0.21389
-0.225
-0.24028
-0.25556
-0.28472
-0.31389
-0.31944
-0.31111
-0.25417
-0.20556
-0.17222
-0.1875
-0.22917
-0.24722
-0.2375
-0.20833
-0.17361
-0.16667
-0.19861
-0.25694
-0.31806
-0.36389
-0.39167
-0.44306
-0.50278
-0.61389
-0.80139
-0.89583
-0.97361
-0.94583
-0.79444
-0.54444
-0.1875
0.21111
0.5125
0.7125
0.78333
0.75139
0.66806
0.57083
0.47917
0.34722
0.175
-0.013889
-0.16111
-0.24444
-0.30972
-0.36111
-0.41528
-0.47083
-0.50972
-0.57361
-0.64028
-0.62222
-0.60278
-0.55278
-0.50556
-0.43194
-0.325
-0.23333
-0.23611
-0.22639
-0.11389
0.0013889
0.16667
0.23611
0.24444
0.23611
0.15833
0.059722
-0.034722
-0.1375
-0.22361
-0.33611
-0.40694
-0.45694
-0.48472
-0.49028
-0.5
-0.48472
-0.46111
-0.43056
-0.42361
-0.4125
-0.41944
-0.43333
-0.4625
-0.5
-0.49167
-0.47917
-0.425
-0.36389
-0.29861
-0.24167
-0.21528
-0.29028
-0.44722
-0.51389
-0.40833
-0.13194
0.14583
0.30833
0.36528
0.36528
0.33472
0.25972
0.15972
0.030556
-0.12778
-0.28889
-0.43333
-0.54583
-0.64028
-0.72083
-0.79028
-0.82222
-0.80694
-0.75556
-0.68056
-0.59028
-0.49028
-0.3875
-0.30139
-0.225
-0.19722
-0.21528
-0.28889
-0.32778
-0.34028
-0.25833
-0.15556
-0.0055556
0.13889
0.23194
0.24583
0.19583
0.073611
-0.029167
-0.098611
-0.11528
-0.11389
-0.14722
-0.20694
-0.27222
-0.33333
-0.39028
-0.45417
-0.51528
-0.5875
-0.63611
-0.67222
-0.67222
-0.63194
-0.55833
-0.47222
-0.43889
-0.49306
-0.41667
-0.29444
-0.025
0.23333
0.41111
0.55278
0.60694
0.57639
0.49028
0.375
0.25972
0.15417
0.052778
-0.0375
-0.11944
-0.17361
-0.22361
-0.25972
-0.29306
-0.33056
-0.34028
-0.33194
-0.33889
-0.35
-0.37639
-0.41944
-0.46111
-0.51806
-0.56389
-0.52917
-0.45833
-0.42917
-0.4375
-0.45833
-0.47083
-0.41528
-0.35556
-0.27222
-0.16806
-0.065278
-0.025
-0.040278
-0.077778
-0.093056
-0.026389
0.015278
0.0875
0.13889
0.1625
0.17917
0.16944
0.15139
0.13056
0.072222
0.0041667
-0.054167
-0.069444
-0.068056
-0.086111
-0.125
-0.19722
-0.24444
-0.275
-0.3
-0.34583
-0.40278
-0.48194
-0.54722
-0.56389
-0.53611
-0.50694
-0.42222
-0.38472
-0.37361
-0.39167
-0.40972
-0.35
-0.24722
-0.15972
-0.15139
-0.18889
-0.12361
-0.033333
0.16528
0.29861
0.37639
0.39861
0.34028
0.25417
0.13056
0.030556
-0.093056
-0.20694
-0.30139
-0.38472
-0.44861
-0.48333
-0.48194
-0.45278
-0.41111
-0.34444
-0.275
-0.18472
-0.10417
-0.036111
-0.048611
-0.12361
-0.23611
-0.35417
-0.4375
-0.48194
-0.48333
-0.45417
-0.41111
-0.38333
-0.43611
-0.575
-0.66528
-0.70694
-0.70972
-0.66667
-0.54444
-0.26944
0.10556
0.42917
0.57639
0.62083
0.57778
0.50417
0.41528
0.30139
0.17778
0.047222
-0.055556
-0.14722
-0.2375
-0.32639
-0.38889
-0.41667
-0.38611
-0.33194
-0.25278
-0.15833
-0.076389
-0.022222
0.0013889
0.013889
0.015278
0.016667
0.016667
-0.0041667
-0.0625
-0.15556
-0.26111
-0.31667
-0.34167
-0.36389
-0.3875
-0.42222
-0.4625
-0.47083
-0.49861
-0.48194
-0.49583
-0.50556
-0.44306
-0.35
-0.17778
-0.066667
-0.0083333
0.098611
0.1875
0.29583
0.34861
0.36389
0.35833
0.3375
0.29444
0.23472
0.14444
0.023611
-0.10694
-0.22639
-0.32083
-0.40833
-0.47917
-0.54306
-0.59861
-0.64722
-0.71389
-0.73611
-0.725
-0.68472
-0.63472
-0.575
-0.51667
-0.45139
-0.4
-0.37778
-0.35417
-0.33333
-0.29722
-0.24722
-0.18611
-0.14306
-0.1375
-0.16806
-0.23472
-0.29444
-0.27639
-0.20833
-0.097222
-0.018056
0.033333
0.058333
-0.0013889
-0.11111
-0.24028
-0.30417
-0.28056
-0.19722
-0.059722
0.095833
0.23472
0.40556
0.56944
0.73472
0.81944
0.78472
0.64583
0.43333
0.21389
0.0013889
-0.17361
-0.26111
-0.35
-0.43472
-0.55278
-0.67222
-0.72222
-0.74444
-0.72639
-0.67083
-0.60139
-0.53333
-0.48333
-0.47083
-0.47778
-0.47639
-0.4625
-0.45417
-0.44861
-0.45278
-0.45833
-0.45417
-0.45278
-0.44028
-0.42639
-0.39583
-0.36806
-0.33889
-0.34028
-0.35972
-0.38056
-0.37778
-0.36667
-0.35417
-0.34306
-0.34861
-0.35139
-0.32222
-0.30417
-0.25833
-0.21528
-0.18611
-0.16111
-0.13611
-0.095833
-0.051389
-0.013889
0.0097222
0.05
0.10972
0.16667
0.21111
0.21528
0.20556
0.19861
0.16389
0.1125
0.052778
-0.056944
-0.15417
-0.21528
-0.25694
-0.27917
-0.30417
-0.31806
-0.33333
-0.33194
-0.34167
-0.33889
-0.32778
-0.3125
-0.29028
-0.25556
-0.19722
-0.13194
-0.075
-0.0375
-0.030556
-0.054167
-0.079167
-0.097222
-0.10417
-0.075
-0.065278
-0.081944
-0.13472
-0.19028
-0.24444
-0.24444
-0.23889
-0.21667
-0.22222
-0.2625
-0.32361
-0.39583
-0.46806
-0.53611
-0.64722
-0.79722
-0.88611
-0.98194
-0.90417
-0.72778
-0.44861
-0.088889
0.23889
0.49583
0.66111
0.73333
0.72917
0.6625
0.52222
0.33611
0.16111
0.016667
-0.097222
-0.17361
-0.21111
-0.21667
-0.21944
-0.22222
-0.23472
-0.275
-0.32361
-0.3875
-0.45556
-0.50417
-0.54028
-0.5375
-0.51111
-0.45833
-0.43056
-0.4125
-0.4
-0.41944
-0.44444
-0.38194
-0.22917
-0.045833
0.11944
0.18194
0.21111
0.22222
0.2
0.13194
0.0625
-0.044444
-0.16111
-0.27361
-0.34306
-0.40972
-0.43611
-0.44028
-0.40833
-0.35694
-0.33472
-0.34306
-0.40278
-0.48056
-0.59028
-0.70417
-0.78472
-0.80417
-0.81111
-0.74167
-0.68194
-0.61528
-0.6125
-0.63889
-0.67083
-0.675
-0.55278
-0.2625
0.1375
0.5
0.675
0.69583
0.63472
0.52083
0.37917
0.22778
0.090278
-0.027778
-0.11111
-0.17083
-0.22361
-0.25972
-0.2875
-0.28472
-0.25556
-0.21944
-0.19167
-0.20278
-0.2375
-0.28611
-0.32639
-0.35972
-0.38889
-0.425
-0.43194
-0.42361
-0.39722
-0.37639
-0.375
-0.36806
-0.36806
-0.36667
-0.35139
-0.39583
-0.48194
-0.57222
-0.47222
-0.275
-0.022222
0.11389
0.17361
0.24167
0.30556
0.35833
0.37917
0.31806
0.21389
0.069444
-0.083333
-0.22778
-0.34167
-0.41667
-0.4625
-0.47222
-0.47778
-0.4625
-0.45556
-0.4875
-0.54167
-0.62917
-0.66111
-0.625
-0.54306
-0.45139
-0.41944
-0.42917
-0.41389
-0.36389
-0.30139
-0.2625
-0.24583
-0.22083
-0.17917
-0.14444
-0.17361
-0.23611
-0.28194
-0.27361
-0.18194
-0.0625
0.061111
0.15556
0.23194
0.30556
0.36528
0.375
0.30278
0.19306
0.093056
0.05
0.033333
0.025
0.0097222
-0.033333
-0.10139
-0.20417
-0.29444
-0.39444
-0.45556
-0.4875
-0.51111
-0.54444
-0.5875
-0.6375
-0.675
-0.68056
-0.65694
-0.5875
-0.50694
-0.41806
-0.325
-0.25833
-0.17361
-0.10556
-0.023611
0.0625
0.1
0.090278
0.083333
0.093056
0.10833
0.11944
0.11111
0.11944
0.10139
0.045833
-0.080556
-0.2625
-0.41806
-0.54444
-0.575
-0.52778
-0.44167
-0.36389
-0.36528
-0.41806
-0.48611
-0.48333
-0.42917
-0.34306
-0.26389
-0.1875
-0.12361
-0.059722
-0.025
-0.0375
-0.070833
-0.072222
-0.065278
-0.0375
-0.0041667
0.033333
0.048611
0.0375
-0.019444
-0.072222
-0.12222
-0.16389
-0.21944
-0.29028
-0.36111
-0.42222
-0.45556
-0.43889
-0.41806
-0.41528
-0.48333
-0.61667
-0.68472
-0.75417
-0.74167
-0.65
-0.44306
0.0083333
0.47917
0.85556
1
0.95694
0.83056
0.67361
0.48889
0.31667
0.14583
0.016667
-0.098611
-0.18611
-0.2625
-0.30556
-0.34583
-0.38333
-0.43611
-0.51806
-0.575
-0.62222
-0.63194
-0.65
-0.63889
-0.60972
-0.55833
-0.48611
-0.40694
-0.3
-0.2
-0.13194
-0.11389
-0.14444
-0.20139
-0.23056
-0.16667
-0.069444
0.076389
0.15833
0.19861
0.19444
0.11944
0.019444
-0.056944
-0.10417
-0.16667
-0.24861
-0.35833
-0.44583
-0.49306
-0.51528
-0.54722
-0.59306
-0.71111
-0.775
-0.80694
-0.75
-0.62361
-0.44028
-0.25556
-0.12083
-0.090278
-0.033333
0.1625
0.39583
0.61528
0.65
0.59028
0.48472
0.38194
0.26944
0.16944
0.038889
-0.10556
-0.23889
-0.35972
-0.43889
-0.47639
-0.4625
-0.42361
-0.37917
-0.3625
-0.37222
-0.42639
-0.49028
-0.54722
-0.57778
-0.58611
-0.57361
-0.55417
-0.56389
-0.54028
-0.51389
-0.40417
-0.26528
-0.10278
-0.011111
0.018056
-0.025
-0.14583
-0.29444
-0.3875
-0.32222
-0.13194
0.13472
0.35972
0.49167
0.58056
0.57917
0.56111
0.49028
0.37778
0.23333
0.040278
-0.13056
-0.26806
-0.34028
-0.37083
-0.38472
-0.38472
-0.40278
-0.46111
-0.56528
-0.64861
-0.69861
-0.70417
-0.68333
-0.64444
-0.57639
-0.49028
-0.36944
-0.26528
-0.14444
-0.054167
-0.044444
-0.10139
-0.15694
-0.1625
-0.12778
-0.075
-0.1
-0.10833
-0.13889
-0.10694
-0.058333
0.0125
0.10139
0.14444
0.16944
0.14167
0.065278
-0.0375
-0.14306
-0.225
-0.28889
-0.35972
-0.45139
-0.55694
-0.64028
-0.69583
-0.69444
-0.65556
-0.57917
-0.48333
-0.33333
-0.18056
-0.034722
0.026389
-0.031944
-0.11944
-0.16667
-0.13194
-0.018056
0.0875
0.22361
0.36111
0.425
0.4
0.29722
0.1375
-0.011111
-0.17361
-0.25972
-0.37361
-0.41944
-0.52083
-0.55833
-0.55972
-0.52222
-0.45556
-0.4
-0.35694
-0.32778
-0.29167
-0.25
-0.20556
-0.1875
-0.12361
-0.031944
0.086111
0.1875
0.21111
0.20833
0.19306
0.14722
0.077778
-0.016667
-0.10694
-0.1875
-0.28056
-0.35556
-0.43472
-0.48611
-0.5125
-0.49306
-0.45139
-0.40972
-0.40694
-0.42778
-0.46667
-0.44444
-0.40972
-0.34861
-0.33194
-0.31944
-0.30278
-0.26111
-0.21389
-0.20833
-0.22083
-0.15417
-0.051389
0.11528
0.28333
0.41389
0.525
0.58472
0.575
0.48889
0.35278
0.175
0.0013889
-0.14583
-0.25694
-0.33194
-0.37778
-0.40972
-0.42361
-0.43194
-0.49167
-0.61111
-0.76389
-0.89306
-0.93472
-0.82778
-0.63194
-0.39861
-0.22778
-0.14167
-0.14306
-0.14861
-0.12639
-0.063889
0.033333
0.12083
0.20556
0.24167
0.25556
0.24028
0.20833
0.18333
0.13056
0.0375
-0.11111
-0.2875
-0.44028
-0.55
-0.625
-0.6375
-0.63333
-0.57222
-0.50139
-0.39861
-0.30417
-0.24167
-0.23611
-0.25972
-0.27361
-0.28333
-0.27222
-0.24444
-0.22083
-0.19861
-0.17222
-0.14167
-0.14167
-0.15972
-0.20556
-0.23333
-0.22639
-0.1875
-0.14722
-0.14167
-0.16667
-0.19583
-0.19583
-0.19028
-0.1875
-0.21944
-0.26944
-0.33889
-0.42361
-0.50556
-0.60694
-0.63611
-0.60972
-0.6
-0.58889
-0.49028
-0.30833
0.015278
0.30417
0.50833
0.64167
0.69167
0.65972
0.54861
0.39167
0.21111
0.055556
-0.068056
-0.14722
-0.17917
-0.17778
-0.17222
-0.19583
-0.24722
-0.31667
-0.37361
-0.44028
-0.49583
-0.52778
-0.54028
-0.4875
-0.41389
-0.34722
-0.31667
-0.33611
-0.36389
-0.39861
-0.36111
-0.35278
-0.40139
-0.43889
-0.39028
-0.26111
0.0013889
0.18611
0.325
0.36389
0.34028
0.25833
0.18333
0.11111
0.013889
-0.091667
-0.20278
-0.325
-0.39167
-0.44167
-0.43472
-0.40833
-0.39444
-0.38472
-0.3875
-0.38472
-0.36667
-0.34306
-0.32222
-0.30833
-0.31528
-0.3625
-0.42639
-0.48333
-0.50833
-0.48889
-0.42083
-0.32361
-0.24306
-0.22917
-0.29028
-0.37222
-0.39722
-0.36389
-0.27917
-0.20833
-0.2
-0.25417
-0.19028
-0.034722
0.22639
0.46944
0.57778
0.61389
0.58056
0.44167
0.27222
0.068056
-0.10556
-0.24306
-0.34583
-0.39444
-0.40139
-0.37361
-0.35
-0.34167
-0.35
-0.34306
-0.30694
-0.29583
-0.27778
-0.31389
-0.35833
-0.41528
-0.46944
-0.50139
-0.48472
-0.44444
-0.39306
-0.33611
-0.32222
-0.30833
-0.30694
-0.29167
-0.27083
-0.28611
-0.37222
-0.40972
-0.41944
-0.31111
-0.18333
-0.048611
0.0625
0.14167
0.15833
0.13056
0.083333
0.0083333
-0.080556
-0.175
-0.28333
-0.36667
-0.41667
-0.425
-0.41111
-0.36528
-0.31528
-0.26806
-0.25278
-0.26111
-0.29167
-0.32778
-0.35139
-0.37639
-0.40417
-0.47361
-0.55833
-0.63889
-0.68472
-0.64167
-0.53611
-0.43194
-0.36667
-0.40556
-0.47917
-0.54028
-0.61944
-0.64167
-0.65556
-0.64444
-0.42083
-0.14861
0.24444
0.54861
0.72222
0.80556
0.81389
0.75556
0.64306
0.49583
0.32778
0.15972
0.018056
-0.094444
-0.1625
-0.21389
-0.24861
-0.27361
-0.28056
-0.28472
-0.26667
-0.24722
-0.22639
-0.20833
-0.2
-0.18611
-0.19444
-0.21944
-0.24444
-0.26667
-0.24444
-0.2375
-0.20833
-0.20556
-0.20139
-0.21806
-0.19583
-0.17222
-0.17639
-0.20694
-0.30278
-0.37639
-0.41111
-0.40556
-0.33889
-0.26111
-0.21667
-0.20556
-0.26667
-0.30139
-0.16111
0.054167
0.33611
0.47639
0.52361
0.5375
0.52917
0.5
0.42361
0.31667
0.18472
0.040278
-0.068056
-0.15278
-0.20972
-0.28056
-0.36111
-0.46944
-0.57222
-0.67778
-0.70972
-0.70139
-0.66111
-0.65833
-0.69167
-0.75833
-0.8
-0.80694
-0.75417
-0.71111
-0.51111
-0.24444
0.10139
0.3625
0.48472
0.49306
0.48194
0.45556
0.38194
0.2625
0.1
-0.065278
-0.20139
-0.29306
-0.35417
-0.39444
-0.43333
-0.44722
-0.43194
-0.38333
-0.33333
-0.30139
-0.31667
-0.36389
-0.40833
-0.44583
-0.45278
-0.42083
-0.38056
-0.34306
-0.33472
-0.34861
-0.35972
-0.38194
-0.38611
-0.36667
-0.32778
-0.27917
-0.22361
-0.18611
-0.17639
-0.21944
-0.33889
-0.36806
-0.29583
-0.11944
0.063889
0.11806
0.091667
0.047222
0.013889
0.033333
0.079167
0.090278
0.0875
0.031944
-0.018056
-0.076389
-0.14583
-0.22917
-0.30556
-0.36389
-0.41389
-0.43611
-0.44722
-0.45139
-0.47639
-0.50694
-0.53333
-0.58333
-0.64444
-0.68889
-0.66389
-0.5875
-0.4625
-0.29028
-0.13472
0.030556
0.13889
0.19444
0.21528
0.18472
0.14306
0.10972
0.0875
0.034722
-0.061111
-0.15972
-0.22917
-0.23611
-0.23194
-0.19306
-0.19028
-0.17778
-0.20833
-0.25972
-0.29306
-0.32083
-0.34444
-0.36667
-0.39722
-0.42639
-0.45139
-0.45972
-0.43889
-0.37778
-0.30972
-0.26389
-0.24861
-0.26667
-0.30833
-0.325
-0.325
-0.29722
-0.28472
-0.2875
-0.27222
-0.22639
-0.20556
-0.24306
-0.26528
-0.16667
-0.0097222
0.25139
0.43333
0.56111
0.61667
0.58333
0.5125
0.38333
0.20694
0.0055556
-0.17083
-0.29861
-0.3875
-0.45
-0.47361
-0.44722
-0.39167
-0.35278
-0.35417
-0.3625
-0.36806
-0.34861
-0.33611
-0.32778
-0.32917
-0.31944
-0.30556
-0.30139
-0.29861
-0.29444
-0.27917
-0.26528
-0.24028
-0.19722
-0.15972
-0.13889
-0.16806
-0.22083
-0.25139
-0.25278
-0.20833
-0.16667
-0.16528
-0.16528
-0.20278
-0.24583
-0.25694
-0.2125
-0.12083
-0.023611
0.030556
0.025
-0.0041667
-0.068056
-0.12083
-0.175
-0.20972
-0.20972
-0.18889
-0.14306
-0.1125
-0.095833
-0.10972
-0.15278
-0.20833
-0.29028
-0.34861
-0.38889
-0.39444
-0.37778
-0.31667
-0.24028
-0.16528
-0.13056
-0.15972
-0.22917
-0.34722
-0.45694
-0.52778
-0.53056
-0.44722
-0.38194
-0.35
-0.25972
-0.13194
0.045833
0.17917
0.2125
0.20972
0.18333
0.13472
0.044444
-0.079167
-0.22361
-0.33194
-0.38611
-0.375
-0.33194
-0.28194
-0.25139
-0.25
-0.27778
-0.30417
-0.33333
-0.325
-0.30139
-0.475
