-0.45725
-0.40092
-0.32002
-0.23605
-0.10394
0.03533
0.16231
0.23195
0.23707
0.20225
0.14081
0.073221
0.0015361
-0.075269
-0.15412
-0.23195
-0.29032
-0.33641
-0.36815
-0.39375
-0.41731
-0.43779
-0.46544
-0.49206
-0.52176
-0.54941
-0.57604
-0.60266
-0.60983
-0.59652
-0.55658
-0.50947
-0.46749
-0.44803
-0.45417
-0.51357
-0.63338
-0.77778
-0.88428
-0.90067
-0.83001
-0.68868
-0.45315
-0.1531
0.2002
0.49002
0.70405
0.81362
0.75218
0.60266
0.42448
0.29135
0.21966
0.14081
0.043523
-0.039427
-0.039427
-0.10804
-0.15105
-0.19508
-0.23297
-0.27496
-0.29544
-0.29544
-0.27906
-0.2555
-0.23502
-0.26677
-0.33436
-0.42755
-0.48285
-0.49002
-0.4511
-0.40399
-0.36098
-0.31695
-0.32821
-0.39683
-0.47568
-0.54224
-0.57911
-0.60164
-0.62622
-0.63031
-0.59447
-0.56272
-0.58013
-0.56272
-0.53917
-0.44188
-0.25038
-0.00051203
0.2637
0.48285
0.60369
0.56887
0.46851
0.33845
0.25653
0.21045
0.16334
0.10189
0.040451
-0.029186
-0.10701
-0.19713
-0.26882
-0.30568
-0.3149
-0.31592
-0.32821
-0.35791
-0.39478
-0.44393
-0.52381
-0.64465
-0.7829
-0.89759
-0.91807
-0.85868
-0.73374
-0.55863
-0.37327
-0.17051
0.018945
0.18894
0.30056
0.35689
0.35279
0.29237
0.1787
0.0066564
-0.17972
-0.33436
-0.3702
-0.31797
-0.22069
-0.15822
-0.21352
-0.31695
-0.43779
-0.51357
-0.53507
-0.52176
-0.49514
-0.42345
-0.32207
-0.21249
-0.12852
-0.13466
-0.25346
-0.49514
-0.72657
-0.81567
-0.77061
-0.54839
-0.29339
-0.032258
0.1746
0.35279
0.50026
0.61495
0.6385
0.57911
0.40297
0.22069
0.064004
-0.014849
-0.054788
-0.11316
-0.21659
-0.2893
-0.32309
-0.33538
-0.35074
-0.3702
-0.39068
-0.39068
-0.36713
-0.34153
-0.34255
-0.37532
-0.46237
-0.55863
-0.64363
-0.68049
-0.68152
-0.69585
-0.73272
-0.7532
-0.70609
-0.60471
-0.48285
-0.35586
-0.27496
-0.24731
-0.27803
-0.35381
-0.40911
-0.41526
-0.34972
-0.16334
0.037378
0.18177
0.21966
0.081413
-0.13569
-0.33538
-0.41321
-0.34869
-0.23502
-0.13978
-0.077317
-0.052739
-0.040451
-0.03021
-0.029186
-0.0681
-0.14286
-0.20328
-0.2299
-0.24117
-0.25038
-0.32514
-0.45827
-0.59549
-0.69995
-0.64977
-0.52586
-0.31797
-0.12033
0.012801
0.059908
0.060932
0.073221
0.13978
0.23195
0.30773
0.33333
0.31388
0.27496
0.2299
0.14491
0.042499
-0.089606
-0.24936
-0.40195
-0.49718
-0.49718
-0.4255
-0.32104
-0.28725
-0.32719
-0.43164
-0.57604
-0.69585
-0.74194
-0.67742
-0.55351
-0.41321
-0.33436
-0.36815
-0.46237
-0.56477
-0.65489
-0.68766
-0.7276
-0.72453
-0.65079
-0.50435
-0.29647
-0.11214
0.014849
0.041475
-0.0035842
-0.064004
-0.073221
-0.019969
0.081413
0.21147
0.33538
0.41526
0.43164
0.38966
0.33436
0.26984
0.21454
0.149
0.077317
-0.0087046
-0.10701
-0.19918
-0.26677
-0.32616
-0.38658
-0.45827
-0.54429
-0.57911
-0.57808
-0.50845
-0.41219
-0.32002
-0.22581
-0.16846
-0.16539
-0.21352
-0.2893
-0.33333
-0.29339
-0.16948
0.0025602
0.16027
0.27087
0.31285
0.2596
0.12442
-0.060932
-0.19201
-0.20328
-0.13774
-0.049667
-0.0025602
-0.055812
-0.18689
-0.32719
-0.44803
-0.51459
-0.54839
-0.58628
-0.59037
-0.55965
-0.50845
-0.45929
-0.45622
-0.47363
-0.50845
-0.48899
-0.4296
-0.38351
-0.39785
-0.48797
-0.58525
-0.64567
-0.66615
-0.67435
-0.64875
-0.59549
-0.48694
-0.40297
-0.32207
-0.22069
-0.1234
-0.082437
-0.088582
-0.071173
0.054788
0.21966
0.39068
0.48694
0.51562
0.4849
0.39068
0.23912
0.078341
-0.061956
-0.1746
-0.26062
-0.31797
-0.35586
-0.39068
-0.44393
-0.50742
-0.57706
-0.63543
-0.68766
-0.71121
-0.71019
-0.68766
-0.65079
-0.63748
-0.65899
-0.68049
-0.69073
-0.60573
-0.49821
-0.3702
-0.26062
-0.19918
-0.14695
-0.096774
-0.0087046
0.11418
0.24834
0.33538
0.37327
0.29135
0.11111
-0.097798
-0.23093
-0.24219
-0.17768
-0.1234
-0.11316
-0.18996
-0.30671
-0.42243
-0.49514
-0.51767
-0.53815
-0.54327
-0.51971
-0.46544
-0.40502
-0.35484
-0.34562
-0.37122
-0.43984
-0.47875
-0.48592
-0.47568
-0.46544
-0.48182
-0.5105
-0.52995
-0.52893
-0.53405
-0.52791
-0.57092
-0.68459
-0.76549
-0.82796
-0.74603
-0.52893
-0.27087
-0.0097286
0.1275
0.22683
0.32924
0.43574
0.53098
0.51971
0.42448
0.28418
0.16129
0.078341
0.048643
-0.016897
-0.13364
-0.27087
-0.37122
-0.41731
-0.42448
-0.40707
-0.38044
-0.36201
-0.34972
-0.3661
-0.39887
-0.44905
-0.50333
-0.55556
-0.58833
-0.59857
-0.58628
-0.55453
-0.51459
-0.47773
-0.44496
-0.42448
-0.41219
-0.40399
-0.39887
-0.39273
-0.37737
-0.36508
-0.35893
-0.35791
-0.35791
-0.35381
-0.34767
-0.34767
-0.37327
-0.46646
-0.62314
-0.78392
-0.85356
-0.79621
-0.617
-0.37225
-0.1275
0.087558
0.24526
0.40399
0.58628
0.77573
0.87916
0.79826
0.62724
0.44291
0.34869
0.32412
0.27701
0.15617
0.010753
-0.12442
-0.20942
-0.23912
-0.26575
-0.30159
-0.37839
-0.5023
-0.65079
-0.75525
-0.79621
-0.75832
-0.66718
-0.56887
-0.47568
-0.40604
-0.36201
-0.34869
-0.35484
-0.40502
-0.45725
-0.56887
-0.52176
-0.48387
-0.30364
-0.12954
0.0015361
0.092678
0.10599
0.065028
0.024066
-0.013825
-0.05786
-0.10599
-0.18792
-0.30876
-0.43062
-0.4849
-0.46339
-0.35484
-0.25141
-0.17665
-0.17358
-0.27189
-0.38044
-0.47465
-0.50435
-0.49718
-0.46544
-0.4214
-0.34767
-0.29647
-0.28623
-0.31797
-0.35177
-0.36918
-0.40809
-0.49514
-0.58321
-0.58628
-0.47465
-0.30466
-0.13466
-0.0035842
0.072197
0.092678
0.0681
0.085509
0.12545
0.18484
0.22376
0.23093
0.20328
0.14695
0.069124
0.012801
-0.058884
-0.17051
-0.33333
-0.48797
-0.58013
-0.57706
-0.51152
-0.43267
-0.37839
-0.38556
-0.44393
-0.54122
-0.60061
-0.6129
-0.57604
-0.51152
-0.447
-0.39785
-0.35484
-0.33743
-0.31797
-0.35381
-0.46646
-0.62417
-0.72555
-0.68459
-0.51459
-0.26779
-0.037378
0.13876
0.19611
0.10087
-0.061956
-0.21659
-0.28623
-0.23605
-0.11828
0.016897
0.089606
0.065028
-0.022017
-0.1234
-0.1828
-0.17358
-0.15105
-0.14491
-0.15207
-0.17768
-0.21352
-0.26677
-0.32002
-0.37122
-0.4255
-0.47977
-0.52586
-0.55965
-0.57911
-0.58833
-0.59652
-0.60266
-0.60266
-0.60573
-0.60573
-0.61188
-0.6211
-0.6129
-0.56784
-0.49104
-0.38658
-0.28418
-0.21557
-0.23195
-0.36303
-0.58218
-0.7235
-0.81976
-0.77983
-0.66615
-0.47158
-0.17358
0.16334
0.48592
0.73477
0.80748
0.72453
0.60778
0.52176
0.48797
0.42345
0.27803
0.11214
-0.0015361
-0.074245
-0.11009
-0.15207
-0.2043
-0.26165
-0.30671
-0.35586
-0.39171
-0.3958
-0.37122
-0.33231
-0.29339
-0.28111
-0.2893
-0.35074
-0.43881
-0.53917
-0.59857
-0.58321
-0.50333
-0.36918
-0.29852
-0.34153
-0.47773
-0.61393
-0.70609
-0.6938
-0.56272
-0.36406
-0.13774
0.032258
0.15003
0.18587
0.18689
0.14286
0.1275
0.14081
0.13876
0.10701
0.059908
0.0087046
-0.033282
-0.064004
-0.083461
-0.10292
-0.12135
-0.13671
-0.15515
-0.17051
-0.18996
-0.22171
-0.27291
-0.33538
-0.39273
-0.44188
-0.47056
-0.49411
-0.50538
-0.5023
-0.48797
-0.46851
-0.44803
-0.42448
-0.39068
-0.35689
-0.33231
-0.33641
-0.40399
-0.52791
-0.62519
-0.65796
-0.61393
-0.53303
-0.4296
-0.27701
-0.070148
0.16027
0.38044
0.47977
0.44393
0.31695
0.21864
0.20123
0.24014
0.2381
0.19713
0.16641
0.15207
0.16129
0.13364
0.036354
-0.094726
-0.20123
-0.25448
-0.27087
-0.28111
-0.30364
-0.35381
-0.44188
-0.54634
-0.63646
-0.68049
-0.6682
-0.63236
-0.5658
-0.49309
-0.43881
-0.42038
-0.46851
-0.57604
-0.70814
-0.79314
-0.77573
-0.65899
-0.48797
-0.32924
-0.234
-0.21864
-0.33641
-0.38249
-0.34357
-0.19099
0.00051203
0.12647
0.1787
0.16743
0.098822
0.020993
-0.053763
-0.10906
-0.12442
-0.096774
-0.041475
-0.0015361
0.019969
0.019969
-0.014849
-0.070148
-0.15003
-0.22171
-0.28008
-0.32002
-0.35177
-0.38966
-0.43779
-0.48285
-0.51767
-0.54327
-0.56272
-0.57808
-0.5914
-0.60164
-0.61086
-0.61393
-0.61188
-0.59959
-0.57194
-0.53815
-0.50538
-0.47465
-0.45008
-0.43062
-0.41423
-0.40604
-0.40707
-0.41526
-0.42857
-0.45622
-0.49411
-0.53507
-0.57296
-0.60266
-0.62519
-0.60676
-0.57296
-0.50742
-0.44803
-0.36815
-0.26472
-0.13671
-0.03533
-0.02509
-0.16436
-0.29237
-0.29544
-0.11623
0.17972
0.41219
0.50742
0.4511
0.30876
0.14798
0.065028
0.067076
0.12033
0.17256
0.17153
0.10292
0.019969
-0.037378
-0.052739
-0.041475
-0.060932
-0.11316
-0.17256
-0.22888
-0.27599
-0.30159
-0.31183
-0.31183
-0.31797
-0.34665
-0.39375
-0.44905
-0.50026
-0.52893
-0.52893
-0.51152
-0.49821
-0.49309
-0.50128
-0.51459
-0.51767
-0.50742
-0.47773
-0.447
-0.42038
-0.40502
-0.40399
-0.42038
-0.48899
-0.617
-0.72657
-0.75832
-0.71941
-0.58218
-0.43062
-0.24424
-0.077317
0.060932
0.18689
0.28623
0.3702
0.39273
0.29647
0.16027
0.050691
0.015873
0.065028
0.12647
0.13671
0.069124
-0.0076805
-0.098822
-0.13774
-0.16436
-0.18382
-0.21249
-0.2299
-0.23707
-0.25038
-0.26267
-0.27906
-0.27906
-0.29237
-0.30978
-0.32616
-0.33026
-0.31695
-0.3149
-0.34767
-0.40911
-0.52176
-0.65387
-0.78597
-0.85356
-0.84946
-0.76754
-0.61802
-0.43881
-0.30978
-0.25448
-0.30978
-0.3958
-0.42038
-0.34255
-0.16027
0.041475
0.22683
0.30466
0.26984
0.15617
0.031234
-0.045571
-0.05786
-0.022017
0.042499
0.093702
0.10906
0.088582
0.037378
-0.019969
-0.081413
-0.12954
-0.16231
-0.18689
-0.21557
-0.25653
-0.2893
-0.31797
-0.33641
-0.35484
-0.37327
-0.39683
-0.43472
-0.47261
-0.5105
-0.53815
-0.55965
-0.57706
-0.59037
-0.60471
-0.6129
-0.61802
-0.61393
-0.60676
-0.59037
-0.55351
-0.51357
-0.46237
-0.45212
-0.4808
-0.54839
-0.61905
-0.65489
-0.59037
-0.43881
-0.234
-0.042499
0.081413
0.054788
-0.10087
-0.28623
-0.39375
-0.33538
-0.20635
-0.09575
-0.05786
-0.089606
-0.17358
-0.24526
-0.26062
-0.2637
-0.27803
-0.3446
-0.40707
-0.41116
-0.33641
-0.24424
-0.15719
-0.1193
-0.13364
-0.21147
-0.29544
-0.34665
-0.36098
-0.33231
-0.32412
-0.3149
-0.31388
-0.2893
-0.24117
-0.20635
-0.23297
-0.3661
-0.55556
-0.74296
-0.79519
-0.74194
-0.57296
-0.36303
-0.13671
0.097798
0.30671
0.51357
0.69585
0.84844
0.91398
0.8894
0.6979
0.47056
0.26165
0.15412
0.13876
0.16027
0.15003
0.12442
0.043523
-0.046595
-0.081413
-0.096774
-0.10189
-0.13364
-0.19304
-0.21045
-0.21454
-0.2084
-0.22273
-0.27291
-0.35279
-0.45008
-0.54327
-0.59857
-0.62826
-0.65591
-0.68254
-0.71531
-0.71531
-0.69176
-0.65182
-0.60778
-0.55658
-0.50947
-0.47773
-0.46646
-0.45725
-0.48285
-0.55658
-0.66206
-0.7573
-0.73682
-0.64363
-0.48387
-0.34665
-0.24219
-0.19918
-0.18075
-0.18689
-0.18894
-0.18894
-0.1787
-0.13978
-0.039427
0.093702
0.20328
0.25755
0.2596
0.23502
0.19508
0.10906
-0.012801
-0.18075
-0.33436
-0.43472
-0.43881
-0.36201
-0.234
-0.13774
-0.10497
-0.16231
-0.32924
-0.51562
-0.66615
-0.69995
-0.6129
-0.48592
-0.35689
-0.28623
-0.30056
-0.34972
-0.40399
-0.4255
-0.41628
-0.42448
-0.43779
-0.42243
-0.35791
-0.29237
-0.2596
-0.26267
-0.31388
-0.3958
-0.47875
-0.53405
-0.55453
-0.55044
-0.55351
-0.56989
-0.46134
-0.28827
0.015873
0.30056
0.5064
0.63134
0.66718
0.66923
0.62417
0.51869
0.39171
0.21454
0.034306
-0.13569
-0.27906
-0.3661
-0.40195
-0.38761
-0.33641
-0.28111
-0.234
-0.26779
-0.3446
-0.47363
-0.59447
-0.63441
-0.58013
-0.47465
-0.37225
-0.32002
-0.31592
-0.38044
-0.4552
-0.49514
-0.48592
-0.45008
-0.41321
-0.36201
-0.30568
-0.26984
-0.2637
-0.29032
-0.32514
-0.36815
-0.38556
-0.39171
-0.3958
-0.43164
-0.51357
-0.53507
-0.54429
-0.4849
-0.43267
-0.39171
-0.34357
-0.26882
-0.15207
0.033282
0.2381
0.4255
0.53507
0.56682
0.52074
0.42857
0.33026
0.21966
0.094726
-0.022017
-0.13466
-0.17256
-0.12545
-0.032258
0.074245
0.12033
0.089606
-0.037378
-0.2381
-0.45417
-0.66001
-0.73579
-0.69278
-0.57501
-0.45622
-0.39887
-0.38761
-0.3743
-0.36098
-0.37634
-0.40297
-0.45725
-0.5064
-0.50947
-0.45622
-0.37225
-0.22478
-0.085509
0.0097286
0.049667
0.038402
0.020993
-0.0066564
-0.053763
-0.11214
-0.15719
-0.18587
-0.20533
-0.2299
-0.25858
-0.27701
-0.28418
-0.28623
-0.28008
-0.28315
-0.30056
-0.33948
-0.38044
-0.42755
-0.46851
-0.50128
-0.51664
-0.52176
-0.51664
-0.50947
-0.50742
-0.51562
-0.52688
-0.54224
-0.54839
-0.54019
-0.51562
-0.47568
-0.42857
-0.39273
-0.3743
-0.37737
-0.39273
-0.41935
-0.46749
-0.5658
-0.702
-0.78904
-0.80543
-0.69176
-0.48592
-0.2299
0.019969
0.17153
0.19406
0.11828
0.11111
0.15617
0.26779
0.35381
0.36815
0.31592
0.24117
0.18177
0.1787
0.21454
0.23093
0.20737
0.13774
0.037378
-0.098822
-0.234
-0.37122
-0.46134
-0.50435
-0.51971
-0.52995
-0.58628
-0.68152
-0.79621
-0.84844
-0.77163
-0.61495
-0.39171
-0.2002
-0.029186
0.12238
0.26677
0.34767
0.37122
0.26984
0.053763
-0.18484
-0.36098
-0.41833
-0.38761
-0.30466
-0.2637
-0.29852
-0.40399
-0.52791
-0.6129
-0.64158
-0.61495
-0.56375
-0.50026
-0.43267
-0.38044
-0.33641
-0.30671
-0.29544
-0.31388
-0.34357
-0.37737
-0.40399
-0.41628
-0.42652
-0.42652
-0.41833
-0.40604
-0.40911
-0.42038
-0.46441
-0.52791
-0.56375
-0.57399
-0.5064
-0.35484
-0.17768
0.013825
0.18177
0.30261
0.35381
0.31183
0.22888
0.14081
0.13978
0.18996
0.27189
0.35586
0.4214
0.39785
0.31797
0.19816
0.092678
0.016897
-0.065028
-0.16129
-0.25448
-0.3149
-0.35381
-0.3661
-0.35791
-0.34767
-0.3405
-0.35996
-0.40297
-0.46646
-0.53917
-0.61598
-0.67537
-0.71633
-0.73067
-0.71736
-0.68459
-0.63134
-0.58218
-0.53507
-0.5023
-0.4849
-0.48387
-0.50026
-0.51562
-0.52893
-0.55146
-0.60983
-0.71429
-0.80645
-0.80543
-0.70917
-0.54634
-0.34665
-0.1531
0.011777
0.084485
0.060932
0.022017
0.047619
0.13466
0.24219
0.28418
0.23195
0.11214
-0.0015361
-0.077317
-0.073221
-0.046595
-0.012801
0.016897
0.023041
-0.031234
-0.14081
-0.25038
-0.32412
-0.35381
-0.35586
-0.33026
-0.28623
-0.26575
-0.31285
-0.48182
-0.75218
-0.90988
-1
-0.87711
-0.73067
-0.51254
-0.25653
0.020993
0.26984
0.43267
0.51664
0.4849
0.36918
0.21659
0.058884
-0.055812
-0.13057
-0.17153
-0.17051
-0.19406
-0.25141
-0.36918
-0.49206
-0.56784
-0.59345
-0.58628
-0.56272
-0.55146
-0.54224
-0.52688
-0.51767
-0.51869
-0.52279
-0.52586
-0.51971
-0.49411
-0.46134
-0.43472
-0.42345
-0.42345
-0.41935
-0.39478
-0.3743
-0.40092
-0.49309
-0.62417
-0.71531
-0.74194
-0.67435
-0.52176
-0.32002
-0.10087
0.072197
0.18587
0.29954
0.41423
0.55044
0.6467
0.66103
0.55658
0.33743
0.10292
-0.040451
-0.077317
-0.042499
-0.044547
-0.11623
-0.26677
-0.41423
-0.5105
-0.53405
-0.51664
-0.50742
-0.51869
-0.52279
-0.50947
-0.49002
-0.47875
-0.47465
-0.46134
-0.42755
-0.39785
-0.40297
-0.47363
-0.56272
-0.5914
-0.56068
-0.46646
-0.38966
-0.30466
-0.22785
-0.17051
-0.19304
-0.26984
-0.3702
-0.40707
-0.39068
-0.34665
-0.26472
-0.12545
0.046595
0.23502
0.35177
0.36303
0.27189
0.088582
-0.11316
-0.2637
-0.30261
-0.26984
-0.21761
-0.17358
-0.15822
-0.20942
-0.29237
-0.38966
-0.46851
-0.51971
-0.54941
-0.56784
-0.50538
-0.3958
-0.2555
-0.13057
-0.048643
-0.040451
-0.052739
-0.06298
-0.0015361
0.10804
0.22683
0.30671
0.33333
0.29339
0.17153
-0.016897
-0.23093
-0.38863
-0.44496
-0.41526
-0.32616
-0.24219
-0.20942
-0.27701
-0.39887
-0.51869
-0.60778
-0.63748
-0.62929
-0.59652
-0.5361
-0.46749
-0.36098
-0.24526
-0.17358
-0.17051
-0.21864
-0.25755
-0.29032
-0.30876
-0.33026
-0.33743
-0.319
-0.2852
-0.25346
-0.2043
-0.12033
0.031234
0.20942
0.33026
0.35177
0.24117
0.071173
-0.10906
-0.25448
-0.33538
-0.38044
-0.34665
-0.28418
-0.18587
-0.149
-0.16846
-0.21249
-0.24731
-0.27394
-0.30364
-0.33436
-0.32821
-0.29954
-0.25653
-0.21557
-0.1787
-0.15822
-0.14695
-0.16231
-0.19406
-0.23195
-0.26984
-0.29339
-0.31285
-0.31285
-0.29442
-0.23502
-0.19304
-0.17972
-0.24936
-0.38249
-0.532
-0.65079
-0.67947
-0.62519
-0.51664
-0.39785
-0.31797
-0.28111
-0.36815
-0.44393
-0.53405
-0.5064
-0.38044
-0.24731
-0.15412
-0.1746
-0.27394
-0.40092
-0.49104
-0.44598
-0.27701
-0.039427
0.15719
0.27496
0.31285
0.30773
0.25653
0.18689
0.088582
-0.041475
-0.18484
-0.3108
-0.39887
-0.44086
-0.45417
-0.44393
-0.44086
-0.4511
-0.45622
-0.43779
-0.39683
-0.38556
-0.42345
-0.46339
-0.52995
-0.5576
-0.53507
-0.51254
-0.44291
-0.41116
-0.39478
-0.37634
-0.33436
-0.26575
-0.14388
0.0025602
0.17153
0.29339
0.3405
0.30671
0.16334
-0.016897
-0.18587
-0.24219
-0.22171
-0.16539
-0.15412
-0.20123
-0.30876
-0.43676
-0.53507
-0.57399
-0.54839
-0.52279
-0.50435
-0.49002
-0.45827
-0.4255
-0.40604
-0.41116
-0.44086
-0.48899
-0.54429
-0.59037
-0.6129
-0.60778
-0.57399
-0.53098
-0.48694
-0.45827
-0.44905
-0.46441
-0.51664
-0.5873
-0.67025
-0.72657
-0.77061
-0.65079
-0.43881
-0.076293
0.30978
0.62826
0.84639
0.92422
0.83615
0.6129
0.33948
0.1275
0.0097286
-0.043523
-0.052739
-0.072197
-0.098822
-0.13159
-0.20328
-0.26062
-0.319
-0.35586
-0.35689
-0.33538
-0.29647
-0.28827
-0.33026
-0.42038
-0.51254
-0.55863
-0.53303
-0.49104
-0.49309
-0.51357
-0.54019
-0.52995
-0.51767
-0.48592
-0.43267
-0.36713
-0.31388
-0.29544
-0.30671
-0.35791
-0.44496
-0.54122
-0.60471
-0.62622
-0.60573
-0.54429
-0.46953
-0.37634
-0.26779
-0.1531
-0.036354
0.070148
0.14183
0.18894
0.20225
0.18894
0.15719
0.09575
0.020993
-0.064004
-0.15105
-0.22171
-0.30773
-0.38966
-0.44086
-0.43267
-0.36918
-0.27291
-0.21454
-0.21966
-0.27803
-0.41935
-0.56068
-0.65591
-0.66411
-0.61188
-0.5617
-0.52791
-0.49616
-0.46749
-0.44496
-0.43062
-0.41321
-0.40911
-0.43881
-0.48694
-0.54019
-0.5658
-0.53917
-0.4767
-0.39887
-0.35074
-0.37532
-0.51562
-0.63748
-0.66103
-0.59754
-0.27291
0.064004
0.44496
0.68356
0.73477
0.70405
0.65284
0.62314
0.58833
0.47875
0.33641
0.18792
0.079365
-0.00051203
-0.097798
-0.19099
-0.24322
-0.234
-0.19713
-0.15515
-0.15515
-0.21249
-0.29442
-0.37839
-0.40911
-0.41833
-0.43472
-0.43574
-0.41833
-0.40399
-0.38966
-0.38044
-0.36508
-0.35074
-0.35279
-0.35484
-0.35381
-0.35996
-0.36406
-0.37225
-0.38044
-0.41219
-0.4849
-0.55556
-0.58525
-0.55658
-0.47875
-0.3702
-0.25858
-0.16641
-0.12238
-0.10497
-0.074245
-0.0097286
0.064004
0.13978
0.17051
0.14695
0.053763
-0.040451
-0.05786
-0.020993
0.067076
0.11828
0.098822
-0.0035842
-0.16334
-0.29544
-0.34255
-0.30056
-0.25653
-0.26267
-0.32514
-0.41423
-0.5023
-0.57092
-0.59447
-0.5914
-0.5658
-0.54634
-0.5361
-0.52176
-0.50435
-0.48387
-0.46646
-0.447
-0.43369
-0.41731
-0.40297
-0.38966
-0.38249
-0.39478
-0.41628
-0.4296
-0.43369
-0.43779
-0.43881
-0.44188
-0.4214
-0.38556
-0.36098
-0.38761
-0.48797
-0.63031
-0.70917
-0.76651
-0.75525
-0.65899
-0.44086
-0.086534
0.32002
0.66615
0.92627
1
0.87609
0.6426
0.42243
0.2852
0.22273
0.15003
0.033282
-0.079365
-0.19508
-0.24629
-0.22683
-0.16641
-0.11828
-0.092678
-0.087558
-0.086534
-0.092678
-0.10804
-0.13671
-0.15105
-0.16948
-0.1746
-0.19816
-0.24629
-0.31388
-0.38556
-0.44393
-0.48285
-0.50026
-0.51357
-0.51971
-0.52176
-0.51869
-0.51459
-0.50026
-0.49206
-0.4808
-0.49002
-0.5105
-0.53098
-0.54327
-0.5617
-0.58218
-0.60778
-0.60778
-0.59037
-0.54224
-0.48285
-0.41731
-0.36815
-0.37634
-0.45417
-0.58423
-0.6979
-0.76959
-0.78392
-0.73886
-0.63441
-0.44598
-0.19816
0.046595
0.35586
0.62212
0.81976
0.86585
0.69995
0.47363
0.27087
0.18075
0.1746
0.1787
0.12647
0.038402
-0.078341
-0.17768
-0.23707
-0.27087
-0.32207
-0.38249
-0.44803
-0.49616
-0.52381
-0.51562
-0.49002
-0.45212
-0.42448
-0.43574
-0.46851
-0.50333
-0.53405
-0.53507
-0.51869
-0.49616
-0.47465
-0.44598
-0.4296
-0.43062
-0.44803
-0.47568
-0.5105
-0.54839
-0.58013
-0.59857
-0.5914
-0.56989
-0.54122
-0.51152
-0.47875
-0.45315
-0.44803
-0.46134
-0.48285
-0.50742
-0.5105
-0.50026
-0.47363
-0.43779
-0.40911
-0.43574
-0.51971
-0.65387
-0.71736
-0.74398
-0.67844
-0.56375
-0.41014
-0.22273
-0.032258
0.21557
0.5023
0.7829
0.93344
0.84946
0.65489
0.40809
0.24014
0.16539
0.13057
0.076293
-0.0066564
-0.088582
-0.12647
-0.14388
-0.18177
-0.234
-0.26984
-0.25141
-0.21864
-0.1828
-0.149
-0.14388
-0.17563
-0.21659
-0.26165
-0.27291
-0.2852
-0.29544
-0.2893
-0.26677
-0.26677
-0.2893
-0.34562
-0.40092
-0.45417
-0.47568
-0.46441
-0.4296
-0.39683
-0.38044
-0.38249
-0.4214
-0.49514
-0.52381
-0.48797
-0.39887
-0.30159
-0.22888
-0.18075
-0.12135
-0.041475
0.040451
0.17563
0.29339
0.39068
0.43267
0.42448
0.36098
0.28623
0.20328
0.12238
0.03533
-0.066052
-0.19099
-0.31285
-0.40195
-0.41116
-0.35074
-0.25448
-0.16846
-0.13159
-0.1531
-0.26062
-0.38044
-0.49206
-0.55453
-0.57092
-0.54634
-0.4767
-0.38658
-0.32207
-0.33948
-0.42448
-0.51152
-0.57092
-0.55965
-0.51971
-0.45417
-0.41628
-0.41116
-0.47465
-0.49309
-0.46441
-0.39887
-0.36303
-0.34153
-0.30876
-0.19918
0.0076805
0.24936
0.46851
0.59549
0.57501
0.43984
0.24629
0.042499
-0.10292
-0.17665
-0.18996
-0.16334
-0.16539
-0.21557
-0.33743
-0.44393
-0.49821
-0.49411
-0.49309
-0.5064
-0.52483
-0.52381
-0.5105
-0.49616
-0.47977
-0.46646
-0.44496
-0.4296
-0.4214
-0.42038
-0.43164
-0.44393
-0.4552
-0.45417
-0.44291
-0.44393
-0.46237
-0.51971
-0.5105
-0.46953
-0.36815
-0.27496
-0.2043
-0.14388
-0.069124
0.033282
0.1746
0.35074
0.47568
0.51357
0.41731
0.22785
0.028162
-0.076293
-0.10087
-0.085509
-0.10394
-0.16231
-0.26062
-0.35689
-0.44188
-0.46646
-0.47158
-0.46851
-0.45827
-0.45622
-0.45725
-0.4808
-0.50026
-0.51562
-0.52176
-0.52893
-0.52791
-0.51869
-0.50128
-0.49411
-0.50128
-0.51562
-0.51767
-0.49821
-0.45725
-0.40092
-0.34562
-0.32821
-0.38556
-0.51664
-0.63646
-0.71633
-0.71429
-0.64977
-0.54531
-0.39273
-0.21352
-0.022017
0.14593
0.27496
0.33845
0.40707
0.47568
0.53815
0.52791
0.42652
0.24117
0.051715
-0.11418
-0.22376
-0.31285
-0.40195
-0.47977
-0.51254
-0.5064
-0.46339
-0.44086
-0.44905
-0.4808
-0.49616
-0.47261
-0.42345
-0.36815
-0.32207
-0.3108
-0.31285
-0.32002
-0.32309
-0.32616
-0.32104
-0.31592
-0.3149
-0.32616
-0.34869
-0.37634
-0.3999
-0.42038
-0.43164
-0.43267
-0.43062
-0.43881
-0.47875
-0.55556
-0.64465
-0.67332
-0.67127
-0.59857
-0.50947
-0.36303
-0.18075
-0.024066
0.09063
0.12954
0.092678
0.0066564
-0.087558
-0.098822
-0.031234
0.042499
0.078341
0.052739
-0.028162
-0.13876
-0.20123
-0.1531
0.00051203
0.14388
0.20737
0.16539
0.050691
-0.071173
-0.16846
-0.22069
-0.26165
-0.29852
-0.32616
-0.32924
-0.34357
-0.3661
-0.40297
-0.43881
-0.46749
-0.49206
-0.50947
-0.51971
-0.51869
-0.52176
-0.52995
-0.55351
-0.58525
-0.61802
-0.64567
-0.65694
-0.64875
-0.62826
-0.60266
-0.58218
-0.56477
-0.55453
-0.54019
-0.52995
-0.52074
-0.51254
-0.50947
-0.50128
-0.49923
-0.50026
-0.50026
-0.50128
-0.49206
-0.4808
-0.46851
-0.44905
-0.43369
-0.41423
-0.39887
-0.38351
-0.35893
-0.33641
-0.33436
-0.33743
-0.36406
-0.38044
-0.38761
-0.36406
-0.32821
-0.28827
-0.27496
-0.30568
-0.39683
-0.51664
-0.57911
-0.65796
-0.66411
-0.60778
-0.46544
-0.16743
0.16539
0.52074
0.75627
0.81362
0.75218
0.64567
0.54634
0.47977
0.38761
0.30056
0.21761
0.13057
0.093702
0.085509
0.10497
0.087558
0.041475
-0.037378
-0.11623
-0.19918
-0.26472
-0.3108
-0.33948
-0.35893
-0.36713
-0.35996
-0.34153
-0.33538
-0.34562
-0.37122
-0.39683
-0.40707
-0.40195
-0.39683
-0.40911
-0.43574
-0.45417
-0.4511
-0.43676
-0.42857
-0.45417
-0.46953
-0.447
-0.40092
-0.33129
-0.29032
-0.2637
-0.27394
-0.29647
-0.32924
-0.31285
-0.21659
-0.043523
0.16231
0.34153
0.44598
0.47261
0.45008
0.43164
0.38556
0.30773
0.20635
0.074245
-0.046595
-0.16027
-0.26062
-0.31183
-0.30876
-0.27189
-0.24117
-0.2299
-0.27701
-0.36918
-0.50026
-0.60983
-0.66001
-0.63543
-0.55863
-0.47261
-0.40399
-0.39887
-0.43062
-0.45417
-0.43574
-0.39171
-0.35177
-0.35074
-0.3999
-0.43369
-0.35996
-0.2893
-0.14388
-0.091654
-0.077317
-0.12033
-0.20533
-0.22888
-0.16641
-0.020993
0.12033
0.23297
0.29544
0.32207
0.31388
0.26984
0.2043
0.11521
0.0076805
-0.11726
-0.18689
-0.2381
-0.26472
-0.30056
-0.37737
-0.46339
-0.54941
-0.60983
-0.60983
-0.56784
-0.48387
-0.39683
-0.32514
-0.31388
-0.3743
-0.48797
-0.62417
-0.71838
-0.6938
-0.57604
-0.41526
-0.26267
-0.19918
-0.24629
-0.35791
-0.44291
-0.4767
-0.46032
-0.41526
-0.35893
-0.23195
-0.051715
0.16539
0.39887
0.55556
0.58935
0.52176
0.41219
0.29852
0.18689
0.081413
-0.0097286
-0.072197
-0.11726
-0.16539
-0.22683
-0.28623
-0.33231
-0.36918
-0.39375
-0.41423
-0.42755
-0.43984
-0.45008
-0.45929
-0.46646
-0.46749
-0.45929
-0.4552
-0.4511
-0.45622
-0.44393
-0.40809
-0.35381
-0.31183
-0.33333
-0.43267
-0.56272
-0.61802
-0.61086
-0.53098
-0.45212
-0.36201
-0.27803
-0.2084
-0.12135
0.0056324
0.16334
0.319
0.38454
0.35484
0.2002
0.031234
-0.052739
-0.039427
0.042499
0.098822
0.074245
-0.020993
-0.18075
-0.32616
-0.42652
-0.43881
-0.40707
-0.38351
-0.39171
-0.43472
-0.47875
-0.51254
-0.50538
-0.45725
-0.39068
-0.34665
-0.35074
-0.37327
-0.36918
-0.38044
-0.48285
-0.65591
-0.73989
-0.82284
-0.73169
-0.61905
-0.42345
-0.16539
0.064004
0.26165
0.40195
0.44598
0.40911
0.29749
0.14183
-0.03021
-0.19099
-0.30978
-0.35586
-0.33538
-0.2893
-0.24424
-0.24117
-0.28111
-0.35177
-0.44905
-0.54122
-0.60164
-0.61598
-0.60881
-0.58833
-0.56989
-0.55146
-0.53507
-0.52279
-0.52279
-0.52176
-0.52688
-0.53098
-0.52586
-0.52176
-0.51767
-0.50742
-0.50435
-0.49718
-0.49821
-0.49104
-0.48387
-0.47158
-0.46851
-0.47568
-0.48592
-0.50128
-0.51357
-0.4849
-0.43984
-0.37839
-0.32616
-0.33948
-0.45315
-0.61495
-0.72555
-0.79416
-0.7235
-0.56682
-0.34665
-0.099846
0.13569
0.36406
0.59447
0.79519
0.83001
0.70814
0.54634
0.41833
0.3999
0.43062
0.42243
0.35484
0.22683
0.056836
-0.091654
-0.1828
-0.22171
-0.24629
-0.25755
-0.27701
-0.2852
-0.30159
-0.3149
-0.29544
-0.26779
-0.25755
-0.29237
-0.37737
-0.48285
-0.56682
-0.60369
-0.59754
-0.56477
-0.53405
-0.51869
-0.5105
-0.50538
-0.4849
-0.44496
-0.38658
-0.35484
-0.38044
-0.44086
-0.45008
-0.41219
-0.31695
-0.22376
-0.15924
-0.12033
-0.11521
-0.12033
-0.10189
-0.028162
0.056836
0.16436
0.25755
0.31695
0.3149
0.27394
0.2084
0.12442
0.027138
-0.091654
-0.20225
-0.25858
-0.26165
-0.22581
-0.19304
-0.18792
-0.21352
-0.27599
-0.35893
-0.43676
-0.49206
-0.51869
-0.52688
-0.52279
-0.50435
-0.49718
-0.49718
-0.5105
-0.51971
-0.52483
-0.52791
-0.52995
-0.53098
-0.51767
-0.47977
-0.43369
-0.3702
-0.32002
-0.32412
-0.38658
-0.44598
-0.44496
-0.39068
-0.32821
-0.28213
-0.27906
-0.26062
-0.17972
0.028162
0.34357
0.67537
0.89452
0.95084
0.8085
0.56272
0.32514
0.19611
0.16948
0.17768
0.16231
0.086534
-0.026114
-0.14593
-0.234
-0.27189
-0.29749
-0.33129
-0.38146
-0.43574
-0.47363
-0.49616
-0.50435
-0.49616
-0.46646
-0.43676
-0.40604
-0.42448
-0.46953
-0.52074
-0.56068
-0.57604
-0.57399
-0.56375
-0.54736
-0.51562
-0.48899
-0.47568
-0.49206
-0.51254
-0.54224
-0.55351
-0.55863
-0.5361
-0.48182
-0.4214
-0.37532
-0.36098
-0.41219
-0.50026
-0.56068
-0.60266
-0.58833
-0.54531
-0.4767
-0.34562
-0.19611
-0.039427
0.14593
0.32616
0.50538
0.64055
0.68561
0.64977
0.50742
0.31183
0.11623
-0.0015361
-0.043523
-0.041475
-0.059908
-0.10497
-0.2043
-0.33743
-0.42038
-0.47568
-0.47363
-0.48797
-0.51869
-0.52893
-0.5023
-0.46749
-0.44496
-0.43574
-0.40604
-0.36713
-0.3149
-0.28008
-0.2852
-0.29852
-0.31797
-0.35074
-0.3743
-0.39785
-0.41833
-0.43779
-0.44393
-0.43984
-0.43369
-0.49309
-0.57604
-0.58935
-0.59345
-0.50742
-0.4296
-0.36303
-0.29135
-0.20635
-0.096774
0.078341
0.27701
0.45008
0.58013
0.64772
0.66411
0.63134
0.55863
0.43472
0.27189
0.10701
-0.048643
-0.15924
-0.25243
-0.35893
-0.46851
-0.55044
-0.57501
-0.53917
-0.47056
-0.40604
-0.35996
-0.36815
-0.42345
-0.54429
-0.68049
-0.76037
-0.77471
-0.67947
-0.53303
-0.38966
-0.2852
-0.27394
-0.3743
-0.48899
-0.57911
-0.56989
-0.49411
-0.40809
-0.3108
-0.21966
-0.15412
-0.13057
-0.15207
-0.19304
-0.24117
-0.24117
-0.18894
-0.076293
0.058884
0.17358
0.24117
0.25448
0.23093
0.1746
0.10497
0.023041
-0.012801
-0.03021
-0.043523
-0.060932
-0.13057
-0.22069
-0.31695
-0.41014
-0.47056
-0.51562
-0.55248
-0.58628
-0.62212
-0.61393
-0.5617
-0.48182
-0.40195
-0.34562
-0.33436
-0.35689
-0.41833
-0.50742
-0.59037
-0.66103
-0.68561
-0.63338
-0.5576
-0.43984
-0.38044
-0.39273
-0.47363
-0.52791
-0.49821
-0.34767
-0.17563
-0.043523
0.027138
0.078341
0.11316
0.1531
0.1746
0.19406
0.21045
0.23912
0.28623
0.3108
0.30159
0.26677
0.20533
0.11828
0.015873
-0.091654
-0.2002
-0.29339
-0.36815
-0.41526
-0.43881
-0.44496
-0.44598
-0.43779
-0.43164
-0.42448
-0.41833
-0.4255
-0.45008
-0.48694
-0.53507
-0.57501
-0.61802
-0.65284
-0.68561
-0.71224
-0.70609
-0.69176
-0.65489
-0.58013
-0.5064
-0.38351
-0.23912
-0.10087
-0.0056324
0.020993
-0.015873
-0.088582
-0.16334
-0.13774
-0.022017
0.15719
0.29852
0.33436
0.24014
0.06298
-0.12647
-0.24117
-0.24526
-0.17256
-0.084485
-0.050691
-0.11316
-0.22683
-0.34153
-0.41526
-0.39375
-0.33231
-0.21352
-0.088582
0.020993
0.060932
0.042499
-0.052739
-0.19406
-0.32924
-0.41833
-0.42857
-0.35586
-0.25755
-0.15412
-0.079365
-0.059908
-0.085509
-0.149
-0.21249
-0.2299
-0.21454
-0.2084
-0.21352
-0.26984
-0.34255
-0.43267
-0.52176
-0.5914
-0.57808
-0.49411
-0.35279
-0.19918
-0.11316
-0.10292
-0.18996
-0.3108
-0.44598
-0.51459
-0.5064
-0.42755
-0.32412
-0.234
-0.17768
-0.15617
-0.18996
-0.29442
-0.3999
-0.43881
-0.40399
-0.32924
-0.2852
-0.27599
-0.27803
-0.29135
-0.35484
-0.41833
-0.46339
-0.47773
-0.42038
-0.34665
-0.24731
-0.15412
-0.09063
-0.038402
-0.028162
-0.055812
-0.12442
-0.20328
-0.25038
-0.24526
-0.20737
-0.14695
-0.091654
-0.028162
0.048643
0.12033
0.16743
0.15822
0.12033
0.015873
-0.12238
-0.2637
-0.36201
-0.37839
-0.31388
-0.26677
-0.22069
-0.18484
-0.19406
-0.16539
-0.15822
-0.12442
-0.10394
-0.11009
-0.10804
-0.048643
0.093702
0.24424
0.3446
0.32924
0.21864
0.069124
-0.094726
-0.22273
-0.30671
-0.35484
-0.37225
-0.3743
-0.39068
-0.42243
-0.46339
-0.48694
-0.49206
-0.47977
-0.46339
-0.45315
-0.44803
-0.4511
-0.46237
-0.47363
-0.45929
-0.40911
-0.33538
-0.28008
-0.29032
-0.34972
-0.42857
-0.49104
-0.50333
-0.49309
-0.45929
-0.40195
-0.34869
-0.29032
-0.2637
-0.23195
-0.2084
-0.12442
-0.0066564
0.12647
0.23912
0.27701
0.24117
0.13159
-0.019969
-0.1787
-0.30159
-0.35893
-0.31695
-0.24731
-0.20737
-0.23093
-0.29954
-0.38761
-0.43881
-0.44598
-0.41116
-0.35791
-0.33231
-0.32104
-0.32924
-0.319
-0.30261
-0.29339
-0.32309
-0.38761
-0.43984
-0.45008
-0.40911
-0.34255
-0.28725
-0.24936
-0.24014
-0.2596
-0.24526
-0.18996
-0.056836
0.12647
0.27189
0.37225
0.38556
0.33333
0.27394
0.21352
0.16436
0.088582
-0.0025602
-0.09063
-0.19508
-0.29032
-0.39478
-0.44393
-0.44393
-0.39273
-0.319
-0.2555
-0.21557
-0.24936
-0.32412
-0.41116
-0.45622
-0.44086
-0.39683
-0.35177
-0.3149
-0.31285
-0.31695
-0.3149
-0.28315
-0.24731
-0.22273
-0.21249
-0.22785
-0.24014
-0.25448
-0.29442
-0.32309
-0.33026
-0.29135
-0.15412
0.022017
0.19099
0.30056
0.32821
0.28315
0.19406
0.079365
-0.036354
-0.13466
-0.23195
-0.2893
-0.32616
-0.35381
-0.38044
-0.43369
-0.47977
-0.50538
-0.5064
-0.5023
-0.5064
-0.51562
-0.5064
-0.46851
-0.40195
-0.33436
-0.30364
-0.33436
-0.41423
-0.48285
-0.53712
-0.55044
-0.59242
-0.60983
-0.58525
-0.44803
-0.26575
-0.043523
0.12545
0.21864
0.23297
0.18382
0.10292
0.024066
-0.059908
-0.15924
-0.27599
-0.39785
-0.48387
-0.53507
-0.55044
-0.53712
-0.54941
-0.57296
-0.62929
-0.67947
-0.68971
-0.65387
-0.55351
-0.41935
-0.28111
-0.19508
-0.20123
-0.28008
-0.38761
-0.47465
-0.50845
-0.51357
-0.47465
-0.42652
-0.37225
-0.3446
-0.3661
-0.46749
-0.56989
-0.6426
-0.60061
-0.44086
-0.25755
-0.079365
0.012801
0.11316
0.17153
0.29544
0.40399
0.48387
0.48182
0.42755
0.33026
0.22376
0.13057
0.056836
-0.0035842
-0.018945
-0.028162
-0.050691
-0.089606
-0.15003
-0.21352
-0.2637
-0.29647
-0.31388
-0.31797
-0.319
-0.30056
-0.29954
-0.31183
-0.37122
-0.49718
-0.62826
-0.74603
-0.77368
-0.71838
-0.58935
-0.45725
-0.3661
-0.36508
-0.45008
-0.5658
-0.69278
-0.75627
-0.75934
-0.69278
-0.59857
-0.53507
-0.45212
-0.41321
-0.35791
-0.32514
-0.26472
-0.149
-0.039427
0.080389
0.17972
0.27599
0.33538
0.32719
0.26677
0.1787
0.064004
-0.053763
-0.14388
-0.16641
-0.13876
-0.09575
-0.078341
-0.092678
-0.12852
-0.18894
-0.25448
-0.3108
-0.34562
-0.35177
-0.34665
-0.34357
-0.34869
-0.37634
-0.4511
-0.51971
-0.56784
-0.57501
-0.55351
-0.49923
-0.42857
-0.36201
-0.30364
-0.28315
-0.21147
-0.12852
0.0076805
0.1275
0.21557
0.24014
0.19816
0.089606
-0.056836
-0.22069
-0.37532
-0.51767
-0.62622
-0.68049
-0.67127
-0.62417
-0.57092
-0.51869
-0.47465
-0.4552
-0.48592
-0.53917
-0.56989
-0.55965
-0.52279
-0.50742
-0.52483
-0.55658
-0.58935
-0.5873
-0.54429
-0.46851
-0.40399
-0.37327
-0.38556
-0.43062
-0.46237
-0.49616
-0.4808
-0.39785
-0.25346
-0.038402
0.18894
0.37532
0.49616
0.51869
0.46134
0.34357
0.19406
0.042499
-0.087558
-0.19918
-0.26267
-0.2893
-0.2852
-0.30876
-0.35893
-0.43267
-0.52176
-0.57604
-0.59447
-0.54736
-0.43267
-0.319
-0.24936
-0.25243
-0.3108
-0.37532
-0.43164
-0.45212
-0.43267
-0.40195
-0.38761
-0.41833
-0.48387
-0.54839
-0.617
-0.63338
-0.51664
-0.35791
-0.056836
0.18177
0.39375
0.51459
0.55044
0.52381
0.44496
0.32412
0.13876
-0.050691
-0.23502
-0.35484
-0.39478
-0.36815
-0.30773
-0.25141
-0.21352
-0.21147
-0.24834
-0.31183
-0.40195
-0.49514
-0.55556
-0.55248
-0.51459
-0.46339
-0.4214
-0.36815
-0.30568
-0.27803
-0.29339
-0.34562
-0.39683
-0.44188
-0.4849
-0.532
-0.58218
-0.61598
-0.617
-0.57399
-0.43369
-0.2084
0.065028
0.32514
0.52791
0.67537
0.74603
0.72453
0.6211
0.47465
0.29954
0.10906
-0.09063
-0.27189
-0.3661
-0.38454
-0.37327
-0.38556
-0.42038
-0.49514
-0.58833
-0.66411
-0.71429
-0.71633
-0.70609
-0.70097
-0.67742
-0.64158
-0.60471
-0.57296
-0.55248
-0.54224
-0.52995
-0.50026
-0.45929
-0.4214
-0.41116
-0.43574
-0.4511
-0.447
-0.42345
-0.37942
-0.35996
-0.34767
-0.33538
-0.32616
-0.31285
-0.30261
-0.28008
-0.20737
-0.092678
0.03533
0.12545
0.16846
0.14798
0.09575
0.02509
-0.051715
-0.12238
-0.2002
-0.27189
-0.32616
-0.39068
-0.4552
-0.54224
-0.58833
-0.57092
-0.48387
-0.38249
-0.319
-0.3108
-0.32514
-0.3405
-0.34255
-0.32821
-0.30159
-0.26575
-0.24322
-0.2381
-0.27906
-0.33845
-0.41219
-0.46441
-0.47363
-0.39478
-0.26062
-0.11418
-0.0046083
0.047619
0.06298
0.054788
0.032258
0.0046083
-0.019969
-0.038402
-0.029186
-0.05786
-0.098822
-0.19099
-0.32924
-0.46851
-0.5873
-0.60983
-0.54634
-0.41014
-0.28827
-0.22785
-0.24322
-0.32104
-0.42038
-0.49411
-0.51459
-0.48899
-0.42652
-0.35074
-0.27701
-0.2555
-0.28008
-0.31388
-0.37532
-0.39171
-0.37634
-0.31285
-0.2043
-0.056836
0.061956
0.12238
0.10189
0.076293
0.11214
0.2043
0.30978
0.3702
0.38351
0.31695
0.1787
-0.0066564
-0.18894
-0.33538
-0.42448
-0.46237
-0.44598
-0.40399
-0.37122
-0.36815
-0.38044
-0.3958
-0.41014
-0.42652
-0.447
-0.47568
-0.49616
-0.52074
-0.54327
-0.55453
-0.54736
-0.51562
-0.45622
-0.38863
-0.32719
-0.2852
-0.26062
-0.26267
-0.29032
-0.3405
-0.39171
-0.42243
-0.42652
-0.41321
-0.39478
-0.37122
-0.37839
-0.447
-0.55146
-0.62929
-0.67742
-0.66615
-0.60369
-0.49206
-0.33743
-0.16334
0.013825
0.21659
0.41526
0.55146
0.56682
0.46441
0.27087
0.043523
-0.1531
-0.24424
-0.23195
-0.16948
-0.11009
-0.11111
-0.17665
-0.26882
-0.33538
-0.35689
-0.3446
-0.35074
-0.39478
-0.45417
-0.50538
-0.54634
-0.57706
-0.5873
-0.57501
-0.53815
-0.49923
-0.45622
-0.4255
-0.39887
-0.38454
-0.3661
-0.34153
-0.29749
-0.25858
-0.27291
-0.34153
-0.43164
-0.46032
-0.42448
-0.36098
-0.2596
-0.16948
-0.077317
-0.033282
-0.018945
0.011777
0.092678
0.19713
0.30876
0.37327
0.37225
0.3108
0.19406
0.059908
-0.058884
-0.14491
-0.20942
-0.24117
-0.26677
-0.27189
-0.26779
-0.2555
-0.24526
-0.24424
-0.26882
-0.31592
-0.36303
-0.39068
-0.41526
-0.43676
-0.46749
-0.49206
-0.50333
-0.49002
-0.45315
-0.41935
-0.40502
-0.40092
-0.3999
-0.38351
-0.36201
-0.34255
-0.32104
-0.29032
-0.24936
-0.23605
-0.29954
-0.42652
-0.52586
-0.57092
-0.51971
-0.45929
-0.37839
-0.30364
-0.20942
-0.10292
0.0681
0.27087
0.46237
0.58628
0.59857
0.52381
0.38146
0.22069
0.091654
-0.0087046
-0.074245
-0.12135
-0.13159
-0.15003
-0.18996
-0.24936
-0.31797
-0.36406
-0.38556
-0.37327
-0.33231
-0.30364
-0.30978
-0.34357
-0.38249
-0.41628
-0.43881
-0.44905
-0.43881
-0.41321
-0.39273
-0.37634
-0.37327
-0.38146
-0.3958
-0.3999
-0.39375
-0.37122
-0.36098
-0.38146
-0.43574
-0.51152
-0.52074
-0.49514
-0.40399
-0.31285
-0.22888
-0.17051
-0.14593
-0.14286
-0.10701
-0.015873
0.10701
0.22581
0.29852
0.30364
0.25038
0.14286
0.012801
-0.1275
-0.2596
-0.37532
-0.44803
-0.47158
-0.44598
-0.41116
-0.37839
-0.35586
-0.33743
-0.34562
-0.38351
-0.42038
-0.43779
-0.43574
-0.43369
-0.44803
-0.45929
-0.45417
-0.44086
-0.42345
-0.41628
-0.42448
-0.44291
-0.45008
-0.4255
-0.37225
-0.30671
-0.28418
-0.31797
-0.41014
-0.45725
-0.49104
-0.46441
-0.43574
-0.38146
-0.32207
-0.24731
-0.149
0.0087046
0.22785
0.43062
0.56887
0.5914
0.532
0.41526
0.26267
0.10804
-0.017921
-0.11214
-0.14491
-0.13159
-0.13569
-0.15617
-0.2084
-0.29032
-0.35893
-0.41014
-0.4214
-0.40809
-0.39478
-0.38351
-0.37839
-0.37532
-0.38146
-0.40399
-0.43574
-0.46953
-0.48694
-0.4808
-0.4552
-0.40502
-0.36713
-0.37225
-0.40604
-0.43062
-0.39478
-0.32514
-0.26575
-0.23605
-0.23912
-0.26267
-0.29749
-0.32924
-0.28111
-0.16539
-0.014849
0.12852
0.21966
0.25755
0.24731
0.19406
0.1275
0.048643
-0.038402
-0.12647
-0.18484
-0.26267
-0.31695
-0.38863
-0.44291
-0.46032
-0.45008
-0.41833
-0.38249
-0.3661
-0.36201
-0.38146
-0.39785
-0.42038
-0.44496
-0.45622
-0.45622
-0.44393
-0.42243
-0.39887
-0.37327
-0.35484
-0.36815
-0.39887
-0.44803
-0.47056
-0.45315
-0.40707
-0.34665
-0.28623
-0.23707
-0.2381
-0.32207
-0.47363
-0.57706
-0.62417
-0.56682
-0.4767
-0.33333
-0.16231
0.029186
0.2002
0.36508
0.52074
0.63543
0.69995
0.68561
0.58423
0.42857
0.23605
0.083461
-0.0046083
-0.027138
-0.046595
-0.084485
-0.15003
-0.24424
-0.33641
-0.39887
-0.41935
0.11828
