0.024248
-0.054046
-0.13585
-0.19194
-0.23926
-0.23576
-0.18785
-0.07508
0.084429
0.27374
0.3719
0.1002
-0.3047
-0.62723
-0.63132
-0.3345
-0.062226
0.079755
0.18902
0.26731
0.35495
0.44259
0.49401
0.48525
0.42799
0.34677
0.26965
0.20304
0.14052
0.082676
0.037686
0.00087642
0.0043821
0.014315
0.04645
0.065148
0.076249
0.089687
0.09553
0.099036
0.11014
0.15337
0.22933
0.30821
0.41864
0.49284
0.54017
0.54309
0.48349
0.13643
-0.31405
-0.68916
-0.78382
-0.5466
-0.28601
-0.079755
0.084429
0.19311
0.2527
0.28016
0.29068
0.27374
0.23926
0.18843
0.14812
0.10488
0.059889
-0.00087642
-0.052878
-0.085013
-0.080923
-0.019573
0.14286
0.23985
0.024832
-0.3047
-0.57347
-0.49752
-0.22174
-0.010225
0.059889
0.14286
0.2083
0.26439
0.31464
0.34151
0.3643
0.36956
0.35904
0.32691
0.26848
0.1972
0.1189
0.053462
0.011394
-0.002045
0.0043821
0.035349
0.094362
0.14987
0.23342
0.30938
0.3719
0.3719
0.40345
0.38066
0.22407
-0.28309
-0.68332
-0.95443
-0.83114
-0.51037
-0.28075
-0.12883
-0.0084721
0.07099
0.15454
0.23985
0.31055
0.3532
0.36372
0.35846
0.33684
0.30353
0.2638
0.22407
0.20129
0.19135
0.19311
0.19544
0.19836
0.19544
0.17791
0.14636
0.11423
0.080339
0.063395
0.04645
0.037102
0.028922
0.033596
0.042361
0.040023
0.037686
0.033012
0.10722
0.16448
0.25621
0.30295
0.1563
-0.19369
-0.48992
-0.63307
-0.43558
-0.15513
0.092025
0.29828
0.43967
0.48466
0.47824
0.42507
0.34034
0.24628
0.13117
0.026585
-0.072159
-0.13292
-0.14753
-0.1078
-0.034765
-0.094362
-0.41513
-0.73123
-0.88139
-0.69442
-0.3421
-0.11481
0.015483
0.12065
0.21589
0.29185
0.29243
0.23576
0.17908
0.16448
0.21472
0.27315
0.32398
0.35729
0.35904
0.3234
0.25855
0.19194
0.14987
0.11832
0.10897
0.10663
0.11306
0.11949
0.13292
0.14636
0.15162
0.15688
0.14695
0.13994
0.13234
0.19077
0.23693
0.27198
0.33509
0.41981
0.54777
0.55244
0.19135
-0.24861
-0.59509
-0.56413
-0.21998
0.13351
0.34969
0.43032
0.41163
0.35145
0.3012
0.24511
0.19018
0.1154
0.048203
0.00029214
-0.024248
-0.030675
-0.020742
0.00087642
0.018405
0.034765
0.05054
0.069822
0.094946
0.12241
0.13818
0.15045
0.16097
0.18726
0.23225
0.27958
0.31288
0.33041
0.31288
0.26848
0.21297
0.16389
0.21881
0.33684
0.48875
0.58516
0.6097
0.3123
-0.23751
-0.64826
-0.86152
-0.6395
-0.37949
-0.18843
-0.04645
0.015483
0.031843
0.033012
0.030091
0.05054
0.037102
-0.0084721
-0.078586
-0.18376
-0.29068
-0.35028
-0.32457
-0.18493
0.031843
0.21414
0.25679
-0.026585
-0.32223
-0.51446
-0.38183
-0.073912
0.19486
0.33625
0.34794
0.27958
0.16915
0.011394
-0.23751
-0.44026
-0.52673
-0.40637
-0.19603
0.018405
0.17675
0.28425
0.22583
-0.016068
-0.36897
-0.63249
-0.64067
-0.40637
-0.062226
0.2825
0.47064
0.45077
0.2638
-0.010225
-0.26439
-0.38241
-0.31873
-0.099036
0.14578
0.31055
0.34268
0.30178
0.22583
0.1563
0.12182
0.1189
0.13117
0.16039
0.22524
0.28834
0.3532
0.38008
0.37248
0.33158
0.28075
0.2381
0.21706
0.21356
0.24744
0.29302
0.33216
0.38008
0.42098
0.45779
0.48466
0.43675
0.13176
-0.39527
-0.86561
-0.99591
-0.85802
-0.45779
-0.15746
0.040023
0.12591
0.18668
0.25095
0.30646
0.34093
0.3567
0.35846
0.35145
0.33976
0.3345
0.33859
0.35904
0.37715
0.39001
0.39351
0.39351
0.39176
0.39059
0.3941
0.38826
0.36956
0.33041
0.28951
0.2714
0.27374
0.27607
0.3123
0.34034
0.36372
0.30646
0.16973
-0.09962
-0.56646
-0.80777
-0.95793
-0.72948
-0.41046
-0.13994
0.096115
0.28075
0.4239
0.4981
0.52907
0.52732
0.50628
0.44318
0.34852
0.23167
0.12182
0.026585
-0.028922
-0.060473
-0.057552
-0.031843
0.010809
0.0669
0.12883
0.22758
0.33976
0.45486
0.47356
0.15396
-0.28075
-0.60795
-0.63482
-0.34151
-0.077417
0.13292
0.30178
0.41747
0.48525
0.50453
0.5057
0.49051
0.46421
0.40637
0.33509
0.26088
0.18259
0.1189
0.072743
0.041192
0.018989
0.011394
0.021326
0.051709
0.083845
0.11832
0.12182
0.094362
0.057552
0.021326
0.029506
0.077417
0.16039
0.26264
0.36722
0.46772
0.56471
0.64476
0.71954
0.56588
-0.0014607
-0.487
-0.8849
-0.76044
-0.46597
-0.29711
-0.18843
-0.14636
-0.099036
-0.0067193
0.058136
0.12533
0.17324
0.22115
0.23225
0.23634
0.22057
0.19661
0.17558
0.16448
0.16564
0.18142
0.20713
0.22875
0.24102
0.2492
0.23517
0.21531
0.17558
0.12358
0.065148
0.0055507
-0.0669
-0.12942
-0.13526
-0.093777
-0.0043821
0.17908
0.38709
0.55302
0.31756
-0.20187
-0.72188
-0.89132
-0.61729
-0.23926
0.056968
0.24102
0.33158
0.38709
0.42098
0.45194
0.44143
0.38124
0.28659
0.17382
0.065148
-0.024832
-0.093777
-0.13526
-0.14928
-0.13176
-0.054046
0.087935
0.27666
0.3941
0.1709
-0.37365
-0.81887
-0.9813
-0.74759
-0.37131
-0.096699
0.13292
0.28601
0.38709
0.4537
0.48233
0.49167
0.47648
0.45194
0.42857
0.39527
0.34677
0.27432
0.18726
0.10663
0.055215
0.019573
0.0026293
0.0043821
0.010225
0.014899
0.025416
0.037102
0.055215
0.074496
0.090856
0.11423
0.16039
0.22758
0.29185
0.40987
0.50278
0.60269
0.65177
0.643
0.44259
-0.094362
-0.53783
-0.8884
-0.77505
-0.46889
-0.17733
0.056383
0.20304
0.25855
0.25153
0.21297
0.18317
0.16798
0.16448
0.14227
0.12182
0.080339
0.0055507
-0.090272
-0.17149
-0.21472
-0.19252
-0.10488
0.011978
0.13526
0.23751
0.31697
0.38592
0.31639
-0.073327
-0.4274
-0.70026
-0.65586
-0.40812
-0.19836
-0.0037978
0.15337
0.26673
0.35963
0.43091
0.43967
0.3865
0.28133
0.17499
0.089687
0.038855
0.013146
0.0014607
-0.0049664
0.0043821
0.024832
0.037686
0.054046
0.065148
0.092609
0.13701
0.20304
0.27374
0.31697
0.33392
0.33333
0.37949
0.45194
0.55127
0.66754
0.78323
0.86912
0.74993
0.13818
-0.53666
-0.98247
-0.99825
-0.85335
-0.44026
-0.14753
-0.030091
0.016068
0.062226
0.097283
0.13059
0.15454
0.15104
0.14286
0.12591
0.10137
0.073912
0.049372
0.038271
0.057552
0.12124
0.24511
0.40578
0.51271
0.36196
-0.13585
-0.57289
-0.80076
-0.6541
-0.29302
-0.080923
0.051709
0.081507
0.094946
0.12416
0.13
0.059305
-0.042361
-0.086766
-0.061058
0.042361
0.14987
0.22641
0.27491
0.29769
0.30587
0.29828
0.28776
0.27841
0.28834
0.3047
0.33567
0.39059
0.49109
0.60386
0.6915
0.57523
0.017236
-0.58457
-0.98306
-0.99649
-0.80777
-0.41163
-0.12883
-0.006135
0.020158
0.0067193
-0.082676
-0.20187
-0.23284
-0.17032
-0.017236
0.13176
0.23167
0.29652
0.3345
0.36079
0.38533
0.4052
0.42039
0.41922
0.40812
0.38592
0.35437
0.36722
0.39936
0.44961
0.45311
0.22407
-0.36839
-0.85218
-1
-0.9404
-0.51621
-0.10605
0.14227
0.1896
0.15863
0.0049664
-0.20713
-0.31756
-0.25153
-0.013731
0.24394
0.4163
0.50394
0.53082
0.50803
0.46246
0.41104
0.34268
0.26789
0.2007
0.15863
0.13468
0.12416
0.12241
0.11949
0.12942
0.14753
0.17441
0.19661
0.21823
0.24569
0.27549
0.31288
0.36138
0.4274
0.52147
0.61262
0.6617
0.62781
0.55361
0.25679
-0.25037
-0.60736
-0.83231
-0.62781
-0.35261
-0.1376
0.0032136
0.060473
0.093777
0.12182
0.14636
0.1674
0.16623
0.15922
0.14578
0.12182
0.10196
0.080923
0.070406
0.068653
0.080339
0.093193
0.10897
0.11598
0.1189
0.1265
0.13176
0.14344
0.16681
0.19486
0.25095
0.29711
0.31931
0.331
0.3643
0.44026
0.37131
-0.12358
-0.62547
-0.98072
-0.94391
-0.61437
-0.27198
-0.0090564
0.16798
0.31697
0.44376
0.51797
0.54192
0.53141
0.47064
0.39994
0.30529
0.22115
0.14052
0.078586
0.034181
-0.0037978
-0.034181
-0.058136
-0.060473
-0.05054
-0.044698
-0.042945
-0.043529
-0.028922
0.006135
0.033596
0.052293
0.059889
0.072159
0.10722
0.16798
0.21998
0.29886
0.33625
0.43032
0.5168
0.5723
0.43617
-0.034765
-0.4572
-0.81595
-0.7844
-0.56296
-0.30704
-0.098452
0.047619
0.14987
0.2229
0.27374
0.30762
0.31931
0.30996
0.28484
0.22349
0.13234
0.048203
-0.0067193
-0.0049664
0.033012
0.10079
0.182
0.28425
0.39118
0.50336
0.58048
0.55828
0.26147
-0.29944
-0.73006
-0.97195
-0.8142
-0.58983
-0.41338
-0.25446
-0.12182
0.0055507
0.14286
0.24803
0.33742
0.38709
0.41104
0.40987
0.3976
0.3754
0.35028
0.3234
0.30003
0.27841
0.25971
0.24277
0.23225
0.22992
0.23401
0.24628
0.2527
0.25913
0.27374
0.28367
0.28367
0.27841
0.25504
0.2714
0.29535
0.31697
0.26439
0.0669
-0.37423
-0.75752
-0.98422
-0.95501
-0.71136
-0.39994
-0.11656
0.11656
0.3047
0.43558
0.50803
0.51855
0.50102
0.4648
0.41572
0.36605
0.29828
0.2083
0.10313
0.0049664
-0.072743
-0.11072
-0.096115
-0.048203
0.044698
0.1411
0.22641
0.27023
0.1189
-0.32106
-0.68858
-0.92463
-0.78791
-0.51563
-0.28192
-0.073912
0.093193
0.23926
0.37482
0.48349
0.56237
0.59684
0.60269
0.56705
0.51446
0.43617
0.34619
0.2603
0.18609
0.13117
0.094946
0.074496
0.068069
0.0669
0.068653
0.076833
0.084429
0.089687
0.089103
0.087935
0.10488
0.14519
0.20771
0.28601
0.36722
0.45019
0.57523
0.66112
0.67689
0.4683
-0.04645
-0.55653
-0.95501
-0.96377
-0.75402
-0.4461
-0.18843
-0.002045
0.1376
0.22057
0.26673
0.29243
0.28834
0.27315
0.22992
0.15746
0.072743
-0.017821
-0.078002
-0.097283
-0.067485
0.018405
0.12241
0.23751
0.331
0.41864
0.38008
0.054046
-0.3158
-0.63774
-0.72013
-0.60152
-0.47239
-0.30646
-0.13176
0.020158
0.14344
0.24277
0.30762
0.34327
0.35612
0.3532
0.34327
0.3345
0.33158
0.33567
0.34736
0.35437
0.35378
0.35145
0.36021
0.38533
0.40345
0.42799
0.47824
0.54952
0.6284
0.65878
0.58983
0.29769
-0.23693
-0.71195
-0.98598
-0.95209
-0.72188
-0.41046
-0.14052
0.072743
0.22466
0.33567
0.40111
0.43909
0.44084
0.42682
0.3865
0.32457
0.25037
0.1785
0.12767
0.11423
0.12533
0.15221
0.1972
0.2527
0.33918
0.42098
0.52965
0.5723
0.42098
-0.024248
-0.56237
-0.92755
-0.97955
-0.77739
-0.5501
-0.35495
-0.20362
-0.065148
0.08735
0.2118
0.30646
0.35554
0.37306
0.36372
0.33976
0.30704
0.27607
0.24277
0.21765
0.19427
0.17149
0.15162
0.13351
0.12065
0.11656
0.11306
0.11832
0.12474
0.12883
0.14578
0.16389
0.18142
0.18025
0.15863
0.12942
0.1002
0.076833
0.054046
0.041192
0.042945
0.074496
0.12533
0.17791
0.29185
0.39877
0.43675
0.27783
-0.19486
-0.6097
-0.8849
-0.80251
-0.52556
-0.23926
0.00087642
0.20129
0.36605
0.47824
0.55361
0.57932
0.56646
0.51972
0.42214
0.2936
0.15863
0.051125
0.006135
0.031259
0.12299
0.2603
0.44552
0.57347
0.46071
-0.014899
-0.54309
-0.92054
-0.9369
-0.67222
-0.38533
-0.09553
0.12299
0.27257
0.37774
0.45779
0.51037
0.52732
0.51621
0.48291
0.43909
0.38942
0.33918
0.29243
0.25562
0.22699
0.21005
0.2007
0.19836
0.19603
0.20129
0.20129
0.21005
0.22115
0.25621
0.28133
0.26673
0.19778
0.10137
0.029506
0.0055507
0.013146
0.074496
0.12708
0.15454
0.23576
0.31814
0.38124
0.25562
-0.21706
-0.66813
-0.96845
-0.90009
-0.60386
-0.28016
-0.017821
0.19311
0.36079
0.48349
0.54718
0.57581
0.56588
0.51855
0.4128
0.25504
0.078586
-0.067485
-0.1563
-0.19486
-0.17441
-0.10605
0.0067193
0.12708
0.21589
0.10897
-0.21414
-0.63891
-0.88957
-0.90009
-0.67748
-0.4794
-0.30646
-0.16564
-0.016068
0.14636
0.29652
0.41396
0.47181
0.49051
0.48992
0.45603
0.42682
0.39527
0.38183
0.38241
0.36956
0.34677
0.28659
0.21531
0.13526
0.063979
0.014899
-0.017821
-0.023079
0.015483
0.072159
0.12825
0.25621
0.40578
0.55302
0.57581
0.41747
-0.058136
-0.58399
-0.948
-0.95559
-0.64359
-0.22407
0.10079
0.33158
0.47531
0.56588
0.60678
0.60035
0.58925
0.57289
0.52615
0.42273
0.27841
0.11832
-0.026001
-0.15746
-0.25095
-0.29594
-0.28192
-0.21297
-0.12241
0.0090564
0.16331
0.31347
0.43149
0.36372
-0.018405
-0.51621
-0.86737
-0.91353
-0.61788
-0.31814
-0.075665
0.097867
0.22699
0.34093
0.43208
0.47824
0.48057
0.44844
0.38826
0.30178
0.19135
0.085597
-0.00029214
-0.051709
-0.076833
-0.082676
-0.076833
-0.065148
-0.056383
-0.035933
-0.018989
0.0037978
0.036518
0.085597
0.14753
0.2229
0.27841
0.34502
0.40637
0.50044
0.61437
0.69325
0.74584
0.58224
0.11306
-0.43208
-0.84984
-0.88957
-0.64943
-0.38475
-0.16214
0.0049664
0.12708
0.2083
0.24394
0.25679
0.23926
0.21414
0.16857
0.11014
0.04645
-0.0096407
-0.04645
-0.05463
-0.026001
0.035349
0.10546
0.16389
0.20713
0.24628
0.26439
0.12241
-0.23634
-0.6021
-0.85276
-0.86036
-0.7102
-0.55127
-0.38417
-0.22992
-0.076249
0.076249
0.20596
0.2936
0.33859
0.34911
0.34093
0.30879
0.27432
0.23517
0.21239
0.20245
0.20888
0.21881
0.22583
0.21531
0.18493
0.16331
0.14928
0.13994
0.13526
0.15746
0.21239
0.31171
0.29828
0.067485
-0.3754
-0.74817
-0.94332
-0.82822
-0.58691
-0.32223
-0.082092
0.12241
0.2936
0.43792
0.53666
0.57815
0.56354
0.51446
0.44084
0.36021
0.28192
0.21531
0.16155
0.11598
0.082676
0.054046
0.040608
0.027169
0.021326
0.012562
0.013146
0.016068
0.028922
0.059889
0.098452
0.14636
0.2305
0.3567
0.50394
0.61963
0.61613
0.44318
0.032428
-0.38124
-0.67572
-0.6506
-0.41221
-0.13877
0.10722
0.30587
0.43266
0.49576
0.50687
0.48174
0.42448
0.34969
0.26439
0.17324
0.090272
0.020742
-0.017236
-0.0055507
0.026001
0.080923
0.13
0.17791
0.23751
0.30704
0.37365
0.42273
0.33684
-0.0014607
-0.43032
-0.73766
-0.76453
-0.50628
-0.3123
-0.20713
-0.17908
-0.13877
-0.041192
0.072743
0.16448
0.21998
0.24628
0.2603
0.26556
0.26789
0.26322
0.25446
0.24686
0.23693
0.22641
0.21472
0.2083
0.20479
0.20713
0.20596
0.20654
0.21005
0.21823
0.2305
0.23401
0.25037
0.27491
0.31989
0.40987
0.52439
0.68624
0.78498
0.74876
0.48057
-0.057552
-0.60035
-0.9591
-0.98656
-0.80427
-0.51446
-0.24102
-0.0049664
0.19252
0.34443
0.43967
0.48525
0.49167
0.45603
0.40462
0.33041
0.24803
0.16214
0.089103
0.041776
0.030675
0.040608
0.073327
0.13117
0.20129
0.26848
0.33859
0.39468
0.42273
0.36781
0.15513
-0.2936
-0.75635
-0.9889
-0.99182
-0.81478
-0.52147
-0.29126
-0.13526
0.021326
0.19252
0.35145
0.47122
0.54075
0.55828
0.54543
0.49693
0.44552
0.38241
0.33041
0.2825
0.25446
0.23108
0.22641
0.22057
0.22407
0.19427
0.14578
0.073327
-0.002045
-0.056383
-0.092609
-0.1002
-0.09962
-0.081507
-0.05054
-0.010225
0.042945
0.14987
0.26205
0.39585
0.5203
0.53257
0.39702
-0.011978
-0.46304
-0.76395
-0.73999
-0.46713
-0.16097
0.093193
0.28016
0.40871
0.47122
0.4794
0.43558
0.35612
0.27374
0.19486
0.10722
0.0073035
-0.085013
-0.15162
-0.17266
-0.14344
-0.067485
0.033012
0.15454
0.31639
0.4537
0.57932
0.58165
0.37482
-0.082676
-0.45662
-0.66696
-0.56413
-0.32924
-0.1376
0.010225
0.10897
0.19018
0.26147
0.31814
0.331
0.30646
0.25562
0.20012
0.14461
0.10488
0.081507
0.073327
0.076833
0.090856
0.11364
0.13701
0.1563
0.16915
0.18259
0.19895
0.21881
0.2416
0.28016
0.31288
0.30353
0.2603
0.22992
0.23868
0.30996
0.41805
0.47707
0.40987
0.065732
-0.48466
-0.91411
-0.99825
-0.91177
-0.58691
-0.2416
0.0073035
0.19836
0.33742
0.41455
0.43617
0.41747
0.37599
0.32924
0.28192
0.23634
0.2007
0.17149
0.15454
0.13877
0.12065
0.10955
0.10137
0.093193
0.11131
0.16272
0.21706
0.26848
0.25971
0.18902
0.0073035
-0.32048
-0.65118
-0.85042
-0.82413
-0.61437
-0.40345
-0.20771
-0.057552
0.078586
0.21005
0.3345
0.43149
0.47882
0.47181
0.41805
0.34385
0.28425
0.23576
0.19135
0.13526
0.072159
0.0073035
-0.028338
-0.052878
-0.051125
-0.04645
-0.033596
-0.020158
-0.002045
0.021911
0.085013
0.14928
0.24277
0.34619
0.4274
0.53141
0.56938
0.55186
0.32924
-0.085013
-0.46246
-0.68332
-0.60795
-0.35729
-0.085013
0.15513
0.32807
0.42507
0.45253
0.42156
0.35086
0.27082
0.19427
0.12591
0.075665
0.024832
-0.028338
-0.082676
-0.11656
-0.11773
-0.087935
-0.030675
0.074496
0.20187
0.38358
0.51738
0.60561
0.5723
0.32749
-0.14286
-0.52673
-0.72714
-0.61905
-0.38066
-0.22115
-0.12591
-0.083845
-0.033596
0.039439
0.10897
0.16389
0.19778
0.21122
0.21823
0.21823
0.20947
0.20245
0.19311
0.18843
0.18493
0.18551
0.18609
0.1896
0.19194
0.19603
0.19953
0.19953
0.19778
0.20129
0.21122
0.24043
0.28834
0.33333
0.37774
0.39351
0.46421
0.55536
0.57873
0.44844
-0.00087642
-0.49284
-0.86854
-0.94975
-0.78382
-0.5501
-0.2936
-0.060473
0.14519
0.30646
0.41046
0.45895
0.4572
0.42039
0.36547
0.30704
0.24394
0.18843
0.14286
0.10722
0.086766
0.075665
0.08326
0.085597
0.068653
0.033596
-0.018405
-0.067485
-0.086766
-0.063395
-0.018989
0.076249
0.15162
0.23459
0.32632
0.30587
0.14461
-0.21706
-0.55127
-0.70435
-0.60035
-0.37248
-0.15571
0.044113
0.22232
0.37248
0.487
0.54075
0.53725
0.49226
0.42623
0.34268
0.24277
0.14695
0.061642
0.002045
-0.040608
-0.071575
-0.082092
-0.065732
-0.036518
0.0090564
0.10546
0.27023
0.46363
0.58983
0.43734
-0.07099
-0.48583
-0.74467
-0.54251
-0.20479
0.082676
0.30178
0.4385
0.49051
0.49752
0.48992
0.47415
0.44727
0.39819
0.33275
0.25796
0.18376
0.11423
0.063979
0.033596
0.020742
0.019573
0.030675
0.044113
0.059305
0.062226
0.05872
0.056383
0.068069
0.094362
0.14461
0.20421
0.28484
0.36956
0.43734
0.51972
0.54601
0.42623
0.11598
-0.32574
-0.6617
-0.75986
-0.54777
-0.23459
0.088519
0.31347
0.40578
0.39001
0.32165
0.24686
0.17324
0.10838
0.056383
0.00029214
-0.04645
-0.089103
-0.10429
-0.096115
-0.065148
-0.031843
0.0043821
0.039439
0.076249
0.096115
0.10838
0.11481
0.15104
0.20304
0.29302
0.37482
0.487
0.51855
0.41922
0.15571
-0.24335
-0.64943
-0.92229
-0.98715
-0.89775
-0.6804
-0.44902
-0.24043
-0.072743
0.044698
0.11598
0.14227
0.15162
0.14812
0.13526
0.1189
0.10429
0.10254
0.10955
0.12767
0.15805
0.19486
0.20771
0.20596
0.21765
0.26322
0.36079
0.5057
0.58399
0.61729
0.48466
0.13877
-0.37657
-0.82238
-0.99591
-0.97254
-0.78265
-0.47707
-0.20362
0.014899
0.19018
0.31405
0.383
0.40053
0.38358
0.33275
0.27783
0.23167
0.19661
0.1709
0.15396
0.14052
0.13409
0.13351
0.13877
0.14753
0.15571
0.16623
0.17791
0.19603
0.22933
0.26205
0.27724
0.25153
0.1972
0.13818
0.090272
0.070406
0.066316
0.086182
0.13585
0.21881
0.27958
0.23985
0.010225
-0.32457
-0.57055
-0.63307
-0.49693
-0.28075
-0.099036
0.086182
0.25855
0.41981
0.54309
0.6208
0.6395
0.60795
0.51329
0.39527
0.28951
0.21005
0.14753
0.082676
0.027169
-0.015483
-0.0014607
0.064563
0.14812
0.1896
0.084429
-0.15396
-0.44668
-0.59451
-0.57873
-0.4128
-0.28542
-0.27374
-0.33158
-0.36313
-0.2901
-0.12358
0.061058
0.2118
0.31405
0.36138
0.37131
0.36021
0.34969
0.34151
0.33041
0.32515
0.33742
0.37248
0.40345
0.38767
0.33275
0.24744
0.17499
0.12358
0.086182
0.069822
0.068653
0.093777
0.17207
0.25446
0.31989
0.45954
0.54134
0.63015
0.58165
0.33158
-0.097867
-0.49343
-0.75752
-0.72422
-0.4648
-0.18434
0.079755
0.28133
0.42507
0.51154
0.53141
0.50687
0.42565
0.32866
0.22232
0.1265
0.042361
-0.036518
-0.10196
-0.13643
-0.14461
-0.13585
-0.11481
-0.075665
0.0037978
0.10079
0.20479
0.31873
0.40169
0.49518
0.58107
0.63365
0.60269
0.3456
-0.080339
-0.48174
-0.71604
-0.69968
-0.539
-0.33392
-0.14227
0.014899
0.12533
0.19077
0.21063
0.19661
0.17032
0.15045
0.13818
0.12942
0.12124
0.11423
0.10488
0.090856
0.08326
0.093777
0.12533
0.17499
0.21998
0.2416
0.28542
0.30237
0.35495
0.40987
0.47064
0.54718
0.53783
0.35145
-0.065732
-0.49927
-0.79375
-0.76979
-0.58633
-0.36138
-0.15922
-0.011394
0.08735
0.14403
0.16331
0.1563
0.13292
0.10313
0.07099
0.045282
0.032428
0.038855
0.065732
0.11598
0.17558
0.21706
0.22875
0.24043
0.27432
0.34443
0.42214
0.53141
0.58341
0.6208
0.60152
0.54426
0.37365
-0.058136
-0.61145
-0.9667
-0.99942
-0.92813
-0.64125
-0.33684
-0.14169
0.010809
0.16097
0.29068
0.37365
0.40929
0.40871
0.38008
0.34794
0.32048
0.30003
0.26906
0.23985
0.21239
0.19603
0.18668
0.19252
0.20012
0.19486
0.16155
0.10488
0.045282
0.013146
-0.0037978
-0.010225
-0.021326
-0.023079
-0.018989
-0.0084721
0.0043821
0.020742
0.043529
0.073912
0.097283
0.12241
0.13351
0.1411
0.14227
0.14403
0.14286
0.14519
0.15221
0.15337
0.14987
0.13351
0.12474
0.12942
0.16915
0.24102
0.35261
0.46713
0.54718
0.62723
0.58107
0.36605
-0.045866
-0.48817
-0.73181
-0.72656
-0.57873
-0.40929
-0.26848
-0.14636
-0.05054
0.027169
0.09962
0.16681
0.22349
0.24219
0.22583
0.16564
0.075665
-0.020742
-0.10196
-0.14227
-0.15863
-0.15746
-0.15513
-0.13994
-0.093193
-0.010225
0.076833
0.21998
0.37657
0.51621
0.5986
0.54368
0.31288
-0.10137
-0.51271
-0.73123
-0.7359
-0.58516
-0.48875
-0.40228
-0.25796
-0.1002
0.082092
0.24628
0.37306
0.4537
0.47765
0.4759
0.44552
0.41104
0.3754
0.34327
0.31697
0.279
0.2416
0.20888
0.19135
0.18726
0.18493
0.17791
0.18025
0.19836
0.2527
0.29944
0.29419
0.23517
0.14344
0.068653
0.025416
0.0067193
0.002045
0.024248
0.11014
0.20713
0.27257
0.39819
0.45019
0.51621
0.44318
0.20888
-0.19018
-0.53433
-0.73941
-0.69851
-0.48057
-0.23926
-0.025416
0.16857
0.32749
0.44318
0.49401
0.47181
0.38942
0.26439
0.1376
0.018989
-0.065148
-0.12007
-0.13994
-0.13877
-0.12241
-0.10137
-0.077417
-0.047619
-0.00087642
0.068653
0.14403
0.23225
0.30353
0.35378
0.43909
0.5279
0.6284
0.69325
0.68682
0.51797
0.096699
-0.41689
-0.77797
-0.75986
-0.44435
-0.099036
0.15571
0.31464
0.39527
0.41572
0.36956
0.28133
0.18609
0.12124
0.076833
0.041776
-0.0043821
-0.047035
-0.065148
-0.052878
-0.018989
0.033012
0.084429
0.13234
0.16214
0.19077
0.21589
0.24394
0.27607
0.29944
0.32282
0.33275
0.31931
0.29944
0.26322
0.2305
0.18142
0.12416
0.068653
0.020742
-0.011978
-0.021326
-0.020158
0.0014607
0.018989
0.033012
0.045282
0.062226
0.092025
0.13468
0.22115
0.28834
0.36547
0.43909
0.41338
0.32983
0.093193
-0.25913
-0.51271
-0.60386
-0.51738
-0.34969
-0.20421
-0.079755
0.019573
0.090856
0.13526
0.17733
0.21239
0.24277
0.23108
0.16564
0.054046
-0.082092
-0.21531
-0.3158
-0.37482
-0.39527
-0.39059
-0.3719
-0.3123
-0.21297
-0.12591
-0.016652
0.11014
0.26264
0.4128
0.49927
0.51329
0.36547
0.023079
-0.32048
-0.50453
-0.41046
-0.14052
0.10897
0.29068
0.37832
0.39877
0.36313
0.28484
0.19311
0.12182
0.090272
0.080339
0.077417
0.078586
0.088519
0.093777
0.084429
0.061642
0.055215
0.075665
0.11423
0.15104
0.1709
0.19427
0.21531
0.23576
0.24043
0.24219
0.2416
0.24686
0.25387
0.25855
0.2638
0.2638
0.26439
0.26147
0.25621
0.26322
0.2901
0.33976
0.35904
0.33333
0.25971
0.17441
0.10371
0.063979
0.038855
0.058136
0.10722
0.12299
0.12533
0.16097
0.16681
0.12591
-0.079755
-0.39293
-0.61846
-0.64943
-0.53316
-0.34385
-0.15279
0.018989
0.15922
0.23926
0.2638
0.26088
0.24978
0.23459
0.18142
0.093777
-0.021326
-0.12124
-0.1972
-0.24861
-0.28425
-0.29828
-0.28951
-0.27257
-0.25212
-0.23576
-0.21531
-0.17675
-0.12416
-0.060473
0.0084721
0.12825
0.21414
0.30529
0.44493
0.52439
0.61788
0.62489
0.54718
0.29652
-0.14461
-0.5279
-0.70377
-0.51797
-0.22407
0.034765
0.21706
0.37131
0.51738
0.61905
0.62314
0.53374
0.38183
0.24102
0.1189
0.033012
-0.028922
-0.056968
-0.06281
-0.05054
-0.026001
0.013731
0.065148
0.11189
0.14636
0.17558
0.20012
0.22466
0.24511
0.26614
0.28542
0.30295
0.31639
0.32632
0.3345
0.33918
0.34268
0.34911
0.36488
0.3719
0.33801
0.27315
0.18142
0.11364
0.051709
0.013731
0.0014607
0.018989
0.026585
0.047035
0.11247
0.21881
0.31522
0.45077
0.52381
0.56588
0.45136
0.11832
-0.32866
-0.65469
-0.76161
-0.62956
-0.4052
-0.2194
-0.086182
0.026001
0.11481
0.17032
0.18726
0.18785
0.1598
0.097283
0.011978
-0.077417
-0.14578
-0.19486
-0.2305
-0.2527
-0.27023
-0.27607
-0.26497
-0.18317
-0.12533
-0.0037978
0.15337
0.33509
0.49518
0.43909
0.14286
-0.24511
-0.53257
-0.58808
-0.43208
-0.18902
0.031259
0.20596
0.31756
0.37248
0.39468
0.38592
0.34677
0.30353
0.24569
0.2007
0.15922
0.13117
0.11773
0.11189
0.11656
0.12358
0.13643
0.14812
0.15337
0.16506
0.17967
0.21005
0.24335
0.27432
0.2936
0.28893
0.25037
0.24277
0.2527
0.29769
0.44552
0.57347
0.74642
0.85042
0.84867
0.68916
0.2527
-0.40812
-0.85042
-0.98306
-0.72948
-0.39351
-0.11598
0.061058
0.17908
0.24569
0.23751
0.16798
0.11072
0.087935
0.098452
0.10429
0.10488
0.10079
0.089687
0.072159
0.0669
0.072159
0.089103
0.12241
0.15688
0.19836
0.23459
0.24569
0.22641
0.17675
0.12708
0.083845
0.059889
0.048788
0.051125
0.062226
0.075665
0.09553
0.12065
0.14987
0.17149
0.1896
0.19953
0.1972
0.18259
0.16857
0.15688
0.1598
0.16857
0.19661
0.22174
0.29185
0.24394
0.19427
0.10838
-0.0096407
-0.10897
-0.33333
-0.51271
-0.66637
-0.7137
-0.6728
-0.56062
-0.37891
-0.19544
-0.030091
0.076249
0.11949
0.12065
0.084429
0.040608
-0.0026293
-0.034765
-0.053462
-0.072743
-0.090272
-0.11656
-0.13526
-0.14519
-0.13994
-0.12708
-0.12299
-0.11832
-0.10838
-0.090856
-0.062226
-0.030675
-0.0014607
0.031843
0.073912
0.13818
0.19836
0.21239
0.17675
0.10371
0.056968
0.065732
0.089103
0.11481
0.15104
0.17207
0.18726
0.19252
0.12591
0.042361
-0.15922
-0.35729
-0.48174
-0.4759
-0.34911
-0.1896
-0.039439
0.12883
0.30353
0.47006
0.58983
0.64885
0.61963
0.50803
0.34736
0.18609
0.054046
-0.026585
-0.063395
-0.047619
-0.016652
0.045866
0.085013
0.19427
0.3158
0.42916
0.49401
0.47531
0.43325
0.39936
0.35495
0.2603
0.13234
0.037102
0.036518
0.13409
0.11247
-0.075665
-0.34268
-0.56004
-0.56471
-0.40286
-0.18785
0.0032136
0.12358
0.16973
0.18434
0.14987
0.044698
-0.088519
-0.17616
-0.16681
-0.090272
-0.0037978
0.055215
0.090272
0.12124
0.15571
0.19603
0.23517
0.28893
0.31639
0.34268
0.33801
0.32574
0.31989
0.36255
0.45603
0.54134
0.65352
0.7657
0.86854
0.9924
1
0.89717
0.56588
-0.040023
-0.57114
-0.95267
-0.93807
-0.73941
-0.52264
-0.34502
-0.20713
-0.045866
0.11072
0.23342
0.30529
0.31522
0.28776
0.2381
0.19895
0.18317
0.18259
0.19486
0.21239
0.23459
0.25621
0.27432
0.29243
0.30353
0.31113
0.31288
0.31113
0.30762
0.29828
0.28776
0.27783
0.27783
0.28367
0.29769
0.29652
0.25855
0.20187
0.13526
0.089687
0.068069
0.05463
0.05463
0.09144
0.17967
0.25212
0.30762
0.40695
0.42156
0.4239
0.24219
-0.051709
-0.41163
-0.66521
-0.73065
-0.58808
-0.36664
-0.19077
-0.052878
0.06281
0.16389
0.24219
0.28484
0.27432
0.20654
0.097867
-0.011394
-0.097867
-0.16623
-0.21063
-0.23576
-0.25037
-0.25446
-0.25212
-0.23225
-0.18668
-0.11832
-0.047619
0.078002
0.15922
0.23868
0.3532
0.42448
0.53199
0.57756
0.59392
0.50862
0.22466
-0.22466
-0.5799
-0.70318
-0.50745
-0.22524
0.0096407
0.16214
0.24686
0.28601
0.31171
0.31639
0.3345
0.37715
0.41922
0.43032
0.39877
0.32691
0.23868
0.14227
0.034181
-0.056383
-0.10546
-0.092609
-0.053462
-0.0055507
0.037686
0.082092
0.13234
0.21122
0.2825
0.37365
0.47707
0.54777
0.59392
0.6021
0.58399
0.56354
0.44084
0.14812
-0.25913
-0.55945
-0.68507
-0.6541
-0.59451
-0.58224
-0.53199
-0.43325
-0.30529
-0.1563
-0.018989
0.088519
0.13
0.082092
-0.021911
-0.11656
-0.14344
-0.10722
-0.051125
-0.0073035
0.024248
0.052878
0.086766
0.12883
0.17558
0.2194
0.25446
0.27958
0.29594
0.30412
0.3047
0.30646
0.3123
0.3234
0.33742
0.35787
0.36605
0.33625
0.27724
0.19895
0.13994
0.10079
0.072159
0.063395
0.069822
0.084429
0.10079
0.10488
0.12007
0.17616
0.20421
0.23401
0.26673
0.22349
0.15746
0.0096407
-0.23868
-0.44026
-0.55595
-0.53082
-0.37131
-0.19661
-0.056383
0.064563
0.15279
0.20538
0.22699
0.20654
0.14578
0.027753
-0.10429
-0.20538
-0.25037
-0.24452
-0.22758
-0.2083
-0.19895
-0.17791
-0.13994
-0.10429
-0.073327
-0.052878
-0.027169
0.0073035
0.061058
0.15454
0.20771
0.29126
0.43441
0.55302
0.68273
0.69676
0.70085
0.591
0.29302
-0.18668
-0.54835
-0.63132
-0.40111
-0.052293
0.21648
0.38475
0.45136
0.41864
0.34619
0.24394
0.14987
0.085013
0.045866
0.045282
0.061058
0.090272
0.098452
0.1189
0.14052
0.17967
0.2194
0.25855
0.2936
0.33041
0.36781
0.39702
0.4128
0.41747
0.41104
0.39936
0.383
0.35904
0.32866
0.28192
0.23167
0.18025
0.14403
0.12708
0.11656
0.11072
0.10429
0.10722
0.11773
0.12942
0.13643
0.12708
0.11715
0.10137
0.10313
0.11715
0.14928
0.21648
0.2638
0.26614
0.24978
0.14403
0.010225
-0.1598
-0.37131
-0.48992
-0.52089
-0.49693
-0.42448
-0.31405
-0.17324
-0.026585
0.083845
0.12883
0.12416
0.072159
-0.020742
-0.11364
-0.17558
-0.20187
-0.21297
-0.22583
-0.23342
-0.2305
-0.1972
-0.14753
-0.089687
-0.061058
-0.052878
-0.055799
-0.047035
-0.016068
0.041776
0.11949
0.24628
0.38241
0.50044
0.56529
0.53783
0.46772
0.32691
0.084429
-0.24628
-0.47006
-0.54718
-0.47122
-0.41922
-0.39877
-0.38358
-0.28192
-0.12883
0.048203
0.21122
0.33801
0.40871
0.40695
0.33684
0.24978
0.17616
0.15805
0.16272
0.17441
0.18609
0.2007
0.2118
0.22407
0.23634
0.24861
0.27257
0.29243
0.31347
0.31931
0.30879
0.2936
0.27082
0.24978
0.21472
0.16331
0.10313
0.064563
0.062226
0.092025
0.10371
0.12591
0.079755
0.0096407
0.002045
-0.052878
-0.030675
-0.048788
-0.13292
-0.26614
-0.40053
-0.48642
-0.43675
-0.29769
-0.12416
0.045282
0.18843
0.29652
0.39001
0.40169
0.33275
0.22875
0.12065
0.05054
0.0049664
-0.026585
-0.044113
-0.04645
-0.039439
-0.031843
-0.006135
0.024832
0.072159
0.11423
0.16155
0.24335
0.27724
0.3456
0.4461
0.53199
0.61613
0.61671
0.6208
0.64768
0.57581
0.31931
-0.16039
-0.57873
-0.77388
-0.60619
-0.23401
0.10722
0.31055
0.38358
0.34677
0.2083
-0.033012
-0.30529
-0.435
-0.38008
-0.18668
-0.006135
0.082092
0.11189
0.1189
0.12241
0.13877
0.16564
0.18902
0.20187
0.21472
0.23342
0.25796
0.28367
0.30529
0.32165
0.33392
0.34619
0.34911
0.35261
0.36021
0.36255
0.37599
0.38183
0.3941
0.39468
0.36196
0.28309
0.17791
0.079755
0.017236
-0.0073035
0.0067193
0.031843
0.056968
0.074496
0.08735
0.09144
0.10371
0.12825
0.16915
0.22933
0.24277
0.22466
0.14987
0.028922
-0.10196
-0.30178
-0.48583
-0.57347
-0.54426
-0.41221
-0.22933
-0.080923
0.048788
0.15337
0.22407
0.24335
0.19486
0.093193
-0.033012
-0.11773
-0.15922
-0.16448
-0.16272
-0.17382
-0.18726
-0.19603
-0.18493
-0.16272
-0.13818
-0.11481
-0.082676
-0.023079
0.028338
0.10371
0.17616
0.20888
0.29711
0.41747
0.54192
0.6506
0.66287
0.68507
0.70669
0.61496
0.33509
-0.13701
-0.52965
-0.70377
-0.57815
-0.28893
-0.056968
0.090272
0.1376
0.13643
0.07099
-0.049372
-0.17558
-0.25329
-0.25855
-0.17499
-0.065148
0.044698
0.12883
0.1896
0.23167
0.26614
0.28951
0.30353
0.32048
0.33625
0.35495
0.37014
0.3976
0.42623
0.4572
0.46655
0.44844
0.39527
0.32632
0.25095
0.18668
0.13994
0.11306
0.098452
0.10196
0.10488
0.11189
0.11656
0.12241
0.13
0.13468
0.13117
0.11306
0.10313
0.10663
0.13292
0.1709
0.19778
0.21648
0.23576
0.17032
0.093777
0.038855
-0.028922
-0.017236
-0.051125
-0.076833
-0.099036
-0.19661
-0.30178
-0.36839
-0.37306
-0.31347
-0.23284
-0.15221
-0.083845
-0.055215
-0.084429
-0.16389
-0.24219
-0.27198
-0.25738
-0.21239
-0.16272
-0.13818
-0.11131
-0.078586
-0.030675
0.013146
0.034765
0.035349
0.026585
0.025416
0.039439
0.066316
0.11131
0.14578
0.17266
0.24569
0.28367
0.28834
0.33041
0.3123
0.37014
0.39585
0.41864
0.45253
0.38008
0.10897
-0.39527
-0.73065
-0.83874
-0.56646
-0.17382
0.1265
0.331
0.44435
0.4648
0.42156
0.2901
0.14403
0.061058
0.059889
0.12474
0.20947
0.25446
0.27315
0.26205
0.24335
0.23167
0.22933
0.2381
0.24102
0.22875
0.2007
0.16039
0.11481
0.061642
0.017821
0.0090564
0.035349
0.077417
0.12182
0.11247
0.12474
0.22115
0.34034
0.47824
0.55887
0.59626
0.63658
0.56763
0.30353
-0.22992
-0.62781
-0.79141
-0.57289
-0.20888
0.065732
0.24686
0.35729
0.4052
0.39702
0.29535
0.14519
-0.00087642
-0.089687
-0.12825
-0.15162
-0.18493
-0.21648
-0.21765
-0.19018
-0.13585
-0.082676
-0.034765
0.011394
0.064563
0.11832
0.16915
0.20771
0.2381
0.25562
0.26906
0.27374
0.28484
0.28192
0.28367
0.28016
0.27783
0.27607
0.2714
0.26848
0.27082
0.27549
0.28133
0.29068
0.28016
0.25153
0.19778
0.13468
0.08326
0.05054
0.044113
0.06281
0.09962
0.14578
0.16973
0.18726
0.18434
0.18902
0.23985
0.26614
0.25971
0.1972
0.028922
-0.14286
-0.33859
-0.48116
-0.52965
-0.52147
-0.45486
-0.36488
-0.24569
-0.11656
0.018989
0.1376
0.22758
0.26556
0.24102
0.16857
0.049372
-0.056968
-0.14578
-0.22174
-0.2638
-0.28776
-0.30237
-0.29594
-0.28951
-0.28075
-0.26497
-0.2416
-0.18493
-0.096115
0.002045
0.094362
0.19369
0.2901
0.35729
0.39351
0.383
0.35729
0.32632
0.29302
0.26965
0.26614
0.27432
0.28309
0.28601
0.28659
0.28717
0.27432
0.26789
0.26205
0.26614
0.29652
0.33684
0.31055
0.090856
-0.38826
-0.80602
-0.98948
-0.82881
-0.49401
-0.19252
-0.012562
0.06281
-0.059889
-0.20596
-0.29302
-0.14227
0.13818
0.41805
0.56763
0.65118
0.66112
0.61379
0.57289
0.52732
0.47531
0.41396
0.35963
0.32807
0.29535
0.25796
0.20654
0.14753
0.090272
0.039439
0.012562
-0.0026293
0.0032136
0.011394
0.037686
0.049956
0.065148
0.081507
0.11014
0.15454
0.1972
0.24511
0.33392
0.41046
0.5092
0.63891
0.70377
0.75343
0.70611
0.65235
0.59684
0.43325
0.073327
-0.39293
-0.74525
-0.80427
-0.57055
-0.27432
-0.058136
0.044698
0.089103
0.11131
0.11131
0.029506
-0.11306
-0.30529
-0.39118
-0.34969
-0.20012
-0.045282
0.045282
0.09553
0.12883
0.15454
0.182
0.20888
0.23634
0.26264
0.28484
0.29886
0.3047
0.29652
0.26556
0.24628
0.22583
0.21239
0.19661
0.17382
0.13935
0.096115
0.042945
-0.0043821
-0.029506
-0.028922
-0.016652
0.00087642
0.029506
0.064563
0.11364
0.20012
0.2416
0.28717
0.36138
0.40637
0.44961
0.43208
0.43149
0.45837
0.41689
0.10722
-0.42448
-0.83699
-0.94917
-0.71604
-0.36372
-0.1265
-0.017821
0.040023
0.047619
0.037102
-0.031259
-0.1265
-0.21414
-0.22174
-0.17967
-0.12065
-0.081507
-0.06281
-0.047619
-0.027169
0.0014607
0.034181
0.069238
0.099036
0.12182
0.14286
0.16331
0.19311
0.21589
0.23926
0.25971
0.27374
0.29302
0.32048
0.33976
0.36255
0.38358
0.4128
0.44318
0.46947
0.4683
0.42916
0.35203
0.25971
0.17382
0.09962
0.044698
0.0067193
-0.014315
-0.012562
0.012562
0.049956
0.082676
0.14578
0.14695
0.098452
0.035933
-0.096115
-0.15513
-0.21122
-0.25387
-0.26789
-0.32807
-0.40695
-0.39994
-0.2936
-0.098452
0.12065
0.27841
0.34969
0.33684
0.28659
0.19895
0.13468
0.075665
0.010225
-0.037102
-0.076833
-0.10196
-0.12474
-0.14286
-0.13818
-0.11306
-0.07917
-0.031259
0.00029214
0.030675
0.042945
0.05872
0.080339
0.12065
0.16448
0.19252
0.20304
0.20538
0.22174
0.24102
0.27491
0.28834
0.30587
0.31873
0.33275
0.34794
0.34969
0.33976
0.32691
0.32106
0.33684
0.37365
0.4163
0.44552
0.43617
0.38942
0.35437
0.35028
0.35554
0.39585
0.43325
0.4128
0.29828
0.05463
-0.22174
-0.46071
-0.67455
-0.79959
-0.80076
-0.66462
-0.48466
-0.3234
-0.20713
-0.10371
-0.014899
0.079755
0.17616
0.2229
0.2007
0.10313
0.0037978
-0.044698
-0.033012
0.0049664
0.033012
0.038271
0.038855
0.030091
0.027753
0.022495
0.018989
0.0096407
0.0014607
-0.0055507
0.0043821
0.04645
0.093193
0.12942
0.13643
0.13234
0.11247
0.11189
0.17908
0.25095
0.32866
0.38592
0.3421
0.30529
0.22407
0.18551
0.23167
0.27841
0.21297
-0.036518
-0.38884
-0.62372
-0.58165
-0.35729
-0.061642
0.11364
0.21239
0.24335
0.21472
0.14636
0.028922
-0.13117
-0.27841
-0.34327
-0.28717
-0.16623
-0.052293
0.0055507
0.040023
0.07917
0.11773
0.15746
0.19661
0.24277
0.28075
0.32106
0.34911
0.37365
0.38942
0.40053
0.40111
0.39118
0.37949
0.35787
0.33859
0.31522
0.30295
0.29126
0.29185
0.28367
0.27724
0.26322
0.2492
0.23225
0.22349
0.21472
0.20012
0.17908
0.15571
0.15746
0.17616
0.20362
0.28016
0.29594
0.24452
0.16039
-0.013731
-0.14812
-0.26614
-0.33684
-0.36956
-0.38942
-0.45253
-0.52498
-0.48349
-0.32398
-0.073912
0.13468
0.27724
0.30879
0.26965
0.16331
0.047035
-0.033012
-0.084429
-0.12007
-0.15513
-0.17149
-0.1709
-0.14695
-0.09553
-0.037686
0.031259
0.080339
0.12182
0.14812
0.17149
0.19544
0.21297
0.22115
0.22349
0.22992
0.2305
0.24219
0.25679
0.27257
0.2936
0.31814
0.34151
0.36255
0.37073
0.36255
0.33275
0.29243
0.25738
0.22699
0.21297
0.19369
0.18434
0.17733
0.17791
0.1896
0.20654
0.23108
0.26205
0.2825
0.34327
0.36488
0.36897
0.39468
0.32691
0.2118
0.013731
-0.20888
-0.36079
-0.46713
-0.54251
-0.59392
-0.59392
-0.48349
-0.28893
-0.10429
0.062226
0.10605
0.12883
0.1598
0.19252
0.20596
0.17382
0.088519
0.059305
0.066316
0.079755
0.05463
-0.013731
-0.084429
-0.12241
-0.12825
-0.11072
-0.077417
-0.031843
0.013731
0.063979
0.09553
0.12124
0.13292
0.14169
0.14636
0.15162
0.15162
0.15863
0.1674
0.1785
0.19836
0.21472
0.21706
0.22349
0.25971
0.31405
0.36839
0.46012
0.48992
0.52206
0.50453
0.48233
0.50102
0.51212
0.4239
0.12241
-0.45428
-0.88548
-0.99416
-0.83523
-0.44318
-0.17908
-0.014315
0.080923
0.16272
0.16039
0.020742
-0.15688
-0.2714
-0.23926
-0.097283
0.061058
0.17441
0.23225
0.23342
0.21356
0.20362
0.21005
0.21589
0.23167
0.26205
0.30178
0.34677
0.37949
0.38942
0.37365
0.32282
-0.82413
