0.061527
-0.12528
-0.28391
-0.36101
-0.31357
-0.16234
-0.005189
0.14159
0.22165
0.24685
0.22313
0.1831
0.12083
0.079318
0.040771
0.021497
0.012602
0.0022239
0.0096368
-0.0037064
-0.00074129
0.0066716
0.0022239
0.011119
0.020015
0.027428
0.025945
0.021497
0.012602
0.0096368
0.005189
0.014085
0.02298
0.039288
0.07487
0.12824
0.12973
0.13121
0.085248
0.070423
0.064492
0.052632
0.012602
-0.031875
-0.067457
-0.077835
-0.077835
-0.106
-0.14307
-0.18606
-0.22461
-0.2513
-0.25723
-0.23647
-0.21868
-0.20237
-0.19199
-0.19644
-0.19348
-0.2083
-0.22313
-0.24981
-0.27354
-0.29429
-0.3106
-0.3358
-0.35953
-0.37287
-0.39214
-0.39511
-0.39511
-0.38769
-0.38918
-0.38176
-0.36842
-0.36249
-0.35656
-0.35211
-0.35656
-0.35656
-0.34915
-0.3358
-0.32543
-0.31208
-0.29429
-0.26612
-0.20682
-0.077835
0.06301
0.20682
0.21275
0.18013
0.16679
0.106
0.13121
-0.0037064
-0.1149
-0.10749
-0.0022239
0.16383
0.29429
0.35656
0.36546
0.33877
0.30615
0.26909
0.22609
0.18162
0.14455
0.12231
0.106
0.12231
0.14307
0.16531
0.18162
0.17865
0.18162
0.17569
0.149
0.14752
0.1238
0.10749
0.086731
0.051149
0.027428
0.02298
0.02891
0.040771
0.052632
0.076353
0.13121
0.13862
0.10007
0.034841
0.048184
0.11787
0.20682
0.23351
0.18903
0.13714
0.060044
-0.034841
-0.10304
-0.13862
-0.16086
-0.17865
-0.19199
-0.19199
-0.19199
-0.19051
-0.19644
-0.20682
-0.22758
-0.24833
-0.27354
-0.29281
-0.30467
-0.30912
-0.31505
-0.32246
-0.32691
-0.33136
-0.33729
-0.34322
-0.34322
-0.35211
-0.36249
-0.36397
-0.36101
-0.36101
-0.35804
-0.35211
-0.35211
-0.34766
-0.33877
-0.32691
-0.31801
-0.30764
-0.29133
-0.28095
-0.27502
-0.26909
-0.26909
-0.27205
-0.27057
-0.26909
-0.27205
-0.26909
-0.26316
-0.25871
-0.26316
-0.26019
-0.24685
-0.21275
-0.1149
0.025945
0.15196
0.14603
0.045219
0.082283
0.058562
0.10897
-0.020015
-0.14159
-0.16976
-0.11193
0.020015
0.15641
0.24685
0.30764
0.33877
0.33877
0.3195
0.29281
0.24685
0.2513
0.26168
0.31505
0.32987
0.35656
0.33432
0.31357
0.26909
0.22906
0.19051
0.15048
0.11193
0.070423
0.024463
0.020015
0.064492
0.14752
0.19348
0.18013
0.10007
0.02298
-0.030393
-0.034841
-0.043736
-0.057079
-0.080801
-0.10007
-0.1149
-0.1238
-0.15789
-0.20385
-0.23499
-0.24388
-0.2424
-0.24092
-0.24685
-0.22758
-0.21572
-0.19051
-0.15938
-0.12676
-0.10304
-0.07487
-0.046701
0.011119
0.071905
0.14159
0.18162
0.20089
0.20237
0.19644
0.076353
-0.06894
-0.24833
-0.30764
-0.29133
-0.19199
-0.098592
-0.01705
0.037806
0.061527
0.06894
0.054114
0.040771
0.02298
0.012602
-0.0022239
-0.011119
-0.030393
-0.055597
-0.06894
-0.083766
-0.082283
-0.06301
-0.025945
-0.057079
-0.06894
-0.064492
0.036323
0.13862
0.057079
-0.033358
0.0022239
0.13417
0.29577
0.28984
0.18458
0.106
0.01705
-0.14455
-0.26612
-0.36546
-0.37139
-0.31653
-0.26168
-0.21127
-0.18755
-0.19199
-0.20237
-0.2172
-0.24685
-0.27057
-0.29133
-0.32246
-0.3536
-0.38325
-0.41142
-0.43662
-0.46034
-0.47517
-0.48258
-0.48258
-0.47665
-0.46775
-0.46924
-0.46182
-0.45738
-0.45589
-0.44552
-0.43958
-0.42921
-0.42624
-0.40993
-0.39214
-0.37287
-0.35063
-0.32691
-0.30467
-0.28095
-0.21868
-0.106
0.036323
0.16976
0.20089
0.19348
0.23202
0.20385
0.15048
-0.089696
-0.3106
-0.38918
-0.33432
-0.16383
0.027428
0.18606
0.2854
0.32543
0.33877
0.29726
0.22906
0.15789
0.16383
0.18458
0.23647
0.26316
0.26168
0.26316
0.2513
0.24092
0.22609
0.21572
0.16234
0.10897
0.10897
0.17272
0.26761
0.25723
0.11787
0.095626
0.13566
0.27947
0.34915
0.3106
0.24685
0.19496
0.067457
-0.071905
-0.12231
-0.13714
-0.080801
-0.07487
-0.095626
-0.13121
-0.17569
-0.2083
-0.21127
-0.19644
-0.16234
-0.15938
-0.20237
-0.24092
-0.2854
-0.22461
-0.12824
-0.092661
-0.094144
-0.15493
-0.20534
-0.14603
-0.094144
-0.058562
-0.060044
-0.060044
-0.077835
-0.097109
-0.11638
-0.12528
-0.13417
-0.14307
-0.15493
-0.17569
-0.19941
-0.22313
-0.24388
-0.27057
-0.29429
-0.3106
-0.33136
-0.35211
-0.36842
-0.38176
-0.39659
-0.40697
-0.4129
-0.41735
-0.42921
-0.43662
-0.44255
-0.44996
-0.44848
-0.44255
-0.43069
-0.43069
-0.42179
-0.41586
-0.4129
-0.404
-0.38176
-0.32246
-0.20979
-0.058562
0.083766
0.10452
0.098592
0.10304
0.039288
-0.049666
-0.3195
-0.48258
-0.48703
-0.3536
-0.16383
-0.02891
0.06301
0.12676
0.17272
0.2083
0.19792
0.18606
0.12824
0.149
0.18606
0.22609
0.24092
0.22165
0.2172
0.21868
0.21127
0.19792
0.1401
0.106
0.077835
0.092661
0.23499
0.23499
0.1238
0.031875
0.10156
0.26316
0.40697
0.35656
0.21127
0.12083
0.033358
-0.065975
-0.11193
-0.16234
-0.20237
-0.21275
-0.21572
-0.23351
-0.25278
-0.27354
-0.28836
-0.29577
-0.29429
-0.28391
-0.28391
-0.27947
-0.2513
-0.22609
-0.20682
-0.18162
-0.097109
-0.024463
-0.018532
-0.16383
-0.27205
-0.36694
-0.39659
-0.37732
-0.32987
-0.23795
-0.12973
-0.065975
-0.049666
-0.046701
-0.040771
-0.02891
-0.024463
-0.025945
-0.045219
-0.06894
-0.097109
-0.12528
-0.15493
-0.18903
-0.21423
-0.23795
-0.25278
-0.26019
-0.26168
-0.26316
-0.26761
-0.26612
-0.26019
-0.25871
-0.26019
-0.25871
-0.26168
-0.26316
-0.26612
-0.26761
-0.27205
-0.27947
-0.28095
-0.29133
-0.29281
-0.29429
-0.29874
-0.30912
-0.3195
-0.32098
-0.32543
-0.32246
-0.32246
-0.32691
-0.33877
-0.34025
-0.30319
-0.21423
-0.06894
0.088213
0.15493
0.11342
0.11342
0.037806
-0.039288
-0.25278
-0.44255
-0.4811
-0.404
-0.22016
-0.054114
0.067457
0.13862
0.16679
0.16976
0.12676
0.07487
-0.0066716
-0.014085
0.037806
0.10452
0.13714
0.13121
0.13862
0.15938
0.17272
0.13417
0.10304
0.097109
0.11193
0.27798
0.31208
0.30022
0.15789
0.16234
0.27502
0.45145
0.52113
0.44552
0.33284
0.2172
0.15048
0.070423
0.037806
-0.015567
-0.085248
-0.12676
-0.15789
-0.19348
-0.21275
-0.22906
-0.23795
-0.23944
-0.24537
-0.24537
-0.26909
-0.29726
-0.32394
-0.32839
-0.32839
-0.33136
-0.33432
-0.3447
-0.35953
-0.35508
-0.32394
-0.26464
-0.18903
-0.085248
0.0037064
0.051149
0.070423
0.083766
-0.027428
-0.15196
-0.37287
-0.47517
-0.48406
-0.35656
-0.19792
-0.079318
-0.005189
0.030393
0.040771
0.052632
0.054114
0.058562
0.040771
-0.025945
-0.07487
-0.088213
-0.034841
0.033358
0.065975
0.052632
0.039288
0.042254
0.060044
0.057079
0.057079
0.049666
0.0022239
-0.020015
-0.020015
0.077835
0.20089
0.19348
0.13566
0.11638
0.15345
0.26316
0.26168
0.1831
0.10304
0.039288
-0.040771
-0.14455
-0.22906
-0.27354
-0.27205
-0.24981
-0.23944
-0.23499
-0.23499
-0.24388
-0.26019
-0.28984
-0.31505
-0.34322
-0.36842
-0.39214
-0.40252
-0.41735
-0.43217
-0.44552
-0.45886
-0.47368
-0.47813
-0.47813
-0.47961
-0.48258
-0.47813
-0.47072
-0.46627
-0.45738
-0.44996
-0.44552
-0.43958
-0.43514
-0.41586
-0.36397
-0.2424
-0.07487
0.079318
0.12231
0.11638
0.12973
0.039288
-0.033358
-0.25723
-0.38621
-0.3536
-0.21127
-0.0096368
0.11193
0.20979
0.24537
0.26316
0.26612
0.24537
0.19941
0.1238
0.06894
0.061527
0.094144
0.14455
0.16234
0.16086
0.16234
0.1742
0.18755
0.14603
0.12083
0.12973
0.16976
0.30764
0.32691
0.30764
0.23202
0.15641
0.20237
0.24388
0.26168
0.2424
0.19792
0.10452
-0.024463
-0.13417
-0.092661
-0.020015
0.067457
0.021497
-0.048184
-0.092661
-0.051149
-0.01705
0.00074129
-0.0096368
-0.037806
-0.058562
-0.10304
-0.13566
-0.18013
-0.20237
-0.21275
-0.2172
-0.22609
-0.23202
-0.23944
-0.25426
-0.27205
-0.28984
-0.29429
-0.27798
-0.21868
-0.094144
0.030393
0.12824
0.16531
0.18903
0.12676
0.07487
-0.12676
-0.34025
-0.44107
-0.40845
-0.23499
-0.098592
-0.0022239
0.045219
0.049666
0.058562
0.049666
0.0037064
-0.042254
-0.10007
-0.088213
-0.043736
0.011119
0.042254
0.037806
0.02298
0.02891
0.034841
0.033358
0.036323
0.027428
-0.043736
-0.082283
-0.095626
0.01705
0.13417
0.094144
0.037806
0.049666
0.13269
0.25574
0.2424
0.14307
0.082283
0.024463
-0.055597
-0.15493
-0.23202
-0.26909
-0.26464
-0.2513
-0.23944
-0.23351
-0.23795
-0.24092
-0.25723
-0.27798
-0.30022
-0.31653
-0.3358
-0.34618
-0.3536
-0.36249
-0.3788
-0.38918
-0.39362
-0.40549
-0.40993
-0.41142
-0.40845
-0.404
-0.40104
-0.39214
-0.38918
-0.38325
-0.37435
-0.36842
-0.36842
-0.35953
-0.35063
-0.34322
-0.33729
-0.33136
-0.30764
-0.23499
-0.083766
0.098592
0.22906
0.2172
0.2513
0.20237
0.15938
0.011119
-0.18606
-0.2854
-0.2424
-0.089696
0.076353
0.16976
0.23202
0.24981
0.26019
0.26168
0.2513
0.21275
0.15789
0.106
0.085248
0.071905
0.089696
0.097109
0.098592
0.10304
0.10156
0.065975
0.018532
0.0081542
0.024463
0.13121
0.19496
0.14455
0.079318
-0.033358
-0.0022239
0.033358
0.037806
0.0096368
-0.005189
-0.039288
-0.16976
-0.26909
-0.38769
-0.31208
-0.17272
-0.092661
-0.12676
-0.20385
-0.27205
-0.2083
-0.14752
-0.11638
-0.1238
-0.15493
-0.1742
-0.19941
-0.22758
-0.27057
-0.29429
-0.29726
-0.28984
-0.28984
-0.2854
-0.28836
-0.29726
-0.3017
-0.3106
-0.3195
-0.3358
-0.34322
-0.35508
-0.36249
-0.36101
-0.3536
-0.3447
-0.3358
-0.32839
-0.32394
-0.32987
-0.33877
-0.3447
-0.35656
-0.36694
-0.36249
-0.32839
-0.22461
-0.086731
0.086731
0.1742
0.22016
0.21127
0.14455
0.064492
-0.14307
-0.31505
-0.39659
-0.31208
-0.10897
0.057079
0.16827
0.2083
0.22313
0.20979
0.18755
0.16086
0.13417
0.10452
0.097109
0.10007
0.11045
0.13269
0.15789
0.18755
0.17717
0.14455
0.10749
0.10007
0.23795
0.30319
0.23054
0.12824
0.18606
0.31505
0.47813
0.4129
0.26909
0.15938
0.054114
-0.046701
-0.16827
-0.22016
-0.25426
-0.23795
-0.23054
-0.22906
-0.21275
-0.18903
-0.18013
-0.17717
-0.1831
-0.20237
-0.22165
-0.24388
-0.27205
-0.30319
-0.33877
-0.35508
-0.3788
-0.38918
-0.39807
-0.404
-0.4129
-0.41142
-0.40845
-0.40697
-0.40252
-0.39807
-0.39362
-0.39956
-0.39956
-0.39511
-0.39511
-0.39214
-0.39511
-0.39659
-0.40252
-0.39956
-0.39214
-0.38769
-0.38028
-0.37435
-0.37139
-0.3699
-0.31801
-0.20089
-0.048184
0.11638
0.18606
0.26316
0.2172
0.19199
0.070423
-0.10749
-0.22313
-0.24092
-0.11935
0.073388
0.22016
0.31801
0.34915
0.35211
0.34915
0.3358
0.32098
0.31208
0.28688
0.26019
0.24685
0.26019
0.27947
0.28836
0.29133
0.28836
0.26168
0.20534
0.16827
0.17865
0.25278
0.31505
0.20979
0.10007
0.0081542
0.049666
0.12973
0.13862
0.098592
0.06894
0.030393
-0.025945
-0.089696
-0.15641
-0.1742
-0.21423
-0.21127
-0.12676
-0.095626
-0.15641
-0.32839
-0.44552
-0.37287
-0.22461
-0.14455
-0.13862
-0.14752
-0.15048
-0.1401
-0.16234
-0.19051
-0.22313
-0.2172
-0.19792
-0.18162
-0.17569
-0.16976
-0.18013
-0.20682
-0.22461
-0.2513
-0.28243
-0.30615
-0.3195
-0.33284
-0.34322
-0.34766
-0.34915
-0.35063
-0.34915
-0.34766
-0.3447
-0.34766
-0.34618
-0.34618
-0.34915
-0.35211
-0.35211
-0.35953
-0.36397
-0.3699
-0.36694
-0.37139
-0.37435
-0.33877
-0.2513
-0.10304
0.094144
0.2513
0.31208
0.31357
0.23795
0.16976
-0.018532
-0.21127
-0.31801
-0.29726
-0.12973
0.036323
0.15641
0.20237
0.21127
0.18755
0.14455
0.092661
0.06301
0.039288
0.040771
0.058562
0.086731
0.11193
0.15196
0.19348
0.23647
0.19941
0.18903
0.15938
0.23499
0.35953
0.31801
0.18013
0.18755
0.27057
0.46479
0.45293
0.32543
0.22906
0.18755
0.1401
0.048184
-0.039288
-0.16234
-0.23351
-0.21275
-0.19199
-0.1831
-0.23499
-0.32839
-0.35953
-0.32543
-0.29281
-0.27354
-0.26464
-0.25278
-0.24833
-0.23795
-0.22313
-0.22313
-0.23944
-0.26316
-0.28095
-0.30467
-0.32098
-0.33432
-0.34618
-0.36397
-0.37732
-0.38325
-0.39214
-0.39807
-0.404
-0.4129
-0.42476
-0.43217
-0.43958
-0.44403
-0.44255
-0.43958
-0.43365
-0.43662
-0.42921
-0.41883
-0.41438
-0.41142
-0.40549
-0.40252
-0.39956
-0.39511
-0.38918
-0.39214
-0.38769
-0.38028
-0.37583
-0.3788
-0.37583
-0.37732
-0.37732
-0.38325
-0.3788
-0.3788
-0.38028
-0.37287
-0.37435
-0.37287
-0.36842
-0.35804
-0.35656
-0.35211
-0.34322
-0.33284
-0.3195
-0.31357
-0.30467
-0.30764
-0.31208
-0.30764
-0.3017
-0.29577
-0.28688
-0.27354
-0.26464
-0.25426
-0.23795
-0.22906
-0.22461
-0.21423
-0.20979
-0.20385
-0.19644
-0.15938
-0.077835
0.049666
0.21275
0.40104
0.5404
0.62342
0.59377
0.52557
0.38028
0.23647
0.091179
0.040771
0.094144
0.19199
0.27205
0.30022
0.31208
0.31505
0.31505
0.33136
0.36101
0.40104
0.44403
0.47072
0.45441
0.39511
0.39956
0.45441
0.53744
0.53299
0.53447
0.51075
0.52854
0.53595
0.50927
0.44107
0.3788
0.32543
0.3536
0.35953
0.3017
0.17124
0.067457
0.025945
0.057079
0.083766
0.088213
0.080801
0.071905
0.054114
0.031875
-0.0096368
-0.051149
-0.098592
-0.12528
-0.13714
-0.15048
-0.15048
-0.15345
-0.15938
-0.17569
-0.18606
-0.19941
-0.20682
-0.21423
-0.22609
-0.24092
-0.26168
-0.28243
-0.30022
-0.32394
-0.34173
-0.34766
-0.35656
-0.3699
-0.38028
-0.38473
-0.39362
-0.39807
-0.39956
-0.40697
-0.41735
-0.42179
-0.42031
-0.41883
-0.4129
-0.39807
-0.35211
-0.24537
-0.10749
0.043736
0.16234
0.26168
0.29281
0.24388
0.10749
-0.086731
-0.23944
-0.30319
-0.26019
-0.10304
0.057079
0.18162
0.21868
0.20682
0.149
0.092661
0.060044
0.048184
0.06301
0.095626
0.14307
0.18755
0.23647
0.24388
0.21868
0.16976
0.16531
0.27502
0.31801
0.25278
0.17865
0.12973
0.19496
0.26168
0.20682
0.11638
0.052632
0.027428
-0.030393
-0.13121
-0.2172
-0.2854
-0.2765
-0.27057
-0.27057
-0.28243
-0.29874
-0.31653
-0.3358
-0.36694
-0.39511
-0.41883
-0.447
-0.4722
-0.48554
-0.50334
-0.52113
-0.53744
-0.55078
-0.56264
-0.57153
-0.57895
-0.58488
-0.59081
-0.58784
-0.58784
-0.58636
-0.59081
-0.59674
-0.60563
-0.61898
-0.62639
-0.62936
-0.60119
-0.50037
-0.36546
-0.21275
-0.095626
-0.0096368
0.040771
-0.034841
-0.12676
-0.26612
-0.32987
-0.29429
-0.20385
-0.058562
0.054114
0.13121
0.15938
0.14455
0.1238
0.098592
0.067457
0.054114
0.058562
0.089696
0.13862
0.19051
0.25574
0.25871
0.2513
0.18903
0.22461
0.32394
0.36101
0.28688
0.22165
0.19051
0.27354
0.3195
0.26019
0.17865
0.15493
0.12083
0.054114
-0.030393
-0.094144
-0.11193
-0.094144
-0.089696
-0.091179
-0.10897
-0.12231
-0.15345
-0.18755
-0.22906
-0.26761
-0.30764
-0.34766
-0.3788
-0.40252
-0.43069
-0.45441
-0.46775
-0.48258
-0.48999
-0.49592
-0.5063
-0.51371
-0.52706
-0.52557
-0.53447
-0.53595
-0.5315
-0.52557
-0.51816
-0.51223
-0.50334
-0.47072
-0.36694
-0.23202
-0.080801
0.045219
0.12824
0.20089
0.15493
0.088213
-0.054114
-0.15196
-0.18755
-0.12973
0.015567
0.17569
0.29429
0.34766
0.35211
0.32098
0.28836
0.25426
0.23202
0.22906
0.24092
0.26612
0.29874
0.3447
0.3788
0.34322
0.30022
0.27205
0.35804
0.38176
0.32394
0.23944
0.18013
0.23351
0.28836
0.25871
0.2083
0.18458
0.16827
0.11935
0.036323
-0.027428
-0.065975
-0.052632
-0.046701
-0.055597
-0.079318
-0.10156
-0.12973
-0.16531
-0.20089
-0.22906
-0.26316
-0.29281
-0.32246
-0.34322
-0.36842
-0.38473
-0.40104
-0.41438
-0.42624
-0.43514
-0.43514
-0.43514
-0.42921
-0.42328
-0.42179
-0.42179
-0.41883
-0.41438
-0.40993
-0.40697
-0.39807
-0.39659
-0.39807
-0.39956
-0.39066
-0.39066
-0.38621
-0.38176
-0.38325
-0.38918
-0.39659
-0.404
-0.40845
-0.41142
-0.41142
-0.41142
-0.42179
-0.42328
-0.41883
-0.42476
-0.42921
-0.42772
-0.43217
-0.4381
-0.4381
-0.43958
-0.43662
-0.43217
-0.42476
-0.41883
-0.41586
-0.404
-0.39659
-0.38769
-0.37732
-0.35953
-0.34766
-0.33877
-0.32987
-0.32543
-0.32543
-0.32691
-0.32246
-0.32098
-0.31505
-0.30912
-0.30912
-0.3106
-0.3106
-0.29874
-0.29577
-0.2854
-0.27502
-0.26909
-0.26316
-0.25426
-0.24833
-0.2424
-0.23351
-0.22609
-0.2172
-0.22165
-0.22165
-0.21572
-0.21275
-0.20385
-0.18903
-0.17569
-0.15493
-0.089696
0.031875
0.17865
0.34025
0.4811
0.53892
0.5493
0.48703
0.41142
0.27205
0.16531
0.10007
0.12824
0.21275
0.31208
0.36249
0.38621
0.40549
0.42772
0.46034
0.48999
0.52706
0.52557
0.51816
0.50185
0.50927
0.53447
0.55078
0.57895
0.57895
0.56264
0.47368
0.41883
0.42624
0.42328
0.40549
0.30912
0.25723
0.26019
0.30764
0.29429
0.26909
0.26316
0.28836
0.26168
0.15493
0.070423
0.014085
0.073388
0.095626
0.00074129
-0.13417
-0.22906
-0.21275
-0.14603
-0.083766
-0.030393
0.00074129
0.020015
0.039288
0.060044
0.061527
0.052632
0.040771
0.02298
0.00074129
-0.015567
-0.027428
-0.045219
-0.061527
-0.077835
-0.10007
-0.1238
-0.14307
-0.15493
-0.17272
-0.18458
-0.19496
-0.20682
-0.22461
-0.23795
-0.24833
-0.26168
-0.2765
-0.2854
-0.30022
-0.30615
-0.31208
-0.31801
-0.32246
-0.32394
-0.3195
-0.31505
-0.31653
-0.3106
-0.30912
-0.3106
-0.31505
-0.30615
-0.26316
-0.14159
-0.024463
0.076353
0.16827
0.22906
0.23944
0.17717
-0.0066716
-0.19496
-0.31208
-0.3358
-0.24092
-0.065975
0.10304
0.2172
0.25574
0.25278
0.22758
0.22016
0.22165
0.24388
0.27502
0.32246
0.3699
0.41883
0.44552
0.404
0.34025
0.30912
0.40252
0.44403
0.42476
0.32543
0.25574
0.24685
0.26019
0.25278
0.22758
0.20089
0.19051
0.13269
0.039288
-0.051149
-0.106
-0.10007
-0.085248
-0.073388
-0.080801
-0.10007
-0.1238
-0.13862
-0.15938
-0.18162
-0.19941
-0.22016
-0.24092
-0.26168
-0.27947
-0.30319
-0.31801
-0.32839
-0.3358
-0.34915
-0.35953
-0.36249
-0.3699
-0.37287
-0.37287
-0.38176
-0.39511
-0.40697
-0.41142
-0.42179
-0.42772
-0.43662
-0.44107
-0.44107
-0.44107
-0.43069
-0.42921
-0.42476
-0.42179
-0.42179
-0.42772
-0.42772
-0.42772
-0.42624
-0.42772
-0.42476
-0.42179
-0.42031
-0.42179
-0.41586
-0.41883
-0.41438
-0.40697
-0.40845
-0.4129
-0.42031
-0.42328
-0.43217
-0.43662
-0.43958
-0.4381
-0.4381
-0.43958
-0.4381
-0.43958
-0.4381
-0.43365
-0.43365
-0.43069
-0.42031
-0.4129
-0.404
-0.39214
-0.37732
-0.37287
-0.36546
-0.35953
-0.35804
-0.35508
-0.36249
-0.3536
-0.35063
-0.33729
-0.28095
-0.15938
-0.0037064
0.149
0.3195
0.42179
0.47665
0.39659
0.27057
0.1238
0.049666
0.025945
0.055597
0.14603
0.23202
0.28391
0.29281
0.29726
0.30319
0.29577
0.30319
0.33432
0.3788
0.44255
0.45589
0.45738
0.42476
0.44403
0.51816
0.5834
0.60712
0.58933
0.57153
0.55374
0.54337
0.44996
0.42921
0.45738
0.41883
0.36694
0.22313
0.14603
0.16679
0.19496
0.19644
0.20089
0.20534
0.22165
0.20385
0.085248
0.01705
-0.039288
0.052632
0.042254
-0.10007
-0.27354
-0.34915
-0.26316
-0.14752
-0.095626
-0.092661
-0.073388
-0.046701
-0.005189
-0.015567
-0.025945
-0.036323
-0.025945
-0.0096368
-0.005189
-0.00074129
-0.014085
-0.024463
-0.037806
-0.060044
-0.085248
-0.1149
-0.12824
-0.15345
-0.16976
-0.18606
-0.20089
-0.22313
-0.2424
-0.25426
-0.27057
-0.27947
-0.28391
-0.29281
-0.30764
-0.31653
-0.32098
-0.32691
-0.32839
-0.33136
-0.3358
-0.35063
-0.33729
-0.25574
-0.14603
-0.057079
0.031875
0.11638
0.17865
0.12083
-0.060044
-0.24981
-0.3699
-0.36546
-0.29726
-0.13269
0.034841
0.15493
0.18606
0.17124
0.13566
0.10749
0.077835
0.092661
0.11935
0.16383
0.22016
0.28391
0.3358
0.30912
0.26761
0.21423
0.28095
0.32098
0.34766
0.28391
0.24685
0.23647
0.26019
0.23499
0.21127
0.20237
0.17717
0.15641
0.13269
0.10897
0.083766
0.060044
0.030393
-0.012602
-0.058562
-0.095626
-0.12824
-0.15641
-0.18162
-0.20682
-0.23202
-0.26019
-0.27947
-0.30022
-0.32098
-0.33877
-0.34915
-0.36101
-0.36842
-0.37583
-0.38473
-0.39807
-0.39956
-0.40549
-0.42328
-0.40993
-0.32987
-0.23647
-0.17865
-0.14307
-0.089696
-0.046701
-0.15938
-0.31208
-0.41883
-0.38028
-0.26168
-0.18458
-0.11638
-0.039288
0.060044
0.10897
0.1149
0.10304
0.07487
0.054114
0.046701
0.052632
0.071905
0.10007
0.13862
0.1831
0.23054
0.24833
0.19941
0.12676
0.076353
0.11193
0.11638
0.071905
0.0066716
-0.02298
0.012602
0.048184
0.067457
0.067457
0.060044
0.055597
0.046701
0.051149
0.046701
0.027428
-0.01705
-0.076353
-0.12528
-0.15789
-0.20089
-0.24537
-0.29133
-0.33877
-0.38621
-0.41438
-0.43958
-0.46182
-0.46775
-0.46331
-0.45441
-0.44996
-0.447
-0.44996
-0.45589
-0.45441
-0.44996
-0.44848
-0.44552
-0.4129
-0.3195
-0.22906
-0.19051
-0.15938
-0.21275
-0.20534
-0.31505
-0.4381
-0.50482
-0.49444
-0.43069
-0.35063
-0.2513
-0.10897
0.034841
0.106
0.1238
0.1238
0.092661
0.079318
0.079318
0.080801
0.086731
0.097109
0.1149
0.13269
0.16086
0.20682
0.22016
0.15641
0.06894
-0.00074129
-0.0081542
-0.0037064
-0.031875
-0.046701
-0.058562
-0.031875
-0.0037064
-0.015567
-0.011119
-0.015567
-0.015567
-0.02891
-0.021497
-0.033358
-0.052632
-0.097109
-0.14159
-0.18013
-0.20682
-0.22906
-0.24537
-0.26761
-0.28095
-0.29726
-0.3106
-0.32543
-0.33432
-0.34173
-0.35656
-0.37435
-0.38325
-0.40104
-0.41438
-0.42476
-0.43662
-0.44403
-0.44848
-0.447
-0.44996
-0.44848
-0.44403
-0.447
-0.45441
-0.45738
-0.45738
-0.45293
-0.44848
-0.44107
-0.4381
-0.43514
-0.43069
-0.42624
-0.42031
-0.41735
-0.41438
-0.41438
-0.42328
-0.43662
-0.41883
-0.34025
-0.21423
-0.10007
-0.043736
-0.037806
-0.042254
-0.15048
-0.30022
-0.40549
-0.42031
-0.35656
-0.32098
-0.27057
-0.15938
-0.055597
0.018532
0.048184
0.057079
0.049666
0.058562
0.094144
0.15789
0.21127
0.24685
0.23647
0.22758
0.24685
0.27502
0.30615
0.32246
0.32691
0.34766
0.3536
0.36249
0.35953
0.34766
0.23647
0.17717
0.13714
0.098592
0.076353
-0.051149
-0.15345
-0.1742
-0.13121
-0.079318
-0.048184
-0.031875
-0.0096368
-0.021497
-0.057079
-0.10897
-0.15196
-0.14752
-0.11193
-0.088213
-0.089696
-0.098592
-0.11638
-0.13566
-0.15493
-0.17865
-0.20534
-0.23499
-0.26464
-0.2854
-0.30912
-0.32543
-0.33877
-0.34766
-0.36397
-0.37139
-0.38028
-0.38473
-0.38918
-0.39066
-0.38325
-0.38769
-0.38473
-0.38176
-0.34173
-0.22906
-0.11193
-0.042254
0.048184
-0.024463
-0.067457
-0.28836
-0.4381
-0.46479
-0.33284
-0.20534
-0.11787
-0.045219
0.042254
0.149
0.21275
0.23054
0.21127
0.18903
0.15196
0.13269
0.12973
0.15048
0.17717
0.20682
0.24537
0.27798
0.23202
0.16679
0.079318
0.086731
0.097109
0.11787
0.082283
0.054114
0.049666
0.064492
0.051149
0.040771
0.036323
0.040771
0.040771
0.030393
0.018532
-0.00074129
-0.021497
-0.046701
-0.077835
-0.1149
-0.14455
-0.16531
-0.19348
-0.21275
-0.22758
-0.24388
-0.25574
-0.26464
-0.27502
-0.28688
-0.29874
-0.30022
-0.30319
-0.3106
-0.3195
-0.33432
-0.34766
-0.36546
-0.36101
-0.30912
-0.23499
-0.19792
-0.21572
-0.23351
-0.28095
-0.39659
-0.56116
-0.62639
-0.55523
-0.43365
-0.34173
-0.27798
-0.19792
-0.097109
-0.025945
0.015567
0.027428
0.015567
0.0081542
0.0081542
0.014085
0.030393
0.058562
0.082283
0.095626
0.10452
0.11787
0.12676
0.12824
0.12973
0.12083
0.10749
0.089696
0.073388
0.046701
0.018532
-0.012602
-0.046701
-0.082283
-0.1149
-0.14159
-0.1742
-0.20682
-0.23351
-0.25723
-0.2854
-0.30764
-0.33284
-0.35656
-0.37583
-0.39066
-0.41142
-0.42772
-0.404
-0.32394
-0.2765
-0.29281
-0.24537
-0.34322
-0.38325
-0.5404
-0.65604
-0.65011
-0.52854
-0.41735
-0.34322
-0.27502
-0.16827
-0.079318
-0.037806
-0.030393
-0.033358
-0.057079
-0.079318
-0.091179
-0.06894
-0.039288
0.0096368
0.06301
0.11045
0.15493
0.18755
0.2172
0.22758
0.23647
0.23795
0.22906
0.21572
0.20237
0.17717
0.14752
0.11193
0.076353
0.037806
0.005189
-0.031875
-0.067457
-0.10452
-0.14603
-0.18162
-0.21423
-0.24685
-0.27354
-0.3017
-0.33729
-0.36546
-0.38769
-0.41438
-0.4381
-0.45886
-0.47517
-0.49592
-0.5063
-0.5152
-0.52706
-0.53595
-0.54485
-0.5493
-0.56412
-0.57302
-0.58488
-0.59526
-0.60267
-0.60267
-0.60267
-0.61008
-0.60712
-0.6086
-0.60712
-0.60267
-0.5997
-0.59822
-0.60267
-0.56857
-0.46627
-0.33877
-0.22609
-0.12824
-0.098592
-0.13714
-0.32839
-0.54188
-0.61749
-0.5404
-0.41735
-0.35508
-0.30022
-0.2172
-0.11935
-0.055597
-0.020015
0.0022239
0.02891
0.07487
0.13714
0.20089
0.27354
0.30615
0.30764
0.24981
0.19644
0.21127
0.24833
0.3195
0.3788
0.43069
0.47072
0.48851
0.41586
0.36842
0.31357
0.31357
0.31357
0.22165
0.12973
0.070423
0.046701
0.054114
0.051149
0.054114
0.049666
0.052632
0.070423
0.10007
0.080801
0.048184
-0.012602
-0.046701
-0.048184
-0.037806
-0.036323
-0.046701
-0.061527
-0.079318
-0.10304
-0.12824
-0.14603
-0.15789
-0.1742
-0.17865
-0.19496
-0.21127
-0.22609
-0.23202
-0.24981
-0.26316
-0.25574
-0.21127
-0.13566
-0.11342
-0.13417
-0.15938
-0.26909
-0.50778
-0.8636
-0.9748
-0.85915
-0.53447
-0.28391
-0.12973
-0.027428
0.052632
0.106
0.13862
0.18458
0.21423
0.22609
0.20089
0.13417
0.06894
0.057079
0.094144
0.15048
0.19496
0.23202
0.2513
0.26168
0.27205
0.28095
0.27354
0.26019
0.24537
0.22906
0.20979
0.18755
0.16531
0.14603
0.12231
0.10304
0.083766
0.054114
0.031875
0.014085
-0.0022239
-0.018532
-0.031875
-0.048184
-0.06894
-0.085248
-0.10304
-0.1149
-0.12528
-0.12973
-0.14307
-0.16383
-0.17569
-0.19051
-0.21423
-0.22758
-0.24537
-0.25723
-0.27057
-0.27947
-0.29281
-0.30912
-0.32394
-0.33432
-0.3536
-0.36842
-0.38325
-0.39362
-0.40549
-0.41735
-0.42476
-0.43958
-0.44848
-0.45293
-0.45738
-0.46331
-0.46627
-0.46331
-0.46034
-0.45886
-0.45441
-0.45738
-0.46331
-0.46479
-0.46182
-0.46331
-0.46034
-0.45441
-0.44848
-0.44403
-0.44255
-0.4381
-0.4381
-0.43365
-0.42328
-0.39066
-0.29281
-0.12083
0.014085
0.10452
0.18755
0.19644
0.095626
-0.079318
-0.21572
-0.24833
-0.18606
-0.14455
-0.086731
-0.020015
0.057079
0.13269
0.18458
0.22758
0.26464
0.33729
0.44848
0.54633
0.57746
0.54337
0.46331
0.44255
0.48258
0.5493
0.6086
0.62787
0.62787
0.59822
0.60563
0.57005
0.52409
0.42624
0.3788
0.35804
0.34025
0.3358
0.31653
0.30319
0.29874
0.29726
0.31357
0.26316
0.19496
0.19941
0.23647
0.27798
0.16827
0.0066716
-0.13417
-0.15789
-0.13121
-0.095626
-0.042254
0.0066716
0.037806
0.046701
0.027428
0.0066716
0.024463
0.057079
0.088213
0.098592
0.095626
0.092661
0.079318
0.067457
0.051149
0.036323
0.024463
0.0022239
-0.01705
-0.031875
-0.051149
-0.064492
-0.077835
-0.086731
-0.098592
-0.106
-0.1149
-0.12231
-0.13269
-0.12528
-0.14159
-0.14752
-0.13269
-0.057079
0.015567
0.036323
0.14455
0.067457
-0.030393
-0.3536
-0.56116
-0.58784
-0.38325
-0.1742
-0.079318
-0.037806
0.025945
0.10452
0.18755
0.24388
0.27947
0.26019
0.18755
0.12528
0.094144
0.11342
0.15938
0.20682
0.2424
0.27057
0.29133
0.30319
0.3017
0.3017
0.29874
0.28836
0.2765
0.25871
0.23795
0.2083
0.18162
0.149
0.1149
0.085248
0.061527
0.037806
0.0081542
-0.0096368
-0.039288
-0.070423
-0.10007
-0.12528
-0.15048
-0.17569
-0.19644
-0.21868
-0.23795
-0.25723
-0.26612
-0.28391
-0.29726
-0.31357
-0.32987
-0.3447
-0.35953
-0.36546
-0.37287
-0.38028
-0.38769
-0.40252
-0.42328
-0.44255
-0.44996
-0.46182
-0.47072
-0.47813
-0.48851
-0.49889
-0.44403
-0.23351
0.10452
0.32691
0.30615
-0.011119
-0.36249
-0.59229
-0.71979
-0.74055
-0.70497
-0.61898
-0.5063
-0.404
-0.31801
-0.26316
-0.22758
-0.2172
-0.18458
-0.12824
-0.049666
0.0096368
0.012602
-0.02298
-0.037806
-0.025945
0.0081542
0.024463
0.095626
0.1831
0.27502
0.2765
0.18606
0.051149
-0.039288
-0.037806
0.005189
0.025945
0.054114
0.079318
0.11045
0.12528
0.048184
-0.070423
-0.17124
-0.2513
-0.23647
-0.23202
-0.21868
-0.19051
-0.17717
-0.15938
-0.13566
-0.106
-0.073388
-0.058562
-0.07487
-0.1149
-0.16086
-0.16679
-0.15493
-0.149
-0.14307
-0.15048
-0.15938
-0.17272
-0.17569
-0.1742
-0.18013
-0.18903
-0.19792
-0.21423
-0.22165
-0.19348
-0.1238
-0.10304
-0.12083
-0.14752
-0.30467
-0.55078
-0.89029
-0.93921
-0.78058
-0.4381
-0.1742
-0.060044
-0.015567
0.02298
0.06894
0.12231
0.15938
0.20979
0.26316
0.29281
0.23795
0.12528
0.018532
-0.021497
0.02298
0.079318
0.13269
0.16531
0.19348
0.20089
0.20089
0.20237
0.19496
0.18162
0.16976
0.15196
0.12824
0.10304
0.083766
0.054114
0.034841
0.015567
-0.0081542
-0.033358
-0.061527
-0.076353
-0.097109
-0.11342
-0.13269
-0.14752
-0.16827
-0.18458
-0.19496
-0.20979
-0.21275
-0.22016
-0.22906
-0.24092
-0.24537
-0.25278
-0.26316
-0.27354
-0.2765
-0.28243
-0.28836
-0.29429
-0.30022
-0.31505
-0.32543
-0.33432
-0.34915
-0.36397
-0.3788
-0.39214
-0.404
-0.41438
-0.42179
-0.42772
-0.44107
-0.45293
-0.46775
-0.48406
-0.49741
-0.50334
-0.50778
-0.51668
-0.5152
-0.51964
-0.52706
-0.53299
-0.5315
-0.51668
-0.44552
-0.29874
-0.17717
-0.071905
0.0037064
-0.043736
-0.19199
-0.46182
-0.53299
-0.49296
-0.3017
-0.22906
-0.23351
-0.24092
-0.20979
-0.15493
-0.094144
-0.051149
-0.012602
0.06301
0.16383
0.29726
0.38769
0.3788
0.29874
0.19941
0.17124
0.20385
0.26019
0.32394
0.36694
0.40993
0.44848
0.44255
0.4722
0.47961
0.43514
0.34618
0.2083
0.13417
0.15048
0.15048
0.17865
0.16679
0.16976
0.16531
0.16383
0.17569
0.19941
0.19199
0.15789
0.10452
0.058562
0.045219
0.045219
0.036323
0.027428
0.014085
0.0037064
-0.0096368
-0.014085
-0.02891
-0.046701
-0.067457
-0.082283
-0.098592
-0.1149
-0.13121
-0.14455
-0.16086
-0.17272
-0.17272
-0.18458
-0.19348
-0.20682
-0.22461
-0.24537
-0.26316
-0.26761
-0.28095
-0.28391
-0.28243
-0.28243
-0.28391
-0.28688
-0.28243
-0.28836
-0.28688
-0.2854
-0.28391
-0.29133
-0.29281
-0.28984
-0.29429
-0.29281
-0.29281
-0.29429
-0.3017
-0.30615
-0.30912
-0.31357
-0.31208
-0.3106
-0.31653
-0.32839
-0.33284
-0.31208
-0.22758
-0.094144
0.039288
0.12676
0.21423
0.12824
-0.11342
-0.40549
-0.45738
-0.27354
0.018532
0.13714
0.10007
0.024463
-0.0096368
0.005189
0.049666
0.082283
0.1238
0.20534
0.32839
0.47665
0.58488
0.56264
0.45441
0.31208
0.25278
0.26168
0.31357
0.36249
0.40104
0.41883
0.43662
0.41883
0.43514
0.43365
0.38621
0.28688
0.12973
0.018532
-0.0037064
0.024463
0.051149
0.058562
0.055597
0.046701
0.058562
0.076353
0.097109
0.10452
0.12231
0.12973
0.12083
0.098592
0.06894
0.048184
0.02891
0.0037064
-0.015567
-0.040771
-0.060044
-0.071905
-0.086731
-0.106
-0.12528
-0.13862
-0.15345
-0.16086
-0.16679
-0.17865
-0.19644
-0.20237
-0.18755
-0.13566
-0.065975
-0.015567
0.040771
-0.06894
-0.27205
-0.59526
-0.88881
-0.88436
-0.66642
-0.34025
-0.12676
-0.021497
0.0066716
0.046701
0.13862
0.27354
0.33136
0.25574
0.091179
-0.077835
-0.15938
-0.14455
-0.073388
-0.00074129
0.057079
0.10007
0.12824
0.149
0.15641
0.16679
0.16234
0.149
0.14307
0.12676
0.106
0.085248
0.064492
0.040771
0.025945
0.0037064
-0.021497
-0.045219
-0.064492
-0.080801
-0.095626
-0.11787
-0.13417
-0.15345
-0.17717
-0.19051
-0.2083
-0.22165
-0.23647
-0.24685
-0.25871
-0.26464
-0.23499
-0.16976
-0.1238
-0.11193
-0.079318
-0.26019
-0.48554
-0.79392
-0.92142
-0.84433
-0.65901
-0.49444
-0.36842
-0.22609
-0.01705
0.1831
0.25723
0.20682
0.091179
-0.024463
-0.06894
-0.06301
-0.030393
0.0066716
0.039288
0.067457
0.079318
0.097109
0.10452
0.10749
0.10007
0.095626
0.095626
0.083766
0.067457
0.054114
0.039288
0.011119
-0.011119
-0.02891
-0.048184
-0.064492
-0.080801
-0.095626
-0.1149
-0.13269
-0.14159
-0.15789
-0.16976
-0.18013
-0.19199
-0.20534
-0.21868
-0.22758
-0.23944
-0.24981
-0.25871
-0.27057
-0.28984
-0.30764
-0.32691
-0.34173
-0.35656
-0.36546
-0.38028
-0.39956
-0.40845
-0.42031
-0.42921
-0.43514
-0.43662
-0.44848
-0.45886
-0.4722
-0.48258
-0.49296
-0.50185
-0.50185
-0.51075
-0.51371
-0.52113
-0.52706
-0.5404
-0.5493
-0.54781
-0.55819
-0.56116
-0.56264
-0.55671
-0.55819
-0.54781
-0.53002
-0.52261
-0.49741
-0.41735
-0.27947
-0.16383
-0.039288
0.052632
-0.020015
-0.23499
-0.55523
-0.59229
-0.48258
-0.21127
-0.11193
-0.14307
-0.17569
-0.18162
-0.15789
-0.095626
-0.018532
0.12231
0.28095
0.42328
0.47517
0.4129
0.30764
0.22609
0.22313
0.25723
0.33136
0.39511
0.44996
0.50778
0.62787
0.78503
0.89622
0.74944
0.50927
0.18458
0.012602
0.011119
0.033358
0.070423
0.106
0.13417
0.16531
0.17717
0.1831
0.18162
0.17717
0.16679
0.16086
0.15048
0.14159
0.12973
0.10897
0.083766
0.054114
0.037806
0.015567
0.00074129
-0.014085
-0.031875
-0.046701
-0.065975
-0.06894
-0.083766
-0.089696
-0.097109
-0.10897
-0.12824
-0.13862
-0.14159
-0.15048
-0.16679
-0.17717
-0.17569
-0.15048
-0.077835
0.01705
0.055597
0.067457
-0.1742
-0.52854
-0.92884
-1
-0.83692
-0.51668
-0.26761
-0.12083
0.037806
0.19941
0.3699
0.39807
0.25426
0.042254
-0.13714
-0.20979
-0.20237
-0.1401
-0.060044
0.0022239
0.048184
0.089696
0.11935
0.12824
0.14603
0.14455
0.14603
0.14307
0.14752
0.14159
0.13121
0.11935
0.10007
0.07487
0.051149
0.036323
0.01705
-0.00074129
-0.015567
-0.033358
-0.055597
-0.077835
-0.089696
-0.10897
-0.1238
-0.13566
-0.14752
-0.16679
-0.19051
-0.19941
-0.21275
-0.22165
-0.22758
-0.23351
-0.24685
-0.26019
-0.26612
-0.28688
-0.29874
-0.30912
-0.3195
-0.33136
-0.33729
-0.34618
-0.35211
-0.35953
-0.35804
-0.36101
-0.37435
-0.38325
-0.404
-0.42179
-0.43365
-0.447
-0.46182
-0.47961
-0.48851
-0.50037
-0.5152
-0.52409
-0.5315
-0.54485
-0.55671
-0.56857
-0.5745
-0.58043
-0.5834
-0.5834
-0.59229
-0.59674
-0.57746
-0.50185
-0.37139
-0.24092
-0.10156
-0.012602
-0.11045
-0.34173
-0.68125
-0.69459
-0.57153
-0.28836
-0.16234
-0.15938
-0.18903
-0.22016
-0.2424
-0.21275
-0.11935
0.037806
0.23202
0.3788
0.40549
0.3106
0.18458
0.098592
0.083766
0.13566
0.21127
0.29281
0.34322
0.46627
0.65159
0.83692
0.90363
0.74055
0.40549
0.12231
-0.043736
-0.018532
0.025945
0.07487
0.1149
0.14159
0.17717
0.19941
0.2083
0.20682
0.20385
0.20385
0.19496
0.17717
0.15789
0.13862
0.11638
0.10156
0.085248
0.06894
0.049666
0.034841
0.021497
0.011119
0.00074129
-0.0066716
-0.031875
-0.049666
-0.065975
-0.086731
-0.11193
-0.12528
-0.13862
-0.15938
-0.1742
-0.18458
-0.20385
-0.22313
-0.2424
-0.24833
-0.25574
-0.26316
-0.26612
-0.27798
-0.29133
-0.30615
-0.31505
-0.32691
-0.33284
-0.34322
-0.35804
-0.3788
-0.39511
-0.40993
-0.42624
-0.43958
-0.44403
-0.45441
-0.46627
-0.4722
-0.47517
-0.47961
-0.48554
-0.48406
-0.48851
-0.49296
-0.49741
-0.50185
-0.50482
-0.5063
-0.50334
-0.50482
-0.50334
-0.49741
-0.49296
-0.49296
-0.49592
-0.49296
-0.48999
-0.49741
-0.46775
-0.21127
0.24388
0.58191
0.55226
0.097109
-0.37139
-0.59229
-0.59822
-0.53447
-0.41586
-0.29726
-0.22609
-0.20682
-0.19496
-0.17124
-0.092661
0.077835
0.27947
0.43662
0.43958
0.30764
0.149
0.034841
0.0096368
0.045219
0.13269
0.22906
0.32543
0.43958
0.62194
0.81764
0.94218
0.88732
0.67087
0.37435
0.17124
0.042254
0.064492
0.11045
0.14455
0.15493
0.15493
0.18013
0.22313
0.24981
0.24092
0.21423
0.17717
0.17717
0.18162
0.17569
0.17272
0.16234
0.13566
0.1149
0.095626
0.085248
0.076353
0.06301
0.045219
0.015567
-0.0081542
-0.033358
-0.058562
-0.080801
-0.097109
-0.1149
-0.13566
-0.149
-0.16679
-0.18606
-0.20534
-0.21868
-0.23351
-0.24685
-0.26316
-0.27057
-0.27798
-0.28836
-0.29429
-0.30022
-0.30615
-0.3106
-0.3106
-0.31653
-0.31505
-0.31208
-0.3106
-0.32098
-0.32987
-0.34025
-0.34766
-0.35508
-0.3536
-0.36101
-0.36842
-0.38325
-0.38473
-0.39362
-0.39659
-0.40252
-0.40697
-0.41142
-0.41735
-0.41883
-0.42772
-0.42772
-0.42624
-0.42328
-0.42179
-0.41883
-0.42031
-0.42179
-0.42328
-0.40549
-0.35804
-0.22906
-0.11638
0.077835
0.16234
0.12973
-0.034841
-0.37583
-0.53744
-0.42921
-0.1742
0.049666
0.092661
0.034841
-0.031875
-0.077835
-0.082283
-0.040771
0.13417
0.32839
0.49889
0.5152
0.38918
0.24833
0.149
0.106
0.16086
0.26019
0.38028
0.49592
0.70645
0.89474
1
0.88732
0.60563
0.3017
0.10897
0.051149
0.088213
0.14159
0.16976
0.21127
0.23795
0.28095
0.35656
0.48999
0.65011
0.74944
0.73314
0.58043
0.37435
0.16827
0.0096368
-0.064492
-0.02891
0.10007
0.19199
0.1742
0.057079
-0.054114
-0.07487
0.0096368
0.15641
0.32691
0.45145
0.44552
0.29133
0.085248
-0.12231
-0.21423
-0.24833
-0.20534
-0.14307
-0.10304
-0.073388
-0.061527
-0.036323
-0.018532
0.012602
0.040771
0.046701
0.021497
-0.0037064
-0.01705
-0.014085
-0.011119
-0.0066716
-0.011119
-0.02298
-0.027428
-0.046701
-0.067457
-0.092661
-0.11342
-0.14159
-0.16383
-0.18162
-0.19792
-0.2172
-0.23054
-0.24092
-0.25723
-0.26909
-0.28391
-0.30912
-0.32839
-0.34025
-0.3447
-0.36101
-0.3699
-0.37583
-0.38918
-0.39511
-0.40104
-0.40845
-0.42624
-0.43662
-0.44996
-0.45441
-0.46924
-0.47368
-0.47517
-0.47517
-0.47665
-0.4722
-0.47813
-0.48999
-0.49889
-0.51075
-0.52409
-0.53002
-0.53447
-0.53744
-0.53744
-0.53744
-0.5404
-0.54337
-0.54485
-0.54633
-0.55671
-0.56857
-0.58043
-0.59526
-0.59526
-0.59377
-0.57598
-0.56412
-0.5493
-0.5315
-0.50927
-0.49148
-0.43662
-0.3106
-0.19051
0.0081542
0.11045
0.11638
-0.0037064
-0.31801
-0.49148
-0.44552
-0.25426
-0.054114
-0.020015
-0.077835
-0.14159
-0.1742
-0.19199
-0.14455
0.034841
0.26316
0.45293
0.51668
0.41438
0.28095
0.16234
0.12231
0.15938
0.23944
0.3358
0.48999
0.63973
0.73462
0.66642
0.44255
0.22461
0.11638
0.10304
0.12231
0.15196
0.20385
0.24537
0.29281
0.37583
0.5063
0.66642
0.76872
0.73758
0.54633
0.27502
0.0022239
-0.15789
-0.23054
-0.16383
-0.021497
0.106
0.149
0.067457
-0.037806
-0.089696
-0.030393
0.10452
0.23647
0.27502
0.18162
-0.043736
-0.20979
-0.32691
-0.32987
-0.2854
-0.24981
-0.18458
-0.14752
-0.11935
-0.10304
-0.080801
-0.057079
-0.015567
0.01705
0.01705
-0.018532
-0.042254
-0.045219
-0.036323
-0.027428
-0.02298
-0.043736
-0.070423
-0.095626
-0.11787
-0.13714
-0.15345
-0.16383
-0.17865
-0.19941
-0.21275
-0.23202
-0.24833
-0.26464
-0.27354
-0.28243
-0.29577
-0.30615
-0.31801
-0.32394
-0.32987
-0.32987
-0.33136
-0.33877
-0.34025
-0.3447
-0.3536
-0.35656
-0.36101
-0.36546
-0.37287
-0.38028
-0.38473
-0.39214
-0.39807
-0.40104
-0.41586
-0.42772
-0.44848
-0.46627
-0.49444
-0.51223
-0.52706
-0.54485
-0.55819
-0.56412
-0.5834
-0.59526
-0.6086
-0.60712
-0.60415
-0.59674
-0.59377
-0.59081
-0.59526
-0.59377
-0.57302
-0.51371
-0.38473
-0.26909
-0.055597
0.02891
-0.015567
-0.16827
-0.49741
-0.66642
-0.5745
-0.33432
-0.10452
-0.024463
-0.071905
-0.13714
-0.19199
-0.21868
-0.18606
-0.049666
0.17865
0.36546
0.44848
0.33284
0.17124
0.020015
-0.055597
-0.033358
0.064492
0.18903
0.3195
0.52409
0.70793
0.79837
0.73462
0.52261
0.25574
0.034841
-0.10156
-0.15493
-0.094144
-0.037806
0.014085
-0.49741
