-0.038095
0.047619
0.1619
0.32381
0.3619
0.30476
0.15238
0.066667
0.047619
0.028571
0.19048
0.29524
0.22857
0.019048
-0.038095
-0.038095
0.038095
0.11429
0.17143
0.14286
0.2
0.1619
0
-0.15238
-0.27619
-0.40952
-0.47619
-0.61905
-0.51429
-0.4
-0.3619
-0.25714
-0.18095
-0.15238
-0.085714
-0.20952
-0.35238
-0.3619
-0.28571
-0.22857
-0.29524
-0.38095
-0.31429
-0.15238
0.047619
0.22857
0.20952
0.038095
-0.066667
0.019048
0.14286
0.30476
0.34286
0.30476
0.15238
0.28571
0.33333
0.40952
0.38095
0.32381
0.26667
0.085714
0.038095
0
-0.12381
-0.17143
-0.19048
-0.14286
-0.19048
-0.31429
-0.46667
-0.61905
-0.66667
-0.61905
-0.48571
-0.35238
-0.14286
-0.11429
-0.19048
-0.39048
-0.35238
-0.26667
-0.13333
0.07619
0.07619
0.085714
0.12381
0.25714
0.29524
0.29524
0.2
0.14286
0.0095238
-0.038095
-0.095238
-0.2
-0.29524
-0.2381
-0.2
-0.11429
-0.066667
-0.095238
-0.13333
-0.1619
-0.12381
-0.10476
-0.17143
-0.22857
-0.19048
-0.17143
-0.21905
-0.19048
-0.27619
-0.30476
-0.4381
-0.4
-0.38095
-0.19048
0.07619
0.17143
0.10476
0
-0.11429
-0.20952
-0.21905
-0.1619
-0.028571
-0.019048
0.047619
0.057143
0.066667
0.057143
0.12381
0.20952
0.22857
0.37143
0.32381
0.26667
0.12381
0.19048
0.20952
0.24762
0.27619
0.27619
0.32381
0.33333
0.38095
0.37143
0.32381
0.41905
0.49524
0.50476
0.52381
0.51429
0.40952
0.35238
0.22857
0.0095238
-0.19048
-0.39048
-0.26667
-0.21905
-0.12381
-0.21905
-0.30476
-0.40952
-0.41905
-0.41905
-0.24762
-0.19048
-0.047619
0.066667
0.11429
0.095238
0.07619
0.019048
0.019048
0.0095238
-0.028571
-0.07619
-0.15238
-0.17143
-0.18095
-0.2
-0.24762
-0.11429
-0.019048
-0.07619
-0.22857
-0.4
-0.53333
-0.46667
-0.3619
-0.26667
-0.24762
-0.066667
-0.057143
-0.13333
-0.22857
-0.35238
-0.33333
-0.37143
-0.32381
-0.34286
-0.31429
-0.24762
-0.19048
-0.24762
-0.37143
-0.4381
-0.41905
-0.33333
-0.17143
0.038095
0.14286
0.18095
0.20952
0.14286
0.047619
-0.019048
-0.066667
-0.17143
-0.15238
-0.047619
0.047619
0.085714
0.085714
0.085714
0.047619
0.10476
0.20952
0.30476
0.24762
0.038095
-0.057143
-0.095238
-0.038095
0.0095238
0.11429
0.20952
0.35238
0.44762
0.40952
0.28571
0.21905
0.14286
0
-0.11429
-0.22857
-0.3619
-0.37143
-0.26667
-0.31429
-0.3619
-0.31429
-0.2381
-0.18095
-0.066667
-0.0095238
0.085714
0.10476
0.17143
0.11429
0.047619
-0.019048
-0.019048
-0.12381
-0.14286
-0.047619
0.038095
0.07619
-0.047619
-0.13333
-0.31429
-0.45714
-0.4381
-0.44762
-0.34286
-0.33333
-0.24762
-0.27619
-0.26667
-0.31429
-0.38095
-0.42857
-0.39048
-0.24762
-0.4
-0.50476
-0.67619
-0.66667
-0.61905
-0.41905
-0.28571
-0.1619
-0.10476
-0.0095238
0.057143
0.07619
0.019048
-0.10476
-0.18095
-0.25714
-0.19048
-0.20952
-0.27619
-0.1619
-0.095238
-0.066667
-0.28571
-0.45714
-0.57143
-0.52381
-0.38095
-0.24762
-0.10476
0.095238
0.29524
0.44762
0.3619
0.15238
-0.10476
-0.28571
-0.34286
-0.26667
-0.31429
-0.42857
-0.41905
-0.3619
-0.1619
-0.019048
0.14286
0.11429
0.10476
0.12381
0.038095
0.0095238
0.019048
0.15238
0.15238
0.13333
0.057143
0.047619
0.028571
-0.057143
-0.07619
-0.11429
-0.019048
0.038095
-0.057143
-0.10476
-0.047619
0.11429
0.038095
-0.085714
-0.12381
0.0095238
0.085714
0.30476
0.31429
0.24762
0.095238
0.095238
0.085714
0.028571
0.019048
0.0095238
0.085714
0.18095
0.22857
0.14286
-0.028571
-0.14286
-0.18095
-0.15238
-0.07619
0.095238
0.34286
0.47619
0.58095
0.53333
0.4
0.35238
0.25714
0.30476
0.35238
0.4381
0.42857
0.2381
-0.11429
-0.26667
-0.41905
-0.33333
-0.1619
-0.0095238
0.019048
-0.10476
-0.19048
-0.26667
-0.14286
-0.07619
-0.047619
-0.095238
-0.047619
0.10476
0.17143
0.17143
0.21905
0.19048
0.1619
0.028571
-0.0095238
-0.20952
-0.27619
-0.4381
-0.45714
-0.52381
-0.47619
-0.48571
-0.41905
-0.27619
-0.066667
0.12381
0.11429
0.32381
0.47619
0.5619
0.42857
0.29524
0.15238
0.10476
0.095238
-0.028571
-0.24762
-0.41905
-0.51429
-0.42857
-0.38095
-0.24762
-0.22857
-0.18095
-0.21905
-0.047619
0.028571
0.11429
0.1619
0.12381
0.0095238
-0.07619
-0.019048
-0.028571
0.0095238
-0.13333
-0.31429
-0.45714
-0.55238
-0.39048
-0.34286
-0.22857
-0.14286
-0.1619
-0.29524
-0.48571
-0.49524
-0.46667
-0.33333
-0.18095
-0.14286
-0.13333
-0.24762
-0.18095
-0.1619
-0.1619
-0.1619
-0.19048
-0.13333
0.028571
0.21905
0.31429
0.37143
0.31429
0.22857
0.10476
0.019048
0.085714
0.11429
0.18095
0.29524
0.39048
0.29524
0.30476
0.095238
-0.12381
-0.20952
-0.26667
-0.27619
-0.27619
-0.2381
-0.13333
-0.028571
0.11429
0.2381
0.27619
0.29524
0.28571
0.39048
0.40952
0.4
0.27619
0.17143
0.19048
0.20952
0.17143
-0.019048
-0.11429
-0.07619
-0.07619
-0.10476
-0.0095238
0.028571
0.028571
0.038095
0.085714
0.057143
0.038095
0.019048
-0.066667
-0.1619
-0.12381
0.057143
0.2
0.27619
0.25714
0.12381
-0.028571
-0.095238
-0.10476
-0.12381
-0.15238
-0.12381
-0.19048
-0.27619
-0.24762
-0.31429
-0.24762
-0.2381
-0.22857
-0.26667
-0.3619
-0.39048
-0.45714
-0.51429
-0.58095
-0.47619
-0.42857
-0.48571
-0.49524
-0.62857
-0.60952
-0.51429
-0.29524
-0.085714
0.07619
0.095238
0.0095238
-0.18095
-0.20952
-0.19048
-0.2381
-0.21905
-0.24762
-0.24762
-0.39048
-0.45714
-0.40952
-0.45714
-0.40952
-0.29524
-0.21905
-0.21905
-0.31429
-0.33333
-0.39048
-0.37143
-0.20952
-0.019048
0.095238
0.12381
0.019048
-0.0095238
0.019048
0.11429
0.085714
-0.11429
-0.13333
-0.14286
-0.028571
-0.0095238
0.085714
0.066667
-0.07619
-0.25714
-0.39048
-0.4
-0.25714
-0.15238
-0.11429
-0.07619
0.047619
0.066667
-0.0095238
0.0095238
0.18095
0.44762
0.74286
0.9619
0.99048
0.91429
0.73333
0.69524
0.6
0.48571
0.4
0.26667
0.18095
0.047619
0
-0.11429
-0.22857
-0.31429
-0.4381
-0.44762
-0.39048
-0.15238
-0.047619
0.066667
0.12381
0.095238
0.07619
-0.028571
0.047619
0.038095
0.07619
0.1619
0.22857
0.22857
0.21905
0.2
0.19048
0.17143
0.2381
0.1619
-0.019048
-0.20952
-0.37143
-0.49524
-0.61905
-0.68571
-0.73333
-0.72381
-0.61905
-0.48571
-0.38095
-0.29524
-0.19048
-0.13333
-0.18095
-0.15238
-0.29524
-0.42857
-0.47619
-0.41905
-0.3619
-0.49524
-0.50476
-0.61905
-0.57143
-0.45714
-0.27619
-0.14286
-0.13333
-0.15238
-0.17143
-0.2381
-0.28571
-0.3619
-0.4381
-0.52381
-0.50476
-0.46667
-0.31429
-0.13333
0.085714
0.07619
0.057143
-0.038095
-0.20952
-0.3619
-0.48571
-0.34286
-0.20952
-0.0095238
0.24762
0.33333
0.32381
0.25714
0.1619
0.085714
-0.019048
-0.057143
-0.0095238
-0.047619
-0.047619
-0.13333
-0.29524
-0.4381
-0.41905
-0.31429
-0.37143
-0.34286
-0.40952
-0.47619
-0.53333
-0.49524
-0.4381
-0.39048
-0.32381
-0.4381
-0.52381
-0.57143
-0.45714
-0.3619
-0.45714
-0.49524
-0.58095
-0.64762
-0.60952
-0.55238
-0.50476
-0.51429
-0.51429
-0.66667
-0.73333
-0.80952
-0.64762
-0.62857
-0.58095
-0.42857
-0.33333
-0.07619
0.019048
0.15238
0.11429
0.019048
-0.028571
0.019048
0.028571
0.019048
0.0095238
-0.028571
-0.028571
0.11429
0.20952
0.2
0.12381
0.066667
0.038095
0
0.085714
0.085714
0.14286
0.14286
0.085714
-0.047619
-0.057143
-0.0095238
0.057143
0.085714
0.21905
0.31429
0.4381
0.46667
0.51429
0.40952
0.25714
0.10476
0.085714
0.11429
0.21905
0.37143
0.46667
0.4
0.30476
0.1619
0.07619
-0.0095238
0.0095238
-0.066667
-0.24762
-0.38095
-0.52381
-0.49524
-0.37143
-0.29524
-0.22857
-0.22857
-0.19048
-0.27619
-0.4381
-0.51429
-0.35238
-0.2381
-0.18095
-0.15238
-0.31429
-0.47619
-0.52381
-0.47619
-0.31429
-0.1619
-0.07619
-0.11429
-0.2
-0.2
-0.095238
-0.085714
-0.019048
0.085714
0.28571
0.33333
0.32381
0.2381
0.028571
-0.12381
-0.19048
-0.1619
-0.20952
-0.2381
-0.3619
-0.47619
-0.42857
-0.27619
-0.038095
0.028571
0.085714
-0.066667
-0.10476
-0.066667
0.066667
0.21905
0.26667
0.31429
0.3619
0.40952
0.31429
0.33333
0.33333
0.45714
0.6
0.61905
0.55238
0.46667
0.4
0.32381
0.19048
0.1619
0.15238
0.12381
0.13333
0.1619
0.15238
0.20952
0.29524
0.38095
0.37143
0.4
0.4
0.46667
0.48571
0.45714
0.37143
0.27619
0.24762
0.34286
0.3619
0.32381
0.27619
0.14286
0.0095238
0.10476
0.24762
0.37143
0.35238
0.2381
0.18095
0.12381
0.20952
0.28571
0.33333
0.49524
0.57143
0.61905
0.51429
0.49524
0.4
0.40952
0.42857
0.5619
0.53333
0.44762
0.35238
0.26667
0.2381
0.25714
0.31429
0.40952
0.38095
0.46667
0.48571
0.39048
0.31429
0.18095
0.10476
0.10476
0.14286
0.2381
0.22857
0.1619
0.21905
0.18095
0.2381
0.26667
0.28571
0.21905
0.15238
0.12381
0.0095238
-0.019048
-0.095238
-0.17143
-0.32381
-0.30476
-0.30476
-0.38095
-0.4381
-0.45714
-0.41905
-0.32381
-0.2
-0.057143
0.019048
-0.038095
-0.019048
0.14286
0.25714
0.46667
0.48571
0.41905
0.28571
0.27619
0.19048
0.0095238
-0.047619
-0.07619
-0.047619
-0.066667
-0.095238
-0.10476
-0.13333
-0.12381
-0.15238
-0.095238
-0.0095238
0.07619
0
0.028571
0.13333
0.24762
0.26667
0.32381
0.3619
0.32381
0.20952
0.12381
0.085714
0.13333
0.14286
0.2
0.14286
0.19048
0.3619
0.53333
0.5619
0.44762
0.41905
0.42857
0.5619
0.72381
0.73333
0.69524
0.60952
0.58095
0.38095
0.20952
0.19048
0.15238
0.1619
0.12381
0.12381
0.12381
0.17143
0.20952
0.2
0.057143
-0.0095238
0.019048
0.047619
0.1619
0.2381
0.3619
0.33333
0.47619
0.4381
0.35238
0.25714
0.19048
0.12381
0.0095238
-0.12381
-0.10476
-0.12381
-0.028571
-0.028571
-0.095238
-0.13333
0
0.20952
0.4
0.46667
0.44762
0.33333
0.24762
0.25714
0.12381
-0.028571
-0.15238
-0.1619
-0.19048
-0.12381
-0.057143
0.047619
0.095238
0.028571
0.095238
-0.047619
-0.047619
-0.019048
0.0095238
-0.028571
-0.14286
-0.085714
-0.14286
-0.2
-0.22857
-0.25714
-0.2381
-0.22857
-0.2
-0.33333
-0.41905
-0.47619
-0.47619
-0.41905
-0.4
-0.38095
-0.4381
-0.52381
-0.53333
-0.4
-0.26667
-0.057143
-0.019048
0.019048
-0.057143
-0.085714
-0.18095
-0.4
-0.37143
-0.35238
-0.29524
-0.34286
-0.41905
-0.52381
-0.53333
-0.40952
-0.42857
-0.39048
-0.50476
-0.48571
-0.51429
-0.54286
-0.40952
-0.38095
-0.45714
-0.57143
-0.53333
-0.52381
-0.32381
-0.25714
-0.085714
-0.0095238
-0.028571
0.11429
0.2
0.33333
0.4
0.34286
0.27619
0.30476
0.45714
0.47619
0.51429
0.49524
0.44762
0.30476
0.25714
0.29524
0.38095
0.44762
0.46667
0.30476
0.14286
0.057143
0.12381
0.18095
0.25714
0.2
0.1619
0.07619
0.019048
0.0095238
-0.066667
-0.057143
0
0.12381
0.22857
0.4
0.46667
0.40952
0.40952
0.33333
0.38095
0.3619
0.44762
0.4381
0.42857
0.35238
0.44762
0.48571
0.52381
0.45714
0.29524
0.066667
-0.11429
-0.1619
-0.22857
-0.20952
-0.13333
-0.019048
0.14286
0.29524
0.4
0.31429
0.24762
0.24762
0.20952
0.13333
0.057143
0.10476
0.066667
0.019048
-0.028571
-0.14286
-0.12381
-0.17143
-0.15238
-0.1619
-0.12381
-0.14286
-0.095238
-0.11429
-0.066667
0.038095
0.10476
0.095238
0.19048
0.28571
0.4381
0.58095
0.64762
0.59048
0.54286
0.42857
0.37143
0.30476
0.47619
0.55238
0.57143
0.44762
0.27619
0.10476
-0.066667
-0.066667
-0.10476
-0.13333
-0.2381
-0.25714
-0.2381
-0.1619
-0.038095
0.019048
0.038095
0.047619
0.26667
0.34286
0.31429
0.26667
0.22857
0.2381
0.2381
0.24762
0.2
0.17143
0.095238
-0.0095238
-0.057143
-0.085714
-0.038095
-0.17143
-0.25714
-0.32381
-0.30476
-0.3619
-0.25714
-0.038095
0.038095
0.07619
-0.066667
-0.22857
-0.34286
-0.45714
-0.4
-0.53333
-0.6
-0.54286
-0.42857
-0.38095
-0.29524
-0.26667
-0.27619
-0.17143
-0.085714
0
0
0.047619
0.11429
0.28571
0.41905
0.4381
0.31429
0.10476
-0.057143
-0.17143
-0.28571
-0.2381
-0.15238
-0.085714
-0.028571
-0.038095
-0.028571
-0.17143
-0.17143
-0.14286
-0.22857
-0.30476
-0.37143
-0.31429
-0.2
-0.11429
0.028571
0.057143
0.085714
0.085714
0.12381
0.0095238
-0.0095238
0
0
0.057143
0.15238
0.20952
0.057143
-0.20952
-0.41905
-0.5619
-0.54286
-0.37143
-0.31429
-0.28571
-0.32381
-0.25714
-0.24762
-0.26667
-0.32381
-0.35238
-0.33333
-0.2
-0.085714
-0.21905
-0.21905
-0.28571
-0.19048
-0.13333
0
0.085714
0.047619
0.057143
0.14286
0.22857
0.26667
0.28571
0.21905
0.13333
0.12381
0.1619
0.20952
0.038095
0.047619
-0.0095238
-0.0095238
-0.019048
0
-0.019048
-0.047619
-0.057143
-0.11429
-0.28571
-0.4
-0.35238
-0.37143
-0.37143
-0.52381
-0.48571
-0.35238
-0.24762
-0.11429
-0.15238
-0.15238
-0.038095
0.057143
0.12381
0.085714
0.07619
-0.066667
-0.066667
-0.057143
-0.047619
-0.2
-0.22857
-0.26667
-0.2381
-0.19048
-0.26667
-0.33333
-0.37143
-0.4381
-0.41905
-0.47619
-0.41905
-0.39048
-0.39048
-0.58095
-0.57143
-0.55238
-0.55238
-0.5619
-0.49524
-0.4
-0.32381
-0.2
-0.2
-0.20952
-0.24762
-0.2381
-0.35238
-0.3619
-0.35238
-0.41905
-0.42857
-0.45714
-0.35238
-0.34286
-0.4
-0.39048
-0.39048
-0.48571
-0.44762
-0.39048
-0.34286
-0.32381
-0.35238
-0.30476
-0.27619
-0.18095
0.028571
0.038095
0.1619
0.2
0.11429
0.11429
0.11429
0.2381
0.25714
0.21905
0.13333
0.038095
-0.1619
-0.38095
-0.6
-0.87619
-1
-0.9619
-0.8
-0.66667
-0.58095
-0.54286
-0.4381
-0.31429
-0.18095
-0.047619
-0.047619
0.057143
0
-0.066667
-0.095238
-0.07619
0.0095238
0.07619
0.15238
0.1619
0.028571
-0.066667
-0.2
-0.17143
-0.33333
-0.31429
-0.34286
-0.28571
-0.2
-0.047619
-0.019048
-0.066667
-0.085714
-0.12381
0.085714
0.33333
0.6
0.59048
0.47619
0.39048
0.30476
0.14286
-0.0095238
-0.085714
-0.095238
-0.028571
0.12381
0.17143
0.19048
0.095238
-0.038095
-0.17143
-0.28571
-0.30476
-0.27619
-0.2381
-0.15238
-0.085714
-0.12381
-0.13333
-0.15238
-0.11429
-0.17143
-0.2
-0.24762
-0.26667
-0.13333
0.11429
0.29524
0.27619
0.21905
0.085714
-0.038095
-0.047619
0.057143
0.14286
0.17143
0.19048
0.1619
0.17143
0.095238
0.14286
0.15238
0.085714
0.11429
0.057143
-0.07619
-0.2
-0.30476
-0.4
-0.41905
-0.27619
-0.1619
-0.10476
-0.10476
-0.11429
-0.2
-0.35238
-0.4
-0.3619
-0.2
-0.028571
0.07619
0.047619
0.0095238
-0.085714
-0.15238
-0.12381
-0.085714
0.17143
0.15238
0.22857
0.19048
0.17143
0.12381
0.07619
0.18095
0.12381
0.066667
-0.057143
-0.085714
-0.019048
0.085714
0.14286
0.019048
-0.10476
-0.10476
-0.07619
-0.07619
-0.019048
0.047619
0.085714
0.1619
0.26667
0.40952
0.53333
0.55238
0.5619
0.41905
0.31429
0.26667
0.2
0.12381
0.047619
0.019048
0.066667
0.095238
0.2
0.14286
0.07619
0.066667
-0.038095
-0.10476
-0.13333
-0.12381
-0.11429
-0.13333
-0.066667
-0.12381
-0.45714
-0.74286
-0.85714
-0.78095
-0.57143
-0.32381
-0.17143
-0.11429
-0.13333
-0.21905
-0.26667
-0.24762
-0.13333
-0.15238
-0.27619
-0.40952
-0.44762
-0.51429
-0.41905
-0.25714
-0.12381
-0.095238
-0.1619
-0.21905
-0.26667
-0.20952
-0.18095
-0.038095
-0.038095
0.085714
0.19048
0.28571
0.34286
0.34286
0.30476
0.21905
0.2381
0.2
0.13333
0.038095
0.028571
0.019048
-0.057143
-0.057143
-0.15238
-0.2
-0.31429
-0.35238
-0.42857
-0.42857
-0.32381
-0.20952
-0.1619
-0.11429
-0.11429
-0.066667
-0.10476
0.028571
0.038095
-0.0095238
0
0.11429
0.15238
0.30476
0.37143
0.44762
0.35238
0.18095
-0.0095238
-0.07619
0.038095
0.18095
0.14286
0
-0.18095
-0.095238
-0.019048
-0.0095238
-0.085714
-0.18095
-0.32381
-0.25714
-0.085714
-0.066667
-0.019048
-0.028571
0.10476
0.019048
0.028571
-0.0095238
0.019048
0.085714
0.12381
0.038095
-0.07619
-0.14286
-0.095238
-0.057143
0.028571
0.047619
0.028571
-0.057143
-0.047619
-0.10476
-0.019048
0.066667
0.19048
0.27619
0.1619
0.10476
0.0095238
-0.057143
-0.019048
-0.0095238
-0.047619
-0.07619
-0.047619
-0.13333
-0.2381
-0.31429
-0.35238
-0.26667
-0.1619
-0.095238
-0.066667
-0.13333
-0.1619
-0.057143
-0.17143
-0.30476
-0.37143
-0.32381
-0.32381
-0.27619
-0.2381
-0.27619
-0.2381
-0.26667
-0.2381
-0.21905
-0.29524
-0.30476
-0.20952
-0.18095
-0.028571
0.038095
0.0095238
-0.028571
-0.038095
-0.066667
-0.038095
-0.11429
-0.2
-0.26667
-0.2
-0.28571
-0.28571
-0.26667
-0.21905
-0.2381
-0.24762
-0.17143
-0.15238
-0.13333
-0.095238
0.047619
0.10476
0
-0.066667
-0.25714
-0.30476
-0.33333
-0.33333
-0.21905
-0.28571
-0.19048
-0.20952
-0.2381
-0.26667
-0.21905
-0.095238
0.0095238
0.1619
0.19048
0.13333
0.019048
-0.057143
-0.028571
0.057143
0.085714
0.028571
-0.10476
-0.2
-0.1619
-0.1619
-0.25714
-0.29524
-0.33333
-0.41905
-0.42857
-0.44762
-0.41905
-0.31429
-0.07619
0
-0.0095238
-0.047619
-0.019048
-0.13333
-0.14286
-0.18095
-0.2381
-0.34286
-0.41905
-0.41905
-0.33333
-0.22857
-0.095238
0.019048
-0.085714
-0.057143
-0.11429
-0.15238
-0.095238
-0.0095238
0.07619
0.066667
0.038095
-0.085714
-0.12381
-0.13333
-0.028571
0.019048
-0.07619
-0.057143
-0.15238
-0.20952
-0.24762
-0.2381
-0.2381
-0.24762
-0.22857
-0.22857
-0.19048
-0.07619
0.10476
0.19048
0.14286
0.15238
0.15238
0.15238
0.095238
0.028571
-0.095238
-0.19048
-0.07619
-0.0095238
0.066667
0.0095238
-0.10476
-0.21905
-0.26667
-0.2
-0.17143
-0.19048
-0.1619
-0.14286
-0.12381
0.028571
0.26667
0.39048
0.39048
0.40952
0.35238
0.18095
0.095238
0.038095
0.12381
0.085714
-0.0095238
-0.17143
-0.25714
-0.2
0.038095
0.2381
0.24762
0.21905
0.038095
-0.085714
-0.14286
-0.11429
-0.13333
-0.1619
-0.095238
-0.10476
-0.038095
-0.066667
-0.14286
-0.12381
-0.29524
-0.2
-0.14286
0.047619
0.13333
0.27619
0.19048
0.24762
0.32381
0.3619
0.22857
-0.019048
-0.066667
-0.0095238
0
0.0095238
-0.085714
-0.17143
-0.17143
-0.17143
-0.12381
-0.028571
0.019048
0.019048
-0.12381
-0.21905
-0.20952
-0.28571
-0.25714
-0.15238
-0.047619
0.07619
0.21905
0.2381
0.15238
0.028571
-0.047619
-0.047619
-0.019048
0.18095
0.2381
0.20952
0.14286
0.18095
0.27619
0.2381
0.30476
0.20952
-0.0095238
-0.2381
-0.29524
-0.24762
-0.26667
-0.13333
-0.066667
0.038095
0.13333
0.25714
0.37143
0.39048
0.45714
0.4
0.26667
0
-0.14286
-0.17143
-0.066667
0.11429
0.085714
0.0095238
-0.12381
-0.12381
-0.19048
-0.13333
-0.047619
-0.057143
-0.07619
-0.038095
0.038095
-0.057143
-0.19048
-0.29524
-0.3619
-0.44762
-0.45714
-0.4
-0.48571
-0.55238
-0.5619
-0.45714
-0.40952
-0.4
-0.42857
-0.3619
-0.31429
-0.28571
-0.40952
-0.58095
-0.62857
-0.62857
-0.62857
-0.62857
-0.58095
-0.49524
-0.47619
-0.39048
-0.38095
-0.41905
-0.32381
-0.18095
-0.095238
-0.028571
0.019048
0.14286
0.2
0.26667
0.28571
0.22857
0.095238
0
-0.20952
-0.37143
-0.50476
-0.53333
-0.59048
-0.50476
-0.38095
-0.27619
-0.25714
-0.33333
-0.27619
-0.40952
-0.44762
-0.41905
-0.37143
-0.3619
-0.3619
-0.31429
-0.28571
-0.19048
-0.13333
-0.07619
-0.057143
-0.085714
-0.12381
-0.22857
-0.18095
-0.085714
-0.038095
-0.18095
-0.25714
-0.2
-0.25714
-0.31429
-0.41905
-0.47619
-0.49524
-0.32381
-0.2
-0.066667
-0.0095238
0
0.13333
0.19048
0.31429
0.27619
0.22857
0.26667
0.4381
0.61905
0.54286
0.47619
0.30476
0.2381
0.07619
0
-0.12381
-0.14286
-0.085714
-0.028571
0.019048
0.10476
0.21905
0.30476
0.26667
0.20952
0.038095
-0.0095238
-0.047619
-0.057143
-0.12381
-0.095238
-0.047619
-0.13333
-0.13333
-0.1619
-0.1619
-0.28571
-0.34286
-0.39048
-0.4381
-0.50476
-0.47619
-0.30476
-0.32381
-0.26667
-0.30476
-0.22857
-0.28571
-0.26667
-0.2381
-0.25714
-0.1619
-0.14286
-0.12381
-0.14286
-0.1619
-0.1619
-0.17143
-0.1619
-0.18095
0.047619
0.20952
0.44762
0.58095
0.51429
0.46667
0.4
0.40952
0.33333
0.30476
0.24762
0.25714
0.25714
0.29524
0.27619
0.26667
0.4381
0.55238
0.6
0.59048
0.65714
0.67619
0.69524
0.66667
0.70476
0.74286
0.69524
0.78095
0.71429
0.7619
0.7619
0.71429
0.66667
0.68571
0.81905
0.82857
0.81905
0.70476
0.55238
0.32381
0.18095
0.057143
-0.028571
0.019048
0.14286
0.34286
0.38095
0.3619
0.3619
0.26667
0.32381
0.4
0.6
0.74286
0.79048
0.75238
0.73333
0.75238
0.79048
0.67619
0.58095
0.58095
0.71429
0.60952
0.54286
0.49524
0.45714
0.44762
0.50476
0.6
0.5619
0.49524
0.35238
0.31429
0.32381
0.42857
0.35238
0.18095
0.047619
0.066667
0.24762
0.31429
0.38095
0.30476
0.29524
0.21905
0.26667
0.2381
0.20952
0.17143
0.085714
-0.019048
-0.085714
-0.057143
-0.10476
-0.07619
0.085714
0.12381
0.11429
0.028571
-0.12381
-0.095238
0.0095238
0.1619
0.21905
0.12381
0.0095238
-0.057143
-0.31429
-0.47619
-0.44762
-0.33333
-0.21905
-0.2
-0.20952
-0.30476
-0.28571
-0.27619
-0.15238
-0.085714
-0.047619
-0.10476
-0.12381
-0.22857
-0.11429
0.0095238
-0.028571
-0.085714
-0.29524
-0.46667
-0.46667
-0.35238
-0.37143
-0.57143
-0.67619
-0.65714
-0.54286
-0.47619
-0.40952
-0.31429
-0.24762
-0.15238
-0.26667
-0.35238
-0.3619
-0.21905
-0.19048
-0.25714
-0.20952
-0.12381
-0.066667
0.028571
0.047619
0.028571
0.047619
0.019048
0.028571
0.047619
-0.019048
0.085714
0.13333
0.1619
0.15238
0.057143
-0.038095
-0.07619
-0.066667
-0.07619
-0.066667
-0.066667
-0.095238
-0.1619
-0.25714
-0.3619
-0.42857
-0.41905
-0.3619
-0.24762
-0.17143
-0.11429
-0.07619
0.028571
0.13333
0.19048
0.13333
0.047619
0.047619
0.066667
0.11429
0.0095238
0.07619
0.066667
0.0095238
-0.038095
-0.20952
-0.34286
-0.31429
-0.15238
0.019048
0.13333
0.19048
0.10476
0.07619
0.057143
0.14286
0.095238
-0.047619
-0.17143
-0.20952
-0.095238
0.047619
0.27619
0.32381
0.34286
0.3619
0.45714
0.46667
0.4381
0.37143
0.30476
0.19048
0.028571
-0.12381
-0.34286
-0.35238
-0.28571
-0.22857
-0.095238
0.07619
0.21905
0.14286
0.019048
-0.019048
-0.038095
0.057143
0.066667
0.057143
0.057143
0.028571
0.11429
0.057143
0.019048
0.057143
-0.038095
-0.019048
-0.057143
-0.047619
-0.11429
-0.22857
-0.32381
-0.34286
-0.41905
-0.55238
-0.67619
-0.81905
-0.82857
-0.68571
-0.51429
-0.47619
-0.4381
-0.48571
-0.52381
-0.55238
-0.50476
-0.51429
-0.46667
-0.42857
-0.39048
-0.33333
-0.26667
0.028571
0.15238
0.20952
0.18095
0.085714
0.028571
0.0095238
0.12381
0.17143
0.24762
0.2381
0.12381
0.066667
0.038095
0.18095
0.2
0.21905
0.18095
0.15238
0.10476
0.19048
0.3619
0.24762
0.13333
0.12381
0.20952
0.34286
0.34286
0.38095
0.39048
0.4
0.3619
0.22857
0.22857
0.30476
0.33333
0.28571
0.17143
0.1619
0.1619
0.14286
0.14286
0.25714
0.3619
0.41905
0.50476
0.45714
0.34286
0.26667
0.14286
0.07619
0.038095
0.17143
0.22857
0.17143
0.085714
-0.095238
-0.13333
-0.085714
0.047619
0.085714
0.057143
0.10476
0.1619
0.19048
0.2381
0.25714
0.2
0.14286
0.057143
0.0095238
-0.13333
-0.28571
-0.40952
-0.4381
-0.3619
-0.21905
-0.14286
-0.1619
-0.19048
-0.28571
-0.42857
-0.46667
-0.37143
-0.19048
-0.057143
0.019048
-0.019048
-0.2
-0.24762
-0.28571
-0.31429
-0.30476
-0.2
-0.13333
-0.085714
-0.1619
-0.2
-0.13333
-0.18095
-0.25714
-0.32381
-0.44762
-0.51429
-0.50476
-0.54286
-0.58095
-0.6
-0.54286
-0.52381
-0.55238
-0.46667
-0.45714
-0.41905
-0.39048
-0.47619
-0.46667
-0.40952
-0.29524
-0.26667
-0.34286
-0.3619
-0.40952
-0.32381
-0.22857
-0.18095
-0.30476
-0.34286
-0.33333
-0.20952
-0.12381
-0.085714
-0.1619
-0.30476
-0.44762
-0.45714
-0.53333
-0.57143
-0.61905
-0.54286
-0.57143
-0.49524
-0.45714
-0.25714
-0.1619
-0.2381
-0.32381
-0.46667
-0.4
-0.1619
0.057143
0.12381
0.07619
0.047619
0.028571
-0.028571
-0.095238
-0.12381
-0.17143
-0.095238
-0.11429
-0.17143
-0.14286
-0.066667
0.019048
-0.13333
-0.24762
-0.28571
-0.31429
-0.31429
-0.30476
-0.38095
-0.57143
-0.70476
-0.86667
-1
-0.99048
-0.90476
-0.77143
-0.64762
-0.51429
-0.51429
-0.55238
-0.73333
-0.7619
-0.8
-0.64762
-0.4381
-0.2381
-0.085714
-0.028571
0
-0.038095
-0.066667
-0.11429
-0.18095
-0.31429
-0.39048
-0.38095
-0.46667
-0.37143
-0.19048
0.038095
0.019048
-0.019048
0.028571
0.07619
0.21905
0.29524
0.31429
0.31429
0.28571
0.22857
0.1619
0.15238
0.20952
0.22857
0.18095
0.07619
0.047619
0
0.0095238
-0.038095
-0.11429
-0.24762
-0.32381
-0.18095
-0.047619
0.15238
0.29524
0.38095
0.3619
0.4381
0.46667
0.46667
0.40952
0.29524
0.21905
0.095238
0.24762
0.32381
0.34286
0.21905
0.066667
0.019048
0.047619
0.13333
0.10476
0.019048
-0.028571
-0.028571
-0.028571
-0.038095
0.057143
0.19048
0.21905
0.2
0.25714
0.30476
0.41905
0.54286
0.5619
0.5619
0.42857
0.28571
-0.0095238
-0.085714
0.028571
0.24762
0.4381
0.39048
0.1619
-0.019048
-0.07619
-0.07619
-0.0095238
-0.0095238
0.14286
0.3619
0.4381
0.42857
0.34286
0.21905
0.07619
-0.038095
-0.085714
-0.10476
0.019048
0.13333
0.22857
0.11429
0.095238
0.11429
0.07619
0.12381
0.13333
0.27619
0.40952
0.52381
0.55238
0.46667
0.35238
0.30476
0.19048
0.1619
0.2
0.15238
0.057143
-0.047619
-0.095238
-0.11429
-0.085714
-0.019048
0.0095238
0.066667
0.11429
0.24762
0.20952
0.13333
0.019048
-0.085714
-0.11429
-0.085714
0.038095
0.13333
0.25714
0.4
0.4
0.2
-0.07619
-0.10476
-0.14286
-0.047619
-0.085714
-0.14286
-0.24762
-0.31429
-0.47619
-0.6
-0.50476
-0.34286
-0.13333
-0.17143
-0.14286
-0.2
-0.29524
-0.34286
-0.37143
-0.32381
-0.29524
-0.15238
0.019048
0.15238
0.20952
0.29524
0.4381
0.44762
0.44762
0.31429
0.057143
-0.019048
0.019048
-0.047619
-0.095238
-0.15238
-0.10476
-0.085714
-0.13333
-0.21905
-0.24762
-0.25714
-0.17143
-0.1619
-0.22857
-0.27619
-0.29524
-0.2381
-0.27619
-0.13333
-0.095238
-0.057143
-0.12381
-0.057143
-0.038095
0.028571
0.057143
0.07619
0.019048
0.0095238
0.095238
0.057143
0.028571
-0.019048
-0.028571
-0.07619
-0.10476
-0.085714
-0.2381
-0.30476
-0.33333
-0.21905
-0.13333
-0.07619
0.066667
0.019048
0.066667
0.085714
0.07619
0.038095
-0.019048
-0.066667
-0.07619
-0.047619
0.066667
0.085714
0.038095
0.085714
0.10476
0.2
0.10476
-0.019048
-0.19048
-0.18095
-0.18095
-0.12381
-0.085714
-0.085714
0.10476
0.14286
0.0095238
0.0095238
-0.07619
0
-0.0095238
0.07619
0.07619
0
0.07619
0.07619
0.095238
-0.047619
-0.15238
-0.2
-0.19048
-0.20952
-0.18095
-0.21905
-0.19048
-0.019048
0.047619
0.18095
0.2
0.14286
0.019048
-0.0095238
-0.028571
-0.18095
-0.39048
-0.5619
-0.58095
-0.57143
-0.37143
-0.21905
-0.18095
-0.22857
-0.30476
-0.37143
-0.27619
-0.18095
-0.0095238
0.019048
-0.0095238
0.07619
0.10476
0.095238
0.038095
-0.066667
-0.21905
-0.3619
-0.39048
-0.4
-0.41905
-0.4
-0.47619
-0.40952
-0.33333
-0.18095
-0.07619
-0.15238
-0.22857
-0.35238
-0.3619
-0.24762
-0.15238
-0.20952
-0.24762
-0.32381
-0.27619
-0.27619
-0.19048
-0.11429
-0.066667
-0.057143
0.085714
0.13333
0.20952
0.1619
0.20952
0.12381
0.13333
0.17143
0.14286
0.18095
0.10476
0.17143
0.11429
0.10476
0.047619
0.07619
0.019048
-0.10476
-0.15238
-0.27619
-0.18095
-0.12381
-0.18095
-0.42857
-0.57143
-0.5619
-0.61905
-0.60952
-0.6
-0.60952
-0.6
-0.64762
-0.70476
-0.72381
-0.67619
-0.54286
-0.38095
-0.29524
-0.12381
0.066667
0.13333
0.29524
0.31429
0.31429
0.35238
0.4
0.41905
0.33333
0.2
0.25714
0.24762
0.25714
0.28571
0.21905
0.12381
0.028571
0.066667
0.18095
0.25714
0.30476
0.34286
0.34286
0.3619
0.35238
0.22857
0.11429
0.12381
0.15238
0.17143
0.13333
0.066667
-0.085714
-0.18095
-0.21905
-0.24762
-0.33333
-0.42857
-0.39048
-0.37143
-0.31429
-0.35238
-0.3619
-0.39048
-0.44762
-0.50476
-0.65714
-0.6
-0.54286
-0.39048
-0.41905
-0.31429
-0.19048
-0.095238
-0.12381
-0.30476
-0.50476
-0.73333
-0.74286
-0.61905
-0.4381
-0.21905
-0.038095
0.047619
-0.057143
-0.11429
-0.34286
-0.46667
-0.44762
-0.27619
0.0095238
0.10476
0.10476
-0.057143
-0.17143
-0.2
-0.17143
-0.15238
-0.1619
-0.028571
0.095238
0.15238
0.019048
-0.07619
-0.21905
-0.31429
-0.21905
-0.24762
-0.14286
-0.13333
-0.019048
-0.019048
-0.12381
-0.085714
-0.085714
-0.11429
-0.10476
-0.19048
-0.30476
-0.38095
-0.54286
-0.55238
-0.6
-0.51429
-0.38095
-0.42857
-0.4
-0.30476
-0.17143
-0.07619
-0.047619
-0.085714
-0.27619
-0.4
-0.42857
-0.34286
-0.27619
-0.17143
-0.095238
-0.066667
-0.085714
-0.11429
-0.14286
-0.11429
0.095238
0.25714
0.34286
0.29524
0.26667
0.32381
0.28571
0.38095
0.3619
0.28571
0.25714
0.12381
0.14286
0.019048
0.057143
0.019048
0.066667
0.10476
0.1619
0.13333
-0.0095238
-0.066667
-0.14286
-0.26667
-0.29524
-0.2
-0.12381
0.0095238
0.019048
-0.047619
-0.11429
-0.019048
0.20952
0.29524
0.29524
0.2381
0.22857
0.26667
0.3619
0.42857
0.35238
0.25714
0.2
0.12381
0.13333
0.18095
0.32381
0.4
0.49524
0.6
0.62857
0.55238
0.4
0.28571
0.038095
-0.095238
-0.085714
-0.1619
-0.21905
-0.27619
-0.12381
0.07619
0.21905
0.29524
0.22857
0.15238
0.07619
-0.0095238
-0.1619
-0.14286
-0.07619
0.038095
-0.028571
0.0095238
0.0095238
0.11429
0.13333
0.066667
0
-0.07619
0.038095
0
-0.095238
-0.13333
-0.057143
0.1619
0.21905
0.27619
0.27619
0.27619
0.39048
0.41905
0.41905
0.35238
0.32381
0.25714
0.17143
0.047619
0.07619
-0.0095238
-0.047619
-0.028571
0
-0.057143
-0.07619
-0.028571
0.057143
0.30476
0.37143
0.35238
0.2
0.10476
0.17143
0.15238
0.22857
0.28571
0.38095
0.3619
0.20952
0.085714
-0.038095
0.038095
0.15238
0.24762
0.19048
0.095238
-0.07619
-0.1619
-0.066667
0.20952
0.42857
0.42857
0.38095
0.24762
0.2381
0.20952
0.24762
0.22857
0.066667
0.085714
0.0095238
-0.0095238
-0.13333
-0.07619
-0.028571
0.066667
0.22857
0.22857
0.19048
0.11429
0.10476
0.07619
0.07619
0.18095
0.29524
0.38095
0.41905
0.4381
0.32381
0.29524
0.26667
0.26667
0.26667
0.11429
0.057143
-0.047619
-0.057143
-0.066667
-0.18095
-0.28571
-0.4381
-0.40952
-0.46667
-0.4
-0.41905
-0.26667
-0.30476
-0.22857
-0.19048
-0.13333
-0.028571
0.11429
0.12381
0
-0.0095238
-0.019048
-0.095238
-0.13333
-0.11429
-0.019048
-0.0095238
0
-0.11429
-0.11429
-0.028571
-0.085714
-0.19048
-0.4
-0.45714
-0.47619
-0.47619
-0.41905
-0.39048
-0.38095
-0.38095
-0.3619
-0.29524
-0.32381
-0.40952
-0.52381
-0.57143
-0.49524
-0.32381
-0.19048
-0.24762
-0.21905
-0.13333
-0.07619
-0.0095238
0.028571
0.10476
0.057143
0
-0.028571
-0.12381
-0.11429
-0.10476
-0.057143
-0.0095238
0
-0.038095
-0.12381
-0.057143
-0.028571
-0.12381
-0.26667
-0.32381
-0.12381
-0.0095238
0.17143
0.31429
0.34286
0.17143
-0.019048
-0.13333
-0.15238
-0.10476
-0.066667
-0.095238
-0.18095
-0.2381
-0.24762
-0.2381
-0.24762
-0.10476
0.038095
0.095238
0.15238
0.15238
0.057143
-0.07619
-0.1619
-0.11429
0.095238
0.30476
0.30476
0.2
0.057143
0.047619
0
-0.047619
0.12381
0.20952
0.18095
0.047619
0.019048
0.028571
0.10476
0.24762
0.29524
0.20952
0.11429
0.10476
0.12381
0.07619
0
-0.095238
-0.085714
-0.0095238
0.17143
0.1619
0.13333
0.12381
0.085714
0.085714
0.066667
0.11429
0.019048
-0.038095
-0.1619
-0.28571
-0.35238
-0.30476
-0.18095
-0.13333
-0.1619
-0.17143
-0.10476
-0.15238
-0.038095
-0.0095238
-0.13333
-0.27619
-0.37143
-0.40952
-0.4381
-0.51429
-0.54286
-0.51429
-0.4
-0.24762
-0.14286
-0.095238
-0.019048
0.066667
0.25714
0.44762
0.54286
0.53333
0.41905
0.47619
0.44762
0.39048
0.34286
0.34286
0.31429
0.1619
0.047619
-0.085714
-0.18095
-0.17143
-0.11429
-0.2
-0.22857
-0.30476
-0.27619
-0.21905
-0.10476
-0.047619
0
0.028571
0.07619
-0.019048
-0.18095
-0.18095
-0.11429
-0.038095
0.095238
0.22857
0.24762
0.20952
0.17143
0.17143
0.085714
0.0095238
-0.028571
-0.085714
-0.17143
-0.15238
-0.13333
-0.019048
0.0095238
0.085714
0.10476
0.07619
0.085714
0.085714
0.085714
0.20952
0.28571
0.33333
0.34286
0.4381
0.49524
0.47619
0.54286
0.67619
0.8381
0.81905
0.6381
0.39048
0.22857
0.12381
0.18095
0.13333
0.11429
0.12381
0.047619
-0.12381
-0.22857
-0.17143
-0.085714
-0.12381
-0.2
-0.42857
-0.67619
-0.89524
-0.92381
-0.86667
-0.78095
-0.70476
-0.62857
-0.60952
-0.57143
-0.59048
-0.58095
-0.57143
-0.48571
-0.42857
-0.4
-0.4381
-0.4
-0.48571
-0.45714
-0.26667
-0.12381
-0.057143
-0.057143
0.12381
0.20952
0.24762
0.20952
0.14286
0
-0.0095238
-0.0095238
0.047619
0.14286
0.13333
0.14286
0.085714
0.10476
0.038095
0.028571
0.047619
0.14286
0.1619
0.20952
0.17143
0.2381
0.2381
0.2381
0.32381
0.34286
0.20952
0.14286
0.085714
0.19048
0.26667
0.25714
0.10476
0.0095238
0.07619
0.085714
0.19048
0.15238
0.17143
0.11429
-0.0095238
-0.019048
0.085714
0.24762
0.40952
0.50476
0.38095
0.30476
0.32381
0.39048
0.40952
0.35238
0.39048
0.32381
0.32381
0.46667
0.50476
0.51429
0.41905
0.41905
0.41905
0.46667
0.50476
0.38095
0.25714
0.24762
0.10476
0.066667
-0.085714
0
-0.0095238
0
0.0095238
0.047619
0.019048
0.085714
0.17143
0.29524
0.17143
-0.10476
-0.34286
-0.5619
-0.5619
-0.52381
-0.45714
-0.47619
-0.47619
-0.62857
-0.60952
-0.51429
-0.26667
-0.057143
-0.028571
-0.038095
-0.2
-0.34286
-0.49524
-0.51429
-0.52381
-0.53333
-0.48571
-0.44762
-0.38095
-0.24762
-0.057143
-0.047619
-0.11429
-0.2381
-0.34286
-0.41905
-0.58095
-0.67619
-0.79048
-0.75238
-0.70476
-0.73333
-0.70476
-0.70476
-0.59048
-0.50476
-0.46667
-0.38095
-0.44762
-0.54286
-0.58095
-0.54286
-0.6
-0.55238
-0.47619
-0.35238
-0.3619
-0.4
-0.46667
-0.6381
-0.71429
-0.71429
-0.6381
-0.47619
-0.28571
-0.2
-0.31429
-0.55238
-0.65714
-0.7619
-0.72381
-0.66667
-0.60952
-0.65714
-0.69524
-0.75238
-0.67619
-0.61905
-0.53333
-0.61905
-0.59048
-0.61905
-0.38095
-0.22857
-0.066667
0.085714
0.066667
0.066667
0.0095238
0.085714
0.15238
0.13333
0.10476
0.0095238
0.038095
0.14286
0.42857
0.59048
0.62857
0.68571
0.68571
0.68571
0.60952
0.51429
0.27619
0.1619
-0.019048
-0.047619
-0.12381
-0.21905
-0.12381
-0.11429
0.019048
0.15238
0.17143
0.21905
0.29524
0.4381
0.45714
0.45714
0.53333
0.68571
0.62857
0.61905
0.45714
0.25714
0.038095
-0.12381
-0.2
-0.27619
-0.25714
-0.30476
-0.4
-0.31429
-0.20952
-0.15238
-0.22857
-0.28571
-0.3619
-0.31429
-0.2381
-0.07619
-0.019048
-0.028571
0.019048
-0.0095238
0.028571
-0.038095
0.028571
-0.019048
-0.07619
-0.2
-0.32381
-0.46667
-0.48571
-0.48571
-0.5619
-0.58095
-0.58095
-0.54286
-0.59048
-0.68571
-0.77143
-0.88571
-0.90476
-0.82857
-0.86667
-0.8
-0.87619
-0.84762
-0.88571
-0.8
-0.62857
-0.45714
-0.37143
-0.41905
-0.40952
-0.46667
-0.42857
-0.41905
-0.46667
-0.60952
-0.67619
-0.55238
-0.47619
-0.25714
-0.1619
-0.019048
0.047619
0.19048
0.2
-0.047619
-0.20952
-0.19048
-0.038095
0.019048
-0.07619
-0.27619
-0.4381
-0.42857
-0.32381
-0.29524
-0.35238
-0.42857
-0.46667
-0.41905
-0.22857
-0.13333
-0.038095
-0.11429
-0.095238
-0.085714
-0.038095
0
0.14286
0.25714
0.31429
0.2381
0.07619
-0.085714
-0.095238
0.07619
0.24762
0.39048
0.42857
0.29524
0.14286
0.066667
0.1619
0.27619
0.33333
0.31429
0.40952
0.48571
0.58095
0.58095
0.45714
0.38095
0.39048
0.41905
0.50476
0.6
0.7619
0.77143
0.90476
0.99048
1
0.88571
0.79048
0.66667
0.51429
0.24762
0.11429
0.047619
0.047619
0.095238
0.11429
0.057143
0.019048
0.057143
0.15238
0.18095
0.37143
0.41905
0.39048
0.29524
0.15238
0.10476
0.085714
0.085714
0.07619
0.19048
0.28571
0.4
0.39048
0.27619
0.19048
0.057143
-0.066667
-0.07619
0
0.15238
0.2
0.24762
0.17143
0.07619
-0.085714
0.028571
0.15238
0.40952
0.6
0.52381
0.40952
0.2381
0.20952
0.14286
0.14286
0.066667
0.019048
-0.019048
0.028571
0.19048
0.12381
0.038095
-0.085714
-0.12381
-0.17143
-0.13333
-0.038095
0.038095
0.10476
0.095238
0.13333
0.19048
0.31429
0.42857
0.44762
0.4381
0.47619
0.44762
0.48571
0.49524
0.44762
0.37143
0.25714
0.19048
0.085714
-0.019048
0.019048
-0.019048
0.0095238
0.047619
0.19048
0.31429
0.22857
0.20952
0.13333
0.26667
0.46667
0.61905
0.47619
0.27619
0.11429
0.066667
0.047619
0.019048
0.12381
0.15238
0.2
0.2381
0.37143
0.48571
0.47619
0.46667
0.33333
0.32381
0.40952
0.3619
0.21905
0.10476
0.2
0.26667
0.29524
0.25714
0.20952
0.12381
0.047619
-0.028571
-0.24762
-0.31429
-0.2381
-0.13333
0
0.11429
0.18095
0.18095
0.19048
0.19048
0.19048
0.17143
0.28571
0.41905
0.45714
0.44762
0.39048
0.29524
0.21905
0.28571
0.34286
0.40952
0.40952
0.34286
0.22857
0.019048
-0.11429
-0.20952
-0.30476
-0.31429
-0.29524
-0.11429
0.019048
0.21905
0.30476
0.31429
0.2381
0.20952
0.10476
0.057143
0.13333
0.1619
0.24762
0.2381
0.29524
0.21905
0.12381
0.038095
0.019048
0.047619
0.0095238
-0.10476
-0.37143
-0.5619
-0.67619
-0.68571
-0.53333
-0.38095
-0.24762
-0.19048
-0.0095238
0.19048
0.32381
0.25714
0.085714
-0.028571
-0.1619
-0.19048
-0.22857
-0.13333
-0.019048
0.066667
0.1619
0.028571
-0.038095
0
0.047619
0.0095238
-0.057143
-0.085714
-0.066667
-0.066667
-0.028571
0.028571
0.047619
0.066667
0.085714
0.1619
0.3619
0.50476
0.52381
0.30476
0.22857
0.07619
0.028571
0.047619
0.10476
0.14286
0.12381
0.17143
0.11429
0.12381
0.066667
0.15238
0.11429
-0.047619
-0.24762
-0.38095
-0.40952
-0.32381
-0.26667
-0.21905
-0.2
-0.057143
0.07619
0.10476
0.057143
0.028571
-0.038095
-0.038095
-0.038095
-0.038095
-0.047619
0.028571
0.20952
0.25714
0.35238
0.38095
0.37143
0.28571
0.14286
0.1619
0.066667
0.066667
0.095238
0.047619
-0.085714
-0.17143
-0.24762
-0.19048
-0.1619
-0.066667
-0.13333
-0.24762
-0.31429
-0.3619
-0.4
-0.38095
-0.39048
-0.37143
-0.45714
-0.40952
-0.39048
-0.28571
-0.2
-0.085714
-0.0095238
-0.10476
-0.1619
-0.30476
-0.4381
-0.40952
-0.37143
-0.21905
-0.21905
-0.13333
-0.24762
-0.30476
-0.4
-0.33333
-0.26667
-0.31429
-0.30476
-0.39048
-0.4381
-0.47619
-0.52381
-0.57143
-0.59048
-0.49524
-0.45714
-0.047619
