-0.076305
-0.028112
-0.012048
-0.092369
-0.20482
-0.27711
-0.20482
-0.1245
0.0040161
0.14056
0.14056
0.18072
-0.028112
-0.18876
-0.44578
-0.58233
-0.71888
-0.69478
-0.59839
-0.51004
-0.34137
-0.20482
-0.14859
-0.092369
0.084337
0.26104
0.39759
0.51004
0.62249
0.5502
0.42169
0.15663
-0.028112
-0.11647
-0.14859
-0.052209
-0.012048
0.14859
0.29317
0.31727
0.19679
0.02008
-0.036145
-0.10843
-0.14859
-0.14056
-0.044177
0.1004
0.28514
0.47791
0.55823
0.63855
0.72691
0.83133
0.83133
0.94378
0.91165
0.79116
0.67871
0.53414
0.48594
0.40562
0.3494
0.3012
0.20482
0.052209
-0.012048
-0.084337
-0.028112
0.1245
0.22892
0.25301
0.19679
0.14859
0.076305
0.060241
0.20482
0.3012
0.46185
0.63855
0.73494
0.69478
0.53414
0.43775
0.35743
0.34137
0.28514
0.36546
0.34137
0.38153
0.39759
0.39759
0.33333
0.33333
0.30924
0.14859
-0.02008
-0.012048
0.052209
0.30924
0.5502
0.68675
0.66265
0.5502
0.46185
0.5261
0.42972
0.44578
0.45382
0.36546
0.42972
0.36546
0.38956
0.35743
0.30924
0.29317
0.14056
0.036145
0.012048
-0.02008
0.012048
0.02008
0.068273
0.012048
0.02008
0.076305
0.1004
0.1004
0.13253
0.1004
-0.02008
-0.052209
0.036145
0.17269
0.27711
0.33333
0.23695
0.31727
0.36546
0.47791
0.53414
0.51004
0.49398
0.44578
0.42972
0.42972
0.54217
0.44578
0.33333
0.22088
0.15663
0.092369
0.052209
0.044177
-0.012048
-0.0040161
0.084337
0.17269
0.3012
0.39759
0.48594
0.36546
0.13253
-0.044177
-0.084337
-0.1245
-0.16466
-0.25301
-0.46185
-0.46185
-0.39759
-0.22088
-0.068273
0.14056
0.31727
0.39759
0.36546
0.20482
-0.036145
-0.29317
-0.3494
-0.31727
-0.22088
-0.17269
-0.068273
0.02008
0.1004
0.26104
0.40562
0.49398
0.54217
0.59036
0.53414
0.36546
0.21285
0.084337
0.036145
0.076305
0.31727
0.38153
0.53414
0.55823
0.5743
0.54217
0.50201
0.56627
0.53414
0.51004
0.53414
0.54217
0.55823
0.48594
0.51004
0.40562
0.42972
0.50201
0.61446
0.66265
0.68675
0.63855
0.59036
0.56627
0.55823
0.58233
0.51807
0.42169
0.36546
0.20482
0.22088
0.26908
0.36546
0.42169
0.46988
0.45382
0.29317
0.25301
0.18876
0.11647
0.028112
-0.028112
0.0040161
0.044177
0.076305
0.11647
0.14056
0.084337
0.18072
0.15663
0.060241
-0.028112
-0.036145
0.028112
-0.036145
-0.092369
-0.18072
-0.19679
-0.19679
-0.11647
-0.11647
-0.18876
-0.18876
-0.21285
-0.25301
-0.33333
-0.3253
-0.26104
-0.15663
-0.076305
-0.1245
-0.14859
-0.20482
-0.18876
-0.22088
-0.19679
-0.13253
-0.1245
-0.17269
-0.15663
-0.10843
-0.16466
-0.20482
-0.18876
-0.10843
-0.028112
0.10843
0.14056
0.052209
-0.036145
-0.13253
-0.1245
-0.10843
-0.052209
0.076305
0.10843
0.060241
-0.012048
-0.19679
-0.30924
-0.28514
-0.19679
-0.18072
-0.26104
-0.23695
-0.18072
-0.092369
0.068273
0.092369
0.060241
-0.044177
-0.084337
0.028112
0.1004
0.3253
0.37349
0.42972
0.35743
0.41365
0.39759
0.3012
0.18876
0.028112
-0.076305
-0.11647
-0.084337
-0.10843
-0.18876
-0.24498
-0.25301
-0.16466
-0.028112
0.18876
0.14859
0.076305
0.10843
0.1004
0.13253
0.044177
0.02008
-0.012048
0.052209
0.11647
0.18876
0.13253
0.068273
0.044177
0.084337
0.19679
0.36546
0.31727
0.18876
-0.084337
-0.25301
-0.41365
-0.45382
-0.46185
-0.39759
-0.3494
-0.25301
-0.19679
-0.19679
-0.10843
0.012048
0.092369
0.012048
-0.10843
-0.26104
-0.35743
-0.34137
-0.26104
-0.11647
-0.084337
0.028112
0.028112
-0.02008
-0.18876
-0.34137
-0.46185
-0.47791
-0.19679
0.076305
0.23695
0.14056
-0.044177
-0.18876
-0.28514
-0.1004
0.012048
0.068273
0.084337
0.044177
-0.052209
-0.15663
-0.18072
-0.21285
-0.18072
-0.27711
-0.26104
-0.27711
-0.18072
0.02008
0.23695
0.3494
0.40562
0.42972
0.35743
0.33333
0.30924
0.27711
0.22892
0.19679
0.02008
-0.27711
-0.46185
-0.35743
-0.1004
0.22892
0.46988
0.59036
0.37349
0.13253
-0.02008
-0.092369
-0.036145
0.036145
0.10843
0.14056
0.18072
0.17269
0.22892
0.20482
0.25301
0.16466
0.060241
-0.012048
0.076305
0.15663
0.18876
0.15663
0.012048
-0.1245
-0.19679
-0.11647
0.036145
0.13253
0.19679
0.15663
0.036145
-0.17269
-0.21285
-0.31727
-0.25301
-0.18072
-0.092369
-0.1004
0.028112
0.15663
0.26104
0.30924
0.25301
0.15663
-0.036145
-0.20482
-0.21285
-0.20482
-0.02008
0.084337
0.060241
-0.060241
-0.21285
-0.16466
-0.1004
0.0040161
0.15663
0.27711
0.38153
0.42972
0.45382
0.45382
0.47791
0.53414
0.54217
0.37349
0.26104
0.15663
0.1004
0.012048
-0.060241
-0.1004
-0.18072
-0.17269
-0.14859
-0.13253
-0.036145
0.044177
0.060241
-0.060241
-0.10843
-0.26908
-0.25301
-0.29317
-0.15663
-0.11647
-0.092369
0.060241
0.14859
0.076305
-0.14056
-0.30924
-0.50201
-0.49398
-0.38153
-0.19679
-0.1245
-0.084337
-0.036145
-0.0040161
0.036145
0.092369
-0.012048
-0.15663
-0.3012
-0.31727
-0.3253
-0.23695
-0.19679
-0.11647
-0.1245
-0.1245
-0.1245
-0.14859
-0.11647
-0.11647
-0.084337
-0.19679
-0.23695
-0.3253
-0.41365
-0.45382
-0.42972
-0.39759
-0.47791
-0.40562
-0.23695
0.036145
0.24498
0.39759
0.35743
0.15663
0.044177
-0.092369
-0.17269
-0.17269
-0.028112
0.18876
0.42169
0.63052
0.64659
0.61446
0.53414
0.58233
0.61446
0.66265
0.751
0.70281
0.59839
0.38956
0.22088
0.0040161
-0.13253
-0.10843
-0.1245
-0.076305
-0.060241
0.084337
0.052209
0.060241
0.060241
0.084337
0.060241
-0.028112
-0.15663
-0.38153
-0.49398
-0.58233
-0.58233
-0.51807
-0.38956
-0.18876
-0.18876
-0.30924
-0.45382
-0.54217
-0.50201
-0.40562
-0.15663
-0.1004
-0.044177
-0.17269
-0.27711
-0.42972
-0.34137
-0.26104
-0.26104
-0.3253
-0.37349
-0.3494
-0.30924
-0.30924
-0.38956
-0.42972
-0.49398
-0.23695
0.028112
0.23695
0.29317
-0.036145
-0.38956
-0.61446
-0.61446
-0.54217
-0.42972
-0.38956
-0.42972
-0.44578
-0.46988
-0.31727
-0.22088
-0.14056
-0.02008
0.060241
0.076305
-0.068273
-0.20482
-0.42972
-0.42169
-0.38956
-0.26104
-0.37349
-0.3253
-0.22892
-0.092369
-0.02008
0.028112
0.044177
0.076305
0.092369
0.18072
0.11647
0.1004
0.060241
-0.028112
-0.11647
-0.13253
-0.18876
-0.26104
-0.21285
0.0040161
0.19679
0.33333
0.3253
0.23695
0.076305
-0.02008
-0.068273
-0.028112
-0.092369
0.02008
0.1004
0.11647
0.10843
0.1245
0.14859
0.076305
0.084337
-0.060241
-0.092369
-0.1004
0.076305
0.3012
0.38153
0.36546
0.26908
0.1004
0.076305
0.092369
0.22088
0.3494
0.51004
0.51004
0.46988
0.38153
0.35743
0.14056
-0.012048
-0.052209
-0.02008
-0.036145
-0.084337
-0.012048
0.028112
0.15663
0.22088
0.18876
0.036145
-0.10843
-0.25301
-0.36546
-0.38153
-0.3494
-0.3012
-0.19679
-0.068273
0.052209
0.044177
0.036145
0.036145
-0.012048
-0.076305
-0.17269
-0.19679
-0.36546
-0.49398
-0.54217
-0.48594
-0.27711
0.036145
0.36546
0.5743
0.69478
0.70281
0.50201
0.22088
-0.036145
-0.19679
-0.33333
-0.38153
-0.27711
-0.11647
0.028112
0.22892
0.24498
0.1245
-0.084337
-0.22892
-0.38956
-0.55823
-0.63855
-0.66265
-0.51004
-0.30924
-0.10843
0.13253
0.3012
0.43775
0.30924
0.1004
-0.060241
-0.02008
-0.15663
-0.3012
-0.33333
-0.30924
-0.18876
-0.14056
-0.036145
0.0040161
0.22892
0.47791
0.56627
0.55823
0.47791
0.3494
0.1245
-0.10843
-0.28514
-0.26908
-0.27711
-0.18072
-0.028112
0.17269
0.39759
0.60643
0.69478
0.64659
0.63855
0.51807
0.26908
-0.028112
-0.26104
-0.36546
-0.27711
-0.1245
0.044177
0.1245
0.23695
0.47791
0.68675
0.7992
0.81526
0.64659
0.42169
0.22088
0.1004
0.052209
-0.02008
0.028112
0.060241
0.1004
0.14056
0.14859
0.15663
0.1245
0.22088
0.23695
0.25301
0.18876
0.20482
0.23695
0.42972
0.5743
0.65462
0.56627
0.46185
0.50201
0.49398
0.68675
0.7992
0.82329
0.73494
0.65462
0.55823
0.47791
0.39759
0.46185
0.55823
0.66265
0.75904
0.82329
0.80723
0.78313
0.66265
0.53414
0.3494
0.29317
0.23695
0.22088
0.20482
0.25301
0.28514
0.20482
0.10843
0.052209
0.060241
0.076305
0.21285
0.27711
0.29317
0.26908
0.17269
0.084337
0.092369
0.18876
0.31727
0.34137
0.41365
0.27711
0.14056
0.060241
0.14859
0.23695
0.3012
0.3253
0.29317
0.21285
0.068273
-0.068273
-0.14056
-0.14859
-0.0040161
0.1004
0.14056
0.084337
0.052209
-0.068273
0.0040161
0.1004
0.19679
0.21285
0.15663
0.16466
0.044177
-0.02008
0.052209
0.10843
0.11647
0.11647
0.18072
0.30924
0.44578
0.5502
0.59839
0.40562
0.38153
0.23695
0.18072
0.13253
0.1004
0.036145
-0.076305
-0.14859
-0.18876
-0.22088
-0.15663
-0.028112
0.076305
0.1245
0.14859
0.13253
0.092369
0.14056
0.18876
0.18876
0.16466
0.18072
0.17269
0.17269
0.036145
0.1004
0.14056
0.11647
0.10843
-0.052209
-0.21285
-0.34137
-0.39759
-0.41365
-0.30924
-0.17269
-0.084337
-0.092369
-0.092369
-0.052209
-0.11647
-0.10843
-0.11647
-0.092369
-0.1245
-0.18072
-0.24498
-0.45382
-0.54217
-0.58233
-0.51004
-0.41365
-0.42169
-0.39759
-0.40562
-0.37349
-0.22088
-0.15663
-0.10843
-0.012048
0.052209
0.060241
0.044177
-0.028112
-0.068273
-0.20482
-0.18876
-0.22088
-0.14056
-0.068273
0.068273
0.20482
0.19679
0.19679
0.11647
0.076305
0.11647
0.23695
0.38153
0.41365
0.48594
0.40562
0.30924
0.25301
0.23695
0.24498
0.22892
0.26908
0.19679
0.14859
0.084337
0.068273
0.1004
0.22088
0.3253
0.40562
0.30924
0.18072
0.14056
0.012048
0.0040161
0.068273
0.14859
0.24498
0.24498
0.27711
0.3012
0.35743
0.46988
0.50201
0.45382
0.27711
0.21285
0.060241
0.076305
0.15663
0.26908
0.3253
0.38956
0.41365
0.40562
0.3012
0.25301
0.20482
0.13253
0.052209
-0.044177
-0.26104
-0.3253
-0.31727
-0.22088
-0.044177
0.22088
0.42169
0.49398
0.3012
0.16466
-0.052209
-0.084337
0.1004
0.076305
0.14859
0.068273
0.11647
0.14859
0.17269
0.24498
0.19679
0.036145
-0.16466
-0.26908
-0.26104
-0.13253
0.028112
0.052209
-0.044177
-0.23695
-0.3494
-0.42972
-0.30924
-0.18876
-0.052209
-0.060241
0.0040161
0.0040161
-0.036145
-0.028112
0.044177
0.084337
0.076305
0.0040161
0.076305
0.18876
0.24498
0.22088
0.1245
0.060241
0.10843
0.19679
0.23695
0.33333
0.48594
0.62249
0.58233
0.40562
0.19679
0.02008
-0.084337
-0.1004
-0.052209
0.012048
0.068273
0.13253
0.15663
0.18876
0.31727
0.42169
0.38153
0.36546
0.14859
-0.084337
-0.22892
-0.29317
-0.26104
-0.19679
-0.052209
0.068273
0.15663
0.14056
0.13253
0.14056
0.16466
0.29317
0.26104
0.16466
0.092369
0.044177
-0.012048
-0.060241
-0.1245
-0.19679
-0.23695
-0.24498
-0.15663
-0.17269
-0.14056
-0.036145
-0.012048
-0.084337
-0.22088
-0.26908
-0.39759
-0.35743
-0.31727
-0.26104
-0.27711
-0.31727
-0.3494
-0.35743
-0.27711
-0.20482
-0.13253
-0.20482
-0.22892
-0.3253
-0.38153
-0.41365
-0.33333
-0.27711
-0.25301
-0.15663
0.068273
0.21285
0.28514
0.33333
0.19679
0.060241
0.012048
0.060241
0.13253
0.21285
0.3012
0.27711
0.21285
0.14859
0.044177
-0.092369
-0.20482
-0.23695
-0.23695
-0.14859
-0.012048
0.14859
0.25301
0.34137
0.44578
0.34137
0.20482
0.084337
-0.02008
0.012048
0.068273
0.076305
-0.044177
-0.084337
-0.092369
-0.1245
-0.21285
-0.3253
-0.33333
-0.31727
-0.25301
-0.15663
-0.068273
-0.060241
-0.052209
-0.092369
-0.19679
-0.3012
-0.3253
-0.20482
-0.14056
-0.060241
-0.1004
-0.25301
-0.31727
-0.30924
-0.20482
-0.068273
0.028112
0.1245
0.076305
0.068273
0.052209
0.028112
-0.0040161
0.0040161
-0.092369
-0.26104
-0.42972
-0.46988
-0.46185
-0.35743
-0.27711
-0.1245
-0.060241
-0.11647
-0.13253
-0.20482
-0.22088
-0.17269
-0.22088
-0.20482
-0.076305
0.1004
0.17269
0.13253
0.068273
-0.02008
-0.10843
-0.17269
-0.13253
-0.11647
-0.0040161
0.044177
0.14859
0.23695
0.3253
0.48594
0.46185
0.38153
0.27711
0.19679
0.13253
0.11647
-0.060241
-0.25301
-0.35743
-0.23695
-0.092369
-0.028112
0.14859
0.26908
0.35743
0.3494
0.31727
0.29317
0.26908
0.35743
0.44578
0.46185
0.5502
0.51807
0.45382
0.23695
0.084337
-0.10843
-0.22088
-0.25301
-0.18876
-0.084337
-0.052209
0.1004
0.29317
0.47791
0.59036
0.55823
0.39759
0.20482
0.1245
-0.02008
-0.15663
-0.37349
-0.46185
-0.44578
-0.30924
-0.012048
0.18072
0.35743
0.35743
0.38956
0.24498
0.14859
0.060241
-0.076305
-0.22088
-0.3494
-0.36546
-0.44578
-0.46185
-0.38956
-0.18072
0.028112
0.26908
0.36546
0.31727
0.26908
0.41365
0.66265
0.87952
1
0.95984
0.75904
0.50201
0.18876
0.060241
-0.092369
-0.044177
0.060241
0.14056
0.18072
0.14859
0.14859
0.13253
0.23695
0.26908
0.29317
0.22892
0.24498
0.15663
0.028112
-0.052209
-0.068273
-0.10843
-0.068273
0.0040161
0.036145
-0.028112
-0.028112
-0.0040161
0.14056
0.3253
0.42972
0.46988
0.42972
0.38153
0.26908
0.10843
-0.13253
-0.19679
-0.3012
-0.18072
-0.012048
0.13253
0.24498
0.3012
0.38153
0.39759
0.42972
0.42972
0.46185
0.31727
0.21285
0.076305
-0.1004
-0.20482
-0.24498
-0.23695
-0.24498
-0.17269
0.02008
0.068273
0.18072
0.24498
0.44578
0.50201
0.58233
0.53414
0.40562
0.41365
0.38956
0.37349
0.22088
0.16466
0.1245
0.13253
0.3012
0.51004
0.64659
0.68675
0.78313
0.7992
0.83133
0.79116
0.81526
0.73494
0.59036
0.49398
0.41365
0.27711
0.26104
0.33333
0.5261
0.67871
0.71888
0.63855
0.45382
0.28514
0.16466
0.20482
0.25301
0.38956
0.42169
0.33333
0.22088
0.17269
0.1004
0.1004
0.028112
-0.036145
-0.18876
-0.21285
-0.16466
-0.18072
-0.13253
-0.076305
0.02008
0.060241
-0.0040161
0.092369
0.084337
0.17269
0.22088
0.26908
0.21285
0.21285
0.21285
0.14859
0.044177
-0.028112
-0.15663
-0.21285
-0.13253
0.012048
0.092369
0.11647
0.17269
0.29317
0.31727
0.30924
0.10843
-0.044177
-0.1004
-0.012048
0.092369
0.084337
0.14859
0.10843
0.1245
0.16466
0.27711
0.20482
0.036145
-0.1004
-0.3253
-0.50201
-0.68675
-0.67068
-0.63855
-0.60643
-0.46185
-0.23695
0.060241
0.34137
0.55823
0.50201
0.43775
0.26908
0.19679
0.092369
0.068273
0.036145
-0.028112
-0.1004
-0.13253
-0.1245
-0.13253
-0.13253
-0.14056
-0.1004
-0.02008
0.1004
0.18876
0.17269
0.21285
0.24498
0.13253
0.1004
0.15663
0.18876
0.21285
0.24498
0.24498
0.17269
0.02008
-0.15663
-0.33333
-0.49398
-0.48594
-0.40562
-0.26908
-0.076305
0.092369
0.21285
0.14056
0.028112
-0.14859
-0.23695
-0.24498
-0.18072
-0.10843
-0.1245
-0.0040161
0.060241
0.13253
0.20482
0.31727
0.30924
0.24498
0.16466
-0.02008
-0.18072
-0.27711
-0.22088
-0.21285
-0.16466
-0.16466
-0.16466
-0.24498
-0.33333
-0.31727
-0.27711
-0.044177
0.20482
0.35743
0.33333
0.27711
0.13253
-0.052209
-0.23695
-0.26908
-0.3253
-0.25301
-0.14056
0.1245
0.25301
0.3494
0.3253
0.26908
0.15663
0.15663
0.11647
0.044177
-0.068273
-0.18072
-0.21285
-0.33333
-0.35743
-0.39759
-0.41365
-0.3012
-0.15663
-0.012048
0.052209
0.24498
0.38153
0.51004
0.54217
0.5502
0.45382
0.26908
0.060241
-0.16466
-0.36546
-0.5261
-0.5743
-0.53414
-0.46988
-0.31727
-0.26104
-0.21285
-0.14056
0.02008
0.18072
0.29317
0.44578
0.3253
0.17269
-0.13253
-0.30924
-0.46185
-0.53414
-0.44578
-0.38153
-0.29317
-0.29317
-0.3012
-0.40562
-0.43775
-0.35743
-0.26104
-0.11647
-0.1004
-0.11647
-0.33333
-0.53414
-0.64659
-0.63855
-0.63855
-0.5743
-0.45382
-0.39759
-0.3494
-0.3012
-0.28514
-0.25301
-0.22892
-0.3012
-0.45382
-0.55823
-0.59036
-0.51004
-0.47791
-0.43775
-0.36546
-0.37349
-0.28514
-0.21285
-0.22088
-0.26104
-0.22892
-0.14859
-0.1245
-0.1004
-0.02008
-0.036145
-0.092369
-0.028112
0.02008
0.092369
0.13253
0.22892
0.28514
0.26908
0.22892
0.22892
0.16466
0.1245
0.092369
0.092369
0.084337
0.15663
0.18072
0.10843
0.076305
0.060241
-0.11647
-0.24498
-0.41365
-0.47791
-0.5502
-0.55823
-0.51004
-0.46185
-0.35743
-0.24498
-0.22088
-0.30924
-0.49398
-0.53414
-0.56627
-0.46988
-0.33333
-0.21285
-0.1004
-0.1004
-0.13253
-0.29317
-0.42169
-0.37349
-0.26908
-0.18072
0.036145
0.028112
-0.044177
-0.22088
-0.33333
-0.36546
-0.36546
-0.25301
-0.15663
-0.10843
-0.17269
-0.26908
-0.41365
-0.38956
-0.25301
-0.19679
-0.14859
-0.16466
-0.16466
-0.052209
-0.0040161
0.14056
0.092369
-0.068273
-0.18072
-0.22088
-0.25301
-0.15663
0.0040161
0.17269
0.3253
0.46988
0.67871
0.68675
0.5261
0.29317
0.036145
-0.18876
-0.28514
-0.19679
-0.052209
0.20482
0.49398
0.72691
0.80723
0.7751
0.60643
0.3012
0.052209
-0.060241
-0.076305
0.028112
0.14056
0.30924
0.30924
0.23695
0.14056
0.14859
0.21285
0.38153
0.55823
0.71888
0.88755
0.92771
0.81526
0.38956
-0.044177
-0.33333
-0.46185
-0.3494
-0.16466
0.0040161
0.084337
0.18876
0.22088
0.20482
0.24498
0.38956
0.53414
0.67068
0.86345
0.95181
0.94378
0.69478
0.22088
-0.3494
-0.7992
-1
-0.87149
-0.70281
-0.40562
-0.068273
0.1245
0.3494
0.51004
0.67068
0.75904
0.74297
0.69478
0.43775
0.19679
0.076305
-0.052209
-0.14859
-0.26908
-0.25301
-0.13253
0.044177
0.30924
0.46185
0.49398
0.51807
0.41365
0.25301
0.052209
-0.13253
-0.26908
-0.37349
-0.34137
-0.36546
-0.45382
-0.55823
-0.56627
-0.43775
-0.27711
0.036145
0.22892
0.28514
0.21285
0.1004
0.060241
-0.068273
-0.10843
-0.18072
-0.22892
-0.21285
-0.10843
-0.028112
0.028112
-0.028112
-0.15663
-0.31727
-0.50201
-0.51004
-0.5261
-0.36546
-0.15663
-0.0040161
0.14859
0.33333
0.5502
0.5261
0.46988
0.40562
0.19679
0.044177
-0.17269
-0.16466
-0.16466
-0.1245
-0.15663
-0.14056
-0.15663
-0.076305
0.060241
0.13253
0.27711
0.43775
0.56627
0.45382
0.29317
0.13253
0.012048
-0.028112
0.076305
0.16466
0.22892
0.3253
0.40562
0.42169
0.36546
0.22088
0.036145
-0.18876
-0.26908
-0.26104
-0.22088
-0.14859
0.10843
0.29317
0.41365
0.55823
0.63855
0.70281
0.72691
0.61446
0.38956
0.16466
0.060241
0.060241
0.060241
0.14859
0.22088
0.29317
0.34137
0.5261
0.67871
0.83133
0.82329
0.79116
0.48594
0.20482
-0.1004
-0.15663
-0.20482
-0.16466
-0.092369
-0.036145
0.1004
0.26908
0.3012
0.3012
0.25301
0.3012
0.3012
0.26908
0.25301
0.18072
0.076305
0.036145
-0.036145
-0.076305
0.0040161
0.1245
0.35743
0.3494
0.3494
0.22088
0.044177
-0.14056
-0.21285
-0.26104
-0.26908
-0.18876
-0.052209
0.060241
0.14056
0.26104
0.31727
0.26104
0.25301
0.16466
0.10843
-0.084337
-0.22892
-0.26908
-0.23695
-0.1245
0.012048
0.11647
0.22892
0.31727
0.31727
0.23695
0.18072
0.11647
0.11647
0.012048
-0.068273
-0.23695
-0.3494
-0.30924
-0.21285
-0.1004
-0.076305
-0.13253
-0.26908
-0.3494
-0.3494
-0.33333
-0.34137
-0.34137
-0.22892
-0.28514
-0.26104
-0.28514
-0.20482
-0.23695
-0.27711
-0.16466
-0.15663
-0.15663
-0.3253
-0.59839
-0.84739
-0.87149
-0.78313
-0.62249
-0.49398
-0.25301
-0.1004
-0.068273
-0.068273
-0.21285
-0.38956
-0.51807
-0.63052
-0.67068
-0.69478
-0.55823
-0.49398
-0.42972
-0.40562
-0.36546
-0.37349
-0.47791
-0.46185
-0.51004
-0.54217
-0.5261
-0.38153
-0.24498
-0.084337
0.14056
0.25301
0.36546
0.35743
0.48594
0.46988
0.39759
0.25301
0.028112
-0.10843
-0.13253
-0.084337
0.068273
0.23695
0.37349
0.35743
0.28514
0.23695
0.27711
0.18072
0.21285
0.29317
0.46185
0.65462
0.63052
0.5261
0.28514
0.14056
0.1004
0.18072
0.24498
0.38153
0.35743
0.27711
0.22088
0.076305
0.11647
0.076305
0.17269
0.18072
0.18876
0.060241
0.028112
0.012048
0.052209
0.19679
0.3494
0.51807
0.60643
0.71084
0.63855
0.54217
0.43775
0.3253
0.29317
0.37349
0.56627
0.751
0.86345
0.81526
0.71888
0.49398
0.35743
0.22088
0.10843
0.084337
0.13253
0.19679
0.22892
0.26908
0.3253
0.40562
0.49398
0.61446
0.60643
0.5261
0.45382
0.41365
0.3494
0.3494
0.34137
0.24498
0.20482
0.18072
0.23695
0.26908
0.21285
0.22892
0.18876
0.10843
0.16466
0.14056
0.044177
-0.036145
-0.068273
-0.052209
-0.060241
0.028112
0.26104
0.59036
0.79116
0.80723
0.66265
0.41365
0.3253
0.33333
0.37349
0.42972
0.46988
0.46988
0.34137
0.35743
0.33333
0.42169
0.5261
0.67068
0.67068
0.65462
0.58233
0.39759
0.15663
-0.0040161
0.1004
0.26908
0.45382
0.54217
0.44578
0.29317
0.11647
0.1004
-0.028112
0.0040161
0.14859
0.24498
0.35743
0.31727
0.31727
0.22892
0.28514
0.26908
0.19679
0.028112
-0.21285
-0.34137
-0.46988
-0.38956
-0.23695
-0.1004
-0.076305
-0.036145
0.044177
-0.028112
-0.1004
-0.14056
-0.092369
-0.028112
0.044177
0.052209
-0.084337
-0.14056
-0.076305
0.060241
0.20482
0.30924
0.34137
0.25301
0.25301
0.14056
0.14859
0.012048
-0.068273
-0.18072
-0.25301
-0.33333
-0.3012
-0.38956
-0.41365
-0.33333
-0.25301
-0.14056
-0.02008
0.11647
0.19679
0.14056
0.052209
0.012048
-0.13253
-0.10843
0.060241
0.14859
0.3012
0.35743
0.33333
0.26908
0.23695
0.3494
0.35743
0.37349
0.29317
0.17269
0.1004
0.076305
0.11647
0.18876
0.23695
0.28514
0.29317
0.3253
0.37349
0.45382
0.36546
0.18072
0.068273
-0.1245
-0.28514
-0.30924
-0.24498
-0.19679
-0.10843
-0.1245
0.052209
0.076305
0.29317
0.34137
0.24498
0.02008
-0.19679
-0.28514
-0.37349
-0.23695
-0.15663
-0.10843
-0.044177
-0.052209
0.052209
0.044177
0.19679
0.10843
0.036145
-0.19679
-0.3494
-0.51807
-0.51807
-0.39759
-0.19679
-0.028112
0.14056
0.28514
0.36546
0.40562
0.42169
0.34137
0.17269
-0.060241
-0.18876
-0.37349
-0.43775
-0.50201
-0.42972
-0.20482
0.15663
0.44578
0.44578
0.31727
0.18876
0.17269
0.18876
0.37349
0.44578
0.38153
0.17269
0.012048
-0.092369
-0.060241
-0.028112
0.076305
0.16466
0.25301
0.38153
0.37349
0.30924
0.26104
0.27711
0.15663
0.068273
-0.028112
-0.13253
-0.30924
-0.29317
-0.20482
0.044177
0.26104
0.46988
0.5743
0.61446
0.64659
0.56627
0.51004
0.43775
0.23695
0.052209
-0.17269
-0.18876
-0.076305
0.14056
0.3012
0.46988
0.55823
0.5502
0.66265
0.67871
0.59839
0.42972
0.18876
-0.18876
-0.44578
-0.60643
-0.61446
-0.54217
-0.38153
-0.17269
-0.036145
0.060241
0.17269
0.22088
0.23695
0.21285
0.11647
-0.16466
-0.3494
-0.40562
-0.31727
-0.22892
-0.22892
-0.092369
0.036145
0.21285
0.38956
0.48594
0.42169
0.33333
0.21285
0.076305
-0.060241
-0.14859
-0.18072
-0.17269
0.044177
0.060241
0.1004
0.1004
0.26908
0.45382
0.47791
0.46185
0.21285
0.02008
-0.17269
-0.3012
-0.40562
-0.39759
-0.23695
-0.036145
0.26908
0.42169
0.59839
0.63052
0.5743
0.54217
0.36546
0.17269
-0.044177
-0.11647
-0.14859
-0.1245
-0.0040161
0.076305
0.17269
0.28514
0.43775
0.58233
0.63855
0.67068
0.55823
0.30924
0.076305
-0.044177
-0.036145
0.012048
0.19679
0.3012
0.29317
0.33333
0.3012
0.35743
0.31727
0.3494
0.25301
0.26104
0.17269
0.11647
-0.028112
-0.044177
0.1245
0.23695
0.35743
0.35743
0.3494
0.20482
0.092369
0.076305
-0.028112
-0.084337
-0.068273
-0.028112
-0.012048
-0.1004
-0.1245
-0.15663
-0.1245
-0.052209
0.1004
0.18072
0.27711
0.34137
0.34137
0.22892
0.14056
0.0040161
-0.20482
-0.34137
-0.33333
-0.23695
-0.092369
0.068273
0.1245
0.18876
0.19679
0.17269
0.11647
0.092369
0.10843
-0.012048
-0.14859
-0.24498
-0.18072
-0.21285
-0.20482
-0.23695
-0.21285
-0.17269
0.012048
0.14859
0.20482
0.1245
0.02008
-0.044177
-0.084337
-0.0040161
0.060241
0.012048
-0.084337
-0.15663
-0.22892
-0.30924
-0.3494
-0.45382
-0.51807
-0.48594
-0.42169
-0.38153
-0.41365
-0.44578
-0.46988
-0.55823
-0.50201
-0.41365
-0.28514
-0.28514
-0.3012
-0.36546
-0.42169
-0.48594
-0.51807
-0.5502
-0.55823
-0.51004
-0.49398
-0.48594
-0.39759
-0.22088
-0.11647
0.02008
0.1004
0.14859
0.084337
0.02008
0.0040161
-0.076305
-0.068273
-0.0040161
-0.036145
-0.036145
-0.052209
-0.02008
-0.060241
-0.060241
0.02008
0.16466
0.30924
0.34137
0.38956
0.26104
0.060241
-0.14056
-0.25301
-0.22088
-0.1004
0.052209
0.092369
0.14056
0.3012
0.45382
0.58233
0.62249
0.48594
0.35743
0.23695
0.23695
0.24498
0.16466
0.26104
0.23695
0.19679
0.11647
0.14859
0.14056
0.1245
0.14056
0.18072
0.16466
0.060241
0.092369
0.036145
0.076305
0.17269
0.18072
0.18072
0.1004
0.092369
0.092369
0.22088
0.41365
0.5261
0.59036
0.58233
0.55823
0.51807
0.45382
0.42972
0.3253
0.18876
0.012048
0.028112
-0.052209
-0.012048
-0.0040161
0.02008
0.068273
0.036145
0.1004
0.092369
0.14056
0.17269
0.20482
0.17269
0.14859
0.18876
0.18072
0.17269
0.16466
0.13253
-0.0040161
0.0040161
-0.044177
-0.076305
-0.060241
0.044177
0.052209
-0.0040161
-0.02008
-0.044177
0.012048
0.1245
0.29317
0.35743
0.45382
0.40562
0.42169
0.3494
0.21285
0.13253
0.028112
-0.036145
-0.036145
-0.068273
-0.052209
0.052209
0.23695
0.30924
0.29317
0.27711
0.23695
0.18876
0.10843
0.1004
0.052209
0.060241
0.092369
0.14859
0.14859
0.20482
0.26908
0.33333
0.45382
0.49398
0.49398
0.33333
0.18876
0.1004
-0.092369
-0.14056
-0.10843
0.02008
0.15663
0.23695
0.31727
0.19679
0.084337
0.0040161
0.028112
0.012048
-0.0040161
0.036145
-0.02008
0.0040161
0.068273
0.15663
0.20482
0.27711
0.38153
0.3012
0.25301
0.17269
0.068273
0.012048
0.1004
0.14056
-0.0040161
0.02008
-0.028112
0.13253
0.26104
0.36546
0.35743
0.26908
0.23695
0.15663
0.11647
-0.068273
-0.14859
-0.30924
-0.44578
-0.42169
-0.26908
-0.012048
0.15663
0.33333
0.44578
0.48594
0.45382
0.40562
0.23695
0.02008
-0.17269
-0.45382
-0.59839
-0.58233
-0.33333
-0.13253
0.068273
0.24498
0.31727
0.29317
0.18876
0.092369
-0.044177
-0.13253
-0.24498
-0.35743
-0.54217
-0.53414
-0.50201
-0.35743
-0.16466
0.076305
0.27711
0.31727
0.31727
0.18072
0.02008
-0.14859
-0.21285
-0.27711
-0.37349
-0.36546
-0.28514
-0.1245
0.068273
0.25301
0.26104
0.14056
0.14859
0.0040161
-0.10843
-0.3494
-0.45382
-0.59839
-0.54217
-0.48594
-0.38153
-0.34137
-0.37349
-0.28514
-0.3012
-0.28514
-0.27711
-0.33333
-0.44578
-0.51807
-0.49398
-0.38153
-0.22088
-0.044177
0.028112
-0.11647
-0.33333
-0.55823
-0.76707
-0.86345
-0.91165
-0.88755
-0.74297
-0.44578
-0.1245
-0.0040161
-0.012048
-0.060241
-0.16466
-0.42972
-0.62249
-0.7992
-0.87149
-0.7992
-0.71084
-0.5261
-0.43775
-0.15663
-0.044177
-0.028112
-0.1004
-0.22892
-0.35743
-0.45382
-0.5261
-0.61446
-0.70281
-0.71888
-0.60643
-0.46185
-0.44578
-0.39759
-0.27711
-0.092369
0.068273
0.084337
0.076305
-0.060241
0.0040161
-0.02008
-0.068273
-0.092369
-0.14056
-0.16466
-0.22892
-0.16466
-0.13253
-0.052209
0.068273
0.22892
0.26104
0.3012
0.3012
0.26908
0.16466
0.10843
0.21285
0.3253
0.39759
0.40562
0.3012
0.060241
-0.076305
-0.13253
-0.20482
-0.18072
-0.18072
-0.10843
-0.17269
-0.15663
-0.18876
-0.044177
0.084337
0.14859
0.084337
-0.02008
-0.036145
0.02008
0.02008
0.012048
0.02008
-0.02008
0.076305
0.18876
0.3253
0.41365
0.40562
0.43775
0.31727
0.19679
0.1245
0.1004
0.14056
0.18876
0.37349
0.51807
0.58233
0.63052
0.63052
0.66265
0.74297
0.78313
0.67068
0.44578
0.37349
0.29317
0.17269
0.10843
0.23695
0.45382
0.73494
0.92771
0.86345
0.65462
0.42972
0.26908
0.1245
0.044177
0.036145
0.02008
-0.044177
-0.060241
0.068273
0.16466
0.31727
0.40562
0.43775
0.35743
0.22088
0.068273
-0.052209
-0.1245
-0.012048
0.1245
0.20482
0.33333
0.40562
0.47791
0.47791
0.47791
0.37349
0.24498
0.13253
0.13253
0.18072
0.30924
0.39759
0.51807
0.48594
0.63052
0.72691
0.80723
0.81526
0.70281
0.51807
0.36546
0.31727
0.22088
0.1004
0.012048
-0.092369
-0.25301
-0.38956
-0.35743
-0.30924
-0.18072
-0.17269
-0.036145
-0.012048
0.02008
0.076305
0.092369
0.18072
0.18876
0.30924
0.31727
0.37349
0.39759
0.36546
0.26104
0.10843
0.092369
0.044177
-0.0040161
-0.060241
-0.15663
-0.21285
-0.22088
-0.11647
0.068273
0.3012
0.5261
0.58233
0.45382
0.36546
0.28514
0.17269
0.076305
0.028112
0.076305
0.15663
0.21285
0.18072
0.20482
0.24498
0.40562
0.47791
0.46185
0.41365
0.29317
0.1004
-0.044177
0.012048
0.068273
0.1245
0.14056
0.14859
0.23695
0.3494
0.58233
0.7751
0.75904
0.67068
0.3494
0.10843
-0.052209
-0.060241
-0.11647
-0.17269
-0.14056
-0.15663
0.028112
0.21285
0.45382
0.49398
0.41365
0.37349
0.37349
0.29317
0.26104
0.28514
0.23695
0.3494
0.42169
0.38153
0.21285
0.028112
-0.060241
-0.14056
-0.14056
-0.13253
0.068273
0.1004
0.25301
0.21285
0.13253
0.028112
0.076305
-0.036145
-0.060241
-0.092369
-0.092369
-0.052209
-0.1004
-0.060241
-0.068273
-0.044177
-0.0040161
0.092369
0.16466
0.19679
0.22892
0.14056
0.052209
-0.060241
-0.13253
-0.22892
-0.21285
-0.18876
-0.16466
-0.14859
-0.18072
-0.30924
-0.46988
-0.50201
-0.3494
-0.22088
0.0040161
0.26908
0.38956
0.22088
-0.068273
-0.38956
-0.58233
-0.67068
-0.73494
-0.76707
-0.81526
-0.79116
-0.63855
-0.46988
-0.14859
0.14859
0.35743
0.41365
0.34137
0.16466
-0.1245
-0.33333
-0.40562
-0.31727
-0.26908
-0.22088
-0.19679
-0.20482
-0.084337
0.052209
0.17269
0.13253
0.060241
-0.084337
-0.19679
-0.26104
-0.24498
-0.30924
-0.43775
-0.36546
-0.23695
-0.052209
0.036145
0.028112
0.076305
0.052209
0.028112
-0.1245
-0.36546
-0.59839
-0.76707
-0.89558
-0.99197
-0.96787
-0.87149
-0.7751
-0.56627
-0.38956
-0.38153
-0.45382
-0.5743
-0.73494
-0.80723
-0.87952
-0.7751
-0.70281
-0.59036
-0.51807
-0.50201
-0.5261
-0.48594
-0.3253
-0.13253
0.012048
0.084337
-0.028112
-0.18072
-0.3012
-0.29317
-0.42169
-0.46185
-0.44578
-0.3494
-0.23695
-0.24498
-0.3012
-0.29317
-0.22088
-0.11647
-0.044177
-0.10843
-0.1245
-0.14859
-0.13253
-0.044177
0.14056
0.40562
0.60643
0.74297
0.74297
0.67068
0.54217
0.47791
0.38153
0.26104
0.15663
0.036145
-0.084337
-0.17269
-0.14859
-0.084337
-0.012048
0.092369
0.16466
0.044177
0.028112
-0.02008
0.012048
0.044177
0.092369
0.084337
0.068273
-0.0040161
0.012048
0.012048
0.076305
0.16466
0.22892
0.22088
0.15663
0.076305
-0.21285
-0.44578
-0.43775
-0.35743
-0.22088
-0.14859
-0.060241
0.028112
0.084337
0.17269
0.17269
0.14859
0.14859
0.1004
0.092369
0.02008
-0.0040161
-0.02008
0.036145
0.092369
0.16466
0.060241
0.036145
0.036145
0.060241
0.060241
0.036145
0.060241
-0.012048
-0.044177
-0.076305
-0.036145
-0.0040161
0.10843
0.092369
-0.012048
-0.14859
-0.23695
-0.3012
-0.3012
-0.26908
-0.18072
-0.17269
-0.17269
-0.092369
-0.068273
-0.0040161
0.1245
0.16466
0.13253
0.10843
0.036145
0.02008
0.02008
0.036145
0.012048
-0.044177
-0.092369
-0.13253
-0.18876
-0.18072
-0.1004
-0.1004
-0.10843
-0.076305
0.092369
0.11647
0.16466
0.076305
-0.036145
-0.02008
0.028112
0.15663
0.18876
0.24498
0.31727
0.34137
0.33333
0.31727
0.30924
0.3012
0.29317
0.31727
0.35743
0.29317
0.30924
0.13253
0.036145
-0.060241
0.10843
0.34137
0.48594
0.65462
0.67068
0.62249
0.46185
0.3494
0.3253
0.23695
0.30924
0.25301
0.22892
0.27711
0.33333
0.34137
0.18876
0.20482
0.15663
0.16466
0.21285
0.25301
0.19679
0.1245
0.076305
0.068273
0.15663
0.21285
0.26104
0.16466
0.068273
-0.068273
-0.15663
-0.30924
-0.45382
-0.48594
-0.61446
-0.54217
-0.42169
-0.25301
-0.16466
-0.14056
-0.084337
-0.076305
-0.028112
-0.10843
-0.076305
-0.044177
0.012048
0.14056
0.13253
0.13253
0.25301
0.28514
0.22088
0.18072
0.084337
-0.11647
-0.17269
-0.18072
-0.19679
-0.23695
-0.18072
-0.16466
-0.10843
-0.044177
0.052209
0.14859
0.10843
0.11647
0.11647
-0.012048
-0.068273
-0.052209
-0.02008
0.092369
0.3012
0.46185
0.61446
0.66265
0.71888
0.5502
0.37349
0.3253
0.29317
0.36546
0.36546
0.44578
0.41365
0.40562
0.46185
0.5743
0.65462
0.73494
0.67871
0.60643
0.44578
0.39759
0.36546
0.39759
0.37349
0.39759
0.3012
0.30924
0.39759
0.56627
0.67871
0.84739
0.95984
0.9759
0.91968
0.72691
0.50201
0.28514
0.25301
0.26908
0.28514
0.3494
0.41365
0.53414
0.60643
0.70281
0.751
0.73494
0.68675
0.61446
0.53414
0.40562
0.36546
0.35743
0.44578
0.51004
0.44578
0.37349
0.23695
0.29317
0.3012
0.18072
0.092369
0.044177
0.036145
0.036145
0.076305
0.1245
0.13253
0.092369
0.11647
0.052209
0.10843
0.076305
0.044177
-0.012048
-0.02008
0.012048
0.028112
-0.036145
-0.028112
-0.060241
-0.1245
-0.1245
-0.15663
-0.18072
-0.1004
0.012048
0.24498
0.22892
0.18876
0.21285
0.10843
-0.012048
-0.076305
-0.036145
-0.044177
0.0040161
-0.044177
-0.084337
-0.11647
-0.10843
-0.076305
-0.14056
-0.22892
-0.31727
-0.40562
-0.41365
-0.31727
-0.22088
-0.20482
-0.076305
-0.11647
-0.068273
-0.036145
0.012048
0.02008
-0.084337
-0.14056
-0.27711
-0.36546
-0.35743
-0.19679
-0.084337
0.012048
0.068273
0.044177
0.012048
-0.02008
-0.1004
-0.22088
-0.25301
-0.27711
-0.22892
-0.18072
-0.068273
0.1004
0.14859
0.1004
0.10843
0.092369
0.10843
0.18072
0.3253
0.38956
0.38956
0.37349
0.34137
0.28514
0.30924
0.37349
0.38153
0.51004
0.61446
0.60643
0.5261
0.39759
0.35743
0.36546
0.48594
0.70281
0.83936
0.7992
0.74297
0.51807
0.39759
0.3253
0.34137
0.40562
0.38153
0.44578
0.42972
0.38153
0.3494
0.35743
0.37349
0.19679
0.14056
0.16466
0.3012
0.50201
0.58233
0.51004
0.41365
0.3494
0.26104
0.1245
0.1004
0.21285
0.31727
0.46988
0.59036
0.68675
0.67871
0.58233
0.61446
0.58233
0.67068
0.71084
0.62249
0.50201
0.43775
0.48594
0.46988
0.33333
0.21285
0.14859
0.1245
0.23695
0.30924
0.22892
0.13253
0.1004
0.076305
0.11647
0.14859
0.20482
0.14056
0.068273
-0.0040161
-0.012048
-0.044177
0.02008
0.012048
-0.084337
-0.18876
-0.3253
-0.30924
-0.3012
-0.18072
-0.036145
-0.012048
0.068273
0.18072
0.23695
0.28514
0.35743
0.27711
0.16466
-0.012048
-0.1004
-0.18876
-0.30924
-0.27711
-0.19679
-0.11647
-0.068273
-0.10843
-0.18072
-0.18876
-0.19679
-0.15663
-0.15663
-0.1004
-0.02008
-0.036145
0.044177
0.14056
0.21285
0.10843
-0.02008
-0.068273
-0.28514
-0.29317
-0.25301
-0.20482
-0.14056
-0.18876
-0.17269
-0.16466
-0.044177
0.044177
0.15663
0.20482
0.34137
0.43775
0.46988
0.3494
0.22088
0.14859
0.068273
0.028112
-0.0040161
-0.028112
-0.16466
-0.10843
-0.012048
0.092369
0.33333
0.41365
0.47791
0.37349
0.23695
0.068273
0.044177
0.18876
0.15663
0.1245
0.012048
-0.02008
0.0040161
-0.052209
-0.036145
-0.16466
-0.23695
-0.26104
-0.21285
-0.26908
-0.3494
-0.31727
-0.26908
-0.14056
-0.092369
-0.060241
-0.1004
-0.076305
-0.028112
0.028112
0.0040161
-0.028112
-0.068273
-0.22088
-0.3253
-0.38153
-0.45382
-0.47791
-0.5502
-0.51807
-0.51807
-0.38153
-0.18072
0.0040161
0.084337
0.092369
0.012048
-0.14056
-0.25301
-0.21285
-0.13253
-0.1004
-0.044177
-0.02008
-0.036145
-0.036145
0.076305
0.27711
0.50201
0.68675
0.55823
0.28514
-0.076305
-0.26908
-0.34137
-0.3494
-0.23695
-0.16466
-0.076305
0.076305
0.21285
0.27711
0.23695
0.13253
-0.028112
-0.21285
-0.26908
-0.20482
-0.044177
0.02008
0.1004
0.13253
0.1004
0.10843
0.16466
0.13253
0.068273
-0.084337
-0.26908
-0.38956
-0.43775
-0.40562
-0.45382
-0.46988
-0.44578
-0.41365
-0.3253
-0.25301
-0.092369
0.012048
0.14056
0.20482
0.15663
0.084337
0.0040161
-0.012048
-0.14859
-0.30924
-0.39759
-0.46988
-0.53414
-0.51004
-0.55823
-0.47791
-0.36546
-0.19679
-0.10843
-0.084337
-0.0040161
0.092369
0.092369
0.052209
0.02008
0.028112
-0.044177
-0.044177
-0.092369
-0.21285
-0.20482
-0.16466
-0.084337
-0.14859
-0.18876
-0.26908
-0.22892
-0.16466
-0.036145
0.02008
-0.068273
-0.060241
-0.13253
-0.14056
0.012048
0.26908
0.42972
0.50201
0.41365
0.26104
0.15663
0.11647
0.18876
0.21285
0.26908
0.34137
0.38153
0.36546
0.38956
0.43775
0.39759
0.42972
0.37349
0.39759
0.31727
0.26104
0.34137
0.39759
0.50201
0.53414
0.5261
0.43775
0.42169
0.42972
0.38956
0.3012
0.3012
0.30924
0.30924
0.37349
0.39759
0.42972
0.50201
0.50201
0.38153
0.18072
0.076305
-0.0040161
0.076305
0.20482
0.36546
0.45382
0.46988
0.47791
0.48594
0.33333
0.21285
0.10843
0.11647
0.16466
0.3494
0.39759
0.36546
0.25301
0.22892
0.26104
0.23695
0.34137
0.43775
0.51004
0.46988
0.51004
0.37349
0.33333
0.27711
0.24498
0.15663
0.060241
0.060241
0.0040161
-0.028112
-0.24498
-0.34137
-0.3253
-0.084337
0.10843
0.092369
-0.052209
-0.17269
-0.17269
-0.14859
-0.1245
-0.028112
-0.036145
0.028112
0.18072
0.22088
0.14859
0.18876
0.18072
0.29317
0.3494
0.38956
0.29317
0.084337
-0.076305
-0.24498
-0.24498
-0.20482
-0.11647
-0.076305
-0.13253
-0.044177
0.028112
0.10843
0.084337
0.076305
0.012048
-0.084337
-0.084337
-0.14056
-0.23695
-0.19679
-0.084337
0.036145
0.092369
0.14859
0.092369
0.060241
-0.02008
0.0040161
-0.0040161
0.028112
0.044177
0.02008
0.0040161
0.012048
0.15663
0.27711
0.38956
0.49398
0.47791
0.38956
0.3012
0.27711
0.22892
0.28514
0.46988
0.68675
0.71084
0.66265
0.5261
0.3494
0.24498
0.26908
0.29317
0.31727
0.38153
0.38956
0.41365
0.3494
0.30924
0.3253
0.33333
0.3494
0.25301
0.1004
-0.10843
-0.18072
-0.060241
-0.012048
0.10843
0.13253
0.1004
0.15663
0.3012
0.34137
0.37349
0.53414
0.66265
0.67068
0.59036
0.47791
0.3012
0.13253
0.092369
-0.0040161
0.052209
0.11647
0.22088
0.26104
0.28514
0.39759
0.44578
0.43775
0.40562
0.37349
0.21285
0.18072
0.15663
0.10843
0.092369
0.0040161
-0.0040161
-0.052209
-0.044177
0.076305
0.23695
0.3012
0.31727
0.26104
0.13253
0.092369
0.044177
0.0040161
-0.1004
-0.084337
0.02008
0.14056
0.26104
0.36546
0.42972
0.38956
0.44578
0.42169
0.33333
0.25301
0.13253
0.13253
0.13253
0.20482
0.18876
0.14859
0.012048
0.0040161
-0.036145
-0.11647
-0.084337
-0.14056
-0.1245
-0.16466
-0.14859
-0.26104
-0.23695
-0.19679
-0.044177
-0.0040161
-0.10843
-0.14056
-0.22892
-0.20482
-0.10843
-0.02008
0.036145
0.14859
0.36546
0.47791
0.51807
0.38153
0.17269
0.060241
-0.028112
0.060241
-0.02008
0.02008
0.044177
0.0040161
-0.068273
-0.10843
-0.028112
-0.02008
0.028112
0.068273
0.10843
0.18876
0.22892
0.24498
0.028112
-0.22892
-0.3012
-0.26104
-0.14859
0.084337
0.3012
0.44578
0.48594
0.46988
0.36546
0.20482
0.1004
0.084337
0.10843
0.15663
0.16466
0.26104
0.26908
0.3494
0.27711
0.076305
-0.18072
-0.31727
-0.38153
-0.33333
-0.26908
-0.27711
-0.36546
-0.47791
-0.49398
-0.44578
-0.34137
0.1245
