-0.45055
-0.40659
-0.31868
-0.40659
-0.35165
-0.21978
-0.098901
-0.13187
-0.16484
-0.28571
-0.37363
-0.40659
-0.30769
-0.1978
-0.18681
-0.076923
-0.098901
-0.14286
-0.16484
-0.076923
0.13187
0.1978
0.23077
0.043956
-0.21978
-0.40659
-0.38462
-0.15385
0
0.21978
0.28571
0.2967
0.21978
0.15385
0.032967
-0.13187
-0.12088
-0.098901
0.043956
0.15385
0.21978
0.16484
0.054945
-0.032967
-0.021978
-0.13187
-0.25275
-0.3956
-0.43956
-0.23077
0.1978
0.48352
0.54945
0.30769
0.065934
-0.054945
0.043956
0.20879
0.25275
0.13187
-0.054945
-0.076923
-0.2967
-0.1978
-0.043956
0.021978
-0.032967
-0.076923
-0.010989
-0.010989
-0.054945
-0.13187
-0.12088
-0.043956
0.032967
0.13187
0.043956
-0.032967
-0.076923
-0.098901
-0.14286
0
0.032967
0.10989
0.13187
0.25275
0.31868
0.27473
0.31868
0.21978
0.065934
-0.13187
-0.17582
-0.14286
-0.076923
0.032967
0.043956
0.032967
-0.021978
0.021978
0.043956
-0.010989
-0.15385
-0.27473
-0.23077
-0.098901
0.13187
0.1978
0.20879
0.17582
0.098901
-0.18681
-0.37363
-0.37363
-0.49451
-0.59341
-0.52747
-0.40659
-0.37363
-0.30769
-0.20879
0.043956
0.10989
0.087912
-0.010989
-0.20879
-0.2967
-0.38462
-0.23077
-0.21978
-0.17582
-0.098901
0.032967
0.10989
0.10989
0.17582
0.010989
0.010989
-0.065934
-0.13187
-0.23077
-0.27473
-0.43956
-0.54945
-0.50549
-0.35165
-0.20879
-0.15385
-0.12088
-0.076923
-0.10989
-0.16484
-0.17582
-0.065934
-0.054945
0.35165
0.57143
0.57143
0.43956
0.24176
0.065934
-0.12088
-0.21978
-0.54945
-0.81319
-1
-0.92308
-0.83516
-0.7033
-0.56044
-0.38462
-0.16484
-0.021978
-0.065934
-0.15385
-0.2967
-0.27473
-0.3956
-0.53846
-0.43956
-0.25275
-0.10989
0.032967
0.098901
0.16484
0.1978
0.18681
0.26374
0.15385
0.10989
0
-0.12088
-0.27473
-0.41758
-0.45055
-0.3956
-0.26374
-0.098901
0
-0.010989
0.12088
0.13187
-0.021978
-0.20879
-0.34066
-0.26374
-0.27473
-0.27473
-0.30769
-0.34066
-0.27473
-0.16484
0.021978
-0.021978
-0.087912
-0.25275
-0.46154
-0.3956
-0.15385
0.065934
0.20879
0.28571
0.40659
0.38462
0.32967
0.32967
0.31868
0.24176
0.34066
0.1978
0.043956
0.010989
0.032967
0.010989
-0.10989
-0.032967
-0.021978
0.087912
0.1978
0.20879
0.21978
0.30769
0.21978
0.065934
-0.054945
-0.1978
-0.25275
-0.24176
-0.12088
0.010989
0.10989
0
-0.12088
-0.14286
-0.15385
-0.010989
0.26374
0.31868
0.14286
0.12088
0.17582
0.18681
0.10989
0
0
0.032967
0.076923
0.098901
-0.010989
-0.10989
-0.2967
-0.35165
-0.28571
-0.087912
0.076923
0.010989
-0.054945
-0.098901
0
-0.076923
-0.054945
-0.010989
0.032967
0.14286
0.21978
0.043956
0.021978
-0.032967
-0.010989
0.032967
0.010989
0.010989
-0.15385
-0.3956
-0.40659
-0.54945
-0.61538
-0.68132
-0.69231
-0.49451
-0.38462
-0.10989
-0.10989
-0.16484
-0.27473
-0.26374
-0.14286
-0.032967
0.12088
0.021978
-0.10989
-0.18681
-0.087912
0.021978
0.18681
0.12088
0.021978
-0.076923
-0.10989
0.054945
0.16484
0.30769
0.3956
0.28571
0.14286
0.021978
0.15385
0.12088
0.12088
0.098901
-0.032967
-0.17582
-0.23077
-0.25275
-0.28571
-0.1978
-0.087912
0.065934
0.021978
0.14286
0.17582
0.14286
0.15385
0.13187
0.18681
0.20879
0.38462
0.41758
0.48352
0.35165
0.28571
0.24176
0.26374
0.2967
0.20879
0.098901
0.065934
0.10989
0.10989
-0.054945
-0.087912
-0.13187
-0.087912
-0.087912
-0.087912
-0.16484
-0.32967
-0.34066
-0.45055
-0.34066
-0.21978
-0.032967
0.032967
0.076923
0.076923
0.021978
-0.13187
-0.25275
-0.21978
-0.36264
-0.28571
-0.30769
-0.28571
-0.35165
-0.43956
-0.46154
-0.59341
-0.52747
-0.2967
-0.032967
0.021978
0.043956
0.13187
0.065934
0.054945
-0.065934
-0.076923
0.010989
-0.021978
0.043956
0.098901
0.23077
0.41758
0.47253
0.31868
0.21978
0.10989
-0.010989
0
0.010989
0.010989
-0.087912
-0.15385
-0.25275
-0.36264
-0.3956
-0.20879
0.065934
0.2967
0.57143
0.7033
0.68132
0.58242
0.46154
0.34066
0.31868
0.37363
0.3956
0.36264
0.18681
0.17582
0.21978
0.32967
0.47253
0.36264
0.1978
0.032967
0.021978
-0.032967
-0.021978
0
-0.076923
-0.14286
-0.054945
0.10989
0.076923
0.10989
0.18681
0.27473
0.14286
-0.032967
-0.087912
-0.20879
-0.16484
-0.12088
0
0.076923
-0.065934
-0.15385
-0.27473
-0.30769
-0.37363
-0.45055
-0.43956
-0.28571
-0.1978
-0.18681
-0.10989
0.076923
0.30769
0.26374
0.30769
0.27473
0.2967
0.3956
0.57143
0.62637
0.59341
0.54945
0.34066
0.098901
-0.13187
-0.18681
-0.14286
-0.12088
0.021978
0.14286
0.17582
0.10989
0.25275
0.36264
0.31868
0.30769
0.054945
-0.20879
-0.38462
-0.30769
-0.17582
0.087912
0.16484
0.021978
-0.021978
0.010989
0.20879
0.20879
0.14286
0.043956
-0.10989
-0.23077
-0.40659
-0.42857
-0.31868
0
0.34066
0.50549
0.35165
0.076923
-0.12088
-0.34066
-0.36264
-0.2967
-0.18681
-0.12088
-0.10989
-0.054945
-0.087912
0
0.065934
0.087912
0.18681
0.21978
0.27473
0.23077
0.18681
0.2967
0.36264
0.31868
0.36264
0.2967
0.24176
0.1978
0.28571
0.26374
0.076923
-0.076923
-0.32967
-0.31868
-0.23077
-0.010989
0.12088
0.17582
0.31868
0.28571
0.18681
0.076923
0.10989
0.12088
0
0
-0.16484
-0.21978
-0.21978
-0.087912
0.087912
0.27473
0.37363
0.34066
0.2967
0.36264
0.57143
0.53846
0.37363
0.20879
0.10989
0.021978
-0.021978
0.076923
0.076923
0.20879
0.27473
0.25275
0.16484
0.13187
0.1978
0.25275
0.23077
0.21978
0.21978
0.21978
0.1978
0.27473
0.26374
0.21978
0.31868
0.30769
0.40659
0.48352
0.50549
0.35165
0.15385
0.054945
-0.010989
-0.043956
-0.032967
-0.13187
-0.27473
-0.40659
-0.43956
-0.43956
-0.48352
-0.40659
-0.26374
-0.14286
-0.13187
-0.13187
-0.28571
-0.38462
-0.25275
-0.24176
-0.18681
-0.21978
-0.076923
-0.10989
-0.076923
0.076923
0.021978
-0.076923
-0.28571
-0.43956
-0.48352
-0.47253
-0.57143
-0.65934
-0.75824
-0.79121
-0.64835
-0.61538
-0.50549
-0.45055
-0.37363
-0.35165
-0.27473
-0.076923
-0.20879
-0.28571
-0.46154
-0.36264
-0.17582
0.14286
0.34066
0.18681
0.032967
-0.12088
-0.18681
-0.26374
-0.45055
-0.51648
-0.43956
-0.30769
-0.010989
0
-0.10989
-0.18681
-0.17582
-0.043956
0.12088
0.25275
0.14286
-0.18681
-0.32967
-0.35165
-0.21978
-0.021978
0.15385
0.10989
0
-0.065934
-0.17582
-0.12088
-0.087912
0.032967
0.054945
-0.021978
-0.032967
-0.076923
-0.010989
0
0.13187
0.17582
0.15385
0.2967
0.1978
0.12088
-0.043956
-0.098901
-0.15385
0.010989
0.24176
0.32967
0.32967
0.1978
0.12088
0.043956
0.054945
0.098901
0.14286
0.18681
0.23077
0.24176
0.054945
-0.054945
-0.054945
0.12088
0.3956
0.53846
0.58242
0.31868
0.15385
0.076923
-0.087912
-0.24176
-0.28571
-0.26374
-0.16484
-0.14286
-0.13187
-0.10989
-0.25275
-0.31868
-0.43956
-0.43956
-0.41758
-0.23077
-0.043956
0.032967
0.21978
0.23077
0.14286
0.098901
0.054945
0.098901
0.10989
0.14286
0.098901
-0.043956
-0.076923
-0.12088
-0.16484
-0.26374
-0.30769
-0.20879
-0.098901
0.10989
0.21978
0.15385
0.043956
0.098901
0.14286
0.13187
0.087912
0.098901
0.043956
-0.043956
-0.054945
-0.043956
-0.065934
-0.098901
-0.087912
-0.30769
-0.2967
-0.36264
-0.27473
-0.25275
-0.28571
-0.25275
-0.27473
-0.24176
-0.17582
-0.098901
0.021978
0.15385
0.24176
0.065934
-0.16484
-0.18681
-0.12088
-0.21978
-0.16484
-0.14286
-0.054945
-0.032967
0
-0.13187
-0.27473
-0.23077
-0.25275
-0.30769
-0.27473
-0.25275
-0.13187
-0.12088
0.065934
0.20879
0.28571
0.36264
0.47253
0.53846
0.36264
0.23077
0.054945
0.010989
0.021978
0.010989
0.054945
0.010989
0.17582
0.21978
0.27473
0.27473
0.17582
0
-0.21978
-0.23077
-0.23077
-0.076923
0.15385
0.35165
0.34066
0.12088
-0.043956
-0.25275
-0.31868
-0.21978
0
0.15385
0.23077
0.1978
0.16484
0.13187
0.20879
0.23077
0.17582
0.14286
0.10989
0.054945
-0.23077
-0.30769
-0.14286
-0.087912
0.087912
0.032967
-0.032967
-0.16484
-0.27473
-0.28571
-0.40659
-0.40659
-0.36264
-0.26374
-0.21978
-0.076923
0.098901
0.21978
0.2967
0.36264
0.26374
0.087912
0.010989
-0.1978
-0.25275
-0.24176
-0.16484
-0.13187
-0.15385
-0.087912
-0.15385
-0.10989
-0.043956
0.15385
0.38462
0.38462
0.35165
0.15385
-0.054945
-0.1978
-0.15385
-0.098901
-0.065934
-0.032967
-0.054945
-0.2967
-0.43956
-0.41758
-0.32967
-0.043956
0.12088
0.098901
-0.15385
-0.30769
-0.23077
-0.13187
0.15385
0.36264
0.41758
0.36264
0.13187
-0.076923
-0.47253
-0.74725
-0.73626
-0.69231
-0.56044
-0.62637
-0.47253
-0.38462
-0.15385
-0.10989
-0.21978
-0.3956
-0.32967
-0.16484
0.076923
0.31868
0.3956
0.45055
0.21978
0.21978
0.18681
0.26374
0.30769
0.40659
0.3956
0.32967
0.24176
-0.010989
-0.21978
-0.21978
-0.12088
0.065934
0.065934
0.10989
0.087912
0.20879
0.26374
0.37363
0.40659
0.3956
0.46154
0.36264
0.18681
0.043956
0.043956
0.065934
0.10989
0.23077
0.32967
0.34066
0.2967
0.27473
0
-0.14286
-0.21978
-0.17582
-0.31868
-0.45055
-0.51648
-0.64835
-0.58242
-0.37363
-0.23077
-0.1978
-0.12088
-0.13187
-0.043956
0.010989
0.043956
-0.098901
-0.34066
-0.50549
-0.45055
-0.46154
-0.38462
-0.18681
-0.076923
-0.021978
-0.076923
-0.10989
-0.14286
-0.087912
-0.076923
0
-0.065934
0
-0.010989
-0.032967
-0.16484
-0.17582
-0.24176
-0.18681
0
0.043956
-0.021978
-0.10989
-0.054945
0.065934
0.098901
0.25275
0.24176
0.076923
-0.076923
-0.16484
-0.18681
-0.12088
-0.021978
0.098901
0.032967
0.032967
0.021978
0.010989
-0.054945
-0.076923
-0.12088
0.032967
0.26374
0.40659
0.28571
0.065934
-0.087912
-0.23077
-0.27473
-0.16484
0.065934
0.17582
0.27473
0.18681
0.010989
-0.15385
-0.46154
-0.54945
-0.63736
-0.56044
-0.32967
-0.032967
0.15385
0.26374
0.27473
0.12088
0.087912
0.076923
0.12088
0.17582
0.28571
0.43956
0.38462
0.31868
0.25275
0.23077
0.14286
0.17582
0.14286
-0.021978
-0.15385
-0.24176
-0.10989
0.032967
0.30769
0.41758
0.32967
0.32967
0.38462
0.42857
0.31868
0.26374
0.12088
0.010989
-0.25275
-0.37363
-0.45055
-0.43956
-0.23077
-0.098901
0.010989
0.16484
0.35165
0.28571
0.20879
0.032967
-0.098901
-0.25275
-0.37363
-0.45055
-0.54945
-0.53846
-0.40659
-0.40659
-0.3956
-0.51648
-0.65934
-0.78022
-0.83516
-0.62637
-0.3956
-0.1978
-0.13187
-0.032967
-0.21978
-0.30769
-0.40659
-0.35165
-0.32967
-0.2967
-0.21978
-0.1978
-0.20879
-0.14286
-0.13187
-0.17582
-0.18681
-0.24176
-0.21978
-0.20879
-0.16484
-0.2967
-0.37363
-0.23077
-0.021978
0.13187
0.14286
0.010989
-0.1978
-0.43956
-0.48352
-0.3956
-0.20879
-0.054945
0.10989
0.043956
0
-0.043956
-0.2967
-0.56044
-0.59341
-0.35165
-0.098901
0.021978
0
-0.12088
-0.2967
-0.23077
-0.1978
-0.032967
0
0.15385
0.24176
0.1978
0.12088
0.15385
0.021978
0.054945
0.054945
0.076923
0.043956
0.032967
0.076923
0.021978
-0.065934
-0.13187
-0.12088
-0.20879
-0.25275
-0.18681
-0.065934
0.043956
0.076923
-0.043956
-0.20879
-0.1978
-0.17582
-0.21978
-0.14286
-0.076923
-0.043956
-0.26374
-0.37363
-0.3956
-0.37363
-0.34066
-0.30769
-0.25275
-0.26374
-0.087912
0.010989
-0.076923
-0.010989
-0.054945
-0.043956
-0.032967
0.098901
0.16484
0.23077
0.23077
0.37363
0.47253
0.40659
0.43956
0.14286
0
-0.32967
-0.31868
-0.30769
-0.27473
-0.18681
-0.25275
-0.31868
-0.13187
0.076923
0.24176
0.27473
0.28571
0.27473
0.26374
0.16484
0.087912
-0.043956
-0.10989
-0.1978
-0.25275
-0.16484
0.021978
0.26374
0.14286
0.032967
-0.032967
-0.032967
-0.021978
-0.13187
-0.10989
-0.14286
-0.054945
-0.076923
-0.18681
-0.3956
-0.47253
-0.42857
-0.25275
0
0.2967
0.30769
0.15385
0.087912
0.065934
-0.065934
-0.25275
-0.47253
-0.41758
-0.36264
-0.087912
-0.032967
-0.10989
-0.15385
-0.054945
0.098901
0.14286
0.13187
0.076923
0.032967
0.010989
0.065934
-0.021978
-0.1978
-0.15385
-0.032967
0.021978
0.098901
0.15385
-0.076923
-0.26374
-0.48352
-0.63736
-0.62637
-0.58242
-0.51648
-0.56044
-0.49451
-0.38462
-0.13187
0.021978
0.054945
0.087912
-0.065934
-0.032967
0.010989
0.098901
0.16484
0.16484
0.2967
0.28571
0.35165
0.43956
0.53846
0.58242
0.56044
0.45055
0.13187
-0.065934
-0.24176
-0.38462
-0.61538
-0.8022
-0.63736
-0.51648
-0.30769
-0.25275
-0.31868
-0.34066
-0.25275
-0.15385
-0.25275
-0.28571
-0.26374
-0.13187
-0.15385
-0.1978
-0.1978
-0.27473
-0.20879
-0.17582
-0.13187
-0.18681
-0.23077
-0.32967
-0.30769
-0.17582
0.13187
0.16484
0.054945
-0.10989
-0.30769
-0.34066
-0.1978
0.032967
0.12088
0
-0.18681
-0.38462
-0.61538
-0.56044
-0.42857
-0.37363
-0.31868
-0.18681
-0.18681
-0.17582
-0.21978
-0.31868
-0.34066
-0.3956
-0.3956
-0.27473
-0.10989
0.010989
0.16484
0.087912
0.021978
-0.076923
-0.15385
-0.26374
-0.12088
0.1978
0.36264
0.54945
0.48352
0.38462
0.065934
-0.1978
-0.20879
-0.26374
-0.10989
0.076923
0.26374
0.27473
0.25275
0.12088
0.087912
0.1978
0.30769
0.41758
0.53846
0.73626
0.83516
0.72527
0.54945
0.45055
0.40659
0.30769
0.27473
0.098901
-0.065934
-0.098901
-0.065934
0.17582
0.25275
0.27473
0.1978
0.043956
-0.032967
0.15385
0.31868
0.52747
0.67033
0.54945
0.27473
-0.10989
-0.37363
-0.42857
-0.31868
-0.14286
0.10989
0.2967
0.51648
0.72527
0.68132
0.64835
0.58242
0.49451
0.37363
0.21978
0.087912
-0.10989
-0.18681
-0.1978
-0.087912
-0.065934
-0.10989
-0.043956
-0.054945
-0.010989
0.043956
-0.10989
-0.076923
0.087912
0.2967
0.38462
0.41758
0.46154
0.36264
0.21978
-0.010989
-0.087912
-0.054945
0.021978
0.1978
0.26374
0.21978
0.23077
-0.065934
-0.36264
-0.58242
-0.57143
-0.46154
-0.45055
-0.28571
-0.24176
-0.043956
0.043956
0.24176
0.21978
0.10989
0
-0.15385
-0.26374
-0.37363
-0.28571
-0.28571
-0.30769
-0.18681
-0.14286
-0.032967
0.043956
0.13187
0.021978
-0.098901
-0.087912
-0.13187
-0.12088
-0.10989
0.010989
0.054945
0.23077
0.35165
0.51648
0.49451
0.43956
0.40659
0.36264
0.38462
0.45055
0.52747
0.47253
0.40659
0.34066
0.15385
-0.032967
0
0.010989
0.065934
0.18681
0.26374
0.26374
0.32967
0.2967
0.20879
-0.032967
-0.098901
0.010989
0.24176
0.40659
0.51648
0.53846
0.56044
0.71429
0.6044
0.52747
0.49451
0.6044
0.73626
0.67033
0.68132
0.59341
0.45055
0.31868
0.14286
-0.043956
-0.098901
-0.010989
0.16484
0.24176
0.27473
0.24176
0.054945
-0.13187
-0.12088
-0.076923
-0.054945
-0.12088
-0.24176
-0.31868
-0.21978
-0.087912
0.12088
0.098901
0.12088
0.13187
0.087912
0.13187
0.20879
0.27473
0.2967
0.41758
0.69231
0.61538
0.3956
0.043956
-0.23077
-0.35165
-0.24176
-0.043956
0.15385
0.17582
0.25275
0.098901
-0.17582
-0.2967
-0.2967
-0.043956
0.26374
0.47253
0.45055
0.30769
0.18681
0.021978
-0.087912
-0.12088
0.054945
0.3956
0.56044
0.7033
0.65934
0.68132
0.63736
0.64835
0.53846
0.51648
0.53846
0.58242
0.3956
0.25275
0.076923
-0.054945
-0.26374
-0.49451
-0.47253
-0.35165
0.032967
0.47253
0.54945
0.47253
0.34066
0.25275
0.12088
-0.087912
-0.10989
-0.28571
-0.28571
-0.043956
0
0.12088
0.13187
0.17582
0.35165
0.51648
0.59341
0.47253
0.12088
-0.043956
-0.14286
-0.065934
0.098901
0.31868
0.30769
0.14286
0.010989
-0.054945
-0.054945
0.098901
0.38462
0.49451
0.32967
0.10989
-0.27473
-0.57143
-0.73626
-0.59341
-0.32967
-0.065934
0.24176
0.35165
0.3956
0.098901
-0.010989
-0.076923
0.076923
0.59341
0.87912
1
0.89011
0.68132
0.41758
0.21978
0.10989
0.087912
0.10989
0.10989
-0.021978
-0.076923
-0.28571
-0.098901
0.18681
0.46154
0.57143
0.51648
0.26374
0.065934
0.098901
0.14286
0.065934
-0.25275
-0.46154
-0.56044
-0.42857
-0.30769
-0.14286
-0.087912
0.054945
0.2967
0.27473
0.13187
0
-0.16484
-0.23077
-0.15385
-0.054945
-0.14286
-0.10989
-0.087912
0.032967
0.010989
0.043956
-0.010989
-0.15385
-0.27473
-0.37363
-0.35165
-0.43956
-0.46154
-0.45055
-0.41758
-0.31868
-0.25275
-0.23077
-0.1978
-0.17582
-0.17582
-0.2967
-0.40659
-0.43956
-0.58242
-0.76923
-0.78022
-0.9011
-0.83516
-0.81319
-0.65934
-0.50549
-0.42857
-0.3956
-0.49451
-0.64835
-0.68132
-0.58242
-0.40659
-0.28571
-0.16484
-0.15385
-0.27473
-0.31868
-0.48352
-0.43956
-0.27473
-0.20879
-0.15385
-0.34066
-0.37363
-0.38462
-0.45055
-0.52747
-0.53846
-0.6044
-0.7033
-0.62637
-0.53846
-0.43956
-0.30769
-0.14286
-0.032967
-0.076923
-0.25275
-0.25275
-0.25275
-0.18681
-0.15385
-0.12088
-0.16484
-0.20879
-0.24176
-0.28571
-0.15385
0.021978
0.1978
0.1978
-0.010989
-0.17582
-0.37363
-0.36264
-0.26374
-0.043956
-0.054945
-0.054945
-0.17582
-0.24176
-0.26374
-0.14286
-0.16484
-0.010989
0.23077
0.26374
0.087912
-0.21978
-0.34066
-0.2967
-0.31868
-0.20879
-0.18681
-0.16484
-0.1978
-0.2967
-0.34066
-0.36264
-0.21978
-0.13187
-0.15385
-0.087912
-0.010989
-0.087912
-0.23077
-0.48352
-0.73626
-0.9011
-0.87912
-0.6044
-0.42857
-0.15385
-0.10989
-0.12088
-0.26374
-0.35165
-0.42857
-0.59341
-0.63736
-0.54945
-0.37363
-0.25275
-0.18681
-0.21978
-0.30769
-0.31868
-0.47253
-0.46154
-0.54945
-0.46154
-0.48352
-0.49451
-0.45055
-0.098901
0.15385
0.24176
0.17582
0.065934
-0.010989
-0.10989
-0.087912
-0.17582
-0.17582
-0.032967
-0.065934
-0.087912
-0.2967
-0.24176
-0.23077
-0.18681
-0.18681
-0.34066
-0.41758
-0.3956
-0.27473
-0.1978
-0.26374
-0.14286
-0.14286
-0.30769
-0.31868
-0.16484
-0.021978
0.054945
0.15385
0.15385
0.1978
0.15385
-0.10989
-0.34066
-0.3956
-0.17582
-0.010989
0.098901
0.098901
0.14286
0.043956
-0.010989
-0.10989
-0.37363
-0.63736
-0.7033
-0.58242
-0.3956
-0.24176
-0.12088
-0.043956
-0.13187
-0.1978
-0.26374
-0.37363
-0.34066
-0.1978
-0.12088
-0.032967
-0.010989
-0.054945
-0.18681
-0.28571
-0.41758
-0.41758
-0.46154
-0.40659
-0.40659
-0.35165
-0.26374
-0.065934
0.098901
0.076923
0.21978
0.31868
0.34066
0.26374
0.13187
-0.032967
-0.021978
0.18681
0.41758
0.53846
0.65934
0.72527
0.78022
0.58242
0.42857
0.27473
0.24176
0.23077
0.41758
0.52747
0.64835
0.67033
0.43956
0.076923
-0.087912
-0.1978
-0.28571
-0.3956
-0.50549
-0.6044
-0.6044
-0.54945
-0.3956
-0.25275
-0.17582
-0.12088
-0.043956
-0.021978
0.098901
0.21978
0.25275
0.26374
0.16484
0.18681
0.10989
0
-0.10989
-0.1978
-0.18681
-0.054945
-0.054945
-0.18681
-0.32967
-0.26374
-0.30769
-0.40659
-0.41758
-0.42857
-0.1978
0.10989
0.25275
0.32967
0.2967
0.15385
0.065934
-0.065934
0.087912
0.087912
-0.076923
-0.26374
-0.34066
-0.23077
-0.14286
-0.043956
-0.10989
-0.065934
0.14286
0.46154
0.6044
0.54945
0.52747
0.48352
0.41758
0.31868
0.2967
0.21978
0.087912
-0.065934
-0.23077
-0.21978
-0.15385
0.043956
0.087912
0.087912
0.043956
-0.065934
-0.18681
-0.14286
0.14286
0.27473
0.38462
0.32967
0.21978
0.065934
0.021978
0.10989
0.12088
0.15385
0.043956
0.032967
-0.076923
-0.032967
0
-0.043956
0.010989
0.18681
0.28571
0.28571
0.16484
0
-0.24176
-0.26374
-0.065934
-0.010989
0.043956
0.054945
0.054945
0
-0.087912
-0.10989
-0.16484
-0.17582
-0.054945
-0.076923
-0.076923
-0.13187
0.010989
0.12088
0.25275
0.41758
0.3956
0.25275
-0.043956
-0.20879
-0.25275
-0.17582
-0.021978
-0.054945
-0.17582
-0.34066
-0.32967
-0.26374
-0.10989
0.13187
0.34066
0.2967
0.18681
0.065934
0
-0.010989
0.065934
0.098901
0.13187
0.076923
0.087912
-0.021978
-0.14286
-0.21978
-0.42857
-0.57143
-0.56044
-0.36264
-0.24176
-0.14286
-0.12088
-0.15385
-0.20879
-0.12088
-0.076923
0
0.087912
0.076923
0.054945
-0.098901
-0.13187
-0.065934
-0.054945
0.098901
0.26374
0.37363
0.32967
0.27473
0.28571
0.20879
0.38462
0.2967
0.41758
0.38462
0.36264
0.13187
-0.10989
-0.27473
-0.043956
0.31868
0.54945
0.64835
0.3956
0.098901
-0.087912
-0.098901
0.032967
0.17582
0.2967
0.18681
-0.043956
-0.2967
-0.32967
-0.40659
-0.24176
-0.054945
0.10989
0.20879
0.25275
0.2967
0.20879
0.20879
0.25275
0.25275
0.21978
0.17582
0.20879
-0.032967
-0.26374
-0.3956
-0.54945
-0.45055
-0.35165
-0.065934
0.12088
0.20879
0.28571
0.27473
0.21978
0.16484
0.27473
0.34066
0.37363
0.20879
-0.065934
-0.21978
-0.15385
-0.054945
0.021978
0.087912
0.032967
-0.043956
-0.098901
0.14286
0.43956
0.53846
0.52747
0.3956
0.20879
-0.065934
-0.13187
-0.076923
0.054945
0.15385
0.23077
0.2967
0.28571
0.42857
0.43956
0.41758
0.36264
0.2967
0.043956
-0.13187
-0.21978
-0.36264
-0.46154
-0.46154
-0.38462
-0.17582
-0.13187
0.16484
0.10989
0.021978
-0.043956
-0.032967
-0.010989
0.010989
0.098901
0.14286
0.032967
-0.076923
-0.20879
-0.18681
0
0.20879
0.24176
0.076923
-0.13187
-0.24176
-0.48352
-0.67033
-0.68132
-0.56044
-0.41758
-0.32967
-0.38462
-0.3956
-0.25275
-0.043956
0.1978
0.25275
0.31868
0.1978
0.032967
-0.010989
0.16484
0.23077
0.23077
0.27473
0.25275
0.23077
0.16484
0.25275
0.38462
0.41758
0.32967
0.15385
-0.032967
-0.16484
-0.14286
-0.14286
-0.065934
0.076923
-0.010989
-0.17582
-0.31868
-0.38462
-0.27473
-0.20879
-0.12088
-0.35165
-0.46154
-0.61538
-0.41758
-0.38462
-0.2967
-0.21978
-0.16484
-0.18681
-0.31868
-0.35165
-0.52747
-0.50549
-0.51648
-0.46154
-0.34066
-0.26374
-0.25275
-0.40659
-0.52747
-0.31868
-0.10989
0.17582
0.30769
0.30769
0.14286
0.14286
0.15385
0.17582
0.065934
-0.032967
-0.021978
-0.20879
-0.32967
-0.38462
-0.3956
-0.27473
-0.13187
0.010989
-0.098901
-0.21978
-0.40659
-0.49451
-0.46154
-0.098901
0.23077
0.47253
0.68132
0.82418
0.89011
0.81319
0.74725
0.69231
0.49451
0.30769
0.13187
0.076923
0.15385
0.1978
0.087912
-0.054945
-0.20879
-0.17582
-0.10989
0
0.24176
0.38462
0.25275
-0.010989
-0.26374
-0.42857
-0.49451
-0.42857
-0.35165
-0.23077
-0.28571
-0.20879
-0.2967
-0.25275
-0.20879
-0.17582
-0.065934
0.032967
0.098901
-0.13187
-0.31868
-0.36264
-0.25275
-0.15385
0.032967
0.098901
0.13187
0.065934
-0.032967
-0.15385
-0.34066
-0.27473
-0.14286
-0.043956
0.16484
0.15385
0.054945
-0.27473
-0.42857
-0.30769
-0.17582
0
-0.010989
0.043956
0.010989
0.18681
0.34066
0.45055
0.46154
0.45055
0.27473
0.16484
0.23077
0.32967
0.49451
0.52747
0.52747
0.45055
0.14286
0.010989
0.021978
0.15385
0.16484
0.043956
-0.010989
-0.076923
0.087912
0.14286
0.1978
0.16484
0.31868
0.17582
0.17582
0.087912
0.12088
0.12088
0.032967
0.032967
-0.032967
0.021978
0.12088
0.20879
0.23077
0.12088
0.23077
0.17582
0.28571
0.26374
0.21978
0
-0.098901
-0.087912
-0.16484
-0.076923
0.10989
0.32967
0.47253
0.51648
0.47253
0.36264
0.26374
0.23077
0.17582
0.021978
0
-0.098901
-0.18681
-0.087912
0.043956
0.21978
0.14286
0.076923
-0.065934
-0.14286
-0.087912
0.076923
0.21978
0.20879
0.26374
0.25275
0.25275
0.20879
0.098901
0.043956
0.021978
0.087912
0.010989
-0.098901
-0.21978
-0.17582
-0.15385
-0.16484
-0.14286
-0.18681
-0.2967
-0.41758
-0.36264
-0.27473
-0.054945
0.098901
0.17582
0.23077
0.13187
0.10989
-0.14286
-0.28571
-0.31868
-0.18681
-0.043956
0.12088
0.30769
0.18681
0.16484
0
-0.076923
-0.098901
-0.17582
-0.054945
-0.087912
-0.054945
-0.076923
-0.010989
-0.15385
-0.12088
-0.14286
-0.28571
-0.40659
-0.46154
-0.26374
-0.054945
0.24176
0.41758
0.41758
0.3956
0.38462
0.34066
0.13187
0.010989
-0.23077
-0.52747
-0.57143
-0.52747
-0.38462
-0.36264
-0.17582
-0.076923
0.12088
0.17582
0.15385
0.098901
0.23077
0.49451
0.63736
0.45055
0.21978
0.032967
-0.15385
-0.27473
-0.30769
-0.21978
-0.13187
-0.25275
-0.31868
-0.52747
-0.47253
-0.27473
-0.12088
-0.10989
-0.27473
-0.45055
-0.63736
-0.76923
-0.76923
-0.8022
-0.73626
-0.48352
-0.20879
-0.20879
-0.18681
-0.26374
-0.23077
-0.35165
-0.53846
-0.61538
-0.78022
-0.83516
-0.91209
-0.85714
-0.71429
-0.57143
-0.3956
-0.34066
-0.15385
0
-0.032967
-0.23077
-0.36264
-0.43956
-0.58242
-0.54945
-0.41758
-0.16484
0.032967
0.13187
0.043956
0.054945
-0.076923
-0.098901
-0.17582
-0.32967
-0.21978
-0.065934
0.021978
0.032967
-0.14286
-0.16484
-0.23077
-0.1978
-0.28571
-0.43956
-0.43956
-0.35165
-0.2967
-0.23077
-0.15385
0
0.098901
0.087912
0.098901
-0.043956
-0.1978
-0.25275
-0.21978
-0.1978
-0.26374
-0.24176
-0.27473
-0.12088
0.10989
0.12088
0.098901
-0.14286
-0.043956
0.032967
0.25275
0.37363
0.49451
0.45055
0.45055
0.41758
0.23077
0.13187
0.16484
0.25275
0.2967
0.30769
0.18681
0.054945
0.12088
0.054945
0.032967
-0.098901
-0.076923
0.054945
0.010989
-0.076923
-0.13187
-0.13187
-0.15385
-0.12088
-0.18681
-0.25275
-0.3956
-0.35165
-0.38462
-0.41758
-0.40659
-0.6044
-0.75824
-0.89011
-0.8022
-0.72527
-0.6044
-0.52747
-0.46154
-0.51648
-0.53846
-0.37363
-0.20879
-0.10989
-0.15385
-0.43956
-0.64835
-0.61538
-0.38462
-0.30769
-0.30769
-0.40659
-0.32967
-0.13187
0.010989
0.087912
-0.098901
-0.24176
-0.30769
-0.21978
-0.23077
-0.16484
-0.087912
-0.076923
0.076923
0.098901
-0.010989
-0.14286
-0.17582
0.12088
0.27473
0.28571
0.010989
-0.1978
-0.36264
-0.1978
-0.010989
0.087912
0.14286
0.12088
0.032967
-0.076923
-0.098901
-0.12088
-0.13187
-0.17582
-0.20879
-0.098901
0.021978
0.23077
0.21978
0.032967
0.010989
0.16484
0.38462
0.47253
0.53846
0.45055
0.34066
0.21978
0.12088
0.12088
0.17582
0.18681
0.032967
-0.12088
-0.065934
0.15385
0.28571
0.25275
0.25275
0.31868
0.38462
0.42857
0.37363
0.24176
0.087912
0.032967
0.010989
0.15385
0.2967
0.48352
0.38462
0.48352
0.41758
0.43956
0.15385
-0.010989
0.010989
-0.010989
0.054945
0.17582
0.23077
0.27473
0.38462
0.3956
0.34066
0.28571
0.16484
0.17582
0.1978
0.26374
0.2967
0.16484
-0.010989
-0.076923
-0.010989
0.054945
0.21978
0.30769
0.20879
0.1978
-0.032967
-0.31868
-0.53846
-0.48352
-0.25275
-0.10989
-0.021978
-0.1978
-0.32967
-0.36264
-0.15385
-0.010989
0.054945
0.14286
0.16484
0.16484
0.13187
0.098901
0.065934
-0.098901
-0.21978
-0.15385
-0.12088
-0.16484
-0.17582
-0.13187
-0.010989
0.12088
0.30769
0.26374
0.21978
0.13187
-0.065934
-0.27473
-0.51648
-0.57143
-0.56044
-0.38462
-0.14286
-0.054945
-0.1978
-0.2967
-0.34066
-0.31868
-0.32967
-0.34066
-0.2967
-0.26374
-0.13187
-0.021978
-0.054945
-0.087912
-0.20879
-0.32967
-0.40659
-0.35165
-0.27473
-0.28571
-0.24176
-0.27473
-0.26374
-0.25275
0.010989
0.23077
0.3956
0.42857
0.40659
0.41758
0.37363
0.3956
0.30769
0.20879
0.098901
0.18681
0.10989
-0.10989
-0.14286
-0.23077
-0.25275
-0.20879
-0.12088
-0.12088
-0.16484
-0.098901
-0.16484
-0.14286
-0.12088
0
0.043956
0.076923
0.16484
0.1978
0.10989
0
0.021978
0.010989
0.043956
0.098901
0.23077
0.20879
0.23077
0.24176
0.13187
0.12088
0.098901
0.065934
0.10989
0.17582
0.28571
0.18681
0.17582
0.17582
0.2967
0.38462
0.40659
0.50549
0.48352
0.51648
0.42857
0.26374
-0.010989
-0.054945
-0.010989
0.032967
0.21978
0.2967
0.35165
0.10989
-0.043956
-0.12088
-0.087912
-0.087912
0.076923
0.26374
0.3956
0.51648
0.3956
0.30769
0.24176
0.20879
0.3956
0.52747
0.71429
0.64835
0.35165
0.076923
-0.043956
-0.12088
0.010989
0.24176
0.36264
0.28571
0.087912
0.087912
0.065934
0.17582
0.2967
0.27473
0.20879
0.15385
0.23077
0.17582
0.20879
0.25275
0.16484
0.010989
-0.054945
-0.15385
-0.12088
-0.21978
-0.1978
-0.15385
-0.17582
-0.10989
0.032967
0.098901
0.16484
0.14286
0.14286
0.087912
0.23077
0.34066
0.32967
0.27473
0.35165
0.40659
0.46154
0.49451
0.42857
0.24176
0.032967
-0.010989
-0.10989
-0.24176
-0.3956
-0.41758
-0.38462
-0.30769
-0.054945
0
0.032967
0.021978
-0.010989
0
0.032967
0.010989
0.043956
0.12088
0.15385
0.14286
0.087912
0.087912
0.21978
0.17582
-0.054945
-0.18681
-0.37363
-0.47253
-0.50549
-0.31868
-0.076923
0.098901
0.24176
0.21978
0.098901
0.087912
0.065934
0.12088
0.15385
0.17582
0.21978
0.27473
0.32967
0.53846
0.45055
0.37363
0.34066
0.2967
0.1978
0.12088
0.13187
0.065934
0.054945
-0.010989
-0.010989
-0.087912
0.021978
0.14286
0.25275
0.28571
0.30769
0.31868
0.23077
0.15385
-0.010989
-0.23077
-0.17582
-0.13187
0.12088
0.16484
0.18681
0.076923
-0.076923
-0.032967
-0.021978
0.10989
0.054945
0.098901
-0.12088
-0.27473
-0.31868
-0.087912
0.13187
0.14286
0.12088
-0.021978
-0.076923
-0.16484
-0.25275
-0.34066
-0.47253
-0.41758
-0.32967
-0.23077
-0.1978
-0.16484
-0.15385
-0.065934
0.065934
0.14286
0.12088
0.032967
-0.054945
-0.20879
-0.18681
-0.18681
-0.054945
0
-0.021978
-0.098901
-0.25275
-0.31868
-0.23077
-0.16484
-0.13187
-0.12088
-0.098901
-0.20879
-0.28571
-0.2967
-0.27473
-0.14286
0.043956
0.28571
0.25275
0.21978
0.12088
0.10989
-0.076923
-0.27473
-0.46154
-0.69231
-0.7033
-0.61538
-0.49451
-0.50549
-0.32967
-0.1978
-0.14286
-0.18681
-0.1978
-0.18681
-0.10989
0.043956
0.010989
0.076923
0.032967
0
-0.12088
-0.31868
-0.2967
-0.23077
-0.12088
-0.010989
0.12088
0.065934
-0.076923
-0.17582
-0.25275
-0.3956
-0.6044
-0.76923
-0.84615
-0.72527
-0.59341
-0.53846
-0.47253
-0.36264
-0.10989
-0.087912
-0.065934
0.010989
0.010989
-0.087912
-0.24176
-0.34066
-0.54945
-0.64835
-0.64835
-0.54945
-0.49451
-0.49451
-0.40659
-0.28571
-0.13187
0
0.076923
0.021978
-0.032967
-0.16484
-0.25275
-0.26374
-0.24176
-0.35165
-0.41758
-0.41758
-0.32967
-0.40659
-0.36264
-0.20879
-0.098901
-0.14286
-0.21978
-0.20879
-0.14286
0.032967
0.23077
0.18681
-0.065934
-0.24176
-0.42857
-0.41758
-0.28571
-0.043956
0.032967
0.12088
0.31868
0.40659
0.41758
0.36264
0.36264
0.2967
0.13187
0.054945
-0.098901
-0.27473
-0.30769
-0.24176
-0.10989
0.12088
0.28571
0.25275
0.17582
0.021978
0.10989
0.032967
0.12088
0.23077
0.25275
0.20879
0.17582
0.24176
0.2967
0.32967
0.42857
0.47253
0.51648
0.52747
0.3956
0.20879
-0.032967
-0.065934
-0.15385
-0.18681
-0.032967
0.12088
0.30769
0.38462
0.36264
0.37363
0.21978
0.17582
0.054945
0.043956
0.13187
0.2967
0.31868
0.10989
0.076923
-0.032967
-0.054945
-0.043956
0
0.065934
0.10989
0.16484
0.043956
-0.076923
-0.087912
0.043956
0.14286
0.054945
0.054945
-0.14286
-0.45055
-0.54945
-0.68132
-0.6044
-0.3956
-0.054945
0.23077
0.3956
0.43956
0.52747
0.46154
0.48352
0.53846
0.48352
0.3956
0.26374
0.24176
0.098901
-0.032967
0.098901
0.054945
0.054945
-0.032967
0
-0.010989
0.032967
0.010989
-0.087912
-0.17582
-0.24176
-0.12088
0.098901
0.32967
0.35165
0.46154
0.36264
0.43956
0.20879
0.076923
0.065934
0.21978
0.3956
0.52747
0.7033
0.7033
0.64835
0.65934
0.63736
0.71429
0.49451
0.3956
0.17582
-0.054945
-0.13187
-0.18681
-0.10989
-0.13187
0.010989
0.043956
0.010989
0.043956
0.010989
0.010989
-0.10989
-0.087912
-0.021978
0.14286
0.1978
0.30769
0.18681
0.18681
0.1978
0.14286
0.15385
0.15385
0.21978
0.24176
0.20879
0.14286
0.010989
-0.17582
-0.40659
-0.46154
-0.50549
-0.36264
-0.35165
-0.61538
-0.84615
-0.93407
-0.71429
-0.53846
-0.36264
-0.1978
-0.12088
-0.054945
-0.087912
-0.098901
-0.2967
-0.31868
-0.18681
-0.065934
-0.076923
-0.15385
-0.34066
-0.35165
-0.34066
-0.17582
-0.076923
-0.12088
-0.054945
-0.10989
-0.14286
-0.25275
-0.12088
0.043956
0.043956
-0.010989
-0.16484
-0.43956
-0.53846
-0.48352
-0.37363
-0.25275
-0.054945
0.043956
0.065934
0.054945
0.13187
0.35165
0.40659
0.53846
0.45055
0.47253
0.53846
0.59341
0.59341
0.56044
0.57143
0.49451
0.34066
0.23077
0.24176
0.18681
0.21978
0.42857
0.53846
0.61538
0.51648
0.43956
0.21978
0.13187
0.010989
0.032967
0.021978
0.14286
0.23077
0.14286
0.23077
0.28571
0.31868
0.30769
0.15385
0
-0.10989
0
0.30769
0.51648
0.51648
0.46154
0.34066
0.20879
0.16484
0.098901
0.032967
0
-0.021978
-0.054945
-0.17582
-0.16484
-0.20879
-0.13187
-0.20879
-0.065934
-0.087912
-0.14286
-0.20879
-0.16484
-0.20879
-0.1978
-0.30769
-0.40659
-0.47253
-0.49451
-0.3956
-0.37363
-0.35165
-0.18681
-0.098901
-0.098901
-0.21978
-0.28571
-0.42857
-0.54945
-0.51648
-0.49451
-0.31868
-0.2967
-0.20879
-0.42857
-0.50549
-0.53846
-0.40659
-0.24176
-0.12088
-0.098901
-0.25275
-0.36264
-0.3956
-0.50549
-0.37363
-0.21978
0.087912
0.28571
0.23077
-0.010989
-0.20879
-0.42857
-0.3956
-0.30769
-0.13187
0.010989
0.24176
0.32967
0.28571
0.23077
-0.021978
-0.24176
-0.37363
-0.27473
-0.1978
-0.20879
-0.18681
-0.25275
-0.21978
-0.054945
0.12088
0.31868
0.43956
0.63736
0.8022
0.78022
0.63736
0.42857
0.25275
-0.021978
-0.076923
-0.14286
-0.054945
-0.054945
0.021978
0.054945
0.087912
0.15385
0.12088
-0.087912
-0.28571
-0.46154
-0.58242
-0.6044
-0.6044
-0.63736
-0.61538
-0.37363
-0.098901
-0.032967
0
-0.032967
0.010989
-0.076923
-0.14286
-0.13187
-0.21978
-0.18681
-0.26374
-0.28571
-0.46154
-0.54945
-0.45055
-0.40659
-0.27473
-0.098901
-0.043956
-0.087912
-0.10989
-0.26374
-0.37363
-0.30769
-0.18681
-0.065934
-0.13187
-0.076923
-0.065934
-0.076923
-0.1978
-0.26374
-0.26374
-0.24176
-0.021978
0.087912
0.10989
0.021978
0.043956
-0.10989
-0.13187
-0.13187
-0.076923
-0.098901
-0.098901
-0.054945
0.13187
0.076923
0.2967
0.27473
0.36264
0.30769
0.45055
0.45055
0.30769
0.13187
-0.10989
-0.21978
-0.21978
-0.032967
0.043956
0.087912
0.28571
0.3956
0.54945
0.49451
0.2967
0.14286
0.032967
0.16484
0.13187
-0.010989
-0.1978
-0.2967
-0.35165
-0.36264
-0.34066
-0.2967
-0.2967
-0.23077
-0.20879
-0.2967
-0.25275
-0.17582
-0.23077
-0.34066
-0.37363
-0.21978
-0.021978
0.032967
-0.087912
-0.23077
-0.34066
-0.30769
-0.26374
-0.2967
-0.36264
-0.2967
-0.30769
-0.28571
-0.1978
-0.17582
-0.25275
-0.28571
-0.26374
-0.21978
-0.076923
0.076923
0.18681
0.23077
0.17582
0.26374
0.17582
0.054945
0.021978
-0.076923
-0.098901
-0.087912
0.021978
0.043956
0.043956
0.043956
-0.021978
-0.054945
-0.10989
-0.10989
-0.098901
-0.098901
-0.10989
-0.26374
-0.37363
-0.40659
-0.1978
-0.21978
-0.12088
-0.16484
-0.1978
-0.18681
-0.1978
-0.043956
-0.076923
-0.043956
-0.076923
-0.076923
-0.10989
-0.054945
0.032967
-0.065934
-0.12088
-0.17582
-0.20879
-0.3956
-0.53846
-0.50549
-0.40659
-0.17582
0.087912
0.1978
0.17582
0.17582
0.27473
0.27473
0.20879
0.17582
0.23077
0.25275
0.3956
0.24176
-0.010989
-0.065934
-0.043956
0.043956
-0.021978
-0.021978
-0.14286
-0.1978
-0.27473
-0.27473
-0.23077
-0.098901
0.065934
0.1978
0.20879
0.13187
0.1978
0.17582
0.23077
0.3956
0.51648
0.52747
0.41758
0.47253
0.46154
0.42857
0.51648
0.48352
0.37363
0.27473
0.13187
-0.010989
0.010989
0.098901
0.25275
0.28571
0.17582
0.054945
-0.13187
-0.10989
0.10989
0.17582
-0.010989
-0.10989
-0.1978
-0.25275
-0.12088
-0.032967
0.021978
-0.032967
-0.032967
-0.065934
0.032967
0.15385
0.17582
0.18681
0.032967
0.12088
0.032967
-0.043956
-0.054945
-0.043956
-0.021978
-0.12088
-0.076923
-0.13187
-0.13187
-0.24176
-0.27473
-0.13187
0.010989
0.18681
0.20879
0.032967
0.054945
0.076923
0.087912
0.16484
0.23077
0.47253
0.58242
0.50549
0.67033
0.54945
0.58242
0.63736
0.46154
0.1978
0.010989
-0.043956
0.021978
0
-0.032967
-0.10989
-0.098901
-0.087912
0.021978
0.10989
0.32967
0.65934
0.65934
0.40659
0.076923
-0.10989
-0.15385
-0.054945
0.098901
0.065934
-0.076923
-0.098901
-0.076923
-0.16484
-0.15385
-0.23077
-0.098901
-0.010989
0.032967
-0.065934
-0.28571
-0.2967
-0.21978
0
0.065934
0.13187
0.043956
-0.043956
-0.1978
-0.23077
-0.30769
-0.28571
-0.21978
-0.12088
-0.043956
0.10989
0.26374
0.47253
0.52747
0.62637
0.47253
0.098901
-0.20879
-0.38462
-0.32967
-0.21978
-0.043956
0.054945
0.087912
0.065934
0.043956
0.098901
0.23077
0.24176
0.15385
-0.032967
-0.17582
-0.17582
-0.35165
-0.36264
-0.40659
-0.35165
-0.50549
-0.76923
-0.74725
-0.67033
-0.34066
-0.13187
-0.098901
-0.25275
-0.14286
-0.010989
-0.010989
-0.021978
-0.20879
-0.31868
-0.37363
-0.31868
-0.20879
-0.25275
-0.18681
0.043956
0.21978
0.2967
0.31868
0.27473
0.25275
0.12088
0.076923
0.14286
0.043956
0.10989
0.054945
-0.065934
-0.14286
-0.25275
-0.36264
-0.53846
-0.50549
-0.6044
-0.61538
-0.6044
-0.52747
-0.40659
-0.30769
-0.076923
-0.043956
0.14286
0.20879
0.1978
0.28571
0.25275
0.38462
0.48352
0.49451
0.54945
0.67033
0.72527
0.59341
0.41758
0.21978
0.12088
0.1978
0.38462
0.40659
0.38462
0.2967
0.26374
0.24176
0.23077
0.28571
0.28571
0.50549
0.71429
0.74725
0.56044
0.30769
0.13187
-0.054945
-0.087912
-0.065934
0.010989
-0.032967
-0.23077
-0.28571
-0.23077
-0.010989
0.087912
0.087912
-0.12088
-0.26374
-0.24176
-0.15385
-0.043956
0.16484
0.20879
0.087912
0.13187
0.010989
-0.065934
-0.24176
-0.27473
-0.27473
-0.28571
-0.32967
-0.46154
-0.53846
-0.56044
-0.56044
-0.54945
-0.64835
-0.46154
-0.42857
-0.32967
-0.28571
-0.13187
0.054945
0.065934
0.10989
-0.054945
-0.10989
-0.23077
-0.28571
-0.41758
-0.46154
-0.30769
-0.18681
-0.065934
-0.065934
-0.21978
-0.46154
-0.51648
-0.46154
-0.36264
-0.32967
-0.26374
-0.054945
0
0.054945
0.076923
0.13187
0.26374
0.27473
0.20879
0
-0.087912
-0.032967
0.18681
0.28571
0.47253
0.53846
0.53846
0.61538
0.65934
0.69231
0.53846
0.42857
0.42857
0.47253
0.37363
0.15385
-0.021978
-0.10989
0.12088
0.16484
0.021978
-0.12088
-0.16484
-0.098901
-0.087912
-0.065934
-0.24176
-0.68132
-0.98901
-0.98901
-0.94505
-0.98901
-0.93407
-0.96703
-0.8022
-0.78022
-0.54945
-0.41758
-0.42857
-0.42857
-0.52747
-0.43956
-0.31868
-0.24176
-0.24176
-0.18681
-0.21978
-0.21978
-0.27473
-0.15385
0.010989
0.12088
0.17582
0.24176
0.1978
0.18681
0.1978
0.20879
0.098901
-0.021978
-0.12088
-0.087912
-0.23077
-0.087912
0.098901
0.24176
0.52747
0.47253
0.40659
0.076923
-0.13187
-0.20879
-0.25275
-0.065934
0
0.043956
-0.021978
0.054945
0.20879
0.20879
0.18681
0.15385
0.098901
-0.010989
0
-0.076923
-0.076923
-0.098901
-0.065934
0.043956
0.032967
0.1978
0.098901
-0.032967
-0.27473
-0.37363
-0.36264
-0.41758
-0.25275
-0.27473
-0.34066
-0.47253
-0.57143
-0.82418
-0.85714
-0.72527
-0.53846
-0.36264
-0.38462
-0.25275
-0.25275
-0.26374
-0.43956
-0.6044
-0.69231
-0.50549
-0.24176
-0.17582
-0.16484
-0.21978
-0.25275
-0.64835
