-0.05802
-0.12628
-0.12628
-0.19454
-0.26962
-0.18089
-0.064846
0.051195
0.13993
0.25597
0.35154
0.24915
0.064846
-0.16041
-0.39249
-0.57679
-0.69283
-0.67235
-0.52218
-0.35836
-0.20819
-0.09215
-0.14676
-0.05802
-0.09215
-0.085324
-0.11945
-0.11945
-0.19454
-0.14676
-0.085324
-0.15358
-0.27645
-0.36519
-0.25597
-0.16041
-0.071672
-0.023891
-0.003413
0.05802
0.030717
0.003413
0.030717
-0.023891
-0.010239
-0.11945
-0.11945
-0.15358
0.003413
-0.030717
0.003413
0.071672
0.11945
0.11263
0.12628
0.2628
0.49488
0.78157
1
0.93174
0.6041
0.22867
0.010239
-0.12628
-0.17406
-0.2901
-0.44027
-0.62457
-0.62457
-0.61775
-0.53584
-0.4198
-0.37201
-0.33106
-0.33788
-0.098976
0.044369
0.13993
0.1058
-0.030717
-0.098976
-0.22184
-0.35154
-0.45392
-0.56997
-0.59044
-0.50853
-0.43345
-0.39249
-0.30375
-0.37884
-0.35154
-0.37884
-0.33788
-0.4471
-0.49488
-0.48123
-0.25597
-0.010239
0.003413
-0.09215
-0.34471
-0.54949
-0.56314
-0.58362
-0.59727
-0.54266
-0.46758
-0.52218
-0.48805
-0.6314
-0.65188
-0.72696
-0.76109
-0.69966
-0.69966
-0.68601
-0.65188
-0.59727
-0.58362
-0.56314
-0.40614
-0.35836
-0.38567
-0.48123
-0.44027
-0.33788
-0.13311
0.085324
0.27645
0.25597
0.078498
-0.098976
-0.20819
-0.31058
-0.37884
-0.52901
-0.6314
-0.64505
-0.53584
-0.4471
-0.45392
-0.42662
-0.39932
-0.35836
-0.24232
-0.098976
0.003413
0.010239
0.044369
0.05802
-0.003413
0.044369
-0.064846
-0.22184
-0.4198
-0.48805
-0.33788
-0.1058
0.14676
0.32423
0.34471
0.30375
0.28328
0.17406
0.085324
0.05802
0.1058
0.078498
0.010239
-0.098976
-0.2901
-0.37201
-0.34471
-0.29693
-0.29693
-0.2628
-0.23549
-0.23549
-0.2628
-0.26962
-0.25597
-0.20137
-0.24232
-0.27645
-0.34471
-0.48123
-0.51536
-0.53584
-0.54266
-0.52218
-0.46758
-0.45392
-0.46075
-0.39249
-0.41297
-0.46758
-0.56997
-0.70648
-0.80887
-0.93857
-0.89761
-0.67235
-0.55631
-0.46075
-0.55631
-0.64505
-0.62457
-0.46075
-0.30375
-0.22184
-0.2628
-0.26962
-0.34471
-0.28328
-0.2628
-0.27645
-0.2628
-0.28328
-0.23549
-0.16041
0.010239
0.20137
0.22867
0.098976
-0.044369
-0.098976
-0.071672
-0.030717
-0.051195
-0.15358
-0.31058
-0.33788
-0.30375
-0.4198
-0.51536
-0.56314
-0.58362
-0.59727
-0.55631
-0.37884
-0.19454
0.003413
0.19454
0.23549
0.22184
0.16041
0.13993
0.13993
0.098976
0.16724
0.13311
0.030717
-0.1058
-0.15358
-0.16041
-0.18771
-0.14676
-0.078498
-0.085324
0.11945
0.18089
0.17406
0.030717
-0.078498
-0.13993
-0.13993
0.010239
0.18089
0.32423
0.35836
0.35154
0.20819
0.11263
0.15358
0.30375
0.43345
0.50171
0.52218
0.54266
0.56997
0.63823
0.76792
0.68601
0.56314
0.42662
0.30375
0.24915
0.20819
0.11263
0.010239
-0.023891
-0.044369
-0.09215
-0.14676
-0.20137
-0.085324
-0.09215
0.023891
0.064846
0.11945
0.18771
0.29693
0.30375
0.2901
0.23549
0.20137
0.09215
0.030717
0.11945
0.11945
0.09215
-0.023891
-0.05802
0.071672
0.25597
0.38567
0.39249
0.2628
0.17406
0.078498
0.017065
-0.003413
-0.1058
-0.11263
-0.26962
-0.25597
-0.2628
-0.29693
-0.2901
-0.22867
-0.1058
0.09215
0.11263
0.05802
-0.11263
-0.21502
-0.15358
-0.1058
-0.15358
-0.31741
-0.38567
-0.36519
-0.31741
-0.17406
-0.24915
-0.27645
-0.2901
-0.33788
-0.2901
-0.18089
-0.023891
0.017065
-0.023891
-0.051195
-0.19454
-0.2901
-0.32423
-0.27645
-0.11263
0.12628
0.33788
0.48123
0.58362
0.56314
0.54949
0.33788
0.18771
0.098976
0.030717
-0.030717
-0.05802
-0.16724
-0.31058
-0.31058
-0.13993
0.064846
0.16724
0.19454
0.22184
0.20137
0.18771
0.16724
0.22867
0.19454
0.18089
-0.078498
-0.44027
-0.72696
-0.82253
-0.69283
-0.51536
-0.35836
-0.28328
-0.29693
-0.24232
0.044369
0.023891
-0.071672
-0.27645
-0.42662
-0.37884
-0.29693
-0.37884
-0.55631
-0.69283
-0.66553
-0.39249
-0.24915
-0.003413
0.078498
0.078498
0.16041
0.34471
0.54266
0.6314
0.6314
0.55631
0.49488
0.58362
0.6041
0.50171
0.18771
-0.030717
-0.071672
0.010239
0.25597
0.4198
0.46758
0.32423
0.32423
0.27645
0.27645
0.15358
0.003413
-0.017065
-0.078498
0.003413
0.023891
0.030717
0.037543
0.078498
0.1058
0.09215
0.085324
0.010239
-0.12628
-0.19454
-0.22867
-0.28328
-0.44027
-0.50171
-0.51536
-0.25597
-0.098976
0.071672
-0.017065
-0.037543
-0.037543
-0.044369
-0.09215
-0.17406
-0.18771
-0.29693
-0.20137
-0.16724
-0.071672
-0.20137
-0.24915
-0.030717
0.098976
0.2628
0.4744
0.45392
0.39249
0.27645
0.16724
0.14676
0.18771
0.14676
0.15358
0.071672
0.18089
0.16724
0.15358
0.11263
0.064846
0.18771
0.18089
0.15358
0.098976
-0.13993
-0.33106
-0.50853
-0.50853
-0.37884
-0.13993
0.085324
0.17406
0.4471
0.64505
0.843
0.85666
0.82253
0.61092
0.40614
0.18771
0.037543
-0.064846
-0.16724
-0.13311
-0.071672
0.023891
0.13993
0.22184
0.15358
0.1058
0.078498
0.15358
0.17406
0.14676
0.16724
0.078498
-0.030717
-0.085324
-0.003413
0.14676
0.39932
0.39249
0.27645
0.19454
0.14676
0.18089
0.098976
0.071672
0.078498
0.21502
0.22184
0.13993
-0.030717
-0.13993
-0.16724
-0.11263
-0.044369
-0.017065
-0.044369
-0.085324
-0.27645
-0.27645
-0.2628
-0.25597
-0.17406
-0.16724
-0.11263
0.037543
-0.030717
-0.12628
-0.37201
-0.4471
-0.28328
0.037543
0.20137
0.32423
0.34471
0.28328
0.35836
0.48805
0.48123
0.34471
0.19454
-0.030717
-0.09215
-0.078498
-0.071672
-0.023891
-0.19454
-0.20137
-0.16041
-0.11945
-0.017065
0.017065
-0.051195
-0.15358
-0.26962
-0.22867
-0.22184
-0.29693
-0.46758
-0.68601
-0.75427
-0.63823
-0.48123
-0.32423
-0.098976
0.010239
0.064846
0.11263
0.15358
0.25597
0.18771
0.05802
0.078498
-0.17406
-0.36519
-0.61092
-0.69283
-0.65188
-0.54266
-0.39249
-0.2628
0.003413
0.26962
0.50853
0.46758
0.41297
0.24915
0.09215
-0.010239
-0.064846
0.010239
-0.085324
-0.14676
-0.29693
-0.40614
-0.44027
-0.31058
-0.098976
0.16724
0.30375
0.24915
0.051195
0.010239
0.051195
0.12628
0.071672
0.003413
0.071672
0.09215
0.22867
0.31741
0.38567
0.48123
0.55631
0.57679
0.65188
0.49488
0.36519
0.071672
-0.18089
-0.26962
-0.32423
-0.33788
-0.28328
-0.20137
0.064846
0.13311
0.28328
0.19454
0.071672
-0.044369
-0.023891
-0.16041
-0.17406
-0.23549
-0.18771
-0.13311
-0.085324
-0.017065
0.010239
0.010239
-0.003413
0.044369
-0.030717
0.017065
0.037543
-0.003413
-0.023891
-0.19454
-0.37201
-0.56314
-0.6587
-0.74061
-0.68601
-0.62457
-0.48805
-0.22867
-0.1058
0.064846
-0.003413
-0.064846
-0.11945
-0.1058
-0.13311
-0.35154
-0.50853
-0.76109
-0.91809
-0.95222
-0.78157
-0.46758
-0.2628
-0.1058
-0.11263
-0.16041
-0.21502
-0.18089
-0.24915
-0.20137
-0.11945
-0.030717
-0.11263
-0.25597
-0.23549
-0.2628
-0.18771
-0.16041
-0.044369
0.003413
0.11263
0.16724
0.11263
0.098976
0.078498
-0.023891
-0.12628
-0.2628
-0.22867
-0.22867
-0.20819
-0.32423
-0.40614
-0.37884
-0.38567
-0.33788
-0.42662
-0.4198
-0.16041
0.003413
0.13311
0.071672
-0.051195
-0.20819
-0.20819
-0.09215
0.085324
0.21502
0.15358
-0.017065
-0.23549
-0.31058
-0.23549
-0.071672
0.010239
0.13993
0.16041
0.23549
0.31058
0.35154
0.30375
0.29693
0.30375
0.18089
0.030717
-0.16724
-0.14676
-0.071672
-0.1058
-0.17406
-0.28328
-0.36519
-0.37201
-0.20137
-0.13311
-0.037543
-0.05802
0.010239
-0.085324
-0.078498
-0.09215
-0.13993
-0.15358
-0.18771
-0.13993
-0.12628
-0.044369
0.003413
-0.05802
-0.13311
-0.19454
-0.26962
-0.36519
-0.35154
-0.2628
-0.20819
-0.13993
-0.1058
0.017065
0.09215
0.030717
-0.13993
-0.31741
-0.33106
-0.22867
-0.16724
-0.18771
-0.20819
-0.16724
-0.05802
0.19454
0.37201
0.29693
0.09215
-0.11945
-0.16724
-0.05802
0.023891
0.11945
0.28328
0.43345
0.66553
0.71331
0.69966
0.50171
0.29693
0.037543
-0.085324
-0.064846
0.071672
-0.010239
0.003413
0.003413
0.003413
0.051195
0.1058
0.17406
0.23549
0.12628
-0.017065
-0.20137
-0.20819
-0.16724
-0.19454
-0.21502
-0.18771
-0.017065
0.044369
0.09215
0.15358
0.2628
0.28328
0.17406
0.085324
0.051195
0.010239
-0.023891
-0.1058
-0.25597
-0.16724
-0.09215
0.030717
0.037543
-0.010239
0.037543
-0.010239
0.19454
0.22184
0.23549
0.19454
0.20819
0.34471
0.33788
0.40614
0.2901
0.16041
0.12628
0.16041
0.20819
0.098976
-0.030717
-0.21502
-0.35154
-0.2628
-0.25597
-0.20137
-0.28328
-0.2901
-0.29693
-0.29693
-0.35836
-0.22867
-0.09215
0.24915
0.39249
0.44027
0.31741
0.31741
0.37201
0.35154
0.33106
0.2628
0.17406
0.064846
0.098976
0.09215
0.11263
0.12628
0.23549
0.39932
0.46075
0.45392
0.36519
0.15358
-0.1058
-0.30375
-0.46758
-0.39249
-0.24232
0.1058
0.22867
0.26962
0.20137
0.11945
0.071672
0.09215
0.085324
-0.003413
-0.18089
-0.33788
-0.50171
-0.54266
-0.33788
-0.21502
-0.22184
-0.32423
-0.39249
-0.22184
-0.044369
0.25597
0.31741
0.31058
0.17406
0.16041
0.098976
0.071672
-0.003413
-0.13311
-0.20137
-0.24915
-0.071672
0.071672
0.20819
0.28328
0.31741
0.35154
0.4198
0.50853
0.41297
0.35836
0.20819
-0.010239
-0.20819
-0.34471
-0.37884
-0.38567
-0.17406
-0.010239
0.17406
0.20819
0.12628
0.11945
0.023891
-0.037543
-0.037543
-0.044369
-0.19454
-0.4471
-0.59727
-0.74744
-0.62457
-0.58362
-0.59727
-0.73379
-0.88396
-0.83618
-0.74744
-0.45392
-0.18771
-0.030717
-0.003413
0.030717
-0.003413
-0.11263
-0.26962
-0.29693
-0.24915
-0.05802
-0.037543
-0.22867
-0.56314
-0.84983
-0.82253
-0.62457
-0.41297
-0.16724
-0.17406
-0.16724
-0.22867
-0.23549
-0.31741
-0.32423
-0.21502
-0.078498
0.044369
0.14676
0.18771
0.12628
0.051195
-0.16724
-0.35154
-0.46075
-0.42662
-0.27645
-0.23549
-0.27645
-0.31058
-0.27645
-0.23549
-0.16041
-0.037543
-0.18089
-0.1058
-0.13311
-0.12628
-0.15358
-0.21502
-0.14676
-0.098976
-0.010239
0.003413
0.12628
0.16041
0.26962
0.27645
0.18771
0.078498
-0.078498
-0.20137
-0.31058
-0.34471
-0.42662
-0.37201
-0.22867
-0.071672
0.051195
-0.003413
0.003413
-0.037543
-0.20819
-0.24915
-0.24232
-0.19454
-0.28328
-0.27645
-0.30375
-0.14676
-0.085324
0.023891
0.037543
-0.051195
-0.017065
-0.017065
0.023891
0.09215
0.16724
0.17406
0.17406
0.20137
0.010239
-0.20137
-0.43345
-0.4744
-0.36519
-0.31058
-0.20819
-0.17406
-0.071672
-0.017065
0.16724
0.11945
0.1058
0.085324
0.071672
-0.023891
-0.085324
-0.1058
-0.13311
0.071672
0.16724
0.18089
0.003413
-0.098976
-0.003413
0.17406
0.31058
0.40614
0.35836
0.32423
0.16041
0.023891
-0.25597
-0.48805
-0.50853
-0.39932
-0.27645
-0.16041
-0.13311
-0.13993
-0.19454
-0.20819
-0.11945
-0.1058
-0.051195
-0.085324
-0.16041
-0.23549
-0.17406
-0.22867
-0.30375
-0.33106
-0.33788
-0.18089
-0.051195
0.21502
0.33788
0.52218
0.6041
0.6314
0.67235
0.54949
0.46075
0.21502
0.051195
0.023891
0.09215
0.13311
0.24232
0.37201
0.44027
0.49488
0.53584
0.56997
0.49488
0.24232
0.030717
-0.18089
-0.21502
-0.09215
-0.1058
-0.085324
-0.11945
-0.09215
-0.05802
0.003413
0.078498
0.19454
0.20137
0.31058
0.22867
0.030717
-0.16724
-0.33106
-0.39249
-0.41297
-0.32423
-0.18771
0.05802
0.16724
0.26962
0.22184
0.20137
0.2628
0.36519
0.40614
0.41297
0.36519
0.22867
0.078498
-0.098976
-0.11945
-0.12628
-0.09215
-0.030717
0.037543
0.20819
0.30375
0.21502
-0.023891
-0.21502
-0.23549
-0.20819
-0.20137
-0.28328
-0.54949
-0.6587
-0.66553
-0.29693
-0.05802
0.1058
0.09215
-0.003413
-0.09215
-0.078498
-0.010239
-0.044369
-0.030717
-0.064846
-0.085324
-0.085324
-0.071672
-0.09215
-0.24915
-0.4198
-0.36519
-0.32423
-0.18771
-0.18771
-0.21502
-0.2628
-0.2628
-0.18771
-0.098976
-0.071672
-0.05802
-0.16041
-0.25597
-0.31741
-0.27645
-0.23549
-0.16724
0.051195
0.064846
0.16041
-0.044369
-0.11263
-0.21502
-0.29693
-0.16724
-0.1058
-0.098976
-0.22184
-0.23549
-0.20819
-0.051195
-0.05802
-0.13993
-0.25597
-0.21502
-0.003413
0.17406
0.23549
0.23549
0.11945
0.044369
0.13311
0.33788
0.33106
0.28328
0.044369
-0.11263
-0.13311
-0.13311
-0.098976
-0.13993
-0.11945
-0.003413
0.16041
0.2901
0.29693
0.23549
0.22867
0.18771
0.19454
0.071672
0.003413
-0.010239
0.051195
-0.037543
0.023891
0.098976
0.085324
-0.05802
-0.16041
-0.17406
-0.11263
0.051195
0.31058
0.39932
0.48123
0.42662
0.37201
0.2901
0.15358
-0.030717
-0.22867
-0.39249
-0.37201
-0.2901
-0.24915
-0.1058
-0.044369
0.044369
0.05802
0.12628
0.044369
-0.1058
-0.2901
-0.36519
-0.30375
-0.21502
-0.003413
0.044369
0.20137
0.24232
0.41297
0.48805
0.48805
0.44027
0.24232
-0.044369
-0.28328
-0.34471
-0.31741
-0.19454
-0.12628
-0.09215
-0.28328
-0.38567
-0.46075
-0.40614
-0.21502
-0.05802
-0.051195
-0.16041
-0.24232
-0.15358
-0.13311
-0.09215
-0.11263
-0.1058
-0.071672
0.078498
0.18089
0.15358
0.030717
-0.14676
-0.23549
-0.19454
-0.14676
-0.071672
-0.05802
-0.24232
-0.34471
-0.35836
-0.28328
-0.05802
-0.017065
-0.11263
-0.17406
-0.098976
0.023891
0.11263
0.12628
-0.010239
-0.16041
-0.31058
-0.2901
-0.31741
-0.33106
-0.22184
-0.16724
-0.16041
-0.14676
-0.098976
-0.13311
-0.023891
-0.051195
-0.064846
-0.23549
-0.32423
-0.29693
-0.2628
-0.19454
-0.044369
0.071672
0.11263
0.21502
0.33106
0.42662
0.50853
0.6587
0.55631
0.39249
0.23549
0.11945
0.003413
-0.12628
-0.28328
-0.4198
-0.56314
-0.48805
-0.32423
-0.20137
-0.18771
-0.09215
-0.16041
-0.13993
-0.22184
-0.26962
-0.39932
-0.54266
-0.52901
-0.46758
-0.36519
-0.16724
-0.16041
-0.15358
-0.05802
0.13993
0.33788
0.39249
0.37201
0.20819
0.13311
0.23549
0.39249
0.44027
0.33788
0.19454
0.023891
-0.12628
-0.21502
-0.15358
-0.044369
0.003413
0.12628
0.064846
0.003413
-0.16724
-0.19454
-0.24232
-0.22867
-0.24232
-0.33106
-0.4471
-0.43345
-0.23549
0.010239
0.20137
0.31741
0.09215
-0.16041
-0.45392
-0.36519
-0.21502
-0.098976
-0.085324
-0.09215
-0.27645
-0.4471
-0.59044
-0.68601
-0.72014
-0.6587
-0.6314
-0.54266
-0.41297
-0.41297
-0.54266
-0.57679
-0.56314
-0.36519
-0.23549
-0.05802
0.044369
-0.037543
-0.18771
-0.32423
-0.36519
-0.39249
-0.2901
-0.33106
-0.35836
-0.50853
-0.48805
-0.46758
-0.37884
-0.2628
-0.22184
-0.18089
-0.078498
-0.051195
-0.017065
-0.017065
-0.003413
0.078498
-0.017065
-0.16041
-0.27645
-0.43345
-0.39249
-0.37201
-0.38567
-0.4744
-0.4471
-0.39249
-0.19454
0.064846
0.23549
0.33106
0.25597
0.11945
0.09215
0.064846
0.1058
0.05802
-0.017065
-0.18089
-0.29693
-0.31058
-0.28328
-0.24232
-0.098976
-0.078498
-0.037543
0.085324
0.18089
0.23549
0.29693
0.36519
0.36519
0.2628
0.17406
0.13311
0.037543
0.044369
0.051195
0.13311
0.14676
0.27645
0.42662
0.62457
0.78157
0.82253
0.68601
0.39249
0.19454
0.030717
-0.078498
0.030717
-0.085324
-0.11263
-0.25597
-0.23549
-0.085324
0.010239
0.09215
0.20819
0.20819
0.22184
0.19454
0.17406
0.21502
0.17406
0.22867
0.11945
0.064846
0.003413
-0.010239
-0.051195
0.051195
0.24232
0.4198
0.53584
0.54949
0.4198
0.16041
0.037543
-0.017065
-0.1058
-0.19454
-0.26962
-0.24915
-0.24232
-0.16724
-0.12628
-0.16041
-0.05802
0.078498
0.22867
0.31058
0.36519
0.45392
0.50853
0.46758
0.40614
0.2628
-0.030717
-0.30375
-0.68601
-0.89078
-0.92491
-0.78157
-0.61092
-0.36519
-0.051195
0.18089
0.26962
0.23549
0.1058
0.037543
0.11263
0.22867
0.23549
0.12628
-0.023891
-0.20819
-0.32423
-0.40614
-0.30375
-0.17406
-0.05802
-0.003413
0.071672
-0.051195
-0.24232
-0.49488
-0.56997
-0.59727
-0.54949
-0.45392
-0.41297
-0.44027
-0.44027
-0.43345
-0.24232
-0.064846
0.010239
-0.11945
-0.20819
-0.22867
-0.21502
-0.20137
-0.31058
-0.33788
-0.38567
-0.31741
-0.17406
-0.064846
-0.037543
-0.003413
0.064846
0.071672
-0.023891
-0.13311
-0.11263
-0.064846
0.071672
0.11263
0.023891
-0.078498
-0.13993
-0.13311
-0.17406
-0.13993
-0.19454
-0.2628
-0.28328
-0.20137
-0.11263
-0.044369
0.12628
0.2901
0.34471
0.36519
0.35154
0.30375
0.22867
0.18771
0.09215
0.037543
0.15358
0.24232
0.2901
0.22184
0.22184
0.25597
0.34471
0.29693
0.2901
0.20137
0.25597
0.28328
0.2901
0.20137
0.16041
0.27645
0.37201
0.6041
0.74744
0.73379
0.6314
0.46075
0.43345
0.35154
0.32423
0.36519
0.25597
0.13993
0.05802
0.1058
0.19454
0.24232
0.36519
0.45392
0.43345
0.34471
0.16724
0.003413
-0.085324
-0.044369
-0.023891
-0.023891
0.044369
-0.030717
0.11263
0.11945
0.24915
0.25597
0.18771
0.22184
0.22184
0.16041
0.11945
0.085324
0.098976
0.030717
0.030717
-0.098976
-0.078498
-0.023891
0.003413
0.051195
-0.030717
0.030717
0.037543
0.044369
0.017065
-0.030717
-0.1058
-0.05802
0.13993
0.14676
0.11945
-0.11263
-0.21502
-0.24232
-0.16041
-0.023891
0.037543
0.11263
0.13311
0.11263
0.023891
-0.017065
0.085324
0.19454
0.23549
0.22867
0.16724
0.12628
0.051195
0.017065
-0.010239
-0.051195
-0.11945
-0.26962
-0.30375
-0.24915
-0.030717
0.1058
0.078498
-0.030717
-0.2628
-0.4471
-0.59044
-0.61775
-0.61775
-0.61092
-0.39249
-0.078498
0.051195
0.071672
-0.064846
-0.18089
-0.21502
-0.14676
-0.05802
-0.078498
-0.20137
-0.25597
-0.46758
-0.53584
-0.54949
-0.52218
-0.39249
-0.25597
-0.14676
-0.11263
0.003413
0.20137
0.2628
0.16724
0.023891
-0.085324
-0.15358
-0.22184
-0.22867
-0.18771
-0.15358
-0.15358
-0.1058
-0.19454
-0.15358
-0.17406
-0.19454
-0.18089
-0.064846
0.017065
-0.037543
-0.1058
-0.12628
-0.16724
-0.13311
-0.16041
-0.18771
-0.26962
-0.25597
-0.18089
-0.11945
-0.16724
-0.13311
-0.28328
-0.36519
-0.42662
-0.32423
-0.17406
-0.14676
-0.030717
-0.05802
0.023891
0.09215
0.24232
0.46758
0.62457
0.88396
0.89078
0.82253
0.61092
0.46075
0.31058
0.2628
0.22184
0.030717
-0.13311
-0.33106
-0.34471
-0.2901
-0.21502
-0.13311
-0.085324
-0.17406
-0.20137
-0.17406
-0.18771
-0.11945
-0.16724
-0.22867
-0.29693
-0.33106
-0.35154
-0.42662
-0.4198
-0.32423
-0.1058
0.098976
0.22184
0.28328
0.23549
0.17406
0.32423
0.20819
0.11945
-0.037543
-0.11945
-0.19454
-0.30375
-0.41297
-0.54266
-0.54949
-0.52218
-0.36519
-0.23549
-0.13993
-0.05802
-0.003413
-0.044369
-0.037543
-0.11945
-0.21502
-0.22184
-0.20137
-0.1058
0.044369
0.14676
0.098976
-0.15358
-0.43345
-0.53584
-0.45392
-0.2901
-0.11945
-0.030717
-0.05802
-0.098976
-0.064846
-0.023891
0.023891
-0.037543
-0.12628
-0.24232
-0.30375
-0.2628
-0.31741
-0.31741
-0.23549
-0.19454
-0.28328
-0.39249
-0.40614
-0.27645
-0.17406
-0.023891
-0.085324
-0.19454
-0.21502
-0.12628
-0.071672
-0.085324
-0.071672
-0.05802
-0.064846
-0.064846
0.064846
-0.064846
-0.085324
-0.14676
-0.071672
0.05802
0.17406
0.14676
0.037543
-0.030717
-0.003413
0.13993
0.16041
0.29693
0.17406
0.14676
0.044369
0.05802
0.098976
0.010239
-0.098976
-0.22184
-0.37884
-0.35154
-0.17406
-0.1058
-0.064846
-0.037543
-0.05802
0.017065
-0.017065
-0.044369
-0.098976
-0.13311
-0.13993
-0.22184
-0.25597
-0.25597
-0.14676
-0.098976
-0.064846
-0.051195
-0.15358
-0.22867
-0.25597
-0.20819
-0.16041
-0.13311
-0.085324
-0.071672
-0.010239
0.064846
0.15358
0.14676
0.023891
-0.1058
-0.20137
-0.21502
-0.23549
0.017065
0.003413
0.11263
0.078498
-0.003413
-0.017065
-0.010239
-0.05802
-0.12628
-0.11945
-0.11263
-0.11263
-0.1058
-0.078498
-0.017065
0.017065
0.16724
0.2628
0.32423
0.26962
0.22184
0.1058
-0.071672
-0.26962
-0.31741
-0.27645
-0.2628
-0.16041
-0.064846
0.051195
0.09215
0.085324
0.09215
-0.05802
-0.11263
-0.20819
-0.2628
-0.16724
-0.064846
-0.064846
-0.05802
-0.037543
0.11263
0.35154
0.44027
0.37884
0.05802
-0.1058
-0.098976
0.078498
0.21502
0.2628
0.098976
-0.13311
-0.22184
-0.19454
-0.071672
0.023891
-0.017065
-0.078498
-0.22867
-0.23549
-0.12628
0.023891
0.071672
0.09215
0.05802
-0.003413
0.085324
0.085324
0.078498
-0.071672
-0.16041
-0.051195
0.078498
0.25597
0.37884
0.46075
0.40614
0.34471
0.098976
-0.13311
-0.28328
-0.23549
-0.13993
-0.13311
-0.023891
-0.05802
0.20819
0.32423
0.41297
0.33106
0.19454
0.18771
0.20137
0.11945
-0.05802
-0.21502
-0.38567
-0.48123
-0.35154
-0.33788
-0.17406
-0.05802
0.13311
0.24232
0.32423
0.24232
0.09215
0.030717
-0.1058
-0.1058
-0.18771
-0.24232
-0.12628
-0.037543
-0.037543
-0.071672
-0.13311
-0.16724
-0.23549
-0.20137
-0.17406
-0.11945
-0.05802
-0.09215
-0.18771
-0.20137
-0.085324
-0.037543
0.003413
0.023891
0.098976
0.12628
0.13993
0.13311
0.22867
0.37884
0.52901
0.59044
0.48805
0.34471
0.18771
0.044369
-0.071672
-0.12628
-0.16041
-0.09215
-0.098976
-0.051195
-0.12628
-0.22184
-0.12628
-0.098976
-0.051195
-0.037543
0.051195
0.18771
0.2901
0.25597
0.05802
-0.18089
-0.25597
-0.18089
-0.14676
-0.11263
-0.030717
0.11263
0.18771
0.24915
0.31058
0.33106
0.32423
0.21502
0.085324
-0.030717
-0.14676
-0.12628
-0.2628
-0.14676
-0.037543
0.20137
0.36519
0.43345
0.44027
0.40614
0.31058
0.38567
0.34471
0.29693
0.24915
0.17406
0.037543
0.037543
0.09215
0.21502
0.29693
0.37201
0.45392
0.41297
0.28328
0.18089
0.16041
0.20819
0.38567
0.36519
0.23549
-0.05802
-0.31741
-0.39249
-0.30375
-0.051195
0.085324
0.098976
0.19454
0.19454
0.33788
0.34471
0.41297
0.36519
0.18771
0.030717
-0.09215
-0.17406
-0.14676
-0.09215
-0.071672
-0.064846
-0.044369
0.085324
0.17406
0.30375
0.33788
0.40614
0.20819
-0.05802
-0.35154
-0.6587
-0.80887
-0.91126
-1
-1
-0.843
-0.56314
-0.26962
0.010239
0.16041
0.29693
0.2901
0.29693
0.2901
0.33788
0.23549
0.044369
-0.2628
-0.63823
-0.76792
-0.73379
-0.56314
-0.32423
-0.064846
0.15358
0.25597
0.36519
0.29693
0.11263
-0.1058
-0.20819
-0.21502
-0.11263
-0.17406
-0.32423
-0.56997
-0.56314
-0.37884
-0.071672
0.18089
0.35154
0.33788
0.23549
0.16041
0.18771
0.19454
0.15358
0.1058
-0.078498
-0.18089
-0.14676
0.071672
0.19454
0.29693
0.33106
0.40614
0.39932
0.28328
0.21502
-0.003413
-0.13993
-0.22184
-0.25597
-0.25597
-0.19454
-0.22867
-0.098976
-0.13993
-0.017065
0.044369
0.098976
0.26962
0.33788
0.31058
0.16724
0.071672
-0.051195
-0.05802
-0.05802
-0.085324
-0.12628
-0.19454
-0.15358
-0.09215
0.098976
0.16041
0.15358
0.030717
-0.003413
0.05802
0.17406
0.15358
0.15358
0.05802
0.098976
0.023891
0.010239
-0.078498
-0.24915
-0.23549
-0.2901
-0.27645
-0.26962
-0.20819
-0.2901
-0.35154
-0.33106
-0.30375
-0.21502
-0.17406
-0.030717
0.05802
0.16724
0.2901
0.28328
0.24232
0.15358
0.044369
-0.12628
-0.27645
-0.28328
-0.32423
-0.38567
-0.37884
-0.26962
-0.11263
0.003413
0.023891
0.13993
0.22184
0.34471
0.48805
0.46075
0.33106
0.15358
-0.017065
-0.13311
-0.017065
0.010239
0.05802
-0.023891
-0.030717
-0.030717
0.017065
0.030717
-0.010239
-0.11263
-0.20137
-0.24915
-0.15358
-0.25597
-0.18771
-0.34471
-0.39249
-0.44027
-0.38567
-0.2901
-0.22867
-0.098976
-0.010239
0.078498
0.23549
0.22184
0.22867
0.051195
-0.085324
-0.27645
-0.38567
-0.42662
-0.21502
-0.071672
0.044369
0.037543
-0.085324
-0.085324
-0.18089
-0.18771
-0.31058
-0.29693
-0.31741
-0.48805
-0.6314
-0.69283
-0.63823
-0.58362
-0.59727
-0.50853
-0.44027
-0.37884
-0.35154
-0.35154
-0.39249
-0.31741
-0.13993
-0.078498
-0.044369
-0.098976
-0.16724
-0.20137
-0.20819
-0.18771
-0.16724
-0.21502
-0.25597
-0.2628
-0.19454
-0.098976
-0.09215
-0.27645
-0.48805
-0.68601
-0.71331
-0.69966
-0.64505
-0.61092
-0.49488
-0.43345
-0.28328
-0.22184
-0.31741
-0.46075
-0.56314
-0.52901
-0.41297
-0.20819
-0.13993
-0.20137
-0.31058
-0.37201
-0.32423
-0.32423
-0.29693
-0.37884
-0.48805
-0.51536
-0.44027
-0.36519
-0.29693
-0.2628
-0.20819
-0.21502
-0.14676
-0.098976
-0.14676
-0.16041
-0.16724
-0.15358
-0.16724
-0.16041
-0.20137
-0.18771
-0.16724
-0.21502
-0.31741
-0.46758
-0.55631
-0.48123
-0.50853
-0.56997
-0.62457
-0.59044
-0.48805
-0.39932
-0.37884
-0.42662
-0.4471
-0.42662
-0.2628
-0.12628
0.11945
0.28328
0.28328
0.15358
-0.13311
-0.33788
-0.41297
-0.19454
0.010239
0.098976
-0.003413
-0.09215
-0.064846
-0.064846
-0.064846
-0.20819
-0.39932
-0.52218
-0.59044
-0.6041
-0.54949
-0.43345
-0.38567
-0.40614
-0.32423
-0.17406
-0.11945
-0.064846
-0.071672
0.017065
0.05802
0.11945
0.17406
0.16041
0.15358
0.098976
0.098976
0.044369
-0.071672
-0.12628
-0.22184
-0.17406
-0.098976
-0.05802
-0.030717
-0.051195
-0.09215
-0.18771
-0.16041
-0.14676
-0.071672
-0.010239
-0.017065
-0.044369
-0.14676
-0.17406
-0.13993
-0.030717
-0.078498
0.017065
0.044369
0.17406
0.19454
0.12628
-0.010239
-0.13993
-0.078498
-0.010239
-0.037543
-0.14676
-0.18089
-0.2628
-0.31058
-0.27645
-0.22867
-0.071672
0.064846
0.28328
0.29693
0.25597
0.24232
0.17406
0.20819
0.18771
0.18089
0.078498
-0.003413
0.037543
0.24232
0.32423
0.35154
0.29693
0.2628
0.37884
0.48805
0.41297
0.24915
0.1058
0.11263
0.19454
0.35836
0.4744
0.52901
0.37884
0.2628
0.27645
0.38567
0.6314
0.69966
0.50853
0.16041
-0.085324
-0.16724
-0.13311
-0.044369
0.05802
0.085324
0.030717
0.05802
0.071672
0.2628
0.33106
0.34471
0.2628
0.17406
0.18771
0.18089
0.2901
0.22867
0.17406
-0.017065
-0.19454
-0.18771
-0.13311
-0.023891
0.11263
0.20137
0.20137
0.12628
0.17406
0.26962
0.28328
0.27645
0.20137
0.20137
0.32423
0.51536
0.6041
0.56314
0.44027
0.39932
0.18089
0.051195
-0.11945
-0.18771
-0.12628
-0.071672
-0.023891
-0.017065
0.09215
0.33788
0.51536
0.55631
0.4744
0.38567
0.35154
0.35836
0.35836
0.26962
0.037543
-0.13993
-0.24915
-0.22867
-0.051195
0.22867
0.38567
0.34471
0.28328
0.26962
0.28328
0.27645
0.18089
0.003413
-0.19454
-0.27645
-0.26962
-0.37884
-0.43345
-0.37884
-0.26962
-0.064846
0.11945
0.22184
0.29693
0.29693
0.24915
0.1058
0.078498
-0.09215
-0.23549
-0.46758
-0.56314
-0.50853
-0.35836
-0.051195
0.30375
0.51536
0.56314
0.4471
0.36519
0.24915
0.18771
0.17406
0.16041
0.044369
-0.14676
-0.38567
-0.54949
-0.54266
-0.36519
-0.11263
0.16724
0.41297
0.59727
0.59727
0.51536
0.44027
0.38567
0.22867
0.14676
-0.064846
-0.28328
-0.61775
-0.80887
-0.90444
-0.69283
-0.31058
0.078498
0.27645
0.39932
0.39932
0.4198
0.40614
0.50853
0.50853
0.37201
0.09215
-0.1058
-0.31741
-0.37884
-0.2901
-0.34471
-0.33106
-0.37884
-0.32423
-0.2628
-0.2628
-0.24915
-0.33788
-0.26962
-0.24232
-0.085324
-0.030717
0.051195
0.05802
0.017065
-0.09215
-0.18089
-0.24232
-0.29693
-0.36519
-0.41297
-0.4471
-0.45392
-0.41297
-0.37201
-0.53584
-0.6587
-0.74744
-0.70648
-0.59044
-0.46075
-0.32423
-0.18771
-0.064846
0.05802
0.13311
0.17406
0.20819
0.22867
0.15358
0.044369
-0.051195
-0.13993
-0.27645
-0.33788
-0.2628
-0.023891
0.12628
0.31058
0.2628
0.18771
0.19454
0.13311
0.1058
0.064846
0.1058
0.18089
0.044369
0.003413
-0.098976
-0.037543
0.22867
0.50853
0.69966
0.67235
0.51536
0.24232
-0.017065
-0.078498
-0.09215
-0.030717
0.030717
-0.017065
-0.11945
-0.29693
-0.41297
-0.31741
-0.20819
-0.05802
0.064846
0.05802
0.071672
-0.11263
-0.11945
-0.13311
-0.010239
0.023891
-0.098976
-0.33788
-0.42662
-0.44027
-0.42662
-0.30375
-0.09215
0.051195
0.11945
0.098976
0.1058
0.003413
0.078498
-0.05802
-0.064846
-0.23549
-0.28328
-0.30375
-0.23549
-0.11263
-0.017065
0.017065
-0.010239
-0.010239
-0.037543
-0.044369
-0.071672
-0.05802
-0.037543
-0.037543
-0.085324
-0.13311
-0.28328
-0.32423
-0.30375
-0.21502
-0.17406
-0.051195
-0.017065
0.003413
0.051195
0.13311
0.098976
0.12628
0.11945
0.20137
0.18771
0.044369
-0.064846
-0.23549
-0.26962
-0.27645
-0.20137
-0.13993
0.071672
0.23549
0.28328
0.2628
0.18771
0.15358
0.11945
0.09215
0.15358
0.12628
0.078498
0.051195
-0.017065
-0.16724
-0.24915
-0.29693
-0.32423
-0.20819
-0.010239
-0.010239
-0.13993
-0.30375
-0.2628
-0.20137
0.051195
0.25597
0.33788
0.2901
0.22867
0.14676
0.20819
0.26962
0.33106
0.45392
0.54266
0.61775
0.61775
0.56314
0.58362
0.37201
0.2901
0.098976
0.11263
0.16041
0.15358
0.16041
0.12628
0.12628
0.05802
0.13311
0.24232
0.24915
0.24232
0.16724
0.11263
0.085324
0.12628
0.14676
0.14676
0.085324
0.09215
0.017065
-0.003413
0.15358
0.11945
0.14676
0.071672
0.09215
0.16041
0.28328
0.37884
0.39249
0.24232
0.085324
-0.037543
-0.071672
-0.051195
-0.044369
0.023891
0.037543
0.071672
0.078498
0.044369
0.003413
0.030717
0.051195
-0.003413
0.023891
-0.044369
-0.085324
-0.09215
-0.044369
-0.023891
-0.09215
-0.11945
-0.14676
-0.098976
-0.078498
-0.09215
-0.010239
0.085324
0.15358
0.16041
0.11263
0.16724
0.28328
0.30375
0.29693
0.2628
0.20137
0.030717
-0.15358
-0.23549
-0.31058
-0.32423
-0.35154
-0.31058
-0.36519
-0.33788
-0.2628
-0.17406
-0.010239
0.071672
0.037543
-0.023891
0.078498
0.11263
0.071672
-0.037543
-0.16041
-0.23549
-0.26962
-0.23549
-0.071672
0.11263
0.085324
0.13993
0.05802
0.030717
-0.003413
0.051195
0.064846
0.16724
0.2901
0.32423
0.27645
0.22184
0.22184
0.31058
0.50853
0.66553
0.70648
0.62457
0.50853
0.37201
0.2628
0.17406
0.18089
0.16041
0.19454
0.2901
0.19454
0.010239
-0.13311
-0.16724
-0.051195
0.003413
0.09215
0.09215
0.071672
0.05802
0.085324
0.19454
0.20819
0.24915
0.17406
0.051195
-0.010239
-0.051195
-0.20819
-0.078498
-0.13311
-0.037543
-0.16041
-0.19454
-0.071672
-0.05802
-0.030717
-0.16724
-0.20819
-0.38567
-0.50171
-0.4744
-0.52901
-0.50171
-0.54266
-0.51536
-0.59044
-0.65188
-0.62457
-0.56314
-0.34471
-0.16724
0.010239
0.064846
0.18771
0.098976
-0.003413
-0.11945
-0.24232
-0.11945
-0.010239
0.14676
0.13311
0.14676
0.05802
0.18089
0.27645
0.31058
0.33788
0.35154
0.34471
0.29693
0.2901
0.098976
0.010239
-0.030717
0.023891
0.13993
0.15358
0.20819
0.078498
-0.010239
-0.071672
-0.098976
-0.051195
0.044369
0.13993
0.030717
0.037543
0.017065
0.16041
0.22184
0.33788
0.31058
0.20137
0.20819
0.16724
0.20137
0.13993
0.051195
0.064846
0.11263
0.11263
0.078498
-0.044369
-0.17406
-0.09215
0.051195
0.11263
0.1058
0.003413
-0.085324
-0.14676
-0.1058
0.003413
-0.13311
-0.30375
-0.4471
-0.41297
-0.20137
-0.044369
0.003413
0.003413
-0.085324
-0.05802
-0.003413
0.017065
-0.003413
-0.078498
-0.18771
-0.14676
-0.09215
-0.09215
-0.22184
-0.30375
-0.34471
-0.26962
-0.18771
-0.12628
-0.21502
-0.36519
-0.37884
-0.33106
-0.2628
-0.17406
-0.16724
-0.20819
-0.25597
-0.05802
0.017065
0.017065
-0.14676
-0.20819
-0.18089
-0.09215
-0.071672
-0.051195
-0.2628
-0.43345
-0.51536
-0.58362
-0.39932
-0.37201
-0.35154
-0.4198
-0.43345
-0.39249
-0.39249
-0.37884
-0.4744
-0.53584
-0.64505
-0.66553
-0.59727
-0.65188
-0.72696
-0.74061
-0.67918
-0.45392
-0.21502
-0.017065
-0.017065
-0.12628
-0.22184
-0.32423
-0.4744
-0.52218
-0.57679
-0.59727
-0.65188
-0.66553
-0.6041
-0.44027
-0.15358
-0.09215
-0.17406
-0.35154
-0.49488
-0.59727
-0.65188
-0.50171
-0.50853
-0.46758
-0.49488
-0.48805
-0.49488
-0.54949
-0.64505
-0.77474
-0.69966
-0.62457
-0.4198
-0.37201
-0.34471
-0.33106
-0.32423
-0.2901
-0.28328
-0.12628
-0.11263
-0.098976
-0.14676
-0.19454
-0.2628
-0.31741
-0.31058
-0.37201
-0.44027
-0.49488
-0.48123
-0.40614
-0.23549
-0.085324
0.037543
-0.051195
-0.1058
-0.22867
-0.31058
-0.24915
-0.23549
-0.37201
-0.42662
-0.50853
-0.46075
-0.48123
-0.36519
-0.24232
-0.05802
0.15358
0.2901
0.23549
0.003413
-0.16724
-0.24915
-0.32423
-0.33106
-0.35154
-0.39249
-0.49488
-0.48805
-0.57679
-0.55631
-0.58362
-0.45392
-0.26962
-0.071672
0.16724
0.23549
0.21502
0.098976
0.11263
-0.030717
-0.13993
-0.35836
-0.52901
-0.76109
-0.87713
-0.87031
-0.78157
-0.54949
-0.31741
-0.1058
0.017065
0.05802
0.098976
0.13311
0.078498
0.051195
-0.11263
-0.18771
-0.21502
-0.17406
-0.27645
-0.36519
-0.46758
-0.32423
-0.32423
-0.18771
-0.13311
-0.085324
0.09215
0.24232
0.40614
0.2628
0.16724
-0.05802
-0.23549
-0.21502
-0.17406
-0.21502
-0.31741
-0.40614
-0.44027
-0.37201
-0.36519
-0.31741
-0.39249
-0.49488
-0.35836
-0.29693
-0.20137
-0.14676
-0.051195
0.1058
0.16724
0.23549
0.20819
0.20819
0.18089
0.16724
0.05802
0.023891
0.030717
0.14676
0.19454
0.20819
0.17406
0.085324
0.16724
0.35154
0.46758
0.4744
0.31058
0.16041
0.1058
0.13993
0.19454
0.16724
0.078498
-0.023891
-0.044369
-0.003413
0.085324
0.20819
0.28328
0.18089
0.12628
0.1058
0.09215
0.14676
0.1058
0.13993
0.18089
0.22184
0.20137
0.098976
0.030717
0.071672
0.11945
0.064846
0.030717
-0.085324
-0.11263
-0.078498
0.010239
0.098976
0.12628
0.21502
0.21502
0.28328
0.40614
0.54949
0.64505
0.57679
0.46075
0.34471
0.16041
0.064846
-0.003413
-0.023891
0.037543
0.19454
0.26962
0.31058
0.24915
0.11945
-0.09215
-0.22867
-0.13311
-0.1058
-0.037543
-0.05802
0.064846
0.1058
0.22184
0.30375
0.46075
0.6041
0.69966
0.67918
0.39249
0.13993
-0.003413
-0.003413
0.003413
0.017065
0.023891
-0.003413
0.085324
0.21502
0.32423
0.33106
0.30375
0.21502
0.13311
0.071672
0.1058
0.085324
0.044369
0.044369
0.071672
0.037543
-0.010239
0.037543
0.17406
0.20137
0.13311
-0.09215
-0.33106
-0.39932
-0.39249
-0.39249
-0.43345
-0.39249
-0.36519
-0.2628
-0.13311
0.010239
0.085324
0.16041
0.23549
0.27645
0.30375
0.31058
0.34471
0.20137
0.071672
0.037543
0.064846
0.09215
0.09215
0.085324
0.003413
-0.023891
0.037543
0.13993
0.13993
0.05802
0.085324
0.064846
0.14676
0.21502
0.27645
0.27645
0.20137
0.12628
0.030717
-0.030717
-0.010239
-0.003413
0.05802
0.15358
0.27645
0.46075
0.50853
0.62457
0.57679
0.50171
0.46758
0.4198
0.39249
0.36519
0.41297
0.59044
0.54949
0.51536
0.38567
0.26962
0.26962
0.37884
0.52218
0.67235
0.80205
0.87713
0.73379
0.56997
0.40614
0.2628
0.21502
0.22867
0.22184
0.18089
0.044369
0.1058
0.05802
0.14676
0.19454
0.20819
0.20819
0.16041
0.044369
-0.11263
-0.13993
-0.16041
-0.030717
0.044369
0.13311
0.12628
-0.030717
-0.098976
-0.030717
0.22867
0.30375
0.40614
0.31741
0.17406
0.085324
0.037543
0.003413
-0.044369
-0.071672
-0.16041
-0.22184
-0.23549
-0.14676
-0.085324
-0.24915
-0.4198
-0.55631
-0.56997
-0.61775
-0.57679
-0.6587
-0.73379
-0.75427
-0.77474
-0.7884
-0.76109
-0.69966
-0.6041
-0.58362
-0.52218
-0.61092
-0.56314
-0.51536
-0.48123
-0.41297
-0.31058
-0.14676
-0.05802
0.037543
-0.023891
-0.023891
-0.21502
-0.29693
-0.32423
-0.32423
-0.28328
-0.098976
-0.023891
-0.085324
-0.20137
-0.22184
-0.13993
-0.017065
0.037543
0.09215
0.017065
0.010239
0.010239
-0.05802
-0.15358
-0.16041
-0.078498
0.11945
0.34471
0.45392
0.4198
0.25597
0.15358
0.20819
0.19454
0.23549
0.24232
0.24915
0.18089
0.20137
0.16041
0.13993
0.037543
0.003413
-0.064846
-0.26962
-0.23549
-0.30375
-0.24915
-0.33106
-0.41297
-0.4198
-0.43345
-0.28328
-0.28328
-0.20137
-0.22867
-0.22184
-0.32423
-0.46758
-0.54949
-0.64505
-0.72696
-0.72696
-0.63823
-0.61092
-0.55631
-0.59044
-0.64505
-0.76109
-0.69966
-0.56314
-0.50853
-0.54266
-0.59044
-0.4471
-0.43345
-0.46758
-0.53584
-0.57679
-0.4198
-0.18771
-0.017065
0.037543
-0.051195
-0.023891
-0.13993
-0.003413
-0.037543
0.017065
-0.11945
-0.20819
-0.21502
-0.13993
-0.051195
-0.030717
0.051195
-0.037543
0.010239
0.078498
0.16041
0.2901
0.26962
0.13311
0.023891
-0.044369
-0.12628
-0.35836
-0.4744
-0.54949
-0.59044
-0.56997
-0.50171
-0.33788
-0.31741
-0.18089
0.064846
0.31058
0.41297
0.39932
0.34471
0.31058
0.35154
0.33788
0.29693
0.16724
0.13311
0.20137
0.27645
0.39249
0.36519
0.24232
0.34471
0.35154
0.48123
0.46075
0.28328
0.05802
-0.26962
-0.48123
-0.48805
-0.32423
-0.12628
0.16041
0.24232
0.18089
0.09215
0.05802
0.051195
0.051195
0.11263
0.16041
0.23549
0.064846
-0.044369
-0.098976
-0.064846
0.13993
0.28328
0.37201
0.37201
0.45392
0.37884
0.33788
0.42662
0.4198
0.50171
0.48805
0.4744
0.42662
0.36519
0.2901
0.22184
0.20137
0.044369
-0.064846
-0.26962
-0.44027
-0.52218
-0.42662
-0.30375
-0.1058
0.010239
0.085324
0.037543
0.14676
0.22867
0.22867
0.16041
0.16724
0.044369
0.017065
-0.017065
-0.023891
0.030717
0.13311
0.22867
0.24915
0.25597
0.20137
0.14676
0.071672
0.023891
0.09215
0.18089
0.31741
0.42662
0.57679
0.43345
0.33788
0.13311
-0.017065
-0.003413
0.037543
0.15358
0.13311
0.18771
0.16724
0.15358
0.18771
0.24915
0.18771
0.098976
0.037543
-0.003413
-0.010239
-0.010239
-0.05802
-0.11945
-0.20819
-0.19454
-0.098976
-0.071672
-0.085324
-0.078498
-0.15358
-0.1058
-0.051195
0.11945
0.11263
0.11945
0.023891
-0.11945
-0.25597
-0.2628
-0.16041
-0.003413
0.25597
0.33106
0.24232
0.085324
-0.085324
-0.13311
-0.1058
-0.11263
-0.05802
-0.064846
-0.085324
-0.16041
-0.21502
-0.18089
-0.16041
-0.017065
-0.064846
-0.003413
-0.064846
-0.12628
-0.24915
-0.34471
-0.40614
-0.38567
-0.2628
-0.044369
0.25597
0.41297
0.50171
0.37884
0.2628
0.20137
0.27645
0.39249
0.4744
0.59044
0.70648
0.6041
0.50853
0.34471
0.24915
0.15358
0.064846
-0.12628
-0.30375
-0.35836
-0.22867
-0.071672
0.064846
0.09215
0.044369
0.003413
-0.11945
-0.044369
-0.13993
-0.18089
-0.16041
-0.23549
-0.15358
-0.11945
-0.051195
-0.11945
-0.18089
-0.078498
-0.037543
0.11945
0.11263
0.29693
0.24232
0.29693
0.22184
0.098976
-0.017065
-0.078498
-0.085324
-0.017065
0.09215
0.28328
0.37201
0.33788
0.40614
0.30375
0.19454
-0.023891
-0.11263
-0.078498
-0.030717
0.085324
0.13311
0.19454
0.22184
0.23549
0.29693
0.39249
0.48123
0.48123
0.42662
0.36519
0.29693
0.19454
0.023891
0.010239
0.085324
0.18089
0.31741
0.42662
0.6041
0.58362
0.64505
0.58362
0.57679
0.59044
0.59727
0.64505
0.6587
0.68601
0.6041
0.44027
0.36519
0.26962
0.15358
0.09215
0.044369
0.13311
0.16724
0.18089
0.22867
0.19454
0.16041
0.22867
0.24915
0.36519
0.40614
0.55631
0.53584
0.4471
0.35836
0.24232
0.16041
0.085324
0.098976
0.23549
0.37884
0.50853
0.52901
0.48123
0.53584
0.52218
0.45392
0.38567
0.31741
0.41297
0.35836
0.22184
0.051195
-0.11263
-0.18089
-0.13311
-0.11945
-0.11945
-0.22867
-0.34471
-0.41297
-0.4198
-0.21502
-0.044369
0.030717
0.13311
0.064846
-0.003413
-0.030717
0.051195
0.064846
0.1058
0.09215
0.12628
0.18771
0.22867
0.24232
0.15358
0.085324
0.24232
0.24232
0.2628
0.11263
0.064846
0.044369
-0.003413
-0.078498
-0.24915
-0.31058
-0.38567
-0.4198
-0.58362
-0.56997
-0.61775
-0.46758
-0.39932
-0.22867
-0.030717
-0.05802
-0.098976
-0.22184
-0.31058
-0.40614
-0.50171
-0.59727
-0.64505
-0.58362
-0.37201
-0.2628
-0.2628
-0.80887
