-0.16149
-0.068323
-0.024845
-0.012422
-0.055901
-0.14286
-0.14907
-0.24845
-0.26708
-0.24845
-0.19876
-0.19255
-0.13665
-0.074534
-0.031056
0.1118
0.099379
0.049689
-0.1118
-0.13665
0.012422
0.15528
0.22981
0.21118
0.13665
0.13043
0.20497
0.29814
0.24224
0.15528
0.10559
0.074534
0.068323
0.14907
0.12422
0.031056
-0.074534
-0.15528
-0.21739
-0.21118
-0.074534
0.099379
0.1677
0.14286
0.074534
0.012422
-0.049689
0.018634
0.0062112
0.049689
0.049689
0.074534
0.024845
-0.037267
-0.074534
0
-0.049689
-0.086957
-0.14286
-0.28571
-0.2236
-0.10559
-0.031056
-0.037267
-0.024845
-0.031056
-0.012422
-0.018634
-0.024845
-0.0062112
0.0062112
0.031056
0.062112
0.024845
0
-0.018634
-0.1677
-0.1677
-0.36646
-0.45342
-0.39752
-0.29193
-0.19255
-0.086957
0.031056
0.11801
0.26087
0.36025
0.2236
0.10559
-0.086957
-0.18634
-0.2236
-0.24845
-0.30435
-0.34783
-0.28571
-0.1118
0.062112
0.2236
0.17391
0.10559
-0.14286
-0.32919
-0.41615
-0.47826
-0.44099
-0.32919
-0.16149
0
0.024845
0
-0.11801
-0.18634
-0.1118
0.018634
0.10559
0.1677
0.2236
0.25466
0.15528
0.074534
-0.055901
-0.16149
-0.21118
-0.25466
-0.3354
-0.32298
-0.20497
-0.068323
0.055901
0.10559
0.11801
0.099379
0.12422
0.18634
0.1677
0.080745
-0.068323
-0.24224
-0.35404
-0.31677
-0.25466
-0.20497
-0.2795
-0.27329
-0.31677
-0.34783
-0.36646
-0.36025
-0.32919
-0.24845
-0.21118
-0.20497
-0.20497
-0.14907
-0.068323
-0.11801
-0.26087
-0.32919
-0.35404
-0.37267
-0.28571
-0.25466
-0.16149
-0.093168
-0.049689
-0.043478
-0.080745
-0.099379
-0.062112
-0.0062112
0.13665
0.29814
0.57764
0.63354
0.53416
0.29193
-0.074534
-0.30435
-0.3913
-0.36025
-0.27329
-0.13665
0.11801
0.16149
0.17391
-0.012422
-0.17391
-0.24845
-0.15528
-0.043478
0.043478
0.10559
0.13665
0.13665
0.068323
-0.018634
-0.062112
-0.062112
0.062112
0.1677
0.16149
0.049689
-0.080745
-0.21739
-0.29193
-0.19876
-0.012422
0.2236
0.31056
0.38509
0.26708
0.16149
-0.018634
-0.1118
-0.19255
-0.19876
-0.13043
-0.074534
0.0062112
0.024845
0.043478
0.018634
0
-0.0062112
-0.024845
0.062112
0.049689
0.099379
0.031056
0.0062112
0.0062112
-0.024845
-0.043478
0.037267
0.11801
0.15528
0.19255
0.1118
0.074534
0.031056
0.043478
0.10559
0.043478
-0.018634
-0.080745
-0.080745
-0.16149
-0.26087
-0.32919
-0.37267
-0.23602
-0.16149
-0.15528
-0.21118
-0.1677
-0.043478
0.055901
0.093168
0.080745
-0.018634
-0.19255
-0.18634
-0.18634
-0.037267
-0.018634
0.099379
0.18634
0.2236
0.29193
0.22981
0.043478
-0.093168
-0.14286
-0.043478
0.086957
0.2236
0.18634
0.062112
0.037267
0.049689
0.14907
0.19255
0.20497
0.086957
-0.037267
-0.10559
0
0.043478
-0.018634
-0.062112
-0.0062112
0.024845
0.12422
0.11801
0.018634
0.012422
-0.012422
-0.037267
-0.093168
-0.10559
-0.068323
-0.031056
0.080745
0.19876
0.30435
0.29814
0.24845
0.17391
0.074534
0.1118
0.074534
0.068323
-0.074534
-0.1677
-0.099379
-0.049689
-0.080745
-0.16149
-0.27329
-0.34783
-0.31677
-0.27329
-0.25466
-0.18634
-0.10559
-0.012422
0.1118
0.19876
0.1118
-0.018634
-0.049689
0.080745
0.30435
0.26087
0.17391
-0.043478
-0.18634
-0.18012
-0.099379
-0.080745
-0.13043
-0.21739
-0.36025
-0.51553
-0.61491
-0.5528
-0.62112
-0.73292
-0.85714
-0.99379
-1
-0.95652
-0.85714
-0.78882
-0.6087
-0.42857
-0.29814
-0.26087
-0.25466
-0.1677
-0.13043
-0.093168
-0.18634
-0.24224
-0.28571
-0.21739
-0.13043
-0.031056
0.062112
0.16149
0.20497
0.1118
0.062112
-0.0062112
-0.043478
0.037267
0.13665
0.32298
0.40994
0.48447
0.43478
0.34161
0.27329
0.32298
0.34783
0.37267
0.32919
0.31677
0.31677
0.34161
0.32919
0.2236
0.13043
0.14907
0.20497
0.2236
0.19876
0.17391
0.19255
0.34161
0.44099
0.47826
0.35404
0.22981
0.18634
0.13043
0.099379
0.20497
0.13665
0.10559
0.0062112
0.012422
0.024845
0.0062112
-0.018634
-0.055901
-0.037267
-0.012422
0.086957
0.13665
0.1118
0.13043
0.12422
0.17391
0.22981
0.21739
0.12422
0.10559
0.2236
0.36646
0.60248
0.70186
0.81366
0.7205
0.62112
0.50311
0.37267
0.24224
0.24845
0.32298
0.44099
0.54037
0.43478
0.20497
-0.074534
-0.14907
-0.10559
-0.055901
-0.018634
0.018634
0.15528
0.13043
0.21118
0.1118
0.037267
0.031056
0.14907
0.26708
0.34161
0.49068
0.49068
0.47826
0.40373
0.38509
0.29814
0.20497
0.080745
-0.0062112
-0.018634
0.043478
0.23602
0.19255
0.12422
0.031056
0.024845
0.031056
-0.031056
-0.10559
-0.25466
-0.23602
-0.24224
-0.22981
-0.26087
-0.29814
-0.24845
-0.2236
-0.099379
0.031056
0.080745
0.086957
0.19876
0.25466
0.26087
0.14907
0.062112
0.0062112
-0.049689
-0.093168
-0.093168
-0.031056
0.0062112
0.043478
0.031056
-0.031056
0.043478
-0.037267
-0.055901
-0.0062112
0.19876
0.29814
0.24224
0.1118
-0.068323
-0.080745
-0.10559
0.012422
-0.037267
-0.11801
-0.17391
-0.2236
-0.21739
-0.20497
-0.15528
-0.14907
-0.049689
0.037267
0.11801
0.049689
-0.1118
-0.20497
-0.29193
-0.28571
-0.24224
-0.26087
-0.34161
-0.45342
-0.45342
-0.41615
-0.31056
-0.1677
0.0062112
0.049689
0.068323
0.024845
-0.024845
0.037267
0.11801
0.11801
0.012422
-0.080745
-0.13043
-0.22981
-0.31056
-0.38509
-0.42236
-0.3913
-0.2236
-0.20497
-0.21118
-0.29814
-0.32919
-0.29814
-0.2795
-0.19255
-0.17391
-0.13665
-0.10559
-0.086957
-0.080745
-0.15528
-0.13043
0
0.18634
0.31056
0.32919
0.14286
-0.043478
-0.18634
-0.26087
-0.21739
-0.19255
-0.1677
-0.19876
-0.19255
-0.14286
-0.13043
-0.14907
-0.17391
-0.099379
-0.049689
0.21739
0.28571
0.29814
0.14907
0.055901
0.080745
-0.012422
-0.043478
-0.024845
0.049689
0.062112
0.068323
0.086957
0.099379
0.12422
0.10559
0.093168
0.074534
0.055901
0.012422
-0.1118
-0.13665
-0.043478
0.055901
0.1677
0.21118
0.13665
-0.043478
-0.17391
-0.086957
0.093168
0.3354
0.52795
0.57143
0.54658
0.50932
0.45963
0.30435
0.055901
-0.18012
-0.3354
-0.35404
-0.31677
-0.17391
-0.012422
0.074534
0.1677
0.14907
0.086957
0.018634
-0.074534
-0.1677
-0.24845
-0.21118
-0.1677
-0.13043
-0.024845
-0.10559
-0.21118
-0.35404
-0.40373
-0.37267
-0.30435
-0.2236
-0.11801
-0.049689
0.049689
0.12422
0.18634
0.17391
0.23602
0.28571
0.29193
0.34783
0.25466
0.21739
0.11801
0.099379
0.13665
0.13665
0.093168
0.024845
-0.031056
-0.037267
0.1677
0.24845
0.31056
0.25466
0.24224
0.29193
0.28571
0.29814
0.27329
0.2236
0.17391
0.086957
0.086957
0.037267
0.18012
0.29193
0.32298
0.27329
0.18634
0.049689
0.043478
0.16149
0.24224
0.21739
0.086957
-0.074534
-0.21739
-0.20497
-0.062112
0.012422
-0.062112
-0.24845
-0.3354
-0.29193
-0.19876
-0.062112
-0.074534
-0.099379
-0.080745
-0.0062112
-0.049689
-0.062112
-0.080745
-0.0062112
-0.0062112
-0.024845
-0.099379
-0.19255
-0.17391
-0.037267
0.062112
0.074534
-0.024845
-0.15528
-0.29814
-0.19876
-0.018634
0.2236
0.31056
0.32298
0.18634
-0.031056
-0.18634
-0.14907
-0.086957
-0.049689
-0.018634
0
0.037267
0.024845
0.018634
-0.0062112
-0.012422
0.093168
0.1677
0.20497
0.17391
0.16149
0.10559
-0.024845
-0.13665
-0.2795
-0.42857
-0.50311
-0.43478
-0.32919
-0.12422
-0.074534
-0.068323
-0.10559
0
0.20497
0.34161
0.45963
0.45342
0.3354
0.16149
-0.043478
-0.18012
-0.36646
-0.46584
-0.49068
-0.47205
-0.36646
-0.30435
-0.21739
-0.21118
-0.16149
-0.043478
0.086957
0.1118
0.1118
0.068323
0.0062112
-0.037267
-0.024845
-0.0062112
-0.018634
-0.0062112
0.031056
0.037267
0.17391
0.18012
0.14286
-0.17391
-0.3354
-0.40373
-0.34161
-0.21739
-0.13665
-0.16149
-0.24224
-0.11801
-0.12422
-0.1118
-0.24224
-0.3354
-0.32298
-0.22981
-0.093168
-0.037267
-0.055901
-0.10559
-0.018634
0.062112
0.12422
0.080745
-0.068323
-0.1118
-0.093168
-0.031056
-0.018634
-0.068323
-0.10559
0
0.018634
0.10559
0.14907
0.13043
0.13665
0.13043
0.012422
-0.16149
-0.32298
-0.32298
-0.40373
-0.34783
-0.34783
-0.32919
-0.2795
-0.17391
0.031056
0.14907
0.21739
0.16149
0.080745
-0.15528
-0.26087
-0.37267
-0.42236
-0.40373
-0.38509
-0.29193
-0.2236
0
0.26087
0.46584
0.59627
0.6646
0.5528
0.35404
0.18634
0.037267
-0.1118
-0.22981
-0.2795
-0.25466
-0.19876
-0.093168
0.0062112
-0.062112
-0.13043
-0.23602
-0.31056
-0.32919
-0.32919
-0.3913
-0.47826
-0.50932
-0.57764
-0.63354
-0.62112
-0.50932
-0.2236
-0.11801
-0.043478
-0.062112
-0.055901
0.074534
0.21118
0.29193
0.26087
0.19876
0.14286
0.13043
0.037267
-0.043478
-0.19876
-0.3913
-0.43478
-0.39752
-0.3354
-0.21739
-0.14286
-0.15528
-0.19255
-0.13665
0.049689
0.23602
0.31056
0.3354
0.25466
0.21118
0.19876
0.1677
0.093168
0.055901
0.10559
0.21739
0.21118
0.23602
0.049689
-0.086957
-0.11801
0.080745
0.36646
0.49689
0.48447
0.31056
0.15528
0.10559
0.21118
0.29814
0.42236
0.34161
0.2236
0.024845
-0.1118
-0.14907
-0.1677
-0.17391
-0.18012
-0.24224
-0.3913
-0.36646
-0.24845
-0.024845
0.26708
0.44099
0.45963
0.30435
0.099379
0.012422
0.031056
0.27329
0.37888
0.36646
0.14907
-0.031056
-0.13043
-0.21739
-0.2795
-0.3354
-0.36025
-0.35404
-0.15528
-0.037267
0.043478
0.018634
0
0.068323
0.14907
0.19255
0.13043
-0.031056
-0.22981
-0.24224
-0.2795
-0.21739
-0.10559
0.049689
0.21118
0.34161
0.34783
0.21739
0.080745
-0.049689
-0.14907
-0.20497
-0.13043
-0.0062112
0.062112
0.074534
0.024845
-0.0062112
0.093168
0.093168
0.26087
0.2795
0.2795
0.22981
0.086957
-0.1118
-0.26087
-0.30435
-0.28571
-0.26087
-0.29193
-0.31677
-0.47826
-0.51553
-0.46584
-0.41615
-0.26087
-0.10559
-0.012422
-0.0062112
0.055901
0.11801
0.17391
0.22981
0.34783
0.3354
0.26708
0.10559
-0.099379
-0.2795
-0.36025
-0.34161
-0.24845
-0.15528
0.024845
-0.012422
0
-0.093168
-0.080745
-0.0062112
0.043478
0.080745
0.024845
-0.062112
-0.024845
0.1118
0.13665
0.10559
0.074534
0.062112
0.086957
0.099379
0.16149
0.16149
0.15528
0.12422
0.062112
0.043478
0.043478
0.018634
-0.068323
-0.11801
-0.2236
-0.24224
-0.23602
-0.21739
-0.1677
-0.21118
-0.29814
-0.32919
-0.38509
-0.4472
-0.48447
-0.51553
-0.55901
-0.59006
-0.6087
-0.56522
-0.55901
-0.54658
-0.48447
-0.49068
-0.45342
-0.34783
-0.18012
-0.012422
0.12422
0.27329
0.18012
0.086957
0.012422
0.031056
0.080745
0.14286
0.062112
-0.080745
-0.21118
-0.26708
-0.19876
-0.24845
-0.19876
-0.25466
-0.24224
-0.14286
0.074534
0.28571
0.43478
0.52174
0.4472
0.40994
0.23602
0.13665
-0.037267
-0.14907
-0.21739
-0.31677
-0.36025
-0.28571
-0.10559
0.024845
0.037267
-0.062112
-0.2795
-0.42236
-0.46584
-0.31056
-0.18012
0.012422
0.12422
0.17391
0.13043
0.018634
-0.074534
-0.21739
-0.24845
-0.24224
-0.14286
0.0062112
0.14286
0.25466
0.18634
0.13043
0.074534
0.055901
0.024845
0.012422
-0.062112
-0.18012
-0.22981
0.0062112
0.14907
0.21739
0.1118
-0.037267
-0.14907
-0.13043
-0.0062112
0.10559
0.12422
0.086957
-0.055901
-0.18634
-0.21739
-0.14907
-0.055901
0.024845
0.093168
0.10559
0.055901
-0.062112
0.018634
0.13665
0.36025
0.58385
0.70807
0.67081
0.51553
0.32919
0.068323
-0.037267
-0.18012
-0.18012
-0.19255
-0.1118
0.1118
0.26708
0.3354
0.35404
0.30435
0.26708
0.29814
0.29814
0.18012
-0.012422
-0.18634
-0.19255
-0.049689
0.19876
0.40373
0.43478
0.34161
0.2795
0.31677
0.21739
0.13043
-0.080745
-0.31056
-0.39752
-0.37267
-0.22981
-0.062112
0.099379
0.068323
-0.055901
-0.16149
-0.0062112
0.14286
0.26708
0.28571
0.1677
0.074534
-0.012422
-0.080745
-0.13043
-0.1677
-0.1118
-0.099379
-0.10559
-0.1118
-0.2236
-0.34783
-0.44099
-0.32298
-0.18634
-0.062112
-0.037267
0.037267
0.099379
0.22981
0.34161
0.40994
0.21739
0.080745
0.012422
-0.018634
0.043478
0
-0.049689
-0.074534
-0.055901
-0.0062112
-0.080745
-0.18634
-0.23602
-0.19876
-0.080745
-0.055901
-0.074534
-0.23602
-0.31056
-0.29193
-0.27329
-0.25466
-0.20497
-0.12422
-0.093168
-0.037267
-0.0062112
0.080745
-0.012422
-0.049689
-0.10559
-0.043478
0.031056
0.12422
0.16149
0.18634
0.24224
0.29814
0.26087
0.12422
-0.0062112
-0.13043
-0.14907
0
0.093168
0.10559
0.0062112
-0.062112
-0.31056
-0.48447
-0.65839
-0.67702
-0.63354
-0.54037
-0.43478
-0.34161
-0.14286
0.024845
0.10559
0.062112
0.012422
0.031056
0.093168
0.15528
0.19255
0.15528
0.14286
-0.049689
-0.18012
-0.34783
-0.34161
-0.23602
-0.17391
-0.20497
-0.21118
-0.16149
-0.068323
0.080745
0.2236
0.28571
0.19876
0.031056
-0.13043
-0.26708
-0.34161
-0.3354
-0.32919
-0.40994
-0.49068
-0.45963
-0.3913
-0.20497
0.0062112
0.1118
0.1118
0.1118
0.17391
0.28571
0.35404
0.36025
0.31056
0.26087
0.34783
0.41615
0.43478
0.3354
0.22981
0.099379
0.012422
-0.074534
-0.13043
-0.13665
-0.11801
-0.055901
0.024845
0.11801
0.3354
0.3913
0.49689
0.52174
0.55901
0.48447
0.30435
0.13043
0
-0.062112
-0.031056
0.074534
0.14286
0.30435
0.32298
0.3354
0.24224
0.21739
0.24845
0.21739
0.19255
0.15528
0.18634
0.086957
0.062112
0
-0.049689
-0.018634
0.080745
0.13043
0.11801
0.14286
0.2795
0.26708
0.25466
0.21118
0.23602
0.24845
0.24224
0.10559
-0.012422
-0.074534
-0.062112
-0.024845
-0.074534
-0.1118
-0.19255
-0.2236
-0.16149
-0.043478
0.024845
-0.049689
-0.16149
-0.2795
-0.32919
-0.3354
-0.32298
-0.38509
-0.47205
-0.52174
-0.4472
-0.31056
-0.20497
-0.13043
-0.2236
-0.21118
-0.16149
-0.074534
-0.031056
0.012422
0.037267
0.037267
0.049689
0.099379
0.13665
0.13043
0.018634
-0.055901
-0.17391
-0.1677
-0.062112
-0.043478
-0.11801
-0.1677
-0.16149
-0.043478
0.12422
0.32919
0.28571
0.19255
0.10559
0.12422
0.20497
0.21118
0.18634
0.13665
0.093168
0.2236
0.32919
0.37267
0.3354
0.30435
0.14907
0.037267
0.031056
0.10559
0.19255
0.17391
0.14907
0.074534
0.093168
0.24845
0.29193
0.38509
0.3913
0.4472
0.41615
0.26087
0.12422
-0.018634
-0.093168
-0.18012
-0.14286
-0.11801
-0.062112
0.012422
0.074534
0.14286
0.19876
0.21118
0.15528
0.21739
0.3354
0.47205
0.45342
0.31056
0.099379
-0.037267
-0.068323
0.062112
0.13043
0.14907
0.21118
0.23602
0.27329
0.26087
0.23602
0.074534
-0.20497
-0.39752
-0.49689
-0.52795
-0.48447
-0.3913
-0.25466
-0.0062112
0.15528
0.26708
0.27329
0.32919
0.42857
0.48447
0.44099
0.40994
0.40994
0.40373
0.37888
0.36025
0.34783
0.31677
0.27329
0.13043
-0.043478
0.018634
0.037267
0.1118
0.093168
0.12422
0.15528
0.18012
0.18634
0.22981
0.15528
0.012422
-0.080745
-0.23602
-0.21739
-0.15528
-0.0062112
0.031056
0.018634
-0.049689
-0.15528
-0.2795
-0.31677
-0.38509
-0.40994
-0.42236
-0.42236
-0.42236
-0.42857
-0.34783
-0.14286
-0.099379
-0.012422
-0.074534
-0.12422
-0.19255
-0.13665
-0.049689
0.031056
0.043478
0.10559
0.024845
-0.024845
-0.062112
-0.18012
-0.26708
-0.40373
-0.41615
-0.3354
-0.21118
-0.16149
-0.22981
-0.37888
-0.40994
-0.27329
-0.068323
0.16149
0.22981
0.18634
0.055901
0
0.068323
0.074534
0.080745
0.1118
0.27329
0.32919
0.35404
0.27329
0.15528
0.086957
0.062112
0.037267
-0.043478
-0.12422
-0.18012
-0.18634
-0.080745
0.037267
0.055901
-0.012422
-0.10559
-0.16149
-0.18634
-0.055901
0
0.074534
0.0062112
-0.074534
-0.086957
-0.093168
-0.068323
0.043478
-0.043478
-0.10559
-0.11801
-0.12422
-0.062112
-0.043478
-0.055901
-0.13665
-0.30435
-0.34783
-0.48447
-0.50311
-0.49689
-0.3913
-0.24224
-0.10559
-0.0062112
-0.037267
-0.074534
-0.11801
0.049689
0.074534
0.024845
-0.14286
-0.3354
-0.49689
-0.58385
-0.56522
-0.6087
-0.67081
-0.73913
-0.67081
-0.47826
-0.26708
-0.062112
-0.0062112
0.024845
0.043478
0.043478
0.074534
0.18012
0.23602
0.24845
0.19876
0.18634
0.13665
0.11801
0.15528
0.26708
0.26087
0.20497
-0.049689
-0.30435
-0.51553
-0.52795
-0.4472
-0.41615
-0.36646
-0.29814
-0.21739
-0.037267
0.074534
0.19255
0.086957
0.0062112
-0.043478
0.024845
0
-0.0062112
-0.11801
-0.14286
-0.24224
-0.16149
-0.11801
-0.055901
0.049689
0.086957
0.037267
-0.037267
0
0.049689
0.049689
-0.0062112
-0.10559
-0.074534
0.074534
0.26087
0.37267
0.34783
0.31677
0.32298
0.24845
0.15528
0.037267
-0.093168
-0.024845
0.10559
0.22981
0.27329
0.29814
0.36025
0.43478
0.51553
0.50932
0.38509
0.23602
0.080745
0
-0.055901
0.012422
0.1677
0.23602
0.19876
0.16149
0.2236
0.27329
0.31677
0.32919
0.32298
0.2795
0.2795
0.26708
0.24224
0.23602
0.29193
0.44099
0.50311
0.55901
0.39752
0.21739
0.068323
0.10559
0.24224
0.29814
0.31056
0.19876
0.23602
0.2236
0.35404
0.37267
0.3354
0.32298
0.26087
0.19876
0.17391
0.2236
0.29814
0.46584
0.59627
0.62733
0.47826
0.37888
0.35404
0.28571
0.26708
0.24224
0.29193
0.21739
0.1677
0.13665
0.13043
0.20497
0.2795
0.3354
0.35404
0.34783
0.36646
0.18634
0.043478
-0.1118
-0.12422
-0.099379
-0.068323
-0.043478
-0.11801
-0.14286
-0.1118
-0.031056
-0.043478
-0.062112
-0.10559
-0.14907
-0.093168
-0.018634
0.024845
0.068323
0.093168
0.012422
-0.086957
-0.080745
-0.024845
-0.024845
-0.13043
-0.068323
-0.062112
-0.012422
-0.037267
-0.062112
-0.093168
-0.10559
-0.018634
0.1118
0.29814
0.30435
0.29814
0.13043
0.068323
0.068323
0.12422
0.14907
0.1677
0.1677
0.13043
0.19255
0.15528
0.11801
-0.037267
-0.19255
-0.19255
-0.21739
-0.19876
-0.14286
-0.080745
-0.012422
0.099379
0.062112
-0.080745
-0.26087
-0.28571
-0.23602
-0.23602
-0.18012
-0.11801
-0.037267
0.080745
0.19255
0.18012
0.037267
-0.13665
-0.21739
-0.25466
-0.21739
-0.17391
-0.13665
-0.13665
-0.012422
0.068323
0.21739
0.2795
0.29814
0.19876
0.049689
-0.012422
-0.062112
-0.086957
-0.10559
-0.14286
-0.24845
-0.4472
-0.54658
-0.50932
-0.28571
-0.043478
0.18012
0.21739
0.14286
0.099379
0.012422
0
0.031056
0.18012
0.20497
0.17391
0.099379
-0.0062112
-0.062112
-0.055901
0.031056
0.037267
-0.018634
-0.10559
-0.24224
-0.31677
-0.27329
-0.16149
-0.093168
-0.068323
0.024845
0.26708
0.41615
0.59627
0.63354
0.48447
0.31677
0.14907
0.055901
0.10559
0.18012
0.22981
0.12422
0.012422
0.031056
0.049689
0.037267
0.037267
-0.0062112
0.049689
0.086957
0.14286
0.16149
0.20497
0.19255
0.13043
-0.024845
-0.18634
-0.2795
-0.31056
-0.27329
-0.17391
-0.099379
-0.11801
-0.19255
-0.18634
-0.093168
-0.14907
-0.10559
-0.16149
-0.2236
-0.24845
-0.2795
-0.34161
-0.30435
-0.20497
-0.12422
-0.037267
0.0062112
0.12422
0.11801
0.037267
-0.062112
-0.25466
-0.36025
-0.3913
-0.36646
-0.40373
-0.39752
-0.3913
-0.32298
-0.31677
-0.29193
-0.31677
-0.36646
-0.35404
-0.2236
-0.21118
-0.19255
-0.27329
-0.29193
-0.3354
-0.37267
-0.36646
-0.29814
-0.18634
-0.0062112
0.13665
0.23602
0.28571
0.29193
0.22981
0.15528
0.14907
0.10559
0.018634
-0.093168
-0.12422
-0.080745
-0.062112
-0.043478
-0.12422
-0.14907
-0.21118
-0.15528
-0.11801
-0.14286
-0.21118
-0.36025
-0.54037
-0.68323
-0.65217
-0.54658
-0.3913
-0.30435
-0.30435
-0.25466
-0.24224
-0.080745
-0.024845
0.024845
-0.024845
-0.19255
-0.37267
-0.4472
-0.39752
-0.32298
-0.26087
-0.14907
-0.2236
-0.31677
-0.47826
-0.5528
-0.59627
-0.54037
-0.47205
-0.32298
-0.27329
-0.16149
-0.11801
-0.099379
-0.093168
-0.080745
-0.14907
-0.29814
-0.3913
-0.45963
-0.49689
-0.51553
-0.46584
-0.51553
-0.56522
-0.59627
-0.64596
-0.69565
-0.73292
-0.68944
-0.57764
-0.50932
-0.41615
-0.40373
-0.32298
-0.31677
-0.26087
-0.23602
-0.20497
-0.1677
-0.24224
-0.37267
-0.47205
-0.45963
-0.42857
-0.36025
-0.23602
-0.1118
-0.15528
-0.28571
-0.47826
-0.61491
-0.59627
-0.49068
-0.37888
-0.32298
-0.31677
-0.29193
-0.21118
-0.1677
-0.093168
-0.17391
-0.27329
-0.34783
-0.34783
-0.30435
-0.25466
-0.22981
-0.22981
-0.19255
-0.099379
0.080745
0.062112
0.024845
-0.068323
-0.086957
-0.062112
0.0062112
-0.043478
-0.15528
-0.23602
-0.18012
-0.018634
0.16149
0.26708
0.31677
0.26087
0.23602
0.25466
0.26708
0.22981
0.22981
0.19876
0.1677
0.18012
0.26087
0.34783
0.38509
0.37267
0.34161
0.16149
0.049689
-0.012422
-0.012422
0.11801
0.19876
0.21118
0.15528
0.13043
0.14907
0.099379
0.055901
0.093168
0.086957
0.10559
0.093168
0.080745
0.043478
-0.0062112
-0.080745
-0.074534
0.018634
0.24224
0.54037
0.65839
0.65839
0.6087
0.42236
0.22981
0.086957
-0.012422
-0.055901
-0.099379
-0.099379
-0.062112
-0.037267
0.086957
0.26087
0.47205
0.64596
0.72671
0.81988
0.63975
0.47205
0.16149
-0.10559
-0.23602
-0.29814
-0.30435
-0.18012
0.080745
0.36025
0.49689
0.47826
0.37267
0.21118
0.012422
-0.11801
-0.27329
-0.34783
-0.22981
-0.018634
0.099379
0.19876
0.29814
0.37267
0.3354
0.20497
0.16149
-0.037267
-0.068323
-0.14286
-0.16149
-0.18012
-0.16149
-0.099379
-0.093168
0
0.074534
0.13665
0.093168
0.031056
0.074534
-0.043478
-0.093168
-0.20497
-0.2236
-0.20497
-0.1677
-0.13665
-0.16149
-0.18634
-0.2236
-0.26087
-0.32919
-0.35404
-0.32298
-0.32298
-0.36646
-0.46584
-0.54658
-0.52174
-0.42236
-0.37267
-0.35404
-0.36025
-0.32919
-0.28571
-0.28571
-0.18634
-0.074534
0.0062112
0.055901
0.068323
-0.018634
-0.10559
-0.11801
-0.093168
-0.012422
0.10559
0.23602
0.30435
0.19876
0.11801
0.049689
0.093168
0.1677
0.21739
0.10559
-0.043478
-0.12422
-0.13665
-0.074534
0
0.068323
0.0062112
0.1118
0.11801
0.16149
0.031056
-0.062112
-0.049689
-0.0062112
0.080745
0.18634
0.29814
0.35404
0.37888
0.3913
0.32298
0.27329
0.27329
0.28571
0.24845
0.24224
0.26087
0.37267
0.46584
0.57143
0.57143
0.47826
0.41615
0.30435
0.27329
0.26087
0.29193
0.26087
0.17391
0.32298
0.40373
0.47826
0.49068
0.42857
0.42857
0.38509
0.34161
0.26087
0.24224
0.34161
0.49689
0.60248
0.59627
0.55901
0.52795
0.48447
0.50311
0.49068
0.50932
0.50311
0.54037
0.52174
0.45963
0.36025
0.24845
0.13043
0.086957
0.1118
0.14286
0.12422
0.031056
-0.024845
-0.11801
-0.037267
0.15528
0.29814
0.29193
0.23602
0.13043
0.10559
0.037267
0.012422
-0.080745
-0.18634
-0.24845
-0.27329
-0.20497
-0.20497
-0.14907
-0.14907
-0.18012
-0.037267
0.024845
0.068323
0.031056
0
-0.049689
-0.1118
-0.031056
0.086957
0.21739
0.41615
0.37267
0.26087
0.068323
-0.031056
-0.012422
0.062112
0.18634
0.29814
0.28571
0.24845
0.21739
0.27329
0.31056
0.35404
0.40994
0.27329
0.14286
0.012422
-0.055901
-0.14907
-0.21118
-0.29193
-0.3913
-0.36646
-0.29193
-0.15528
-0.099379
-0.043478
-0.024845
-0.093168
-0.093168
-0.13665
-0.11801
-0.10559
-0.13043
-0.14907
-0.20497
-0.26087
-0.28571
-0.2795
-0.25466
-0.21739
-0.21739
-0.28571
-0.28571
-0.24845
-0.16149
-0.080745
0.049689
0.037267
-0.093168
-0.26087
-0.35404
-0.35404
-0.42857
-0.39752
-0.3913
-0.37267
-0.31677
-0.16149
0.018634
0.13665
0.17391
0.093168
-0.062112
-0.20497
-0.24224
-0.31056
-0.27329
-0.21118
-0.21739
-0.25466
-0.28571
-0.22981
-0.18012
-0.080745
0.068323
0.068323
-0.068323
-0.31677
-0.48447
-0.59006
-0.57143
-0.45342
-0.3354
-0.28571
-0.27329
-0.086957
-0.0062112
0.20497
0.29814
0.27329
0.1677
0.0062112
-0.13043
-0.21118
-0.16149
0.031056
0.086957
0.080745
-0.043478
-0.17391
-0.31677
-0.31056
-0.32298
-0.25466
-0.26087
-0.2236
-0.20497
-0.18634
-0.21118
-0.21739
-0.14286
-0.14907
-0.093168
-0.031056
-0.14286
-0.23602
-0.40373
-0.5528
-0.60248
-0.51553
-0.4472
-0.30435
-0.13043
0.062112
0.28571
0.32919
0.34161
0.24845
0.14286
0.1677
0.21739
0.21739
0.18012
0.21739
0.2236
0.31677
0.47826
0.70186
0.82609
0.96894
0.83851
0.65217
0.32919
0.031056
-0.1677
-0.31677
-0.35404
-0.22981
-0.12422
-0.074534
0.0062112
0.043478
0.080745
0.1118
0.18634
0.26087
0.21118
0.099379
-0.062112
-0.25466
-0.30435
-0.42236
-0.45342
-0.57143
-0.6087
-0.58385
-0.53416
-0.40994
-0.22981
-0.0062112
0.17391
0.35404
0.31677
0.086957
-0.20497
-0.37888
-0.34161
-0.20497
0.0062112
0.1118
0.086957
-0.0062112
-0.037267
0.0062112
0.055901
0.14286
0.1118
0.018634
-0.13665
-0.24224
-0.28571
-0.049689
0.13043
0.25466
0.13043
-0.093168
-0.25466
-0.39752
-0.40994
-0.38509
-0.42236
-0.52174
-0.58385
-0.55901
-0.42236
-0.21739
-0.068323
0
0.018634
0.074534
0.18634
0.26087
0.24224
0.16149
0.055901
-0.068323
-0.12422
-0.012422
0.062112
0.14286
0.14907
0.1118
0.099379
0.11801
0.20497
0.22981
0.21118
0.21739
0.17391
0.1118
0.12422
0.068323
0.12422
0.10559
0.22981
0.21118
0.13665
0.068323
-0.031056
-0.037267
0.055901
0.21739
0.24845
0.16149
0.1118
0.012422
0.074534
0.14907
0.24845
0.28571
0.31677
0.40373
0.54037
0.61491
0.54658
0.32919
0.043478
-0.080745
-0.12422
0.018634
0.080745
0.10559
0.11801
0.093168
0.10559
0.13665
0.14907
0.10559
0.068323
0.093168
0.10559
0.16149
0.1677
0.15528
0.12422
0.31056
0.41615
0.51553
0.43478
0.30435
0.21739
0.068323
0.0062112
-0.080745
-0.15528
-0.23602
-0.2795
-0.24224
-0.18634
-0.049689
0
-0.037267
-0.080745
-0.12422
-0.17391
-0.24224
-0.27329
-0.39752
-0.40994
-0.32919
-0.13665
-0.043478
-0.062112
-0.15528
-0.31056
-0.30435
-0.26708
-0.13043
-0.074534
-0.018634
0.099379
0.2236
0.21118
0.1677
0.099379
0.018634
0.018634
0.074534
0.15528
0.15528
0.068323
-0.031056
-0.19255
-0.26708
-0.29814
-0.29814
-0.31056
-0.30435
-0.24224
-0.13043
-0.062112
0.043478
0.055901
0.068323
0.080745
0.043478
-0.10559
-0.24845
-0.35404
-0.35404
-0.28571
-0.11801
-0.012422
0.031056
0.055901
0.17391
0.32298
0.42857
0.3354
0.11801
-0.19255
-0.36025
-0.31056
-0.18012
-0.19255
-0.25466
-0.42857
-0.57764
-0.63354
-0.54037
-0.38509
-0.22981
-0.1118
-0.11801
-0.21118
-0.31056
-0.29814
-0.24224
-0.14286
0.0062112
0.068323
0.062112
-0.0062112
-0.012422
-0.037267
-0.062112
-0.099379
-0.2236
-0.36025
-0.35404
-0.19876
-0.062112
-0.043478
-0.15528
-0.34783
-0.52174
-0.4472
-0.36646
-0.31677
-0.36646
-0.37267
-0.3354
-0.34783
-0.37267
-0.42236
-0.45963
-0.42236
-0.35404
-0.31677
-0.34161
-0.32919
-0.32919
-0.32298
-0.30435
-0.36025
-0.38509
-0.44099
-0.34161
-0.26087
-0.26087
-0.32298
-0.37267
-0.47826
-0.57143
-0.59627
-0.53416
-0.37888
-0.31056
-0.29814
-0.37888
-0.45963
-0.45342
-0.40373
-0.36025
-0.32298
-0.29193
-0.3354
-0.36025
-0.34161
-0.3354
-0.35404
-0.39752
-0.38509
-0.34161
-0.19876
-0.043478
0.080745
0.086957
0.024845
-0.043478
-0.19255
-0.31056
-0.36646
-0.32919
-0.26708
-0.17391
-0.12422
-0.18634
-0.26708
-0.29193
-0.31677
-0.32919
-0.30435
-0.28571
-0.23602
-0.10559
0.068323
0.17391
0.1118
0.031056
-0.031056
-0.043478
-0.043478
-0.031056
-0.049689
-0.068323
0.11801
0.21118
0.26708
0.14286
-0.062112
-0.22981
-0.34783
-0.24224
-0.074534
0.049689
0.068323
-0.049689
-0.15528
-0.26708
-0.24845
-0.25466
-0.31677
-0.31056
-0.14907
0.043478
0.27329
0.38509
0.3354
0.21739
0.080745
0.0062112
0.0062112
0.068323
0.19255
0.3354
0.4472
0.35404
0.23602
0.0062112
-0.062112
0.086957
0.27329
0.38509
0.39752
0.35404
0.24845
0.18012
0.17391
0.19255
0.17391
0.13665
0.068323
-0.049689
-0.062112
0
0.093168
0.074534
0.074534
0.0062112
-0.049689
-0.074534
0.055901
0.23602
0.40373
0.48447
0.45342
0.40373
0.4472
0.59627
0.73292
0.68944
0.57143
0.31677
0.099379
-0.16149
-0.28571
-0.32298
-0.26087
-0.12422
-0.049689
-0.049689
-0.024845
0.13043
0.23602
0.31056
0.31677
0.21118
0.086957
0.012422
0.055901
0.17391
0.1677
0.14907
0.055901
0.024845
0.093168
0.21118
0.21739
0.14907
0.012422
-0.16149
-0.30435
-0.37267
-0.32298
-0.26087
-0.17391
-0.11801
-0.031056
0.031056
0.11801
0.17391
0.12422
0.068323
0.024845
0.024845
0.055901
0.13043
0.2236
0.31056
0.38509
0.52174
0.52174
0.41615
0.27329
0.20497
0.23602
0.29814
0.31677
0.30435
0.22981
0.22981
0.19876
0.14907
0.12422
0.17391
0.21118
0.19876
0.17391
0.093168
-0.0062112
-0.074534
-0.055901
-0.055901
0.0062112
0.13665
0.2795
0.42857
0.43478
0.48447
0.24845
0.11801
0.024845
0.062112
0.13665
0.15528
0.14907
0.068323
0.074534
0.11801
0.14907
0.12422
0.074534
0.080745
-0.0062112
-0.037267
-0.0062112
0.068323
0.26087
0.36025
0.44099
0.30435
0.1677
0.1118
0.12422
0.18012
0.27329
0.32919
0.28571
0.19876
0.13043
0.055901
-0.0062112
0.0062112
-0.043478
-0.16149
-0.099379
-0.1118
0.055901
0.13043
0.23602
0.27329
0.22981
0.093168
-0.012422
-0.10559
-0.13665
-0.13665
-0.14907
-0.21118
-0.21118
-0.1118
-0.043478
0.0062112
0.062112
-0.068323
-0.19255
-0.26087
-0.15528
-0.068323
0.0062112
-0.012422
-0.080745
-0.14286
-0.14286
-0.068323
-0.049689
0.080745
0.19876
0.30435
0.26708
0.18634
0.16149
0.11801
0.074534
0.018634
-0.080745
-0.14907
-0.13043
-0.062112
-0.024845
-0.012422
-0.086957
-0.18634
-0.30435
-0.31056
-0.18012
-0.16149
-0.1118
-0.10559
-0.19876
-0.26708
-0.26708
-0.24845
-0.20497
-0.18634
-0.15528
-0.074534
-0.024845
0.13043
0.19255
0.15528
0.049689
-0.024845
0.012422
-0.043478
-0.024845
-0.13665
-0.25466
-0.24845
-0.14907
-0.13665
-0.15528
-0.22981
-0.31056
-0.32919
-0.24845
-0.074534
0.062112
0.14907
0.19876
0.086957
-0.018634
-0.13665
-0.2236
-0.31056
-0.34161
-0.3354
-0.35404
-0.44099
-0.50932
-0.55901
-0.57143
-0.51553
-0.40373
-0.2795
-0.25466
-0.24845
-0.099379
-0.0062112
0.19255
0.30435
0.42236
0.46584
0.42236
0.26708
-0.012422
-0.19255
-0.24224
-0.16149
-0.068323
0.0062112
-0.037267
-0.086957
-0.12422
-0.062112
-0.062112
-0.099379
-0.12422
-0.1677
-0.22981
-0.35404
-0.4472
-0.54037
-0.63975
-0.6087
-0.57764
-0.52174
-0.48447
-0.45963
-0.44099
-0.44099
-0.35404
-0.2795
-0.15528
-0.23602
-0.31056
-0.47205
-0.54658
-0.44099
-0.32919
-0.18012
-0.093168
0.068323
0.13665
0.23602
0.34161
0.3913
0.29814
0.13665
0.012422
-0.093168
-0.043478
0.055901
0.10559
0.062112
0.080745
0.031056
0.018634
-0.037267
-0.012422
0.037267
0.0062112
-0.043478
-0.068323
-0.018634
0.080745
0.24845
0.35404
0.38509
0.41615
0.36646
0.24224
0.074534
0.080745
0.1118
0.11801
0.11801
0.055901
0.13043
0.24845
0.32919
0.37888
0.3354
0.34783
0.34161
0.37267
0.3913
0.36646
0.36025
0.18634
0.17391
0.099379
0.099379
0.13043
0.14286
0.080745
0.049689
0.11801
0.24224
0.32919
0.34783
0.26708
0.1118
0.0062112
-0.0062112
-0.0062112
0
0.024845
0.068323
0.12422
0.23602
0.39752
0.47205
0.3913
0.25466
0.15528
0.031056
-0.012422
-0.024845
-0.10559
-0.21118
-0.25466
-0.14907
0
0.14286
0.23602
0.23602
0.29193
0.29193
0.21118
0.049689
-0.086957
0.0062112
0.13043
0.17391
0.15528
0.024845
-0.086957
-0.074534
0
0.024845
-0.049689
-0.18012
-0.34783
-0.40994
-0.35404
-0.22981
-0.18634
-0.24845
-0.31677
-0.3354
-0.36646
-0.35404
-0.2795
-0.13043
0.055901
0.21118
0.2236
0.13665
0.012422
0
-0.024845
0.031056
0.055901
0.049689
-0.018634
0.068323
0.12422
0.11801
0.062112
0.031056
0
-0.024845
-0.012422
0.062112
0.0062112
-0.031056
-0.037267
0.018634
0.13043
0.26708
0.36646
0.2795
0.16149
0.037267
-0.024845
-0.14286
-0.28571
-0.49068
-0.6087
-0.65839
-0.52174
-0.3354
-0.19876
-0.062112
-0.093168
-0.074534
-0.055901
0.068323
0.1118
0.086957
0.1677
0.074534
0.055901
-0.068323
-0.1118
-0.093168
-0.031056
0.080745
0.1677
0.14286
0.11801
0.10559
0.074534
0.093168
0.17391
0.17391
0.068323
-0.037267
-0.12422
-0.17391
-0.14907
-0.11801
-0.062112
-0.049689
-0.055901
-0.043478
-0.080745
-0.13043
-0.18634
-0.2236
-0.24224
-0.13665
-0.18012
-0.25466
-0.34161
-0.24845
-0.099379
-0.031056
-0.062112
-0.068323
-0.12422
-0.13665
-0.17391
-0.21739
-0.35404
-0.42857
-0.39752
-0.35404
-0.25466
-0.19255
-0.18634
-0.1677
-0.037267
0.080745
0.14907
0.086957
-0.018634
-0.18012
-0.24845
-0.086957
0.055901
0.2236
0.25466
0.18634
0.055901
-0.031056
-0.024845
-0.012422
-0.080745
-0.13665
-0.15528
-0.18634
-0.23602
-0.26087
-0.30435
-0.29814
-0.16149
-0.074534
-0.068323
-0.16149
-0.29193
-0.36025
-0.31677
-0.25466
-0.14286
-0.19876
-0.26708
-0.2795
-0.21739
-0.18012
-0.068323
0.037267
0.062112
0.074534
0.031056
-0.074534
-0.23602
-0.3913
-0.49068
-0.46584
-0.42236
-0.3913
-0.47826
-0.52174
-0.42236
-0.31056
-0.2795
-0.31677
-0.34161
-0.2795
-0.26708
-0.18634
-0.22981
-0.2795
-0.27329
-0.24845
-0.12422
-0.074534
0.031056
0.11801
0.11801
0.099379
0.037267
0.031056
0.086957
0.19876
0.24224
0.18012
0.024845
-0.13043
-0.2236
-0.35404
-0.47205
-0.6646
-0.76398
-0.67702
-0.45963
-0.28571
-0.16149
-0.080745
-0.049689
-0.049689
-0.1118
-0.24224
-0.42857
-0.52795
-0.45963
-0.36646
-0.23602
-0.22981
-0.23602
-0.27329
-0.2236
-0.037267
0
-0.086957
-0.21739
-0.32298
-0.32298
-0.31677
-0.29193
-0.29193
-0.3913
-0.44099
-0.45963
-0.41615
-0.25466
-0.062112
0.086957
0.12422
0.18634
0.17391
0.031056
-0.11801
-0.24224
-0.23602
-0.16149
-0.018634
0.024845
-0.043478
-0.1118
-0.18012
-0.19876
-0.21118
-0.14286
-0.14907
-0.17391
-0.14907
-0.093168
-0.15528
-0.18634
-0.22981
-0.27329
-0.31056
-0.37267
-0.34783
-0.31056
-0.19255
-0.099379
0.093168
0.055901
0.037267
-0.012422
-0.012422
0.12422
0.26708
0.32298
0.26087
0.18634
0.14907
0.1118
0.074534
0.062112
0.049689
-0.0062112
-0.012422
0.031056
0.10559
0.24845
0.41615
0.40994
0.29193
0.20497
0.17391
0.18634
0.12422
0.031056
0.024845
-0.043478
0.049689
0.13043
0.22981
0.29814
0.29814
0.22981
0.12422
0.13665
0.11801
0.1118
0.074534
0.062112
0.024845
-0.012422
-0.018634
0.031056
-0.0062112
-0.024845
-0.068323
-0.20497
-0.24845
-0.20497
-0.12422
-0.037267
0.074534
0.18634
0.23602
0.21739
0.2236
0.15528
0.068323
0.031056
0.055901
0.055901
0.068323
0.012422
-0.049689
0.018634
-0.093168
-0.11801
-0.2795
-0.24224
-0.024845
0.11801
0.17391
0.19255
0.1677
0.1677
0.19876
0.21739
0.23602
0.15528
0.16149
0.16149
0.15528
0.20497
0.21118
0.17391
0.0062112
-0.037267
-0.068323
-0.086957
-0.080745
-0.068323
-0.062112
-0.062112
-0.012422
0.012422
0.018634
-0.012422
-0.055901
-0.1118
-0.080745
-0.031056
0
-0.037267
-0.074534
-0.10559
-0.21118
-0.29814
-0.28571
-0.17391
-0.043478
0.086957
0.12422
0.13043
0.018634
-0.1118
-0.2236
-0.29193
-0.29193
-0.28571
-0.38509
-0.40373
-0.38509
-0.34783
-0.32298
-0.3354
-0.35404
-0.42236
-0.36025
-0.21118
0.012422
0.093168
0.1677
0.16149
0.074534
-0.043478
-0.1677
-0.22981
-0.25466
-0.062112
0.043478
0.20497
0.31677
0.3913
0.45963
0.44099
0.41615
0.27329
0.080745
-0.15528
-0.25466
-0.23602
-0.18012
-0.055901
-0.037267
-0.068323
-0.074534
-0.012422
0.099379
0.22981
0.36646
0.45342
0.40994
0.36646
0.32298
0.26708
0.24224
0.2236
0.16149
0.099379
0.068323
0.10559
0.17391
0.36646
0.56522
0.55901
0.37888
0.17391
0.15528
0.18634
0.32298
0.24224
0.1677
0.031056
-0.012422
0.11801
0.19255
0.26087
0.30435
0.32919
0.31677
0.31056
0.23602
0.068323
-0.037267
-0.062112
-0.018634
-0.0062112
0.018634
-0.024845
-0.080745
-0.074534
-0.13043
-0.074534
-0.19255
-0.2236
-0.2236
-0.1677
-0.062112
0.049689
0.10559
0.093168
0.074534
-0.055901
-0.1677
-0.21739
-0.19255
-0.15528
-0.13665
-0.093168
-0.024845
-0.1118
-0.13665
-0.16149
-0.1118
-0.068323
-0.031056
-0.099379
-0.13665
-0.13043
0
0.12422
0.11801
-0.0062112
-0.1677
-0.29193
-0.29814
-0.21118
-0.16149
-0.055901
0.018634
0.062112
0.031056
-0.086957
-0.14907
-0.25466
-0.20497
-0.055901
0.055901
0.099379
0.043478
-0.018634
-0.13043
-0.18634
-0.18012
-0.18012
-0.21118
-0.20497
-0.14286
-0.2236
-0.23602
-0.26087
-0.21118
-0.1677
-0.055901
-0.0062112
-0.018634
-0.062112
-0.062112
-0.031056
0.068323
0.17391
0.18012
0.086957
-0.093168
-0.21739
-0.24224
-0.093168
0.14907
0.24845
0.20497
0.1118
0.1118
0.16149
0.26087
0.36646
0.40994
0.25466
0.1677
0.074534
0.031056
0.10559
0.18012
0.14286
0.055901
0.031056
0.086957
0.062112
0.043478
0.024845
0.049689
0.13043
0.27329
0.32919
0.32919
0.26087
0.19255
0.22981
0.24224
0.26708
0.22981
0.11801
0.068323
0.043478
0.080745
-0.0062112
-0.068323
-0.14286
-0.15528
0.043478
0.24224
0.32919
0.24224
0.17391
0.14286
0.11801
0.093168
0.055901
-0.024845
-0.15528
-0.19255
-0.13043
-0.14286
-0.20497
-0.28571
-0.29814
-0.21118
-0.024845
0.074534
0.068323
-0.043478
-0.16149
-0.2236
-0.17391
-0.055901
0.037267
0.068323
-0.012422
-0.1118
-0.24224
-0.22981
-0.12422
-0.018634
0.037267
0.043478
0.0062112
-0.12422
-0.2236
-0.25466
-0.086957
-0.093168
-0.12422
-0.20497
-0.22981
-0.1118
0.043478
0.18634
0.18012
0.062112
-0.068323
-0.19255
-0.16149
-0.062112
-0.024845
-0.12422
-0.22981
-0.28571
-0.27329
-0.16149
-0.024845
0.037267
0.043478
0.062112
0.055901
0
0.18012
0.24224
0.30435
0.15528
0.068323
0.055901
0.11801
0.2236
0.29193
0.3354
0.34783
0.40994
0.46584
0.57143
0.75776
0.95031
1
0.84472
0.62733
0.44099
0.40373
0.53416
0.73913
0.70807
0.62733
0.46584
0.40373
0.47205
0.59006
0.67081
0.62733
0.6087
0.62112
0.67702
0.68944
0.68944
0.73913
0.80124
0.86957
0.85714
0.73292
0.54658
0.47205
0.49068
0.40373
0.29814
0.21118
0.24845
0.29193
0.34783
0.3913
0.4472
0.54658
0.55901
0.44099
0.21118
0.10559
0.043478
0.0062112
0.031056
0.11801
0.23602
0.31056
0.37888
0.36025
0.31677
0.2795
0.24845
0.18634
0.11801
-0.018634
-0.18634
-0.3913
-0.51553
-0.50311
-0.40994
-0.27329
-0.093168
0.031056
0.049689
0.043478
0.0062112
-0.037267
-0.018634
-0.043478
-0.099379
-0.2236
-0.29814
-0.24845
-0.20497
-0.099379
-0.018634
0.018634
0.012422
-0.037267
-0.055901
-0.21739
-0.26708
-0.28571
-0.29193
-0.26087
-0.21118
-0.13665
-0.13043
-0.049689
0.037267
0.14286
0.18634
0.21739
0.17391
0.099379
0.062112
0.074534
0.10559
0.11801
0.13043
0.19255
0.29193
0.41615
0.47826
0.40373
0.25466
0.16149
0.080745
0.024845
-0.055901
-0.093168
-0.15528
-0.062112
0.086957
0.17391
0.17391
0.062112
0.018634
-0.049689
-0.086957
-0.10559
-0.16149
-0.2795
-0.41615
-0.45342
-0.39752
-0.25466
-0.068323
0.024845
0.055901
0.086957
0.19255
0.24224
0.23602
0.1677
0.018634
-0.13665
-0.23602
-0.19255
-0.26087
-0.36646
-0.50311
-0.49689
-0.36025
-0.16149
0.086957
0.13665
0.16149
0.14286
0.062112
-0.049689
-0.16149
-0.13665
-0.031056
0.13043
0.21118
0.13043
-0.049689
-0.32919
-0.50311
-0.48447
-0.21739
0.1118
0.26708
0.13043
-0.037267
-0.13665
-0.062112
0.086957
0.13043
-0.0062112
-0.35404
-0.58385
-0.70186
-0.6646
-0.56522
-0.46584
-0.37267
-0.2795
-0.12422
0.1118
