0.15709
0.11877
0.18774
0.24138
0.36398
0.37165
0.33333
0.30268
0.28736
0.21073
0.072797
-0.0038314
-0.088123
-0.14176
-0.065134
0.1341
0.341
0.40996
0.39464
0.24138
0.10345
0.065134
0.088123
0.11111
0.18008
0.37165
0.49425
0.50192
0.4023
0.29502
0.088123
-0.011494
-0.095785
-0.034483
0.034483
0.12644
0.14943
0.034483
-0.049808
-0.0038314
0.11877
0.24904
0.31801
0.35632
0.32567
0.36398
0.50192
0.57088
0.45594
0.20307
-0.11111
-0.31801
-0.26437
0.0038314
0.29502
0.38697
0.30268
0.072797
-0.088123
-0.019157
0.23372
0.48659
0.54789
0.48659
0.27969
0.08046
0.10345
0.33333
0.6092
0.67816
0.65517
0.4636
0.26437
0.1954
0.24138
0.31034
0.23372
0.057471
-0.24904
-0.53257
-0.60153
-0.4636
-0.30268
-0.21073
-0.20307
-0.28736
-0.341
-0.24904
0.034483
0.24904
0.31034
0.27203
0.18774
0.14176
0.14943
0.23372
0.31034
0.44828
0.58621
0.62452
0.56322
0.50958
0.51724
0.47126
0.45594
0.42529
0.38697
0.2567
0.14943
0.16475
0.21073
0.1954
0.011494
-0.1954
-0.38697
-0.22605
0.095785
0.34866
0.35632
0.17241
-0.019157
-0.11877
-0.011494
0.095785
0.17241
0.23372
0.24904
0.14176
-0.0038314
0.042146
0.11877
0.18774
0.18008
0.1341
0.11111
0.095785
0.18774
0.27203
0.33333
0.35632
0.26437
0.08046
0.08046
-0.065134
0.057471
0.35632
0.63985
0.69349
0.48659
0.16475
-0.034483
0.042146
0.31801
0.68582
0.93103
0.93103
0.63985
0.31034
0.24138
0.4023
0.70881
0.93103
0.93103
0.58621
0.21839
0.019157
0.034483
0.21839
0.42529
0.59387
0.53257
0.38697
0.30268
0.31034
0.44061
0.54789
0.5249
0.26437
0.049808
0.0038314
0.18008
0.37931
0.66284
0.77011
0.64751
0.40996
0.22605
0.18008
0.17241
0.14943
-0.0038314
-0.22605
-0.44828
-0.51724
-0.44061
-0.24138
0.011494
0.10345
0.042146
-0.095785
-0.21839
-0.18008
-0.011494
0.31801
0.42529
0.30268
0.019157
-0.18774
-0.1954
0.11111
0.57854
0.83142
0.68582
0.1954
-0.24138
-0.47893
-0.27203
0.088123
0.38697
0.36398
0.14943
-0.14943
-0.43295
-0.43295
-0.24904
-0.0038314
0.1341
0.088123
-0.12644
-0.47126
-0.6092
-0.47126
-0.10345
0.31034
0.57854
0.66284
0.47893
0.2567
0.12644
0.16475
0.26437
0.41762
0.51724
0.57854
0.63218
0.60153
0.48659
0.21839
0.072797
-0.011494
-0.011494
0.057471
0.088123
-0.042146
-0.34866
-0.55556
-0.60153
-0.36398
-0.057471
0.21073
0.21073
0.019157
-0.14943
-0.15709
0.072797
0.37165
0.58621
0.50192
0.24904
-0.019157
-0.21839
-0.18008
0.10345
0.47893
0.66284
0.54789
0.22605
-0.095785
-0.24904
-0.14176
0.20307
0.341
0.28736
0.042146
-0.26437
-0.4636
-0.44828
-0.21839
-0.034483
0.088123
0.02682
-0.16475
-0.39464
-0.44828
-0.31801
-0.18774
-0.08046
-0.10345
-0.1954
-0.36398
-0.44828
-0.44828
-0.40996
-0.27203
-0.12644
-0.042146
-0.0038314
0.042146
0.02682
-0.10345
-0.22605
-0.31034
-0.27203
-0.21073
-0.10345
-0.095785
-0.24904
-0.37165
-0.39464
-0.2567
-0.11877
0.095785
0.18774
0.20307
0.15709
-0.0038314
-0.22605
-0.32567
-0.16475
0.02682
0.15709
0.019157
-0.2567
-0.59387
-0.73946
-0.43295
0.14943
0.6705
0.81609
0.48659
-0.16475
-0.67816
-0.88506
-0.72414
-0.2567
0.34866
0.86207
0.9387
0.70115
0.27203
-0.057471
-0.24904
-0.21839
-0.11111
-0.034483
0.057471
0.1954
0.41762
0.5249
0.5249
0.26437
-0.21839
-0.66284
-0.9387
-1
-0.81609
-0.4636
-0.18008
-0.12644
-0.14943
-0.17241
-0.095785
0.072797
0.341
0.44061
0.34866
0.11111
0.02682
0.11111
0.35632
0.68582
0.74713
0.54789
0.2567
0.088123
0.02682
0.088123
0.11111
-0.065134
-0.33333
-0.55556
-0.54789
-0.44828
-0.28736
-0.1954
-0.29502
-0.57854
-0.80077
-0.80843
-0.63218
-0.27203
0.08046
0.24904
0.26437
0.10345
0.065134
0.019157
0.049808
0.042146
-0.088123
-0.26437
-0.31034
-0.20307
-0.18008
-0.23372
-0.31801
-0.37165
-0.41762
-0.37931
-0.26437
-0.1341
0.011494
0.15709
0.27203
0.35632
0.39464
0.341
0.15709
0.02682
-0.042146
-0.0038314
-0.065134
-0.088123
-0.14176
-0.18008
-0.18008
-0.1341
-0.14176
-0.1954
-0.065134
0.049808
0.17241
0.24138
0.27203
0.23372
0.1954
0.2567
0.34866
0.48659
0.6092
0.64751
0.42529
0.065134
-0.26437
-0.50192
-0.54789
-0.39464
-0.12644
-0.0038314
-0.0038314
-0.065134
-0.08046
0.011494
0.18774
0.27203
0.12644
0.0038314
0.019157
0.22605
0.38697
0.35632
0.14176
-0.1954
-0.30268
-0.095785
0.27969
0.54789
0.6092
0.50192
0.38697
0.35632
0.4023
0.4636
0.37931
0.27969
0.21839
0.18008
0.21073
0.29502
0.26437
0.11111
0.02682
-0.019157
0.065134
0.1954
0.21073
0.019157
-0.33333
-0.44828
-0.44828
-0.29502
-0.23372
-0.27203
-0.38697
-0.48659
-0.37165
-0.20307
-0.042146
-0.0038314
-0.0038314
-0.019157
0.057471
0.26437
0.44061
0.41762
0.24904
0.034483
-0.18774
-0.24904
-0.08046
0.12644
0.2567
0.17241
0.049808
-0.049808
-0.0038314
0.11111
0.1954
0.1954
0.12644
0.16475
0.20307
0.29502
0.37165
0.36398
0.30268
0.17241
0.057471
-0.14943
-0.21073
-0.18774
-0.18774
-0.24904
-0.33333
-0.31034
-0.22605
-0.011494
0.23372
0.36398
0.28736
0.14176
0.0038314
-0.095785
-0.011494
0.049808
0.12644
0.10345
0.15709
0.11111
0.02682
-0.042146
-0.1341
-0.21073
-0.24904
-0.18008
-0.02682
0.057471
0.019157
-0.095785
-0.24138
-0.34866
-0.30268
-0.23372
-0.18774
-0.18008
-0.18008
-0.23372
-0.21839
-0.095785
0.02682
0.042146
-0.034483
-0.057471
-0.14176
-0.11877
-0.10345
-0.08046
-0.02682
0.049808
0.17241
0.18008
0.16475
0.088123
0.042146
0.034483
0.095785
0.16475
0.095785
0.057471
0.011494
0.011494
-0.042146
-0.042146
-0.011494
0.019157
0.065134
0.11111
0.14176
0.072797
0.02682
0.034483
0.1341
0.24904
0.36398
0.36398
0.24904
0.23372
0.26437
0.28736
0.24904
0.21073
0.16475
0.14943
0.24138
0.34866
0.37165
0.33333
0.21073
-0.011494
-0.1954
-0.27203
-0.29502
-0.23372
-0.17241
-0.095785
-0.1341
-0.2567
-0.33333
-0.31034
-0.1954
-0.08046
0.034483
-0.0038314
-0.08046
-0.16475
-0.21839
-0.12644
0.095785
0.29502
0.24138
0.049808
-0.17241
-0.21839
-0.14176
-0.019157
0.088123
0.019157
-0.095785
-0.11877
-0.072797
-0.0038314
-0.019157
-0.072797
-0.23372
-0.23372
-0.072797
0.21073
0.34866
0.37931
0.22605
0.057471
0.034483
0.14943
0.27203
0.26437
0.21073
0.14176
0.11111
0.14943
0.28736
0.48659
0.57854
0.62452
0.51724
0.36398
0.31801
0.38697
0.48659
0.4636
0.48659
0.44828
0.41762
0.35632
0.29502
0.21839
0.16475
0.12644
-0.0038314
-0.11877
-0.15709
-0.0038314
0.1341
0.20307
0.21839
0.14176
0.049808
-0.019157
0.057471
0.11877
0.29502
0.40996
0.36398
0.17241
0.02682
0.034483
0.095785
0.11877
0.08046
-0.011494
-0.034483
0.11111
0.341
0.53257
0.59387
0.5249
0.36398
0.18008
0.11877
0.1341
0.11111
0.034483
-0.057471
-0.10345
-0.18008
-0.18774
-0.14943
-0.14176
-0.072797
-0.065134
-0.14943
-0.28736
-0.18774
0.011494
0.17241
0.11877
-0.057471
-0.22605
-0.27203
-0.14176
0.049808
0.23372
0.30268
0.27203
0.14943
0.042146
0.095785
0.15709
0.17241
0.088123
-0.08046
-0.28736
-0.37931
-0.23372
0.049808
0.31034
0.43295
0.44828
0.31801
0.22605
0.26437
0.32567
0.35632
0.341
0.27969
0.1954
0.1341
0.18008
0.22605
0.23372
0.15709
0.072797
-0.08046
-0.12644
-0.12644
-0.057471
-0.042146
0.11111
0.27969
0.38697
0.39464
0.37165
0.341
0.31034
0.37931
0.35632
0.24138
0.10345
0.10345
0.20307
0.27203
0.35632
0.30268
0.20307
0.21839
0.24904
0.33333
0.29502
0.24138
0.034483
-0.18008
-0.31034
-0.27203
-0.10345
0.12644
0.42529
0.57088
0.47893
0.21839
0.011494
-0.02682
0.14943
0.40996
0.50958
0.31801
-0.02682
-0.28736
-0.37931
-0.2567
0.011494
0.24138
0.28736
0.12644
-0.11877
-0.341
-0.33333
-0.072797
0.2567
0.47126
0.39464
0.15709
-0.29502
-0.54023
-0.47126
-0.12644
0.34866
0.69349
0.78544
0.57088
0.38697
0.38697
0.5249
0.61686
0.57854
0.37165
0.1341
0.019157
0.065134
0.15709
0.11877
-0.0038314
-0.1341
-0.14943
0.0038314
0.24904
0.33333
0.095785
-0.18008
-0.57088
-0.72414
-0.60153
-0.21839
0.14943
0.31801
0.27969
0.11877
-0.011494
0.02682
0.27203
0.44061
0.54023
0.53257
0.41762
0.34866
0.38697
0.4023
0.32567
0.12644
-0.095785
-0.27203
-0.32567
-0.18774
0.088123
0.17241
0.1341
0.034483
-0.034483
-0.065134
-0.057471
-0.065134
-0.17241
-0.16475
-0.034483
0.095785
0.1341
0.17241
0.21839
0.2567
0.37165
0.44828
0.47126
0.37165
0.27969
0.24904
0.2567
0.33333
0.29502
0.1341
-0.16475
-0.33333
-0.38697
-0.27969
-0.18774
-0.16475
-0.18008
-0.21073
0.011494
0.26437
0.54789
0.65517
0.57854
0.35632
0.10345
-0.011494
-0.057471
0.019157
0.12644
0.16475
0.042146
-0.1954
-0.29502
-0.30268
-0.20307
-0.14176
-0.08046
-0.21839
-0.33333
-0.341
-0.14943
0.18008
0.43295
0.45594
0.17241
-0.11877
-0.23372
-0.11877
0.095785
0.31034
0.41762
0.27969
0.042146
-0.10345
-0.1341
0.02682
0.20307
0.34866
0.28736
0.095785
-0.16475
-0.37165
-0.44061
-0.18008
0.1341
0.21073
0.02682
-0.29502
-0.43295
-0.32567
-0.057471
0.14943
0.095785
-0.11877
-0.36398
-0.59387
-0.67816
-0.6092
-0.50192
-0.50192
-0.56322
-0.54023
-0.44828
-0.29502
-0.1341
-0.1341
-0.21073
-0.34866
-0.44828
-0.51724
-0.50958
-0.31034
-0.057471
0.088123
0.02682
-0.18008
-0.39464
-0.38697
-0.049808
0.23372
0.35632
0.22605
0.019157
-0.18008
-0.20307
-0.08046
0.088123
0.12644
0.08046
-0.011494
-0.08046
-0.057471
0.08046
0.18008
0.21073
0.11111
-0.0038314
-0.27969
-0.37165
-0.32567
-0.15709
-0.057471
-0.072797
-0.11111
-0.17241
-0.17241
-0.034483
0.1341
0.30268
0.34866
0.24138
0.02682
-0.11111
-0.11111
-0.0038314
0.11111
0.24138
0.24138
0.1341
0.02682
0.0038314
0.057471
0.11877
0.26437
0.28736
0.24904
0.18008
0.18774
0.23372
0.26437
0.31801
0.27203
0.14943
0.02682
-0.088123
-0.17241
-0.17241
-0.057471
0.0038314
-0.088123
-0.31034
-0.45594
-0.4636
-0.22605
0.088123
0.33333
0.37931
0.27969
0.18774
0.065134
0.072797
0.18008
0.26437
0.20307
0.011494
-0.1954
-0.37165
-0.29502
0.0038314
0.341
0.4636
0.37931
0.14943
-0.1341
-0.2567
-0.14176
0.11877
0.39464
0.55556
0.59387
0.44828
0.341
0.41762
0.60153
0.72414
0.65517
0.32567
-0.08046
-0.32567
-0.32567
-0.11111
0.16475
0.39464
0.37931
0.18774
-0.02682
-0.14176
-0.14176
0.019157
0.31801
0.40996
0.24138
-0.042146
-0.21839
-0.18774
0.034483
0.37931
0.57088
0.50192
0.18008
-0.095785
-0.31801
-0.36398
-0.29502
-0.11877
0.034483
0.11877
0.095785
-0.088123
-0.17241
-0.11877
0.02682
0.034483
-0.11111
-0.39464
-0.72414
-0.84674
-0.71648
-0.42529
-0.1341
-0.034483
-0.011494
-0.1341
-0.14176
-0.02682
0.21839
0.29502
0.24138
0.049808
-0.23372
-0.37165
-0.26437
-0.011494
0.24138
0.44061
0.47126
0.30268
0.11877
-0.019157
-0.0038314
0.065134
0.18008
0.12644
-0.042146
-0.31034
-0.40996
-0.24138
0.10345
0.54789
0.65517
0.45594
0.034483
-0.27969
-0.50958
-0.62452
-0.54789
-0.44828
-0.30268
-0.16475
-0.072797
-0.08046
-0.1341
-0.049808
0.011494
0.088123
0.14943
0.26437
0.27969
0.31034
0.37931
0.43295
0.36398
0.22605
0.12644
0.049808
0.088123
0.095785
0.072797
-0.0038314
-0.065134
-0.057471
-0.088123
-0.18008
-0.31034
-0.43295
-0.49425
-0.42529
-0.27203
-0.12644
-0.034483
-0.072797
-0.14943
-0.24904
-0.1341
0.095785
0.26437
0.38697
0.4636
0.47126
0.49425
0.59387
0.60153
0.4636
0.27203
0.17241
0.21839
0.341
0.5249
0.56322
0.41762
0.18774
0.072797
0.14943
0.34866
0.57854
0.54789
0.34866
0.10345
0.0038314
0.0038314
0.11111
0.35632
0.54023
0.62452
0.51724
0.37165
0.24138
0.21073
0.31034
0.41762
0.4636
0.36398
0.24138
0.057471
0.095785
0.24138
0.47893
0.58621
0.53257
0.41762
0.27203
0.34866
0.51724
0.60153
0.41762
0.17241
0.065134
0.1954
0.45594
0.67816
0.71648
0.54023
0.35632
0.22605
0.18774
0.21073
0.23372
0.1341
-0.049808
-0.15709
-0.17241
-0.10345
-0.02682
-0.02682
-0.21839
-0.51724
-0.6092
-0.44061
-0.057471
0.26437
0.37165
0.22605
-0.057471
-0.16475
-0.065134
0.20307
0.4636
0.64751
0.59387
0.44061
0.31801
0.28736
0.34866
0.50192
0.66284
0.67816
0.57854
0.41762
0.33333
0.31801
0.37931
0.4636
0.40996
0.341
0.31801
0.28736
0.24138
0.18008
0.095785
-0.057471
-0.23372
-0.341
-0.27203
-0.042146
0.31034
0.5249
0.44061
0.23372
0.034483
0.0038314
0.065134
0.27969
0.47126
0.37931
0.11877
-0.16475
-0.27203
-0.15709
0.1341
0.32567
0.21839
-0.088123
-0.42529
-0.62452
-0.54023
-0.049808
0.51724
0.90805
0.92337
0.68582
0.35632
0.072797
0.049808
0.14943
0.41762
0.56322
0.50192
0.14943
-0.22605
-0.37165
-0.32567
-0.11877
0.042146
0.057471
-0.0038314
0.0038314
0.24904
0.55556
0.68582
0.6092
0.44828
0.15709
-0.0038314
-0.019157
0.14176
0.21839
0.1341
-0.14943
-0.47126
-0.54023
-0.28736
0.08046
0.32567
0.24138
0.057471
-0.21073
-0.1954
0.0038314
0.33333
0.50958
0.47126
0.30268
0.019157
-0.11877
-0.1341
-0.12644
-0.24904
-0.4636
-0.69349
-0.80077
-0.66284
-0.29502
0.1954
0.50958
0.55556
0.24138
-0.14176
-0.28736
-0.14943
0.10345
0.21839
0.23372
0.088123
-0.072797
-0.1341
-0.042146
0.088123
0.08046
0.034483
-0.095785
-0.1341
0.049808
0.38697
0.56322
0.44828
0.18008
-0.088123
-0.10345
0.12644
0.38697
0.37165
0.17241
-0.02682
-0.065134
0.10345
0.40996
0.60153
0.42529
0.11111
-0.11111
-0.011494
0.27969
0.63218
0.70115
0.38697
-0.011494
-0.24904
-0.17241
0.049808
0.24904
0.2567
-0.042146
-0.23372
-0.21839
0.011494
0.21839
0.27203
0.12644
-0.16475
-0.31034
-0.23372
-0.019157
0.08046
0.11111
-0.011494
-0.10345
-0.095785
0.095785
0.24904
0.21073
0.0038314
-0.32567
-0.50192
-0.37931
0.019157
0.4023
0.45594
0.27969
0.011494
-0.042146
0.21839
0.54789
0.6092
0.33333
-0.049808
-0.34866
-0.33333
-0.057471
0.20307
0.14943
-0.072797
-0.27969
-0.31034
-0.095785
0.29502
0.72414
0.83908
0.62452
0.15709
-0.2567
-0.37165
-0.12644
0.28736
0.42529
0.33333
0.065134
-0.065134
0.065134
0.341
0.59387
0.55556
0.32567
0.10345
-0.019157
0.019157
0.1954
0.28736
0.10345
-0.12644
-0.21073
-0.1341
0.034483
0.17241
0.11111
-0.057471
-0.18774
-0.088123
0.14943
0.29502
0.28736
0.17241
-0.065134
-0.14176
-0.11877
-0.011494
0.057471
0.16475
0.18774
0.17241
0.17241
0.1954
0.17241
0.20307
0.23372
0.20307
0.12644
0.11877
0.31801
0.4636
0.49425
0.4023
0.24904
0.14943
0.15709
0.1341
0.019157
-0.08046
-0.11111
0.011494
0.20307
0.31801
0.2567
-0.11111
-0.4023
-0.51724
-0.37165
-0.15709
0.02682
0.095785
-0.095785
-0.24138
-0.22605
0.011494
0.20307
0.23372
0.065134
-0.14943
-0.16475
0.057471
0.38697
0.50192
0.44061
0.1954
-0.042146
-0.02682
0.065134
0.065134
-0.17241
-0.44061
-0.63985
-0.58621
-0.31801
-0.019157
0.095785
-0.019157
-0.17241
-0.31801
-0.34866
-0.30268
-0.20307
-0.20307
-0.31801
-0.35632
-0.37165
-0.18774
0.057471
0.44061
0.62452
0.53257
0.31801
0.10345
0.065134
0.18008
0.31801
0.28736
0.12644
-0.02682
-0.16475
-0.18774
-0.1341
-0.049808
-0.18008
-0.33333
-0.4023
-0.29502
-0.08046
0.072797
0.095785
-0.0038314
-0.095785
-0.042146
0.11111
0.27203
0.4636
0.54023
0.36398
0.12644
0.02682
0.10345
0.23372
0.37931
0.4023
0.30268
0.21073
0.14943
0.12644
0.11877
0.17241
0.18008
0.088123
-0.011494
-0.057471
0.042146
0.17241
0.42529
0.45594
0.27969
0.049808
0.011494
0.18008
0.41762
0.59387
0.57088
0.38697
0.18008
0.049808
0.019157
0.14943
0.34866
0.44828
0.4636
0.43295
0.50192
0.47893
0.50958
0.50958
0.49425
0.41762
0.2567
0.1341
0.042146
0.16475
0.35632
0.50192
0.50958
0.37165
0.1341
-0.16475
-0.26437
-0.1341
0.095785
0.1954
0.14943
0.14943
0.11877
0.34866
0.6705
0.86973
0.83908
0.64751
0.40996
0.16475
0.057471
0.11111
0.24138
0.38697
0.4636
0.39464
0.1954
0.034483
0.019157
0.057471
0.019157
0.0038314
-0.18774
-0.33333
-0.34866
-0.1954
-0.072797
-0.072797
-0.10345
-0.22605
-0.33333
-0.34866
-0.18008
0.042146
0.14943
0.17241
-0.02682
-0.24138
-0.33333
-0.1954
0.0038314
0.18774
0.24138
0.11877
-0.15709
-0.34866
-0.28736
-0.088123
0.15709
0.27203
0.1341
-0.1341
-0.38697
-0.44828
-0.39464
-0.17241
0.0038314
-0.049808
-0.31801
-0.62452
-0.61686
-0.35632
0.095785
0.41762
0.47893
0.27203
0.019157
-0.12644
-0.18774
-0.12644
-0.019157
0.08046
0.14943
0.27203
0.32567
0.23372
0.16475
0.10345
0.08046
0.12644
0.29502
0.42529
0.4023
0.21839
-0.02682
-0.14943
-0.16475
-0.019157
0.14176
0.22605
0.21839
0.11877
-0.065134
-0.26437
-0.2567
-0.042146
0.20307
0.38697
0.31801
0.08046
-0.12644
-0.11111
0.049808
0.27203
0.45594
0.50958
0.30268
0.057471
-0.065134
0.019157
0.27203
0.54023
0.63985
0.37931
0.034483
-0.16475
-0.14943
0.065134
0.32567
0.47893
0.28736
-0.057471
-0.36398
-0.37931
-0.1341
0.27203
0.63218
0.57088
0.28736
-0.042146
-0.21073
-0.11877
0.11111
0.26437
0.17241
-0.049808
-0.1341
-0.14176
-0.065134
0.034483
0.0038314
-0.2567
-0.56322
-0.71648
-0.61686
-0.37931
-0.088123
-0.095785
-0.32567
-0.66284
-0.70881
-0.41762
0.02682
0.4023
0.36398
0.049808
-0.21073
-0.21839
-0.019157
0.2567
0.44828
0.39464
0.15709
-0.08046
-0.057471
0.034483
0.22605
0.31801
0.1954
0.011494
-0.019157
0.15709
0.44061
0.72414
0.86973
0.77778
0.58621
0.37165
0.24904
0.10345
0.019157
0.034483
0.088123
0.065134
-0.011494
-0.065134
-0.12644
-0.02682
0.088123
0.14176
0.08046
-0.0038314
0.02682
0.16475
0.41762
0.59387
0.5249
0.18008
-0.1341
-0.27969
-0.18008
-0.019157
0.11111
0.095785
-0.049808
-0.049808
-0.042146
0.02682
0.095785
0.18008
0.12644
-0.072797
-0.22605
-0.40996
-0.42529
-0.27203
-0.034483
0.14176
0.18774
0.10345
-0.072797
-0.20307
-0.14176
0.057471
0.24904
0.32567
0.27969
0.10345
-0.08046
-0.095785
0.072797
0.28736
0.43295
0.44061
0.27203
0.034483
-0.20307
-0.27203
-0.36398
-0.341
-0.32567
-0.37931
-0.54789
-0.73946
-0.74713
-0.64751
-0.38697
-0.14176
0.042146
0.08046
0.072797
0.057471
-0.0038314
-0.057471
-0.095785
-0.17241
-0.27969
-0.21073
-0.072797
0.019157
0.049808
0.10345
0.15709
0.14943
0.21073
0.17241
0.17241
0.18008
0.17241
0.12644
0.0038314
-0.088123
-0.2567
-0.44061
-0.5249
-0.44061
-0.27203
-0.14943
-0.042146
-0.034483
-0.088123
-0.16475
-0.18008
-0.18774
-0.1341
-0.065134
-0.034483
0.0038314
-0.095785
-0.27203
-0.37165
-0.32567
-0.072797
0.18008
0.31801
0.32567
0.22605
0.095785
0.034483
0.11111
0.21073
0.27203
0.21839
0.072797
-0.17241
-0.18008
-0.011494
0.21839
0.31034
0.21073
0.072797
-0.1341
-0.18774
-0.019157
0.22605
0.39464
0.41762
0.27969
0.072797
-0.057471
-0.095785
0.019157
0.08046
0.1341
0.072797
0.057471
0.14176
0.22605
0.1954
-0.065134
-0.29502
-0.4636
-0.35632
0.034483
0.57854
0.97701
1
0.81609
0.44061
0.11877
0.034483
0.14943
0.31034
0.341
0.24138
0.0038314
-0.12644
-0.042146
0.14943
0.24904
0.21839
0.15709
0.057471
-0.011494
-0.02682
0.02682
-0.049808
-0.18774
-0.38697
-0.60153
-0.80843
-0.82375
-0.5249
-0.088123
0.34866
0.54789
0.48659
0.2567
0.065134
0.02682
-0.011494
0.042146
0.12644
0.088123
-0.049808
-0.15709
-0.14943
0.034483
0.28736
0.55556
0.75479
0.83142
0.82375
0.76245
0.66284
0.6092
0.49425
0.29502
0.072797
0.049808
0.0038314
0.019157
-0.057471
0.011494
0.18008
0.32567
0.42529
0.4023
0.31034
0.24138
0.18008
0.011494
-0.20307
-0.341
-0.47893
-0.43295
-0.24138
0.11877
0.41762
0.57854
0.61686
0.54023
0.43295
0.31801
0.24138
0.15709
0.12644
0.14176
0.14176
0.1341
0.14943
0.21839
0.22605
0.24138
0.24904
0.30268
0.31034
0.23372
0.14176
-0.049808
-0.088123
-0.042146
-0.0038314
0.011494
-0.0038314
0.049808
0.11877
0.21073
0.26437
0.24904
0.21073
0.24904
0.31801
0.38697
0.47893
0.47893
0.32567
0.10345
0.0038314
0.0038314
0.088123
0.1954
0.28736
0.35632
0.27969
0.18774
0.072797
0.057471
0.18008
0.2567
0.18008
-0.019157
-0.15709
-0.24904
-0.31034
-0.33333
-0.26437
-0.18008
-0.034483
0.095785
0.088123
0.049808
-0.042146
-0.095785
-0.22605
-0.24138
-0.18008
-0.11111
-0.088123
-0.11877
-0.08046
-0.08046
-0.019157
0.095785
0.1341
0.11877
0.0038314
-0.02682
-0.11877
-0.11111
-0.0038314
0.12644
0.24904
0.36398
0.38697
0.22605
0.042146
-0.10345
-0.12644
-0.08046
0.034483
0.049808
-0.034483
-0.065134
-0.065134
-0.065134
-0.088123
-0.034483
-0.072797
-0.18774
-0.40996
-0.58621
-0.61686
-0.50958
-0.27969
-0.18008
-0.2567
-0.39464
-0.44061
-0.34866
-0.095785
0.27203
0.47126
0.43295
0.18008
-0.019157
-0.18774
-0.28736
-0.08046
0.24138
0.66284
0.92337
0.89272
0.58621
0.23372
0.019157
-0.18774
-0.22605
-0.15709
0.0038314
0.072797
0.057471
-0.072797
-0.30268
-0.54023
-0.61686
-0.47893
-0.2567
-0.02682
0.11111
0.02682
-0.18774
-0.24138
0.019157
0.29502
0.4636
0.31034
0.019157
-0.28736
-0.27969
0.019157
0.43295
0.77011
0.80843
0.59387
0.20307
-0.0038314
-0.095785
-0.034483
0.019157
0.042146
-0.072797
-0.27203
-0.39464
-0.4636
-0.4023
-0.24138
-0.095785
-0.1341
-0.21839
-0.20307
-0.23372
-0.24138
-0.33333
-0.41762
-0.42529
-0.37931
-0.14943
-0.019157
0.019157
0.019157
0.011494
0.042146
0.12644
0.1954
0.14943
-0.02682
-0.18008
-0.15709
-0.065134
-0.0038314
-0.019157
-0.1954
-0.35632
-0.36398
-0.16475
0.057471
0.31801
0.50958
0.54023
0.43295
0.29502
0.20307
0.18008
0.24138
0.32567
0.31801
0.18008
0.049808
0.0038314
-0.019157
0.019157
-0.011494
-0.10345
-0.31034
-0.37165
-0.35632
-0.27203
-0.18774
-0.16475
-0.16475
-0.27969
-0.22605
-0.14176
-0.0038314
0.065134
0.08046
0.11111
0.10345
0.21839
0.21839
0.095785
-0.011494
0.011494
0.24904
0.57088
0.92337
0.9387
0.66284
0.20307
-0.18008
-0.35632
-0.1954
0.18008
0.45594
0.43295
0.20307
0.011494
-0.011494
0.24904
0.6092
0.83142
0.70881
0.31801
-0.088123
-0.38697
-0.30268
0.019157
0.35632
0.42529
0.24904
-0.019157
-0.27203
-0.27203
-0.0038314
0.31034
0.44061
0.31801
0.034483
-0.26437
-0.30268
-0.042146
0.41762
0.75479
0.77778
0.42529
0.011494
-0.17241
0.02682
0.33333
0.39464
0.35632
0.14176
-0.011494
-0.0038314
0.14943
0.4023
0.55556
0.65517
0.5249
0.27969
0.14943
0.24138
0.50192
0.70881
0.74713
0.47126
0.11877
-0.095785
0.034483
0.35632
0.6092
0.75479
0.63218
0.43295
0.28736
0.30268
0.31034
0.44828
0.49425
0.36398
0.072797
-0.21839
-0.29502
-0.26437
-0.02682
0.21839
0.38697
0.35632
0.1954
0.049808
-0.042146
0.02682
0.14176
0.18008
0.11111
0.019157
0.049808
0.20307
0.47126
0.65517
0.63218
0.43295
0.17241
0.065134
0.11111
0.27203
0.41762
0.39464
0.18008
0.0038314
-0.042146
0.065134
0.30268
0.53257
0.62452
0.54789
0.44061
0.29502
0.18008
0.12644
0.16475
0.22605
0.21839
0.29502
0.28736
0.29502
0.30268
0.31801
0.341
0.341
0.36398
0.34866
0.341
0.36398
0.39464
0.27969
0.12644
0.011494
-0.049808
-0.11111
-0.14176
-0.12644
-0.16475
-0.16475
-0.042146
0.10345
0.22605
0.23372
0.15709
-0.034483
-0.095785
-0.088123
0.02682
0.10345
0.18008
0.21073
0.11877
-0.011494
-0.011494
0.11111
0.32567
0.62452
0.70115
0.5249
0.1954
-0.057471
-0.18008
-0.11111
0.12644
0.27203
0.08046
-0.20307
-0.48659
-0.5249
-0.32567
0.0038314
0.18008
0.10345
-0.072797
-0.21073
-0.24138
-0.24904
-0.14176
-0.10345
-0.11877
-0.18774
-0.31034
-0.41762
-0.42529
-0.16475
0.057471
0.24904
0.24904
0.16475
-0.065134
-0.20307
-0.22605
-0.15709
-0.11111
-0.18774
-0.22605
-0.23372
-0.1341
-0.019157
0.08046
0.072797
0.034483
0.08046
0.11111
0.1341
0.1341
0.072797
0.011494
-0.10345
-0.27969
-0.6092
-0.70881
-0.54789
-0.23372
-0.0038314
0.1341
0.23372
0.24904
0.21073
0.14943
0.10345
0.042146
0.095785
0.11111
0.049808
-0.02682
-0.072797
-0.088123
-0.072797
0.065134
0.17241
0.1954
0.11111
-0.034483
-0.15709
-0.24138
-0.20307
-0.20307
-0.21839
-0.22605
-0.21839
-0.21839
-0.26437
-0.20307
-0.12644
0.057471
0.24138
0.39464
0.39464
0.2567
0.10345
-0.019157
-0.057471
0.02682
0.23372
0.31034
0.31801
0.26437
0.11111
-0.019157
-0.065134
-0.011494
-0.02682
-0.095785
-0.17241
-0.16475
-0.11111
0.0038314
0.12644
0.11877
0.08046
-0.019157
-0.034483
-0.0038314
0.049808
0.057471
-0.057471
-0.21073
-0.28736
-0.15709
0.10345
0.37165
0.4636
0.32567
0.1954
0.21839
0.30268
0.41762
0.53257
0.45594
0.22605
-0.02682
-0.095785
-0.034483
0.057471
0.15709
0.072797
-0.072797
-0.15709
-0.034483
0.14943
0.22605
0.15709
-0.11111
-0.38697
-0.50192
-0.341
-0.11111
0.049808
0.0038314
-0.24138
-0.4023
-0.35632
-0.049808
0.21839
0.45594
0.43295
0.23372
-0.0038314
-0.14943
-0.011494
0.088123
0.10345
-0.02682
-0.14176
-0.1341
-0.019157
0.14943
0.15709
0.10345
-0.042146
-0.15709
-0.22605
-0.15709
-0.034483
-0.057471
-0.16475
-0.22605
-0.17241
-0.14176
-0.11111
-0.12644
-0.2567
-0.27203
-0.24138
-0.16475
-0.11111
0.0038314
0.065134
0.10345
0.1954
0.18774
0.17241
-0.011494
-0.065134
-0.1341
-0.18008
-0.22605
-0.21839
-0.14943
-0.011494
0.18774
0.24138
0.28736
0.33333
0.47893
0.57854
0.54789
0.44828
0.27969
0.17241
0.11877
0.14943
0.15709
0.15709
0.14943
0.10345
0.034483
-0.019157
-0.02682
-0.057471
0.011494
0.18008
0.32567
0.38697
0.36398
0.32567
0.24904
0.27203
0.33333
0.38697
0.29502
0.11877
-0.065134
-0.24138
-0.26437
-0.095785
0.1341
0.22605
0.21073
0.11877
0.095785
0.21839
0.37931
0.41762
0.29502
0.22605
0.18008
0.22605
0.39464
0.55556
0.57088
0.38697
0.22605
0.12644
0.16475
0.27969
0.37931
0.341
0.18008
0.034483
-0.057471
0.034483
0.18008
0.2567
0.065134
-0.24138
-0.44828
-0.47893
-0.31034
-0.019157
0.22605
0.29502
0.20307
0.17241
0.27969
0.47893
0.55556
0.47893
0.12644
-0.11877
-0.18774
-0.11111
0.011494
0.065134
0.14943
0.042146
0.019157
0.065134
0.27203
0.54789
0.65517
0.50958
0.019157
-0.40996
-0.58621
-0.44061
-0.14943
0.08046
0.057471
-0.1954
-0.39464
-0.45594
-0.28736
0.0038314
0.38697
0.63985
0.56322
0.15709
-0.31034
-0.57854
-0.5249
-0.14176
0.17241
0.29502
0.17241
-0.065134
-0.31034
-0.41762
-0.26437
-0.08046
0.011494
-0.019157
-0.17241
-0.35632
-0.40996
-0.22605
0.095785
0.33333
0.41762
0.27969
-0.034483
-0.31034
-0.4023
-0.30268
-0.08046
0.095785
0.20307
0.095785
-0.072797
-0.1954
-0.14943
-0.042146
0.17241
0.43295
0.57854
0.64751
0.6092
0.41762
0.1954
0.019157
-0.011494
0.0038314
0.12644
0.2567
0.27969
0.11877
-0.042146
-0.11111
-0.14943
-0.049808
0.11877
0.30268
0.36398
0.34866
0.23372
0.08046
0.011494
0.072797
0.24904
0.44828
0.61686
0.59387
0.40996
0.14943
0.095785
0.20307
0.35632
0.50192
0.4023
0.21839
0.0038314
-0.10345
-0.12644
-0.034483
0.14943
0.24138
0.21839
0.15709
0.08046
0.011494
-0.011494
0.034483
0.072797
0.011494
-0.057471
-0.16475
-0.32567
-0.36398
-0.29502
-0.15709
-0.11111
-0.12644
-0.095785
-0.088123
-0.02682
0.11111
0.24904
0.28736
0.21839
0.14943
0.11877
0.31034
0.49425
0.44828
0.11877
-0.30268
-0.59387
-0.6092
-0.27203
0.31801
0.7931
0.82375
0.47893
0.011494
-0.30268
-0.18008
0.27203
0.75479
0.88506
0.58621
0.049808
-0.4023
-0.43295
-0.10345
0.35632
0.69349
0.80843
0.62452
0.29502
-0.019157
-0.14176
-0.20307
-0.33333
-0.42529
-0.55556
-0.49425
-0.23372
0.11111
0.31801
0.31801
0.21839
0.065134
-0.072797
-0.12644
-0.072797
-0.14943
-0.32567
-0.58621
-0.77778
-0.77778
-0.43295
0.12644
0.49425
0.54789
0.28736
-0.11111
-0.35632
-0.29502
-0.042146
0.065134
0.08046
0.049808
0.095785
0.14943
0.24138
0.42529
0.57088
0.6705
0.56322
0.32567
0.11877
0.11877
0.2567
0.35632
0.36398
0.14943
-0.27203
-0.72414
-0.7318
-0.37931
0.17241
0.50958
0.44061
0.16475
-0.11111
-0.034483
0.24138
0.5249
0.65517
0.6092
0.38697
0.12644
0.0038314
0.088123
0.30268
0.48659
0.48659
0.14176
-0.37931
-0.70881
-0.83142
-0.69349
-0.4023
-0.14943
-0.08046
-0.14943
-0.27203
-0.29502
-0.14943
0.14943
0.44828
0.37931
0.12644
-0.14176
-0.17241
-0.049808
0.034483
0.011494
-0.23372
-0.50192
-0.60153
-0.53257
-0.341
-0.095785
0.22605
0.44061
0.66284
0.88506
0.98467
0.92337
0.72414
0.45594
0.20307
0.049808
0.02682
0.042146
0.019157
0.019157
-0.011494
-0.049808
-0.034483
-0.011494
0.0038314
-0.057471
-0.065134
-0.14176
-0.15709
-0.16475
-0.065134
0.011494
0.1341
0.32567
0.43295
0.41762
0.31801
0.18774
0.072797
0.0038314
0.11111
0.2567
0.37165
0.38697
0.32567
0.072797
-0.095785
-0.057471
0.034483
0.14176
0.15709
0.21073
0.29502
0.44828
0.54023
0.47126
0.24904
-0.019157
-0.16475
-0.27969
-0.18774
-0.034483
-0.042146
-0.24904
-0.4636
-0.49425
-0.47893
-0.37165
-0.23372
-0.042146
0.14943
0.31034
0.32567
0.21073
0.12644
0.15709
0.30268
0.33333
0.24138
0.0038314
-0.35632
-0.50958
-0.49425
-0.34866
-0.21073
-0.08046
-0.095785
-0.088123
-0.057471
0.1954
0.53257
0.73946
0.7931
0.57854
0.22605
0.0038314
-0.049808
0.057471
0.27203
0.50958
0.5249
0.38697
0.20307
0.15709
0.1954
0.31801
0.44828
0.50958
0.47126
0.31801
0.1954
0.10345
0.11877
0.1341
0.11877
0.10345
0.08046
0.16475
0.1954
0.34866
0.44828
0.42529
0.2567
0.057471
0.02682
0.02682
0.12644
0.21839
0.27969
0.14943
0.0038314
-0.11111
-0.12644
0.019157
0.14176
0.18774
0.088123
-0.049808
-0.14176
-0.12644
0.088123
0.39464
0.55556
0.40996
0.034483
-0.40996
-0.63218
-0.47126
-0.02682
0.37931
0.54789
0.54023
0.24904
0.034483
-0.042146
0.1341
0.31034
0.31801
0.23372
0.072797
-0.034483
-0.11877
-0.22605
-0.4023
-0.49425
-0.4023
-0.27969
-0.20307
-0.20307
-0.14176
-0.1341
-0.0038314
0.24138
0.47893
0.57854
0.44061
0.28736
0.11877
0.15709
0.27969
0.31801
0.22605
0.088123
0.14176
0.2567
0.51724
0.69349
0.66284
0.42529
0.23372
0.28736
0.48659
0.70115
0.71648
0.41762
0.0038314
-0.24138
-0.21839
-0.0038314
0.22605
0.31034
0.14176
-0.15709
-0.2567
-0.15709
0.019157
0.14176
0.14176
-0.049808
-0.20307
-0.11111
0.14176
0.54023
0.7931
0.81609
0.56322
0.21073
0.1341
0.16475
0.33333
0.44828
0.47126
0.341
0.21073
0.18774
0.21073
0.11877
-0.011494
-0.1341
-0.2567
-0.20307
-0.034483
0.072797
-0.011494
-0.26437
-0.51724
-0.7318
-0.71648
-0.50958
-0.24138
-0.08046
-0.057471
-0.10345
-0.23372
-0.20307
-0.042146
0.24138
0.47126
0.56322
0.48659
0.32567
0.21839
0.1954
0.15709
0.057471
-0.0038314
0.049808
0.08046
0.095785
0.14943
0.20307
0.18008
0.23372
0.18008
0.1341
0.12644
0.18774
0.30268
0.35632
0.39464
0.29502
0.14943
0.011494
-0.095785
-0.23372
-0.32567
-0.27969
-0.1954
-0.10345
-0.08046
-0.12644
-0.21073
-0.27203
-0.18008
-0.088123
-0.019157
-0.042146
-0.049808
-0.088123
-0.049808
0.08046
0.18008
0.20307
0.24138
0.31034
0.29502
0.2567
0.2567
0.31034
0.32567
0.29502
0.20307
0.11111
0.21839
0.35632
0.43295
0.24904
-0.088123
-0.34866
-0.54789
-0.44828
-0.14943
0.072797
0.049808
-0.15709
-0.35632
-0.50958
-0.38697
-0.11111
0.21073
0.39464
0.45594
0.43295
0.37931
0.5249
0.77011
0.97701
0.92337
0.75479
0.51724
0.45594
0.59387
0.86207
0.96935
0.78544
0.4636
0.08046
-0.14176
-0.14943
-0.034483
0.072797
0.065134
-0.02682
-0.20307
-0.26437
-0.24904
-0.095785
0.0038314
0.0038314
-0.0038314
-0.065134
-0.08046
-0.08046
0.072797
0.23372
0.34866
0.27969
0.042146
-0.1954
-0.1954
0.10345
0.39464
0.59387
0.50192
0.23372
-0.011494
-0.057471
0.034483
0.08046
0.072797
0.011494
-0.10345
-0.17241
-0.072797
0.049808
0.02682
-0.065134
-0.23372
-0.27969
-0.27203
-0.22605
-0.23372
-0.30268
-0.32567
-0.24904
-0.088123
0.072797
0.24138
0.30268
0.24138
0.16475
0.11877
0.095785
0.088123
0.18008
0.1954
0.20307
0.1954
0.21073
0.1341
0.0038314
-0.042146
-0.088123
-0.15709
-0.23372
-0.24904
-0.27203
-0.26437
-0.24138
-0.24904
-0.23372
-0.21073
-0.14176
-0.26437
-0.37165
-0.37931
-0.31801
-0.21839
-0.088123
0.019157
0.057471
0.049808
0.019157
-0.02682
-0.088123
-0.08046
0.019157
0.11877
0.14943
0.08046
-0.072797
-0.23372
-0.33333
-0.31801
-0.32567
-0.22605
-0.11111
-0.057471
-0.042146
-0.011494
0.095785
0.1954
0.34866
0.4023
0.35632
0.16475
0.011494
0.0038314
0.16475
0.42529
0.53257
0.35632
-0.019157
-0.1341
0.0038314
0.23372
0.37165
0.30268
0.042146
-0.2567
-0.24904
-0.15709
0.0038314
0.08046
0.088123
-0.049808
-0.27203
-0.37931
-0.35632
-0.15709
0.072797
0.27969
0.23372
0.057471
-0.17241
-0.24904
-0.18774
-0.042146
0.095785
0.11111
0.042146
-0.088123
-0.20307
-0.26437
-0.1954
0.02682
0.11111
0.11877
0.019157
-0.1341
-0.24904
-0.20307
0.034483
0.24138
0.44828
0.55556
0.44828
0.22605
-0.065134
-0.21839
-0.24138
-0.10345
-0.019157
-0.057471
-0.20307
-0.18774
-0.1341
-0.049808
0.0038314
0.034483
-0.0038314
-0.065134
0.0038314
0.14943
0.32567
0.38697
0.32567
0.12644
-0.042146
-0.11111
0.011494
0.27969
0.61686
0.81609
0.69349
0.37165
0.15709
-0.011494
-0.11111
-0.21839
-0.21839
-0.2567
-0.24138
-0.12644
0.034483
0.18008
0.21839
0.18008
0.0038314
-0.14176
-0.14176
0.019157
0.20307
0.31801
0.34866
0.16475
0.019157
-0.10345
-0.057471
0.12644
0.37165
0.54023
0.37931
0.14176
0.08046
0.23372
0.54023
0.7931
0.87739
0.64751
0.341
0.072797
-0.042146
-0.034483
0.14176
0.2567
0.24904
0.095785
0.011494
0.065134
0.29502
0.60153
0.70881
0.5249
0.15709
-0.065134
-0.088123
0.12644
0.58621
0.84674
0.75479
0.32567
-0.10345
-0.37165
-0.37165
-0.095785
0.019157
-0.019157
-0.22605
-0.37165
-0.44061
-0.29502
0.011494
0.22605
0.20307
-0.034483
-0.21839
-0.30268
-0.18774
-0.072797
-0.049808
-0.11111
-0.21073
-0.18008
-0.095785
0.20307
0.54789
0.73946
0.65517
0.4023
0.14943
-0.057471
-0.072797
-0.042146
0.049808
-0.049808
-0.24904
-0.37165
-0.43295
-0.27203
-0.02682
0.16475
0.24904
0.37931
0.41762
0.35632
0.18008
-0.02682
-0.1341
-0.08046
0.08046
0.16475
0.10345
-0.011494
-0.02682
0.072797
0.24904
0.4636
0.51724
0.38697
0.22605
0.1341
0.095785
0.057471
0.11111
0.15709
0.11877
0.088123
0.14943
0.341
0.56322
0.67816
0.51724
0.20307
-0.049808
0.019157
0.27969
0.65517
0.80843
0.61686
0.20307
-0.065134
0.02682
0.28736
0.68582
0.94636
0.89272
0.59387
0.31801
0.2567
0.27203
0.31034
0.27969
0.14943
-0.08046
-0.18008
-0.065134
0.11877
0.33333
0.27969
-0.0038314
-0.29502
-0.37931
-0.1954
0.057471
0.26437
0.2567
0.02682
-0.26437
-0.49425
-0.56322
-0.35632
0.034483
0.48659
0.63218
0.37931
0.095785
-0.18008
-0.23372
-0.042146
0.22605
0.41762
0.34866
0.17241
-0.0038314
-0.019157
0.042146
0.11111
0.042146
-0.16475
-0.24904
-0.2567
-0.1341
0.049808
0.11111
-0.072797
-0.4023
-0.66284
-0.70881
-0.51724
-0.1954
0.10345
0.095785
-0.049808
-0.23372
-0.29502
-0.12644
0.12644
0.33333
0.24138
-0.019157
-0.30268
-0.4023
-0.34866
-0.12644
0.12644
0.23372
0.27969
0.29502
0.2567
0.17241
0.072797
-0.088123
-0.29502
-0.40996
-0.2567
0.088123
0.38697
0.55556
0.4636
0.23372
0.057471
0.057471
0.15709
0.22605
0.26437
0.15709
-0.072797
-0.21073
-0.2567
-0.18008
-0.15709
-0.12644
-0.21073
-0.30268
-0.29502
-0.12644
0.10345
0.341
0.47893
0.37931
0.14943
-0.019157
0.065134
0.26437
0.4023
0.33333
0.049808
-0.27969
-0.45594
-0.31801
-0.095785
0.12644
0.11111
-0.16475
-0.5249
-0.71648
-0.62452
-0.36398
-0.065134
0.072797
-0.019157
-0.18774
-0.23372
-0.042146
0.21073
0.47126
0.54789
0.40996
0.11877
-0.072797
-0.049808
0.14176
0.4023
0.51724
0.341
0.0038314
-0.26437
-0.36398
-0.2567
0.0038314
0.33333
0.48659
0.37931
0.14943
-0.1341
-0.26437
-0.23372
-0.019157
0.18774
0.18774
0.088123
-0.11111
-0.17241
-0.019157
0.24138
0.39464
0.24138
-0.0038314
-0.24904
-0.20307
0.065134
0.48659
0.6705
0.54789
0.2567
0.0038314
-0.14176
-0.049808
0.14943
0.30268
0.34866
0.26437
0.02682
-0.28736
-0.53257
-0.57088
-0.40996
-0.12644
0.088123
0.1341
0.0038314
-0.12644
-0.20307
-0.27203
-0.24904
-0.27969
-0.34866
-0.54023
-0.6705
-0.63985
-0.4023
-0.049808
0.21073
0.21073
-0.011494
-0.18774
-0.24138
-0.14943
0.08046
0.24904
0.23372
-0.08046
-0.4023
-0.63985
-0.55556
-0.23372
0.21073
0.44828
0.34866
0.065134
-0.33333
-0.54789
-0.50958
-0.29502
-0.08046
-0.019157
0.0038314
-0.1341
-0.23372
-0.27969
-0.10345
-0.011494
0.065134
0.08046
-0.057471
-0.21839
-0.341
-0.26437
-0.11877
0.034483
0.11111
0.095785
0.042146
-0.011494
0.095785
0.15709
0.18008
0.16475
0.057471
-0.072797
-0.12644
-0.11877
-0.08046
0.011494
0.057471
0.14943
0.24904
0.34866
0.39464
0.21839
0.049808
-0.057471
-0.11111
-0.1341
-0.15709
-0.15709
-0.15709
-0.1341
-0.1341
-0.065134
-0.0038314
0.14176
0.28736
0.31034
0.26437
0.24138
0.24904
0.18774
0.24138
0.24904
0.30268
0.341
0.28736
0.16475
0.019157
-0.0038314
-0.042146
-0.019157
0.019157
0.065134
0.065134
0.088123
0.27203
0.44061
0.50192
0.43295
0.35632
0.17241
-0.019157
-0.28736
-0.37165
-0.24138
0.10345
0.54023
0.67816
0.62452
0.45594
0.22605
0.072797
0.042146
0.10345
0.0038314
-0.14176
-0.30268
-0.31034
-0.21839
-0.0038314
0.30268
0.43295
0.49425
0.47126
0.39464
0.21073
0.042146
-0.18008
-0.39464
-0.44828
-0.29502
0.011494
0.30268
0.48659
0.44061
0.30268
0.18774
0.1954
0.22605
0.18008
0.065134
-0.18774
-0.44061
-0.58621
-0.53257
-0.341
-0.12644
0.10345
0.16475
0.11877
0.042146
0.019157
0.042146
-0.088123
-0.21073
-0.36398
-0.43295
-0.29502
-0.10345
0.019157
0.10345
0.20307
0.27203
0.26437
0.18774
0.10345
-0.049808
-0.14176
-0.12644
-0.072797
-0.019157
0.0038314
0.0038314
0.019157
0.12644
0.31801
0.44828
0.45594
0.37931
0.31801
0.2567
0.31034
0.32567
0.30268
0.21073
0.21073
0.31801
0.38697
0.47126
0.47893
0.44061
0.32567
0.26437
0.20307
0.11111
0.11111
0.14943
0.23372
0.29502
0.48659
0.57088
0.58621
0.48659
0.42529
0.31801
