0.077333
0.13067
0.2
0.25333
0.38133
0.408
0.43467
0.42933
0.36533
0.24267
0.18933
0.20533
0.19467
0.216
0.20533
0.16267
0.045333
-0.088
-0.18933
-0.22667
-0.17333
-0.045333
0.045333
0.050667
0.050667
0.0026667
-0.0026667
0.04
0.11467
0.152
0.14667
0.232
0.25867
0.29067
0.28
0.264
0.216
0.14133
0.104
0.029333
-0.045333
-0.061333
-0.013333
0.024
0.072
0.16267
0.19467
0.168
0.10933
0.098667
0.061333
0.04
0.04
-0.013333
-0.077333
-0.14133
-0.14133
-0.088
0.008
0.104
0.16267
0.11467
0.029333
0.008
-0.056
-0.024
0.008
0.013333
-0.045333
-0.050667
-0.008
0.029333
0.072
0.19467
0.248
0.248
0.216
0.22133
0.22133
0.28
0.28
0.30667
0.28533
0.312
0.296
0.248
0.16267
0.11467
0.13067
0.13067
0.22133
0.26933
0.28
0.22667
0.13067
0.0026667
-0.088
-0.056
-0.066667
-0.14133
-0.24267
-0.216
-0.14133
-0.013333
0.12533
0.18933
0.16267
0.10933
0.088
0.008
-0.029333
-0.050667
-0.082667
-0.082667
-0.066667
-0.045333
-0.098667
-0.11467
-0.104
-0.072
-0.066667
-0.061333
-0.029333
-0.013333
0.018667
0.013333
0.013333
-0.029333
-0.093333
-0.136
-0.21067
-0.20533
-0.093333
0.045333
0.10933
0.104
0.104
0.098667
0.104
0.088
0.045333
0.0026667
-0.024
0.045333
0.13067
0.168
0.168
0.184
0.16267
0.14133
0.17333
0.21067
0.2
0.17867
0.21067
0.248
0.29067
0.344
0.32267
0.28
0.22667
0.22133
0.24267
0.29067
0.36
0.29067
0.17333
0.050667
-0.008
-0.082667
-0.15733
-0.23733
-0.26933
-0.24267
-0.2
-0.077333
-0.10933
-0.15733
-0.20533
-0.25333
-0.26933
-0.248
-0.17333
-0.136
-0.066667
0.0026667
0.088
0.10933
0.093333
0.12
0.088
0.12
0.13067
0.104
0.045333
0.008
0.034667
0.082667
0.184
0.29067
0.38133
0.424
0.456
0.44
0.38667
0.34933
0.36
0.33333
0.23733
0.168
0.066667
-0.0026667
0.013333
0.066667
0.066667
0.013333
0.0026667
0.024
0.024
-0.0026667
-0.066667
-0.10933
-0.136
-0.050667
0.0026667
0.0026667
0.008
0.104
0.13067
0.216
0.248
0.23733
0.16267
0.029333
-0.050667
-0.16267
-0.22133
-0.23733
-0.22667
-0.22667
-0.232
-0.2
-0.16267
-0.018667
0.12533
0.184
0.098667
-0.018667
-0.10933
-0.184
-0.184
-0.2
-0.22667
-0.29067
-0.328
-0.264
-0.18933
-0.093333
0.008
0.066667
0.04
-0.008
-0.024
-0.077333
-0.15733
-0.248
-0.38133
-0.49867
-0.504
-0.408
-0.26933
-0.13067
-0.024
0.066667
0.17333
0.27467
0.264
0.184
0.12
0.15733
0.168
0.093333
-0.034667
-0.152
-0.22667
-0.23733
-0.22133
-0.30133
-0.33867
-0.33333
-0.216
-0.024
0.098667
0.19467
0.21067
0.248
0.32267
0.36
0.37067
0.344
0.28533
0.152
0.029333
-0.061333
-0.088
-0.088
-0.098667
-0.061333
0.018667
0.12
0.248
0.328
0.37067
0.37067
0.39733
0.36
0.328
0.296
0.216
0.10933
0.045333
-0.008
-0.018667
0.013333
0.061333
0.10933
0.136
0.24267
0.344
0.392
0.42933
0.47733
0.49867
0.488
0.45067
0.38133
0.32267
0.296
0.32267
0.32267
0.30133
0.344
0.32267
0.328
0.296
0.29067
0.25867
0.19467
0.13067
0.034667
-0.082667
-0.152
-0.13067
-0.12533
-0.098667
-0.14667
-0.22667
-0.30667
-0.376
-0.36
-0.36
-0.25867
-0.14133
-0.045333
-0.024
-0.045333
-0.018667
-0.018667
0.077333
0.13067
0.104
0.0026667
-0.056
0.008
0.077333
0.17867
0.21067
0.17867
0.10933
0.082667
0.11467
0.13067
0.16267
0.16267
0.15733
0.093333
0.072
0.045333
0.050667
0.14667
0.24267
0.26933
0.23733
0.22133
0.16267
0.082667
-0.029333
-0.093333
-0.056
0.050667
0.22667
0.30667
0.264
0.14133
0.045333
0.034667
0.066667
0.184
0.24267
0.25867
0.248
0.25333
0.19467
0.093333
-0.018667
-0.136
-0.2
-0.16267
-0.088
-0.034667
0.008
0.072
0.056
0.0026667
-0.050667
-0.029333
-0.066667
-0.072
-0.14133
-0.2
-0.26933
-0.296
-0.28
-0.248
-0.16267
-0.018667
0.061333
0.061333
0.050667
0.034667
-0.0026667
0.008
-0.024
-0.088
-0.18933
-0.152
-0.018667
0.17867
0.376
0.47733
0.45067
0.33333
0.264
0.22133
0.19467
0.17333
0.14133
0.12
0.104
0.15733
0.12533
0.066667
-0.018667
-0.013333
0.0026667
0.04
0.14667
0.184
0.232
0.21067
0.20533
0.152
0.13067
0.21067
0.344
0.46133
0.488
0.424
0.26933
0.12533
0.093333
0.088
0.066667
0.018667
-0.029333
-0.10933
-0.098667
0.0026667
0.104
0.13067
0.093333
0.04
0.034667
0.077333
0.104
0.082667
0.013333
-0.056
-0.082667
-0.14133
-0.082667
0.04
0.184
0.25867
0.28
0.23733
0.152
0.10933
0.15733
0.18933
0.168
0.098667
0.061333
0.045333
0.024
-0.013333
-0.098667
-0.168
-0.10933
-0.072
-0.029333
0.008
0.082667
0.088
0.093333
0.018667
-0.098667
-0.18933
-0.22133
-0.152
-0.077333
0.034667
0.2
0.328
0.376
0.34933
0.29067
0.25333
0.25867
0.25333
0.216
0.10933
0.029333
-0.008
-0.029333
-0.04
0.0026667
0.008
-0.0026667
-0.013333
0.013333
0.018667
0.029333
0.018667
-0.034667
-0.072
-0.061333
0.008
0.018667
0.050667
0.093333
0.152
0.18933
0.184
0.098667
-0.018667
-0.104
-0.077333
-0.008
0.061333
0.17867
0.25333
0.264
0.232
0.17333
0.088
-0.024
-0.066667
-0.11467
-0.098667
-0.04
0.013333
0.056
0.008
-0.018667
-0.10933
-0.21067
-0.29067
-0.296
-0.24267
-0.17333
-0.098667
-0.082667
-0.077333
-0.045333
0.034667
0.013333
-0.082667
-0.13067
-0.19467
-0.2
-0.2
-0.136
-0.15733
-0.14133
-0.104
-0.104
-0.12533
-0.13067
-0.050667
-0.024
-0.029333
-0.104
-0.22133
-0.37067
-0.45067
-0.45067
-0.424
-0.39733
-0.36533
-0.32267
-0.23733
-0.10933
-0.013333
-0.029333
-0.12
-0.23733
-0.36
-0.50933
-0.60533
-0.70667
-0.856
-0.968
-1
-0.98933
-0.936
-0.81867
-0.70667
-0.568
-0.40267
-0.184
-0.013333
0.061333
0.077333
-0.034667
-0.168
-0.34933
-0.46667
-0.536
-0.52
-0.36533
-0.22667
-0.14667
-0.072
-0.0026667
0.056
0.093333
0.093333
0.034667
0.0026667
0.066667
0.184
0.184
0.082667
-0.104
-0.216
-0.27467
-0.248
-0.14133
-0.050667
-0.008
-0.04
-0.12
-0.184
-0.14667
-0.008
0.12
0.24267
0.34933
0.376
0.33333
0.232
0.152
0.072
0.072
0.10933
0.14133
0.11467
0.11467
0.061333
0.034667
0.066667
0.15733
0.30133
0.36
0.376
0.30667
0.22667
0.136
0.072
0.04
-0.013333
-0.0026667
-0.104
-0.23733
-0.34933
-0.44
-0.47733
-0.49867
-0.42933
-0.376
-0.33867
-0.30133
-0.24267
-0.17333
-0.104
0.034667
0.10933
0.12533
0.104
0.10933
0.072
0.04
0.029333
0.008
-0.056
-0.17867
-0.25333
-0.30133
-0.24267
-0.15733
-0.088
-0.10933
-0.13067
-0.066667
-0.072
-0.056
-0.008
0.018667
0.008
-0.029333
-0.082667
-0.12533
-0.072
0.029333
0.072
0.04
-0.008
-0.098667
-0.13067
-0.13067
-0.008
0.12533
0.22133
0.312
0.232
0.056
-0.12
-0.216
-0.17333
-0.14133
-0.11467
-0.152
-0.17867
-0.15733
-0.050667
0.018667
0.050667
0.098667
0.136
0.17333
0.19467
0.17333
0.098667
0.013333
-0.008
-0.034667
-0.077333
-0.12
-0.10933
-0.10933
-0.077333
-0.029333
0.008
0.024
0.072
0.15733
0.21067
0.248
0.23733
0.25333
0.24267
0.26933
0.30133
0.28
0.26933
0.32267
0.33867
0.30133
0.22667
0.16267
0.088
0.098667
0.13067
0.18933
0.22133
0.26933
0.312
0.29067
0.27467
0.248
0.26933
0.28533
0.34933
0.34933
0.25867
0.168
0.14667
0.22133
0.296
0.38667
0.408
0.392
0.38667
0.376
0.33333
0.264
0.25867
0.248
0.25867
0.28533
0.392
0.48267
0.48267
0.44533
0.34933
0.28
0.28
0.36
0.38667
0.41867
0.49333
0.54133
0.504
0.392
0.27467
0.14667
0.15733
0.20533
0.25333
0.32267
0.344
0.37067
0.31733
0.29067
0.27467
0.232
0.17333
0.082667
-0.008
-0.14133
-0.264
-0.312
-0.26933
-0.22667
-0.12533
-0.050667
0.029333
0.088
0.14667
0.18933
0.22667
0.36
0.43467
0.456
0.37067
0.20533
0.045333
-0.045333
0.0026667
0.045333
0.034667
-0.013333
-0.072
-0.14133
-0.17333
-0.098667
0.029333
0.2
0.36533
0.504
0.53067
0.472
0.37067
0.216
0.029333
-0.056
-0.045333
0.008
0.056
0.098667
0.16267
0.27467
0.424
0.536
0.53067
0.488
0.46133
0.41867
0.38133
0.33867
0.312
0.23733
0.22133
0.232
0.23733
0.18933
0.11467
0.15733
0.20533
0.344
0.43467
0.472
0.408
0.31733
0.248
0.184
0.16267
0.152
0.082667
-0.04
-0.082667
-0.077333
0.04
0.16267
0.25867
0.27467
0.23733
0.22667
0.2
0.15733
0.16267
0.20533
0.26933
0.30667
0.31733
0.28
0.216
0.17867
0.15733
0.168
0.15733
0.168
0.168
0.136
0.12
0.14667
0.14667
0.15733
0.20533
0.232
0.296
0.34933
0.49867
0.54133
0.568
0.52
0.41867
0.29067
0.14667
0.029333
-0.13067
-0.24267
-0.30667
-0.31733
-0.29067
-0.18933
-0.056
-0.024
-0.018667
-0.024
-0.0026667
-0.008
-0.018667
-0.082667
-0.18933
-0.26933
-0.23733
-0.136
-0.018667
0.072
0.14667
0.14667
0.184
0.26933
0.33333
0.344
0.312
0.25867
0.216
0.23733
0.32267
0.41333
0.47733
0.54133
0.52533
0.45067
0.30667
0.184
0.066667
-0.0026667
0.024
0.045333
0.077333
0.11467
0.13067
0.10933
0.098667
0.15733
0.22667
0.28
0.33333
0.408
0.38667
0.344
0.328
0.33867
0.34933
0.34933
0.30667
0.21067
0.136
0.14133
0.12533
0.056
-0.029333
-0.045333
-0.066667
-0.050667
-0.029333
0.0026667
-0.024
-0.018667
0.008
0.029333
-0.018667
-0.10933
-0.16267
-0.12533
0.024
0.17333
0.28533
0.36533
0.424
0.376
0.24267
0.11467
-0.029333
-0.12
-0.12
-0.056
0.0026667
-0.066667
-0.13067
-0.22133
-0.2
-0.098667
0.029333
0.088
0.066667
0.050667
-0.061333
-0.248
-0.456
-0.57867
-0.62133
-0.60533
-0.47733
-0.32267
-0.152
-0.018667
0.088
0.13067
0.11467
0.077333
-0.013333
-0.098667
-0.14667
-0.077333
0.0026667
0.14667
0.264
0.27467
0.19467
0.12533
0.12
0.12
0.15733
0.168
0.17867
0.072
-0.061333
-0.184
-0.30133
-0.35467
-0.376
-0.41333
-0.392
-0.33333
-0.168
-0.018667
0.168
0.38667
0.54667
0.552
0.50933
0.39733
0.296
0.25333
0.26933
0.30133
0.27467
0.22133
0.093333
-0.013333
-0.045333
-0.0026667
0.04
0.029333
0.13067
0.184
0.216
0.23733
0.25333
0.25333
0.23733
0.296
0.296
0.22133
0.098667
0.029333
0.050667
0.15733
0.312
0.39733
0.44
0.392
0.32267
0.15733
0.029333
-0.024
-0.050667
-0.072
-0.11467
-0.13067
-0.21067
-0.28
-0.30667
-0.25333
-0.18933
-0.11467
-0.029333
-0.013333
0.024
0.013333
-0.013333
-0.077333
-0.034667
0.066667
0.152
0.20533
0.168
0.098667
0.0026667
-0.008
-0.018667
0.018667
0.061333
0.17333
0.184
0.088
-0.008
-0.13067
-0.22667
-0.264
-0.28533
-0.30133
-0.34933
-0.29067
-0.21067
-0.14133
-0.11467
-0.104
-0.10933
-0.14133
-0.093333
-0.13067
-0.16267
-0.14667
-0.061333
0.082667
0.136
0.16267
0.088
0.008
-0.077333
-0.11467
-0.168
-0.168
-0.14133
-0.15733
-0.2
-0.216
-0.14667
-0.050667
0.077333
0.18933
0.232
0.21067
0.19467
0.19467
0.15733
0.11467
0.050667
-0.029333
-0.15733
-0.22667
-0.30133
-0.40267
-0.44533
-0.36533
-0.17867
-0.066667
0.0026667
-0.013333
0.013333
0.093333
0.232
0.26933
0.22133
0.15733
0.104
0.104
0.12533
0.17333
0.24267
0.28
0.34933
0.38133
0.39733
0.46133
0.50933
0.51467
0.43467
0.36533
0.25333
0.15733
0.15733
0.15733
0.16267
0.19467
0.28533
0.32267
0.26933
0.18933
0.14133
0.104
0.024
0.008
0.024
0.056
0.04
0.0026667
-0.061333
-0.077333
-0.050667
-0.077333
-0.11467
-0.168
-0.17333
-0.18933
-0.136
-0.061333
0.029333
0.082667
0.10933
0.14133
0.10933
0.11467
0.184
0.25867
0.30667
0.30133
0.24267
0.13067
0.082667
0.072
0.082667
0.056
0.04
-0.013333
-0.098667
-0.15733
-0.11467
0.050667
0.232
0.392
0.33867
0.16267
0.024
-0.029333
0.0026667
-0.013333
0.024
-0.0026667
-0.0026667
-0.050667
-0.10933
-0.2
-0.26933
-0.264
-0.17867
-0.034667
0.14667
0.30133
0.33333
0.296
0.25333
0.21067
0.13067
0.056
0.013333
0.024
0.098667
0.19467
0.20533
0.10933
0.034667
0.11467
0.216
0.33867
0.37067
0.33867
0.232
0.17867
0.19467
0.18933
0.184
0.17867
0.15733
0.14133
0.17867
0.27467
0.31733
0.33867
0.32267
0.28
0.232
0.24267
0.264
0.232
0.19467
0.168
0.136
0.072
0.029333
-0.050667
-0.098667
-0.104
-0.082667
-0.045333
-0.0026667
0.098667
0.14667
0.168
0.14133
0.10933
0.066667
0.045333
0.12
0.20533
0.28
0.30667
0.30667
0.24267
0.20533
0.19467
0.20533
0.248
0.26933
0.26933
0.10933
-0.045333
-0.088
-0.04
0.056
0.136
0.21067
0.184
0.232
0.33867
0.41333
0.424
0.33867
0.23733
0.136
0.10933
0.13067
0.11467
0.045333
0.050667
0.15733
0.22667
0.296
0.27467
0.23733
0.17333
0.098667
0.029333
-0.077333
-0.11467
-0.093333
-0.061333
-0.13067
-0.11467
-0.12
-0.104
-0.072
-0.04
-0.034667
-0.045333
-0.018667
-0.077333
-0.15733
-0.216
-0.17333
-0.056
0.045333
0.077333
0.061333
0.04
0.077333
0.104
0.056
-0.034667
-0.061333
-0.11467
-0.13067
-0.056
0.093333
0.17867
0.232
0.23733
0.264
0.29067
0.31733
0.328
0.25333
0.17867
0.10933
0.098667
0.050667
-0.024
-0.093333
-0.168
-0.098667
0.024
0.11467
0.093333
0.077333
0.050667
0.045333
0.093333
0.17333
0.2
0.13067
-0.034667
-0.21067
-0.41333
-0.48267
-0.45067
-0.32267
-0.18933
-0.045333
0.008
0.050667
0.10933
0.152
0.12533
-0.018667
-0.12
-0.22133
-0.28
-0.30133
-0.33333
-0.376
-0.44533
-0.328
-0.093333
0.16267
0.392
0.504
0.54667
0.51467
0.49867
0.424
0.30667
0.168
0.072
-0.056
-0.093333
-0.11467
-0.104
-0.104
-0.11467
-0.093333
-0.14133
-0.11467
-0.050667
0.056
0.14667
0.2
0.25333
0.216
0.232
0.216
0.216
0.152
0.061333
0.008
-0.077333
-0.077333
-0.077333
-0.077333
-0.093333
-0.066667
-0.050667
-0.024
0.018667
0.10933
0.14133
0.136
0.17333
0.14667
0.077333
0.061333
0.082667
0.10933
0.082667
0.056
-0.034667
-0.136
-0.20533
-0.216
-0.22667
-0.33333
-0.45067
-0.58933
-0.65333
-0.65333
-0.52533
-0.408
-0.27467
-0.10933
-0.029333
-0.018667
-0.018667
-0.008
-0.013333
-0.029333
-0.04
-0.018667
0.0026667
0.0026667
0.0026667
-0.0026667
0.061333
0.152
0.184
0.12533
0.04
0.008
0.04
0.061333
0.056
-0.034667
-0.17333
-0.24267
-0.18933
-0.12
-0.04
-0.013333
0.0026667
0.0026667
0.013333
-0.0026667
-0.082667
-0.17867
-0.20533
-0.19467
-0.14667
-0.077333
-0.061333
-0.088
-0.14667
-0.16267
-0.152
-0.136
-0.082667
-0.093333
-0.072
-0.0026667
0.11467
0.18933
0.14133
0.098667
0.029333
-0.061333
-0.152
-0.216
-0.28
-0.31733
-0.27467
-0.23733
-0.2
-0.22133
-0.24267
-0.328
-0.376
-0.34933
-0.15733
0.093333
0.35467
0.472
0.392
0.248
0.136
0.04
-0.066667
-0.13067
-0.12
-0.11467
-0.072
-0.024
0.008
0.018667
0.061333
0.152
0.17867
0.184
0.20533
0.20533
0.18933
0.184
0.232
0.216
0.216
0.18933
0.136
0.12533
0.13067
0.10933
0.082667
0.10933
0.21067
0.232
0.20533
0.152
0.029333
-0.082667
-0.2
-0.22133
-0.216
-0.23733
-0.26933
-0.33333
-0.39733
-0.376
-0.29067
-0.152
-0.056
0.018667
-0.077333
-0.216
-0.312
-0.216
-0.056
0.061333
0.093333
-0.008
-0.152
-0.22133
-0.16267
-0.10933
-0.066667
-0.072
-0.088
-0.12533
-0.10933
-0.066667
-0.077333
-0.066667
0.029333
0.14667
0.22133
0.19467
0.082667
-0.018667
-0.061333
-0.034667
0.024
0.045333
0.098667
0.12
0.11467
0.077333
-0.013333
-0.15733
-0.27467
-0.232
-0.15733
-0.061333
-0.024
-0.045333
-0.136
-0.29067
-0.32267
-0.38667
-0.408
-0.36533
-0.31733
-0.264
-0.29067
-0.28
-0.376
-0.46667
-0.536
-0.456
-0.29067
-0.136
-0.018667
-0.045333
-0.13067
-0.22667
-0.24267
-0.25867
-0.22133
-0.14667
-0.066667
0.008
0.082667
0.093333
-0.013333
-0.093333
-0.11467
-0.088
-0.098667
-0.18933
-0.30133
-0.46667
-0.56267
-0.54667
-0.41867
-0.27467
-0.184
-0.14133
-0.19467
-0.14133
-0.029333
0.082667
0.088
0.061333
0.072
0.104
0.22133
0.30133
0.30133
0.19467
0.168
0.17867
0.18933
0.20533
0.2
0.13067
0.061333
0.093333
0.12
0.10933
0.029333
-0.072
-0.168
-0.25333
-0.14667
-0.018667
0.098667
0.24267
0.424
0.55733
0.62133
0.58933
0.45067
0.296
0.21067
0.19467
0.17867
0.12533
0.050667
-0.056
-0.17867
-0.18933
-0.10933
-0.008
0.152
0.28533
0.43467
0.55733
0.65333
0.70667
0.63733
0.49867
0.30667
0.12533
-0.029333
-0.12533
-0.12
-0.088
0.056
0.248
0.40267
0.45067
0.41333
0.36
0.29067
0.24267
0.20533
0.17867
0.098667
0.045333
0.024
0.018667
0.061333
0.136
0.23733
0.27467
0.31733
0.28
0.22667
0.23733
0.30667
0.35467
0.26933
0.168
0.061333
0.018667
0.088
0.18933
0.232
0.216
0.248
0.248
0.296
0.33333
0.43467
0.46133
0.44533
0.38133
0.264
0.12
0.034667
0.050667
0.034667
0.088
0.17867
0.22667
0.184
0.088
0.034667
0.056
0.14667
0.22667
0.25867
0.24267
0.184
0.16267
0.088
0.029333
0.013333
0.024
0.013333
0.066667
0.136
0.18933
0.24267
0.28
0.31733
0.30133
0.28
0.184
0.04
-0.029333
-0.04
0.029333
0.088
0.17867
0.18933
0.17333
0.168
0.20533
0.18933
0.104
0.034667
-0.018667
-0.013333
0.008
-0.029333
-0.16267
-0.31733
-0.392
-0.44
-0.48267
-0.536
-0.49333
-0.392
-0.232
-0.034667
0.13067
0.25333
0.33333
0.30133
0.184
0.050667
0.0026667
0.008
-0.050667
-0.082667
-0.034667
0.029333
0.12
0.20533
0.22667
0.20533
0.17333
0.14133
0.04
-0.061333
-0.104
-0.093333
-0.034667
0.061333
0.15733
0.168
0.17867
0.18933
0.23733
0.25867
0.312
0.328
0.23733
0.168
0.098667
0.088
0.045333
0.008
-0.061333
-0.12533
-0.10933
-0.082667
-0.04
-0.04
-0.0026667
-0.013333
-0.082667
-0.16267
-0.20533
-0.184
-0.12
-0.018667
0.008
-0.0026667
-0.045333
-0.093333
-0.152
-0.2
-0.11467
0.008
0.17867
0.28
0.37067
0.408
0.408
0.38667
0.31733
0.264
0.232
0.23733
0.12533
-0.008
-0.152
-0.23733
-0.20533
-0.093333
0.056
0.2
0.38133
0.56267
0.66933
0.62133
0.456
0.30667
0.136
0.029333
-0.093333
-0.14667
-0.2
-0.168
-0.10933
-0.10933
-0.098667
-0.013333
0.16267
0.328
0.49333
0.53067
0.46133
0.39733
0.36533
0.38133
0.38133
0.42933
0.41867
0.38133
0.32267
0.28533
0.22667
0.12
0.066667
-0.0026667
-0.066667
-0.066667
0.018667
0.104
0.10933
0.077333
-0.018667
-0.10933
-0.152
-0.12
-0.093333
-0.045333
0.093333
0.22667
0.33333
0.33333
0.22667
0.050667
-0.018667
0.029333
0.152
0.248
0.248
0.23733
0.17333
0.19467
0.216
0.152
0.034667
-0.024
-0.029333
-0.029333
-0.013333
-0.008
-0.0026667
-0.093333
-0.168
-0.168
-0.104
-0.018667
0.008
0.008
-0.0026667
0.034667
0.077333
0.061333
0.072
0.098667
0.11467
0.072
-0.0026667
-0.152
-0.28
-0.33867
-0.31733
-0.25867
-0.2
-0.10933
0.008
0.072
0.098667
0.12
0.093333
0.008
-0.013333
-0.066667
-0.088
-0.077333
-0.0026667
0.034667
0.061333
0.050667
0.0026667
-0.0026667
0.04
0.13067
0.12533
0.082667
-0.077333
-0.21067
-0.34933
-0.408
-0.34933
-0.30667
-0.19467
-0.098667
-0.04
-0.018667
-0.008
0.008
0.008
-0.034667
-0.088
-0.16267
-0.2
-0.17867
-0.136
-0.16267
-0.18933
-0.22133
-0.184
-0.12
0.013333
0.168
0.28
0.39733
0.49333
0.55733
0.504
0.41333
0.248
0.12
0.061333
0.11467
0.2
0.19467
0.17867
0.088
-0.013333
-0.066667
-0.013333
0.066667
0.11467
0.19467
0.22133
0.23733
0.26933
0.33867
0.39733
0.472
0.536
0.552
0.53067
0.45067
0.38133
0.23733
0.16267
0.12533
0.12
0.072
0.0026667
0.008
0.013333
0.029333
0.04
0.013333
-0.056
-0.093333
-0.066667
-0.050667
0.018667
0.10933
0.13067
0.066667
0.045333
0.050667
0.10933
0.232
0.40267
0.55733
0.616
0.62133
0.54667
0.44533
0.38133
0.408
0.39733
0.312
0.22133
0.12
0.082667
0.061333
0.082667
0.072
0.077333
0.12533
0.082667
0.024
-0.061333
-0.13067
-0.168
-0.17333
-0.045333
0.008
0.008
-0.104
-0.264
-0.36533
-0.31733
-0.136
0.008
0.024
0.04
0.136
0.18933
0.18933
0.168
0.12533
0.104
0.066667
0.018667
-0.072
-0.098667
0.008
0.168
0.26933
0.28
0.232
0.14133
0.10933
0.077333
0.050667
-0.013333
-0.098667
-0.17867
-0.30133
-0.32267
-0.20533
-0.024
0.152
0.296
0.32267
0.28533
0.216
0.168
0.104
0.082667
0.056
-0.024
-0.20533
-0.328
-0.35467
-0.27467
-0.184
-0.104
-0.056
-0.082667
-0.11467
-0.050667
-0.0026667
0.050667
0.093333
0.034667
-0.061333
-0.16267
-0.21067
-0.22667
-0.12533
0.034667
0.14667
0.216
0.24267
0.22667
0.136
0.061333
0.045333
0.072
0.14133
0.15733
0.216
0.23733
0.248
0.26933
0.232
0.136
0.013333
-0.082667
-0.19467
-0.232
-0.24267
-0.232
-0.25333
-0.18933
-0.136
-0.152
-0.16267
-0.14133
-0.098667
-0.024
0.008
0.013333
-0.04
-0.11467
-0.14667
-0.19467
-0.19467
-0.056
0.082667
0.17333
0.17333
0.14133
0.10933
0.11467
0.184
0.19467
0.18933
0.16267
0.12533
0.093333
0.013333
0.029333
0.034667
0.061333
0.088
0.152
0.168
0.15733
0.16267
0.14133
0.12533
0.098667
0.066667
0.008
0.0026667
0.045333
0.10933
0.088
0.0026667
-0.072
-0.072
0.018667
0.16267
0.184
0.088
0.0026667
-0.029333
-0.008
0.077333
0.14667
0.17333
0.104
0.029333
-0.013333
-0.072
-0.077333
-0.056
-0.050667
-0.088
-0.056
-0.056
-0.045333
-0.024
0.008
0.061333
0.082667
0.16267
0.18933
0.21067
0.22133
0.22667
0.17867
0.093333
0.088
0.082667
0.066667
-0.029333
-0.13067
-0.248
-0.33333
-0.33333
-0.328
-0.32267
-0.30133
-0.27467
-0.28533
-0.30667
-0.32267
-0.38133
-0.408
-0.36533
-0.22667
-0.16267
-0.14667
-0.19467
-0.2
-0.184
-0.050667
0.093333
0.136
0.12533
0.077333
0.050667
-0.0026667
-0.082667
-0.13067
-0.216
-0.21067
-0.168
-0.082667
-0.056
-0.0026667
0.04
0.045333
0.077333
0.093333
0.14133
0.168
0.12
0.013333
-0.14667
-0.232
-0.24267
-0.22133
-0.27467
-0.24267
-0.19467
-0.104
0.008
0.11467
0.17333
0.13067
0.082667
-0.056
-0.2
-0.296
-0.31733
-0.30667
-0.28
-0.232
-0.17333
-0.12533
-0.04
0.11467
0.216
0.27467
0.28
0.18933
0.029333
-0.104
-0.17333
-0.19467
-0.15733
-0.050667
0.018667
0.034667
0.008
-0.008
-0.008
0.04
0.093333
0.082667
-0.018667
-0.12
-0.104
-0.034667
0.072
0.168
0.184
0.168
0.16267
0.16267
0.13067
0.136
0.16267
0.20533
0.216
0.232
0.22667
0.22667
0.248
0.28533
0.33867
0.36533
0.424
0.39733
0.27467
0.14133
0.088
0.072
0.050667
0.056
0.013333
0.029333
0.098667
0.20533
0.26933
0.29067
0.33867
0.32267
0.26933
0.22667
0.18933
0.13067
0.029333
-0.066667
-0.14667
-0.152
-0.093333
0.061333
0.20533
0.328
0.42933
0.46667
0.43467
0.376
0.28
0.15733
0.072
0.050667
0.098667
0.14133
0.184
0.24267
0.24267
0.28533
0.36533
0.504
0.64267
0.74933
0.78667
0.62133
0.43467
0.26933
0.14667
0.024
-0.13067
-0.27467
-0.39733
-0.376
-0.21067
0.024
0.23733
0.39733
0.41867
0.32267
0.152
0.018667
-0.11467
-0.24267
-0.264
-0.28
-0.312
-0.36533
-0.38133
-0.38133
-0.34933
-0.248
-0.13067
0.013333
0.077333
0.12533
0.018667
-0.04
-0.12
-0.168
-0.18933
-0.12533
-0.029333
-0.029333
-0.14667
-0.264
-0.248
-0.056
0.17867
0.33333
0.27467
0.14667
0.11467
0.22667
0.39733
0.504
0.49867
0.32267
0.168
0.061333
0.034667
0.061333
0.216
0.38667
0.472
0.46667
0.408
0.39733
0.39733
0.47733
0.51467
0.44533
0.36533
0.29067
0.22667
0.14667
0.12
0.077333
0.072
0.093333
0.184
0.26933
0.30133
0.39733
0.46133
0.52533
0.54133
0.49333
0.38133
0.264
0.21067
0.10933
0.029333
-0.024
0.04
0.12533
0.19467
0.26933
0.27467
0.20533
0.13067
0.104
0.066667
0.12533
0.2
0.2
0.12
0.024
0.018667
0.024
0.136
0.216
0.25867
0.23733
0.168
0.12533
0.04
-0.0026667
-0.082667
-0.17867
-0.25867
-0.25867
-0.17333
-0.098667
0.0026667
0.093333
0.12
0.088
0.072
0.04
0.018667
-0.018667
-0.056
-0.072
-0.050667
0.11467
0.30667
0.424
0.46133
0.42933
0.36
0.25867
0.248
0.20533
0.12533
0.045333
0.0026667
0.029333
0.029333
0.098667
0.072
0.056
0.050667
0.14133
0.17867
0.19467
0.22133
0.15733
0.045333
-0.098667
-0.2
-0.28533
-0.28
-0.248
-0.22133
-0.168
-0.098667
0.066667
0.18933
0.296
0.33867
0.30133
0.232
0.2
0.21067
0.17867
0.14133
0.098667
0.098667
0.136
0.21067
0.30133
0.27467
0.18933
0.093333
0.056
0.045333
0.050667
0.024
-0.088
-0.13067
-0.136
-0.14667
-0.22133
-0.17867
-0.077333
0.050667
0.14133
0.17867
0.184
0.12
0.098667
0.034667
0.018667
0.061333
0.168
0.24267
0.248
0.26933
0.24267
0.22667
0.24267
0.26933
0.25867
0.20533
0.2
0.168
0.152
0.152
0.21067
0.23733
0.26933
0.27467
0.24267
0.25333
0.312
0.39733
0.40267
0.41333
0.41333
0.42933
0.40267
0.38133
0.344
0.21067
0.050667
-0.061333
-0.098667
-0.066667
0.034667
0.17333
0.18933
0.184
0.104
0.0026667
-0.088
-0.12
-0.12
-0.18933
-0.216
-0.18933
-0.12
-0.013333
0.088
0.14667
0.15733
0.16267
0.184
0.17867
0.168
0.21067
0.21067
0.21067
0.184
0.15733
0.098667
-0.024
-0.066667
-0.104
-0.168
-0.25333
-0.328
-0.392
-0.43467
-0.41333
-0.41867
-0.424
-0.44
-0.38667
-0.32267
-0.26933
-0.22667
-0.248
-0.312
-0.344
-0.30667
-0.33333
-0.33867
-0.296
-0.22133
-0.104
-0.034667
0.045333
0.013333
0.013333
0.077333
0.17867
0.232
0.21067
0.14133
0.013333
-0.013333
0.0026667
0.029333
-0.024
-0.088
-0.12533
-0.11467
-0.024
0.082667
0.082667
-0.029333
-0.088
-0.104
-0.082667
-0.061333
-0.061333
-0.12
-0.17867
-0.10933
-0.034667
0.018667
0.056
0.104
0.22133
0.33867
0.47733
0.46133
0.35467
0.22667
0.15733
0.050667
-0.072
-0.136
-0.12533
-0.045333
0.072
0.152
0.13067
0.088
0.10933
0.098667
0.056
0.013333
-0.045333
-0.11467
-0.17333
-0.17867
-0.152
-0.066667
0.018667
0.093333
0.077333
0.088
0.152
0.17867
0.184
0.14133
0.136
0.077333
0.061333
0.04
-0.008
-0.008
0.072
0.23733
0.33333
0.36533
0.28533
0.2
0.14133
0.16267
0.22667
0.22133
0.22667
0.24267
0.25333
0.2
0.16267
0.098667
0.077333
0.066667
0.104
0.12533
0.077333
0.072
0.034667
0.0026667
0.0026667
0.029333
0.013333
0.013333
0.04
0.024
0.018667
0.056
0.14133
0.18933
0.20533
0.232
0.17333
0.082667
-0.013333
-0.088
-0.18933
-0.312
-0.44
-0.57867
-0.66933
-0.632
-0.46667
-0.328
-0.216
-0.18933
-0.216
-0.24267
-0.216
-0.093333
-0.0026667
0.088
0.098667
0.066667
0.0026667
0.0026667
0.029333
0.088
0.18933
0.36533
0.44
0.38133
0.28533
0.152
0.061333
0.029333
0.029333
-0.0026667
-0.082667
-0.20533
-0.31733
-0.376
-0.39733
-0.37067
-0.33333
-0.328
-0.26933
-0.30133
-0.33867
-0.40267
-0.41867
-0.43467
-0.46133
-0.42933
-0.39733
-0.40267
-0.41867
-0.45067
-0.42933
-0.35467
-0.232
-0.11467
-0.045333
0.093333
0.248
0.296
0.31733
0.344
0.408
0.44533
0.44533
0.48267
0.47733
0.53067
0.57333
0.55733
0.472
0.37067
0.32267
0.25867
0.24267
0.264
0.2
0.04
-0.104
-0.13067
-0.072
0.050667
0.11467
0.12533
0.066667
0.088
0.136
0.14667
0.11467
0.072
0.034667
-0.088
-0.168
-0.28
-0.29067
-0.20533
-0.008
0.14667
0.232
0.312
0.33333
0.32267
0.30133
0.22667
0.14667
0.013333
-0.072
-0.19467
-0.31733
-0.38133
-0.37067
-0.328
-0.24267
-0.093333
0.056
0.168
0.22667
0.30133
0.28533
0.216
0.104
-0.056
-0.19467
-0.31733
-0.33867
-0.25867
-0.008
0.24267
0.38667
0.37067
0.32267
0.36533
0.38133
0.40267
0.37067
0.28
0.15733
0.045333
-0.018667
-0.12533
-0.18933
-0.14133
0.024
0.21067
0.41867
0.51467
0.46133
0.40267
0.32267
0.28533
0.248
0.26933
0.232
0.15733
0.024
-0.029333
0.008
0.077333
0.28533
0.40267
0.456
0.43467
0.39733
0.37067
0.33333
0.30667
0.16267
0.008
-0.093333
-0.15733
-0.17333
-0.19467
-0.104
0.008
0.12
0.17333
0.27467
0.32267
0.36
0.38133
0.36
0.30667
0.264
0.184
0.056
-0.0026667
0.0026667
0.045333
0.12
0.23733
0.38667
0.44
0.42933
0.33333
0.22133
0.14667
0.10933
0.17333
0.216
0.28
0.30667
0.296
0.28533
0.38133
0.536
0.69067
0.84
0.952
1
0.92
0.81333
0.62667
0.41333
0.216
0.082667
-0.018667
-0.093333
-0.034667
0.088
0.22133
0.31733
0.32267
0.216
0.050667
-0.04
-0.10933
-0.184
-0.25333
-0.30667
-0.30133
-0.16267
0.072
0.296
0.392
0.48267
0.53067
0.568
0.57333
0.536
0.47733
0.36533
0.25867
0.136
-0.018667
-0.024
0.136
0.328
0.49333
0.54133
0.54133
0.43467
0.296
0.18933
0.104
0.0026667
-0.093333
-0.2
-0.35467
-0.45067
-0.47733
-0.44533
-0.36
-0.21067
-0.082667
0.013333
0.11467
0.168
0.12533
0.018667
0.013333
0.045333
0.077333
0.024
-0.093333
-0.23733
-0.36
-0.34933
-0.25333
-0.14133
-0.050667
-0.034667
-0.10933
-0.17333
-0.12533
-0.061333
-0.013333
-0.050667
-0.13067
-0.27467
-0.35467
-0.344
-0.29067
-0.168
-0.013333
0.14133
0.22133
0.33333
0.38667
0.37067
0.2
0.008
-0.16267
-0.344
-0.424
-0.472
-0.51467
-0.568
-0.58933
-0.49333
-0.35467
-0.21067
-0.14667
-0.168
-0.25867
-0.35467
-0.344
-0.37067
-0.40267
-0.48267
-0.584
-0.6
-0.47733
-0.30133
-0.17333
-0.093333
-0.04
0.018667
0.04
0.16267
0.30133
0.38667
0.35467
0.20533
0.0026667
-0.15733
-0.12
0.013333
0.152
0.2
0.16267
0.093333
0.050667
0.11467
0.16267
0.098667
-0.088
-0.312
-0.50933
-0.632
-0.57333
-0.46667
-0.31733
-0.152
-0.008
0.098667
0.19467
0.26933
0.28533
0.23733
0.136
0.008
-0.16267
-0.30667
-0.38133
-0.44533
-0.504
-0.51467
-0.392
-0.25333
-0.018667
0.23733
0.44
0.52
0.456
0.33333
0.168
0.050667
-0.034667
-0.12
-0.168
-0.11467
-0.024
-0.024
0.008
0.082667
0.15733
0.21067
0.22133
0.14133
0.018667
-0.088
-0.082667
0.034667
0.15733
0.20533
0.077333
-0.088
-0.18933
-0.098667
0.061333
0.14133
0.216
0.216
0.24267
0.30667
0.392
0.44
0.328
0.20533
0.013333
-0.16267
-0.25333
-0.216
-0.13067
-0.04
0.029333
0.045333
0.0026667
0.013333
0.104
0.15733
0.20533
0.15733
0.024
-0.061333
-0.104
-0.072
-0.14667
-0.2
-0.232
-0.16267
-0.072
0.056
0.152
0.13067
0.066667
0.029333
0.056
0.11467
0.19467
0.19467
0.088
-0.0026667
-0.04
-0.024
0.013333
0.082667
0.12533
0.14133
0.20533
0.32267
0.44533
0.46667
0.456
0.46667
0.49867
0.56267
0.57867
0.52533
0.38133
0.26933
0.152
0.082667
0.045333
0.10933
0.14667
0.168
0.24267
0.312
0.392
0.456
0.46667
0.36533
0.22667
0.12533
0.034667
-0.029333
-0.082667
-0.061333
-0.088
-0.072
-0.077333
-0.077333
-0.050667
0.029333
0.14667
0.2
0.23733
0.25333
0.25867
0.216
0.152
0.093333
-0.013333
-0.066667
-0.11467
-0.184
-0.264
-0.296
-0.248
-0.23733
-0.216
-0.19467
-0.11467
-0.050667
0.008
0.013333
-0.093333
-0.16267
-0.20533
-0.22667
-0.28533
-0.344
-0.44533
-0.54667
-0.56267
-0.48267
-0.31733
-0.22133
-0.12
-0.14667
-0.168
-0.17867
-0.12
-0.12
-0.184
-0.264
-0.31733
-0.30667
-0.26933
-0.22667
-0.216
-0.22133
-0.16267
-0.152
-0.14133
-0.12533
-0.04
0.013333
0.072
0.077333
-0.008
-0.13067
-0.17333
-0.13067
-0.082667
-0.061333
-0.077333
-0.098667
-0.045333
0.050667
0.16267
0.16267
0.12
0.050667
0.0026667
-0.104
-0.082667
0.024
0.050667
0.034667
-0.045333
-0.11467
-0.14133
-0.13067
-0.136
-0.23733
-0.30133
-0.28533
-0.26933
-0.22133
-0.13067
-0.029333
0.072
0.12533
0.21067
0.27467
0.27467
0.26933
0.17333
0.098667
0.04
-0.018667
-0.093333
-0.2
-0.21067
-0.22667
-0.2
-0.14667
-0.12
-0.152
-0.20533
-0.2
-0.24267
-0.28
-0.312
-0.31733
-0.30133
-0.328
-0.34933
-0.33867
-0.28
-0.19467
-0.13067
-0.168
-0.168
-0.098667
-0.029333
-0.056
-0.12
-0.088
-0.066667
0.029333
0.088
0.088
-0.008
-0.088
-0.12533
-0.14133
-0.11467
-0.066667
-0.034667
-0.04
-0.045333
0.0026667
0.050667
0.093333
0.12
0.082667
0.008
-0.04
-0.088
-0.093333
-0.072
-0.056
-0.098667
-0.19467
-0.216
-0.22133
-0.184
-0.136
-0.045333
-0.029333
0.0026667
0.10933
0.232
0.28
0.25333
0.22667
0.184
0.152
0.17333
0.14133
0.12
0.072
0.050667
0.029333
0.056
0.136
0.216
0.248
0.232
0.264
0.296
0.328
0.36
0.328
0.26933
0.24267
0.32267
0.408
0.51467
0.57333
0.552
0.44
0.32267
0.20533
0.088
0.061333
0.072
0.072
-0.018667
-0.093333
0.0026667
0.14667
0.36
0.49867
0.54667
0.49333
0.43467
0.39733
0.39733
0.44533
0.504
0.48267
0.39733
0.31733
0.25867
0.22133
0.216
0.22667
0.26933
0.35467
0.48267
0.51467
0.43467
0.296
0.17867
0.11467
0.14133
0.24267
0.29067
0.28
0.20533
0.168
0.16267
0.22667
0.33333
0.35467
0.27467
0.152
0.045333
0.018667
0.098667
0.264
0.312
0.20533
0.045333
0.008
0.13067
0.36
0.56267
0.57867
0.39733
0.184
0.082667
0.082667
0.168
0.23733
0.25333
0.184
0.088
0.029333
-0.04
-0.024
-0.013333
0.0026667
-0.050667
-0.093333
-0.13067
-0.12533
-0.082667
-0.050667
-0.056
-0.12533
-0.14133
-0.19467
-0.30133
-0.33867
-0.27467
-0.216
-0.216
-0.2
-0.23733
-0.232
-0.16267
-0.056
0.066667
0.10933
0.17333
0.19467
0.19467
0.216
0.25333
0.24267
0.184
0.088
-0.045333
-0.16267
-0.18933
-0.12
-0.061333
-0.066667
-0.13067
-0.25333
-0.37067
-0.41333
-0.33333
-0.26933
-0.21067
-0.17867
-0.168
-0.18933
-0.17867
-0.14667
-0.152
-0.17867
-0.25333
-0.32267
-0.424
-0.42933
-0.36533
-0.35467
-0.328
-0.36533
-0.392
-0.36
-0.216
-0.082667
-0.04
-0.034667
-0.04
-0.045333
-0.056
-0.034667
-0.034667
-0.024
-0.050667
-0.104
-0.12
-0.082667
0.061333
0.11467
0.093333
0.04
0.018667
0.056
0.072
0.104
0.10933
0.045333
0.029333
0.008
0.018667
0.029333
0.050667
0.029333
-0.0026667
-0.034667
0.024
0.045333
0.061333
0.013333
-0.061333
-0.11467
-0.077333
-0.013333
0.008
0.008
0.013333
0.056
0.056
0.056
0.093333
0.16267
0.27467
0.376
0.38133
0.328
0.22133
0.12533
-0.056
-0.152
-0.232
-0.232
-0.232
-0.15733
-0.104
-0.11467
-0.066667
0.029333
0.14133
0.184
0.17333
0.098667
0.061333
0.12
0.29067
0.42933
0.45067
0.41333
0.344
0.27467
0.2
0.12
0.029333
0.008
0.045333
0.082667
0.077333
0.034667
0.066667
0.10933
0.15733
0.29067
0.408
0.39733
0.248
0.104
-0.013333
0.013333
0.082667
0.12533
0.12533
0.13067
0.15733
0.17867
0.25867
0.37067
0.472
0.488
0.45067
0.36
0.216
0.11467
0.066667
0.088
0.082667
0.077333
0.093333
0.029333
0.024
0.061333
0.12
0.17333
0.24267
0.296
0.23733
0.14667
0.066667
-0.018667
-0.088
-0.136
-0.19467
-0.28
-0.32267
-0.312
-0.232
-0.098667
0.12
0.248
0.328
0.36533
0.38133
0.30133
0.12533
-0.066667
-0.18933
-0.248
-0.23733
-0.2
-0.168
-0.16267
-0.066667
0.050667
0.22133
0.376
0.50933
0.536
0.52533
0.51467
0.456
0.344
0.18933
0.04
-0.082667
-0.12533
-0.072
-0.050667
-0.034667
-0.008
0.088
0.17333
0.25867
0.344
0.36533
0.34933
0.27467
0.21067
0.008
-0.16267
-0.312
-0.39733
-0.42933
-0.33867
-0.2
-0.082667
0.018667
0.056
0.082667
0.0026667
-0.082667
-0.2
-0.296
-0.33867
-0.30667
-0.232
-0.22667
-0.17867
-0.14667
-0.029333
0.14133
0.33867
0.456
0.42933
0.312
0.10933
-0.098667
-0.248
-0.33867
-0.376
-0.392
-0.296
-0.23733
-0.216
-0.20533
-0.136
-0.045333
0.082667
0.22133
0.31733
0.26933
0.16267
0.029333
-0.168
-0.32267
-0.44
-0.52
-0.6
-0.67467
-0.664
-0.58933
-0.37067
-0.12533
0.029333
0.093333
0.104
0.168
0.12533
0.072
-0.061333
-0.20533
-0.33333
-0.36
-0.296
-0.248
-0.152
-0.061333
-0.024
-0.024
0.034667
0.12
0.17867
0.16267
0.12
0.018667
-0.018667
0.072
0.152
0.17867
0.15733
0.104
0.077333
0.10933
0.24267
0.36533
0.424
0.33333
0.17867
0.018667
-0.136
-0.2
-0.26933
-0.30133
-0.25867
-0.12
0.024
0.14667
0.264
0.312
0.32267
0.312
0.34933
0.30133
0.21067
0.082667
-0.024
-0.061333
-0.04
0.0026667
-0.029333
-0.050667
-0.077333
-0.066667
-0.008
0.050667
0.14133
0.104
0.029333
-0.024
-0.04
-0.045333
0.061333
0.216
0.33867
0.42933
0.43467
0.39733
0.328
0.31733
0.35467
0.33333
0.26933
0.20533
0.093333
-0.018667
0.008
0.056
0.152
0.216
0.184
0.18933
0.19467
0.232
0.23733
0.17333
0.098667
0.082667
0.045333
0.0026667
-0.04
-0.10933
-0.152
-0.10933
0.008
0.11467
0.104
0.050667
-0.077333
-0.15733
-0.184
-0.152
-0.136
-0.098667
-0.061333
-0.061333
-0.12
-0.136
-0.045333
0.056
0.424
