0.34601
0.40684
0.47529
0.39924
0.29278
0.15589
-0.04943
-0.13308
-0.1711
-0.14068
-0.072243
0.041825
0.14829
0.20913
0.26996
0.37643
0.48289
0.49049
0.54373
0.61217
0.73384
0.85551
0.92395
0.92395
0.8403
0.8403
0.70342
0.52852
0.30038
0.26236
0.28517
0.3308
0.40684
0.42205
0.37643
0.34601
0.24715
0.17871
0.22433
0.38403
0.52091
0.56654
0.51331
0.45247
0.36122
0.26236
0.20152
0.15589
0.1711
0.19392
0.30798
0.29278
0.27757
0.21673
0.15589
0.064639
0.011407
-0.026616
-0.1635
-0.26236
-0.31559
-0.26996
-0.20152
-0.1711
-0.095057
-0.1635
-0.14068
-0.064639
0.034221
0.072243
0.11027
0.17871
0.21673
0.22433
0.19392
0.04943
-0.1711
-0.26236
-0.23194
-0.1635
-0.14829
-0.19392
-0.23954
-0.34601
-0.34601
-0.41445
-0.42205
-0.38403
-0.3308
-0.38403
-0.4981
-0.56654
-0.57414
-0.52852
-0.53612
-0.44487
-0.44487
-0.37643
-0.24715
-0.13308
-0.064639
-0.10266
-0.079848
-0.11027
-0.21673
-0.25475
-0.24715
-0.14829
0.011407
0.13308
0.095057
0.019011
-0.11787
-0.26236
-0.36122
-0.39163
-0.25475
-0.15589
-0.0038023
0.087452
0.064639
-0.0038023
-0.0038023
-0.095057
-0.087452
-0.11027
-0.057034
0.011407
0.034221
0.034221
-0.10266
-0.10266
-0.1711
-0.13308
-0.011407
0.11787
0.095057
0.057034
0.026616
0.11027
0.31559
0.40684
0.37643
0.26996
0.1711
0.026616
-0.11027
-0.23194
-0.30038
-0.30798
-0.27757
-0.21673
-0.087452
0.041825
0.14829
0.23954
0.29278
0.32319
0.42205
0.46008
0.42966
0.37643
0.31559
0.21673
0.095057
-0.0038023
-0.057034
-0.041825
0.04943
0.15589
0.18631
0.14829
0.04943
-0.057034
-0.12548
-0.1711
-0.1711
-0.17871
-0.14068
-0.04943
-0.011407
-0.011407
-0.057034
-0.057034
-0.057034
0.011407
0.13308
0.24715
0.28517
0.29278
0.30038
0.19392
0.1711
0.14068
0.12548
0.026616
-0.072243
-0.095057
-0.04943
0.10266
0.24715
0.25475
0.1635
0.072243
-0.0038023
-0.15589
-0.25475
-0.28517
-0.23194
-0.21673
-0.19392
-0.18631
-0.18631
-0.14068
-0.019011
-0.011407
-0.12548
-0.23954
-0.35361
-0.38403
-0.36122
-0.3308
-0.30798
-0.31559
-0.29278
-0.29278
-0.35361
-0.31559
-0.20152
-0.079848
-0.041825
-0.11027
-0.25475
-0.52091
-0.69582
-0.72624
-0.673
-0.49049
-0.27757
-0.095057
-0.04943
-0.072243
-0.11027
-0.18631
-0.24715
-0.29278
-0.31559
-0.36122
-0.36882
-0.31559
-0.30038
-0.26996
-0.23194
-0.17871
-0.1635
-0.04943
0.087452
0.14068
0.19392
0.18631
0.1635
0.095057
0.0038023
-0.1635
-0.35361
-0.46008
-0.49049
-0.45247
-0.44487
-0.34601
-0.20152
-0.087452
-0.041825
-0.079848
-0.11787
-0.1711
-0.14829
-0.11787
-0.1635
-0.18631
-0.17871
-0.1635
-0.27757
-0.30798
-0.31559
-0.22433
-0.064639
0.057034
0.079848
0.072243
0.15589
0.1711
0.12548
0.026616
-0.019011
-0.034221
-0.057034
0.064639
0.13308
0.13308
0.13308
0.11787
0.12548
0.13308
0.041825
-0.041825
-0.1635
-0.20152
-0.14068
-0.17871
-0.12548
-0.041825
0.10266
0.18631
0.17871
0.12548
-0.011407
0.019011
0.10266
0.20152
0.21673
0.26236
0.34601
0.32319
0.18631
0.011407
-0.1711
-0.29278
-0.3384
-0.29278
-0.15589
0.095057
0.3384
0.46768
0.39924
0.3384
0.28517
0.23194
0.1635
0.019011
-0.072243
-0.12548
-0.064639
-0.041825
-0.04943
-0.14829
-0.14068
-0.17871
-0.17871
-0.064639
-0.019011
0.041825
0.026616
0.095057
0.25475
0.38403
0.53612
0.54373
0.45247
0.3384
0.25475
0.11787
-0.026616
-0.12548
-0.18631
-0.25475
-0.25475
-0.26236
-0.26996
-0.22433
-0.18631
-0.17871
-0.21673
-0.24715
-0.14829
-0.14829
-0.064639
-0.011407
0.10266
0.1635
0.14829
0.11027
-0.064639
-0.24715
-0.40684
-0.5057
-0.59696
-0.54373
-0.39163
-0.21673
-0.072243
0.04943
0.072243
-0.011407
-0.064639
-0.18631
-0.25475
-0.21673
-0.1635
-0.14068
-0.19392
-0.19392
-0.17871
-0.23954
-0.28517
-0.32319
-0.30038
-0.20913
-0.026616
0.0038023
-0.11787
-0.31559
-0.42205
-0.44487
-0.41445
-0.26996
-0.1711
-0.18631
-0.24715
-0.26236
-0.20152
-0.11027
-0.064639
-0.11787
-0.26236
-0.42205
-0.48289
-0.56654
-0.58175
-0.52091
-0.43726
-0.28517
-0.087452
0.1635
0.27757
0.30038
0.27757
0.26236
0.17871
0.072243
-0.04943
-0.1635
-0.10266
-0.019011
0.04943
0.0038023
-0.04943
-0.072243
-0.14829
-0.20913
-0.23954
-0.24715
-0.27757
-0.27757
-0.27757
-0.27757
-0.1711
0.011407
0.17871
0.23194
0.27757
0.18631
0.041825
-0.057034
-0.14068
-0.1635
-0.20913
-0.22433
-0.28517
-0.37643
-0.44487
-0.39924
-0.28517
-0.18631
0.011407
0.21673
0.39924
0.52852
0.56654
0.44487
0.26236
0.23194
0.18631
0.15589
0.064639
-0.019011
-0.14068
-0.12548
0.034221
0.23194
0.29278
0.28517
0.25475
0.20152
0.1711
0.1711
0.20152
0.20913
0.17871
0.18631
0.1635
0.1711
0.23194
0.30038
0.36122
0.39163
0.48289
0.46008
0.45247
0.44487
0.39163
0.27757
0.1635
0.095057
-0.011407
-0.04943
-0.072243
-0.13308
-0.21673
-0.23954
-0.19392
-0.11787
0.034221
0.26236
0.36122
0.3384
0.23194
0.13308
0.15589
0.23954
0.3308
0.3384
0.23954
0.17871
0.10266
0.057034
0.04943
0.079848
0.13308
0.11787
0.079848
-0.041825
-0.11027
-0.18631
-0.095057
-0.041825
-0.04943
-0.019011
-0.087452
-0.095057
-0.087452
-0.019011
-0.04943
-0.019011
-0.011407
-0.079848
-0.14068
-0.30798
-0.37643
-0.44487
-0.30038
-0.04943
0.12548
0.17871
0.15589
0.1711
0.072243
0.057034
0.079848
0.11787
0.13308
0.072243
0.064639
0.026616
0.095057
0.19392
0.22433
0.18631
0.064639
0.026616
-0.034221
0.034221
0.10266
0.19392
0.1711
0.24715
0.28517
0.3308
0.39924
0.49049
0.49049
0.37643
0.20152
-0.034221
-0.1635
-0.22433
-0.11787
0.034221
0.04943
0.057034
-0.064639
-0.1635
-0.20913
-0.12548
-0.072243
-0.026616
0.026616
0.041825
-0.041825
-0.11787
-0.14829
-0.18631
-0.20913
-0.14068
0.0038023
0.11787
0.25475
0.34601
0.26236
0.072243
-0.10266
-0.25475
-0.28517
-0.28517
-0.17871
-0.1635
-0.095057
-0.13308
-0.19392
-0.24715
-0.19392
-0.04943
0.064639
0.20152
0.30038
0.30798
0.20152
0.064639
-0.04943
-0.1711
-0.13308
-0.011407
0.072243
0.034221
-0.095057
-0.11787
-0.11027
-0.034221
0.079848
0.23194
0.27757
0.26996
0.12548
-0.064639
-0.20152
-0.26236
-0.32319
-0.43726
-0.48289
-0.46008
-0.27757
-0.026616
0.17871
0.23194
0.14829
0.18631
0.19392
0.17871
0.095057
0.019011
-0.011407
0.0038023
0.1711
0.23954
0.26996
0.20913
0.10266
-0.011407
-0.14068
-0.22433
-0.28517
-0.32319
-0.30798
-0.18631
-0.064639
0.057034
0.17871
0.23954
0.21673
0.1711
0.19392
0.17871
0.18631
0.17871
0.095057
0.019011
-0.011407
0.064639
0.13308
0.23194
0.26236
0.20152
0.057034
0.0038023
0.087452
0.13308
0.23194
0.3384
0.46008
0.49049
0.5057
0.47529
0.39924
0.32319
0.29278
0.24715
0.20152
0.21673
0.12548
-0.019011
-0.14829
-0.18631
-0.14829
-0.19392
-0.087452
-0.10266
-0.11787
-0.19392
-0.30038
-0.35361
-0.34601
-0.17871
-0.041825
0.12548
0.30798
0.51331
0.65019
0.69582
0.68821
0.61217
0.4981
0.3308
0.19392
0.011407
0.026616
0.1711
0.32319
0.43726
0.4981
0.53612
0.44487
0.39163
0.28517
0.17871
0.026616
-0.11787
-0.13308
-0.17871
-0.12548
0.034221
0.15589
0.17871
0.15589
0.1711
0.19392
0.26996
0.36882
0.39924
0.40684
0.35361
0.22433
0.011407
-0.22433
-0.3384
-0.39924
-0.43726
-0.45247
-0.36882
-0.27757
-0.15589
-0.079848
-0.12548
-0.21673
-0.19392
-0.1711
-0.087452
-0.019011
0.079848
0.11787
0.087452
0.057034
-0.1711
-0.42966
-0.69582
-0.8251
-0.81749
-0.65779
-0.36882
-0.1635
-0.064639
-0.034221
-0.034221
-0.087452
-0.087452
-0.057034
-0.087452
-0.20913
-0.38403
-0.47529
-0.54373
-0.52091
-0.45247
-0.34601
-0.26236
-0.17871
-0.034221
0.019011
0.041825
0.04943
-0.026616
-0.1635
-0.23954
-0.24715
-0.23954
-0.18631
-0.11027
-0.087452
-0.14068
-0.20913
-0.18631
-0.14829
-0.026616
0.026616
0.041825
-0.11027
-0.21673
-0.38403
-0.44487
-0.41445
-0.25475
-0.072243
0.079848
0.18631
0.23954
0.22433
0.20913
0.21673
0.19392
0.095057
0.12548
0.11027
0.095057
0.13308
0.21673
0.32319
0.38403
0.42205
0.30038
0.13308
0.0038023
0.0038023
0.072243
0.1711
0.26996
0.28517
0.22433
0.14068
0.11787
0.079848
0.095057
0.13308
0.18631
0.18631
0.12548
0.034221
-0.04943
-0.011407
0.11027
0.22433
0.26996
0.29278
0.35361
0.31559
0.34601
0.36122
0.39924
0.36882
0.3308
0.26996
0.12548
0.0038023
-0.064639
-0.072243
-0.095057
-0.072243
-0.072243
0.011407
0.14829
0.3308
0.46008
0.40684
0.36122
0.29278
0.28517
0.26996
0.26236
0.20913
0.04943
-0.0038023
-0.14829
-0.27757
-0.32319
-0.25475
-0.1635
-0.11027
-0.079848
0.011407
0.079848
0.18631
0.36882
0.46008
0.49049
0.49049
0.40684
0.22433
-0.034221
-0.25475
-0.46008
-0.47529
-0.36882
-0.26236
-0.20913
-0.20152
-0.18631
-0.1635
-0.064639
0.041825
0.072243
0.0038023
-0.079848
-0.087452
-0.087452
-0.095057
-0.13308
-0.21673
-0.25475
-0.23954
-0.11027
-0.11787
-0.13308
-0.23954
-0.32319
-0.39924
-0.38403
-0.3308
-0.32319
-0.29278
-0.19392
-0.064639
0.011407
0.087452
0.041825
-0.12548
-0.36122
-0.4981
-0.48289
-0.39163
-0.25475
-0.23954
-0.29278
-0.30038
-0.29278
-0.22433
-0.20152
-0.11027
-0.095057
-0.11787
-0.04943
0.095057
0.26236
0.3384
0.43726
0.42966
0.35361
0.26996
0.20913
0.10266
-0.04943
-0.13308
-0.20152
-0.20913
-0.23194
-0.20152
-0.23194
-0.12548
0.072243
0.26996
0.38403
0.41445
0.5057
0.51331
0.57414
0.58935
0.52091
0.41445
0.3308
0.45247
0.57414
0.72624
0.76426
0.65779
0.48289
0.3384
0.22433
0.019011
-0.14829
-0.28517
-0.3384
-0.37643
-0.3384
-0.20152
-0.079848
0.064639
0.19392
0.24715
0.29278
0.28517
0.21673
0.04943
-0.14068
-0.30798
-0.43726
-0.48289
-0.30798
-0.14829
0.019011
0.12548
0.14829
0.057034
-0.034221
-0.11027
-0.19392
-0.23194
-0.28517
-0.23954
-0.25475
-0.27757
-0.18631
-0.095057
0.041825
0.21673
0.39163
0.43726
0.36882
0.17871
-0.0038023
-0.13308
-0.1711
-0.17871
-0.26236
-0.35361
-0.39924
-0.41445
-0.42966
-0.36122
-0.21673
-0.12548
-0.034221
-0.034221
-0.1711
-0.23954
-0.17871
0.034221
0.20913
0.3308
0.34601
0.28517
0.10266
-0.072243
-0.12548
-0.10266
0.0038023
0.14068
0.23194
0.23194
0.22433
0.14829
0.041825
0.041825
0.15589
0.30038
0.3308
0.30038
0.14068
-0.034221
-0.1635
-0.15589
-0.057034
0.057034
0.19392
0.23954
0.20152
0.072243
0.0038023
0.011407
0.04943
0.17871
0.28517
0.36122
0.40684
0.43726
0.36122
0.25475
0.21673
0.1635
0.12548
0.072243
0.087452
0.057034
0.026616
0.0038023
-0.064639
-0.13308
-0.22433
-0.27757
-0.27757
-0.21673
-0.079848
0.057034
0.10266
0.20152
0.28517
0.30038
0.3308
0.36122
0.35361
0.20913
0.11027
0.019011
-0.079848
-0.13308
-0.19392
-0.20152
-0.19392
-0.10266
0.011407
0.095057
0.23954
0.41445
0.55133
0.54373
0.48289
0.36882
0.21673
0.17871
0.20913
0.26236
0.26996
0.30798
0.3308
0.39163
0.36882
0.29278
0.12548
-0.11787
-0.24715
-0.30798
-0.20913
-0.034221
0.21673
0.39163
0.51331
0.63498
0.70342
0.72624
0.69582
0.55894
0.34601
0.15589
0.057034
-0.064639
-0.072243
-0.072243
-0.0038023
0.034221
0.10266
0.14068
0.14068
0.11787
0.095057
0.15589
0.20913
0.26236
0.23194
0.057034
-0.19392
-0.39924
-0.38403
-0.26236
-0.034221
0.14829
0.17871
0.079848
-0.087452
-0.21673
-0.28517
-0.22433
-0.026616
0.079848
0.10266
0.095057
0.087452
0.079848
0.057034
-0.0038023
-0.041825
-0.13308
-0.064639
0.011407
0.079848
0.13308
0.1711
0.17871
0.12548
0.14068
0.14068
0.095057
0.11027
0.1635
0.20152
0.14068
0.026616
-0.13308
-0.23194
-0.24715
-0.14068
-0.0038023
0.12548
0.21673
0.20152
0.12548
-0.0038023
-0.13308
-0.30798
-0.30798
-0.19392
-0.15589
-0.14068
-0.25475
-0.24715
-0.12548
0.041825
0.21673
0.32319
0.42966
0.55133
0.71103
0.6654
0.56654
0.38403
0.23954
0.064639
-0.057034
-0.10266
-0.11787
-0.041825
-0.0038023
0.064639
0.072243
0.1635
0.26236
0.36122
0.39163
0.37643
0.3308
0.20913
0.1711
0.095057
0.10266
0.079848
0.10266
0.13308
0.13308
0.095057
-0.095057
-0.36882
-0.60456
-0.6654
-0.57414
-0.46008
-0.26236
-0.21673
-0.26236
-0.36122
-0.41445
-0.42966
-0.37643
-0.18631
-0.057034
-0.011407
-0.10266
-0.1635
-0.23194
-0.30798
-0.36882
-0.48289
-0.59696
-0.68061
-0.68821
-0.74144
-0.73384
-0.65019
-0.5057
-0.36122
-0.27757
-0.18631
-0.19392
-0.14068
-0.072243
-0.04943
-0.14068
-0.23954
-0.27757
-0.3308
-0.3308
-0.32319
-0.32319
-0.42966
-0.53612
-0.59696
-0.65779
-0.62738
-0.6654
-0.75665
-0.92395
-1
-0.96198
-0.86312
-0.71863
-0.53612
-0.39924
-0.35361
-0.30038
-0.24715
-0.20913
-0.13308
-0.087452
-0.079848
-0.18631
-0.28517
-0.36882
-0.36122
-0.30798
-0.19392
-0.17871
-0.23194
-0.28517
-0.42966
-0.55133
-0.55133
-0.39163
-0.19392
-0.095057
-0.04943
-0.17871
-0.27757
-0.34601
-0.29278
-0.35361
-0.42205
-0.5057
-0.60456
-0.68061
-0.68061
-0.52091
-0.3308
-0.12548
0.057034
0.1635
0.22433
0.23954
0.24715
0.1635
0.072243
0.04943
-0.019011
-0.095057
-0.14829
-0.18631
-0.24715
-0.17871
-0.019011
0.20152
0.36882
0.48289
0.57414
0.53612
0.47529
0.44487
0.42966
0.37643
0.3308
0.22433
0.11027
0.0038023
-0.034221
-0.072243
-0.095057
-0.026616
0.079848
0.24715
0.36122
0.47529
0.52852
0.51331
0.55894
0.55133
0.57414
0.58175
0.57414
0.46768
0.32319
0.26996
0.23954
0.22433
0.19392
0.17871
0.04943
-0.10266
-0.26236
-0.31559
-0.25475
-0.13308
0.0038023
-0.0038023
0.10266
0.23954
0.40684
0.48289
0.46768
0.41445
0.24715
0.1635
0.041825
-0.057034
-0.18631
-0.27757
-0.19392
-0.095057
0.095057
0.27757
0.29278
0.23194
0.14829
0.12548
0.11787
0.10266
0.041825
-0.0038023
-0.079848
-0.019011
0.12548
0.3384
0.55133
0.69582
0.62738
0.3384
0.034221
-0.22433
-0.27757
-0.11027
0.095057
0.24715
0.18631
0.095057
-0.011407
0.019011
0.026616
0.14068
0.21673
0.36122
0.55133
0.62738
0.53612
0.30038
0.072243
-0.15589
-0.30038
-0.37643
-0.36122
-0.22433
-0.057034
0.1635
0.19392
0.20152
0.19392
0.095057
-0.0038023
-0.04943
0.019011
0.072243
0.19392
0.22433
0.22433
0.1711
0.087452
0.04943
-0.079848
-0.11787
-0.20152
-0.25475
-0.26996
-0.1711
0.026616
0.13308
0.18631
0.15589
0.12548
0.026616
-0.064639
-0.12548
-0.18631
-0.14829
-0.0038023
0.21673
0.36882
0.46768
0.40684
0.23194
0.011407
-0.12548
-0.14829
-0.12548
0.019011
0.087452
0.10266
0.087452
0.095057
0.11027
0.011407
-0.064639
-0.11027
-0.10266
-0.057034
-0.034221
0.0038023
0.0038023
0.011407
-0.034221
-0.10266
-0.095057
0.072243
0.26996
0.43726
0.46008
0.34601
0.13308
-0.041825
-0.1635
-0.26236
-0.3308
-0.35361
-0.37643
-0.36882
-0.32319
-0.18631
-0.13308
-0.057034
-0.04943
-0.095057
-0.14829
-0.21673
-0.28517
-0.35361
-0.31559
-0.21673
-0.10266
-0.10266
-0.10266
-0.064639
-0.057034
-0.026616
0.0038023
-0.0038023
-0.10266
-0.11787
-0.22433
-0.27757
-0.22433
-0.095057
0.0038023
-0.072243
-0.20913
-0.29278
-0.31559
-0.18631
0.041825
0.25475
0.37643
0.39924
0.27757
0.034221
-0.13308
-0.14068
-0.04943
0.095057
0.23194
0.23194
0.15589
0.064639
0.011407
0.026616
0.04943
0.057034
0.026616
-0.04943
-0.079848
-0.0038023
0.057034
0.1711
0.22433
0.17871
0.087452
-0.057034
-0.026616
-0.041825
0.034221
0.11787
0.18631
0.24715
0.31559
0.34601
0.22433
0.079848
0.019011
-0.079848
-0.1711
-0.30038
-0.3308
-0.30038
-0.19392
-0.11787
-0.10266
-0.20152
-0.21673
-0.23194
-0.22433
-0.18631
-0.095057
-0.026616
0.041825
0.14068
0.1711
0.14829
0.087452
0.0038023
-0.10266
-0.26996
-0.30038
-0.22433
-0.11027
-0.064639
0.0038023
-0.026616
-0.04943
0.041825
0.087452
0.12548
0.1635
0.23194
0.23954
0.22433
0.20152
0.11787
0.072243
0.034221
0.11787
0.15589
0.19392
0.21673
0.18631
0.20152
0.23954
0.32319
0.30038
0.26236
0.21673
0.1635
0.064639
-0.04943
-0.064639
-0.12548
-0.0038023
0.11027
0.21673
0.23954
0.20913
0.17871
0.072243
0.041825
0.057034
0.13308
0.1635
0.1711
0.072243
-0.10266
-0.29278
-0.44487
-0.42966
-0.3308
-0.11787
0.0038023
0.019011
-0.0038023
0.011407
0.072243
0.026616
-0.011407
-0.1711
-0.26236
-0.24715
-0.1635
-0.10266
-0.04943
0.087452
0.13308
0.11027
0.087452
0.057034
0.011407
-0.019011
0.064639
0.079848
0.034221
-0.12548
-0.21673
-0.23954
-0.24715
-0.15589
-0.10266
-0.10266
-0.20152
-0.29278
-0.39924
-0.38403
-0.26236
-0.095057
0.057034
0.12548
0.13308
0.13308
0.072243
0.011407
-0.019011
-0.10266
-0.20152
-0.29278
-0.46768
-0.57414
-0.57414
-0.45247
-0.3308
-0.12548
0.072243
0.19392
0.26236
0.31559
0.3308
0.34601
0.34601
0.3308
0.25475
0.17871
0.1711
0.072243
-0.13308
-0.26236
-0.3308
-0.34601
-0.25475
-0.1635
-0.087452
-0.034221
0.034221
0.057034
-0.041825
-0.20152
-0.30038
-0.3384
-0.32319
-0.21673
-0.1635
-0.087452
-0.026616
0.087452
0.11027
0.072243
0.064639
-0.034221
-0.14829
-0.20913
-0.20152
-0.23954
-0.23954
-0.22433
-0.17871
-0.14068
-0.087452
-0.034221
-0.0038023
0.0038023
0.019011
-0.064639
-0.14068
-0.15589
-0.11027
-0.12548
-0.11787
-0.079848
-0.019011
-0.0038023
0.026616
0.13308
0.26996
0.43726
0.53612
0.56654
0.49049
0.40684
0.28517
0.21673
0.20913
0.26996
0.30038
0.23954
0.25475
0.23954
0.23954
0.20152
0.19392
0.14068
0.064639
0.087452
0.10266
0.19392
0.31559
0.39163
0.42966
0.27757
0.23954
0.1635
0.11787
0.13308
0.19392
0.29278
0.42205
0.4981
0.49049
0.32319
0.1635
0.11027
0.11027
0.13308
0.19392
0.19392
0.22433
0.21673
0.29278
0.29278
0.28517
0.3308
0.35361
0.37643
0.43726
0.45247
0.36882
0.29278
0.26996
0.30038
0.35361
0.47529
0.59696
0.53612
0.34601
0.04943
-0.17871
-0.29278
-0.20913
-0.019011
0.11787
0.20152
0.21673
0.22433
0.15589
0.15589
0.095057
0.026616
0.019011
0.087452
0.04943
-0.064639
-0.18631
-0.31559
-0.32319
-0.23954
-0.064639
0.13308
0.20152
0.19392
0.041825
-0.11787
-0.20913
-0.1635
-0.087452
-0.064639
-0.019011
-0.064639
-0.034221
0.057034
0.24715
0.42205
0.5057
0.55894
0.44487
0.25475
0.04943
-0.026616
-0.064639
0.034221
0.22433
0.30798
0.40684
0.42205
0.40684
0.36882
0.37643
0.43726
0.45247
0.41445
0.31559
0.23954
0.072243
-0.011407
-0.034221
-0.04943
-0.10266
-0.17871
-0.20152
-0.22433
-0.15589
-0.041825
0.064639
0.079848
0.087452
0.041825
0.019011
0.011407
0.087452
0.17871
0.12548
0.04943
-0.19392
-0.40684
-0.5057
-0.41445
-0.23954
-0.11027
0.0038023
0.0038023
-0.026616
-0.034221
0.019011
0.019011
0.019011
0.095057
0.087452
0.10266
0.064639
0.041825
-0.064639
-0.22433
-0.42205
-0.58935
-0.673
-0.65779
-0.56654
-0.58935
-0.63498
-0.73384
-0.78707
-0.77186
-0.69582
-0.58935
-0.56654
-0.52852
-0.39163
-0.28517
-0.20152
-0.087452
0.0038023
0.0038023
0.026616
0.026616
-0.019011
-0.12548
-0.21673
-0.26996
-0.36122
-0.3384
-0.28517
-0.20152
-0.23194
-0.30798
-0.38403
-0.43726
-0.34601
-0.15589
0.019011
0.072243
0.095057
0.019011
-0.20152
-0.43726
-0.61217
-0.63498
-0.58935
-0.46768
-0.36882
-0.32319
-0.24715
-0.21673
-0.18631
-0.17871
-0.04943
-0.019011
-0.11787
-0.22433
-0.22433
-0.1635
-0.026616
0.11027
0.26996
0.3384
0.28517
0.20913
0.13308
0.11787
0.20913
0.20913
0.14068
-0.034221
-0.18631
-0.3384
-0.38403
-0.35361
-0.34601
-0.39924
-0.45247
-0.42205
-0.39163
-0.34601
-0.3308
-0.37643
-0.38403
-0.27757
-0.12548
-0.057034
0.0038023
-0.0038023
0.04943
0.0038023
0.041825
0.057034
-0.041825
-0.13308
-0.22433
-0.24715
-0.25475
-0.20152
-0.095057
-0.10266
-0.15589
-0.25475
-0.3308
-0.30038
-0.19392
-0.13308
-0.1711
-0.27757
-0.36882
-0.45247
-0.4981
-0.39924
-0.32319
-0.19392
-0.10266
0.041825
0.18631
0.17871
0.19392
0.11787
0.011407
-0.057034
-0.04943
-0.011407
-0.0038023
0.064639
0.057034
0.019011
-0.057034
-0.079848
-0.072243
-0.034221
-0.011407
0.011407
0.064639
0.079848
0.15589
0.072243
0.011407
-0.087452
-0.19392
-0.30798
-0.28517
-0.15589
-0.064639
0.011407
0.079848
0.072243
0.019011
-0.079848
-0.11787
-0.21673
-0.19392
-0.13308
-0.011407
0.072243
0.18631
0.21673
0.20913
0.14829
0.079848
0.057034
0.019011
0.064639
0.072243
0.011407
-0.019011
-0.064639
-0.095057
-0.21673
-0.19392
-0.17871
-0.15589
-0.17871
-0.23954
-0.36882
-0.49049
-0.39924
-0.21673
0.064639
0.29278
0.4981
0.57414
0.52091
0.38403
0.15589
-0.019011
-0.12548
-0.057034
-0.04943
-0.095057
-0.19392
-0.26996
-0.29278
-0.28517
-0.1635
-0.11027
-0.026616
0.072243
0.12548
0.13308
0.1635
0.26996
0.31559
0.35361
0.32319
0.19392
0.011407
-0.22433
-0.3384
-0.39163
-0.3308
-0.14829
0.034221
0.18631
0.24715
0.23954
0.10266
0.011407
-0.04943
-0.04943
0.011407
0.034221
0.095057
0.095057
0.072243
0.04943
0.15589
0.22433
0.35361
0.34601
0.21673
0.095057
0.064639
0.072243
0.11027
0.20913
0.24715
0.24715
0.26996
0.39924
0.52091
0.55894
0.57414
0.46008
0.31559
0.15589
0.15589
0.18631
0.26236
0.32319
0.30038
0.24715
0.15589
0.11787
0.064639
0.057034
0.072243
0.057034
0.057034
0.11027
0.26236
0.38403
0.53612
0.58175
0.53612
0.39924
0.19392
-0.0038023
-0.15589
-0.1711
-0.034221
0.11787
0.20913
0.24715
0.29278
0.22433
0.11787
0.019011
-0.019011
0.011407
0.1711
0.37643
0.55133
0.61217
0.65019
0.4981
0.27757
0.1635
0.10266
0.11787
0.20152
0.26236
0.26996
0.20152
0.15589
0.11027
0.072243
0.026616
0.087452
0.1711
0.36882
0.61977
0.74905
0.77947
0.73384
0.64259
0.4981
0.35361
0.3384
0.36122
0.36122
0.25475
0.079848
-0.14829
-0.34601
-0.39924
-0.3384
-0.12548
0.13308
0.37643
0.42966
0.36882
0.25475
0.21673
0.20913
0.31559
0.45247
0.47529
0.45247
0.40684
0.36122
0.26996
0.19392
0.20913
0.13308
0.14068
0.18631
0.20152
0.14829
0.079848
0.0038023
-0.079848
-0.087452
-0.057034
0.0038023
0.026616
0.095057
0.079848
0.0038023
-0.14068
-0.28517
-0.30798
-0.30798
-0.19392
-0.20913
-0.25475
-0.28517
-0.24715
-0.20913
-0.22433
-0.22433
-0.19392
-0.1711
-0.11787
-0.0038023
0.1635
0.24715
0.38403
0.36882
0.38403
0.3384
0.32319
0.21673
0.11027
0.064639
-0.04943
-0.1635
-0.20913
-0.18631
-0.1711
-0.14068
-0.072243
0.011407
0.087452
0.14829
0.23954
0.27757
0.34601
0.36882
0.37643
0.32319
0.25475
0.19392
0.064639
0.041825
0.14829
0.34601
0.46768
0.52852
0.45247
0.23194
-0.026616
-0.24715
-0.39163
-0.46768
-0.43726
-0.37643
-0.26236
-0.072243
0.1711
0.29278
0.22433
0.034221
-0.13308
-0.21673
-0.36882
-0.3384
-0.37643
-0.32319
-0.28517
-0.30038
-0.24715
-0.12548
0.087452
0.23954
0.28517
0.35361
0.34601
0.32319
0.23194
0.14829
0.079848
0.10266
0.21673
0.18631
0.034221
-0.21673
-0.38403
-0.40684
-0.23194
0.04943
0.36122
0.52852
0.55133
0.47529
-0.11787
-0.11787
-0.087452
0.034221
0.019011
-0.11787
-0.1635
-0.17871
-0.019011
0.17871
0.34601
0.38403
0.36882
0.28517
0.057034
-0.28517
-0.48289
-0.49049
-0.38403
-0.20152
-0.11787
-0.11027
-0.14829
-0.1711
-0.20913
-0.21673
-0.12548
0.095057
0.22433
0.26996
0.25475
0.13308
0.0038023
-0.095057
-0.15589
-0.17871
-0.21673
-0.18631
-0.19392
-0.23954
-0.27757
-0.22433
-0.10266
-0.019011
0.072243
0.072243
-0.019011
-0.12548
-0.1711
-0.19392
-0.17871
-0.17871
-0.17871
-0.1711
-0.20152
-0.18631
-0.23954
-0.23194
-0.034221
0.14829
0.30798
0.42966
0.47529
0.39163
0.32319
0.28517
0.25475
0.22433
0.1711
0.1711
0.011407
-0.095057
-0.079848
-0.011407
0.019011
0.0038023
0.011407
0.0038023
-0.0038023
0.026616
-0.019011
-0.019011
-0.04943
0.011407
0.064639
0.15589
0.21673
0.17871
0.019011
-0.087452
-0.10266
-0.041825
0.057034
0.087452
0.026616
-0.019011
-0.04943
0.026616
0.0038023
-0.072243
-0.1711
-0.19392
-0.26236
-0.22433
-0.20913
-0.15589
-0.034221
0.13308
0.30038
0.38403
0.44487
0.29278
0.057034
-0.11787
-0.19392
-0.20913
-0.23194
-0.23194
-0.30798
-0.3308
-0.30038
-0.1711
-0.072243
0.034221
0.095057
0.17871
0.19392
0.24715
0.31559
0.20913
0.057034
-0.1635
-0.34601
-0.43726
-0.35361
-0.15589
0.0038023
0.1635
0.22433
0.18631
0.0038023
-0.21673
-0.43726
-0.64259
-0.68061
-0.57414
-0.40684
-0.34601
-0.30038
-0.36882
-0.45247
-0.49049
-0.44487
-0.32319
-0.22433
-0.072243
0.0038023
0.011407
-0.04943
-0.12548
-0.23194
-0.26996
-0.13308
0.011407
0.11787
0.087452
-0.0038023
-0.14068
-0.20152
-0.1711
-0.26236
-0.41445
-0.59696
-0.65019
-0.62738
-0.54373
-0.42205
-0.38403
-0.32319
-0.23194
-0.019011
0.11787
0.1635
0.072243
-0.079848
-0.29278
-0.37643
-0.39163
-0.46008
-0.52852
-0.55894
-0.54373
-0.49049
-0.38403
-0.24715
-0.12548
0.072243
0.23954
0.38403
0.42205
0.41445
0.38403
0.30798
0.26236
0.1711
0.13308
0.0038023
-0.034221
-0.14068
-0.26996
-0.38403
-0.38403
-0.26996
-0.19392
0.087452
0.20913
0.25475
0.23194
0.11787
0.064639
0.041825
0.18631
0.27757
0.21673
0.18631
0.14829
0.15589
0.1635
0.15589
0.072243
-0.04943
-0.13308
-0.057034
0.04943
0.13308
0.057034
-0.072243
-0.17871
-0.13308
-0.0038023
0.057034
0.011407
-0.064639
-0.095057
-0.04943
0.041825
0.11787
0.064639
-0.019011
-0.11787
-0.21673
-0.32319
-0.3384
-0.21673
-0.1635
-0.057034
-0.034221
-0.072243
-0.11027
-0.17871
-0.20913
-0.30798
-0.35361
-0.29278
-0.17871
-0.072243
-0.011407
-0.0038023
-0.14068
-0.15589
-0.14829
-0.12548
-0.17871
-0.27757
-0.39163
-0.45247
-0.42205
-0.25475
-0.034221
0.10266
0.27757
0.37643
0.39163
0.34601
0.24715
0.18631
0.19392
0.23194
0.20913
0.10266
0.041825
0.10266
0.14829
0.20913
0.3384
0.42966
0.42966
0.34601
0.25475
0.1635
0.11027
0.13308
0.14068
0.095057
0.04943
0.087452
0.057034
0.10266
0.1711
0.12548
0.095057
0.011407
0.019011
0.019011
0.079848
0.14829
0.26236
0.36882
0.48289
0.55894
0.42966
0.25475
0.057034
-0.041825
-0.095057
-0.04943
0.079848
0.095057
0.079848
0.087452
0.011407
-0.019011
0.041825
0.26236
0.42966
0.55133
0.55894
0.58175
0.57414
0.62738
0.68061
0.76426
0.81749
0.84791
0.74144
0.51331
0.3308
0.064639
-0.17871
-0.34601
-0.3384
-0.21673
-0.072243
0.057034
0.11787
0.14829
0.14068
0.079848
0.04943
0.034221
0.11787
0.19392
0.24715
0.26236
0.29278
0.1635
-0.04943
-0.24715
-0.37643
-0.44487
-0.40684
-0.25475
-0.095057
0.087452
0.21673
0.15589
-0.087452
-0.28517
-0.32319
-0.23194
-0.011407
0.28517
0.49049
0.49049
0.32319
0.041825
-0.24715
-0.45247
-0.57414
-0.58175
-0.55133
-0.43726
-0.26996
-0.1711
-0.04943
0.04943
0.079848
-0.011407
-0.064639
-0.11027
-0.14068
-0.064639
0.04943
0.1635
0.095057
-0.011407
-0.25475
-0.42966
-0.52852
-0.48289
-0.46008
-0.45247
-0.38403
-0.36122
-0.28517
-0.17871
-0.057034
-0.026616
-0.079848
-0.13308
-0.1635
-0.11027
0.019011
0.22433
0.37643
0.48289
0.57414
0.53612
0.39924
0.17871
-0.064639
-0.30798
-0.44487
-0.44487
-0.45247
-0.35361
-0.28517
-0.1711
-0.15589
-0.11027
-0.079848
-0.011407
-0.064639
-0.087452
-0.057034
-0.095057
-0.026616
0.011407
0.011407
-0.087452
-0.21673
-0.30798
-0.39163
-0.45247
-0.47529
-0.46768
-0.40684
-0.19392
0.041825
0.26996
0.42966
0.51331
0.54373
0.4981
0.5057
0.5057
0.48289
0.42205
0.36882
0.25475
0.11787
0.041825
-0.026616
0.019011
0.087452
0.20913
0.29278
0.31559
0.35361
0.32319
0.25475
0.1635
0.041825
-0.13308
-0.26236
-0.32319
-0.35361
-0.32319
-0.25475
-0.20913
-0.22433
-0.11787
-0.057034
0.011407
-0.064639
-0.087452
-0.041825
-0.10266
-0.19392
-0.27757
-0.30798
-0.3308
-0.32319
-0.20913
-0.14068
0.019011
0.1635
0.28517
0.38403
0.36122
0.26996
0.034221
-0.12548
-0.23954
-0.26236
-0.24715
-0.22433
-0.18631
-0.20913
-0.1711
-0.12548
-0.019011
-0.057034
0.026616
-0.0038023
-0.072243
-0.13308
-0.20152
-0.23954
-0.23194
-0.14829
-0.064639
0.04943
0.14068
0.23954
0.29278
0.21673
0.20913
0.11787
0.041825
-0.057034
-0.14068
-0.23194
-0.27757
-0.19392
-0.17871
-0.22433
-0.29278
-0.31559
-0.3384
-0.3384
-0.28517
-0.17871
-0.057034
0.041825
0.057034
-0.087452
-0.22433
-0.30798
-0.37643
-0.42205
-0.45247
-0.37643
-0.38403
-0.3384
-0.40684
-0.47529
-0.57414
-0.56654
-0.38403
-0.20152
-0.0038023
0.064639
0.019011
-0.087452
-0.13308
-0.11027
-0.12548
-0.14829
-0.23954
-0.28517
-0.36122
-0.42205
-0.48289
-0.49049
-0.37643
-0.17871
0.011407
0.11787
0.22433
0.24715
0.20152
0.15589
0.1711
0.17871
0.12548
0.095057
0.011407
-0.04943
-0.064639
-0.072243
-0.13308
-0.15589
-0.087452
-0.019011
-0.0038023
-0.034221
0.026616
0.11027
0.15589
0.26236
0.30038
0.29278
0.24715
0.20152
0.011407
-0.20913
-0.37643
-0.55133
-0.61977
-0.60456
-0.49049
-0.42205
-0.39163
-0.43726
-0.46008
-0.4981
-0.44487
-0.27757
-0.087452
0.20152
0.48289
0.59696
0.48289
0.22433
-0.026616
-0.26236
-0.3384
-0.3308
-0.23194
-0.1711
-0.13308
-0.11027
-0.19392
-0.23194
-0.23194
-0.1711
-0.11027
-0.0038023
-0.026616
-0.087452
-0.11787
-0.087452
0.064639
0.10266
0.21673
0.21673
0.20913
0.18631
0.21673
0.15589
0.057034
-0.0038023
-0.072243
-0.17871
-0.22433
-0.20152
-0.14829
-0.12548
-0.11787
-0.15589
-0.22433
-0.20913
-0.15589
-0.12548
-0.1635
-0.14829
-0.057034
0.019011
0.079848
0.057034
-0.10266
-0.27757
-0.39163
-0.45247
-0.46008
-0.42205
-0.36882
-0.49049
-0.64259
-0.73384
-0.69582
-0.47529
-0.064639
0.41445
0.65779
0.75665
0.65019
0.48289
0.34601
0.25475
0.22433
0.17871
0.11027
0.064639
0.095057
0.11787
0.28517
0.44487
0.51331
0.52091
0.5057
0.5057
0.44487
0.48289
0.47529
0.44487
0.40684
0.3384
0.21673
0.041825
-0.057034
-0.1635
-0.25475
-0.35361
-0.38403
-0.35361
-0.28517
-0.079848
0.095057
0.20913
0.20913
0.12548
0.034221
0.026616
0.1635
0.21673
0.29278
0.3384
0.35361
0.23194
0.064639
-0.095057
-0.20152
-0.27757
-0.23194
-0.087452
0.04943
0.1635
0.23194
0.23194
0.17871
0.22433
0.28517
0.37643
0.45247
0.43726
0.30798
0.11787
0.0038023
0.087452
0.1711
0.24715
0.29278
0.32319
0.30798
0.29278
0.28517
0.20913
0.14068
0.11027
0.087452
0.034221
0.095057
0.095057
0.087452
0.14068
0.22433
0.36122
0.31559
0.24715
0.12548
0.019011
0.026616
0.10266
0.17871
0.11027
0.041825
0.011407
-0.057034
-0.072243
-0.011407
0.011407
0.0038023
0.079848
0.11027
0.17871
0.20152
0.19392
0.041825
-0.072243
-0.079848
-0.087452
-0.072243
-0.072243
-0.011407
-0.019011
0.057034
0.10266
0.11027
0.04943
-0.10266
-0.1711
-0.29278
-0.31559
-0.28517
-0.23194
-0.21673
-0.20913
-0.095057
-0.0038023
0.14068
0.22433
0.19392
0.034221
-0.12548
-0.21673
-0.20913
-0.064639
0.13308
0.25475
0.23954
0.20913
0.18631
0.1635
0.23954
0.27757
0.23194
0.072243
-0.079848
-0.23954
-0.3308
-0.35361
-0.31559
-0.23954
-0.15589
-0.034221
0.019011
0.019011
-0.011407
-0.026616
-0.072243
-0.23194
-0.23954
-0.30038
-0.32319
-0.34601
-0.36882
-0.38403
-0.37643
-0.29278
-0.23194
-0.1711
-0.14829
-0.041825
0.0038023
0.011407
-0.034221
-0.11787
-0.23194
-0.24715
-0.20152
-0.1635
-0.15589
-0.12548
-0.057034
-0.04943
-0.034221
-0.011407
-0.072243
0.034221
0.1711
0.28517
0.25475
0.19392
0.11027
0.064639
0.18631
0.25475
0.25475
0.1635
0.072243
0.15589
0.19392
0.24715
0.27757
0.30038
0.30798
0.35361
0.38403
0.35361
0.3384
0.32319
0.30798
0.29278
0.32319
0.27757
0.14829
0.0038023
-0.026616
-0.026616
-0.0038023
0.11787
0.24715
0.36882
0.40684
0.46768
0.46768
0.44487
0.49049
0.42205
0.32319
0.1635
0.12548
0.087452
0.10266
0.14068
0.15589
0.14829
0.26996
0.39924
0.58175
0.74905
0.8251
0.77947
0.62738
0.49049
0.43726
0.40684
0.46768
0.52852
0.53612
0.52852
0.55894
0.68061
0.71863
0.74905
0.71863
0.60456
0.39924
0.20152
0.11787
0.057034
0.041825
0.04943
0.095057
0.1635
0.3384
0.45247
0.55894
0.73384
0.91635
1
0.8403
0.52852
0.20152
-0.064639
-0.1711
-0.095057
0.0038023
0.072243
0.15589
0.19392
0.24715
0.32319
0.40684
0.45247
0.42966
0.42205
0.22433
0.072243
-0.064639
-0.057034
0.04943
0.14829
0.21673
0.21673
0.18631
0.15589
0.23954
0.28517
0.35361
0.39163
0.34601
0.26996
0.1711
0.079848
-0.095057
-0.15589
-0.12548
-0.026616
0.026616
0.13308
0.22433
0.31559
0.42205
0.52091
0.52091
0.41445
0.26996
0.1711
0.019011
-0.04943
-0.034221
-0.019011
-0.019011
-0.034221
0.011407
-0.04943
-0.087452
-0.072243
0.034221
0.22433
0.39163
0.52852
0.56654
0.52852
0.3384
0.11027
-0.20913
-0.26996
-0.22433
-0.17871
-0.057034
0.04943
0.11027
0.095057
0.095057
0.10266
0.1635
0.20913
0.20913
0.14068
0.14829
0.26236
0.42966
0.60456
0.74144
0.80989
0.65019
0.43726
0.26996
0.15589
0.04943
-0.041825
-0.087452
-0.10266
-0.095057
-0.026616
-0.019011
0.079848
0.19392
0.35361
0.3384
0.30038
0.22433
0.21673
0.18631
0.20913
0.26236
0.21673
0.20152
0.15589
0.072243
-0.072243
-0.17871
-0.30038
-0.35361
-0.26996
-0.20152
-0.041825
0.011407
0.079848
0.11787
0.14068
0.14829
0.20913
0.26236
0.21673
0.19392
0.20152
0.12548
0.04943
-0.041825
-0.11027
-0.13308
-0.057034
-0.057034
-0.11787
-0.18631
-0.14068
-0.0038023
0.11027
0.20152
0.072243
-0.041825
-0.26996
-0.41445
-0.52091
-0.55894
-0.49049
-0.36882
-0.34601
-0.3384
-0.3308
-0.31559
-0.24715
-0.11787
-0.072243
-0.087452
-0.13308
-0.18631
-0.23954
-0.31559
-0.38403
-0.39924
-0.31559
-0.15589
0.057034
0.095057
0.10266
0.15589
0.17871
0.20152
0.26236
0.40684
0.47529
0.48289
0.36122
0.17871
-0.026616
-0.17871
-0.20152
-0.23194
-0.17871
-0.14068
-0.14829
-0.25475
-0.31559
-0.3308
-0.30038
-0.1635
0.079848
0.32319
0.43726
0.39163
0.17871
-0.10266
-0.24715
-0.29278
-0.30798
-0.31559
-0.27757
-0.17871
-0.04943
0.079848
0.20913
0.26236
0.23194
0.27757
0.21673
0.14829
0.064639
0.026616
0.034221
0.087452
0.17871
0.24715
0.20913
0.1635
0.1711
0.12548
0.095057
0.072243
0.026616
-0.026616
-0.057034
-0.057034
-0.072243
0.011407
0.1635
0.24715
0.23194
0.15589
0.11787
0.057034
0.064639
0.04943
0.026616
-0.041825
-0.019011
-0.019011
-0.034221
-0.041825
-0.019011
-0.019011
-0.15589
-0.28517
-0.40684
-0.55133
-0.673
-0.72624
-0.73384
-0.673
-0.4981
-0.27757
-0.14068
-0.13308
-0.1635
-0.24715
-0.36882
-0.30798
-0.32319
-0.3308
-0.3384
-0.37643
-0.38403
-0.38403
-0.26236
-0.25475
-0.22433
-0.20913
-0.087452
0.026616
0.087452
0.095057
-0.041825
-0.12548
-0.14829
-0.072243
-0.12548
-0.27757
-0.47529
-0.58175
-0.58935
-0.48289
-0.31559
-0.23954
-0.31559
-0.52091
-0.77947
-0.90875
-0.92395
-0.69582
-0.46008
-0.27757
-0.14068
-0.15589
-0.23954
-0.30038
-0.32319
-0.32319
-0.20913
-0.10266
-0.026616
-0.087452
-0.15589
-0.26236
-0.40684
-0.46768
-0.45247
-0.38403
-0.39163
-0.42966
-0.46768
-0.52091
-0.5057
-0.38403
-0.30038
-0.30798
-0.30798
-0.35361
-0.3384
-0.28517
-0.17871
-0.064639
-0.057034
-0.026616
-0.095057
-0.23954
-0.31559
-0.32319
-0.32319
-0.41445
-0.40684
-0.40684
-0.32319
-0.20913
-0.079848
-0.04943
-0.057034
-0.072243
-0.095057
-0.087452
-0.11027
-0.019011
-0.011407
-0.041825
-0.041825
-0.079848
-0.11027
-0.095057
-0.019011
0.011407
0.12548
0.22433
0.25475
0.11027
-0.034221
-0.14068
-0.1711
-0.14068
-0.079848
-0.11027
-0.10266
-0.12548
-0.079848
-0.10266
-0.14829
-0.21673
-0.26236
-0.25475
-0.14829
-0.0038023
0.041825
0.20913
0.34601
0.39163
0.3308
0.21673
0.095057
-0.057034
-0.072243
-0.041825
-0.0038023
0.04943
0.14068
0.21673
0.20913
0.14829
0.072243
0.04943
0.0038023
0.026616
-0.019011
-0.11027
-0.20913
-0.23954
-0.20913
-0.14068
-0.057034
0.0038023
-0.064639
-0.11027
-0.095057
-0.12548
-0.13308
-0.11787
-0.087452
-0.041825
0.026616
0.1711
0.22433
0.28517
0.24715
0.14829
-0.019011
-0.064639
-0.041825
-0.019011
0.011407
-0.04943
-0.10266
-0.20913
-0.26996
-0.24715
-0.32319
-0.3308
-0.29278
-0.15589
-0.072243
-0.026616
0.0038023
-0.04943
-0.095057
-0.11027
-0.13308
-0.23954
-0.38403
-0.51331
-0.63498
-0.58935
-0.43726
-0.17871
0.0038023
0.15589
0.15589
0.10266
0.11027
0.12548
0.20913
0.17871
0.14068
0.087452
0.026616
0.034221
0.087452
0.1635
0.20913
0.23954
0.18631
0.057034
-0.079848
-0.12548
-0.13308
-0.079848
0.079848
0.22433
0.38403
0.53612
0.64259
0.59696
0.48289
0.37643
0.29278
0.14829
-0.0038023
-0.13308
-0.23194
-0.23954
-0.20152
-0.12548
-0.019011
0.13308
0.39163
0.5057
0.55894
0.53612
0.46008
0.47529
0.47529
0.43726
0.34601
0.24715
0.19392
0.17871
0.12548
0.11787
0.15589
0.11787
0.14829
0.14829
0.13308
-0.011407
-0.064639
-0.12548
-0.21673
-0.17871
-0.034221
0.11787
0.18631
0.22433
0.21673
0.17871
0.11027
0.04943
0.095057
0.10266
0.04943
-0.14829
-0.38403
-0.48289
-0.39163
-0.22433
-0.10266
0.026616
0.064639
0.1635
0.26236
0.41445
0.49049
0.48289
0.45247
0.32319
0.22433
0.13308
0.14829
0.13308
0.095057
0.11027
0.095057
0.026616
-0.079848
-0.079848
-0.087452
-0.026616
0.034221
0.057034
0.034221
0.072243
0.13308
0.13308
0.064639
-0.041825
-0.10266
-0.18631
-0.23194
-0.24715
-0.31559
-0.38403
-0.40684
-0.41445
-0.4981
-0.60456
-0.74905
-0.86312
-0.80989
-0.53612
-0.14829
0.14068
0.31559
0.26996
0.18631
0.11027
0.12548
0.04943
-0.10266
-0.23194
-0.31559
-0.30798
-0.19392
-0.079848
0.0038023
0.0038023
0.034221
-0.0038023
-0.064639
-0.1711
-0.19392
-0.17871
-0.11787
0.026616
0.11027
0.13308
0.057034
0.064639
-0.057034
-0.22433
-0.3308
-0.42966
-0.37643
-0.28517
-0.14829
-0.11027
-0.087452
0.011407
0.11027
0.13308
0.10266
0.11787
0.11027
0.1635
0.20913
0.22433
0.21673
0.21673
0.22433
0.17871
0.11787
0.12548
0.19392
0.30798
0.45247
0.56654
0.53612
0.45247
0.36882
0.32319
0.30038
0.36122
0.42205
0.41445
0.41445
0.39924
0.39924
0.28517
0.21673
0.1635
0.22433
0.38403
0.5057
0.51331
0.37643
0.23954
0.1711
0.11787
0.1711
0.27757
0.3384
0.3384
0.27757
0.11027
-0.087452
-0.24715
-0.29278
-0.25475
-0.1635
0.0038023
0.10266
0.1635
0.22433
0.26236
0.29278
0.29278
0.28517
0.24715
0.1635
0.04943
0.04943
-0.034221
-0.0038023
0.04943
0.064639
0.019011
-0.10266
-0.14829
-0.26236
-0.26236
-0.28517
-0.25475
-0.26996
-0.30798
-0.3308
-0.39924
-0.37643
-0.27757
-0.18631
-0.18631
-0.1635
-0.18631
-0.13308
0.011407
0.10266
0.14829
0.034221
-0.072243
-0.21673
-0.30798
-0.30038
-0.20152
-0.064639
0.041825
0.026616
-0.10266
-0.30798
-0.4981
-0.4981
-0.34601
-0.11787
-0.29278
