0.44118
0.33333
0.11765
0.0098039
0.029412
0.098039
0.2451
0.34314
0.33333
0.15686
0.088235
-0.0098039
-0.029412
0
0.10784
0.078431
0.19608
0.2451
0.14706
0.039216
-0.078431
-0.26471
-0.36275
-0.46078
-0.36275
-0.26471
-0.28431
-0.27451
-0.27451
-0.31373
-0.28431
-0.44118
-0.63725
-0.56863
-0.42157
-0.2549
-0.2451
-0.32353
-0.28431
-0.21569
-0.098039
0.0098039
0
-0.12745
-0.14706
-0.058824
-0.0098039
0.10784
0.17647
0.21569
0.18627
0.36275
0.37255
0.41176
0.34314
0.30392
0.23529
0.029412
-0.04902
-0.21569
-0.41176
-0.57843
-0.61765
-0.54902
-0.5
-0.45098
-0.44118
-0.39216
-0.30392
-0.14706
-0.039216
0.098039
0.21569
0.2451
0.10784
-0.11765
-0.20588
-0.13725
-0.039216
0.17647
0.14706
0.13725
0.10784
0.22549
0.2549
0.30392
0.21569
0.18627
0.16667
0.15686
0.14706
0.058824
-0.0098039
-0.039216
-0.0098039
0.088235
0.20588
0.2549
0.28431
0.32353
0.36275
0.34314
0.20588
0.13725
0.19608
0.28431
0.26471
0.37255
0.41176
0.48039
0.41176
0.36275
0.15686
0.20588
0.29412
0.43137
0.4902
0.59804
0.54902
0.4902
0.41176
0.32353
0.31373
0.23529
0.35294
0.34314
0.33333
0.29412
0.28431
0.23529
0.19608
0.33333
0.39216
0.44118
0.36275
0.44118
0.40196
0.45098
0.4902
0.4902
0.4902
0.40196
0.37255
0.31373
0.21569
0.21569
0.15686
0.068627
0.11765
0.2549
0.35294
0.5098
0.5098
0.29412
0.078431
-0.10784
-0.039216
-0.019608
0
-0.039216
-0.039216
-0.14706
-0.22549
-0.22549
-0.16667
-0.21569
-0.068627
0.18627
0.31373
0.42157
0.44118
0.2549
0.068627
-0.12745
-0.23529
-0.31373
-0.35294
-0.33333
-0.19608
-0.12745
-0.058824
0.088235
0.21569
0.14706
0.039216
-0.039216
-0.088235
0.0098039
0.13725
0.14706
0.12745
0.22549
0.17647
0.088235
-0.04902
-0.12745
-0.13725
-0.078431
0.078431
0.17647
0.19608
0.16667
0.12745
-0.039216
-0.21569
-0.34314
-0.36275
-0.27451
-0.058824
0.19608
0.30392
0.29412
0.29412
0.22549
0.16667
0.098039
0.019608
-0.10784
-0.12745
0
0.039216
0.10784
0.16667
0.23529
0.21569
0.29412
0.37255
0.46078
0.34314
0.088235
-0.068627
-0.20588
-0.21569
-0.18627
-0.10784
-0.039216
0.16667
0.28431
0.33333
0.31373
0.30392
0.21569
0.098039
0.029412
-0.088235
-0.16667
-0.15686
-0.029412
-0.04902
-0.039216
0.088235
0.13725
0.15686
0.10784
0.12745
0.17647
0.2549
0.30392
0.19608
0.11765
0.029412
0.12745
0.17647
0.28431
0.41176
0.42157
0.32353
0.088235
-0.058824
-0.19608
-0.20588
-0.078431
0.0098039
0.19608
0.26471
0.31373
0.14706
0.10784
0.04902
0.16667
0.28431
0.42157
0.56863
0.36275
0.15686
-0.029412
-0.019608
0.039216
0.30392
0.43137
0.4902
0.39216
0.39216
0.33333
0.33333
0.39216
0.41176
0.41176
0.37255
0.39216
0.32353
0.20588
0.30392
0.42157
0.4902
0.36275
0.27451
0.14706
0.11765
0.13725
0.14706
0.16667
0.32353
0.53922
0.72549
0.69608
0.57843
0.41176
0.28431
0.2451
0.38235
0.35294
0.26471
0.18627
0.10784
0.10784
0.13725
0.27451
0.31373
0.33333
0.35294
0.18627
0.078431
0.039216
0.15686
0.22549
0.30392
0.2549
0.30392
0.2451
0.12745
0.098039
0.029412
0.04902
0.029412
-0.10784
-0.21569
-0.20588
-0.078431
-0.078431
-0.078431
-0.039216
0.14706
0.28431
0.5098
0.51961
0.4902
0.35294
0.40196
0.35294
0.20588
0.11765
0
0.0098039
0.14706
0.30392
0.39216
0.41176
0.44118
0.36275
0.30392
0.26471
0.29412
0.42157
0.47059
0.45098
0.36275
0.21569
0.20588
0.20588
0.30392
0.32353
0.29412
0.17647
-0.058824
-0.34314
-0.44118
-0.55882
-0.4902
-0.28431
-0.019608
0.16667
0.21569
0.17647
0.029412
-0.029412
-0.088235
-0.13725
-0.20588
-0.20588
-0.04902
0.068627
0.11765
0.21569
0.2451
0.2451
0.20588
0.13725
0.058824
0.039216
0.0098039
-0.11765
-0.18627
-0.19608
-0.15686
0.0098039
0.28431
0.59804
0.82353
0.78431
0.84314
0.73529
0.59804
0.34314
0.22549
0.19608
0.27451
0.31373
0.2549
0.098039
-0.078431
-0.098039
0.029412
0.20588
0.43137
0.45098
0.44118
0.35294
0.42157
0.36275
0.43137
0.51961
0.52941
0.51961
0.44118
0.44118
0.22549
0.14706
0.0098039
-0.11765
-0.23529
-0.35294
-0.2549
-0.26471
-0.26471
-0.29412
-0.35294
-0.41176
-0.48039
-0.41176
-0.32353
-0.14706
0.029412
0.11765
0.11765
-0.029412
-0.019608
-0.0098039
0.039216
0.10784
0.068627
0.019608
0.088235
0.11765
0.098039
0.15686
0.20588
0.2451
0.17647
0.13725
0.14706
0.088235
0.15686
0.20588
0.2451
0.12745
0.18627
0.098039
0.068627
0.088235
0.10784
0.078431
0.098039
0.088235
0.10784
0.078431
0.068627
0.16667
0.18627
0.17647
0.19608
0.26471
0.31373
0.32353
0.23529
0.098039
0.058824
0.0098039
0
-0.12745
-0.14706
-0.15686
-0.19608
-0.17647
-0.029412
0.068627
0.078431
0.11765
0.13725
0.23529
0.32353
0.33333
0.26471
0.10784
0.088235
0.18627
0.31373
0.33333
0.30392
0.2451
0.18627
0.15686
0.18627
0.15686
0.15686
0.21569
0.22549
0.12745
0.11765
0.04902
0.058824
0.11765
0.098039
0.04902
-0.029412
0.0098039
0.12745
0.18627
0.20588
0.29412
0.2451
0.088235
-0.04902
-0.22549
-0.23529
-0.11765
0.11765
0.29412
0.38235
0.2549
0.078431
-0.15686
-0.18627
-0.068627
-0.029412
0.088235
0.12745
0.11765
-0.10784
-0.30392
-0.30392
-0.26471
-0.058824
0.15686
0.30392
0.28431
0.13725
-0.078431
-0.19608
-0.2451
-0.068627
0.13725
0.30392
0.35294
0.26471
0.019608
-0.058824
-0.0098039
0.098039
0.098039
0.20588
0.26471
0.38235
0.38235
0.48039
0.45098
0.28431
0.14706
0.088235
0.12745
0.22549
0.2549
0.019608
-0.10784
-0.098039
-0.098039
-0.088235
-0.058824
0.18627
0.46078
0.73529
0.91176
0.84314
0.70588
0.52941
0.52941
0.5
0.43137
0.35294
0.2451
0.14706
0.10784
0.13725
0.12745
0.13725
0.20588
0.098039
0.039216
0.019608
0.13725
0.18627
0.29412
0.32353
0.23529
0.098039
-0.088235
-0.11765
-0.16667
-0.19608
-0.14706
-0.088235
-0.04902
-0.068627
-0.22549
-0.39216
-0.48039
-0.44118
-0.5
-0.5098
-0.41176
-0.32353
-0.27451
-0.30392
-0.41176
-0.47059
-0.60784
-0.58824
-0.4902
-0.31373
-0.11765
0.039216
0.088235
-0.068627
-0.22549
-0.45098
-0.69608
-0.81373
-0.77451
-0.66667
-0.66667
-0.4902
-0.45098
-0.30392
-0.18627
-0.088235
-0.068627
-0.10784
-0.18627
-0.26471
-0.34314
-0.38235
-0.36275
-0.34314
-0.34314
-0.28431
-0.26471
-0.19608
-0.068627
0.088235
0.039216
0.029412
-0.0098039
-0.029412
-0.16667
-0.33333
-0.33333
-0.34314
-0.19608
0.058824
0.26471
0.32353
0.31373
0.20588
0
-0.14706
-0.16667
-0.04902
0.04902
0.17647
0.13725
0.04902
-0.039216
0.029412
0.088235
-0.0098039
-0.039216
-0.19608
-0.2549
-0.31373
-0.32353
-0.30392
-0.21569
-0.068627
-0.088235
-0.14706
-0.23529
-0.2451
-0.2549
-0.30392
-0.2549
-0.18627
-0.17647
-0.11765
-0.058824
-0.0098039
-0.04902
0.039216
-0.04902
-0.04902
-0.13725
-0.098039
-0.17647
-0.22549
-0.19608
-0.22549
-0.18627
-0.21569
-0.12745
-0.17647
-0.18627
-0.20588
-0.13725
-0.12745
-0.10784
-0.019608
0
0.10784
0.23529
0.26471
0.18627
0.11765
0.068627
0.068627
0.068627
0.2451
0.32353
0.36275
0.27451
0.12745
-0.0098039
-0.058824
0
0.088235
0.088235
0.17647
0.2451
0.40196
0.5098
0.60784
0.52941
0.35294
0.2549
0.15686
0.11765
0.18627
0.29412
0.36275
0.37255
0.32353
0.26471
0.26471
0.22549
0.22549
0.0098039
-0.28431
-0.45098
-0.5098
-0.33333
-0.13725
-0.0098039
-0.0098039
0
-0.029412
-0.10784
-0.20588
-0.19608
0.029412
0.11765
0.15686
0.13725
-0.0098039
-0.19608
-0.2549
-0.23529
-0.14706
-0.019608
0.058824
0.078431
0.078431
0.14706
0.16667
0.04902
0
0.058824
0.27451
0.35294
0.36275
0.20588
-0.058824
-0.19608
-0.2549
-0.20588
-0.21569
-0.19608
-0.2549
-0.26471
-0.10784
0.098039
0.34314
0.39216
0.38235
0.2549
0.23529
0.22549
0.37255
0.42157
0.44118
0.5098
0.55882
0.56863
0.4902
0.5098
0.5
0.60784
0.67647
0.62745
0.48039
0.32353
0.18627
0.068627
-0.098039
-0.058824
0
0.029412
0.019608
0.0098039
0
-0.0098039
0.04902
0.10784
0.078431
0.10784
0.088235
0.12745
0.19608
0.2451
0.22549
0.17647
0.16667
0.22549
0.26471
0.23529
0.22549
0.14706
-0.019608
0.0098039
0.058824
0.15686
0.14706
0.14706
0.16667
0.12745
0.22549
0.30392
0.39216
0.56863
0.66667
0.69608
0.59804
0.55882
0.4902
0.47059
0.43137
0.5098
0.43137
0.30392
0.23529
0.19608
0.22549
0.2549
0.27451
0.35294
0.28431
0.37255
0.34314
0.28431
0.28431
0.37255
0.39216
0.44118
0.40196
0.33333
0.19608
0.10784
0.14706
0.11765
0.14706
0.19608
0.14706
0.078431
0
0
-0.019608
0.039216
0.068627
-0.0098039
-0.16667
-0.15686
-0.13725
-0.18627
-0.15686
-0.10784
-0.058824
-0.098039
-0.019608
0.088235
0.16667
0.19608
0.15686
0.19608
0.13725
0.19608
0.16667
0.11765
0.039216
0.039216
0.0098039
-0.039216
0.068627
0.18627
0.27451
0.28431
0.22549
0.12745
0
-0.058824
-0.13725
-0.19608
-0.21569
-0.17647
-0.2451
-0.19608
0
0.16667
0.21569
0.27451
0.2549
0.22549
0.20588
0.30392
0.37255
0.42157
0.34314
0.30392
0.16667
0.11765
0.2451
0.30392
0.2451
0.088235
0.029412
-0.039216
0.078431
0.26471
0.37255
0.5
0.58824
0.61765
0.43137
0.20588
0.10784
0.058824
0.058824
0.029412
0.058824
0.13725
0.18627
0.2549
0.26471
0.15686
0.16667
0.13725
0.11765
0.11765
0.04902
0.068627
-0.029412
0.039216
0.0098039
-0.04902
-0.0098039
0.078431
0.22549
0.17647
0.088235
0.029412
-0.04902
0.029412
0.058824
0.039216
0.068627
0.17647
0.2451
0.30392
0.34314
0.39216
0.36275
0.38235
0.40196
0.36275
0.2549
0.15686
0.21569
0.12745
0.12745
0.088235
0.12745
0.16667
0.088235
0.16667
0.098039
0.14706
0.10784
0.04902
-0.068627
-0.19608
-0.16667
-0.16667
-0.16667
-0.15686
-0.21569
-0.29412
-0.27451
-0.2451
-0.29412
-0.28431
-0.22549
-0.04902
0.10784
0.2451
0.20588
0.068627
-0.068627
-0.12745
-0.029412
0.039216
0.23529
0.35294
0.44118
0.40196
0.37255
0.14706
-0.16667
-0.14706
-0.17647
-0.13725
-0.17647
-0.20588
-0.26471
-0.2549
-0.17647
-0.21569
-0.12745
-0.11765
0.039216
0.039216
0.039216
0.04902
0.029412
-0.088235
-0.2451
-0.20588
-0.26471
-0.068627
0.068627
0.2549
0.33333
0.2451
0.34314
0.29412
0.43137
0.51961
0.5098
0.46078
0.41176
0.47059
0.41176
0.47059
0.46078
0.5
0.41176
0.41176
0.39216
0.34314
0.37255
0.46078
0.42157
0.32353
0.28431
0.26471
0.22549
0.2549
0.2451
0.21569
0.12745
0.078431
-0.029412
-0.17647
-0.22549
-0.098039
0.088235
0.2451
0.44118
0.48039
0.42157
0.39216
0.36275
0.41176
0.39216
0.45098
0.44118
0.41176
0.33333
0.43137
0.44118
0.5
0.5
0.37255
0.21569
0.088235
0.10784
0.10784
0.098039
0.11765
0.058824
0.088235
0.17647
0.26471
0.16667
0.039216
-0.078431
-0.16667
-0.20588
-0.14706
0.019608
0.098039
0.11765
0.10784
0.029412
0.039216
0
0.04902
0.058824
0.14706
0.27451
0.35294
0.23529
0.16667
0.10784
0.04902
0.04902
0.16667
0.27451
0.38235
0.45098
0.42157
0.32353
0.30392
0.20588
0.19608
0.14706
0.29412
0.19608
0.13725
-0.019608
-0.15686
-0.26471
-0.23529
-0.058824
0.078431
0.10784
0.0098039
-0.11765
-0.22549
-0.20588
-0.12745
-0.088235
-0.019608
-0.029412
0.12745
0.088235
0.10784
0.17647
0.17647
0.2451
0.2549
0.22549
0.13725
0.078431
0.10784
0.098039
0.18627
0.27451
0.40196
0.30392
0.22549
0.098039
0
-0.16667
-0.16667
-0.029412
0.13725
0.32353
0.39216
0.36275
0.29412
0.20588
0.27451
0.16667
0.10784
0.14706
0.28431
0.37255
0.43137
0.36275
0.20588
0.068627
0.04902
0.029412
0
0.058824
0.19608
0.43137
0.59804
0.64706
0.53922
0.43137
0.39216
0.37255
0.28431
0.20588
0.29412
0.33333
0.33333
0.30392
0.2451
0.16667
0.19608
0.22549
0.098039
-0.088235
-0.22549
-0.27451
-0.17647
0
0.17647
0.19608
0.17647
0.088235
0.11765
-0.0098039
0.019608
0.04902
0.068627
0.15686
0.29412
0.35294
0.17647
-0.019608
-0.26471
-0.40196
-0.43137
-0.22549
-0.19608
-0.13725
-0.15686
-0.11765
-0.11765
-0.13725
-0.078431
-0.0098039
0.088235
0.27451
0.42157
0.32353
0.33333
0.20588
0.19608
0.13725
0.26471
0.41176
0.5098
0.56863
0.60784
0.53922
0.5
0.4902
0.42157
0.33333
0.34314
0.41176
0.39216
0.21569
0.20588
0.16667
0.15686
0.16667
0.16667
0.11765
0.12745
0.21569
0.21569
0.13725
-0.058824
-0.058824
-0.10784
-0.068627
-0.18627
-0.16667
-0.12745
-0.12745
-0.058824
-0.12745
-0.098039
-0.04902
-0.019608
0.039216
0.0098039
0.0098039
-0.16667
-0.23529
-0.28431
-0.2451
-0.38235
-0.32353
-0.2451
-0.088235
0.0098039
-0.019608
-0.088235
-0.2451
-0.33333
-0.37255
-0.41176
-0.27451
-0.17647
-0.12745
-0.31373
-0.38235
-0.43137
-0.46078
-0.42157
-0.33333
-0.29412
-0.29412
-0.20588
-0.14706
-0.15686
-0.17647
-0.13725
-0.12745
-0.029412
0.078431
0
-0.098039
-0.2451
-0.2549
-0.35294
-0.44118
-0.42157
-0.42157
-0.47059
-0.42157
-0.37255
-0.33333
-0.31373
-0.23529
-0.10784
-0.029412
-0.0098039
0.10784
0.039216
0.15686
0.16667
0.098039
0.10784
0.039216
0.058824
0.0098039
0.019608
0.019608
0.019608
-0.088235
-0.23529
-0.41176
-0.63725
-0.7451
-0.67647
-0.47059
-0.30392
-0.22549
-0.26471
-0.29412
-0.21569
-0.16667
-0.12745
-0.21569
-0.14706
-0.23529
-0.32353
-0.36275
-0.31373
-0.16667
-0.088235
-0.0098039
0.029412
-0.029412
-0.078431
-0.088235
-0.04902
-0.11765
-0.039216
0.0098039
0.098039
0.21569
0.34314
0.36275
0.34314
0.36275
0.31373
0.35294
0.44118
0.4902
0.32353
0.15686
0.029412
0.058824
0.098039
0.11765
0.13725
0.04902
0.078431
0.058824
0.04902
0.058824
0.029412
0
-0.078431
-0.098039
-0.078431
-0.019608
0.078431
0.18627
0.29412
0.28431
0.20588
0.12745
0.13725
0.039216
0.029412
-0.068627
-0.12745
0.039216
0.2549
0.44118
0.39216
0.36275
0.2451
0.058824
0.0098039
0.088235
0.20588
0.29412
0.35294
0.32353
0.34314
0.2549
0.31373
0.34314
0.37255
0.59804
0.63725
0.52941
0.36275
0.2549
0.17647
0.17647
0.27451
0.30392
0.31373
0.22549
0.28431
0.20588
0.22549
0.2549
0.27451
0.31373
0.39216
0.44118
0.44118
0.42157
0.38235
0.36275
0.43137
0.44118
0.53922
0.37255
0.31373
0.21569
0.18627
0.17647
0.11765
0.17647
0.15686
0.26471
0.34314
0.45098
0.5098
0.58824
0.60784
0.46078
0.37255
0.35294
0.33333
0.23529
0.20588
0.20588
0.18627
0.27451
0.39216
0.5098
0.58824
0.60784
0.66667
0.60784
0.58824
0.56863
0.51961
0.44118
0.35294
0.28431
0.26471
0.2451
0.28431
0.20588
0.17647
0.14706
-0.0098039
-0.15686
-0.2549
-0.23529
-0.17647
-0.10784
0.0098039
0.088235
-0.16667
-0.31373
-0.37255
-0.32353
-0.20588
-0.04902
0.088235
0.078431
0.039216
-0.11765
-0.21569
-0.23529
-0.14706
-0.098039
-0.088235
-0.039216
0.039216
0.019608
0.10784
0.18627
0.26471
0.17647
0.068627
0.04902
0.14706
0.2451
0.2451
0.26471
0.12745
0.078431
0.13725
0.20588
0.31373
0.30392
0.23529
0.10784
0.14706
0.16667
0.15686
0.13725
0.10784
0.078431
0
0.039216
-0.0098039
-0.029412
-0.088235
-0.058824
-0.068627
-0.058824
0.11765
0.14706
0.20588
0.26471
0.26471
0.2451
0.14706
0.11765
0.058824
-0.078431
-0.13725
-0.04902
0.039216
0.26471
0.42157
0.54902
0.5098
0.37255
0.12745
0.019608
-0.029412
0
-0.078431
-0.16667
-0.23529
-0.058824
0.068627
0.14706
0.10784
0.078431
0.058824
0.20588
0.34314
0.32353
0.32353
0.2549
0.29412
0.19608
0.23529
0.28431
0.34314
0.43137
0.43137
0.41176
0.2549
0.21569
0.16667
0.12745
0.039216
-0.019608
-0.078431
-0.058824
0.078431
0.098039
0.15686
0.11765
0.23529
0.31373
0.26471
0.29412
0.2549
0.15686
0.22549
0.18627
0.13725
0.098039
0.12745
0.058824
-0.0098039
-0.11765
-0.17647
-0.19608
-0.20588
-0.17647
-0.14706
-0.098039
0
0.17647
0.20588
0.12745
0.088235
0.078431
0.068627
0.11765
0.11765
0.039216
0.019608
0.068627
0.078431
0.039216
-0.039216
-0.078431
0.019608
0.098039
0.28431
0.38235
0.37255
0.35294
0.33333
0.21569
0.16667
0.16667
0.18627
0.23529
0.35294
0.35294
0.40196
0.38235
0.41176
0.41176
0.33333
0.34314
0.31373
0.31373
0.33333
0.38235
0.30392
0.12745
0.0098039
-0.068627
-0.029412
0.039216
0.13725
0.2451
0.21569
0.36275
0.36275
0.39216
0.34314
0.31373
0.30392
0.27451
0.38235
0.45098
0.46078
0.40196
0.36275
0.34314
0.33333
0.30392
0.13725
-0.04902
-0.10784
-0.14706
-0.13725
-0.19608
-0.17647
-0.12745
-0.18627
-0.17647
-0.23529
-0.2451
-0.098039
0.098039
0.20588
0.20588
0.17647
0.20588
0.088235
-0.0098039
-0.068627
-0.19608
-0.32353
-0.38235
-0.40196
-0.29412
-0.14706
0.029412
0.11765
-0.029412
-0.068627
-0.22549
-0.29412
-0.2451
-0.15686
-0.078431
-0.11765
-0.16667
-0.31373
-0.26471
-0.22549
-0.12745
-0.068627
-0.16667
-0.11765
-0.14706
-0.17647
-0.14706
-0.058824
0.039216
0.058824
0.039216
-0.019608
-0.019608
0.019608
0.11765
0.11765
0.078431
0.0098039
-0.078431
-0.16667
-0.23529
-0.30392
-0.34314
-0.41176
-0.22549
-0.12745
-0.0098039
0.039216
0.039216
-0.029412
0
0.058824
0.12745
0.029412
-0.039216
-0.11765
-0.18627
-0.098039
0.068627
0.12745
0.088235
0.12745
0.13725
0.10784
0.16667
0.16667
0.22549
0.098039
-0.058824
-0.29412
-0.39216
-0.35294
-0.15686
0.078431
0.13725
0.22549
0.13725
0.078431
-0.029412
0.058824
0.019608
0.0098039
0.088235
0.04902
0.14706
0.14706
0.12745
0.088235
-0.078431
-0.039216
-0.068627
0
0.0098039
0.11765
0.098039
0.23529
0.28431
0.29412
0.13725
-0.17647
-0.23529
-0.30392
-0.15686
-0.039216
0.0098039
-0.029412
0.078431
0.11765
0.14706
0.28431
0.33333
0.42157
0.32353
0.19608
0.10784
-0.088235
-0.12745
-0.04902
0.14706
0.45098
0.76471
0.88235
0.79412
0.58824
0.42157
0.36275
0.36275
0.5
0.51961
0.44118
0.34314
0.35294
0.44118
0.35294
0.36275
0.17647
0.039216
-0.12745
-0.10784
-0.029412
0.029412
0.11765
0.11765
0.15686
0.2451
0.33333
0.39216
0.35294
0.32353
0.21569
0.14706
0.029412
0.04902
0.098039
0.14706
0.27451
0.22549
0.18627
0.04902
0.019608
-0.098039
-0.088235
-0.11765
-0.11765
-0.15686
-0.15686
-0.11765
-0.16667
-0.20588
-0.19608
-0.11765
-0.10784
-0.0098039
0.14706
0.16667
0.11765
0.098039
0.10784
0.078431
0.039216
-0.0098039
0.04902
0.11765
0.23529
0.17647
0.11765
0.029412
-0.058824
-0.12745
-0.22549
-0.18627
-0.13725
-0.11765
0.019608
-0.0098039
-0.04902
-0.039216
0.029412
0
-0.039216
-0.039216
0.0098039
-0.029412
0
0.019608
-0.019608
-0.029412
0.088235
0.019608
-0.04902
-0.17647
-0.26471
-0.29412
-0.23529
-0.13725
-0.068627
-0.058824
-0.14706
-0.16667
-0.33333
-0.39216
-0.36275
-0.29412
-0.26471
-0.2451
-0.17647
-0.27451
-0.2549
-0.28431
-0.26471
-0.26471
-0.21569
-0.088235
-0.04902
0.0098039
0.098039
0.098039
-0.039216
-0.15686
-0.18627
-0.26471
-0.26471
-0.2549
-0.22549
-0.2451
-0.20588
-0.21569
-0.17647
-0.14706
-0.10784
0.019608
0.078431
0.15686
0
-0.16667
-0.12745
0.078431
0.28431
0.2549
0.21569
0.068627
0.039216
-0.12745
-0.20588
-0.38235
-0.4902
-0.51961
-0.4902
-0.38235
-0.20588
0
0.11765
0.088235
0.04902
-0.068627
-0.088235
-0.11765
-0.019608
0
0.019608
0.078431
-0.039216
-0.058824
-0.13725
-0.088235
-0.23529
-0.27451
-0.31373
-0.35294
-0.39216
-0.33333
-0.14706
-0.12745
-0.078431
-0.058824
0.04902
0.04902
0.16667
0.16667
0.10784
0.12745
0.13725
0.10784
0.098039
0.10784
0.10784
0.078431
0.019608
-0.04902
0.078431
0.19608
0.47059
0.55882
0.46078
0.38235
0.30392
0.35294
0.33333
0.36275
0.28431
0.15686
0.098039
0.13725
0.13725
0.16667
0.32353
0.4902
0.55882
0.53922
0.55882
0.52941
0.54902
0.4902
0.5
0.54902
0.52941
0.69608
0.62745
0.63725
0.53922
0.37255
0.28431
0.31373
0.58824
0.71569
0.82353
0.80392
0.69608
0.5
0.32353
0.26471
0.19608
0.27451
0.34314
0.53922
0.52941
0.53922
0.51961
0.37255
0.33333
0.29412
0.36275
0.40196
0.4902
0.51961
0.5
0.5
0.48039
0.31373
0.21569
0.26471
0.44118
0.36275
0.37255
0.40196
0.44118
0.43137
0.44118
0.48039
0.43137
0.33333
0.17647
0.10784
0.068627
0.12745
0.078431
-0.039216
-0.068627
0.029412
0.15686
0.17647
0.20588
0.068627
0.0098039
-0.04902
0.039216
0.13725
0.2451
0.33333
0.30392
0.11765
0.088235
0
-0.04902
-0.11765
-0.029412
-0.0098039
0.019608
-0.039216
-0.14706
-0.13725
-0.029412
0.068627
0.18627
0.088235
-0.019608
0.029412
-0.098039
-0.14706
-0.04902
-0.039216
-0.039216
-0.078431
-0.088235
-0.10784
-0.088235
-0.068627
-0.058824
-0.019608
-0.0098039
-0.078431
-0.12745
-0.2451
-0.15686
-0.0098039
-0.04902
0.039216
-0.068627
-0.19608
-0.19608
-0.12745
-0.068627
-0.058824
0.0098039
0.088235
0.10784
0.12745
0.15686
0.23529
0.30392
0.42157
0.29412
0.15686
0.19608
0.37255
0.37255
0.29412
0.28431
0.20588
0.14706
0.15686
0.21569
0.22549
0.28431
0.33333
0.38235
0.37255
0.2451
0.30392
0.22549
0.2451
0.20588
0.19608
0.098039
0.068627
0.10784
0.13725
0.2451
0.37255
0.41176
0.40196
0.37255
0.36275
0.32353
0.36275
0.41176
0.46078
0.41176
0.35294
0.30392
0.27451
0.30392
0.34314
0.23529
0.13725
0.068627
-0.029412
0.019608
-0.019608
0.12745
0.13725
0.0098039
-0.039216
-0.068627
-0.019608
0.10784
0.28431
0.40196
0.39216
0.39216
0.26471
0.22549
0.26471
0.46078
0.47059
0.37255
0.20588
0.11765
0.11765
0.15686
0.30392
0.18627
0.14706
0.12745
0.14706
0.19608
0.20588
0.23529
0.2549
0.23529
0.11765
-0.029412
-0.17647
-0.17647
-0.078431
-0.068627
-0.04902
0.0098039
0.11765
-0.0098039
-0.029412
0.019608
0.068627
0.14706
0.058824
-0.04902
-0.13725
-0.068627
0.11765
0.20588
0.32353
0.44118
0.34314
0.27451
0.15686
0.098039
0
-0.14706
-0.20588
-0.21569
-0.27451
-0.29412
-0.31373
-0.39216
-0.37255
-0.30392
-0.26471
-0.35294
-0.43137
-0.53922
-0.58824
-0.59804
-0.4902
-0.47059
-0.43137
-0.42157
-0.43137
-0.44118
-0.45098
-0.2549
-0.19608
-0.058824
0.039216
0
-0.098039
-0.19608
-0.098039
-0.019608
0.14706
0.19608
0.17647
0.15686
0.16667
0.20588
0.2549
0.29412
0.2549
0.2549
0.18627
0.20588
0.32353
0.19608
0.18627
0.29412
0.45098
0.57843
0.5
0.41176
0.32353
0.30392
0.36275
0.35294
0.44118
0.58824
0.64706
0.63725
0.54902
0.59804
0.61765
0.55882
0.4902
0.46078
0.45098
0.38235
0.36275
0.30392
0.19608
0.16667
0.029412
-0.019608
-0.029412
0.13725
0.18627
0.23529
0.18627
0.039216
-0.068627
-0.098039
0.019608
0
0.029412
0.13725
0.23529
0.26471
0.34314
0.36275
0.30392
0.2549
0.22549
0.28431
0.10784
-0.068627
-0.2549
-0.39216
-0.40196
-0.27451
-0.19608
-0.12745
-0.15686
-0.18627
-0.2451
-0.20588
-0.11765
-0.019608
0.0098039
0
-0.029412
-0.19608
-0.28431
-0.36275
-0.42157
-0.40196
-0.2451
-0.11765
0.019608
0.04902
0.04902
0.088235
0
-0.0098039
-0.0098039
-0.12745
-0.15686
-0.14706
-0.15686
-0.19608
-0.20588
-0.2549
-0.30392
-0.44118
-0.39216
-0.38235
-0.33333
-0.21569
-0.20588
-0.21569
-0.18627
-0.15686
-0.15686
-0.22549
-0.19608
-0.20588
-0.13725
-0.029412
0.078431
-0.039216
-0.078431
-0.098039
-0.098039
-0.068627
-0.11765
-0.068627
-0.078431
-0.078431
-0.078431
-0.15686
-0.19608
-0.16667
-0.068627
-0.14706
-0.20588
-0.31373
-0.2549
-0.21569
-0.27451
-0.27451
-0.33333
-0.21569
0
0.20588
0.20588
0.16667
0.098039
0.019608
-0.078431
-0.11765
-0.068627
0
0.10784
0.098039
0.058824
0.088235
0.17647
0.33333
0.2451
0.22549
0.20588
0.21569
0.23529
0.2451
0.13725
-0.088235
-0.23529
-0.41176
-0.52941
-0.5
-0.34314
-0.078431
0.11765
0.27451
0.098039
-0.23529
-0.66667
-0.78431
-0.84314
-0.64706
-0.40196
-0.15686
0.019608
0.13725
0.21569
0.27451
0.21569
0.15686
0.068627
0.019608
-0.04902
-0.0098039
-0.098039
-0.068627
0.058824
0.13725
0.078431
0.039216
0.10784
0.23529
0.36275
0.34314
0.27451
0.18627
0.10784
0.10784
0.088235
0.11765
0.20588
0.27451
0.13725
-0.019608
-0.088235
-0.14706
-0.088235
0.019608
0.098039
0.15686
0.15686
0.31373
0.36275
0.5
0.5098
0.44118
0.38235
0.47059
0.48039
0.37255
0.2451
0.088235
0
-0.078431
0.078431
0.11765
0.13725
0.058824
0.058824
0.10784
0.22549
0.33333
0.36275
0.29412
0.2549
0.28431
0.28431
0.27451
0.33333
0.37255
0.30392
0.16667
0.18627
0.18627
0.33333
0.53922
0.65686
0.68627
0.59804
0.48039
0.16667
0.11765
0.13725
0.27451
0.41176
0.42157
0.32353
0.19608
0.14706
0.20588
0.2549
0.26471
0.43137
0.61765
0.7451
0.77451
0.77451
0.70588
0.59804
0.5
0.46078
0.38235
0.45098
0.5098
0.62745
0.56863
0.55882
0.55882
0.44118
0.46078
0.42157
0.52941
0.56863
0.59804
0.52941
0.36275
0.20588
0.15686
0.058824
0.039216
0.15686
0.22549
0.19608
0.18627
0.19608
0.21569
0.29412
0.41176
0.48039
0.5
0.48039
0.5098
0.39216
0.34314
0.29412
0.29412
0.26471
0.23529
0.29412
0.29412
0.32353
0.45098
0.46078
0.33333
0.16667
0.078431
0
-0.068627
-0.17647
-0.2451
-0.32353
-0.31373
-0.33333
-0.27451
-0.088235
0.088235
0.22549
0.098039
-0.019608
-0.17647
-0.32353
-0.27451
-0.20588
-0.068627
-0.088235
-0.068627
-0.019608
0
0.068627
0.13725
0.27451
0.2549
0.27451
0.18627
0.04902
0.039216
0.13725
0.098039
0.068627
0.039216
0.058824
0.18627
0.2549
0.27451
0.27451
0.19608
0.2549
0.2549
0.22549
0.12745
0.068627
0.029412
-0.029412
0.04902
0.11765
0.12745
0.068627
0.19608
0.23529
0.40196
0.46078
0.48039
0.39216
0.29412
0.37255
0.2549
0.23529
0.14706
0.068627
0.0098039
0.019608
0.11765
0.029412
0.04902
-0.019608
0.0098039
-0.039216
0
0.068627
0.019608
0.088235
0.13725
0.16667
0.13725
0.04902
0.0098039
-0.058824
-0.04902
0.029412
0.098039
0.039216
0.11765
0.16667
0.20588
0.17647
0.088235
-0.058824
-0.18627
-0.22549
-0.20588
-0.13725
-0.13725
-0.078431
-0.078431
-0.11765
0.019608
0.04902
0.23529
0.23529
0.31373
0.2451
0.13725
0.2451
0.22549
0.2549
0.16667
0.039216
-0.039216
-0.078431
-0.078431
-0.039216
-0.088235
-0.15686
-0.12745
-0.17647
-0.078431
-0.0098039
0.058824
0.04902
0.11765
0.19608
0.18627
0.12745
0.078431
0.0098039
-0.078431
-0.04902
-0.088235
-0.15686
-0.21569
-0.18627
-0.14706
-0.039216
0.029412
0.13725
0.18627
0.18627
0.32353
0.38235
0.32353
0.2549
0.16667
0.078431
0.058824
0.039216
0.0098039
-0.10784
-0.16667
-0.27451
-0.2549
-0.16667
0.068627
0.21569
0.13725
0.068627
-0.13725
-0.2549
-0.29412
-0.29412
-0.38235
-0.36275
-0.38235
-0.28431
-0.28431
-0.21569
-0.078431
-0.058824
0.0098039
0.058824
0.029412
0.058824
0.039216
0.21569
0.20588
0.2451
0.32353
0.37255
0.37255
0.29412
0.32353
0.23529
0.18627
0.098039
0.068627
0.068627
-0.029412
-0.078431
-0.2451
-0.26471
-0.27451
-0.29412
-0.46078
-0.56863
-0.56863
-0.59804
-0.60784
-0.54902
-0.5098
-0.5
-0.46078
-0.47059
-0.40196
-0.32353
-0.23529
-0.19608
-0.30392
-0.19608
-0.098039
-0.098039
0.0098039
0.088235
0.098039
0.16667
0.20588
0.18627
0.078431
-0.04902
-0.019608
-0.019608
0.04902
0.16667
0.2451
0.2549
0.21569
0.2549
0.29412
0.33333
0.35294
0.44118
0.4902
0.4902
0.43137
0.14706
-0.04902
-0.039216
0.058824
0.14706
0.13725
0.078431
-0.10784
-0.22549
-0.17647
-0.098039
-0.058824
-0.04902
0.058824
0.068627
0.10784
-0.019608
-0.12745
-0.2549
-0.39216
-0.41176
-0.51961
-0.41176
-0.2549
-0.078431
-0.14706
-0.12745
-0.14706
-0.10784
-0.15686
-0.21569
-0.30392
-0.45098
-0.38235
-0.28431
-0.078431
0.17647
0.36275
0.44118
0.30392
0.28431
0.14706
0.039216
-0.019608
-0.0098039
0.039216
-0.019608
0.029412
-0.058824
-0.14706
-0.12745
-0.12745
-0.13725
-0.18627
-0.10784
0.0098039
0.10784
0.0098039
0
-0.068627
-0.019608
0.18627
0.20588
0.2451
0.098039
0.11765
0.098039
0
-0.029412
-0.039216
-0.039216
0
0
-0.068627
-0.10784
-0.2549
-0.30392
-0.33333
-0.22549
-0.12745
-0.22549
-0.28431
-0.29412
-0.21569
-0.14706
-0.058824
-0.0098039
-0.11765
-0.15686
-0.11765
0.039216
0.14706
0.27451
0.2549
0.21569
0.098039
-0.019608
-0.078431
-0.10784
0.058824
0.14706
0.21569
0.12745
0.039216
0.078431
0.088235
0.19608
0.18627
0.19608
0.16667
0.068627
0.039216
-0.11765
-0.098039
-0.078431
0.068627
0.21569
0.32353
0.26471
0.068627
-0.058824
-0.17647
-0.29412
-0.2549
-0.04902
0.019608
0.10784
0.068627
0.029412
0.0098039
0.068627
0.2549
0.31373
0.33333
0.27451
0.28431
0.31373
0.36275
0.45098
0.37255
0.29412
0.2451
0.17647
0.04902
-0.019608
-0.029412
0.058824
0.2451
0.46078
0.56863
0.41176
0.2451
0.12745
-0.078431
-0.098039
-0.0098039
0.029412
0.078431
0.088235
0.13725
0.23529
0.34314
0.42157
0.37255
0.28431
0.21569
0.19608
0.14706
0.2549
0.36275
0.43137
0.34314
0.34314
0.27451
0.26471
0.21569
0.22549
0.19608
0.18627
0.22549
0.16667
0.058824
-0.078431
-0.0098039
0.21569
0.34314
0.44118
0.37255
0.20588
0.22549
0.23529
0.20588
0.17647
0.15686
0.13725
0.12745
0.11765
0.2549
0.22549
0.15686
0.098039
-0.029412
-0.23529
-0.31373
-0.29412
-0.19608
0.04902
0.14706
0.2451
0.29412
0.42157
0.47059
0.47059
0.4902
0.53922
0.57843
0.5
0.31373
0.18627
0.088235
0.14706
0.19608
0.23529
0.13725
0.039216
-0.098039
-0.20588
-0.12745
0.068627
0.26471
0.28431
0.31373
0.27451
0.39216
0.44118
0.55882
0.57843
0.45098
0.42157
0.30392
0.28431
0.16667
0.2451
0.32353
0.45098
0.56863
0.54902
0.42157
0.31373
0.29412
0.22549
0.2451
0.31373
0.35294
0.35294
0.33333
0.38235
0.30392
0.33333
0.28431
0.21569
0.16667
0.058824
0.019608
-0.068627
-0.098039
-0.068627
-0.12745
-0.16667
-0.2549
-0.18627
-0.22549
-0.14706
-0.098039
0.058824
0.029412
-0.029412
-0.098039
-0.11765
-0.0098039
0.15686
0.23529
0.13725
0.098039
0.12745
0.019608
0.0098039
-0.0098039
0.078431
0.068627
0.088235
-0.0098039
-0.058824
-0.088235
-0.12745
-0.21569
-0.36275
-0.30392
-0.23529
-0.14706
-0.039216
0.019608
0.04902
0
0.019608
0.019608
0.029412
0.068627
0.088235
0.068627
0.088235
0.11765
0.11765
0.0098039
0.098039
0.26471
0.36275
0.34314
0.26471
0.20588
0.068627
-0.058824
0.039216
0
0.11765
0.21569
0.2549
0.27451
0.26471
0.2451
0.14706
0.13725
0.068627
-0.088235
-0.2451
-0.32353
-0.22549
-0.17647
0.0098039
0.2451
0.41176
0.39216
0.27451
0.13725
-0.029412
0.019608
0.088235
0.21569
0.15686
0.12745
0.04902
0.019608
0
0.098039
0.11765
0.068627
0.088235
0.04902
0.058824
0.019608
0.0098039
0.058824
0.15686
0.35294
0.2549
0.11765
-0.058824
-0.10784
-0.078431
-0.039216
0.17647
0.28431
0.27451
0.23529
0.21569
0.19608
0.19608
0.2549
0.29412
0.27451
0.28431
0.36275
0.29412
0.18627
0.04902
-0.019608
0.019608
-0.0098039
0.13725
0.039216
0.0098039
0.068627
0.14706
0.26471
0.34314
0.37255
0.30392
0.2549
0.15686
0.13725
0.098039
0.16667
0.22549
0.13725
0.088235
0.10784
0.23529
0.2549
0.44118
0.47059
0.29412
0.10784
-0.039216
-0.088235
-0.12745
-0.12745
-0.14706
-0.098039
0.039216
0.15686
0.19608
0.23529
0.22549
0.22549
0.2549
0.36275
0.39216
0.37255
0.30392
0.39216
0.37255
0.32353
0.23529
0.2549
0.20588
0.11765
0.0098039
-0.029412
-0.068627
-0.078431
0.019608
-0.04902
-0.058824
-0.12745
-0.11765
-0.039216
0.019608
0.078431
0.04902
0.039216
0.039216
-0.078431
-0.23529
-0.26471
-0.15686
-0.098039
0.04902
0.19608
0.23529
0.22549
0.14706
0.15686
0.11765
0.068627
0.12745
0.20588
0.15686
0.17647
0.15686
0.15686
0.14706
0.28431
0.37255
0.37255
0.31373
0.27451
0.27451
0.36275
0.38235
0.35294
0.30392
0.37255
0.39216
0.35294
0.45098
0.58824
0.71569
0.65686
0.4902
0.2549
0.13725
0.078431
0.19608
0.14706
0.11765
0.098039
-0.098039
-0.19608
-0.22549
-0.098039
0.039216
0.11765
0.18627
0.14706
0.11765
0
-0.039216
-0.17647
-0.28431
-0.36275
-0.35294
-0.37255
-0.35294
-0.37255
-0.40196
-0.40196
-0.35294
-0.33333
-0.38235
-0.47059
-0.51961
-0.64706
-0.59804
-0.33333
-0.098039
0.13725
0.13725
0.20588
0.14706
0.098039
0
-0.019608
-0.04902
0.078431
0.088235
0.12745
0.14706
0.12745
0.17647
0.15686
0.21569
0.10784
0.078431
0.019608
0.10784
0.10784
0.13725
0.17647
0.27451
0.31373
0.27451
0.26471
0.2549
0.13725
0.078431
0.058824
0.13725
0.16667
0.22549
0.14706
0.16667
0.40196
0.47059
0.56863
0.5098
0.54902
0.46078
0.32353
0.27451
0.23529
0.30392
0.41176
0.57843
0.5
0.44118
0.46078
0.4902
0.58824
0.63725
0.79412
0.7451
0.62745
0.62745
0.60784
0.60784
0.54902
0.55882
0.63725
0.81373
1
1
0.84314
0.83333
0.64706
0.60784
0.5
0.58824
0.61765
0.59804
0.70588
0.7549
0.66667
0.67647
0.59804
0.66667
0.51961
0.43137
0.35294
0.23529
0.18627
0.13725
0.088235
-0.019608
-0.019608
-0.17647
-0.2549
-0.33333
-0.15686
-0.019608
0.15686
0.31373
0.38235
0.39216
0.36275
0.38235
0.2451
0.04902
-0.10784
-0.2451
-0.27451
-0.20588
0.039216
0.098039
0.12745
0.13725
0.029412
-0.10784
-0.33333
-0.39216
-0.56863
-0.47059
-0.34314
-0.28431
-0.18627
-0.18627
-0.04902
0.019608
0.10784
0.20588
0.16667
0.078431
0.058824
0.068627
-0.019608
0.04902
0.10784
0.2549
0.19608
0.14706
0.0098039
-0.17647
-0.2549
-0.19608
-0.098039
-0.019608
0.019608
-0.04902
-0.20588
-0.42157
-0.44118
-0.47059
-0.39216
-0.26471
-0.20588
-0.32353
-0.4902
-0.64706
-0.59804
-0.55882
-0.43137
-0.5
-0.5098
-0.5
-0.21569
-0.078431
0.078431
0.15686
0.12745
0.13725
0.10784
0.13725
0.12745
-0.0098039
-0.18627
-0.38235
-0.43137
-0.31373
-0.039216
0.11765
0.22549
0.37255
0.53922
0.67647
0.73529
0.71569
0.5
0.43137
0.27451
0.15686
-0.058824
-0.33333
-0.42157
-0.4902
-0.30392
0
0.16667
0.39216
0.55882
0.71569
0.63725
0.51961
0.44118
0.34314
0.11765
-0.019608
-0.12745
-0.18627
-0.22549
-0.27451
-0.20588
-0.2451
-0.15686
-0.14706
-0.20588
-0.16667
-0.11765
-0.16667
-0.22549
-0.23529
-0.26471
-0.17647
-0.068627
0.11765
0.19608
0.18627
0.2451
0.18627
0.18627
0.04902
0.039216
-0.078431
-0.23529
-0.41176
-0.56863
-0.73529
-0.83333
-0.89216
-1
-0.94118
-0.79412
-0.59804
-0.56863
-0.63725
-0.79412
-0.94118
-1
-0.88235
-0.80392
-0.69608
-0.73529
-0.66667
-0.69608
-0.60784
-0.4902
-0.37255
-0.38235
-0.51961
-0.56863
-0.67647
-0.64706
-0.64706
-0.7451
-0.87255
-0.92157
-0.81373
-0.72549
-0.54902
-0.43137
-0.29412
-0.18627
-0.04902
-0.019608
-0.2451
-0.44118
-0.5
-0.46078
-0.36275
-0.33333
-0.36275
-0.39216
-0.37255
-0.31373
-0.26471
-0.26471
-0.16667
-0.12745
-0.17647
-0.11765
-0.16667
-0.18627
-0.27451
-0.2549
-0.23529
-0.16667
-0.13725
-0.0098039
-0.019608
-0.078431
-0.17647
-0.2451
-0.20588
-0.019608
0.18627
0.26471
0.29412
0.30392
0.21569
0.21569
0.22549
0.38235
0.51961
0.60784
0.61765
0.70588
0.72549
0.69608
0.57843
0.34314
0.26471
0.40196
0.51961
0.59804
0.63725
0.66667
0.54902
0.52941
0.55882
0.56863
0.5
0.5098
0.46078
0.44118
0.22549
0.15686
0.11765
0.14706
0.2549
0.38235
0.41176
0.45098
0.46078
0.45098
0.36275
0.38235
0.28431
0.16667
0.10784
0.098039
0.12745
0.16667
0.20588
0.21569
0.2451
0.30392
0.37255
0.33333
0.30392
0.35294
0.33333
0.31373
0.37255
0.47059
0.58824
0.61765
0.67647
0.59804
0.51961
0.34314
0.35294
0.30392
0.42157
0.55882
0.51961
0.4902
0.45098
0.41176
0.36275
0.31373
0.29412
0.28431
0.29412
0.37255
0.4902
0.41176
0.41176
0.40196
0.48039
0.40196
0.40196
0.47059
0.44118
0.42157
0.31373
0.2549
0.2549
0.32353
0.44118
0.44118
0.43137
0.46078
0.44118
0.5098
0.56863
0.53922
0.5098
0.46078
0.47059
0.41176
0.36275
0.39216
0.34314
0.30392
0.26471
0.36275
0.47059
0.5
0.60784
0.68627
0.78431
0.83333
0.80392
0.53922
0.34314
0.26471
0.28431
0.30392
0.29412
0.34314
0.37255
0.43137
0.48039
0.54902
0.58824
0.47059
0.37255
0.14706
0.13725
0.27451
0.33333
0.2549
0.19608
0.2549
0.31373
0.33333
0.39216
0.44118
0.34314
0.35294
0.27451
0.16667
0.21569
0.33333
0.45098
0.59804
0.71569
0.77451
0.71569
0.58824
0.46078
0.34314
0.2549
0.35294
0.40196
0.33333
0.19608
0.17647
0.12745
0.17647
0.33333
0.39216
0.46078
0.4902
0.5
0.44118
0.21569
0.088235
-0.039216
-0.04902
-0.019608
0.04902
0.14706
0.14706
0.33333
0.39216
0.40196
0.31373
0.2451
0.14706
0.10784
0.21569
0.19608
0.15686
0.17647
0.2549
0.31373
0.35294
0.36275
0.33333
0.27451
0.17647
0.088235
-0.12745
-0.28431
-0.34314
-0.36275
-0.27451
-0.12745
-0.0098039
0.0098039
0.058824
0.20588
0.27451
0.2451
0.098039
0.0098039
-0.13725
-0.21569
-0.2549
-0.20588
-0.15686
-0.058824
0.04902
-0.058824
-0.058824
-0.068627
-0.058824
-0.11765
-0.18627
-0.20588
-0.19608
-0.16667
-0.088235
-0.019608
0
0.029412
0.11765
0.20588
0.28431
0.30392
0.2549
-0.058824
-0.16667
-0.32353
-0.36275
-0.28431
-0.20588
-0.20588
-0.22549
-0.19608
-0.23529
-0.2451
-0.28431
-0.16667
-0.11765
-0.098039
-0.17647
-0.17647
-0.19608
-0.068627
0.058824
0.12745
0.11765
0.20588
0.22549
0.16667
0.16667
0.22549
0.16667
0.17647
0.13725
0.14706
0.058824
0.11765
0.26471
0.29412
0.37255
0.45098
0.4902
0.45098
0.34314
0.36275
0.30392
0.31373
0.31373
0.27451
0.21569
0.23529
0.17647
0.23529
0.19608
0.2451
0.2549
0.13725
0.088235
0
-0.13725
-0.088235
-0.039216
-0.029412
-0.088235
-0.068627
-0.10784
-0.058824
-0.039216
0.078431
0.14706
0.058824
0.068627
-0.0098039
-0.098039
-0.058824
0.068627
0.18627
0.14706
0.22549
0.15686
0.13725
0.11765
0.12745
0.04902
-0.078431
-0.13725
-0.26471
-0.32353
-0.33333
-0.28431
-0.20588
-0.16667
-0.029412
0.019608
-0.019608
-0.029412
0.039216
0.019608
0.088235
