0.50877
0.52281
0.53684
0.48772
0.40351
0.31228
0.31228
0.24912
0.15789
0.12281
0.12281
0.087719
-0.031579
0.0035088
-0.038596
0.066667
0.073684
0.10175
0.080702
0.017544
0.10175
0.2
0.27018
0.26316
0.30526
0.30526
0.32632
0.36842
0.42456
0.50175
0.64211
0.69123
0.69123
0.52281
0.38246
0.3193
0.21404
0.16491
0.15789
0.16491
0.17193
0.2
0.32632
0.3614
0.36842
0.40351
0.35439
0.37544
0.38947
0.45965
0.50175
0.55789
0.70526
0.82456
0.83158
0.87368
0.78246
0.63509
0.57193
0.51579
0.52281
0.48772
0.42456
0.41053
0.34737
0.32632
0.35439
0.3614
0.3193
0.33333
0.27018
0.27018
0.26316
0.25614
0.18596
0.14386
0.27719
0.3193
0.4807
0.55789
0.58596
0.51579
0.3614
0.36842
0.42456
0.4807
0.41053
0.32632
0.17895
0.10175
0.087719
0.15088
0.20702
0.36842
0.4386
0.40351
0.22105
0.080702
-0.059649
0.010526
0.16491
0.29825
0.38246
0.37544
0.38947
0.4807
0.43158
0.43158
0.40351
0.31228
0.28421
0.2
0.22105
0.29825
0.35439
0.38246
0.18596
0.12281
0.087719
0.059649
0.024561
-0.017544
0.087719
0.10877
0.17193
0.22807
0.25614
0.22105
0.22105
0.15088
0.024561
0.0035088
0.14386
0.31228
0.41053
0.45965
0.36842
0.34737
0.29825
0.29123
0.29825
0.29825
0.3614
0.31228
0.25614
0.12281
0.15088
0.13684
0.11579
0.080702
0.0035088
-0.073684
-0.031579
0.038596
0.073684
0.10175
0.14386
0.15088
0.15088
0.059649
0.017544
-0.11579
-0.12281
-0.066667
0.017544
0.031579
-0.017544
-0.17193
-0.33333
-0.29123
-0.12281
0.15789
0.25614
0.34035
0.36842
0.38947
0.36842
0.24211
0.031579
-0.17895
-0.20702
-0.17895
-0.15088
-0.15789
-0.087719
0.010526
0.080702
0.20702
0.27018
0.23509
0.20702
0.21404
0.28421
0.25614
0.23509
0.16491
0.087719
0.017544
0.087719
0.059649
0.10877
0.16491
0.25614
0.34737
0.3193
0.40351
0.36842
0.34737
0.32632
0.27018
0.22807
0.18596
0.22105
0.17193
0.21404
0.28421
0.41053
0.49474
0.52281
0.48772
0.48772
0.46667
0.42456
0.43158
0.44561
0.52982
0.66316
0.62105
0.58596
0.56491
0.52982
0.45263
0.45263
0.54386
0.6
0.68421
0.64211
0.57193
0.43158
0.3614
0.33333
0.34035
0.41053
0.39649
0.37544
0.24211
0.25614
0.24211
0.21404
0.15088
0.18596
0.2
0.17193
0.13684
0.11579
0.12982
0.12982
0.15789
0.14386
0.031579
0.031579
-0.031579
-0.010526
0.0035088
0.038596
0.11579
0.12982
0.15789
0.15789
0.21404
0.17193
0.087719
0.017544
-0.038596
0.059649
0.16491
0.15088
0.2
0.22807
0.12281
0.052632
0.045614
0.17895
0.26316
0.37544
0.34737
0.24912
0.12281
0.066667
0.059649
0.087719
0.14386
0.27018
0.37544
0.45263
0.41754
0.26316
0.19298
0.17895
0.24211
0.16491
0.017544
-0.073684
-0.12982
0.010526
0.2
0.3614
0.44561
0.36842
0.28421
0.27719
0.29825
0.45263
0.4386
0.40351
0.35439
0.37544
0.38246
0.29123
0.25614
0.17193
0.2
0.24211
0.32632
0.33333
0.32632
0.32632
0.27719
0.22105
0.19298
0.29825
0.29825
0.3614
0.46667
0.48772
0.43158
0.28421
0.10175
0.0035088
0.024561
0.14386
0.21404
0.20702
0.13684
0.16491
0.18596
0.26316
0.35439
0.31228
0.22807
0.045614
-0.045614
-0.17193
-0.10175
0.010526
0.16491
0.2
0.2
0.17193
0.12982
0.16491
0.16491
0.18596
0.087719
0.15789
0.17895
0.17895
0.21404
0.23509
0.3193
0.41053
0.53684
0.55789
0.48772
0.35439
0.28421
0.24912
0.16491
0.12982
0.12281
0.12281
0.12281
0.10175
0.11579
0.045614
0.18596
0.29123
0.34035
0.29825
0.23509
0.13684
0.052632
-0.0035088
-0.066667
-0.094737
-0.15789
-0.031579
0.073684
0.20702
0.34035
0.37544
0.36842
0.32632
0.41754
0.38947
0.39649
0.35439
0.33333
0.3193
0.3193
0.24211
0.017544
-0.080702
0.0035088
0.2
0.47368
0.60702
0.68421
0.50877
0.32632
0.23509
0.14386
0.14386
0.12281
0.094737
0.024561
-0.052632
-0.10175
0.0035088
0.15789
0.41754
0.50877
0.4807
0.41053
0.41053
0.40351
0.34035
0.24912
0.12982
0.031579
0.010526
0.094737
0.26316
0.41754
0.54386
0.52982
0.39649
0.16491
0.14386
0.038596
0.12982
0.24211
0.27018
0.25614
0.25614
0.33333
0.35439
0.40351
0.34737
0.34737
0.23509
0.094737
0.073684
0.059649
0.18596
0.3614
0.4386
0.38246
0.17895
0.094737
0.045614
0.17193
0.40351
0.60702
0.63509
0.58596
0.47368
0.47368
0.55789
0.68421
0.69123
0.46667
0.35439
0.35439
0.38947
0.41053
0.39649
0.37544
0.3614
0.41053
0.39649
0.30526
0.23509
0.10175
0.010526
-0.052632
0.024561
0.073684
0.13684
0.16491
0.28421
0.3614
0.40351
0.53684
0.52982
0.4807
0.32632
0.2
0.066667
0.038596
0.10877
0.24912
0.3614
0.48772
0.59298
0.57193
0.56491
0.55789
0.55088
0.57193
0.55088
0.60702
0.55789
0.54386
0.54386
0.56491
0.56491
0.57895
0.57193
0.52281
0.48772
0.39649
0.36842
0.27018
0.27018
0.22807
0.18596
0.15789
0.16491
0.12281
0.066667
0.15789
0.29123
0.44561
0.49474
0.44561
0.24912
0.031579
-0.031579
0.010526
0.11579
0.16491
0.25614
0.3614
0.48772
0.59298
0.55789
0.49474
0.41754
0.48772
0.59298
0.65614
0.72632
0.6
0.51579
0.38947
0.29825
0.17895
0.080702
0.15789
0.12281
0.24211
0.25614
0.36842
0.27719
0.26316
0.3193
0.38947
0.4386
0.3193
0.18596
-0.038596
-0.10175
-0.087719
0.017544
0.12982
0.27018
0.45263
0.37544
0.25614
0.12982
0.087719
0.16491
0.28421
0.50877
0.52281
0.54386
0.39649
0.30526
0.094737
0.12281
0.14386
0.16491
0.22105
0.33333
0.42456
0.4807
0.45965
0.37544
0.34737
0.29123
0.36842
0.45965
0.50175
0.57193
0.41053
0.22807
0.12982
0.12281
0.14386
0.21404
0.23509
0.22105
0.16491
0.087719
0.16491
0.2
0.28421
0.44561
0.57895
0.66316
0.58596
0.41754
0.15088
0.066667
0.017544
0.15088
0.11579
0.22807
0.3193
0.42456
0.45263
0.4386
0.34035
0.29123
0.22105
0.32632
0.30526
0.27018
0.17895
0.080702
0.080702
0.11579
0.13684
0.080702
0.10877
0.2
0.27719
0.3193
0.34035
0.34737
0.29123
0.27018
0.26316
0.31228
0.29123
0.35439
0.38947
0.3193
0.25614
0.22807
0.23509
0.23509
0.24912
0.12281
0.066667
0.0035088
0.045614
0.15789
0.15789
0.22105
0.27719
0.28421
0.29123
0.24912
0.21404
0.20702
0.28421
0.29123
0.24211
0.17895
0.16491
0.038596
-0.045614
-0.066667
-0.017544
-0.017544
-0.094737
-0.073684
-0.073684
0.024561
0.12281
0.10175
0.017544
-0.031579
-0.024561
-0.024561
-0.010526
-0.045614
-0.080702
-0.052632
0.010526
0.10877
0.10175
0.066667
0.010526
-0.080702
-0.10877
-0.17193
-0.10175
-0.2
-0.26316
-0.27719
-0.23509
-0.080702
0.073684
0.23509
0.24211
0.27719
0.31228
0.23509
0.13684
0.080702
0.080702
-0.010526
-0.10877
-0.12281
-0.094737
-0.059649
0.080702
0.10877
0.12982
0.15789
0.15789
0.14386
0.024561
0.0035088
-0.024561
0.024561
0.087719
0.080702
0.16491
0.22807
0.33333
0.27018
0.18596
0.10175
0.10877
0.010526
-0.11579
-0.10175
-0.066667
0.031579
0.11579
0.2
0.27018
0.45965
0.62807
0.62105
0.53684
0.3614
0.2
-0.073684
-0.3193
-0.50877
-0.51579
-0.46667
-0.31228
-0.15789
-0.010526
0.16491
0.29123
0.3614
0.28421
0.22807
0.073684
-0.14386
-0.34737
-0.49474
-0.55789
-0.52281
-0.37544
-0.16491
0.0035088
0.17193
0.33333
0.42456
0.55088
0.64211
0.58596
0.34035
0.031579
-0.24912
-0.39649
-0.51579
-0.41754
-0.38947
-0.35439
-0.27018
-0.20702
-0.10175
-0.0035088
0.15088
0.17895
0.16491
0.066667
0.045614
0.024561
0.15088
0.22105
0.22105
0.13684
0.038596
0.052632
0.073684
0.22807
0.32632
0.30526
0.23509
0.10175
0.024561
-0.11579
-0.22105
-0.20702
-0.13684
-0.017544
0.12281
0.25614
0.28421
0.27018
0.18596
0.073684
-0.14386
-0.2
-0.20702
-0.13684
-0.080702
-0.094737
-0.10175
-0.18596
-0.2
-0.22105
-0.19298
-0.17193
-0.038596
0.059649
0.12281
0.15088
0.14386
0.10175
0.094737
0.087719
0.16491
0.13684
0.18596
0.066667
-0.045614
-0.12982
-0.087719
-0.052632
-0.010526
0.066667
0.12281
0.11579
0.066667
-0.052632
-0.15088
-0.17193
-0.059649
0.024561
0.10877
0.14386
0.15088
0.080702
0.094737
0.15088
0.21404
0.21404
0.15088
0.16491
0.094737
0.045614
0.11579
0.13684
0.17193
0.17193
0.17895
0.12982
0.094737
0.12982
0.17193
0.073684
0.080702
0.080702
0.087719
0.17895
0.25614
0.28421
0.21404
0.10175
0.038596
-0.052632
-0.059649
0.038596
0.087719
0.17895
0.19298
0.2
0.15789
0.20702
0.27719
0.35439
0.38246
0.44561
0.43158
0.43158
0.32632
0.40351
0.45965
0.44561
0.50175
0.41754
0.34737
0.15789
-0.010526
-0.10877
0.0035088
0.17895
0.31228
0.25614
0.18596
0.19298
0.14386
0.16491
0.15088
0.17193
0.12982
0.094737
0.13684
0.038596
0.024561
-0.031579
-0.10175
-0.10877
-0.14386
-0.087719
-0.12281
-0.15789
-0.10877
-0.11579
-0.087719
0.031579
0.15789
0.19298
0.15789
0.094737
0.073684
0.024561
0.059649
0.045614
0.10877
0.10877
0.2
0.3193
0.34737
0.38947
0.33333
0.35439
0.4386
0.52982
0.60702
0.54386
0.55789
0.45965
0.39649
0.36842
0.36842
0.37544
0.35439
0.36842
0.32632
0.31228
0.25614
0.25614
0.28421
0.36842
0.47368
0.55088
0.51579
0.47368
0.47368
0.37544
0.3614
0.38947
0.3614
0.29825
0.22807
0.27018
0.38947
0.43158
0.44561
0.38947
0.34737
0.29123
0.29825
0.15789
0.073684
0.066667
0.12281
0.20702
0.28421
0.30526
0.23509
0.10175
0.10175
0.14386
0.11579
0.045614
-0.052632
-0.19298
-0.16491
-0.080702
0.0035088
0.11579
0.22807
0.27719
0.27018
0.15088
0.10877
0.031579
0.024561
0.15789
0.11579
0.13684
0.073684
0.052632
0.11579
0.12982
0.22807
0.20702
0.087719
-0.0035088
-0.045614
0.052632
0.13684
0.28421
0.27719
0.2
0.10877
0.052632
0.010526
0.073684
0.10877
0.18596
0.16491
0.23509
0.29825
0.34035
0.42456
0.46667
0.46667
0.43158
0.24912
0.25614
0.22105
0.27719
0.28421
0.31228
0.30526
0.37544
0.45965
0.49474
0.53684
0.60702
0.57895
0.4386
0.28421
0.21404
0.17193
0.27719
0.36842
0.40351
0.3614
0.24912
0.21404
0.17895
0.21404
0.36842
0.4386
0.45263
0.41754
0.2
-0.031579
-0.18596
-0.23509
-0.16491
-0.045614
0.15088
0.24211
0.3193
0.29825
0.3193
0.36842
0.42456
0.46667
0.38246
0.29825
0.26316
0.32632
0.33333
0.38947
0.50175
0.54386
0.50175
0.35439
0.25614
0.10175
0.087719
0.23509
0.31228
0.28421
0.045614
-0.0035088
-0.052632
0.059649
0.14386
0.15789
0.073684
0.024561
-0.0035088
-0.0035088
0.087719
0.17193
0.24211
0.22807
0.18596
0.11579
0.038596
0.024561
0.10877
0.24211
0.37544
0.4807
0.60702
0.58596
0.52982
0.4807
0.43158
0.37544
0.47368
0.55789
0.65614
0.74737
0.81053
0.88772
0.88772
0.83158
0.69825
0.48772
0.33333
0.20702
0.15088
0.24912
0.41754
0.59298
0.70526
0.75439
0.81053
0.69123
0.6
0.48772
0.48772
0.52982
0.64912
0.74737
0.67719
0.58596
0.51579
0.3614
0.25614
0.15088
0.15789
0.18596
0.25614
0.36842
0.50877
0.56491
0.63509
0.55088
0.4386
0.31228
0.30526
0.3614
0.32632
0.32632
0.30526
0.23509
0.22807
0.24211
0.29123
0.35439
0.40351
0.39649
0.29825
0.22807
0.18596
0.15088
0.17895
0.25614
0.28421
0.34737
0.34737
0.45263
0.4807
0.4807
0.3193
0.24912
0.21404
0.2
0.27719
0.20702
0.11579
0.10175
0.038596
0.038596
0.13684
0.3193
0.45965
0.55088
0.57895
0.46667
0.27719
0.15088
0.052632
-0.031579
0.017544
0.045614
0.21404
0.34737
0.42456
0.51579
0.41754
0.25614
0.10175
0.073684
0.13684
0.29825
0.37544
0.31228
0.24912
0.27719
0.30526
0.31228
0.45263
0.55789
0.70526
0.78246
0.82456
0.77544
0.6
0.48772
0.38947
0.29123
0.26316
0.17895
0.059649
-0.073684
-0.080702
-0.066667
0.038596
0.15088
0.26316
0.31228
0.24211
0.3193
0.3614
0.40351
0.41053
0.29825
0.19298
0.066667
-0.0035088
-0.073684
-0.10175
-0.18596
-0.17193
-0.20702
-0.21404
-0.052632
0.10877
0.29825
0.33333
0.36842
0.24912
0.16491
0.031579
-0.12281
-0.30526
-0.50175
-0.67018
-0.84561
-0.88772
-0.75439
-0.4386
-0.13684
0.18596
0.41754
0.54386
0.64912
0.77544
0.81053
0.76842
0.64211
0.46667
0.22105
0.017544
-0.17895
-0.18596
-0.18596
0.0035088
0.23509
0.37544
0.39649
0.33333
0.26316
0.15088
0.059649
-0.0035088
-0.031579
-0.080702
-0.16491
-0.38947
-0.61404
-0.7193
-0.69123
-0.56491
-0.28421
0.059649
0.30526
0.3193
0.27018
0.2
0.22105
0.32632
0.29825
0.3193
0.30526
0.33333
0.33333
0.21404
-0.017544
-0.12982
-0.26316
-0.27719
-0.20702
-0.066667
0.10877
0.29123
0.53684
0.62105
0.67719
0.69123
0.65614
0.55088
0.43158
0.25614
0.12281
-0.038596
-0.052632
-0.0035088
0.059649
0.12982
0.27018
0.34035
0.49474
0.6
0.7614
0.74035
0.73333
0.64211
0.58596
0.66316
0.65614
0.65614
0.52982
0.46667
0.39649
0.38947
0.52982
0.73333
0.89474
0.95789
1
0.88772
0.81053
0.7614
0.78246
0.71228
0.55088
0.46667
0.40351
0.33333
0.39649
0.4807
0.64211
0.66316
0.67018
0.65614
0.59298
0.57193
0.53684
0.6
0.64912
0.69825
0.62807
0.45965
0.33333
0.28421
0.27018
0.32632
0.38246
0.41053
0.34737
0.37544
0.43158
0.41053
0.41754
0.46667
0.4386
0.45965
0.3193
0.38947
0.39649
0.50175
0.52281
0.53684
0.4807
0.42456
0.36842
0.22807
0.16491
0.17193
0.18596
0.15789
0.13684
0.10175
0.12281
0.18596
0.36842
0.55789
0.69123
0.73333
0.58596
0.38246
0.23509
0.15088
0.094737
0.0035088
0.038596
0.073684
0.17895
0.21404
0.33333
0.33333
0.3614
0.42456
0.34035
0.13684
-0.12982
-0.15789
-0.17193
-0.17895
-0.14386
-0.087719
0.073684
0.23509
0.49474
0.56491
0.63509
0.60702
0.57895
0.41754
0.33333
0.24211
0.17895
0.14386
0.16491
0.19298
0.19298
0.22807
0.32632
0.45263
0.57895
0.62807
0.48772
0.28421
0.21404
0.22807
0.17193
0.17193
0.23509
0.33333
0.51579
0.66316
0.70526
0.61404
0.38246
0.16491
-0.017544
-0.22807
-0.3193
-0.3614
-0.26316
-0.10175
0.16491
0.34737
0.3614
0.32632
0.13684
0.052632
0.024561
0.087719
0.22807
0.27719
0.43158
0.45263
0.47368
0.41754
0.40351
0.34737
0.28421
0.29825
0.22807
0.23509
0.24912
0.29825
0.23509
0.15088
0.052632
-0.010526
-0.094737
-0.17193
-0.12982
-0.080702
0.14386
0.40351
0.61404
0.62807
0.53684
0.30526
0.066667
-0.17895
-0.29123
-0.3614
-0.30526
-0.20702
0.038596
0.21404
0.4386
0.60702
0.59298
0.46667
0.34737
0.25614
0.13684
0.045614
-0.031579
-0.031579
-0.13684
-0.22807
-0.27719
-0.23509
-0.017544
0.22807
0.30526
0.31228
0.32632
0.36842
0.42456
0.4807
0.55789
0.56491
0.45965
0.3193
0.19298
0.087719
0.038596
0.080702
0.17193
0.22807
0.32632
0.34737
0.38246
0.45263
0.57895
0.66316
0.71228
0.80351
0.71228
0.62807
0.49474
0.38947
0.2
0.010526
0.017544
0.010526
0.12982
0.22105
0.30526
0.34035
0.41754
0.52281
0.62105
0.65614
0.62105
0.55789
0.40351
0.27018
0.19298
0.18596
0.11579
0.10175
0.14386
0.20702
0.27719
0.38246
0.47368
0.48772
0.45263
0.34737
0.18596
0.14386
0.18596
0.24211
0.20702
0.17895
0.15088
0.052632
0.12982
0.15789
0.19298
0.14386
0.15088
0.17895
0.13684
0.2
0.24211
0.22105
0.10877
0.14386
0.15088
0.2
0.27018
0.32632
0.41053
0.42456
0.4807
0.50877
0.54386
0.59298
0.61404
0.56491
0.52281
0.57193
0.60702
0.6
0.57895
0.51579
0.38246
0.32632
0.19298
0.12281
0.038596
0.038596
0.080702
0.087719
0.10175
0.12982
0.15088
0.17895
0.12982
0.080702
-0.038596
-0.031579
0.059649
0.17895
0.30526
0.31228
0.29123
0.24912
0.25614
0.35439
0.47368
0.51579
0.62105
0.54386
0.38246
0.14386
0.017544
0.066667
0.17895
0.34737
0.45263
0.41754
0.27719
0.12281
-0.031579
-0.031579
0.19298
0.34035
0.50175
0.55088
0.43158
0.3614
0.22105
0.24211
0.20702
0.15789
0.17895
0.33333
0.4386
0.50175
0.50175
0.42456
0.32632
0.31228
0.38246
0.41754
0.35439
0.29123
0.17193
0.11579
0.066667
0.16491
0.2
0.24912
0.34737
0.45965
0.57193
0.66316
0.64211
0.44561
0.28421
0.23509
0.20702
0.27719
0.27719
0.33333
0.27719
0.24211
0.22807
0.24211
0.34035
0.45965
0.64211
0.74737
0.90877
0.90877
0.80351
0.50175
0.15789
-0.052632
-0.15088
-0.087719
0.017544
0.14386
0.27018
0.42456
0.52281
0.50877
0.4807
0.36842
0.18596
0.024561
0.045614
0.13684
0.25614
0.29123
0.16491
-0.031579
-0.20702
-0.29825
-0.27719
-0.27719
-0.22105
-0.11579
-0.052632
0.094737
0.19298
0.3193
0.34737
0.41053
0.51579
0.47368
0.41754
0.38246
0.26316
0.16491
-0.024561
-0.087719
-0.14386
-0.12281
0.031579
0.2
0.34737
0.46667
0.50877
0.50175
0.45263
0.3614
0.2
-0.0035088
-0.094737
-0.13684
-0.18596
-0.29123
-0.33333
-0.27719
-0.15088
0.11579
0.31228
0.33333
0.24211
0.15789
0.15088
0.059649
-0.0035088
-0.15088
-0.3193
-0.41754
-0.40351
-0.34035
-0.24912
-0.2
-0.21404
-0.23509
-0.21404
-0.12982
-0.073684
-0.0035088
0.073684
0.073684
0.10877
0.2
0.37544
0.32632
0.27719
0.16491
-0.045614
-0.25614
-0.44561
-0.45965
-0.3614
-0.24912
-0.18596
-0.10175
-0.045614
0.045614
0.13684
0.080702
0.059649
0.052632
0.10877
0.031579
-0.087719
-0.17193
-0.25614
-0.22807
-0.13684
-0.073684
-0.045614
0.045614
0.16491
0.19298
0.10175
-0.024561
-0.13684
-0.15088
-0.059649
0.038596
0.087719
0.11579
0.24912
0.27719
0.18596
0.17193
0.094737
0.052632
0.010526
0.031579
0.059649
0.087719
0.13684
0.12281
0.031579
0.010526
-0.010526
0.031579
0.059649
0.2
0.29123
0.38246
0.41053
0.47368
0.36842
0.34737
0.25614
0.25614
0.073684
-0.052632
-0.10877
-0.073684
0.045614
0.21404
0.29825
0.37544
0.41053
0.48772
0.45965
0.46667
0.47368
0.46667
0.33333
0.20702
0.10175
0.038596
0.073684
0.16491
0.24211
0.17895
0.2
0.17895
0.15088
0.12281
0.14386
0.12982
0.10877
0.13684
0.13684
0.12982
0.11579
0.16491
0.22807
0.14386
0.14386
0.052632
0.045614
0.031579
0.059649
0.094737
0.066667
0.094737
0.16491
0.21404
0.27719
0.3193
0.27018
0.22105
0.19298
0.17193
0.17193
0.073684
0.0035088
-0.10175
-0.14386
-0.087719
0.024561
0.087719
0.059649
0.017544
-0.080702
-0.12982
-0.080702
-0.038596
-0.0035088
0.010526
0.066667
0.0035088
-0.024561
-0.045614
-0.017544
-0.045614
-0.10175
0.024561
0.087719
0.15789
0.12281
-0.038596
-0.21404
-0.24912
-0.22105
-0.12982
-0.12281
-0.038596
-0.010526
-0.010526
-0.0035088
-0.080702
-0.19298
-0.25614
-0.30526
-0.31228
-0.28421
-0.13684
-0.080702
-0.045614
-0.059649
-0.066667
-0.059649
-0.15088
-0.2
-0.26316
-0.29825
-0.22105
-0.066667
0.031579
0.094737
0.17193
0.19298
0.20702
0.13684
0.17193
0.16491
0.24211
0.28421
0.25614
0.23509
0.24912
0.27719
0.32632
0.27719
0.25614
0.23509
0.24912
0.21404
0.26316
0.12281
0.10175
0.15789
0.26316
0.34737
0.28421
0.2
0.059649
0.045614
0.17193
0.28421
0.36842
0.41053
0.38246
0.23509
0.12281
-0.073684
-0.010526
-0.017544
0.11579
0.14386
0.10175
0.017544
-0.017544
-0.024561
0.059649
0.2
0.33333
0.45263
0.46667
0.48772
0.34737
0.22807
0.15789
0.12982
0.19298
0.3193
0.46667
0.61404
0.68421
0.69123
0.71228
0.64211
0.55789
0.47368
0.36842
0.36842
0.41053
0.33333
0.24211
0.18596
0.17895
0.27719
0.41053
0.49474
0.50175
0.41754
0.38246
0.37544
0.37544
0.33333
0.21404
0.073684
-0.017544
-0.010526
0.087719
0.17895
0.18596
0.22807
0.17193
0.094737
0.094737
0.094737
0.073684
0.080702
0.10877
0.12982
0.17193
0.22807
0.35439
0.50175
0.56491
0.60702
0.57193
0.41754
0.27018
0.22807
0.24912
0.33333
0.42456
0.43158
0.38947
0.41754
0.45263
0.53684
0.57895
0.61404
0.57895
0.58596
0.59298
0.53684
0.41754
0.32632
0.34035
0.40351
0.50175
0.6
0.56491
0.52281
0.44561
0.44561
0.34737
0.41754
0.55088
0.65614
0.7193
0.70526
0.73333
0.66316
0.68421
0.62105
0.50877
0.39649
0.22807
0.11579
-0.038596
-0.0035088
0.11579
0.17895
0.21404
0.18596
0.20702
0.12281
0.045614
0.031579
0.11579
0.22807
0.29123
0.35439
0.3193
0.3193
0.38947
0.45263
0.48772
0.54386
0.6
0.52982
0.55088
0.46667
0.45263
0.38246
0.3614
0.34737
0.34737
0.29825
0.34737
0.30526
0.33333
0.36842
0.44561
0.48772
0.52982
0.60702
0.66316
0.62105
0.59298
0.46667
0.36842
0.40351
0.57193
0.64211
0.61404
0.51579
0.33333
0.27018
0.24912
0.41754
0.55088
0.65614
0.67018
0.58596
0.50877
0.43158
0.34035
0.34035
0.32632
0.38246
0.43158
0.4807
0.56491
0.64912
0.53684
0.33333
0.2
0.073684
0.010526
0.031579
0.10877
0.17193
0.25614
0.24211
0.40351
0.42456
0.58596
0.60702
0.50175
0.32632
0.17895
0.12982
0.031579
0.045614
0.010526
0.052632
0.12281
0.23509
0.31228
0.26316
0.33333
0.24211
0.15789
0.038596
-0.017544
-0.045614
-0.038596
0.059649
0.11579
0.15088
0.27719
0.40351
0.54386
0.61404
0.60702
0.43158
0.22807
0.031579
0.038596
-0.0035088
-0.017544
-0.024561
0.031579
0.2
0.42456
0.55088
0.50877
0.45263
0.44561
0.49474
0.41754
0.41754
0.36842
0.34737
0.3193
0.29123
0.32632
0.34737
0.41053
0.47368
0.47368
0.45263
0.46667
0.46667
0.38947
0.29123
0.23509
0.094737
0.017544
-0.094737
-0.13684
-0.18596
-0.038596
0.11579
0.27719
0.43158
0.48772
0.56491
0.57193
0.63509
0.55789
0.50175
0.39649
0.23509
0.073684
-0.073684
-0.045614
0.15088
0.33333
0.47368
0.45263
0.36842
0.28421
0.3193
0.3614
0.39649
0.38947
0.30526
-0.045614
-0.29123
-0.42456
-0.45263
-0.35439
-0.16491
0.031579
0.12281
0.21404
0.30526
0.36842
0.4386
0.45263
0.42456
0.24912
0.16491
0.14386
0.13684
0.066667
-0.12982
-0.15088
-0.15789
0.0035088
0.22807
0.37544
0.39649
0.42456
0.38947
0.34035
0.27018
0.21404
0.12281
0.087719
0.17193
0.22807
0.36842
0.41053
0.57895
0.71228
0.78246
0.8386
0.62105
0.45965
0.30526
0.17895
0.017544
0.010526
0.080702
0.22105
0.35439
0.34737
0.36842
0.31228
0.3614
0.4386
0.45263
0.37544
0.18596
0.16491
0.10877
0.10877
0.2
0.2
0.21404
0.18596
0.14386
0.12281
0.059649
0.12982
0.12982
0.052632
-0.017544
-0.010526
-0.031579
-0.13684
-0.059649
-0.080702
-0.059649
0.010526
0.031579
0.094737
0.024561
-0.066667
-0.18596
-0.14386
-0.15088
-0.16491
-0.22807
-0.24211
-0.031579
0.080702
0.21404
0.16491
0.094737
-0.038596
-0.094737
-0.038596
-0.010526
0.031579
0.080702
0.094737
0.066667
0.038596
0.052632
-0.010526
-0.024561
0.045614
0.11579
0.12281
0.15088
0.12281
0.094737
-0.038596
-0.10877
-0.19298
-0.3193
-0.41053
-0.3614
-0.27018
-0.12982
-0.052632
-0.045614
-0.0035088
-0.0035088
0.031579
-0.024561
-0.010526
0.066667
0.10877
0.094737
0.031579
0.066667
0.017544
-0.031579
-0.094737
-0.15088
-0.15789
-0.017544
0.024561
0.12982
0.10175
0.12982
0.087719
0.080702
0.10877
0.18596
0.17193
0.15789
0.15789
0.094737
-0.045614
-0.16491
-0.30526
-0.41053
-0.41053
-0.29123
-0.15088
-0.059649
-0.031579
-0.010526
-0.087719
-0.017544
0.038596
0.080702
-0.010526
-0.10877
-0.2
-0.17193
-0.17193
-0.13684
-0.11579
-0.094737
-0.038596
-0.059649
-0.10877
-0.11579
-0.052632
-0.045614
0.038596
0.073684
0.13684
0.2
0.27719
0.39649
0.39649
0.42456
0.39649
0.29123
0.2
0.13684
0.22105
0.22105
0.24912
0.33333
0.44561
0.54386
0.56491
0.54386
0.41053
0.26316
0.21404
0.22105
0.31228
0.32632
0.36842
0.29825
0.24211
0.23509
0.22807
0.25614
0.25614
0.24912
0.24211
0.27018
0.36842
0.4386
0.40351
0.49474
0.46667
0.45965
0.43158
0.47368
0.44561
0.44561
0.45263
0.50175
0.49474
0.41053
0.50175
0.46667
0.53684
0.62105
0.55789
0.47368
0.33333
0.38947
0.40351
0.57895
0.74035
0.83158
0.89474
0.84561
0.73333
0.60702
0.55088
0.52281
0.50877
0.48772
0.43158
0.44561
0.28421
0.22807
0.19298
0.30526
0.37544
0.41754
0.51579
0.56491
0.67719
0.63509
0.53684
0.32632
0.18596
0.18596
0.17895
0.16491
0.24912
0.22807
0.16491
0.15088
0.080702
0.087719
0.11579
0.13684
0.080702
0.0035088
0.045614
0.10175
0.18596
0.26316
0.34035
0.35439
0.37544
0.3193
0.34035
0.38246
0.41754
0.38246
0.28421
0.17193
0.12281
0.12281
0.18596
0.27719
0.41754
0.41754
0.34737
0.22807
0.16491
0.12281
0.073684
0.10877
0.17895
0.28421
0.40351
0.4807
0.44561
0.37544
0.3193
0.22105
0.29123
0.36842
0.4386
0.34737
0.25614
0.19298
0.010526
-0.031579
-0.059649
-0.024561
0.087719
0.15789
0.30526
0.30526
0.29123
0.27719
0.20702
0.15789
0.024561
0.066667
0.045614
0.13684
0.22807
0.3193
0.40351
0.45263
0.54386
0.49474
0.48772
0.43158
0.39649
0.3614
0.41053
0.41754
0.34035
0.44561
0.45965
0.52281
0.45263
0.38246
0.26316
0.22807
0.23509
0.28421
0.3614
0.27018
0.22105
0.080702
0.0035088
0.017544
0.087719
0.23509
0.28421
0.41754
0.4386
0.45965
0.41754
0.41754
0.29825
0.20702
0.12281
-0.024561
-0.052632
-0.080702
0.045614
0.10877
0.2
0.35439
0.49474
0.4807
0.41053
0.3193
0.20702
0.19298
0.21404
0.26316
0.30526
0.37544
0.34737
0.29825
0.31228
0.38947
0.52982
0.59298
0.63509
0.53684
0.40351
0.31228
0.34035
0.35439
0.25614
0.21404
0.17895
0.22807
0.30526
0.4386
0.44561
0.38246
0.3614
0.27018
0.19298
0.059649
0.017544
-0.059649
0.059649
0.14386
0.17193
0.094737
-0.059649
-0.094737
-0.19298
-0.23509
-0.15088
-0.11579
-0.087719
-0.12982
-0.20702
-0.17895
-0.017544
0.18596
0.21404
0.066667
-0.13684
-0.25614
-0.30526
-0.24211
-0.22807
-0.24211
-0.17895
0.010526
0.22807
0.26316
0.27018
0.17895
0.0035088
-0.29825
-0.56491
-0.67018
-0.6
-0.33333
-0.087719
0.13684
0.14386
0.28421
0.29825
0.25614
0.2
0.080702
0.010526
-0.024561
-0.066667
-0.17193
-0.25614
-0.25614
-0.10877
0.052632
0.12281
0.14386
0.24211
0.3614
0.43158
0.38246
0.26316
0.017544
0.031579
-0.010526
-0.017544
-0.031579
-0.017544
-0.017544
-0.094737
-0.059649
-0.080702
-0.031579
0.038596
0.14386
0.17193
0.22807
0.26316
0.28421
0.23509
0.23509
0.30526
0.32632
0.27018
0.24912
0.17895
0.010526
-0.073684
-0.10175
-0.11579
-0.073684
-0.094737
-0.031579
-0.031579
0.080702
0.16491
0.2
0.2
0.2
0.15789
0.11579
0.10877
0.16491
0.14386
0.15789
0.2
0.18596
0.27719
0.3614
0.4386
0.4807
0.49474
0.55789
0.52281
0.49474
0.47368
0.4386
0.44561
0.40351
0.47368
0.52281
0.53684
0.63509
0.68421
0.78947
0.86667
0.8386
0.7193
0.50877
0.45263
0.37544
0.33333
0.33333
0.43158
0.61404
0.82456
0.97895
0.95088
0.7614
0.55088
0.34737
0.17895
0.15088
0.24211
0.30526
0.29123
0.23509
0.32632
0.44561
0.64211
0.7614
0.77544
0.61404
0.38947
0.16491
0.024561
-0.0035088
0.11579
0.20702
0.22807
0.29825
0.38947
0.44561
0.52982
0.56491
0.53684
0.41754
0.24211
0.17895
0.080702
0.13684
0.18596
0.27018
0.28421
0.41053
0.4807
0.4807
0.49474
0.46667
0.3614
0.23509
0.14386
0.024561
-0.024561
-0.073684
-0.094737
-0.19298
-0.31228
-0.35439
-0.35439
-0.28421
-0.19298
-0.066667
0.017544
0.052632
0.12982
0.11579
0.16491
0.15789
0.31228
0.36842
0.43158
0.50877
0.46667
0.37544
0.17193
0.080702
-0.073684
-0.17193
-0.17895
-0.17193
-0.052632
0.080702
0.25614
0.32632
0.48772
0.61404
0.61404
0.52281
0.38947
0.38246
0.33333
0.29123
0.24211
0.25614
0.27018
0.22807
0.17895
0.23509
0.37544
0.57895
0.70526
0.67018
0.57895
0.41053
0.18596
0.066667
0.038596
0.052632
0.059649
0.13684
0.2
0.28421
0.36842
0.47368
0.55088
0.55088
0.4807
0.28421
0.12982
0.038596
0.080702
0.073684
0.031579
0.052632
0.031579
0.15088
0.26316
0.37544
0.39649
0.3193
0.27018
0.31228
0.27719
0.27719
0.28421
0.20702
0.27018
0.31228
0.32632
0.18596
0.031579
-0.031579
-0.10877
-0.11579
-0.12281
-0.038596
-0.010526
0.045614
0.045614
0.017544
0.066667
0.19298
0.15088
0.066667
-0.045614
-0.11579
-0.10175
-0.12281
-0.038596
0.031579
0.15088
0.2
0.30526
0.33333
0.30526
0.27719
0.21404
0.17895
0.18596
0.10175
-0.0035088
-0.038596
-0.052632
-0.066667
-0.059649
0.017544
0.010526
0.024561
0.024561
0.087719
0.10175
0.066667
0.12982
0.12281
-0.017544
-0.11579
-0.23509
-0.26316
-0.22807
-0.21404
-0.21404
-0.22807
-0.22807
-0.15088
-0.038596
0.18596
0.41053
0.55088
0.52982
0.41053
0.22807
-0.017544
-0.11579
-0.066667
0.12281
0.27719
0.34737
0.29123
0.22105
0.22105
0.26316
0.3614
0.3193
0.28421
0.21404
0.10877
0.038596
-0.010526
-0.087719
-0.17895
-0.10175
-0.038596
0.045614
0.017544
-0.017544
-0.017544
-0.017544
-0.073684
-0.22807
-0.46667
-0.66316
-0.84561
-0.96491
-1
-0.92982
-0.75439
-0.63509
-0.4386
-0.29825
-0.28421
-0.37544
-0.4807
-0.64912
-0.76842
-0.89474
-0.80351
-0.66316
-0.45263
-0.20702
-0.073684
-0.038596
-0.087719
-0.15789
-0.17895
-0.13684
-0.066667
-0.10175
-0.23509
-0.34737
-0.3193
-0.35439
-0.28421
-0.2
-0.094737
-0.024561
-0.010526
-0.066667
-0.087719
-0.066667
-0.010526
0.038596
0.024561
0.080702
0.059649
0.031579
0.080702
0.19298
0.34737
0.41754
0.46667
0.46667
0.45263
0.4807
0.51579
0.53684
0.44561
0.39649
0.27719
0.19298
0.14386
0.15088
0.17193
0.20702
0.25614
0.24912
0.15789
0.27719
0.43158
0.64912
0.69123
0.62807
0.54386
0.4386
0.27719
0.19298
0.10877
0.12281
0.15088
0.18596
0.21404
0.23509
0.22105
0.073684
-0.052632
-0.017544
0.010526
0.010526
-0.031579
-0.017544
0.024561
0.18596
0.31228
0.33333
0.34035
0.38246
0.4386
0.48772
0.51579
0.54386
0.52281
0.48772
0.41053
0.39649
0.24912
0.26316
0.23509
0.28421
0.26316
0.27018
0.27018
0.25614
0.29123
0.34035
0.4386
0.47368
0.53684
0.45965
0.30526
0.18596
0.17895
0.15789
0.17895
0.13684
0.14386
0.12281
0.17895
0.32632
0.42456
0.55789
0.55789
0.50175
0.38246
0.31228
0.32632
0.34035
0.33333
0.34035
0.24912
0.15789
0.17193
0.23509
0.34737
0.41754
0.51579
0.57193
0.61404
0.62105
0.71228
0.66316
0.66316
0.56491
0.47368
0.41754
0.3614
0.41053
0.40351
0.44561
0.54386
0.58596
0.62105
0.60702
0.61404
0.6
0.57193
0.62807
0.7193
0.74035
0.72632
0.50877
0.3614
0.26316
0.42456
0.65614
0.78246
0.90877
0.8386
0.7193
0.49474
0.39649
0.38947
0.36842
0.37544
0.22807
0.11579
0.094737
0.17193
0.21404
0.15789
0.26316
0.30526
0.33333
0.39649
0.38246
0.33333
0.32632
0.37544
0.38246
0.38246
0.3193
0.25614
0.20702
0.12982
0.045614
-0.010526
-0.031579
-0.052632
0.031579
-0.073684
-0.010526
0.052632
0.21404
0.30526
0.34035
0.35439
0.27719
0.24912
0.15088
0.16491
0.20702
0.27719
0.43158
0.41053
0.38947
0.38246
0.36842
0.35439
0.3614
0.32632
0.20702
0.16491
0.12281
0.10175
0.038596
0.094737
0.10175
0.13684
0.2
0.27719
0.33333
0.29825
0.22105
0.059649
-0.080702
-0.12982
-0.059649
-0.038596
-0.0035088
0.11579
0.26316
0.47368
0.60702
0.67719
0.4386
0.2
0.10877
0.010526
0.059649
0.010526
0.12982
0.19298
0.30526
0.37544
0.48772
0.54386
0.54386
0.4386
0.28421
0.10175
0.031579
-0.0035088
-0.0035088
-0.031579
-0.10175
-0.24912
-0.25614
-0.12281
0.10175
0.22807
0.36842
0.4386
0.41053
0.3614
0.18596
0.052632
-0.14386
-0.15088
-0.080702
0.0035088
0.094737
0.10877
0.10175
0.080702
0.12982
0.17895
0.23509
0.28421
0.29123
0.27719
0.15789
0.14386
0.12982
0.2
0.24211
0.18596
0.12281
0.080702
0.22807
0.34737
0.37544
0.35439
0.3193
0.20702
0.15088
0.14386
0.15789
0.073684
0.052632
0.087719
0.073684
0.10175
0.066667
0.031579
-0.031579
-0.066667
0.010526
0.010526
0.045614
0.087719
0.094737
0.031579
0.024561
-0.017544
0.0035088
0.12281
0.20702
0.29123
0.21404
0.18596
0.25614
0.25614
0.25614
0.28421
0.33333
0.3193
0.25614
0.19298
0.18596
0.22807
0.28421
0.30526
0.17895
0.080702
-0.024561
-0.059649
-0.031579
0.094737
0.22105
0.27719
0.37544
0.37544
0.3614
0.31228
0.3193
0.28421
0.22807
0.15088
-0.017544
-0.15789
-0.24211
-0.20702
-0.15789
-0.080702
0.017544
0.066667
0.017544
-0.073684
-0.080702
-0.10877
-0.010526
0.038596
0.10175
0.031579
-0.0035088
-0.010526
-0.045614
-0.010526
0.094737
0.17895
0.20702
0.2
0.22105
0.19298
0.19298
0.17193
0.13684
0.094737
0.12281
0.26316
0.40351
0.51579
0.6
0.57193
0.53684
0.45965
0.43158
0.40351
0.43158
0.4386
0.43158
0.35439
0.3614
0.37544
0.40351
0.41754
0.41754
0.40351
0.35439
0.40351
0.45263
0.41053
0.41754
0.49474
0.57895
0.55789
0.52281
0.44561
0.45263
0.51579
0.55789
0.4386
0.33333
0.27719
0.2
0.052632
0.017544
0.10877
0.20702
0.27018
0.29123
0.38947
0.44561
0.49474
0.57895
0.62105
0.77544
0.91579
0.93684
0.87368
0.79649
0.7614
0.69123
0.55088
0.41754
0.34737
0.27719
0.34737
0.4386
0.43158
0.46667
0.4807
0.44561
0.38246
0.29123
0.19298
0.066667
-0.059649
-0.14386
-0.11579
-0.038596
0.10175
0.2
0.20702
0.10877
-0.010526
-0.052632
-0.059649
0.017544
0.10877
0.094737
0.14386
0.27719
0.37544
0.48772
0.57895
0.52982
0.46667
0.27719
0.21404
0.11579
0.031579
0.045614
0.052632
0.059649
0.10175
0.18596
0.29825
0.40351
0.39649
0.27018
0.16491
0.19298
0.34035
0.46667
0.57895
0.6
0.55789
0.46667
0.45965
0.4807
0.31228
0.23509
0.18596
0.24211
0.31228
0.27018
0.22807
0.17895
0.24211
0.38947
0.51579
0.52982
0.49474
0.47368
0.43158
0.41754
0.44561
0.50877
0.46667
0.37544
0.31228
0.27018
0.20702
0.34035
0.40351
0.46667
0.55789
0.48772
0.43158
0.36842
0.34035
0.24912
0.22105
0.28421
0.24912
0.29123
0.3193
0.34737
0.41754
0.38947
0.42456
0.31228
0.24211
0.24912
0.33333
0.33333
0.30526
0.30526
0.32632
0.34737
0.24912
0.19298
0.2
0.19298
0.24912
0.28421
0.30526
0.29825
0.29825
0.20702
0.12982
0.12982
0.080702
0.038596
-0.073684
-0.080702
-0.087719
0.045614
0.17193
0.32632
0.38947
0.42456
0.37544
0.24912
0.18596
0.22105
0.24912
0.27719
0.38947
0.44561
0.46667
0.39649
0.41053
0.44561
0.48772
0.52982
0.43158
0.29825
0.010526
-0.12281
-0.15088
-0.073684
0.087719
0.22105
0.30526
0.44561
0.52982
0.55789
0.51579
0.47368
0.42456
0.3614
0.33333
0.32632
0.36842
0.37544
0.44561
0.49474
0.54386
0.52281
0.51579
0.38246
0.27018
0.080702
-0.087719
-0.22807
-0.24912
-0.14386
-0.12281
-0.10175
-0.059649
0.0035088
0.087719
0.16491
0.32632
0.3614
0.44561
0.38246
0.25614
0.13684
0.031579
0.066667
-0.024561
-0.094737
-0.080702
-0.073684
-0.087719
-0.10175
-0.15088
-0.11579
0.010526
0.094737
0.13684
0.11579
0.15088
0.10175
0.052632
0.045614
0.087719
0.14386
0.11579
0.10877
0.10877
0.052632
0.087719
0.16491
0.29123
0.29123
0.31228
0.29825
0.34035
0.37544
0.42456
0.44561
0.34737
0.27018
0.17193
0.12281
0.17895
0.34737
0.43158
0.51579
0.47368
0.3614
0.25614
0.15789
0.15789
0.15088
0.15789
0.19298
0.26316
0.31228
0.37544
0.47368
0.41053
0.4386
0.49474
0.60702
0.63509
0.54386
0.53684
0.4807
0.47368
0.44561
0.36842
0.27719
0.27719
0.34737
0.38246
0.34737
0.32632
0.27018
0.24912
0.32632
0.32632
0.38246
0.44561
0.48772
0.46667
0.40351
0.37544
0.33333
0.39649
0.42456
0.50175
0.53684
0.52281
0.46667
0.39649
0.24912
0.2
0.19298
0.22807
0.27719
0.38246
0.38246
0.35439
0.29825
0.27018
0.27719
0.15088
0.12982
0.052632
0.031579
0.052632
0.20702
0.17895
0.24912
0.26316
0.24912
0.17193
0.031579
-0.017544
-0.087719
-0.14386
-0.33333
-0.41053
-0.45263
-0.23509
-0.031579
0.038596
-0.073684
-0.23509
-0.30526
-0.31228
-0.26316
-0.15088
-0.10175
-0.052632
0.045614
0.031579
-0.010526
0.024561
0.010526
-0.031579
-0.087719
-0.10175
-0.17193
-0.22807
-0.24211
-0.26316
-0.14386
-0.066667
0.031579
0.059649
0.045614
0.10175
0.12982
0.15088
0.094737
0.11579
0.14386
0.19298
0.2
0.14386
0.038596
0.052632
0.10175
0.13684
0.12281
0.17895
0.15789
0.12281
0.12281
0.12982
0.12281
0.14386
0.17193
0.13684
0.052632
0.045614
0.12281
0.24211
0.34737
0.39649
0.38246
0.28421
0.25614
0.24211
0.27018
0.38947
0.58596
0.78246
0.80351
0.74035
0.60702
0.4386
0.35439
0.35439
0.40351
0.41053
0.40351
0.3193
0.24211
0.13684
0.10175
0.10877
0.12982
0.13684
0.094737
-0.010526
-0.052632
-0.052632
0.010526
0.024561
0.059649
0.045614
0.038596
0.080702
0.20702
0.24912
0.23509
0.31228
0.39649
0.50175
0.53684
0.55789
0.49474
0.37544
0.42456
0.41053
0.51579
0.55789
0.56491
0.54386
0.55088
0.61404
0.58596
0.52281
0.44561
0.38947
0.18596
0.066667
0.017544
0.087719
0.18596
0.25614
0.30526
0.24912
0.22807
0.28421
0.41053
0.50877
0.52982
0.50877
0.36842
0.3614
0.38246
0.42456
0.3614
0.31228
0.38947
0.4807
0.60702
0.67018
0.66316
0.53684
0.50175
0.48772
0.45965
0.41754
0.33333
0.28421
0.24211
0.25614
0.21404
0.14386
0.059649
0.066667
0.045614
0.010526
0.066667
0.052632
0.031579
-0.0035088
0.045614
0.024561
0.10877
0.15789
0.22105
0.17193
0.059649
0.087719
0.052632
0.094737
0.12982
0.13684
0.094737
0.10877
0.23509
0.34035
0.48772
0.50175
0.43158
0.34737
0.21404
0.12982
-0.052632
-0.11579
-0.12982
-0.14386
-0.15088
-0.13684
-0.080702
-0.045614
0.017544
0.11579
0.14386
0.17895
0.20702
0.31228
0.30526
0.26316
0.24912
0.21404
0.19298
0.27018
0.36842
0.4386
0.43158
0.34035
0.24912
0.21404
0.27719
0.31228
0.33333
0.37544
0.34737
0.35439
0.23509
0.15088
0.045614
-0.10175
-0.15789
-0.045614
0.080702
0.23509
0.31228
0.22807
0.13684
0.038596
-0.0035088
0.031579
0.12281
0.24211
