-0.14375
-0.0875
-0.05
0.06875
0.09375
0.1
0.00625
-0.025
-0.0375
-0.04375
-0.0375
-0.05
-0.16875
-0.31875
-0.35625
-0.275
-0.125
-0.05
-0.025
-0.125
-0.23125
-0.4
-0.43125
-0.53125
-0.54375
-0.525
-0.54375
-0.6
-0.6375
-0.625
-0.6
-0.5125
-0.29375
-0.1875
-0.10625
-0.1375
-0.2
-0.3375
-0.48125
-0.5625
-0.63125
-0.5875
-0.63125
-0.6125
-0.74375
-0.7375
-0.61875
-0.31875
-0.14375
0.04375
0.04375
0.05
0.01875
0.04375
0.025
-0.09375
-0.09375
-0.125
-0.10625
-0.08125
0.11875
0.20625
0.26875
0.3
0.35625
0.40625
0.55
0.63125
0.6375
0.45625
0.2125
-0.13125
-0.34375
-0.49375
-0.35625
-0.3
-0.01875
0.14375
0.29375
0.275
0.2375
0.16875
0.1
0.075
0.03125
-0.05
-0.15
-0.2625
-0.25
-0.23125
-0.04375
0.2
0.53125
0.5125
0.55625
0.425
0.31875
0.21875
0.175
0.10625
0
-0.09375
-0.21875
-0.30625
-0.39375
-0.4
-0.51875
-0.4875
-0.44375
-0.3375
-0.25
-0.175
-0.0875
-0.00625
0.025
0.15625
0.16875
0.11875
-0.05
-0.18125
-0.19375
-0.26875
-0.24375
-0.375
-0.44375
-0.45
-0.34375
-0.23125
-0.125
-0.09375
-0.01875
-0.00625
-0.05
0.04375
0.075
0.14375
0.1
0
-0.0625
-0.025
0.0625
0.11875
0.15625
0.0125
-0.06875
-0.175
-0.03125
0.13125
0.225
0.18125
0.03125
-0.11875
-0.15625
-0.15625
-0.04375
-0.0875
-0.14375
-0.2375
-0.24375
-0.25
-0.01875
0.2
0.3375
0.3875
0.4375
0.41875
0.3875
0.31875
0.34375
0.325
0.325
0.39375
0.375
0.31875
0.19375
0.1625
0.15625
0.0875
0.0875
0.0125
0.0375
-0.10625
-0.1125
-0.1375
-0.275
-0.40625
-0.5
-0.53125
-0.44375
-0.28125
-0.20625
-0.1875
-0.26875
-0.34375
-0.36875
-0.29375
-0.16875
0
-0.0375
-0.1
-0.1
-0.08125
-0.01875
0.08125
0.06875
0.13125
0.1125
0.05
-0.11875
-0.2375
-0.24375
-0.26875
-0.225
-0.26875
-0.26875
-0.1625
-0.06875
0.06875
0.18125
0.19375
0.2125
0.175
0.0125
-0.03125
-0.15
-0.1375
-0.08125
-0.0375
-0.06875
-0.25625
-0.33125
-0.20625
-0.03125
0.05625
0.10625
0.03125
0.025
0.0125
-0.0375
-0.1125
-0.26875
-0.375
-0.45
-0.5
-0.44375
-0.45
-0.375
-0.275
-0.0375
0.23125
0.3375
0.35625
0.375
0.36875
0.2625
0.20625
0.0875
0.04375
0.1125
0.075
-0.0375
-0.15
-0.2
-0.15625
-0.125
-0.14375
-0.15
-0.1625
-0.20625
-0.175
-0.2
-0.175
-0.20625
-0.26875
-0.3625
-0.3625
-0.30625
-0.2625
-0.3
-0.33125
-0.25625
-0.2125
-0.18125
-0.225
-0.175
-0.1625
-0.08125
-0.11875
-0.25
-0.3125
-0.3625
-0.31875
-0.24375
0
0.18125
0.33125
0.35
0.35
0.35
0.30625
0.3125
0.2
0.05625
-0.01875
0.0125
0.08125
0.0875
0.09375
0.125
0.19375
0.2
0.18125
0.10625
0.1
0.14375
0.1375
0.01875
-0.03125
0.00625
0.05625
0.10625
0.23125
0.28125
0.325
0.09375
0.01875
-0.00625
0.175
0.29375
0.2875
0.1625
0.0875
0.1
0.03125
0.0125
0
-0.01875
-0.10625
-0.20625
-0.18125
-0.19375
0.0125
0.16875
0.225
0.2
0.15625
0.0875
0.03125
0.00625
0.09375
0.15
0.1625
0.0625
0.01875
-0.0625
-0.09375
-0.13125
-0.08125
-0.13125
-0.0875
-0.1
-0.18125
-0.16875
-0.1125
-0.06875
-0.0375
0.0625
0.025
-0.0125
0.0125
0.14375
0.23125
0.1875
0.19375
0.05625
-0.03125
-0.0625
0.0375
0.175
0.26875
0.45
0.5
0.5
0.425
0.3375
0.20625
0.16875
0.01875
0.025
0.04375
0.09375
0.18125
0.14375
0.18125
0.20625
0.25625
0.25
0.25625
0.2375
0.0375
-0.15
-0.30625
-0.35625
-0.3625
-0.36875
-0.28125
-0.2375
-0.1
-0.00625
0.025
-0.1
-0.0375
0.0625
0.075
0.16875
0.16875
0.18125
0.21875
0.20625
0.2
0.31875
0.2875
0.2625
0.15
-0.01875
-0.0125
0.00625
0
0.01875
0.00625
0.05
-0.00625
-0.0125
-0.06875
-0.10625
-0.15625
-0.0625
-0.06875
-0.09375
-0.0375
-0.025
-0.1875
-0.31875
-0.41875
-0.45
-0.25625
-0.075
0.05625
0.10625
0.075
0.1375
-0.01875
-0.0125
-0.06875
-0.16875
-0.05625
-0.0625
0.04375
-0.01875
-0.1
-0.11875
-0.0875
-0.01875
0.00625
0
-0.05
-0.03125
0.04375
0.19375
0.1125
0.025
-0.1375
-0.28125
-0.2375
-0.10625
0.025
0.1125
0.1625
0.21875
0.3
0.24375
0.26875
0.275
0.3375
0.38125
0.31875
0.19375
0.01875
0.03125
0.125
0.225
0.25
0.21875
-0.01875
-0.08125
-0.16875
-0.1375
-0.05
0.09375
0.23125
0.21875
0.2
0.175
0.1125
0.0625
-0.1125
-0.19375
-0.2375
-0.21875
-0.1375
-0.03125
-0.03125
0.00625
-0.0875
-0.175
-0.24375
-0.1375
-0.01875
0.125
0.2375
0.28125
0.23125
0.23125
0.28125
0.25625
0.3875
0.43125
0.68125
0.675
0.65
0.39375
0.1875
0.00625
-0.0375
0.0375
0.125
0.18125
0.16875
0.06875
0.01875
0.04375
0.10625
0.10625
0.10625
0.06875
0.1125
0.0875
0.15
-0.0125
-0.1875
-0.24375
-0.3375
-0.3125
-0.30625
-0.1625
-0.11875
-0.06875
0.03125
0.0875
0.16875
0.18125
0.175
0.08125
-0.0375
-0.0875
-0.175
-0.225
-0.26875
-0.2875
-0.45
-0.525
-0.48125
-0.50625
-0.44375
-0.55
-0.6
-0.625
-0.65
-0.60625
-0.6625
-0.69375
-0.64375
-0.49375
-0.28125
-0.15625
-0.15
-0.29375
-0.50625
-0.61875
-0.6375
-0.74375
-0.70625
-0.6
-0.45
-0.26875
-0.075
0.1
0.0625
-0.0625
-0.16875
-0.21875
-0.325
-0.325
-0.3125
-0.20625
-0.15
-0.14375
-0.15625
-0.15
-0.01875
0.09375
0.1875
0.2625
0.38125
0.5
0.5
0.5625
0.48125
0.36875
0.2
0.1375
0
-0.04375
-0.11875
-0.11875
-0.10625
-0.0125
0.1625
0.275
0.24375
0.16875
0.05
0.08125
0.06875
0.13125
0.11875
0.1625
0.21875
0.2
0.29375
0.26875
0.35
0.1875
0.08125
-0.04375
-0.06875
-0.1125
-0.1875
-0.1625
-0.11875
-0.09375
-0.0125
-0.0125
0.05
0.1625
0.19375
0.2125
0.09375
0.08125
-0.03125
-0.03125
-0.0625
-0.1375
-0.26875
-0.3125
-0.33125
-0.2625
-0.225
-0.10625
-0.0375
-0.0125
-0.01875
-0.06875
-0.11875
-0.16875
-0.28125
-0.45
-0.46875
-0.40625
-0.18125
-0.03125
0.125
0.2625
0.3125
0.2625
0.15625
0.14375
0.025
0.0375
-0.0625
-0.2125
-0.45625
-0.69375
-0.8
-0.69375
-0.4875
-0.21875
-0.16875
-0.225
-0.28125
-0.225
-0.225
-0.29375
-0.3875
-0.48125
-0.54375
-0.43125
-0.4
-0.4
-0.4875
-0.5375
-0.5
-0.4625
-0.25
-0.06875
0.0875
0.175
0.175
0.13125
0.19375
0.1625
0.13125
-0.0625
-0.225
-0.26875
-0.25
-0.175
-0.09375
-0.05625
-0.04375
-0.1125
-0.075
-0.1375
-0.06875
-0.0875
-0.0625
-0.16875
-0.18125
-0.2
-0.1875
-0.23125
-0.15
-0.15
-0.06875
-0.075
-0.0375
-0.00625
-0.01875
0.00625
-0.1125
-0.14375
-0.14375
-0.11875
-0.175
-0.2625
-0.35
-0.3375
-0.35625
-0.3
-0.36875
-0.525
-0.58125
-0.53125
-0.41875
-0.3875
-0.4375
-0.45625
-0.4375
-0.3375
-0.24375
-0.1625
-0.20625
-0.21875
-0.23125
-0.26875
-0.28125
-0.23125
-0.2
-0.26875
-0.275
-0.2625
-0.225
-0.21875
-0.1875
-0.26875
-0.29375
-0.23125
-0.15
-0.06875
0.05
0.15
0.175
0.05625
-0.06875
-0.1375
-0.20625
-0.30625
-0.31875
-0.29375
-0.1125
0.06875
0.175
0.2
0.16875
0.1875
0.25625
0.2
0.19375
0.1
0.04375
0.01875
0.08125
0.1125
0.2375
0.4375
0.575
0.7
0.7125
0.7
0.48125
0.3125
0.1875
0.1125
0.05625
0.0125
0.03125
0.1375
0.275
0.41875
0.36875
0.225
0.05
-0.0125
0.0125
0.1125
0.29375
0.25
0.21875
0.175
0.13125
0.0875
0.08125
0.08125
0.1375
0.15
0.18125
0.225
0.23125
0.4
0.4875
0.51875
0.45
0.45
0.46875
0.46875
0.35625
0.2375
0.025
-0.2125
-0.4625
-0.7875
-0.95625
-0.98125
-0.68125
-0.41875
-0.21875
-0.0375
0.125
0.2125
0.15625
0.13125
0.075
0.11875
0.15625
0.18125
0.15625
0.1875
0.2
0.14375
0.16875
0.18125
0.3125
0.35
0.38125
0.40625
0.275
0.2125
0.2125
0.15625
-0.05
-0.2375
-0.375
-0.45
-0.4375
-0.31875
-0.2375
-0.15625
-0.20625
-0.3
-0.4
-0.3375
-0.2625
-0.125
-0.25
-0.275
-0.4625
-0.56875
-0.55625
-0.525
-0.475
-0.4875
-0.4
-0.31875
-0.23125
-0.175
-0.0375
0.09375
0.18125
0.28125
0.21875
0.0875
-0.11875
-0.23125
-0.275
-0.4125
-0.45
-0.4875
-0.4375
-0.34375
-0.3
-0.29375
-0.30625
-0.16875
-0.05
0.08125
0.0875
0.08125
-0.06875
-0.2
-0.425
-0.59375
-0.5875
-0.43125
-0.1375
0.025
0.10625
0.175
0.2375
0.16875
0.1375
0.04375
-0.01875
-0.04375
-0.0375
0.03125
0.08125
0.13125
0.175
0.175
0.28125
0.30625
0.29375
0.2375
0.1875
0.1625
0.05625
0.05
0.0875
0.15
0.06875
-0.06875
-0.26875
-0.425
-0.5625
-0.56875
-0.58125
-0.575
-0.4
-0.25625
-0.25
-0.11875
-0.06875
0.05
0.1125
0.28125
0.3875
0.41875
0.375
0.2875
0.2625
0.2
0.225
0.3125
0.34375
0.3625
0.34375
0.225
0.275
0.1875
0.15625
-0.04375
-0.2
-0.3125
-0.41875
-0.44375
-0.4125
-0.3375
-0.30625
-0.23125
-0.21875
-0.13125
-0.09375
0.0375
0.05
-0.08125
-0.275
-0.4625
-0.5625
-0.50625
-0.3875
-0.25
-0.13125
-0.075
-0.00625
-0.0125
0.0125
0.05625
0
-0.05
-0.1625
-0.125
-0.125
-0.0875
-0.09375
-0.025
0.03125
0.15
0.175
0.1875
0.11875
0.16875
0.14375
0.09375
0.13125
0.14375
0.1875
0.14375
0.075
-0.01875
-0.11875
-0.15
-0.16875
-0.2125
-0.14375
-0.11875
-0.05
0
-0.00625
-0.20625
-0.4
-0.55
-0.64375
-0.60625
-0.5875
-0.4375
-0.3625
-0.26875
-0.15625
0.0125
0.06875
0.16875
0.1375
0
-0.2125
-0.4125
-0.475
-0.425
-0.36875
-0.29375
-0.31875
-0.29375
-0.1125
0
0.125
0.0875
0.075
0.025
0.0125
0.01875
0.11875
0.06875
0.1
-0.05625
-0.14375
-0.25625
-0.2375
-0.075
0.09375
0.23125
0.4125
0.425
0.40625
0.3
0.1875
0.125
0.09375
0.10625
0.09375
0.09375
0.1625
0.16875
0.13125
0.1125
0.175
0.25625
0.2625
0.375
0.25625
0.19375
0.00625
-0.11875
-0.1375
-0.1
-0.06875
-0.01875
-0.05
0.01875
0.14375
0.1875
0.29375
0.3875
0.45
0.35625
0.2625
0.075
0.01875
0.08125
0.2125
0.225
0.1375
0.0375
0.03125
0.09375
0.28125
0.2875
0.33125
0.21875
0.1875
0.1125
0.00625
0.025
0.0625
0.11875
-0.025
-0.10625
-0.2125
-0.14375
0.04375
0.24375
0.275
0.15
0.0625
-0.1
-0.2
-0.3125
-0.34375
-0.4
-0.425
-0.4
-0.33125
-0.31875
-0.33125
-0.39375
-0.425
-0.5375
-0.38125
-0.225
-0.125
-0.1125
-0.2375
-0.44375
-0.5375
-0.5375
-0.49375
-0.38125
-0.2375
-0.0625
-0.025
-0.10625
-0.09375
-0.09375
-0.15
-0.175
-0.30625
-0.425
-0.4375
-0.39375
-0.31875
-0.28125
-0.23125
-0.1375
-0.0625
-0.01875
0.03125
0.025
0.0875
0.225
0.2625
0.09375
-0.01875
-0.08125
-0.06875
-0.0375
0.05
0.06875
0.0125
-0.05
-0.1375
-0.16875
-0.0375
0.0625
0.15625
0.19375
0.2625
0.36875
0.5
0.5875
0.69375
0.7875
0.74375
0.83125
0.90625
1
0.975
0.8875
0.675
0.4125
0.125
-0.025
-0.2625
-0.375
-0.3375
-0.25625
-0.125
-0.03125
-0.00625
-0.08125
-0.10625
-0.1375
-0.1
-0.15
-0.1
-0.0625
-0.1125
-0.24375
-0.275
-0.275
-0.05
0.19375
0.36875
0.4625
0.45
0.4375
0.3
0.00625
-0.0875
0
0.13125
0.36875
0.56875
0.74375
0.825
0.88125
0.8125
0.6375
0.48125
0.3125
0.2
0.06875
0.025
-0.0625
-0.1625
-0.15625
-0.05625
-0.00625
0.05
0.06875
0.08125
0.05625
0.05625
0.075
0.0875
0.0875
0.05
-0.05
-0.13125
-0.05625
0.16875
0.28125
0.2875
0.19375
0.08125
-0.0125
-0.03125
-0.025
-0.09375
-0.1125
-0.1125
-0.15
-0.15625
-0.3
-0.28125
-0.3
-0.2625
-0.275
-0.3
-0.29375
-0.14375
0.00625
0.06875
0.20625
0.175
0.20625
0.1
0.1125
0.125
0.05
-0.01875
-0.0875
-0.14375
-0.325
-0.44375
-0.5375
-0.50625
-0.3625
-0.3
-0.26875
-0.24375
-0.2375
-0.1625
-0.21875
-0.3375
-0.46875
-0.58125
-0.54375
-0.35625
-0.2375
-0.2875
-0.35625
-0.38125
-0.35625
-0.26875
-0.20625
-0.10625
-0.14375
-0.1875
-0.1375
-0.1625
-0.1
-0.15625
-0.14375
-0.19375
-0.175
-0.15625
-0.10625
-0.00625
0.05625
0.0375
0
-0.0125
-0.01875
-0.08125
-0.1625
-0.25625
-0.2875
-0.35
-0.28125
-0.23125
-0.15625
-0.13125
-0.1375
-0.14375
-0.15625
-0.0375
0.23125
0.3375
0.35
0.2375
0.1
-0.05
-0.0375
0.04375
0.0375
0.025
0
-0.05
0.0125
0.075
0.1
0.09375
0.1
0.09375
0.14375
0.14375
0.175
0.13125
0.1
0.1125
0.175
0.0875
0
-0.1625
-0.26875
-0.24375
-0.29375
-0.24375
-0.2875
-0.34375
-0.39375
-0.425
-0.475
-0.46875
-0.38125
-0.29375
-0.2375
-0.175
-0.175
-0.20625
-0.19375
-0.28125
-0.3125
-0.35625
-0.2625
-0.1875
-0.25625
-0.19375
-0.29375
-0.33125
-0.3125
-0.23125
-0.06875
0.0125
0.075
0.09375
0.025
-0.04375
-0.225
-0.31875
-0.39375
-0.3125
-0.225
-0.1375
-0.09375
-0.09375
-0.075
-0.0375
0.00625
0.13125
0.13125
0.2375
0.26875
0.2625
0.30625
0.3
0.31875
0.26875
0.175
0.16875
0.125
0.15625
0.20625
0.225
0.2875
0.28125
0.36875
0.325
0.3125
0.20625
0.1125
0.01875
-0.05
-0.25
-0.48125
-0.59375
-0.5125
-0.36875
-0.3375
-0.34375
-0.25
-0.2
-0.14375
-0.14375
-0.1375
-0.11875
-0.03125
0.0125
0.01875
0.03125
0.0875
0.01875
-0.125
-0.15625
-0.23125
-0.1625
-0.1125
0.00625
0.0875
0.03125
0.075
0.1
0.11875
0.1875
0.275
0.33125
0.375
0.33125
0.275
0.125
-0.01875
0.05625
0.1
0.18125
0.13125
-0.06875
-0.2375
-0.31875
-0.15
0
0.03125
0.10625
0.08125
0.19375
0.25625
0.31875
0.35625
0.33125
0.35625
0.24375
0.15625
0.06875
0.0125
-0.125
-0.2125
-0.19375
-0.25
-0.30625
-0.43125
-0.475
-0.50625
-0.475
-0.28125
0.01875
0.29375
0.4125
0.4
0.3125
0.1
-0.075
-0.34375
-0.44375
-0.375
-0.18125
-0.125
-0.0375
-0.075
-0.08125
0.0375
0.2125
0.475
0.63125
0.675
0.64375
0.5375
0.2375
0.03125
-0.18125
-0.325
-0.3625
-0.25625
-0.20625
-0.06875
0.13125
0.35
0.40625
0.41875
0.43125
0.3875
0.41875
0.41875
0.24375
0.0625
-0.14375
-0.21875
-0.2125
-0.2125
-0.19375
-0.125
-0.18125
-0.2625
-0.3
-0.2875
-0.23125
-0.2375
-0.2375
-0.21875
-0.08125
0.20625
0.35625
0.4875
0.4625
0.28125
0.18125
0.18125
0.26875
0.2125
0.1375
0.09375
0.00625
0.01875
0.0125
0.075
0.10625
0.09375
0.0375
-0.00625
0.00625
-0.01875
-0.01875
-0.175
-0.23125
-0.2625
-0.175
-0.14375
-0.08125
-0.125
-0.05
0.08125
0.2375
0.29375
0.2125
0.23125
0.00625
-0.15625
-0.4875
-0.6125
-0.6125
-0.525
-0.4375
-0.5
-0.4375
-0.375
-0.24375
-0.15625
-0.13125
-0.08125
-0.18125
-0.2375
-0.28125
-0.13125
-0.10625
-0.18125
-0.2
-0.1625
-0.09375
-0.05625
-0.06875
-0.1125
-0.05
-0.1125
-0.20625
-0.39375
-0.5625
-0.54375
-0.54375
-0.5125
-0.45625
-0.45
-0.3625
-0.26875
-0.15625
-0.09375
0.025
0.18125
0.29375
0.225
0.16875
0.03125
-0.1125
-0.21875
-0.18125
-0.16875
-0.2
-0.26875
-0.43125
-0.46875
-0.5
-0.39375
-0.36875
-0.2875
-0.1875
-0.11875
-0.18125
-0.16875
-0.15
-0.10625
-0.15625
-0.21875
-0.35
-0.50625
-0.63125
-0.65
-0.64375
-0.5125
-0.275
-0.19375
-0.2
-0.3875
-0.54375
-0.59375
-0.5125
-0.3625
-0.35
-0.29375
-0.225
-0.10625
-0.025
0.04375
0.1125
0.1
0.025
-0.00625
0.03125
0
-0.0625
-0.01875
-0.09375
-0.1375
-0.06875
0.05625
0.08125
0.14375
0.24375
0.23125
0.10625
-0.14375
-0.3
-0.38125
-0.34375
-0.31875
-0.31875
-0.31875
-0.2875
-0.2875
-0.21875
-0.2
-0.20625
-0.2125
-0.1875
-0.23125
-0.2625
-0.41875
-0.49375
-0.49375
-0.5
-0.59375
-0.55
-0.55
-0.49375
-0.4375
-0.4125
-0.4
-0.43125
-0.38125
-0.4
-0.3875
-0.5125
-0.5625
-0.61875
-0.59375
-0.5
-0.4375
-0.475
-0.40625
-0.33125
-0.24375
-0.18125
-0.1125
-0.18125
-0.23125
-0.275
-0.10625
0.0125
0.2
0.24375
0.2125
0.06875
-0.1
-0.1625
-0.25
-0.25625
-0.10625
-0.05
0.0875
0.14375
0.16875
0.11875
0.10625
0.0875
0.08125
-0.04375
-0.13125
-0.31875
-0.425
-0.54375
-0.425
-0.4125
-0.39375
-0.29375
-0.2125
-0.13125
-0.0375
0.0625
0.15
0.20625
0.2875
0.14375
-0.05625
-0.2625
-0.35625
-0.28125
-0.2125
-0.175
-0.175
-0.23125
-0.3
-0.2625
-0.24375
-0.15
-0.0625
-0.1125
-0.1625
-0.0875
-0.075
-0.0375
-0.1125
-0.09375
-0.0625
-0.10625
-0.05625
-0.03125
-0.05625
-0.1375
-0.16875
-0.175
-0.10625
-0.13125
-0.0875
-0.10625
0.0625
0.15625
0.13125
0.00625
-0.0375
-0.00625
0.03125
0.0875
0.1375
0.15
0.0875
0.09375
0.1625
0.225
0.2375
0.1875
0.06875
-0.0125
-0.03125
-0.0125
-0.0625
-0.0625
-0.06875
-0.0375
-0.0125
0.0375
0.04375
0.0375
0.1
0.20625
0.275
0.2125
0.3
0.23125
0.0875
-0.0375
-0.13125
-0.1125
-0.01875
0.0375
0.26875
0.475
0.6625
0.825
0.8625
0.95
0.9625
0.85625
0.675
0.54375
0.40625
0.30625
0.2375
0.2375
0.26875
0.4
0.5375
0.625
0.51875
0.26875
0.10625
-0.0625
-0.11875
-0.04375
0.04375
0.15
0.24375
0.3125
0.2625
0.08125
-0.05
0
0.08125
0.24375
0.2375
0.225
0.06875
0.05625
0
-0.025
0.03125
0.05
0.05
-0.0375
-0.13125
-0.1875
-0.25
-0.225
-0.18125
-0.1875
-0.175
-0.23125
-0.25
-0.23125
-0.20625
-0.09375
-0.1125
-0.23125
-0.3
-0.3375
-0.2375
-0.15625
0.00625
0.08125
0.1
0.225
0.2
0.09375
-0.04375
-0.1625
-0.14375
-0.0375
0.1625
0.18125
0.04375
-0.11875
-0.18125
-0.1375
-0.04375
0.075
0.1125
0.16875
0.2625
0.35
0.24375
0.2
0.14375
0.125
0.05625
-0.0125
-0.05625
-0.1
-0.2375
-0.26875
-0.28125
-0.3
-0.2375
-0.175
-0.1
0
0
-0.01875
-0.1125
-0.05625
-0.10625
-0.21875
-0.33125
-0.4625
-0.34375
-0.3
-0.20625
-0.15
-0.1625
-0.03125
0.1
0.15625
0.225
0.34375
0.4
0.3375
0.21875
0.1125
0.025
0.075
0.20625
0.24375
0.2375
0.28125
0.30625
0.31875
0.21875
0.125
0.025
-0.08125
-0.15625
-0.0875
-0.1
0.025
0.10625
0.2
0.1875
0.16875
0.21875
0.125
0.16875
0.15625
0.2
0.09375
-0.03125
-0.125
-0.15
0.0125
0.19375
0.35
0.3625
0.39375
0.3
0.1875
0.10625
-0.01875
-0.06875
-0.275
-0.2375
-0.23125
-0.20625
-0.21875
-0.15
-0.1375
-0.05625
-0.025
0.0375
0.05625
0.09375
0.075
0.09375
0.025
0.06875
0.05
0.04375
0.06875
0.18125
0.18125
0.28125
0.325
0.3125
0.175
0.125
0.15625
0.225
0.3375
0.45
0.45625
0.40625
0.33125
0.2375
0.15
0.14375
0.06875
0.1375
0.1375
0.13125
0.09375
0.0375
0.10625
0.2625
0.3875
0.3625
0.31875
0.29375
0.15625
0.18125
0.21875
0.28125
0.3125
0.2875
0.36875
0.39375
0.39375
0.3
0.23125
0.10625
0.1
0.03125
-0.06875
-0.09375
-0.01875
0.125
0.2875
0.39375
0.425
0.3625
0.25
0.11875
0.025
0.04375
0.1
0.13125
0.075
-0.05
-0.08125
-0.15625
-0.15
-0.075
-0.025
0.03125
0.01875
0.00625
-0.0625
-0.1875
-0.1125
-0.05625
0.1
0.16875
0.16875
0.10625
0.0875
0.0125
-0.06875
-0.15625
-0.15
-0.14375
-0.15
-0.18125
-0.15
-0.1875
-0.2125
-0.19375
-0.1625
-0.15625
-0.1375
-0.2
-0.20625
-0.34375
-0.44375
-0.45
-0.4375
-0.28125
-0.2125
-0.14375
-0.18125
-0.21875
-0.35
-0.43125
-0.38125
-0.35
-0.2375
-0.20625
-0.09375
-0.10625
-0.14375
-0.1
-0.16875
-0.075
-0.1125
-0.0625
0
0.0125
0.0375
0.08125
0.1
0.175
0.16875
0.16875
-0.01875
-0.15625
-0.2375
-0.30625
-0.33125
-0.19375
-0.0875
-0.0125
0.05625
0.09375
0.0625
0.075
0.15
0.075
-0.025
-0.225
-0.3375
-0.31875
-0.23125
-0.1375
-0.14375
-0.20625
-0.2625
-0.20625
-0.1625
-0.06875
0.0125
0.0125
-0.06875
-0.2
-0.23125
-0.2875
-0.175
-0.05625
0.05625
0.0875
0.0625
0.0625
0.00625
0.025
0.1625
0.16875
0.14375
0.1125
0.14375
0.30625
0.41875
0.4375
0.3
-0.0125
-0.225
-0.3875
-0.28125
-0.14375
0.05
0.09375
0.14375
0.125
0.2125
0.2
0.2
0.15
0.0625
-0.0375
-0.0875
-0.125
-0.1125
-0.08125
-0.075
-0.075
-0.0625
-0.0625
-0.05
-0.1375
-0.18125
-0.1625
-0.1375
-0.0875
-0.0375
0
-0.0125
-0.0375
-0.1
-0.0875
-0.0625
0.06875
0.0875
-0.025
-0.05625
-0.10625
-0.1125
-0.03125
0.01875
0.05
0.06875
0.05
-0.0125
-0.08125
-0.1
-0.08125
-0.0375
-0.11875
-0.14375
-0.1
-0.06875
-0.0125
0.04375
0.1625
0.25625
0.35
0.39375
0.325
0.2
0.0625
-0.075
-0.2
-0.23125
-0.33125
-0.29375
-0.19375
-0.04375
0
-0.025
0.0125
0.0625
0.2
0.26875
0.31875
0.21875
0.125
-0.01875
-0.08125
-0.1625
-0.10625
-0.06875
-0.025
0.01875
0.1125
0.1125
0.16875
0.20625
0.21875
0.19375
0.125
0.075
0.06875
0.05
-0.01875
-0.00625
-0.14375
-0.175
-0.1375
-0.04375
0.05
0.075
0.01875
-0.13125
-0.30625
-0.35
-0.4
-0.38125
-0.35
-0.35
-0.38125
-0.475
-0.48125
-0.56875
-0.55625
-0.4625
-0.3625
-0.36875
-0.3
-0.35
-0.35
-0.41875
-0.4125
-0.36875
-0.34375
-0.2875
-0.3
-0.2625
-0.24375
-0.1125
-0.15
-0.20625
-0.275
-0.23125
-0.14375
-0.1
-0.11875
-0.2
-0.225
-0.29375
-0.21875
-0.16875
-0.14375
-0.03125
-0.04375
-0.03125
0.03125
0.0875
0.04375
-0.06875
-0.1375
-0.15625
-0.11875
-0.025
0
0.00625
-0.10625
-0.06875
-0.11875
-0.1
-0.14375
-0.16875
-0.29375
-0.30625
-0.3
-0.29375
-0.3
-0.3875
-0.44375
-0.41875
-0.35625
-0.25625
-0.15
-0.1875
-0.04375
-0.05
-0.15625
-0.25
-0.325
-0.28125
-0.29375
-0.275
-0.34375
-0.4
-0.325
-0.15625
-0.05625
-0.00625
0.03125
-0.0375
0.075
0.06875
0.18125
0.2125
0.13125
0.04375
-0.09375
-0.19375
-0.275
-0.3125
-0.3375
-0.275
-0.14375
0
0.10625
0.2
0.31875
0.4125
0.49375
0.46875
0.36875
0.25625
0.225
0.25
0.15
-0.05
-0.2375
-0.36875
-0.3875
-0.3125
-0.1
0.0375
0.1875
0.3
0.33125
0.3
0.275
0.125
0.04375
-0.04375
-0.0125
0.125
0.1375
0.1375
0.1625
0.25625
0.28125
0.325
0.275
0.28125
0.3125
0.26875
0.18125
0.175
0.21875
0.15625
0.08125
0.0875
0.2
0.3125
0.25
0.15625
0.0625
0.00625
-0.03125
-0.075
-0.05
-0.01875
0.06875
0.0625
0.125
0.08125
0.15625
0.175
0.3
0.3625
0.4375
0.31875
0.33125
0.25
0.19375
0.24375
0.29375
0.2875
0.35
0.475
0.5125
0.45
0.38125
0.275
0.19375
0.14375
0.11875
0.0625
0.00625
0.025
0.05625
0.075
0.08125
0.0625
0.04375
0.05625
0.0625
0.0375
0.01875
0
-0.05625
-0.13125
-0.225
-0.2125
-0.2625
-0.35
-0.3875
-0.29375
-0.15625
-0.05625
0
-0.14375
-0.25625
-0.31875
-0.29375
-0.325
-0.38125
-0.39375
-0.475
-0.5
-0.56875
-0.5625
-0.55
-0.46875
-0.40625
-0.36875
-0.375
-0.25625
-0.18125
-0.03125
-0.06875
-0.1
-0.15
-0.19375
-0.0875
0.03125
0.04375
0.0375
-0.11875
-0.25625
-0.4
-0.51875
-0.49375
-0.54375
-0.425
-0.38125
-0.2625
-0.29375
-0.225
-0.21875
-0.29375
-0.40625
-0.48125
-0.51875
-0.54375
-0.5
-0.50625
-0.425
-0.45625
-0.425
-0.45625
-0.5125
-0.325
-0.1375
0.05
0.18125
0.275
0.33125
0.34375
0.38125
0.35625
0.31875
0.275
0.25
0.1875
0.11875
0.1625
0.15625
0.1375
0.09375
0.08125
0.0375
0.0375
0.075
0.15625
0.19375
0.09375
-0.01875
-0.09375
-0.00625
0.11875
0.29375
0.325
0.3875
0.38125
0.29375
0.21875
0.15
0.0625
-0.08125
-0.20625
-0.225
-0.2
-0.09375
-0.0625
-0.00625
-0.06875
0.08125
0.15625
0.2875
0.275
0.2
0.00625
-0.16875
-0.3125
-0.45
-0.5125
-0.55
-0.38125
-0.2625
-0.25
-0.30625
-0.475
-0.475
-0.40625
-0.1625
-0.025
0.04375
0.03125
-0.06875
-0.125
-0.1125
-0.15
-0.175
-0.3125
-0.325
-0.35
-0.225
-0.0375
0.1375
0.15
0.1625
0.11875
0.15
0.1625
0.14375
0.125
-0.0125
-0.0875
-0.10625
-0.13125
-0.025
0.0625
0.2625
0.34375
0.45
0.44375
0.3625
0.15
0.025
-0.04375
-0.00625
0.00625
0.0375
-0.01875
-0.0625
-0.09375
-0.0375
-0.0375
0.175
0.34375
0.45625
0.4875
0.425
0.40625
0.36875
0.3
0.18125
0.025
-0.1375
-0.0875
-0.0125
0.1375
0.3
0.4375
0.51875
0.475
0.45
0.33125
0.2
0.09375
0.075
0.08125
0.125
0.25625
0.2125
0.1875
0.13125
0.04375
0.05625
0.03125
0.06875
0.1375
0.1125
0.10625
0.1125
0.03125
0.00625
-0.04375
-0.0875
-0.18125
-0.26875
-0.33125
-0.41875
-0.50625
-0.6625
-0.84375
-0.96875
-0.9125
-0.85625
-0.65
-0.51875
-0.3
-0.18125
-0.24375
-0.3875
-0.53125
-0.7
-0.66875
-0.71875
-0.68125
-0.75625
-0.7
-0.59375
-0.43125
-0.30625
-0.075
0.0875
0.25
0.3625
0.36875
0.175
0.00625
-0.23125
-0.34375
-0.50625
-0.6
-0.66875
-0.59375
-0.31875
0.0625
0.48125
0.64375
0.71875
0.58125
0.49375
0.375
0.15
-0.1
-0.30625
-0.3125
-0.15625
0.04375
0.2875
0.4375
0.48125
0.53125
0.60625
0.51875
0.3125
0.025
-0.25
-0.49375
-0.58125
-0.5875
-0.45
-0.2375
-0.025
0.2125
0.2125
0.1
-0.0875
-0.23125
-0.325
-0.33125
-0.26875
-0.13125
-0.04375
0.1
0.29375
0.4375
0.54375
0.56875
0.425
0.3875
0.31875
0.3
0.325
0.31875
0.40625
0.41875
0.25625
0
-0.06875
0.01875
0.325
0.5875
0.725
0.7625
0.68125
0.34375
0.06875
-0.0625
-0.00625
0.175
0.325
0.55
0.55
0.54375
0.38125
0.35
0.30625
0.375
0.45
0.4375
0.4125
0.4
0.3
0.13125
-0.00625
0.0125
0.0375
0.13125
0.15625
0.1
0.05625
0.00625
0.0125
-0.05625
0.08125
0.2625
0.4375
0.3875
0.26875
0.2
0.05
0
-0.09375
-0.04375
-0.1625
-0.25625
-0.35
-0.375
-0.16875
0.0375
0.1875
0.20625
0.20625
0.16875
0.10625
0.0125
-0.05
-0.06875
-0.14375
-0.175
-0.24375
-0.26875
-0.1875
-0.11875
0
0.06875
0.16875
0.15
0.08125
-0.0875
-0.175
-0.175
-0.1875
-0.06875
-0.03125
-0.0375
-0.10625
-0.225
-0.3875
-0.4625
-0.40625
-0.35625
-0.3125
-0.3
-0.24375
-0.15625
-0.10625
-0.06875
-0.15625
-0.18125
-0.28125
-0.23125
-0.30625
-0.29375
-0.3
-0.35625
-0.475
-0.525
-0.58125
-0.45625
-0.3125
-0.15625
-0.21875
-0.25625
-0.3125
-0.425
-0.35
-0.2375
-0.0875
-0.10625
-0.15625
-0.225
-0.24375
-0.175
-0.09375
-0.0375
-0.0875
-0.20625
-0.28125
-0.29375
-0.3125
-0.36875
-0.425
-0.48125
-0.44375
-0.29375
-0.10625
0.00625
0.05
-0.025
-0.1875
-0.16875
-0.1125
-0.01875
0.025
0.1875
0.24375
0.23125
0.06875
0.06875
-0.08125
-0.03125
-0.0625
-0.15625
-0.30625
-0.5
-0.48125
-0.55625
-0.43125
-0.325
-0.0625
0.16875
0.3125
0.375
0.2625
0.1875
0.11875
-0.01875
-0.15625
-0.33125
-0.36875
-0.25625
-0.09375
0.03125
0.13125
0.11875
0.125
0.03125
-0.18125
-0.3375
-0.425
-0.45625
-0.5
-0.51875
-0.44375
-0.43125
-0.3625
-0.3
-0.10625
-0.025
0.09375
0.04375
-0.075
-0.25625
-0.38125
-0.4875
-0.4625
-0.3125
-0.34375
-0.2875
-0.2
-0.1125
-0.0625
-0.16875
-0.15625
-0.21875
-0.20625
-0.2875
-0.34375
-0.44375
-0.49375
-0.41875
-0.29375
-0.275
-0.2375
-0.1875
-0.21875
-0.23125
-0.29375
-0.4
-0.4375
-0.50625
-0.43125
-0.4125
-0.25
-0.08125
0.1125
0.18125
0.175
0.2375
0.20625
0.13125
0.11875
0.01875
-0.1875
-0.3125
-0.35625
-0.24375
-0.025
0.1625
0.21875
0.20625
0.04375
-0.125
-0.18125
-0.1125
0.0625
0.13125
0.0875
-0.025
-0.11875
-0.14375
-0.06875
0.04375
0.1375
0.05
0.0375
0.03125
0.16875
0.26875
0.30625
0.2
-0.06875
-0.2625
-0.3625
-0.40625
-0.39375
-0.275
-0.1625
0.00625
0.2125
0.325
0.375
0.35
0.28125
0.18125
0.23125
0.25
0.06875
-0.15625
-0.325
-0.35625
-0.3625
-0.31875
-0.3
-0.2125
-0.2125
-0.06875
0.1
0.1375
0.2125
0.19375
0.16875
0
-0.175
-0.2125
-0.15
0
0.14375
0.19375
0.16875
0.16875
0.15625
0.175
0.23125
0.3
0.3125
0.21875
0.1625
0.04375
0.05
0.0875
0.18125
0.24375
0.225
0.28125
0.3
0.24375
0.18125
0.19375
0.15
0.15
0.19375
0.2625
0.39375
0.34375
0.29375
0.19375
0.2
0.31875
0.4375
0.425
0.3375
0.19375
0.05625
-0.08125
-0.06875
-0.09375
-0.09375
-0.1125
-0.10625
-0.15625
-0.1375
-0.09375
-0.01875
-0.00625
0.05
0.13125
0.00625
-0.09375
-0.2875
-0.36875
-0.40625
-0.4125
-0.3125
-0.16875
-0.0875
-0.01875
-0.0125
-0.10625
-0.125
-0.175
-0.30625
-0.3375
-0.3875
-0.425
-0.54375
-0.61875
-0.61875
-0.5
-0.44375
-0.36875
-0.34375
-0.2875
-0.1875
-0.1875
-0.09375
-0.05625
0.0875
0.18125
0.16875
0.1875
0.2125
0.24375
0.3
0.34375
0.31875
0.36875
0.4125
0.45
0.39375
0.41875
0.4375
0.44375
0.3875
0.2875
0.10625
-0.0625
-0.1375
0
0.0625
0.1375
0.175
0.2
0.20625
0.1125
0.1125
0.06875
0.05625
-0.00625
-0.1375
-0.31875
-0.49375
-0.55
-0.4875
-0.3875
-0.15
0
0.09375
0.11875
0.125
0.09375
0.0125
-0.025
-0.1
-0.1875
-0.18125
-0.25
-0.26875
-0.30625
-0.25625
-0.2625
-0.25625
-0.21875
-0.1375
-0.05625
-0.04375
-0.04375
-0.08125
-0.01875
-0.00625
-0.00625
-0.08125
-0.15625
-0.08125
-0.075
0.00625
0.2125
0.31875
0.35
0.28125
0.2
0.10625
0.06875
-0.03125
-0.08125
-0.2875
-0.4375
-0.4625
-0.4375
-0.33125
-0.125
0.05
0.2125
0.34375
0.4
0.30625
0.25625
0.21875
0.15625
0.05
-0.00625
0.01875
0
-0.03125
-0.06875
-0.06875
0
0.1375
0.39375
0.49375
0.58125
0.475
0.475
0.38125
0.36875
0.3
0.23125
0.15625
0.19375
0.275
0.2625
0.25
0.15625
0.11875
0.175
0.275
0.3
0.275
0.3625
0.33125
0.30625
0.24375
0.23125
0.21875
0.0875
0.01875
0.0125
0.01875
0.08125
0.1125
0.05
-0.1125
-0.225
-0.3125
-0.28125
-0.21875
-0.1
0.01875
0.0875
0.18125
0.2125
0.15
0.1
0.15
0.2
0.28125
0.2875
0.20625
0.11875
0.05
0.0625
0.0625
0.0875
0.11875
0.04375
-0.06875
-0.0625
-0.0125
-0.09375
-0.1625
-0.4
-0.575
-0.75
-0.8125
-0.76875
-0.8125
-0.7625
-0.8875
-0.875
-0.89375
-0.74375
-0.575
-0.5625
-0.43125
-0.4625
-0.4375
-0.45
-0.4625
-0.5375
-0.675
-0.8375
-0.86875
-0.94375
-1
-0.925
-0.88125
-0.85
-0.8625
-0.79375
-0.7125
-0.575
-0.46875
-0.4
-0.4125
-0.43125
-0.4125
-0.45
-0.44375
-0.41875
-0.3875
-0.475
-0.50625
-0.51875
-0.375
-0.2125
-0.08125
0.01875
0.0125
0.05625
0.0125
-0.09375
-0.18125
-0.225
-0.15
-0.15
-0.09375
-0.125
-0.2125
-0.24375
-0.28125
-0.2
-0.1375
-0.08125
-0.05
-0.1125
-0.225
-0.31875
-0.33125
-0.31875
-0.2875
-0.25625
-0.275
-0.25625
-0.11875
-0.025
-0.0125
0.0125
-0.08125
-0.0625
0.05
0.175
0.275
0.3125
0.275
0.26875
0.2
0.2375
0.275
0.325
0.475
0.5625
0.5875
0.475
0.44375
0.41875
0.4
0.325
0.325
0.3125
0.325
0.33125
0.2625
0.10625
0.05
0.0625
0.11875
0.0875
0
0.03125
0.09375
0.25
0.3625
0.31875
0.10625
-0.14375
-0.29375
-0.39375
-0.45625
-0.40625
-0.38125
-0.3625
-0.29375
-0.2625
-0.25
-0.2375
-0.3125
-0.3375
-0.46875
-0.50625
-0.54375
-0.56875
-0.53125
-0.55
-0.6625
-0.83125
-0.91875
-0.95625
-0.95
-0.93125
-0.825
-0.7625
-0.6
-0.55
-0.525
-0.54375
-0.54375
-0.49375
-0.5
-0.58125
-0.6125
-0.68125
-0.80625
-0.8625
-0.825
-0.70625
-0.49375
-0.30625
-0.15625
-0.175
-0.25625
-0.275
-0.40625
-0.44375
-0.51875
-0.55
-0.6
-0.60625
-0.5375
-0.34375
-0.2125
-0.04375
-0.025
-0.03125
0.0875
0.15
0.19375
0.24375
0.35
0.40625
0.35
0.18125
0.0625
-0.09375
-0.15
-0.10625
-0.01875
-0.0375
-0.18125
-0.2375
-0.25625
-0.16875
-0.125
-0.0625
-0.0125
0.1875
0.3875
0.5125
0.60625
0.4875
0.43125
0.30625
0.29375
0.2
0.1125
0.1
0.10625
0.18125
0.15
0.23125
0.34375
0.4
0.425
0.4625
0.39375
0.33125
0.25625
0.25625
0.29375
0.35625
0.425
0.38125
0.40625
0.44375
0.50625
0.475
0.3625
0.28125
0.35625
0.45
0.61875
0.73125
0.68125
0.625
0.56875
0.575
0.68125
0.6875
0.65
0.50625
0.4625
0.4375
0.38125
0.35625
0.275
0.24375
0.1625
0.175
0.3
0.35625
0.43125
0.4375
0.375
0.34375
0.33125
0.3
0.175
0.13125
0.075
0.1375
0.16875
0.1375
0.0875
0.075
0.2
0.35625
0.4625
0.35625
0.35625
0.28125
0.21875
0.20625
0.1625
0.1625
0.11875
0.075
0.05
-0.00625
-0.03125
-0.03125
0.0125
0.01875
0.1
0.08125
-0.00625
-0.00625
0.01875
0.08125
0.06875
0.03125
-0.0625
-0.18125
-0.2375
-0.26875
-0.35
-0.44375
-0.3625
-0.2375
-0.08125
-0.03125
0.1375
0.19375
0.425
0.54375
0.56875
0.50625
0.30625
0.16875
0.075
0.08125
0.18125
0.15625
0.0375
-0.025
-0.0625
0.0375
0.11875
0.2
0.16875
0.075
0.03125
-0.01875
-0.1125
-0.16875
-0.24375
-0.1875
-0.0625
0.13125
0.25
0.225
0.1875
0.125
0.11875
0.03125
0.08125
0.175
0.275
0.34375
0.31875
0.3
0.225
0.2875
0.23125
0.1875
0.05
-0.00625
-0.1125
-0.08125
0
0.14375
0.3125
0.325
0.34375
0.2375
0.15
0
-0.1875
-0.4125
-0.5875
-0.68125
-0.775
-0.70625
-0.525
-0.225
0.01875
0.15
0.2125
0.1625
0.11875
0.125
0.03125
-0.01875
-0.11875
-0.275
-0.40625
-0.56875
-0.48125
-0.31875
-0.16875
-0.13125
-0.14375
-0.13125
-0.00625
0.04375
0.075
-0.05625
-0.05
-0.1125
-0.1125
-0.01875
0
0.31875
0.1875
0.3
0.09375
-0.025
-0.075
0.0125
-0.075
-0.16875
-0.225
-0.30625
-0.1875
-0.05625
0.125
0.2125
0.3
0.35
0.45625
0.4625
0.425
0.3625
0.2375
0.21875
0.3125
0.275
0.2
0.13125
0.15625
0.10625
0.1
0.08125
0.11875
0.14375
0.0875
0.15625
0.1375
0.1625
0.09375
-0.15
-0.2875
-0.33125
-0.1375
0.0375
0.3125
0.525
0.6125
0.61875
0.575
0.33125
0.025
-0.18125
-0.29375
-0.2875
-0.33125
-0.30625
-0.2375
-0.225
-0.1625
-0.075
0.1125
0.175
0.1875
0.025
-0.19375
-0.30625
-0.325
-0.24375
-0.35625
-0.3625
-0.5125
-0.5375
-0.3625
-0.14375
0.025
0.01875
-0.04375
-0.1125
-0.175
-0.20625
-0.2375
-0.21875
-0.25
-0.2125
-0.3
-0.35
-0.3125
-0.19375
-0.05625
0.075
0.21875
0.21875
0.20625
0.05
-0.01875
-0.19375
-0.225
-0.26875
-0.26875
-0.3625
-0.425
-0.375
-0.2625
-0.10625
0.05
0.15625
0.21875
0.2
0.125
0.0625
-0.01875
0
-0.06875
-0.2125
-0.29375
-0.3625
-0.28125
-0.0875
0.1
0.24375
0.225
0.21875
0.05625
-0.1375
-0.3125
-0.36875
-0.3875
-0.46875
-0.475
-0.475
-0.33125
-0.10625
0.20625
0.38125
0.4125
0.35
0.175
-0.0125
-0.18125
-0.2875
-0.30625
-0.35
-0.30625
-0.3875
-0.33125
-0.20625
0.0625
0.275
0.36875
0.2875
0.1
0
0.0375
0.30625
0.425
0.5
0.3875
0.0875
-0.25
-0.41875
-0.51875
-0.45625
-0.33125
-0.10625
0.175
0.375
0.49375
0.525
0.45
0.38125
0.34375
0.275
0.06875
-0.11875
-0.29375
-0.4625
-0.48125
-0.4625
-0.375
-0.23125
-0.0625
0.0125
-0.09375
-0.225
-0.28125
-0.3125
-0.36875
-0.34375
-0.41875
-0.4
-0.4875
-0.5625
-0.6625
-0.6
-0.475
-0.31875
-0.1375
0.00625
0.15625
0.125
0.15
0.16875
0.21875
0.21875
0.11875
-0.10625
-0.34375
-0.6
-0.7125
-0.76875
-0.89375
-0.84375
-0.775
-0.6875
-0.5
-0.06875
0.30625
0.60625
0.7
0.70625
0.525
0.35625
0.08125
-0.03125
-0.1375
-0.05625
0.09375
0.24375
0.45625
0.5375
0.5875
0.55
0.4625
0.36875
0.2
0.21875
0.25625
0.325
0.25
0.18125
0.09375
0.08125
0.21875
0.36875
0.56875
0.56875
0.43125
0.09375
-0.2625
-0.50625
-0.5875
-0.625
-0.54375
-0.45625
-0.39375
-0.35625
-0.13125
0.04375
0.25625
0.325
0.34375
0.29375
0.1125
-0.01875
-0.09375
-0.0125
0.075
0.1
-0.0625
-0.16875
-0.2125
-0.10625
0.05625
0.1125
0.1375
0.025
-0.2
-0.3875
-0.45625
-0.58125
-0.5625
-0.51875
-0.525
-0.5
-0.40625
-0.34375
-0.20625
-0.0875
0.0625
0.15
0.15
0.18125
0.2625
0.35625
0.39375
0.29375
0.35625
0.2
0.29375
0.3125
0.33125
0.425
0.4625
0.425
0.23125
0.09375
0.08125
0.05
-0.01875
-0.15625
-0.2375
-0.3
-0.29375
-0.15
-0.0375
0.18125
0.375
0.40625
0.44375
0.4
0.31875
-0.09375
