0.11005
-0.08134
-0.26316
-0.35885
-0.33014
-0.29187
-0.24402
-0.12919
0.10048
0.29187
0.4067
0.51196
0.48325
0.311
0.14833
-0.07177
-0.1866
-0.23445
-0.1866
-0.090909
-0.10048
-0.043062
-0.08134
-0.12919
-0.12919
-0.033493
0.19617
0.39713
0.64593
0.62679
0.44498
0.15789
-0.07177
-0.27273
-0.33014
-0.311
-0.27273
-0.26316
-0.26316
-0.12919
-0.052632
-0.043062
-0.062201
-0.23445
-0.35885
-0.42584
-0.33971
-0.2823
-0.12919
0.062201
0.090909
-0.0047847
-0.22488
-0.33971
-0.44498
-0.39713
-0.2823
-0.16746
-0.17703
-0.15789
-0.21531
-0.38756
-0.47368
-0.48325
-0.35885
-0.30144
-0.25359
-0.19617
-0.23445
-0.2823
-0.34928
-0.44498
-0.5311
-0.57895
-0.60766
-0.63636
-0.57895
-0.44498
-0.33014
-0.311
-0.21531
-0.11962
-0.08134
-0.062201
-0.062201
-0.090909
-0.10048
-0.08134
-0.10048
-0.17703
-0.29187
-0.39713
-0.39713
-0.32057
-0.17703
-0.043062
-0.043062
-0.014354
0.07177
0.090909
0.090909
0.043062
-0.023923
-0.11005
-0.10048
0.023923
0.0047847
-0.033493
-0.033493
-0.07177
-0.10048
-0.1866
-0.20574
-0.26316
-0.22488
-0.14833
-0.10048
-0.11962
-0.15789
-0.1866
-0.26316
-0.24402
-0.15789
-0.11962
-0.11005
-0.12919
-0.062201
-0.043062
0.043062
0.15789
0.21531
0.16746
0.14833
0.1866
0.1866
0.22488
0.22488
0.20574
0.11962
0.11005
0.10048
0.15789
0.21531
0.26316
0.24402
0.08134
0.08134
0.08134
0.13876
0.19617
0.17703
0.13876
0.043062
0.090909
0.13876
0.21531
0.27273
0.33971
0.33971
0.311
0.20574
0.17703
0.10048
0.07177
0.10048
0.13876
0.1866
0.21531
0.21531
0.20574
0.13876
0.11962
0.16746
0.11962
0.15789
0.16746
0.23445
0.25359
0.26316
0.26316
0.24402
0.29187
0.33014
0.27273
0.20574
0.14833
0.20574
0.14833
0.0047847
-0.052632
-0.12919
-0.17703
-0.17703
-0.13876
-0.090909
-0.062201
-0.062201
-0.052632
-0.17703
-0.24402
-0.25359
-0.23445
-0.15789
-0.10048
-0.17703
-0.311
-0.4067
-0.46411
-0.51196
-0.47368
-0.4067
-0.32057
-0.4067
-0.52153
-0.55024
-0.47368
-0.25359
-0.033493
0.014354
-0.08134
-0.10048
-0.12919
-0.13876
-0.10048
-0.11005
-0.15789
-0.23445
-0.17703
-0.11962
0.043062
0.15789
0.23445
0.16746
0.062201
0.07177
0.08134
0.014354
-0.0047847
0.033493
0.10048
0.22488
0.33014
0.44498
0.4067
0.311
0.27273
0.11962
0.10048
0.023923
0.014354
0.0047847
0.08134
0.16746
0.062201
-0.023923
-0.014354
0.033493
0.062201
0.062201
0.08134
0.052632
0.10048
0.21531
0.25359
0.17703
0.20574
0.2823
0.30144
0.29187
0.24402
0.19617
0.07177
0.0047847
-0.033493
-0.07177
-0.0047847
0.090909
0.1866
0.25359
0.4067
0.5311
0.63636
0.68421
0.62679
0.50239
0.26316
0.23445
0.1866
0.20574
0.16746
0.25359
0.22488
0.25359
0.32057
0.35885
0.25359
0.090909
0.0047847
-0.062201
-0.052632
-0.07177
-0.0047847
0.043062
0.023923
0.033493
-0.11962
-0.13876
-0.023923
0.10048
0.22488
0.23445
0.33971
0.37799
0.38756
0.4067
0.36842
0.2823
0.27273
0.26316
0.14833
0.16746
0.14833
0.13876
0.052632
0.0047847
0.10048
0.11005
0.19617
0.23445
0.24402
0.16746
0.062201
-0.014354
-0.07177
-0.014354
0.062201
0.1866
0.1866
0.15789
0.0047847
-0.23445
-0.33971
-0.33971
-0.27273
-0.29187
-0.25359
-0.32057
-0.43541
-0.46411
-0.42584
-0.33014
-0.27273
-0.22488
-0.27273
-0.29187
-0.24402
-0.062201
0.043062
0.07177
0.043062
-0.033493
-0.17703
-0.27273
-0.25359
-0.16746
-0.07177
-0.0047847
-0.11005
-0.29187
-0.42584
-0.43541
-0.52153
-0.49282
-0.33014
-0.14833
0.0047847
0.062201
0.17703
0.10048
0.014354
-0.090909
-0.12919
-0.13876
-0.12919
-0.10048
-0.1866
-0.1866
-0.08134
0.052632
0.033493
0.0047847
-0.12919
-0.34928
-0.47368
-0.44498
-0.35885
-0.20574
-0.043062
0.11005
0.11962
0.11962
0.12919
0.13876
0.07177
0.13876
0.11005
0.11962
0.16746
0.23445
0.21531
0.12919
0.10048
0.16746
0.21531
0.26316
0.34928
0.35885
0.20574
0.043062
-0.12919
-0.23445
-0.22488
-0.11962
-0.11962
-0.15789
-0.16746
-0.17703
-0.13876
-0.052632
0.090909
0.10048
0.090909
0.17703
0.20574
0.22488
0.30144
0.45455
0.55981
0.68421
0.72249
0.70335
0.5311
0.311
0.20574
0.062201
0.043062
0.0047847
-0.014354
0.0047847
0.014354
0.13876
0.15789
0.22488
0.24402
0.16746
-0.0047847
-0.11005
-0.10048
-0.13876
-0.033493
0.062201
0.13876
0.13876
0.1866
0.26316
0.34928
0.37799
0.35885
0.311
0.19617
0.14833
0.13876
0.090909
0.11005
0.11962
0.062201
-0.033493
-0.08134
-0.13876
-0.1866
-0.1866
-0.15789
-0.12919
-0.17703
-0.14833
-0.15789
-0.13876
-0.11005
-0.014354
0.0047847
0.033493
0.07177
-0.062201
-0.1866
-0.33014
-0.30144
-0.24402
-0.12919
0.052632
0.062201
0.090909
0.043062
0.062201
-0.014354
-0.10048
-0.19617
-0.22488
-0.29187
-0.26316
-0.10048
0.043062
0.22488
0.33014
0.39713
0.36842
0.32057
0.26316
0.11005
0.07177
0.15789
0.22488
0.22488
0.15789
0.11005
-0.0047847
-0.052632
-0.062201
-0.062201
-0.033493
-0.033493
-0.0047847
-0.014354
0.10048
0.22488
0.33971
0.36842
0.4067
0.35885
0.30144
0.2823
0.33971
0.42584
0.46411
0.47368
0.4067
0.25359
0.11962
0.033493
-0.11005
-0.26316
-0.32057
-0.41627
-0.37799
-0.36842
-0.2823
-0.26316
-0.24402
-0.14833
-0.15789
-0.20574
-0.16746
-0.043062
0.052632
0.10048
0.11005
0.0047847
-0.08134
-0.17703
-0.15789
-0.23445
-0.26316
-0.30144
-0.36842
-0.43541
-0.47368
-0.48325
-0.52153
-0.48325
-0.38756
-0.27273
-0.26316
-0.24402
-0.22488
-0.32057
-0.38756
-0.35885
-0.26316
-0.22488
-0.19617
-0.20574
-0.311
-0.35885
-0.43541
-0.46411
-0.49282
-0.45455
-0.47368
-0.58852
-0.68421
-0.72249
-0.73206
-0.7512
-0.66507
-0.71292
-0.72249
-0.71292
-0.59809
-0.51196
-0.46411
-0.39713
-0.47368
-0.64593
-0.83732
-0.90431
-0.84689
-0.7512
-0.57895
-0.5311
-0.55981
-0.64593
-0.55024
-0.47368
-0.42584
-0.32057
-0.2823
-0.22488
-0.25359
-0.21531
-0.20574
-0.12919
0.023923
0.14833
0.13876
0.090909
0.062201
-0.023923
0.0047847
0.062201
0.090909
0.052632
-0.0047847
0.023923
-0.014354
0.08134
0.11962
0.033493
-0.17703
-0.37799
-0.47368
-0.48325
-0.35885
-0.1866
-0.0047847
0.052632
0.17703
0.23445
0.14833
0.11962
0.052632
0.10048
0.052632
0.11005
0.13876
0.21531
0.33971
0.42584
0.43541
0.36842
0.46411
0.55981
0.59809
0.61722
0.69378
0.7512
0.66507
0.51196
0.311
0.24402
0.35885
0.60766
0.76077
0.81818
0.84689
0.71292
0.55024
0.37799
0.27273
0.16746
0.14833
0.2823
0.43541
0.54067
0.6555
0.72249
0.69378
0.62679
0.56938
0.45455
0.35885
0.25359
0.25359
0.23445
0.32057
0.39713
0.4067
0.2823
0.13876
0.17703
0.15789
0.21531
0.27273
0.30144
0.29187
0.1866
0.11005
-0.023923
-0.052632
-0.10048
-0.043062
-0.090909
-0.08134
-0.16746
-0.27273
-0.29187
-0.22488
-0.12919
-0.10048
-0.08134
-0.13876
-0.27273
-0.2823
-0.20574
-0.11962
-0.08134
-0.023923
-0.014354
-0.062201
-0.023923
0.043062
0.08134
0.090909
0.15789
0.090909
-0.033493
-0.11005
-0.043062
0.052632
0.11005
0.22488
0.19617
0.1866
0.13876
0.15789
0.11005
0.15789
0.21531
0.13876
-0.014354
-0.15789
-0.1866
-0.311
-0.4067
-0.43541
-0.35885
-0.26316
-0.21531
-0.07177
-0.0047847
0.10048
0.23445
0.33014
0.38756
0.44498
0.50239
0.46411
0.35885
0.32057
0.27273
0.24402
0.21531
0.17703
0.07177
0.033493
-0.033493
-0.07177
-0.23445
-0.32057
-0.33014
-0.33014
-0.27273
-0.20574
-0.14833
-0.07177
0.014354
-0.08134
-0.22488
-0.33014
-0.21531
-0.043062
0.08134
0.21531
0.21531
0.13876
0.12919
0.12919
0.062201
-0.0047847
-0.023923
-0.014354
0.014354
0.052632
0.11962
0.090909
-0.0047847
0.033493
0.023923
0.08134
0.15789
0.29187
0.311
0.29187
0.30144
0.25359
0.22488
0.1866
0.20574
0.24402
0.22488
0.30144
0.35885
0.36842
0.25359
0.15789
-0.0047847
-0.033493
0.062201
0.1866
0.33014
0.37799
0.37799
0.23445
0.19617
0.23445
0.27273
0.19617
0.13876
0.14833
0.17703
0.25359
0.32057
0.30144
0.17703
0.033493
-0.043062
-0.062201
-0.023923
0.090909
0.17703
0.17703
0.20574
0.15789
0.14833
0.17703
0.35885
0.52153
0.47368
0.36842
0.14833
-0.014354
-0.12919
-0.19617
-0.19617
-0.26316
-0.21531
-0.19617
-0.20574
-0.311
-0.29187
-0.36842
-0.34928
-0.29187
-0.33014
-0.42584
-0.52153
-0.46411
-0.47368
-0.37799
-0.17703
-0.0047847
0.11005
0.16746
0.23445
0.16746
0.13876
0.11005
0.014354
-0.07177
-0.12919
-0.10048
-0.12919
-0.08134
-0.11005
-0.07177
-0.08134
-0.08134
-0.052632
-0.13876
-0.090909
-0.043062
0.033493
0.08134
0.12919
0.15789
0.08134
-0.023923
-0.090909
-0.10048
-0.090909
0.10048
0.19617
0.21531
0.052632
-0.08134
-0.24402
-0.42584
-0.43541
-0.41627
-0.33971
-0.20574
-0.16746
-0.1866
-0.29187
-0.34928
-0.43541
-0.41627
-0.30144
-0.052632
0.12919
0.26316
0.46411
0.55024
0.55024
0.49282
0.45455
0.311
0.17703
-0.023923
-0.20574
-0.39713
-0.47368
-0.42584
-0.42584
-0.39713
-0.32057
-0.24402
-0.16746
-0.15789
-0.090909
-0.033493
0.052632
0.14833
0.090909
0.043062
0.043062
0.16746
0.26316
0.33971
0.39713
0.43541
0.42584
0.47368
0.51196
0.49282
0.44498
0.34928
0.1866
0.033493
-0.043062
-0.052632
-0.07177
0.0047847
0.08134
0.22488
0.30144
0.41627
0.41627
0.1866
-0.043062
-0.25359
-0.30144
-0.25359
-0.052632
0.043062
0.023923
-0.11962
-0.11005
-0.08134
-0.07177
-0.043062
-0.12919
-0.27273
-0.36842
-0.43541
-0.51196
-0.50239
-0.42584
-0.35885
-0.32057
-0.22488
-0.033493
0.014354
0.023923
-0.062201
-0.20574
-0.38756
-0.59809
-0.6555
-0.66507
-0.57895
-0.48325
-0.4067
-0.38756
-0.35885
-0.24402
-0.25359
-0.33014
-0.45455
-0.55024
-0.64593
-0.6555
-0.50239
-0.44498
-0.2823
-0.20574
-0.16746
-0.19617
-0.19617
-0.1866
-0.19617
-0.15789
-0.043062
0.08134
0.052632
0.014354
-0.033493
-0.07177
-0.07177
-0.023923
0.090909
0.16746
0.26316
0.20574
0.043062
-0.062201
-0.07177
-0.014354
-0.052632
0.11005
0.08134
0.08134
0.052632
0.11005
0.11962
0.12919
0.1866
0.17703
0.15789
0.15789
0.19617
0.21531
0.11962
0.062201
0.023923
0.033493
0.14833
0.21531
0.1866
0.17703
0.22488
0.17703
0.10048
0.07177
0.062201
-0.0047847
-0.052632
-0.023923
-0.023923
0.10048
0.25359
0.33971
0.36842
0.44498
0.5311
0.50239
0.46411
0.43541
0.43541
0.39713
0.37799
0.33014
0.25359
0.25359
0.23445
0.23445
0.11962
0.052632
0.0047847
-0.08134
-0.07177
-0.052632
0.023923
0.043062
0.062201
0.13876
0.14833
0.15789
0.16746
0.15789
0.16746
0.24402
0.25359
0.19617
0.052632
0.023923
-0.043062
-0.023923
-0.0047847
-0.023923
-0.090909
-0.07177
-0.033493
0.0047847
-0.0047847
0.0047847
0.043062
-0.043062
-0.13876
-0.16746
-0.19617
-0.1866
-0.15789
-0.090909
-0.12919
-0.12919
-0.11962
-0.15789
-0.17703
-0.12919
-0.090909
-0.11005
-0.17703
-0.14833
-0.25359
-0.32057
-0.33971
-0.33014
-0.39713
-0.43541
-0.4067
-0.47368
-0.43541
-0.39713
-0.33014
-0.33014
-0.37799
-0.34928
-0.33014
-0.22488
-0.12919
-0.062201
-0.014354
0.11962
0.22488
0.1866
0.0047847
-0.090909
-0.10048
-0.0047847
0.17703
0.17703
0.1866
0.11005
0.16746
0.19617
0.21531
0.37799
0.4067
0.38756
0.25359
0.11962
0.043062
0.023923
0.12919
0.20574
0.1866
0.11962
0.052632
0.014354
0.033493
0.090909
0.15789
0.20574
0.30144
0.42584
0.41627
0.33014
0.16746
-0.014354
-0.11962
-0.12919
0.033493
0.052632
0.11962
0.17703
0.19617
0.23445
0.17703
0.14833
0.08134
0.090909
0.062201
0.15789
0.14833
0.12919
0.08134
-0.023923
-0.0047847
0.062201
0.10048
0.090909
0.052632
0.08134
-0.023923
-0.090909
-0.08134
-0.014354
0.052632
0.08134
0.0047847
-0.14833
-0.311
-0.33014
-0.311
-0.34928
-0.33971
-0.42584
-0.50239
-0.51196
-0.46411
-0.38756
-0.35885
-0.22488
-0.20574
-0.32057
-0.48325
-0.56938
-0.63636
-0.64593
-0.63636
-0.62679
-0.51196
-0.26316
0.07177
0.30144
0.44498
0.51196
0.45455
0.39713
0.33971
0.35885
0.26316
0.16746
0.11962
0.07177
0.062201
0.052632
0.13876
0.11005
0.14833
0.17703
0.15789
0.08134
0.07177
0.11962
0.12919
0.15789
0.24402
0.311
0.37799
0.44498
0.43541
0.311
0.2823
0.311
0.36842
0.34928
0.30144
0.22488
0.0047847
-0.062201
-0.10048
-0.08134
-0.090909
0.0047847
0.033493
-0.0047847
-0.062201
-0.033493
-0.033493
-0.11005
-0.11962
-0.17703
-0.23445
-0.17703
-0.15789
-0.15789
-0.16746
-0.10048
0.033493
0.17703
0.22488
0.27273
0.17703
0.052632
-0.08134
-0.08134
-0.07177
-0.0047847
0.062201
-0.0047847
0.0047847
0.07177
0.07177
-0.033493
-0.20574
-0.311
-0.42584
-0.37799
-0.25359
-0.052632
0.08134
0.14833
0.16746
-0.0047847
-0.10048
-0.15789
-0.17703
-0.17703
-0.12919
-0.0047847
0.033493
0.11005
0.062201
-0.090909
-0.2823
-0.35885
-0.32057
-0.1866
-0.033493
0.10048
0.11005
0.052632
0.07177
0.12919
0.1866
0.13876
0.090909
0.052632
0.043062
0.10048
0.16746
0.11962
0.07177
-0.033493
-0.13876
-0.20574
-0.20574
-0.19617
-0.17703
-0.16746
-0.14833
-0.14833
-0.16746
-0.19617
-0.20574
-0.23445
-0.22488
-0.15789
-0.19617
-0.1866
-0.16746
-0.14833
-0.15789
-0.17703
-0.16746
-0.19617
-0.21531
-0.17703
-0.15789
-0.11962
-0.13876
-0.13876
-0.19617
-0.22488
-0.20574
-0.1866
-0.21531
-0.16746
-0.08134
-0.062201
-0.07177
-0.062201
-0.043062
-0.12919
-0.14833
-0.15789
-0.15789
-0.062201
-0.0047847
0.14833
0.13876
0.11962
0.052632
0.033493
0.043062
0.062201
0.14833
0.17703
0.30144
0.32057
0.24402
0.08134
0.014354
0.033493
0.11005
0.26316
0.311
0.20574
-0.033493
-0.16746
-0.29187
-0.311
-0.1866
-0.0047847
0.10048
0.07177
0.023923
-0.07177
-0.17703
-0.11962
-0.062201
0.090909
0.20574
0.41627
0.42584
0.49282
0.45455
0.44498
0.34928
0.24402
0.16746
0.062201
-0.0047847
-0.090909
-0.12919
-0.16746
-0.090909
0.10048
0.15789
0.14833
0.16746
0.13876
0.12919
0.12919
0.1866
0.12919
0.15789
0.19617
0.14833
0.14833
0.1866
0.21531
0.20574
0.15789
0.16746
0.14833
0.10048
0.08134
0.052632
-0.12919
-0.21531
-0.22488
-0.13876
-0.11962
-0.014354
-0.07177
-0.16746
-0.1866
-0.033493
0.090909
0.19617
0.23445
0.20574
0.11962
0.033493
0.023923
0.043062
0.07177
0.15789
0.12919
0.08134
-0.033493
0.0047847
0.033493
0.090909
0.24402
0.34928
0.37799
0.32057
0.23445
-0.043062
-0.14833
-0.25359
-0.33971
-0.43541
-0.42584
-0.34928
-0.2823
-0.26316
-0.19617
-0.14833
-0.11962
-0.19617
-0.25359
-0.44498
-0.48325
-0.46411
-0.39713
-0.39713
-0.36842
-0.29187
-0.33014
-0.25359
-0.15789
-0.08134
-0.07177
-0.16746
-0.20574
-0.2823
-0.23445
-0.16746
-0.16746
-0.15789
-0.062201
0.033493
0.052632
0.07177
0.11962
0.14833
0.15789
0.20574
0.21531
0.19617
0.15789
0.19617
0.26316
0.24402
0.23445
0.16746
0.043062
0.023923
0.033493
0.08134
0.13876
0.22488
0.27273
0.25359
0.20574
0.23445
0.26316
0.29187
0.33971
0.2823
0.22488
0.14833
0.11962
0.033493
-0.043062
-0.062201
-0.033493
0.014354
0.052632
0.12919
0.023923
-0.08134
-0.14833
-0.24402
-0.23445
-0.19617
-0.08134
-0.11005
-0.19617
-0.25359
-0.21531
-0.20574
-0.10048
-0.014354
-0.052632
-0.10048
-0.15789
-0.16746
-0.23445
-0.2823
-0.39713
-0.51196
-0.56938
-0.54067
-0.42584
-0.39713
-0.29187
-0.27273
-0.33014
-0.39713
-0.36842
-0.29187
-0.26316
-0.15789
-0.11962
-0.07177
-0.0047847
0.033493
0.11962
0.10048
0.16746
0.062201
0.023923
-0.090909
-0.15789
-0.25359
-0.39713
-0.44498
-0.49282
-0.56938
-0.60766
-0.57895
-0.5311
-0.43541
-0.27273
-0.17703
-0.13876
-0.15789
-0.17703
-0.29187
-0.35885
-0.33014
-0.311
-0.29187
-0.29187
-0.19617
-0.1866
-0.062201
0.052632
0.11005
0.12919
0.090909
0.062201
-0.10048
-0.24402
-0.30144
-0.25359
-0.19617
-0.033493
0.11962
0.20574
0.17703
0.11005
0.033493
-0.052632
-0.090909
-0.11005
-0.17703
-0.1866
-0.16746
-0.12919
-0.10048
-0.0047847
0.13876
0.29187
0.4067
0.42584
0.2823
0.043062
-0.033493
-0.10048
-0.11962
-0.10048
-0.10048
-0.07177
-0.043062
0.043062
0.14833
0.22488
0.30144
0.33971
0.27273
0.13876
-0.08134
-0.24402
-0.39713
-0.35885
-0.21531
-0.16746
-0.21531
-0.30144
-0.311
-0.30144
-0.2823
-0.16746
-0.08134
-0.014354
0.052632
0.062201
0.0047847
-0.07177
-0.10048
-0.15789
-0.1866
-0.23445
-0.311
-0.43541
-0.48325
-0.44498
-0.4067
-0.26316
-0.15789
-0.08134
-0.12919
-0.13876
-0.22488
-0.29187
-0.33971
-0.25359
-0.13876
-0.043062
-0.043062
-0.12919
-0.34928
-0.48325
-0.41627
-0.20574
-0.043062
0.043062
-0.043062
-0.24402
-0.38756
-0.4067
-0.27273
-0.13876
0.10048
0.16746
0.16746
0.13876
0.12919
0.090909
0.062201
0.19617
0.22488
0.19617
0.16746
0.1866
0.1866
0.22488
0.4067
0.55024
0.62679
0.63636
0.60766
0.48325
0.44498
0.43541
0.38756
0.2823
0.17703
0.1866
0.24402
0.43541
0.61722
0.68421
0.55024
0.37799
0.25359
0.052632
-0.07177
-0.15789
-0.23445
-0.32057
-0.33014
-0.35885
-0.32057
-0.33971
-0.26316
-0.20574
-0.14833
0.014354
0.14833
0.27273
0.42584
0.55024
0.66507
0.62679
0.56938
0.36842
0.19617
-0.014354
-0.11005
-0.11962
-0.11962
0.052632
0.13876
0.21531
0.19617
0.20574
0.17703
0.21531
0.33971
0.34928
0.26316
0.17703
0.17703
0.21531
0.35885
0.5311
0.69378
0.72249
0.72249
0.74163
0.70335
0.72249
0.69378
0.58852
0.44498
0.38756
0.34928
0.27273
0.20574
0.16746
0.15789
0.1866
0.22488
0.30144
0.23445
0.1866
0.15789
0.11962
0.090909
0.043062
0.062201
-0.043062
-0.0047847
0.13876
0.35885
0.41627
0.50239
0.52153
0.54067
0.50239
0.43541
0.2823
0.10048
0.0047847
-0.052632
-0.043062
-0.014354
-0.0047847
-0.014354
-0.07177
-0.033493
-0.033493
-0.023923
-0.014354
0.043062
0.11005
0.1866
0.30144
0.33971
0.33014
0.33014
0.34928
0.38756
0.34928
0.38756
0.29187
0.22488
0.16746
0.13876
0.10048
0.090909
0.11005
0.12919
0.11005
0.16746
0.21531
0.19617
0.21531
0.19617
0.14833
0.062201
-0.090909
-0.16746
-0.23445
-0.17703
-0.08134
-0.033493
-0.07177
-0.10048
0.0047847
0.023923
0.014354
0.062201
0.090909
0.07177
0.07177
0.07177
-0.0047847
-0.0047847
0.090909
0.11005
0.08134
0.033493
0.0047847
0.014354
0.043062
0.11005
0.17703
0.15789
0.1866
0.17703
0.11005
0.08134
0.07177
0.090909
0.0047847
0.11962
0.12919
0.22488
0.1866
0.11005
0.014354
-0.13876
-0.13876
-0.16746
-0.17703
-0.1866
-0.15789
-0.14833
-0.08134
0.052632
0.090909
0.11962
0.16746
0.24402
0.27273
0.23445
0.21531
0.1866
0.10048
0.043062
0.043062
-0.023923
-0.10048
-0.15789
-0.27273
-0.33971
-0.29187
-0.17703
-0.14833
-0.08134
0.014354
0.16746
0.29187
0.42584
0.44498
0.34928
0.24402
0.21531
0.20574
0.19617
0.16746
0.16746
-0.0047847
-0.014354
0.033493
0.11005
0.052632
-0.033493
-0.19617
-0.311
-0.30144
-0.25359
-0.23445
-0.20574
-0.11005
-0.023923
0.052632
0.12919
0.16746
0.24402
0.19617
0.17703
0.014354
-0.08134
-0.20574
-0.17703
-0.15789
-0.1866
-0.17703
-0.19617
-0.14833
-0.10048
0.014354
-0.062201
-0.090909
-0.11005
-0.15789
-0.20574
-0.22488
-0.10048
-0.0047847
0.07177
0.07177
0.043062
-0.11005
-0.21531
-0.1866
-0.19617
-0.20574
-0.23445
-0.30144
-0.39713
-0.47368
-0.41627
-0.4067
-0.311
-0.23445
-0.13876
-0.08134
0.0047847
0.10048
0.07177
0.11962
0.14833
0.14833
0.0047847
-0.17703
-0.29187
-0.4067
-0.4067
-0.26316
-0.090909
0.10048
0.16746
0.12919
0.052632
-0.023923
-0.062201
-0.07177
-0.13876
-0.12919
-0.17703
-0.19617
-0.1866
-0.08134
-0.023923
-0.07177
-0.07177
-0.13876
-0.26316
-0.23445
-0.023923
0.24402
0.34928
0.35885
0.15789
-0.014354
-0.11005
-0.11005
-0.13876
-0.12919
-0.07177
-0.15789
-0.19617
-0.17703
-0.0047847
0.10048
0.16746
0.11005
0.062201
-0.023923
-0.062201
-0.023923
-0.062201
-0.090909
-0.11005
-0.17703
-0.24402
-0.26316
-0.25359
-0.22488
-0.17703
-0.12919
-0.20574
-0.35885
-0.47368
-0.43541
-0.2823
-0.07177
0.1866
0.34928
0.27273
0.17703
0.062201
-0.11962
-0.11962
-0.11962
-0.090909
-0.15789
-0.20574
-0.25359
-0.29187
-0.32057
-0.32057
-0.26316
-0.20574
-0.12919
-0.14833
-0.22488
-0.311
-0.33971
-0.41627
-0.47368
-0.51196
-0.55024
-0.58852
-0.6555
-0.54067
-0.4067
-0.25359
-0.10048
-0.062201
-0.062201
-0.11005
-0.11005
-0.19617
-0.1866
-0.12919
-0.07177
-0.014354
-0.033493
-0.12919
-0.36842
-0.42584
-0.41627
-0.29187
-0.11962
-0.014354
0.13876
0.15789
0.11005
-0.023923
-0.1866
-0.32057
-0.311
-0.19617
-0.052632
0.11962
0.19617
0.20574
0.08134
0.043062
0.1866
0.17703
0.21531
0.10048
0.033493
-0.16746
-0.21531
-0.17703
-0.14833
-0.052632
-0.014354
-0.090909
-0.29187
-0.41627
-0.48325
-0.51196
-0.4067
-0.20574
-0.023923
0.062201
0.07177
-0.062201
-0.15789
-0.19617
-0.10048
0.023923
0.12919
0.19617
0.13876
0.033493
-0.052632
-0.033493
0.0047847
0.10048
0.22488
0.15789
0.062201
0.08134
0.090909
0.12919
0.13876
0.14833
0.13876
0.15789
0.12919
0.23445
0.20574
0.24402
0.29187
0.27273
0.17703
0.14833
0.15789
0.24402
0.30144
0.36842
0.39713
0.43541
0.42584
0.42584
0.26316
0.16746
0.17703
0.23445
0.1866
0.052632
-0.0047847
-0.10048
-0.0047847
0.07177
0.16746
0.11005
0.11005
0.11005
0.0047847
-0.043062
-0.08134
0.014354
0.13876
0.37799
0.52153
0.59809
0.63636
0.6555
0.64593
0.60766
0.57895
0.45455
0.32057
0.16746
0.08134
-0.052632
-0.17703
-0.1866
-0.19617
-0.16746
-0.043062
0.10048
0.23445
0.33014
0.37799
0.33014
0.25359
0.16746
0.20574
0.12919
0.090909
0.08134
0.11962
0.14833
0.14833
0.15789
0.08134
0.10048
0.19617
0.22488
0.1866
0.090909
0.08134
-0.014354
-0.10048
-0.13876
-0.16746
-0.12919
-0.07177
0.14833
0.11962
0.16746
0.12919
0.07177
0.014354
0.033493
0.062201
0.062201
0.090909
0.13876
0.16746
0.090909
0.0047847
-0.16746
-0.37799
-0.44498
-0.35885
-0.17703
-0.043062
0.062201
0.13876
0.16746
0.26316
0.33971
0.36842
0.26316
0.21531
0.062201
-0.07177
-0.12919
-0.14833
-0.22488
-0.30144
-0.34928
-0.46411
-0.52153
-0.38756
-0.12919
0.16746
0.33014
0.41627
0.37799
0.29187
0.21531
0.13876
-0.052632
-0.14833
-0.19617
-0.11962
-0.043062
0.13876
0.38756
0.48325
0.49282
0.50239
0.39713
0.26316
0.052632
-0.090909
-0.21531
-0.21531
-0.21531
-0.17703
-0.20574
-0.10048
0.08134
0.1866
0.1866
0.15789
0.10048
-0.014354
-0.052632
-0.14833
-0.29187
-0.37799
-0.43541
-0.38756
-0.33971
-0.20574
-0.16746
-0.13876
-0.11005
-0.033493
0.11962
0.17703
0.20574
0.14833
0.023923
-0.062201
-0.21531
-0.30144
-0.44498
-0.36842
-0.30144
-0.23445
-0.11962
0.052632
0.17703
0.22488
0.2823
0.29187
0.25359
0.21531
0.22488
0.11962
0.14833
0.23445
0.34928
0.39713
0.4067
0.46411
0.38756
0.45455
0.55981
0.67464
0.71292
0.63636
0.63636
0.56938
0.55981
0.55024
0.54067
0.58852
0.64593
0.73206
0.70335
0.6555
0.63636
0.61722
0.60766
0.68421
0.7512
0.67464
0.5311
0.35885
0.1866
0.10048
0.062201
0.08134
-0.10048
-0.26316
-0.44498
-0.49282
-0.44498
-0.1866
0.023923
0.11962
0.11962
0.062201
-0.090909
-0.22488
-0.13876
-0.0047847
0.17703
0.16746
0.10048
-0.033493
-0.08134
0.014354
0.13876
0.15789
0.043062
-0.062201
-0.19617
-0.25359
-0.27273
-0.25359
-0.34928
-0.33014
-0.27273
-0.19617
-0.090909
-0.07177
-0.0047847
0.043062
0.062201
0.10048
-0.014354
-0.090909
-0.21531
-0.2823
-0.29187
-0.19617
-0.14833
-0.20574
-0.1866
-0.1866
-0.13876
-0.1866
-0.20574
-0.19617
-0.21531
-0.19617
-0.062201
0.07177
0.11962
0.15789
0.13876
0.13876
0.11005
0.07177
-0.014354
-0.1866
-0.22488
-0.23445
-0.27273
-0.33014
-0.33971
-0.35885
-0.5311
-0.61722
-0.7799
-0.89474
-0.88517
-0.83732
-0.81818
-0.79904
-0.66507
-0.55024
-0.41627
-0.30144
-0.16746
-0.11962
-0.052632
-0.014354
-0.07177
-0.21531
-0.33971
-0.24402
-0.17703
-0.07177
-0.0047847
-0.062201
-0.19617
-0.32057
-0.36842
-0.48325
-0.44498
-0.32057
-0.13876
-0.033493
0.033493
0.062201
0.014354
-0.062201
-0.033493
0.023923
0.12919
0.23445
0.2823
0.15789
0.11962
0.090909
0.08134
0.043062
-0.0047847
-0.014354
-0.13876
-0.25359
-0.36842
-0.41627
-0.45455
-0.34928
-0.19617
-0.10048
-0.052632
-0.014354
0.0047847
-0.043062
-0.043062
-0.090909
-0.16746
-0.21531
-0.22488
-0.13876
-0.07177
0.090909
0.17703
0.08134
0.023923
0.033493
0.08134
0.1866
0.33971
0.41627
0.44498
0.34928
0.17703
-0.033493
-0.26316
-0.311
-0.311
-0.23445
-0.1866
-0.17703
-0.27273
-0.32057
-0.34928
-0.30144
-0.27273
-0.30144
-0.29187
-0.39713
-0.42584
-0.35885
-0.2823
-0.1866
-0.08134
0.043062
0.090909
0.10048
0.062201
-0.023923
-0.16746
-0.19617
-0.14833
-0.11962
-0.052632
-0.014354
-0.033493
-0.11005
-0.08134
0.033493
0.17703
0.36842
0.44498
0.4067
0.24402
0.13876
0.043062
0.023923
0.10048
0.15789
0.19617
0.10048
0.062201
0.033493
0.062201
0.11962
0.29187
0.44498
0.51196
0.47368
0.36842
0.24402
0.21531
0.2823
0.29187
0.22488
0.1866
0.10048
0.11005
0.20574
0.37799
0.37799
0.32057
0.19617
0.023923
-0.07177
-0.14833
-0.043062
-0.08134
-0.033493
0.014354
0.11005
0.22488
0.32057
0.4067
0.33014
0.2823
0.27273
0.24402
0.10048
-0.062201
-0.13876
-0.20574
-0.14833
-0.11962
-0.090909
-0.13876
-0.07177
-0.023923
-0.052632
-0.11005
-0.20574
-0.29187
-0.44498
-0.49282
-0.47368
-0.39713
-0.25359
-0.12919
-0.062201
-0.090909
-0.16746
-0.25359
-0.311
-0.311
-0.26316
-0.23445
-0.30144
-0.24402
-0.2823
-0.33971
-0.41627
-0.41627
-0.4067
-0.45455
-0.47368
-0.50239
-0.5311
-0.45455
-0.33971
-0.23445
-0.1866
-0.11962
-0.14833
-0.24402
-0.35885
-0.36842
-0.27273
-0.052632
0.14833
0.12919
-0.090909
-0.33971
-0.44498
-0.46411
-0.39713
-0.36842
-0.33014
-0.34928
-0.35885
-0.311
-0.34928
-0.34928
-0.27273
-0.19617
-0.15789
-0.15789
-0.23445
-0.46411
-0.61722
-0.59809
-0.44498
-0.2823
-0.14833
-0.033493
-0.052632
-0.08134
-0.16746
-0.26316
-0.2823
-0.17703
-0.023923
0.052632
-0.0047847
-0.12919
-0.23445
-0.33014
-0.27273
-0.21531
-0.17703
-0.13876
-0.12919
-0.16746
-0.311
-0.37799
-0.42584
-0.41627
-0.29187
-0.12919
0.0047847
0.062201
0.062201
-0.07177
-0.20574
-0.24402
-0.15789
-0.062201
-0.08134
-0.10048
-0.27273
-0.38756
-0.42584
-0.25359
-0.12919
0.052632
0.19617
0.27273
0.26316
0.17703
0.19617
0.33014
0.55981
0.76077
0.68421
0.35885
-0.10048
-0.52153
-0.81818
-0.83732
-0.55024
-0.090909
0.32057
0.5311
0.55024
0.311
0.13876
0.11005
0.1866
0.22488
0.33014
0.34928
0.26316
0.11962
-0.052632
-0.13876
-0.1866
-0.033493
0.17703
0.41627
0.58852
0.60766
0.43541
0.052632
-0.19617
-0.4067
-0.47368
-0.38756
-0.21531
-0.13876
-0.19617
-0.26316
-0.35885
-0.42584
-0.37799
-0.23445
-0.15789
-0.14833
-0.14833
-0.17703
-0.23445
-0.27273
-0.22488
-0.17703
-0.043062
0.11962
0.15789
0.11005
-0.052632
-0.11962
-0.21531
-0.23445
-0.21531
-0.23445
-0.30144
-0.311
-0.27273
-0.2823
-0.19617
-0.08134
-0.023923
-0.033493
-0.14833
-0.1866
-0.33014
-0.29187
-0.17703
-0.033493
-0.014354
0.023923
0.08134
0.014354
-0.023923
-0.052632
0.0047847
0.043062
0.13876
0.15789
0.11005
0.043062
0.014354
0.023923
0.052632
0.17703
0.29187
0.33971
0.36842
0.33014
0.311
0.29187
0.39713
0.4067
0.33014
0.21531
0.12919
0.052632
0.023923
0.1866
0.35885
0.46411
0.52153
0.55024
0.52153
0.39713
0.34928
0.21531
0.15789
0.14833
0.23445
0.23445
0.12919
0.08134
0.033493
0.043062
0.07177
0.20574
0.1866
0.1866
0.1866
0.15789
0.08134
0.043062
0.08134
0.0047847
0.0047847
-0.023923
-0.033493
-0.052632
-0.043062
0.023923
0.033493
0.052632
0.08134
0.08134
-0.033493
-0.21531
-0.34928
-0.44498
-0.43541
-0.36842
-0.32057
-0.27273
-0.07177
0.13876
0.26316
0.36842
0.38756
0.39713
0.41627
0.52153
0.5311
0.4067
0.27273
0.20574
0.21531
0.1866
0.21531
0.16746
0.043062
-0.062201
-0.07177
-0.07177
-0.11005
-0.08134
-0.10048
-0.15789
-0.26316
-0.29187
-0.33014
-0.1866
0.014354
0.24402
0.4067
0.50239
0.54067
0.54067
0.55024
0.66507
0.66507
0.55981
0.34928
0.23445
-0.0047847
-0.11005
-0.20574
-0.25359
-0.25359
-0.1866
-0.033493
0.07177
0.26316
0.45455
0.61722
0.66507
0.64593
0.52153
0.311
0.12919
0.043062
-0.023923
-0.10048
-0.062201
0.033493
0.11005
0.25359
0.41627
0.54067
0.60766
0.67464
0.66507
0.54067
0.4067
0.30144
0.17703
0.052632
0.12919
0.21531
0.32057
0.37799
0.43541
0.47368
0.42584
0.42584
0.38756
0.32057
0.30144
0.36842
0.38756
0.35885
0.35885
0.19617
0.13876
0.10048
0.11962
0.12919
0.0047847
-0.023923
-0.16746
-0.22488
-0.23445
-0.14833
-0.14833
-0.1866
-0.17703
-0.24402
-0.25359
-0.26316
-0.12919
-0.08134
-0.0047847
0.12919
0.14833
0.15789
0.11962
0.15789
0.11005
0.052632
0.08134
0.11962
0.13876
0.21531
0.25359
0.13876
0.062201
0.033493
0.052632
0.052632
0.07177
0.090909
0.043062
0.0047847
0.052632
0.10048
0.22488
0.37799
0.54067
0.5311
0.47368
0.41627
0.43541
0.48325
0.62679
0.70335
0.69378
0.66507
0.63636
0.57895
0.47368
0.41627
0.26316
0.13876
0.090909
0.1866
0.33014
0.41627
0.51196
0.51196
0.48325
0.46411
0.49282
0.50239
0.50239
0.5311
0.47368
0.32057
0.16746
0.07177
0.023923
0.033493
0.19617
0.2823
0.30144
0.23445
0.1866
0.090909
0.033493
0.023923
0.014354
0.014354
0.043062
0.16746
0.14833
0.17703
0.11962
0.014354
-0.052632
-0.033493
-0.0047847
-0.07177
-0.12919
-0.13876
-0.090909
-0.08134
-0.062201
-0.07177
-0.11005
-0.07177
-0.10048
-0.21531
-0.39713
-0.43541
-0.38756
-0.33014
-0.29187
-0.24402
-0.19617
-0.24402
-0.19617
-0.17703
-0.1866
-0.21531
-0.24402
-0.20574
-0.17703
-0.033493
-0.033493
-0.052632
-0.090909
-0.062201
-0.11005
-0.10048
-0.11005
-0.13876
-0.15789
-0.13876
-0.052632
-0.023923
-0.033493
-0.0047847
-0.052632
-0.090909
-0.15789
-0.19617
-0.26316
-0.25359
-0.1866
-0.10048
-0.014354
0.10048
0.2823
0.26316
0.29187
0.35885
0.39713
0.33971
0.20574
0.10048
-0.08134
-0.11962
-0.13876
-0.13876
-0.1866
-0.22488
-0.08134
-0.10048
-0.07177
-0.14833
-0.19617
-0.20574
-0.10048
0.052632
0.090909
0.13876
0.043062
-0.033493
-0.17703
-0.22488
-0.24402
-0.16746
-0.0047847
0.10048
0.12919
-0.0047847
-0.090909
-0.15789
-0.19617
-0.17703
-0.062201
-0.0047847
-0.043062
-0.033493
-0.13876
-0.16746
-0.08134
0.043062
0.19617
0.22488
0.21531
0.014354
-0.2823
-0.60766
-0.76077
-0.84689
-0.83732
-0.70335
-0.59809
-0.57895
-0.62679
-0.55981
-0.47368
-0.27273
-0.062201
0.062201
0.023923
-0.12919
-0.17703
-0.27273
-0.26316
-0.24402
-0.22488
-0.26316
-0.29187
-0.23445
-0.24402
-0.12919
-0.08134
-0.052632
-0.12919
-0.25359
-0.30144
-0.39713
-0.37799
-0.311
-0.27273
-0.34928
-0.39713
-0.46411
-0.54067
-0.51196
-0.45455
-0.33971
-0.33014
-0.26316
-0.37799
-0.55024
-0.73206
-0.85646
-0.88517
-0.89474
-0.73206
-0.67464
-0.59809
-0.49282
-0.32057
-0.15789
-0.10048
-0.014354
-0.014354
-0.090909
-0.13876
-0.11962
-0.24402
-0.38756
-0.46411
-0.52153
-0.52153
-0.45455
-0.38756
-0.34928
-0.33014
-0.29187
-0.24402
-0.20574
-0.17703
-0.11962
-0.17703
-0.15789
-0.17703
-0.20574
-0.32057
-0.4067
-0.36842
-0.32057
-0.15789
-0.014354
0.062201
0.052632
0.014354
0.023923
0.033493
0.043062
0.0047847
0.062201
-0.033493
-0.13876
-0.24402
-0.34928
-0.25359
-0.090909
0.062201
0.052632
-0.052632
-0.1866
-0.33971
-0.37799
-0.30144
-0.21531
-0.22488
-0.20574
-0.16746
-0.19617
-0.21531
-0.19617
-0.11005
-0.0047847
0.15789
0.19617
0.07177
-0.07177
-0.21531
-0.22488
-0.1866
-0.043062
-0.023923
0.033493
0.023923
0.07177
0.043062
0.052632
0.20574
0.30144
0.43541
0.42584
0.47368
0.39713
0.37799
0.37799
0.39713
0.36842
0.38756
0.4067
0.30144
0.22488
0.10048
-0.052632
-0.11962
-0.13876
-0.014354
0.023923
0.052632
0.11005
0.10048
0.07177
0.13876
0.311
0.42584
0.5311
0.5311
0.49282
0.43541
0.42584
0.43541
0.4067
0.33971
0.36842
0.42584
0.37799
0.36842
0.21531
0.14833
0.090909
0.07177
0.090909
0.043062
0.090909
0.10048
0.12919
0.14833
0.27273
0.311
0.37799
0.45455
0.50239
0.54067
0.59809
0.66507
0.60766
0.43541
0.39713
0.36842
0.50239
0.58852
0.70335
0.63636
0.5311
0.43541
0.4067
0.38756
0.37799
0.22488
0.033493
-0.13876
-0.16746
-0.12919
-0.07177
0.043062
0.1866
0.14833
0.12919
0.07177
0.023923
-0.052632
-0.07177
-0.052632
-0.043062
0.0047847
0.090909
0.25359
0.37799
0.48325
0.44498
0.19617
-0.14833
-0.37799
-0.41627
-0.35885
-0.17703
-0.08134
-0.08134
-0.14833
-0.1866
-0.14833
-0.11962
0.033493
-0.014354
-0.19617
-0.4067
-0.46411
-0.38756
-0.311
-0.15789
-0.08134
0.033493
0.16746
0.25359
0.19617
-0.043062
-0.25359
-0.45455
-0.58852
-0.55981
-0.42584
-0.17703
0.014354
0.24402
0.29187
0.2823
0.23445
0.26316
0.24402
0.30144
0.39713
0.45455
0.42584
0.38756
0.36842
0.37799
0.46411
0.58852
0.66507
0.60766
0.44498
0.311
0.14833
0.15789
0.15789
0.2823
0.41627
0.57895
0.73206
0.63636
0.45455
0.29187
0.21531
0.1866
0.33971
0.51196
0.54067
0.55981
0.46411
0.39713
0.23445
0.17703
0.20574
0.22488
0.08134
-0.023923
-0.10048
-0.1866
-0.11005
-0.023923
0.052632
0.14833
0.13876
0.21531
0.21531
0.30144
0.32057
0.30144
0.311
0.4067
0.42584
0.44498
0.48325
0.37799
0.21531
0.062201
-0.062201
-0.07177
-0.062201
-0.090909
-0.15789
-0.22488
-0.29187
-0.33014
-0.41627
-0.42584
-0.32057
-0.2823
-0.2823
-0.36842
-0.37799
-0.46411
-0.41627
-0.27273
-0.062201
0.052632
0.11962
0.22488
0.11005
0.11005
0.16746
0.12919
0.043062
-0.17703
-0.38756
-0.59809
-0.67464
-0.57895
-0.46411
-0.36842
-0.32057
-0.20574
-0.16746
-0.11005
-0.033493
-0.052632
-0.11005
-0.22488
-0.23445
-0.15789
-0.033493
0.10048
0.19617
0.16746
0.19617
0.15789
0.20574
0.24402
0.24402
0.10048
-0.12919
-0.16746
-0.20574
-0.20574
-0.19617
-0.17703
-0.20574
-0.22488
-0.13876
-0.08134
0.043062
0.11005
0.11962
-0.0047847
-0.16746
-0.23445
-0.25359
-0.25359
-0.30144
-0.23445
-0.27273
-0.25359
-0.1866
-0.1866
-0.17703
-0.20574
-0.14833
-0.1866
-0.1866
-0.17703
-0.11962
-0.052632
0.023923
0.062201
0.043062
0.07177
0.08134
0.023923
-0.08134
-0.21531
-0.21531
-0.17703
0.033493
0.20574
0.33971
0.311
0.2823
0.21531
0.043062
-0.10048
-0.19617
-0.20574
-0.25359
-0.16746
-0.090909
-0.10048
-0.10048
-0.11005
-0.12919
-0.19617
-0.20574
-0.21531
-0.26316
-0.2823
-0.23445
-0.16746
-0.13876
-0.0047847
-0.07177
-0.11005
-0.090909
-0.014354
0.07177
0.11005
0.16746
0.11962
0.07177
-0.014354
-0.014354
-0.062201
-0.11005
-0.043062
0.062201
0.11005
0.13876
0.062201
-0.090909
-0.17703
-0.25359
-0.29187
-0.33014
-0.35885
-0.26316
-0.27273
-0.21531
-0.22488
-0.25359
-0.34928
-0.36842
-0.311
-0.29187
-0.21531
-0.1866
-0.19617
-0.25359
-0.311
-0.33971
-0.45455
-0.5311
-0.58852
-0.49282
-0.42584
-0.29187
-0.23445
-0.2823
-0.33014
-0.39713
-0.51196
-0.68421
-0.66507
-0.68421
-0.68421
-0.69378
-0.67464
-0.59809
-0.56938
-0.49282
-0.48325
-0.44498
-0.41627
-0.311
-0.26316
-0.34928
-0.41627
-0.52153
-0.60766
-0.62679
-0.50239
-0.30144
-0.07177
0.1866
0.26316
0.2823
0.22488
0.21531
0.20574
0.22488
0.22488
0.14833
0.062201
0.0047847
0.052632
0.043062
0.12919
0.24402
0.36842
0.45455
0.45455
0.41627
0.21531
0.023923
-0.11005
-0.19617
-0.30144
-0.27273
-0.19617
-0.1866
-0.20574
-0.27273
-0.23445
-0.2823
-0.24402
-0.12919
-0.052632
0.10048
0.19617
0.26316
0.21531
0.16746
0.07177
-0.08134
-0.15789
-0.19617
-0.19617
-0.21531
-0.090909
0.023923
0.13876
0.22488
0.21531
0.11005
-0.11005
-0.26316
-0.45455
-0.55024
-0.55024
-0.39713
-0.24402
-0.11005
0.090909
0.14833
0.12919
0.043062
0.062201
0.023923
-0.07177
-0.1866
-0.46411
-0.7512
-0.95215
-1
-0.99043
-0.91388
-0.78947
-0.63636
-0.48325
-0.36842
-0.29187
-0.34928
-0.34928
-0.30144
-0.20574
-0.12919
-0.023923
0.07177
-0.033493
-0.20574
-0.38756
-0.44498
-0.37799
-0.26316
-0.10048
-0.062201
-0.07177
-0.11005
-0.25359
-0.43541
-0.52153
-0.43541
-0.38756
-0.25359
-0.15789
-0.090909
-0.08134
-0.10048
-0.062201
-0.10048
-0.090909
-0.052632
-0.023923
-0.043062
-0.0047847
0.0047847
0.043062
0.052632
0.0047847
-0.0047847
-0.12919
-0.17703
-0.32057
-0.36842
-0.41627
-0.33014
-0.25359
-0.1866
-0.10048
-0.033493
-0.023923
-0.023923
0.043062
0.08134
0.15789
0.27273
0.26316
0.26316
0.20574
0.23445
0.311
0.39713
0.47368
0.38756
0.34928
0.311
0.39713
0.29187
0.13876
0.033493
-0.023923
-0.0047847
0.062201
0.1866
0.17703
0.25359
0.311
0.37799
0.34928
0.33971
0.45455
0.50239
0.55981
0.55981
0.45455
0.33971
0.311
0.33971
0.36842
0.41627
0.46411
0.41627
0.26316
0.11962
-0.014354
-0.062201
-0.014354
0.07177
0.23445
0.2823
0.35885
0.34928
0.30144
0.26316
0.32057
0.34928
0.4067
0.55024
0.55024
0.47368
0.34928
0.2823
0.19617
0.090909
0.11962
0.13876
0.24402
0.311
0.43541
0.37799
0.2823
0.19617
0.11962
0.11005
0.22488
0.37799
0.43541
0.43541
0.42584
0.33014
0.27273
0.24402
0.30144
0.35885
0.38756
0.33971
0.27273
0.16746
0.08134
0.08134
0.062201
0.15789
0.22488
0.22488
0.20574
0.1866
0.30144
0.33014
0.33014
0.29187
0.311
0.25359
0.2823
0.2823
0.25359
0.34928
0.48325
0.58852
0.54067
0.35885
0.1866
0.08134
0.023923
0.10048
0.20574
0.22488
0.33014
0.39713
0.42584
0.38756
0.33014
0.311
0.24402
0.34928
0.41627
0.44498
0.33014
0.14833
-0.090909
-0.22488
-0.16746
-0.07177
0.17703
0.46411
0.80861
0.95215
1
0.98086
0.86603
0.72249
0.64593
0.64593
0.61722
0.52153
0.35885
0.11005
-0.13876
-0.32057
-0.33014
-0.33971
-0.21531
-0.052632
0.023923
0.023923
-0.052632
-0.062201
-0.13876
-0.11962
-0.08134
-0.062201
-0.1866
-0.22488
-0.29187
-0.33971
-0.32057
-0.25359
-0.13876
-0.090909
0.014354
0.052632
0.0047847
-0.033493
-0.13876
-0.17703
-0.17703
-0.07177
0.0047847
-0.07177
-0.2823
-0.44498
-0.5311
-0.5311
-0.33971
-0.14833
0.0047847
0.090909
0.12919
0.08134
-0.08134
-0.11962
-0.1866
-0.12919
-0.033493
0.12919
0.25359
0.26316
0.32057
0.19617
0.033493
-0.090909
-0.07177
-0.062201
0.043062
0.1866
0.2823
0.311
0.2823
0.32057
0.30144
0.41627
0.55981
0.63636
0.57895
0.43541
0.37799
0.311
0.34928
0.33971
0.32057
0.26316
0.30144
-0.78947
