-0.06383
-0.035461
-0.10165
-0.22931
-0.43735
-0.46099
-0.43262
-0.33806
-0.34279
-0.3948
-0.45154
-0.47518
-0.3948
-0.22931
-0.068558
-0.092199
-0.22931
-0.39007
-0.52246
-0.52719
-0.49409
-0.44208
-0.47518
-0.49409
-0.52246
-0.60757
-0.68322
-0.62648
-0.46572
-0.25296
-0.021277
0.01182
-0.059102
-0.14894
-0.17258
-0.21986
-0.2435
-0.30496
-0.38534
-0.43262
-0.4279
-0.30969
-0.14894
-0.078014
-0.044917
-0.16785
-0.22459
-0.26714
-0.30024
-0.3617
-0.45626
-0.50827
-0.51773
-0.41371
-0.25768
-0.040189
0.049645
0.082742
0.17258
0.2435
0.30024
0.2766
0.2766
0.20567
0.08747
-0.044917
-0.20095
-0.27187
-0.28132
-0.16785
-0.0070922
0.08747
0.15839
0.21986
0.22459
0.15366
0.12057
0.13002
0.15839
0.14894
0.13002
0.026005
-0.06383
-0.068558
-0.059102
-0.040189
-0.06383
-0.10638
-0.16785
-0.16312
-0.082742
-0.021277
-0.0023641
0.044917
0.10638
0.23877
0.23877
0.28132
0.27187
0.2104
0.14421
0.10638
0.08747
0.096927
0.08747
0.01182
-0.10165
-0.096927
-0.054374
0.0070922
-0.0070922
0.059102
0.15839
0.18676
0.20095
0.17258
0.10165
0.040189
-0.035461
-0.096927
-0.21986
-0.2766
-0.30496
-0.23877
-0.040189
0.25296
0.43735
0.50827
0.39953
0.25768
0.073286
-0.078014
-0.092199
-0.092199
-0.10165
-0.11584
-0.11111
-0.10638
-0.082742
-0.073286
-0.068558
-0.16312
-0.29551
-0.39007
-0.48463
-0.43262
-0.3948
-0.27187
-0.27187
-0.27187
-0.2435
-0.15839
-0.078014
0.06383
0.096927
0.10165
0.14894
0.11584
0.096927
0.030733
0.10638
0.16785
0.28132
0.35697
0.21513
0.035461
-0.19149
-0.2435
-0.16785
-0.13948
-0.12057
-0.20095
-0.26714
-0.32388
-0.21513
-0.19622
-0.22931
-0.25296
-0.22931
-0.16785
-0.15366
-0.13002
-0.16312
-0.1253
-0.11111
-0.044917
-0.1253
-0.078014
-0.068558
-0.026005
-0.0023641
0.01182
-0.040189
-0.11584
-0.18676
-0.17258
-0.22931
-0.26714
-0.32388
-0.25768
-0.13002
0.021277
0.021277
-0.13948
-0.36643
-0.52719
-0.61702
-0.40898
-0.22931
-0.13475
-0.082742
-0.0070922
0.096927
0.2104
0.18676
0.13948
0.13475
0.08747
-0.021277
-0.073286
-0.13002
-0.12057
-0.096927
-0.082742
-0.10165
-0.13475
-0.16312
-0.20095
-0.21986
-0.21513
-0.2435
-0.25296
-0.30024
-0.26241
-0.21986
-0.19622
-0.19622
-0.25296
-0.35225
-0.3617
-0.33806
-0.29078
-0.2104
-0.092199
-0.08747
-0.10165
-0.14894
-0.25296
-0.25768
-0.2104
0.026005
0.16785
0.16312
0.035461
-0.073286
-0.18203
-0.14894
-0.073286
-0.0023641
-0.0023641
-0.021277
0.016548
0.021277
-0.049645
-0.096927
-0.17258
-0.23404
-0.22459
-0.25768
-0.35225
-0.47518
-0.56974
-0.60284
-0.57447
-0.49409
-0.39953
-0.31442
-0.26714
-0.22459
-0.13002
-0.11584
-0.049645
-0.078014
-0.13002
-0.18676
-0.20095
-0.2104
-0.23877
-0.21986
-0.20567
-0.15839
-0.14421
-0.1773
-0.29551
-0.3948
-0.38061
-0.31442
-0.14894
-0.078014
-0.040189
-0.10638
-0.19622
-0.22931
-0.21513
-0.1253
0.0070922
0.20095
0.25296
0.44208
0.60757
0.6643
0.52719
0.28132
0.096927
-0.0023641
-0.078014
-0.035461
-0.016548
0.06383
0.026005
0.01182
-0.082742
-0.030733
0.0023641
0.059102
0.068558
0.044917
0.082742
0.054374
0.08747
0.096927
0.030733
-0.073286
-0.096927
-0.14421
-0.11584
-0.054374
0.078014
0.24823
0.34279
0.33333
0.2766
0.2104
0.14894
0.12057
0.08747
0.054374
0.08747
0.092199
0.082742
0.13475
0.14894
0.16785
0.12057
0.073286
0.0023641
-0.08747
-0.078014
-0.016548
0.054374
0.06383
0.030733
-0.073286
-0.1773
-0.29078
-0.39007
-0.43262
-0.40426
-0.29551
-0.2435
-0.23877
-0.30024
-0.27187
-0.23404
-0.15366
-0.068558
-0.035461
-0.11111
-0.14894
-0.15366
-0.14894
-0.082742
0.0070922
0.01182
-0.11111
-0.24823
-0.33806
-0.3948
-0.35225
-0.28132
-0.20567
-0.044917
0.078014
0.15839
0.068558
-0.059102
-0.19622
-0.1773
-0.078014
0.026005
0.13002
0.15366
0.16785
0.13002
0.06383
-0.040189
-0.06383
-0.08747
-0.19149
-0.23404
-0.26714
-0.26241
-0.27187
-0.23404
-0.18203
-0.13475
-0.040189
-0.0023641
-0.016548
-0.10165
-0.17258
-0.1773
-0.1253
-0.01182
0.096927
0.15366
0.11584
0.17258
0.21986
0.32388
0.39007
0.35697
0.23404
0.040189
-0.078014
-0.22459
-0.2435
-0.20095
-0.06383
0.030733
0.13002
0.14894
0.14894
0.21513
0.35697
0.62175
0.70213
0.63593
0.33333
-0.01182
-0.31442
-0.43735
-0.39007
-0.29551
-0.078014
0.13002
0.28605
0.34279
0.30969
0.23404
0.13475
0.096927
0.12057
0.14421
0.16785
0.16312
0.11111
-0.021277
-0.08747
-0.068558
-0.016548
-0.021277
0.035461
0.12057
0.20567
0.2766
0.25768
0.18676
0.016548
0.044917
0.030733
-0.030733
-0.21986
-0.3617
-0.31442
-0.11584
0.11111
0.21986
0.21986
0.21513
0.26241
0.29551
0.30969
0.27187
0.15839
-0.021277
-0.15839
-0.2766
-0.29551
-0.29078
-0.27187
-0.21513
-0.082742
0.14421
0.35225
0.34279
0.23404
-0.0070922
-0.19622
-0.3617
-0.44208
-0.34279
-0.22459
-0.078014
0.049645
0.10165
0.1253
0.15366
0.13475
0.01182
-0.11584
-0.1773
-0.20095
-0.19149
-0.16785
-0.10165
-0.11111
-0.14894
-0.23877
-0.31915
-0.37589
-0.36643
-0.32388
-0.35697
-0.39007
-0.38061
-0.30024
-0.18676
0.021277
0.13475
0.22931
0.21986
0.22931
0.13475
-0.0070922
-0.1253
-0.31442
-0.45154
-0.47518
-0.36643
-0.2435
-0.15839
-0.1253
-0.13002
-0.068558
-0.026005
0.054374
-0.044917
-0.16785
-0.30969
-0.38534
-0.39007
-0.32388
-0.25296
-0.22459
-0.22459
-0.22459
-0.23404
-0.1773
-0.078014
0.035461
0.035461
0.073286
-0.021277
-0.11584
-0.25768
-0.22931
-0.15839
-0.12057
-0.15839
-0.20567
-0.23404
-0.21986
-0.12057
-0.0023641
0.092199
0.08747
0.016548
-0.096927
-0.096927
-0.1253
-0.14894
-0.16312
-0.19622
-0.092199
0.021277
0.054374
0.049645
-0.11111
-0.21986
-0.23877
-0.096927
0.078014
0.15839
0.2104
0.1773
0.082742
-0.06383
-0.19622
-0.32388
-0.40426
-0.36643
-0.21986
-0.01182
0.19149
0.30496
0.30969
0.16312
-0.021277
-0.19622
-0.38061
-0.48463
-0.50827
-0.44208
-0.32388
-0.078014
0.12057
0.24823
0.30024
0.32388
0.29551
0.28132
0.26241
0.17258
0.073286
-0.01182
-0.026005
-0.059102
-0.044917
-0.059102
-0.040189
-0.01182
0.049645
0.096927
0.06383
-0.021277
-0.049645
-0.01182
0.040189
0.021277
0.021277
-0.16312
-0.2435
-0.28605
-0.27187
-0.20567
-0.19149
-0.20095
-0.2766
-0.26241
-0.2104
-0.092199
-0.0070922
0.08747
0.15366
0.23877
0.30024
0.31915
0.32388
0.23404
0.15366
0.035461
-0.13002
-0.17258
-0.2104
-0.23877
-0.28132
-0.25768
-0.19622
-0.026005
0.13948
0.33333
0.37116
0.29551
0.19622
0.068558
-0.01182
-0.01182
0.030733
0.026005
0.078014
0.11584
0.13948
0.15839
0.2104
0.2435
0.21513
0.2435
0.25296
0.28605
0.29551
0.25768
0.2104
0.049645
-0.082742
-0.22931
-0.40898
-0.56501
-0.61702
-0.53191
-0.39007
-0.23877
-0.082742
0.0023641
0.082742
0.14421
0.24823
0.2766
0.25768
0.18676
0.092199
0.06383
0.12057
0.18203
0.16785
0.06383
-0.030733
-0.10165
-0.10165
0.026005
0.078014
0.11584
0.10165
0.18676
0.29551
0.36643
0.32388
0.16785
0.10165
0.068558
0.20095
0.28132
0.30496
0.30496
0.23404
0.10165
-0.01182
-0.08747
-0.20095
-0.29551
-0.3948
-0.40426
-0.36643
-0.32388
-0.27187
-0.34279
-0.32861
-0.2766
-0.21986
-0.18203
-0.11584
-0.016548
0.030733
-0.026005
-0.15366
-0.33333
-0.53191
-0.68322
-0.72104
-0.68794
-0.56501
-0.46099
-0.46572
-0.56501
-0.68794
-0.72104
-0.58392
-0.35225
-0.19149
-0.1773
-0.30024
-0.37116
-0.37116
-0.39953
-0.43262
-0.46572
-0.46572
-0.41371
-0.30969
-0.26241
-0.26241
-0.1773
-0.030733
0.096927
0.11111
0.0023641
-0.20567
-0.36643
-0.41844
-0.33333
-0.23404
-0.068558
0.049645
0.17258
0.19149
0.15366
0.13475
0.15839
0.16785
0.20095
0.23404
0.26241
0.26241
0.27187
0.15366
0.08747
0.082742
0.08747
0.1253
0.12057
0.13475
0.1773
0.26714
0.32388
0.27187
0.16312
0.0070922
0.0023641
-0.026005
0.016548
0.049645
-0.0023641
-0.0070922
-0.026005
-0.016548
-0.040189
-0.082742
-0.17258
-0.21986
-0.25768
-0.21986
-0.17258
-0.1253
-0.1253
-0.13002
-0.19149
-0.19622
-0.1253
-0.082742
-0.10638
-0.16312
-0.14894
-0.13475
-0.11111
-0.12057
-0.11584
-0.08747
-0.0023641
0.078014
0.096927
0.10165
0.1253
0.11584
0.10165
0.030733
-0.040189
-0.12057
-0.16785
-0.1773
-0.21513
-0.20567
-0.19622
-0.17258
-0.18203
-0.12057
0.0023641
0.13002
0.12057
0.08747
0.06383
0.11111
0.13948
0.06383
-0.049645
-0.14421
-0.13002
-0.026005
0.049645
0.10638
0.18203
0.14421
0.016548
-0.13948
-0.20567
-0.29551
-0.30969
-0.3617
-0.31442
-0.21986
0.0070922
0.10165
0.059102
-0.078014
-0.14894
-0.13475
-0.10165
-0.059102
0.0070922
-0.035461
0.049645
0.082742
0.092199
0.082742
0.11111
0.16785
0.21513
0.24823
0.20567
0.092199
-0.078014
-0.13948
-0.11111
-0.0070922
0.021277
0.01182
-0.026005
-0.073286
-0.049645
-0.026005
-0.096927
-0.15839
-0.20095
-0.25296
-0.22931
-0.2435
-0.25768
-0.30496
-0.30969
-0.25296
-0.23877
-0.13475
-0.092199
0.030733
0.082742
0.078014
0.0023641
-0.11584
-0.16785
-0.1253
-0.078014
-0.073286
-0.030733
0.078014
0.15839
0.20095
0.17258
0.10165
0.092199
0.078014
0.040189
-0.016548
-0.059102
0.016548
0.059102
0.040189
0.040189
0.026005
-0.016548
-0.068558
-0.15839
-0.26241
-0.32861
-0.22931
-0.10165
0.016548
0.078014
0.11584
0.12057
0.10165
0.20095
0.27187
0.28605
0.22931
0.1253
0.10638
0.092199
0.10638
0.030733
-0.021277
-0.030733
0.044917
0.035461
-0.026005
-0.096927
-0.1253
-0.096927
0.026005
0.10638
0.068558
-0.078014
-0.31442
-0.50355
-0.5461
-0.44208
-0.23404
-0.082742
0.035461
0.06383
0.054374
-0.01182
0.059102
0.16785
0.20095
0.21513
0.13002
0.040189
-0.16312
-0.27187
-0.3617
-0.33806
-0.20567
-0.0070922
0.15366
0.18676
0.16785
0.17258
0.22459
0.26241
0.2104
0.01182
-0.14421
-0.19149
-0.2104
-0.2435
-0.30969
-0.35697
-0.35697
-0.34279
-0.29078
-0.30024
-0.28605
-0.16785
0.016548
0.23877
0.29078
0.29078
0.18203
0.040189
-0.021277
-0.059102
-0.13948
-0.31442
-0.49409
-0.62648
-0.56028
-0.36643
-0.22931
-0.21513
-0.27187
-0.2766
-0.22459
-0.1773
-0.1773
-0.19149
-0.22931
-0.24823
-0.20567
-0.27187
-0.33333
-0.40898
-0.34279
-0.26714
-0.17258
-0.13948
-0.23404
-0.32861
-0.32861
-0.22931
-0.049645
0.10165
0.10165
0.0023641
-0.1253
-0.15366
-0.08747
-0.12057
-0.20095
-0.30496
-0.35225
-0.30024
-0.16785
-0.13475
-0.08747
-0.11584
-0.01182
0.049645
0.01182
-0.030733
-0.19622
-0.26241
-0.25296
-0.15366
-0.044917
0.0023641
0.08747
0.15366
0.13002
0.14894
0.12057
0.13475
0.14421
0.28132
0.43735
0.56028
0.52719
0.3617
0.16312
-0.06383
-0.15366
-0.15839
-0.08747
0.021277
0.13948
0.16785
0.2104
0.17258
0.13475
-0.0070922
-0.13948
-0.27187
-0.37589
-0.35225
-0.2435
-0.14894
-0.11584
-0.082742
-0.044917
-0.096927
-0.13475
-0.15366
-0.12057
-0.0070922
0.073286
0.19622
0.2435
0.24823
0.23877
0.1773
0.068558
0.021277
0.068558
0.10638
0.13948
0.078014
-0.08747
-0.1773
-0.17258
-0.068558
0.08747
0.23877
0.32388
0.32388
0.18676
0.026005
-0.20095
-0.34752
-0.41371
-0.32861
-0.23404
-0.11111
-0.0070922
0.073286
0.082742
0.092199
0.13002
0.19622
0.28605
0.42317
0.45626
0.43262
0.36643
0.32861
0.22459
0.11584
-0.0070922
-0.11584
-0.22931
-0.26714
-0.29078
-0.29551
-0.31915
-0.33333
-0.29551
-0.2435
-0.10165
0.0023641
-0.059102
-0.16785
-0.26714
-0.25768
-0.19149
-0.08747
-0.073286
-0.06383
-0.054374
-0.044917
0.01182
0.073286
0.13002
0.1253
0.044917
-0.0070922
-0.06383
-0.054374
-0.13475
-0.082742
0.016548
0.1773
0.29078
0.22459
0.11584
0.0023641
0.044917
0.11584
0.13002
0.096927
0.06383
0.035461
0.01182
-0.01182
-0.13002
-0.24823
-0.25296
-0.2104
-0.16312
-0.18676
-0.13002
-0.14894
-0.078014
-0.0023641
0.06383
0.054374
0.06383
0.11111
0.14421
0.12057
0.049645
0.016548
-0.021277
0.026005
0.049645
0.030733
-0.068558
-0.14421
-0.20095
-0.2435
-0.26714
-0.2435
-0.25296
-0.29078
-0.28605
-0.23404
-0.15366
-0.1253
-0.1253
-0.049645
0.026005
0.13475
0.15366
0.016548
-0.16785
-0.28132
-0.26241
-0.1773
-0.054374
0.01182
0.035461
0.016548
0.049645
0.13948
0.23404
0.3617
0.3948
0.35697
0.22931
0.13002
0.059102
-0.021277
-0.049645
-0.10638
-0.10165
-0.12057
-0.20095
-0.26241
-0.31442
-0.18676
-0.068558
0.021277
0.01182
0.030733
0.054374
0.13948
0.25296
0.29078
0.2435
0.10638
-0.026005
-0.13475
-0.13475
-0.068558
0.049645
0.13948
0.22931
0.33806
0.32861
0.31915
0.24823
0.16785
0.030733
-0.021277
0.026005
0.030733
0.096927
0.049645
0.021277
-0.059102
-0.08747
-0.10165
-0.13948
-0.11584
-0.049645
0.082742
0.15366
0.18203
0.092199
-0.059102
-0.23877
-0.28132
-0.30024
-0.2766
-0.1253
-0.01182
0.0023641
-0.068558
-0.10165
-0.16312
-0.1773
-0.16312
-0.16785
-0.06383
0.040189
0.1773
0.24823
0.22459
0.1773
-0.0070922
-0.15366
-0.26714
-0.31915
-0.29078
-0.28605
-0.2435
-0.29551
-0.30969
-0.31915
-0.26714
-0.21986
-0.18676
-0.15839
-0.1773
-0.22459
-0.30024
-0.30024
-0.30969
-0.2104
-0.082742
0.026005
0.078014
0.13002
0.17258
0.13475
0.092199
0.040189
0.0070922
-0.054374
-0.18676
-0.30496
-0.3948
-0.38534
-0.30969
-0.19622
-0.12057
-0.08747
-0.06383
-0.096927
-0.092199
0.044917
0.20567
0.33333
0.41371
0.37589
0.4279
0.49409
0.5792
0.513
0.30969
0.14894
0.016548
-0.0070922
0.0023641
-0.01182
-0.026005
0.0023641
0.17258
0.33806
0.47045
0.50355
0.4279
0.29078
0.14421
0.059102
0.035461
0.035461
0.030733
0.016548
-0.040189
-0.068558
-0.082742
-0.1253
-0.1773
-0.19149
-0.18203
-0.16785
-0.2104
-0.19149
-0.1253
-0.026005
0.11111
0.22931
0.2766
0.23404
0.040189
-0.21513
-0.46572
-0.53191
-0.47518
-0.38534
-0.26714
-0.13002
0.016548
0.068558
0.06383
-0.035461
-0.15839
-0.16312
-0.08747
-0.026005
-0.054374
-0.14894
-0.15839
-0.21513
-0.31442
-0.42317
-0.55556
-0.62648
-0.56028
-0.44208
-0.35225
-0.32388
-0.31915
-0.24823
-0.1773
-0.021277
0.08747
0.10638
-0.0023641
-0.2104
-0.36643
-0.43735
-0.35225
-0.32388
-0.34279
-0.37116
-0.35225
-0.24823
-0.10638
0.082742
0.18203
0.14421
0.10638
0.073286
0.13475
0.18676
0.21513
0.11111
-0.016548
-0.20567
-0.18676
-0.21513
-0.16785
-0.026005
0.14894
0.31915
0.40898
0.42317
0.35225
0.27187
0.22931
0.21986
0.16785
0.11584
0.059102
0.026005
0.0070922
-0.01182
0.0023641
0.059102
0.1253
0.15839
0.08747
0.054374
0.044917
0.073286
0.026005
0.0070922
0.0023641
0.0023641
0.068558
0.1253
0.13002
0.08747
0.030733
0.016548
0.01182
0.10165
0.19622
0.28132
0.19149
0.044917
-0.20567
-0.37116
-0.3948
-0.31442
-0.16785
-0.054374
0.0023641
-0.068558
-0.13002
-0.22931
-0.22459
-0.1773
-0.049645
0.11584
0.25296
0.27187
0.24823
0.20567
0.1253
-0.021277
-0.16785
-0.32388
-0.45154
-0.53191
-0.51773
-0.50355
-0.36643
-0.15839
-0.0023641
0.06383
0.030733
-0.0070922
-0.049645
-0.082742
-0.044917
-0.021277
0.0023641
-0.0070922
-0.0070922
-0.016548
-0.040189
-0.035461
-0.06383
-0.10638
-0.13948
-0.14421
-0.14894
-0.078014
-0.06383
-0.021277
-0.10165
-0.13948
-0.28132
-0.38534
-0.39953
-0.31915
-0.2435
-0.21513
-0.16312
-0.13002
-0.026005
0.08747
0.15366
0.11111
0.040189
-0.092199
-0.16312
-0.20095
-0.19149
-0.2104
-0.22459
-0.26241
-0.17258
-0.040189
0.1253
0.22931
0.19149
-0.01182
-0.18676
-0.21986
-0.20095
-0.21513
-0.26241
-0.26241
-0.13002
0.096927
0.35697
0.54137
0.61229
0.55556
0.44208
0.21513
0.0070922
-0.13948
-0.23877
-0.2435
-0.18203
0.016548
0.25768
0.55083
0.75887
0.81087
0.68322
0.44208
0.15366
-0.19149
-0.44681
-0.47045
-0.38534
-0.19149
-0.082742
-0.01182
0.06383
0.13002
0.21513
0.19622
0.035461
-0.15366
-0.39953
-0.60284
-0.70686
-0.71158
-0.60284
-0.48936
-0.28605
-0.092199
0.10165
0.19622
0.19622
0.096927
0.0023641
-0.026005
-0.0070922
0.06383
0.12057
0.17258
0.18676
0.18203
0.14421
0.044917
-0.026005
-0.01182
0.13948
0.1773
0.14894
0.044917
-0.068558
-0.1773
-0.28605
-0.32388
-0.34279
-0.33333
-0.30024
-0.27187
-0.18203
-0.021277
0.15839
0.13948
0.14421
0.035461
0.026005
-0.0023641
0.01182
0.092199
0.16312
0.18203
0.2104
0.13002
0.021277
-0.035461
-0.054374
-0.06383
-0.10165
-0.15366
-0.2104
-0.20567
-0.13002
-0.078014
-0.11584
-0.2104
-0.31442
-0.36643
-0.38061
-0.32388
-0.25296
-0.24823
-0.18203
-0.13002
-0.049645
-0.040189
-0.054374
-0.12057
-0.16785
-0.17258
-0.14894
-0.14894
-0.1773
-0.13948
-0.059102
0.049645
0.073286
0.06383
-0.040189
-0.14894
-0.12057
-0.10638
0.044917
0.11111
0.08747
-0.040189
-0.18676
-0.23404
-0.18203
-0.10638
0.035461
0.14894
0.14421
0.14894
-0.41371
-0.38061
-0.20095
-0.01182
0.078014
0.073286
0.01182
-0.01182
-0.054374
-0.068558
-0.073286
-0.096927
-0.13948
-0.22459
-0.24823
-0.26241
-0.27187
-0.25768
-0.2766
-0.35225
-0.36643
-0.31442
-0.22459
-0.044917
0.10165
0.14894
0.092199
0.049645
-0.026005
-0.10165
-0.2104
-0.30496
-0.41844
-0.53664
-0.54137
-0.3948
-0.13475
0.13002
0.29551
0.32861
0.31442
0.32388
0.29551
0.23877
0.22459
0.28132
0.25296
0.18203
0.073286
-0.078014
-0.092199
-0.073286
0.030733
0.040189
0.054374
0.049645
0.073286
0.11111
0.10638
0.1253
0.040189
0.01182
-0.082742
-0.13475
-0.18203
-0.25768
-0.24823
-0.21513
-0.11111
-0.0070922
0.10638
0.1773
0.18203
0.13475
-0.01182
0.026005
0.18203
0.34752
0.3617
0.25296
0.030733
-0.08747
-0.082742
-0.030733
-0.0070922
-0.082742
-0.13948
-0.17258
-0.14421
-0.054374
0.026005
0.096927
0.096927
0.096927
0.11584
0.12057
0.15839
0.14421
0.044917
-0.20095
-0.31442
-0.37589
-0.30496
-0.19149
-0.092199
-0.073286
-0.13948
-0.17258
-0.17258
-0.12057
-0.016548
0.059102
0.13948
0.1253
0.13002
0.14421
0.1773
0.13002
0.049645
-0.21513
-0.38061
-0.49882
-0.50827
-0.49882
-0.43262
-0.32861
-0.22931
-0.049645
0.12057
0.24823
0.25768
0.18676
0.049645
-0.13948
-0.2435
-0.32861
-0.37116
-0.38534
-0.34279
-0.20095
-0.08747
0.026005
0.17258
0.35697
0.46099
0.48936
0.41371
0.28605
0.1253
-0.021277
-0.059102
-0.021277
0.08747
0.10165
0.049645
-0.0023641
-0.078014
-0.12057
-0.19149
-0.11584
-0.10165
-0.035461
0.0023641
0.068558
0.06383
-0.049645
-0.1773
-0.36643
-0.43735
-0.38061
-0.28605
-0.2766
-0.32861
-0.30496
-0.22931
-0.16312
-0.1253
-0.082742
-0.08747
-0.06383
-0.044917
-0.092199
-0.18203
-0.30496
-0.40898
-0.46572
-0.46099
-0.39007
-0.36643
-0.32861
-0.25768
-0.078014
0.092199
0.2104
0.28605
0.23877
0.12057
0.016548
-0.0070922
0.0070922
0.054374
0.054374
-0.030733
-0.21513
-0.32388
-0.33806
-0.22459
-0.021277
0.11584
0.22459
0.16312
0.073286
-0.035461
-0.13948
-0.12057
-0.035461
-0.0023641
-0.054374
-0.18203
-0.2766
-0.32861
-0.2766
-0.24823
-0.20567
-0.26241
-0.2435
-0.25768
-0.26714
-0.29078
-0.31442
-0.31915
-0.26241
-0.18203
-0.096927
-0.078014
-0.0070922
0.035461
0.078014
0.078014
0.13948
0.16312
0.13948
0.073286
0.073286
0.073286
0.14894
0.20095
0.22459
0.24823
0.26241
0.28605
0.21986
0.18203
0.1253
0.10165
0.15366
0.25296
0.3617
0.35225
0.2435
0.18676
0.17258
0.18203
0.13002
-0.021277
-0.18676
-0.26241
-0.21986
-0.11584
-0.016548
0.096927
0.17258
0.11584
0.049645
-0.068558
-0.10165
-0.14894
-0.14894
-0.14421
-0.10638
-0.01182
0.054374
0.12057
0.11111
0.078014
-0.01182
-0.15366
-0.23404
-0.25768
-0.21986
-0.12057
-0.01182
0.068558
0.073286
0.068558
0.1253
0.11584
0.082742
0.01182
-0.054374
-0.049645
-0.049645
0.021277
0.073286
0.20095
0.33333
0.39007
0.30496
0.082742
-0.13948
-0.35225
-0.31442
-0.16312
0.068558
0.1773
0.28605
0.30024
0.24823
0.22459
0.17258
0.17258
0.14421
0.10638
0.15839
0.18676
0.20567
0.17258
0.10165
0.0070922
0.026005
0.040189
0.026005
0.096927
0.15366
0.21513
0.16312
0.10165
0.01182
-0.026005
-0.0070922
0.044917
0.19149
0.29551
0.42317
0.50827
0.56974
0.59811
0.55083
0.38534
0.17258
0.10165
0.15839
0.26241
0.40426
0.53664
0.60284
0.61702
0.62648
0.58392
0.52246
0.41371
0.28605
0.073286
-0.15366
-0.2435
-0.26241
-0.068558
0.15839
0.25768
0.25296
0.22931
0.22931
0.25768
0.19622
0.08747
0.092199
0.11111
0.16785
0.16785
0.040189
-0.01182
-0.059102
-0.030733
-0.044917
-0.021277
-0.0023641
0.054374
0.068558
0.049645
0.049645
-0.078014
-0.13948
-0.18676
-0.21513
-0.23877
-0.19622
-0.14894
-0.16312
-0.16312
-0.18676
-0.2104
-0.33333
-0.37116
-0.32861
-0.22931
-0.14421
-0.1253
-0.13002
-0.15839
-0.19622
-0.30496
-0.46572
-0.61229
-0.69267
-0.65012
-0.513
-0.36643
-0.2435
-0.19622
-0.19149
-0.23877
-0.39953
-0.53191
-0.59811
-0.56501
-0.51773
-0.48936
-0.44208
-0.35697
-0.14421
0.096927
0.14421
-0.068558
-0.25296
-0.38534
-0.40898
-0.40898
-0.39953
-0.41371
-0.45626
-0.513
-0.56501
-0.5461
-0.49409
-0.40426
-0.34279
-0.31442
-0.28132
-0.20095
-0.15366
-0.078014
-0.0023641
0.021277
0.030733
0.044917
0.030733
0.01182
0.040189
0.12057
0.21513
0.26714
0.26241
0.31915
0.31442
0.32388
0.2766
0.082742
-0.1253
-0.29078
-0.39953
-0.33333
-0.26241
-0.16785
-0.13475
-0.16785
-0.16312
-0.22459
-0.26241
-0.22931
-0.16785
-0.092199
-0.06383
-0.082742
-0.13002
-0.23877
-0.36643
-0.39953
-0.35697
-0.21513
-0.016548
0.054374
0.082742
0.0070922
0.0023641
0.0023641
0.044917
0.054374
0.059102
0.035461
0.049645
0.040189
-0.040189
-0.13475
-0.18676
-0.2104
-0.040189
0.08747
0.23877
0.20567
0.13475
0.073286
0.10638
-0.016548
-0.19622
-0.41844
-0.55556
-0.46572
-0.24823
0.0023641
0.12057
0.19149
0.2435
0.19149
0.15366
0.073286
0.049645
0.10165
0.20095
0.25768
0.27187
0.26241
0.25768
0.27187
0.20095
0.22459
0.19622
0.19622
0.19622
0.20095
0.23877
0.2435
0.28132
0.16312
0.0023641
-0.15839
-0.2104
-0.18676
-0.13475
-0.016548
-0.021277
-0.040189
-0.054374
0.030733
0.21513
0.37116
0.45154
0.32861
0.16785
0.054374
0.06383
0.13948
0.25768
0.37116
0.46099
0.46572
0.39007
0.30024
0.14894
0.10638
0.096927
0.13002
0.13002
0.1253
0.096927
-0.021277
-0.11584
-0.15366
-0.096927
0.0070922
0.10165
0.16312
0.16785
0.13002
0.14894
0.11111
0.13002
0.15366
0.14894
0.035461
-0.11111
-0.17258
-0.15839
-0.035461
0.059102
0.08747
0.059102
-0.082742
-0.13475
-0.073286
-0.026005
0.06383
0.030733
-0.073286
-0.10165
-0.078014
0.026005
0.035461
0.054374
0.044917
0.021277
0.073286
0.12057
0.1773
0.11584
0.082742
0.016548
-0.068558
-0.20095
-0.36643
-0.55556
-0.61702
-0.50355
-0.28605
-0.082742
0.059102
0.13948
0.08747
-0.0070922
-0.14421
-0.19622
-0.11584
0.0023641
0.12057
0.026005
-0.16312
-0.38534
-0.50827
-0.53191
-0.42317
-0.23877
-0.10638
-0.01182
-0.0070922
-0.026005
-0.10165
-0.13948
-0.18676
-0.26714
-0.24823
-0.22459
-0.2104
-0.25768
-0.29551
-0.26714
-0.16312
-0.01182
0.15366
0.22459
0.22931
0.18676
0.11111
-0.016548
-0.20567
-0.36643
-0.43735
-0.42317
-0.28132
-0.17258
-0.078014
-0.0070922
0.1253
0.13948
0.068558
0.0070922
-0.14894
-0.26241
-0.35225
-0.4279
-0.47518
-0.49409
-0.38534
-0.29551
-0.21513
-0.2435
-0.22459
-0.24823
-0.17258
-0.08747
-0.059102
-0.10638
-0.13475
-0.11584
-0.12057
-0.092199
-0.082742
-0.08747
-0.040189
-0.01182
-0.030733
-0.096927
-0.14421
-0.13948
-0.06383
0.073286
0.22931
0.35697
0.39953
0.3617
0.32388
0.2104
0.035461
-0.20095
-0.48463
-0.72104
-0.74941
-0.58865
-0.33333
-0.18676
-0.08747
-0.044917
-0.021277
0.0070922
-0.0070922
-0.054374
-0.16312
-0.1773
-0.16785
-0.16312
-0.15366
-0.16312
-0.13002
-0.030733
0.092199
0.2104
0.28605
0.27187
0.20567
0.13475
0.068558
0.059102
-0.01182
-0.021277
-0.01182
0.054374
0.10638
0.096927
0.10165
0.092199
0.16785
0.23877
0.30496
0.26241
0.20567
0.13475
0.12057
0.16785
0.19622
0.25296
0.2104
0.22459
0.31915
0.47991
0.56974
0.56501
0.48463
0.3617
0.33333
0.30496
0.2435
0.11111
-0.016548
-0.06383
-0.082742
-0.078014
0.0070922
0.059102
0.054374
0.10165
0.16785
0.18676
0.19149
0.11111
0.030733
-0.030733
0.016548
0.016548
-0.040189
-0.11111
-0.17258
-0.14894
-0.092199
-0.0070922
-0.021277
-0.040189
-0.040189
-0.035461
-0.06383
-0.06383
-0.040189
0.0070922
-0.0070922
-0.0070922
-0.044917
-0.078014
-0.082742
-0.049645
-0.078014
-0.16312
-0.34752
-0.53664
-0.64539
-0.58865
-0.45626
-0.23404
-0.035461
0.16312
0.31442
0.39007
0.40426
0.42317
0.29551
0.1253
-0.01182
0.01182
0.035461
0.092199
0.06383
0.054374
0.06383
0.16312
0.26241
0.30969
0.31915
0.31915
0.34752
0.32861
0.30024
0.18676
0.044917
-0.11584
-0.23404
-0.30496
-0.38061
-0.43735
-0.45626
-0.45154
-0.29078
-0.049645
0.2435
0.55083
0.87234
1
0.95272
0.71158
0.41371
0.11584
-0.19622
-0.25768
-0.34752
-0.30496
-0.31442
-0.28132
-0.22459
-0.16785
-0.082742
-0.035461
0.021277
0.06383
0.1253
0.10638
0.044917
-0.035461
-0.2435
-0.38534
-0.50827
-0.45154
-0.38061
-0.31915
-0.18203
-0.13475
-0.073286
-0.044917
-0.049645
-0.11584
-0.16785
-0.22931
-0.20567
-0.13002
-0.035461
0.026005
-0.0070922
-0.021277
-0.016548
-0.016548
0.026005
0.082742
0.19149
0.13002
0.082742
0.026005
0.049645
0.082742
0.06383
-0.059102
-0.28605
-0.51773
-0.58865
-0.56974
-0.41844
-0.16785
0.040189
0.14421
0.096927
-0.021277
-0.15366
-0.22931
-0.21513
-0.2104
-0.20567
-0.20095
-0.18203
-0.13002
-0.13002
-0.059102
-0.044917
-0.10165
-0.13948
-0.19149
-0.2104
-0.20095
-0.13002
-0.073286
-0.021277
-0.0023641
0.026005
0.026005
-0.054374
-0.078014
-0.14894
-0.18676
-0.19622
-0.18203
-0.14421
-0.082742
-0.030733
-0.0023641
-0.040189
-0.078014
-0.059102
-0.10638
-0.059102
-0.059102
-0.10165
-0.19622
-0.30496
-0.30496
-0.22931
-0.12057
-0.068558
-0.054374
-0.082742
-0.10638
-0.10165
-0.13002
-0.11111
-0.08747
-0.06383
-0.11584
-0.10165
-0.14421
-0.16312
-0.16312
-0.13948
-0.078014
-0.021277
-0.0070922
-0.040189
-0.1773
-0.32388
-0.43735
-0.44681
-0.4279
-0.30969
-0.24823
-0.21513
-0.15366
-0.068558
0.078014
0.092199
0.13002
0.026005
-0.016548
0.021277
0.08747
0.11584
0.0070922
-0.08747
-0.19622
-0.2766
-0.34752
-0.37589
-0.37116
-0.33333
-0.19622
-0.13002
-0.049645
-0.049645
-0.030733
-0.040189
-0.030733
-0.044917
-0.044917
-0.06383
-0.06383
0.016548
0.035461
0.08747
0.082742
0.026005
-0.059102
-0.11584
-0.1253
-0.20567
-0.23404
-0.27187
-0.34752
-0.40426
-0.45154
-0.47518
-0.40426
-0.35697
-0.30969
-0.26714
-0.2766
-0.23404
-0.21986
-0.2104
-0.14894
-0.054374
-0.035461
-0.08747
-0.13002
-0.20567
-0.1773
-0.13948
-0.0070922
0.092199
0.17258
0.21513
0.21986
0.17258
0.19622
0.20095
0.23877
0.23877
0.26241
0.23877
0.22931
0.19622
0.16785
0.12057
0.068558
0.11584
0.11584
0.10165
0.054374
0.10638
0.08747
0.092199
0.040189
-0.059102
-0.073286
-0.026005
0.092199
0.15839
0.17258
0.2104
0.20095
0.19622
0.19622
0.22931
0.22931
0.18203
0.17258
0.10165
0.040189
-0.073286
-0.11584
-0.14421
-0.10165
-0.030733
0.035461
0.096927
0.11584
0.11111
-0.016548
-0.10165
-0.13948
-0.11584
-0.01182
0.068558
0.11584
0.15366
0.14894
0.08747
0.021277
-0.092199
-0.054374
-0.040189
-0.026005
0.026005
0.073286
0.14894
0.17258
0.14421
0.06383
-0.073286
-0.14894
-0.15366
-0.17258
-0.19622
-0.22931
-0.23404
-0.2435
-0.18676
-0.13475
-0.10638
-0.11584
-0.059102
-0.0023641
0.082742
0.073286
0.021277
-0.11111
-0.16785
-0.1773
-0.092199
0.030733
0.15839
0.22459
0.1773
0.18203
0.27187
0.32388
0.32388
0.22931
0.13475
0.021277
-0.0023641
0.068558
0.1253
0.1773
0.17258
0.13948
0.01182
-0.1773
-0.31915
-0.39953
-0.40426
-0.31915
-0.19149
-0.14894
-0.068558
-0.073286
-0.096927
-0.14421
-0.2104
-0.23877
-0.29551
-0.25768
-0.19149
-0.12057
-0.12057
-0.15366
-0.23877
-0.32388
-0.41844
-0.40898
-0.33333
-0.22931
-0.14894
-0.15839
-0.13948
-0.14894
-0.059102
-0.030733
0.021277
0.073286
0.016548
-0.073286
-0.21986
-0.27187
-0.25768
-0.22931
-0.096927
0.0023641
0.073286
0.16312
0.12057
-0.021277
-0.11111
-0.19622
-0.2104
-0.14894
-0.073286
0.054374
0.08747
0.096927
0.021277
-0.078014
-0.1773
-0.23877
-0.11111
-0.0070922
0.14421
0.20095
0.15839
0.073286
-0.040189
-0.15839
-0.30024
-0.39953
-0.43735
-0.43262
-0.34279
-0.20095
-0.092199
-0.026005
-0.030733
-0.040189
-0.016548
-0.030733
0.0023641
0.030733
0.078014
0.19622
0.29551
0.28132
0.18676
0.11584
0.030733
-0.0070922
-0.092199
-0.14421
-0.16785
-0.17258
-0.14421
-0.08747
0.049645
0.18676
0.34752
0.33806
0.29078
0.23404
0.13475
-0.040189
-0.30496
-0.50355
-0.68794
-0.76359
-0.65012
-0.49882
-0.29551
-0.13475
0.10165
0.15839
0.23404
0.15366
-0.021277
-0.18203
-0.23877
-0.17258
-0.078014
0.044917
0.1253
0.17258
0.13002
0.082742
0.096927
0.049645
-0.01182
-0.11111
-0.25296
-0.513
-0.70686
-0.91017
-1
-0.96217
-0.77778
-0.58392
-0.42317
-0.26714
-0.23404
-0.25768
-0.30969
-0.30969
-0.26714
-0.2766
-0.25296
-0.26241
-0.22931
-0.14421
0.0023641
0.08747
0.073286
0.054374
-0.035461
-0.08747
-0.14894
-0.26241
-0.41371
-0.53664
-0.50827
-0.38061
-0.2766
-0.22459
-0.17258
-0.054374
0.0023641
0.078014
0.030733
0.01182
0.044917
0.19149
0.27187
0.16785
0.040189
-0.092199
-0.13002
-0.06383
0.082742
0.16785
0.19622
0.16312
-0.01182
-0.14421
-0.28605
-0.3617
-0.43735
-0.34752
-0.19622
0.016548
0.16785
0.14894
0.10165
-0.10638
-0.27187
-0.26241
-0.15366
-0.082742
0.026005
-0.049645
-0.073286
-0.096927
-0.13475
-0.19622
-0.24823
-0.23404
-0.23404
-0.22931
-0.16312
-0.044917
0.096927
0.14421
0.14894
0.14894
0.08747
0.040189
0.11584
0.049645
0.044917
-0.026005
-0.15366
-0.23877
-0.21513
-0.030733
0.18203
0.2766
0.26714
0.06383
-0.16785
-0.34279
-0.29551
-0.20567
-0.068558
-0.049645
-0.01182
-0.026005
0.11111
0.20567
0.2435
0.23404
0.19622
0.14421
0.06383
0.01182
-0.049645
-0.0023641
0.021277
0.0070922
-0.10165
-0.25768
-0.31442
-0.30024
-0.25768
-0.20567
-0.19622
-0.17258
-0.11584
-0.049645
0.021277
-0.01182
-0.092199
-0.14894
-0.20095
-0.26241
-0.22931
-0.08747
0.08747
0.20567
0.26714
0.22459
0.059102
0.049645
0.044917
0.068558
0.054374
-0.049645
-0.10638
-0.18203
-0.14894
-0.10638
-0.059102
0.0070922
0.044917
0.059102
-0.0070922
-0.078014
-0.14894
-0.20095
-0.23877
-0.2766
-0.34279
-0.3617
-0.41371
-0.48463
-0.5461
-0.54137
-0.50355
-0.51773
-0.52246
-0.47518
-0.39007
-0.30024
-0.23404
-0.17258
-0.18203
-0.21513
-0.28132
-0.28605
-0.31915
-0.24823
-0.13475
-0.082742
0.030733
0.12057
0.21513
0.27187
0.26241
0.23877
0.14421
0.092199
0.0023641
-0.19622
-0.39007
-0.53191
-0.58865
-0.52246
-0.40426
-0.19622
0.026005
0.15839
0.28132
0.29078
0.20095
0.044917
-0.11584
-0.16785
-0.21513
-0.23404
-0.33333
-0.4279
-0.40898
-0.31442
-0.20567
-0.15839
-0.16312
-0.25296
-0.30969
-0.22459
0.026005
0.21513
0.27187
0.12057
-0.054374
-0.16785
-0.1773
0.0070922
0.1253
0.20567
0.23404
0.20095
0.19622
0.24823
0.35697
0.40426
0.47518
0.52246
0.58865
0.59811
0.53664
0.3948
0.14894
-0.0070922
-0.073286
-0.040189
0.021277
0.054374
0.092199
0.016548
0.0023641
0.073286
0.23877
0.38534
0.52719
0.57447
0.50827
0.41371
0.2104
0.11584
0.01182
0.082742
0.096927
0.082742
0.068558
0.049645
0.082742
0.08747
0.10638
0.11111
0.08747
0.082742
0.082742
0.13002
0.18676
0.23877
0.17258
0.0070922
-0.16312
-0.13475
-0.0070922
0.11111
0.12057
0.016548
-0.092199
-0.082742
0.0023641
0.054374
0.030733
-0.078014
-0.21986
-0.34752
-0.33333
-0.21986
-0.15839
-0.16785
-0.25768
-0.31915
-0.34279
-0.30496
-0.15366
-0.078014
-0.0070922
0.073286
0.054374
0.030733
0.054374
0.19149
0.29078
0.2766
0.16312
-0.054374
-0.21513
-0.28605
-0.26714
-0.23877
-0.19149
-0.16785
-0.13475
-0.16312
-0.14894
-0.044917
-0.01182
0.049645
0.049645
-0.026005
-0.10638
-0.16312
-0.19149
-0.21986
-0.15839
-0.11111
-0.021277
0.13948
0.35697
0.51773
0.56028
0.45154
0.31915
0.16785
0.0070922
-0.1253
-0.22459
-0.2435
-0.20567
-0.16785
-0.15366
-0.15366
-0.08747
0.01182
0.059102
0.073286
0.030733
-0.026005
0.06383
0.17258
0.26241
0.19622
0.040189
-0.06383
-0.092199
0.078014
0.28605
0.3948
0.30024
0.030733
-0.22459
-0.45626
-0.47518
-0.3617
-0.17258
0.016548
0.18203
0.32861
0.39007
0.44681
0.44681
0.3617
0.19622
0.059102
-0.030733
-0.12057
-0.24823
-0.38061
-0.47991
-0.49409
-0.33806
-0.11584
0.030733
0.096927
0.1773
0.33806
0.45154
0.59811
0.60757
0.5792
0.42317
0.23404
-0.049645
-0.2435
-0.30024
-0.22459
-0.11584
-0.021277
-0.059102
-0.17258
-0.33333
-0.37589
-0.31915
-0.15366
-0.026005
-0.021277
-0.054374
-0.13002
-0.059102
0.054374
0.11584
0.13948
0.08747
-0.08747
-0.12057
-0.073286
0.06383
0.20567
0.23404
0.18203
0.035461
-0.1253
-0.1773
-0.27187
-0.30969
-0.33806
-0.26714
-0.16312
-0.040189
0.073286
0.12057
0.18203
0.19622
0.16785
0.14421
0.082742
0.06383
0.01182
-0.082742
-0.14421
-0.16785
-0.21986
-0.21513
-0.21986
-0.21513
-0.29551
-0.32861
-0.31442
-0.30024
-0.20567
-0.082742
-0.044917
-0.073286
-0.082742
-0.021277
0.082742
0.13002
0.12057
0.059102
-0.035461
-0.073286
-0.096927
-0.092199
-0.059102
-0.016548
-0.01182
-0.11111
-0.078014
-0.13002
-0.1773
-0.22931
-0.23877
-0.2104
-0.13002
-0.035461
0.016548
0.0070922
-0.0023641
0.021277
0.059102
0.11584
0.21513
0.2435
0.20095
0.068558
-0.01182
-0.092199
-0.15366
-0.16312
-0.17258
-0.13002
-0.054374
-0.016548
-0.073286
-0.16312
-0.18676
-0.11584
-0.082742
-0.049645
-0.068558
-0.17258
-0.23877
-0.22459
-0.11584
-0.035461
0.030733
0.01182
-0.030733
-0.06383
0.040189
0.11584
0.20095
0.29078
0.38061
0.45154
0.45154
0.39007
0.30969
0.20095
0.12057
-0.016548
-0.11584
-0.1253
-0.054374
0.068558
0.19622
0.34279
0.41371
0.3948
0.29551
0.20567
0.13475
0.082742
-0.0070922
-0.06383
-0.14421
-0.082742
-0.035461
-0.035461
-0.01182
0.040189
0.13948
0.15839
0.078014
-0.021277
-0.11584
-0.16785
-0.082742
-0.035461
-0.06383
-0.073286
-0.08747
-0.068558
-0.040189
0.01182
-0.035461
-0.1253
-0.26714
-0.38061
-0.47991
-0.53664
-0.58392
-0.65957
-0.74468
-0.79669
-0.76832
-0.6643
-0.53664
-0.40898
-0.36643
-0.32388
-0.21986
-0.15839
-0.14894
-0.16312
-0.2104
-0.21513
-0.11584
0.026005
0.15366
0.13475
0.059102
-0.096927
-0.20095
-0.28605
-0.30024
-0.2104
-0.16785
-0.13948
-0.10165
-0.13002
-0.1773
-0.13948
-0.092199
-0.030733
0.068558
0.08747
0.035461
-0.059102
-0.096927
-0.13948
-0.11584
-0.08747
-0.06383
-0.082742
-0.049645
0.016548
0.08747
0.11584
0.13475
0.20567
0.22931
0.19622
0.13002
-0.0070922
-0.10638
-0.15839
-0.13002
-0.13948
-0.073286
-0.040189
0.06383
0.082742
0.11111
0.1253
0.054374
-0.044917
-0.11584
-0.16312
-0.16785
-0.12057
-0.078014
-0.096927
-0.22459
-0.29551
-0.28605
-0.14421
0.06383
0.22931
0.26241
0.29551
0.31442
0.35225
0.24823
0.10165
-0.16785
-0.3948
-0.50827
-0.44208
-0.33333
-0.15366
0.040189
0.1773
0.20095
0.096927
-0.035461
-0.20095
-0.35225
-0.32861
-0.34279
-0.20567
-0.0070922
0.21513
0.42317
0.57447
0.60284
0.46099
0.20095
-0.059102
-0.22931
-0.3617
-0.37116
-0.30024
-0.22459
-0.19149
-0.13948
-0.054374
0.06383
0.16785
0.24823
0.26241
0.20095
0.06383
-0.059102
-0.23404
-0.33333
-0.34279
-0.33333
-0.28132
-0.23404
-0.21986
-0.2435
-0.23404
-0.13948
0.049645
0.23404
0.33333
0.37116
0.33806
0.22931
0.092199
-0.0070922
-0.026005
0.092199
0.19622
0.23877
0.28605
0.29078
0.21986
0.0070922
-0.19622
-0.34279
-0.3948
-0.34752
-0.22931
-0.13002
-0.0070922
0.059102
0.049645
-0.059102
-0.14894
-0.15366
-0.092199
-0.040189
0.068558
0.13002
0.2104
0.24823
0.22931
0.10165
-0.11111
-0.32388
-0.47991
-0.513
-0.47518
-0.34279
-0.30496
-0.28132
-0.20567
-0.1253
0.0070922
0.11111
0.22931
0.29551
0.32861
0.28132
0.16785
-0.049645
-0.34279
-0.65012
-0.91017
-0.94326
-0.83924
-0.64539
-0.52246
-0.36643
-0.2435
-0.15366
-0.11584
-0.073286
-0.01182
0.06383
0.15839
0.16312
0.082742
0.049645
0.082742
0.14894
0.18676
0.16785
0.049645
-0.059102
-0.13475
-0.14894
-0.14894
-0.27187
-0.34752
-0.43735
-0.45154
-0.34752
-0.16785
-0.030733
0.054374
0.078014
0.059102
0.078014
0.10165
0.12057
0.15366
0.15366
0.19622
0.1253
0.13948
0.11111
0.21513
0.26714
0.34279
0.38534
0.37589
0.31442
0.28605
0.32388
0.30496
0.28605
0.20095
0.13002
0.08747
0.06383
0.035461
-0.030733
-0.10165
-0.12057
-0.078014
0.0070922
0.06383
0.08747
0.026005
-0.016548
-0.01182
-0.01182
-0.040189
-0.044917
-0.054374
-0.078014
-0.021277
0.073286
0.18203
0.16785
0.16312
0.1253
0.17258
0.19622
0.21986
0.22459
0.15839
0.15839
0.11111
0.096927
0.021277
-0.049645
-0.078014
-0.13475
-0.13002
-0.19149
-0.22931
-0.18676
-0.035461
0.13948
0.30496
0.44208
0.47518
0.4279
0.32861
0.28132
0.26241
0.21986
0.22459
0.18203
0.13002
0.06383
0.01182
-0.059102
-0.096927
-0.096927
-0.16785
-0.15839
-0.18203
-0.14421
-0.14894
-0.096927
-0.01182
0.13475
0.11584
0.035461
-0.073286
-0.2104
-0.24823
-0.20567
-0.11584
-0.0070922
0.044917
0.044917
-0.0070922
0.10165
0.28132
0.45154
0.42317
0.35697
0.22931
0.10638
0.040189
0.016548
0.040189
0.059102
0.18676
0.20567
0.25768
0.24823
0.25296
0.24823
0.20095
0.16785
0.15366
0.08747
0.092199
0.044917
0.0070922
-0.078014
-0.15839
-0.20095
-0.2435
-0.22931
-0.19622
-0.15839
-0.092199
0.016548
0.096927
0.13475
0.10165
0.092199
0.073286
0.016548
-0.0070922
-0.059102
-0.14894
-0.24823
-0.28605
-0.28132
-0.15366
0.068558
0.27187
0.32861
0.23404
0.13948
-0.01182
-0.06383
-0.19149
-0.31915
-0.45154
-0.48463
-0.34279
-0.15839
0.06383
0.18676
0.25296
0.17258
0.1253
0.073286
0.068558
0.049645
-0.0023641
-0.1253
-0.22931
-0.25296
-0.2435
-0.23877
-0.17258
-0.092199
-0.0070922
0.078014
0.15366
0.13948
0.06383
-0.059102
-0.049645
0.016548
0.1253
0.26241
0.2766
0.25768
0.20095
0.14894
0.068558
0.040189
0.030733
0.016548
0.035461
0.026005
0.18676
0.22931
0.28605
0.19622
0.13948
0.068558
0.030733
0.021277
-0.040189
-0.049645
-0.01182
0.054374
0.10638
0.12057
0.14894
0.15366
0.1773
0.12057
-0.026005
-0.20095
-0.27187
-0.19149
-0.14894
-0.092199
-0.10165
-0.10638
-0.11584
-0.06383
0.0023641
0.021277
-0.068558
-0.20095
-0.39953
-0.54137
-0.60284
-0.53664
-0.48936
-0.43262
-0.45154
-0.44208
-0.47991
-0.46572
-0.48936
-0.46572
-0.35225
-0.11584
0.10638
0.22459
0.28132
0.1773
0.054374
-0.15366
-0.3617
-0.55556
-0.74941
-0.81087
-0.83924
-0.77305
-0.68322
-0.56501
-0.45626
-0.35697
-0.16312
-0.030733
0.026005
-0.0023641
-0.096927
-0.18676
-0.33806
-0.45154
-0.55083
-0.61229
-0.65012
-0.61702
-0.56501
-0.18676
