-0.10267
-0.11294
-0.088296
-0.063655
-0.053388
-0.026694
-0.026694
-0.041068
-0.075975
-0.10062
-0.12526
-0.12731
-0.092402
-0.045175
-0.01232
0.01232
0.036961
0.039014
0.020534
0.010267
0.0082136
0.016427
0.041068
0.055441
0.073922
0.080082
0.090349
0.080082
0.051335
0.024641
0.01232
0.030801
0.051335
0.067762
0.082136
0.086242
0.088296
0.088296
0.086242
0.061602
0.051335
0.036961
0.051335
0.078029
0.10678
0.14374
0.14168
0.14784
0.13142
0.10883
0.080082
0.075975
0.094456
0.12115
0.15606
0.18686
0.19918
0.2115
0.20123
0.1807
0.16222
0.15606
0.1499
0.14784
0.1499
0.15811
0.16632
0.17864
0.18275
0.17454
0.15811
0.14579
0.13758
0.12936
0.12731
0.12115
0.11294
0.10472
0.096509
0.092402
0.075975
0.073922
0.063655
0.065708
0.055441
0.065708
0.057495
0.063655
0.059548
0.090349
0.11704
0.1232
0.12731
0.10883
0.084189
-0.057495
-0.14168
-0.016427
0.27926
0.72279
1
0.95072
0.78439
0.50719
0.24025
0.084189
-0.063655
-0.19713
-0.28542
-0.38398
-0.44969
-0.51335
-0.57906
-0.62012
-0.60986
-0.58932
-0.56263
-0.56674
-0.6078
-0.6386
-0.6653
-0.68378
-0.6961
-0.69815
-0.6386
-0.56057
-0.49897
-0.45585
-0.46201
-0.48255
-0.47844
-0.47228
-0.48049
-0.48871
-0.48255
-0.47228
-0.43326
-0.34497
-0.25873
-0.20739
-0.23203
-0.27721
-0.28953
-0.27105
-0.22587
-0.19918
-0.17454
-0.16427
-0.12936
-0.10678
-0.10062
-0.096509
-0.092402
-0.082136
-0.063655
-0.047228
-0.024641
-0.014374
0.010267
0.020534
0.020534
0.024641
0.030801
0.051335
0.067762
0.096509
0.10678
0.12115
0.12526
0.12936
0.13758
0.14784
0.15195
0.15811
0.1499
0.14579
0.13758
0.14168
0.14579
0.14579
0.14579
0.13347
0.12526
0.1191
0.13142
0.13552
0.13758
0.13347
0.13142
0.12526
0.12936
0.14374
0.14784
0.17454
0.17248
0.18275
0.16222
0.13963
0.14168
0.12526
0.13347
0.13552
0.13347
0.11294
0.086242
0.041068
0.01232
0.0041068
0.016427
0.043121
0.053388
0.069815
0.078029
0.071869
0.057495
0.039014
0.036961
0.034908
0.057495
0.075975
0.096509
0.1499
0.19097
0.19097
0.13552
0.084189
-0.034908
-0.1499
-0.12526
0.080082
0.37577
0.71663
0.83573
0.87474
0.76591
0.58316
0.40452
0.26694
0.10062
-0.041068
-0.1848
-0.3039
-0.40657
-0.49692
-0.54825
-0.54004
-0.52361
-0.49897
-0.49281
-0.47639
-0.48049
-0.50719
-0.56468
-0.6037
-0.59343
-0.54415
-0.49076
-0.41478
-0.39425
-0.35729
-0.32854
-0.31211
-0.30595
-0.31006
-0.32238
-0.34908
-0.38398
-0.38398
-0.37988
-0.31622
-0.19507
-0.071869
0.0061602
-0.010267
-0.10062
-0.15606
-0.17864
-0.154
-0.12526
-0.10472
-0.10062
-0.088296
-0.073922
-0.069815
-0.063655
-0.059548
-0.067762
-0.057495
-0.051335
-0.024641
-0.016427
-0.0061602
0.0082136
0.010267
0.020534
0.036961
0.053388
0.069815
0.084189
0.092402
0.094456
0.096509
0.13552
0.13758
0.15606
0.13347
0.1191
0.096509
0.080082
0.082136
0.088296
0.10678
0.12115
0.12115
0.1191
0.094456
0.090349
0.073922
0.075975
0.088296
0.10267
0.10472
0.11088
0.1191
0.10267
0.075975
0.053388
0.039014
0.034908
0.047228
0.057495
0.061602
0.073922
0.082136
0.078029
0.053388
0.039014
0.041068
0.057495
0.071869
0.078029
0.086242
0.088296
0.096509
0.086242
0.053388
0.026694
0.016427
0.041068
0.059548
0.094456
0.11499
0.12731
0.13347
0.12731
0.10062
0.055441
0.030801
0.016427
0.024641
0.045175
0.059548
0.057495
0.041068
0.051335
0.039014
0.045175
0.030801
0.032854
0.030801
0.036961
0.039014
0.041068
0.036961
0.041068
0.047228
0.065708
0.11499
0.13758
0.10678
0.090349
0.028747
-0.10472
-0.20329
-0.14784
0.075975
0.39836
0.72485
0.82752
0.83573
0.66735
0.3655
0.154
0
-0.17864
-0.31211
-0.43121
-0.54004
-0.6078
-0.66324
-0.66119
-0.67762
-0.66119
-0.66119
-0.68172
-0.72279
-0.75975
-0.78029
-0.73511
-0.66735
-0.61396
-0.6037
-0.56057
-0.52361
-0.47844
-0.49897
-0.54209
-0.6037
-0.6386
-0.62218
-0.57084
-0.50719
-0.41889
-0.34702
-0.2731
-0.26899
-0.30801
-0.35524
-0.36961
-0.34908
-0.31006
-0.28337
-0.26694
-0.25051
-0.22998
-0.20534
-0.18275
-0.15606
-0.14784
-0.13963
-0.13963
-0.1232
-0.12526
-0.10472
-0.10678
-0.096509
-0.092402
-0.10062
-0.084189
-0.090349
-0.088296
-0.075975
-0.057495
-0.036961
-0.020534
-0.0020534
0.0020534
0.010267
0.032854
0.051335
0.059548
0.063655
0.063655
0.061602
0.055441
0.049281
0.045175
0.041068
0.045175
0.049281
0.032854
0.032854
0.045175
0.065708
0.096509
0.1232
0.13347
0.12115
0.10267
0.075975
0.053388
0.039014
0.043121
0.061602
0.084189
0.096509
0.11088
0.10678
0.084189
0.057495
0.022587
-0.0041068
-0.024641
-0.022587
-0.01848
-0.0041068
-0.0061602
-0.024641
-0.043121
-0.059548
-0.041068
-0.024641
0.0020534
0.0020534
0.020534
0.0061602
-0.0041068
-0.010267
-0.039014
-0.065708
-0.073922
-0.073922
-0.049281
-0.01848
0.049281
0.080082
0.078029
0.055441
-0.0020534
-0.1499
-0.20534
-0.13552
0.094456
0.32854
0.577
0.72279
0.80493
0.78234
0.59754
0.3655
0.21355
0.01848
-0.14168
-0.29158
-0.40452
-0.49897
-0.56057
-0.59754
-0.56057
-0.55031
-0.56263
-0.62834
-0.6694
-0.70842
-0.68994
-0.65914
-0.59548
-0.5462
-0.4846
-0.46407
-0.45585
-0.46201
-0.47228
-0.49692
-0.52156
-0.52567
-0.52361
-0.46201
-0.37372
-0.2731
-0.23203
-0.21971
-0.23614
-0.26078
-0.25873
-0.2731
-0.22998
-0.19918
-0.1848
-0.15811
-0.14784
-0.13142
-0.12731
-0.10883
-0.094456
-0.082136
-0.071869
-0.059548
-0.041068
-0.032854
-0.024641
-0.026694
-0.036961
-0.036961
-0.036961
-0.020534
-0.0020534
0.028747
0.036961
0.039014
0.049281
0.071869
0.075975
0.086242
0.078029
0.073922
0.047228
-0.022587
-0.082136
-0.10472
-0.043121
0.17248
0.51129
0.74127
0.70637
0.4271
0.10678
-0.047228
-0.096509
-0.12936
-0.18275
-0.22998
-0.28747
-0.34908
-0.38193
-0.40246
-0.38604
-0.34086
-0.28747
-0.25462
-0.24025
-0.22382
-0.19507
-0.19302
-0.20945
-0.21561
-0.23409
-0.22177
-0.2115
-0.20123
-0.18891
-0.18891
-0.16838
-0.16838
-0.15811
-0.15195
-0.12936
-0.10267
-0.073922
-0.057495
-0.045175
-0.028747
-0.0020534
0.026694
0.041068
0.059548
0.073922
0.071869
0.075975
0.065708
0.059548
0.041068
0.045175
0.055441
0.065708
0.065708
0.078029
0.084189
0.071869
0.059548
0.043121
0.028747
-0.01848
-0.10062
-0.12936
-0.1191
0.0061602
0.31006
0.65708
0.81314
0.69815
0.3963
0.154
0.065708
0.010267
-0.053388
-0.14168
-0.20945
-0.30185
-0.38398
-0.43326
-0.4846
-0.51335
-0.53593
-0.48665
-0.41889
-0.3306
-0.26899
-0.25462
-0.26283
-0.2731
-0.26283
-0.25051
-0.26489
-0.30801
-0.37166
-0.3922
-0.36961
-0.3039
-0.20945
-0.10883
0.010267
0.053388
0.01848
-0.065708
-0.13347
-0.16427
-0.19507
-0.19097
-0.17659
-0.15811
-0.14374
-0.14374
-0.17248
-0.22177
-0.2423
-0.21971
-0.13758
-0.026694
0.086242
0.20534
0.27515
0.26283
0.19097
0.10883
0.036961
-0.0061602
-0.051335
-0.090349
-0.12731
-0.15811
-0.18686
-0.19507
-0.18891
-0.17659
-0.15811
-0.12731
-0.10472
-0.094456
-0.078029
-0.067762
-0.057495
-0.028747
-0.016427
0.0061602
0.014374
0.020534
0.014374
0
-0.030801
-0.045175
-0.053388
-0.043121
-0.022587
-0.01848
-0.01232
-0.026694
-0.026694
-0.045175
-0.059548
-0.055441
-0.039014
-0.010267
0.016427
0.047228
0.063655
0.069815
0.065708
0.041068
0.014374
0
-0.0020534
0.0020534
0.0020534
0.010267
0.032854
0.045175
0.061602
0.069815
0.069815
0.075975
0.080082
0.086242
0.080082
0.075975
0.069815
0.065708
0.061602
0.067762
0.098563
0.15195
0.19097
0.1848
0.1848
0.14168
0.0082136
-0.069815
-0.049281
0.20329
0.42094
0.68583
0.79466
0.84805
0.77002
0.54415
0.32649
0.16838
0.034908
-0.11499
-0.23409
-0.3655
-0.46612
-0.55031
-0.60575
-0.64682
-0.6694
-0.66324
-0.69405
-0.69405
-0.65503
-0.62628
-0.60575
-0.62423
-0.6653
-0.69815
-0.69199
-0.68172
-0.59959
-0.53183
-0.44764
-0.39425
-0.3655
-0.3614
-0.37372
-0.39836
-0.40862
-0.3963
-0.36961
-0.34292
-0.31828
-0.28131
-0.24846
-0.21561
-0.1848
-0.154
-0.13758
-0.12526
-0.1232
-0.10883
-0.098563
-0.073922
-0.061602
-0.039014
-0.030801
-0.0061602
-0.0020534
-0.0041068
0.0082136
0.0061602
0.01232
0.010267
0.01232
0.026694
0.034908
0.041068
0.028747
0.020534
0.0061602
0.020534
0.034908
0.053388
0.073922
0.075975
0.063655
0.034908
0.0061602
-0.010267
-0.016427
-0.010267
-0.0020534
0.0041068
0.010267
0.022587
0.030801
0.030801
0.022587
0.01232
0.0041068
0.01232
0.034908
0.041068
0.055441
0.051335
0.026694
-0.014374
-0.057495
-0.080082
-0.078029
-0.059548
-0.030801
0
0.022587
0.055441
0.080082
0.10678
0.10883
0.067762
-0.053388
-0.1807
-0.19302
0.0082136
0.44969
0.87064
0.98152
0.74538
0.43943
0.19713
0.12936
0.0082136
-0.16222
-0.30801
-0.40657
-0.49076
-0.53799
-0.57084
-0.58522
-0.56879
-0.5462
-0.53388
-0.55236
-0.55441
-0.61396
-0.64476
-0.67351
-0.64682
-0.61807
-0.59343
-0.58727
-0.53593
-0.4538
-0.38604
-0.35934
-0.39014
-0.45175
-0.5154
-0.52567
-0.51335
-0.43532
-0.39014
-0.3614
-0.27721
-0.1807
-0.078029
-0.059548
-0.12115
-0.15811
-0.19918
-0.19507
-0.1848
-0.16427
-0.154
-0.154
-0.14168
-0.13347
-0.11294
-0.090349
-0.069815
-0.055441
-0.036961
-0.026694
-0.0082136
0.0020534
0.016427
0.032854
0.039014
0.059548
0.065708
0.053388
0.043121
0.028747
0.032854
0.026694
0.055441
0.069815
0.078029
0.069815
0.078029
0.071869
0.061602
0.036961
0.01848
0.0061602
0.016427
0.039014
0.039014
0.039014
0.032854
0.022587
0.0061602
-0.01232
-0.01232
-0.010267
0.016427
0.047228
0.067762
0.078029
0.080082
0.075975
0.067762
0.047228
-0.01232
-0.10062
-0.14579
-0.11704
0.01848
0.3347
0.58111
0.62012
0.43121
0.1499
-0.0082136
-0.022587
-0.082136
-0.17248
-0.25667
-0.31417
-0.37782
-0.43121
-0.47433
-0.50513
-0.48871
-0.43326
-0.38809
-0.37166
-0.40246
-0.42916
-0.43121
-0.41478
-0.42505
-0.46407
-0.5154
-0.49487
-0.42916
-0.37577
-0.34497
-0.35524
-0.35934
-0.37372
-0.35729
-0.31828
-0.28131
-0.31211
-0.33881
-0.36961
-0.31622
-0.26489
-0.27515
-0.26078
-0.14784
0.051335
0.2423
0.31006
0.24641
0.14168
0.080082
0.051335
0.022587
-0.022587
-0.086242
-0.10472
-0.12731
-0.13347
-0.14784
-0.13758
-0.1232
-0.10678
-0.096509
-0.082136
-0.088296
-0.086242
-0.078029
-0.067762
-0.047228
-0.039014
-0.028747
-0.045175
-0.036961
-0.039014
-0.022587
-0.016427
-0.0082136
0.0041068
0.0041068
-0.0020534
-0.024641
-0.043121
-0.026694
-0.0041068
0.036961
0.063655
0.090349
0.096509
0.10267
0.086242
0.071869
0.067762
0.067762
0.088296
0.10883
0.11088
0.11499
0.1191
0.11294
0.11088
0.098563
0.073922
0.045175
0.022587
0.01848
0.028747
0.036961
0.055441
0.053388
0.041068
-0.01232
-0.043121
-0.057495
-0.034908
0.0082136
0.12936
0.13758
0.1499
0.154
0.15811
0.15195
0.16016
0.154
0.15606
0.15606
0.16016
0.14579
0.12115
0.092402
0.057495
0.039014
0.030801
0.030801
0.022587
0.026694
0.032854
0.028747
0.014374
-0.0082136
0.010267
0.0020534
0.032854
0.039014
0.043121
0.049281
0.049281
0.049281
0.049281
0.055441
0.084189
0.10678
0.043121
0.032854
-0.082136
-0.10267
-0.082136
0.036961
0.21971
0.33265
0.50513
0.64476
0.71458
0.65914
0.39836
0.15811
0.014374
-0.10062
-0.19713
-0.29979
-0.3963
-0.45996
-0.50103
-0.52156
-0.51129
-0.51745
-0.55647
-0.59548
-0.65503
-0.69405
-0.72074
-0.69815
-0.6653
-0.62628
-0.61191
-0.58932
-0.5729
-0.53799
-0.50103
-0.51129
-0.53799
-0.56674
-0.57906
-0.56263
-0.55031
-0.54209
-0.47639
-0.37577
-0.25051
-0.17248
-0.17454
-0.19918
-0.21355
-0.21355
-0.20123
-0.20123
-0.19302
-0.1848
-0.1499
-0.13347
-0.1232
-0.10883
-0.090349
-0.063655
-0.051335
-0.026694
-0.01848
-0.0020534
0.014374
0.036961
0.061602
0.069815
0.084189
0.090349
0.10062
0.11294
0.13142
0.14374
0.15811
0.16632
0.16016
0.15195
0.13552
0.13552
0.13142
0.14579
0.14784
0.15195
0.14784
0.12731
0.13963
0.11704
0.12526
0.11294
0.10883
0.11294
0.11499
0.12936
0.13758
0.1499
0.18275
0.20123
0.22793
0.22998
0.18275
0.084189
0.034908
0.071869
0.22793
0.56674
0.8501
0.91786
0.70431
0.37782
0.15811
0.10678
0.041068
-0.030801
-0.13963
-0.23614
-0.34292
-0.40657
-0.44353
-0.44148
-0.43943
-0.40246
-0.40246
-0.37782
-0.36961
-0.38398
-0.40657
-0.4538
-0.46817
-0.45791
-0.43326
-0.3963
-0.36756
-0.34908
-0.3039
-0.27721
-0.26489
-0.25051
-0.25257
-0.28131
-0.3039
-0.3306
-0.3306
-0.3347
-0.33265
-0.28131
-0.13963
0.051335
0.20739
0.24846
0.19097
0.11499
0.084189
0.080082
0.065708
0.041068
0.01232
-0.010267
-0.01232
-0.016427
-0.022587
-0.030801
-0.022587
-0.022587
-0.01232
-0.0061602
-0.0061602
0.016427
0.032854
0.065708
0.082136
0.098563
0.11294
0.13758
0.13963
0.14784
0.16632
0.17043
0.18891
0.20945
0.21766
0.22998
0.23203
0.23203
0.25667
0.2423
0.26283
0.2423
0.24025
0.23203
0.24435
0.25051
0.25051
0.24435
0.23614
0.23614
0.23409
0.24641
0.24641
0.23819
0.23614
0.22382
0.20329
0.17864
0.15811
0.14579
0.14784
0.15811
0.16427
0.16427
0.16222
0.16222
0.14784
0.13347
0.11704
0.10678
0.096509
0.090349
0.094456
0.094456
0.094456
0.096509
0.088296
0.078029
0.055441
0.043121
0.032854
0.028747
0.032854
0.039014
0.036961
0.034908
0.034908
0.014374
0.0020534
-0.01232
-0.024641
-0.036961
-0.043121
-0.051335
-0.057495
-0.065708
-0.067762
-0.071869
-0.096509
-0.098563
-0.10883
-0.10678
-0.090349
-0.098563
-0.084189
-0.088296
-0.086242
-0.094456
-0.10267
-0.11088
-0.10883
-0.11294
-0.1232
-0.1232
-0.12526
-0.13347
-0.13963
-0.13963
-0.13758
-0.12936
-0.1232
-0.12115
-0.1232
-0.12936
-0.1232
-0.13758
-0.13758
-0.14374
-0.1499
-0.16427
-0.17043
-0.16427
-0.17043
-0.14374
-0.1232
-0.1191
-0.14784
-0.12731
-0.23203
-0.24846
-0.19302
-0.016427
0.12731
0.14784
0.23614
0.33881
0.37988
0.28131
-0.024641
-0.20329
-0.29158
-0.36756
-0.41273
-0.49487
-0.58522
-0.64476
-0.70226
-0.72485
-0.72074
-0.68994
-0.68583
-0.68994
-0.76181
-0.81725
-0.86858
-0.86448
-0.83984
-0.83162
-0.80698
-0.74538
-0.67146
-0.63244
-0.62834
-0.65298
-0.70226
-0.73922
-0.75154
-0.72895
-0.68789
-0.65092
-0.63655
-0.60575
-0.55236
-0.4846
-0.41684
-0.38604
-0.3655
-0.36756
-0.35934
-0.34702
-0.32033
-0.31006
-0.29774
-0.27926
-0.27721
-0.24025
-0.21766
-0.17454
-0.16838
-0.17043
-0.16632
-0.16222
-0.15811
-0.15195
-0.12936
-0.11088
-0.086242
-0.061602
-0.020534
-0.0082136
0.016427
0.030801
0.036961
0.045175
0.057495
0.063655
0.071869
0.080082
0.082136
0.069815
0.049281
0.039014
0.028747
0.024641
0.024641
0.034908
0.034908
0.032854
0.022587
0.016427
0.0082136
0
-0.022587
-0.030801
-0.032854
-0.0041068
0.010267
0.016427
0.032854
0.047228
0.067762
0.086242
0.10472
0.10267
0.084189
0.069815
0.073922
0.078029
0.053388
-0.049281
-0.154
-0.16427
-0.055441
0.28953
0.67351
0.8152
0.6653
0.32444
0.036961
-0.049281
-0.094456
-0.17864
-0.26899
-0.34908
-0.4271
-0.49692
-0.54825
-0.54825
-0.53388
-0.49076
-0.4538
-0.45996
-0.49076
-0.50513
-0.52772
-0.54004
-0.55441
-0.55236
-0.577
-0.57084
-0.52977
-0.46817
-0.40041
-0.35934
-0.37166
-0.42505
-0.44764
-0.45175
-0.40862
-0.3922
-0.35318
-0.34086
-0.26283
-0.16427
-0.049281
0.020534
0.043121
0.016427
0.0020534
-0.022587
-0.020534
-0.030801
-0.020534
-0.028747
-0.022587
-0.022587
-0.016427
-0.026694
-0.020534
-0.020534
-0.016427
0.0082136
0.01232
0.010267
0.01232
0.020534
0.032854
0.039014
0.069815
0.090349
0.1191
0.13552
0.16632
0.17454
0.19097
0.19302
0.18686
0.1848
0.1807
0.18686
0.19302
0.20739
0.21766
0.22587
0.22587
0.20739
0.19507
0.17248
0.14168
0.13142
0.12936
0.12731
0.14374
0.15811
0.16838
0.17248
0.16838
0.13142
0.096509
0.071869
0.067762
0.078029
0.094456
0.10678
0.12115
0.1232
0.13347
0.1232
0.11294
0.086242
0.080082
0.057495
-0.014374
-0.1191
-0.17659
-0.096509
0.13142
0.54004
0.74333
0.70226
0.45175
0.1848
0.067762
0.039014
-0.010267
-0.11499
-0.19918
-0.29363
-0.37782
-0.44969
-0.48665
-0.50103
-0.48255
-0.47844
-0.48049
-0.49692
-0.52567
-0.54209
-0.52977
-0.4846
-0.44148
-0.423
-0.423
-0.44559
-0.44969
-0.43326
-0.37166
-0.35934
-0.34086
-0.37372
-0.39836
-0.39014
-0.41068
-0.41273
-0.38193
-0.28337
-0.15811
-0.073922
-0.028747
-0.030801
-0.055441
-0.034908
-0.020534
0.0061602
-0.0061602
-0.022587
-0.041068
-0.055441
-0.049281
-0.041068
-0.039014
-0.047228
-0.036961
-0.020534
-0.014374
-0.0061602
-0.0082136
0.0041068
0.010267
0.022587
0.022587
0.024641
0.030801
0.053388
0.067762
0.082136
0.092402
0.092402
0.10267
0.086242
0.090349
0.073922
0.10062
0.10883
0.1191
0.12115
0.11499
0.13142
0.13142
0.13552
0.13142
0.12731
0.12115
0.12115
0.13347
0.14784
0.15811
0.16222
0.17043
0.17659
0.19302
0.21355
0.22177
0.22177
0.21766
0.20534
0.19918
0.17659
0.15811
0.13347
0.11499
0.11294
0.10267
0.098563
0.084189
0.082136
0.082136
0.088296
0.096509
0.10472
0.10472
0.11704
0.11294
0.11499
0.11088
0.13347
0.16222
0.16427
0.12526
0.11704
-0.016427
-0.055441
-0.030801
0.18686
0.36961
0.48665
0.55441
0.57906
0.58727
0.47844
0.22382
0.030801
-0.090349
-0.20739
-0.31211
-0.43121
-0.50308
-0.55852
-0.58111
-0.59548
-0.64476
-0.68172
-0.73306
-0.74949
-0.73922
-0.71869
-0.72895
-0.73306
-0.72895
-0.68994
-0.62218
-0.58522
-0.54004
-0.56057
-0.6078
-0.62423
-0.6345
-0.56057
-0.55031
-0.54209
-0.51951
-0.46817
-0.37988
-0.31417
-0.27105
-0.28542
-0.29774
-0.29979
-0.29363
-0.28337
-0.27105
-0.25051
-0.22998
-0.19918
-0.17248
-0.14579
-0.13552
-0.10678
-0.090349
-0.073922
-0.057495
-0.034908
-0.016427
0.0061602
0.01848
0.028747
0.036961
0.036961
0.051335
0.055441
0.063655
0.071869
0.071869
0.073922
0.073922
0.096509
0.10678
0.1232
0.13142
0.13142
0.13347
0.12731
0.1191
0.10678
0.10472
0.10678
0.11704
0.1232
0.12731
0.13142
0.12731
0.1232
0.11088
0.092402
0.059548
0.055441
0.059548
0.075975
0.086242
0.10062
0.1232
0.12936
0.12936
0.11088
0.082136
0.063655
0.073922
0.094456
0.10678
0.11499
0.10883
0.10267
0.10472
0.10883
0.12115
0.12731
0.13142
0.13142
0.1232
0.11704
0.1191
0.12115
0.10678
0.11294
0.10883
0.13347
0.13347
0.082136
-0.055441
-0.17659
-0.17659
0.041068
0.45791
0.83162
0.86858
0.63039
0.28953
0.073922
0.022587
-0.053388
-0.14784
-0.26078
-0.37782
-0.49281
-0.54004
-0.56674
-0.56879
-0.60575
-0.60164
-0.63655
-0.65708
-0.67967
-0.69199
-0.67762
-0.65914
-0.66119
-0.67967
-0.68378
-0.65092
-0.59343
-0.52772
-0.54825
-0.53799
-0.56674
-0.55441
-0.54004
-0.54415
-0.55031
-0.50924
-0.43121
-0.33676
-0.26489
-0.22382
-0.23614
-0.25667
-0.26489
-0.25257
-0.22998
-0.19713
-0.16632
-0.12936
-0.10883
-0.092402
-0.092402
-0.088296
-0.084189
-0.078029
-0.067762
-0.047228
-0.026694
0
0.01232
0.028747
0.053388
0.065708
0.065708
0.073922
0.071869
0.069815
0.067762
0.080082
0.086242
0.094456
0.096509
0.086242
0.075975
0.061602
0.061602
0.071869
0.080082
0.088296
0.088296
0.086242
0.086242
0.10267
0.11499
0.1232
0.12936
0.13347
0.13552
0.13347
0.13142
0.12526
0.11294
0.10472
0.10472
0.10267
0.10678
0.11499
0.12731
0.12936
0.080082
-0.065708
-0.16632
-0.15606
0.0041068
0.3655
0.68583
0.76797
0.61191
0.28337
0.063655
-0.028747
-0.053388
-0.1191
-0.20123
-0.29363
-0.40452
-0.48049
-0.50924
-0.51951
-0.53183
-0.52567
-0.53388
-0.55236
-0.5462
-0.53593
-0.50308
-0.46407
-0.43326
-0.41889
-0.41478
-0.423
-0.43737
-0.42094
-0.40657
-0.32444
-0.31417
-0.30185
-0.32444
-0.35729
-0.40657
-0.40041
-0.35318
-0.26078
-0.1499
-0.082136
-0.049281
-0.030801
-0.045175
-0.036961
-0.053388
-0.043121
-0.034908
-0.022587
-0.026694
-0.041068
-0.045175
-0.053388
-0.053388
-0.055441
-0.051335
-0.057495
-0.051335
-0.039014
-0.01848
-0.0082136
0.0041068
0.022587
0.041068
0.059548
0.073922
0.069815
0.069815
0.069815
0.080082
0.078029
0.090349
0.094456
0.10062
0.096509
0.094456
0.084189
0.073922
0.053388
0.051335
0.047228
0.051335
0.071869
0.065708
0.071869
0.086242
0.090349
0.090349
0.092402
0.10883
0.11088
0.1191
0.12526
0.1191
0.11499
0.10472
0.11294
0.11294
0.11704
0.11704
0.10472
0.10472
0.098563
0.10883
0.11088
0.12936
0.13142
0.14784
0.13552
0.13963
0.12115
0.11704
0.098563
0.090349
0.086242
0.073922
0.069815
0.061602
0.059548
0.065708
0.086242
0.10472
0.078029
-0.026694
-0.17248
-0.27515
-0.21561
0.082136
0.53388
0.78234
0.70637
0.37166
0.041068
-0.13142
-0.1848
-0.25873
-0.3655
-0.44764
-0.55852
-0.61807
-0.65708
-0.67762
-0.68378
-0.68789
-0.68378
-0.70226
-0.72895
-0.74538
-0.73306
-0.70431
-0.69405
-0.68789
-0.69815
-0.67556
-0.64887
-0.52567
-0.49076
-0.45996
-0.51129
-0.55031
-0.61191
-0.62012
-0.56674
-0.48665
-0.3922
-0.34497
-0.3306
-0.32444
-0.30801
-0.27105
-0.27926
-0.22998
-0.23614
-0.21971
-0.23409
-0.28131
-0.30801
-0.32444
-0.25462
-0.14579
-0.0061602
0.10062
0.14579
0.14784
0.1232
0.069815
0.024641
-0.0041068
-0.043121
-0.071869
-0.096509
-0.10883
-0.10267
-0.084189
-0.067762
-0.061602
-0.051335
-0.036961
-0.022587
0
0.020534
0.039014
0.053388
0.073922
0.098563
0.1191
0.12936
0.13552
0.14784
0.14784
0.154
0.14374
0.13963
0.13142
0.13758
0.13963
0.14168
0.154
0.16222
0.16632
0.16016
0.16016
0.15811
0.16016
0.16632
0.16838
0.16838
0.16632
0.17248
0.18275
0.19507
0.21355
0.21766
0.22382
0.20945
0.2115
0.19507
0.19918
0.19097
0.1848
0.17659
0.16427
0.16838
0.16222
0.15811
0.17248
0.18275
0.1848
0.1807
0.1807
0.1807
0.18275
0.1848
0.18686
0.17864
0.16632
0.15811
0.14168
0.1232
0.11704
0.11499
0.11088
0.10678
0.10267
0.090349
0.084189
0.080082
0.069815
0.055441
0.039014
0.020534
0.0041068
-0.014374
-0.016427
-0.01232
-0.0082136
0
-0.0082136
-0.022587
-0.039014
-0.059548
-0.067762
-0.080082
-0.082136
-0.067762
-0.069815
-0.073922
-0.071869
-0.067762
-0.065708
-0.067762
-0.061602
-0.041068
-0.057495
-0.11088
-0.17864
-0.22382
-0.21355
0.01848
0.16222
0.17659
0.010267
-0.075975
0.13552
0.3347
0.35934
0.1232
-0.13963
-0.27515
-0.39836
-0.47433
-0.54209
-0.59343
-0.64271
-0.69815
-0.76181
-0.77002
-0.77207
-0.76386
-0.7885
-0.81314
-0.83778
-0.82136
-0.82546
-0.70637
-0.65708
-0.61602
-0.64887
-0.67967
-0.70021
-0.71663
-0.70431
-0.66735
-0.58727
-0.53183
-0.53183
-0.57495
-0.59343
-0.58316
-0.52156
-0.50513
-0.48665
-0.49692
-0.51745
-0.54004
-0.53593
-0.48871
-0.3963
-0.26489
-0.12526
-0.036961
0.0041068
-0.014374
-0.024641
-0.032854
-0.026694
-0.026694
-0.028747
-0.030801
-0.036961
-0.045175
-0.055441
-0.065708
-0.065708
-0.061602
-0.043121
-0.034908
-0.01232
0.0020534
0.0082136
0.016427
0.034908
0.047228
0.065708
0.086242
0.094456
0.1191
0.13142
0.14579
0.13758
0.1499
0.14784
0.17454
0.16427
0.17043
0.16838
0.154
0.15195
0.13963
0.12731
0.12115
0.12115
0.12115
0.1191
0.1232
0.1232
0.12731
0.13142
0.13552
0.14374
0.14784
0.16632
0.18275
0.19918
0.20329
0.21766
0.22177
0.22382
0.22382
0.2115
0.20123
0.18275
0.18275
0.17864
0.17864
0.17864
0.17043
0.15811
0.13963
0.13552
0.1232
0.1232
0.1232
0.13552
0.13552
0.13552
0.13963
0.13347
0.14374
0.15195
0.15811
0.14579
0.12526
0.11294
0.098563
0.092402
0.086242
0.086242
0.084189
0.073922
0.067762
0.051335
0.043121
0.030801
0.028747
0.014374
0.0061602
0.0020534
-0.0082136
-0.0061602
-0.01232
-0.020534
-0.026694
-0.028747
-0.022587
-0.024641
-0.024641
-0.034908
-0.036961
-0.047228
-0.039014
-0.043121
-0.045175
-0.045175
-0.034908
-0.028747
-0.036961
-0.026694
-0.022587
-0.024641
-0.01848
-0.020534
-0.020534
-0.022587
-0.026694
-0.022587
-0.01848
-0.024641
-0.020534
-0.028747
-0.034908
-0.020534
-0.014374
-0.016427
-0.020534
-0.022587
-0.030801
-0.028747
-0.034908
-0.039014
-0.049281
-0.051335
-0.057495
-0.063655
-0.071869
-0.084189
-0.090349
-0.10267
-0.11499
-0.11499
-0.13963
-0.14374
-0.15811
-0.16632
-0.17043
-0.16427
-0.15195
-0.14374
-0.13963
-0.13552
-0.13142
-0.13552
-0.13142
-0.14374
-0.154
-0.15811
-0.154
-0.13758
-0.12526
-0.12115
-0.1191
-0.13758
-0.14579
-0.14579
-0.15195
-0.16222
-0.16838
-0.17043
-0.17043
-0.15811
-0.14168
-0.13142
-0.12936
-0.1191
-0.10678
-0.10472
-0.10267
-0.10883
-0.10678
-0.10472
-0.094456
-0.10678
-0.16632
-0.18686
-0.22382
-0.18891
-0.092402
0.10883
0.12526
0.010267
-0.1848
-0.23819
0.0020534
0.13758
0.12115
-0.15811
-0.39836
-0.53183
-0.6037
-0.6345
-0.67556
-0.73306
-0.73922
-0.76591
-0.79671
-0.80698
-0.82341
-0.82546
-0.82957
-0.846
-0.86448
-0.87269
-0.87474
-0.83162
-0.77413
-0.77618
-0.75975
-0.78234
-0.76591
-0.75565
-0.76386
-0.74743
-0.72895
-0.65914
-0.6078
-0.52772
-0.47228
-0.46201
-0.47023
-0.48255
-0.49487
-0.46407
-0.36961
-0.29979
-0.24641
-0.27105
-0.3306
-0.36756
-0.38193
-0.35729
-0.31006
-0.21766
-0.11499
-0.0041068
0.065708
0.10062
0.075975
0.065708
0.043121
0.055441
0.043121
0.030801
0.026694
0.01848
0.028747
0.020534
0.010267
0.022587
0.032854
0.055441
0.075975
0.084189
0.094456
0.090349
0.092402
0.094456
0.096509
0.10883
0.12115
0.13347
0.13142
0.13963
0.13552
0.13963
0.14374
0.154
0.15606
0.16222
0.16632
0.17248
0.17659
0.1807
0.18891
0.17864
0.19097
0.19507
0.20534
0.19918
0.18891
0.19713
0.1848
0.18891
0.18275
0.17248
0.17043
0.16838
0.16632
0.15195
0.14579
0.13758
0.13552
0.13142
0.14168
0.13347
0.13347
0.13347
0.13347
0.12936
0.11704
0.1232
0.1232
0.13347
0.13758
0.13758
0.13963
0.14784
0.16632
0.16427
0.16632
0.16632
0.16222
0.15606
0.15195
0.15606
0.1499
0.14579
0.13347
0.12936
0.11294
0.10267
0.098563
0.094456
0.10062
0.10678
0.10472
0.090349
0.086242
0.078029
0.080082
0.086242
0.10267
0.10883
0.10472
0.096509
0.090349
0.084189
0.073922
0.057495
0.043121
0.032854
0.022587
0.014374
0.0041068
-0.0061602
-0.0061602
-0.0061602
-0.014374
-0.01232
-0.016427
-0.022587
-0.024641
-0.016427
-0.014374
-0.01232
0.0020534
-0.0061602
-0.0082136
-0.010267
-0.010267
-0.01232
-0.01232
-0.016427
-0.020534
-0.028747
-0.045175
-0.055441
-0.071869
-0.071869
-0.078029
-0.086242
-0.10267
-0.1232
-0.12115
-0.11704
-0.10062
-0.086242
-0.069815
-0.067762
-0.057495
-0.039014
-0.028747
-0.057495
-0.049281
-0.11704
-0.154
-0.082136
0.12731
0.19302
0.16838
0.032854
0.053388
0.13347
0.13758
-0.080082
-0.31417
-0.44969
-0.55441
-0.58932
-0.63655
-0.70842
-0.78645
-0.84394
-0.8768
-0.84805
-0.8193
-0.82341
-0.83368
-0.84394
-0.82341
-0.81314
-0.71253
-0.6961
-0.67146
-0.71047
-0.75975
-0.77413
-0.74743
-0.6961
-0.65503
-0.65503
-0.65503
-0.63244
-0.58111
-0.48665
-0.44764
-0.43532
-0.46612
-0.49692
-0.50924
-0.50308
-0.4538
-0.3655
-0.28337
-0.20534
-0.1499
-0.098563
-0.075975
-0.073922
-0.053388
-0.043121
-0.016427
-0.0020534
0.01232
0.0041068
0.0061602
0.01232
0.014374
0.026694
0.039014
0.059548
0.067762
0.069815
0.084189
0.092402
0.11088
0.1232
0.13758
0.14374
0.14784
0.154
0.15606
0.16427
0.17454
0.17864
0.17659
0.1807
0.18686
0.19097
0.19507
0.20945
0.2115
0.21355
0.21561
0.19918
0.19097
0.17659
0.18275
0.18891
0.19507
0.19918
0.20123
0.20123
0.20945
0.21766
0.22793
0.23409
0.22382
0.12936
-0.032854
-0.14579
-0.12115
0.11088
0.49897
0.82752
0.84189
0.61807
0.25257
-0.010267
-0.12526
-0.18686
-0.22177
-0.28747
-0.34702
-0.41478
-0.43326
-0.43737
-0.46817
-0.51335
-0.55031
-0.58111
-0.60575
-0.61191
-0.62012
-0.60164
-0.48255
-0.39425
-0.31828
-0.31622
-0.37166
-0.43737
-0.47844
-0.4846
-0.4538
-0.38809
-0.28747
-0.20945
-0.13552
-0.12731
-0.14579
-0.154
-0.11088
-0.024641
0.01232
0.0082136
-0.067762
-0.11704
-0.17659
-0.22998
-0.25051
-0.22587
-0.13142
-0.016427
0.14374
0.26489
0.31006
0.31211
0.24025
0.16632
0.090349
0.032854
0
-0.01848
-0.0082136
0.024641
0.063655
0.10062
0.12731
0.13758
0.14168
0.13347
0.11294
0.094456
0.080082
0.080082
0.078029
0.086242
0.092402
0.096509
0.090349
0.094456
0.10267
0.11088
0.11499
0.11704
0.11499
0.12115
0.11088
0.1191
0.10472
0.11294
0.12115
0.12936
0.1232
0.13758
0.14168
0.154
0.16222
0.17248
0.1807
0.16838
0.17248
0.16838
0.17043
0.17454
0.17454
0.1807
0.16632
0.16632
0.15811
0.14784
0.13758
0.12936
0.12115
0.10472
0.096509
0.088296
0.082136
0.080082
0.071869
0.061602
0.061602
0.069815
0.086242
0.10062
0.10678
0.1232
0.12115
0.12936
0.13142
0.13552
0.12115
0.10883
0.098563
0.084189
0.080082
0.082136
0.086242
0.096509
0.098563
0.11294
0.10062
0.028747
-0.12115
-0.2731
-0.29363
-0.088296
0.28747
0.6078
0.56468
0.34086
-0.010267
-0.21561
-0.27721
-0.30801
-0.35113
-0.40041
-0.48871
-0.58316
-0.64682
-0.69815
-0.6961
-0.70842
-0.70431
-0.71253
-0.71663
-0.64476
-0.577
-0.49897
-0.49281
-0.55441
-0.63244
-0.70431
-0.72279
-0.68994
-0.6386
-0.61807
-0.59343
-0.56674
-0.47844
-0.3655
-0.28747
-0.26283
-0.31828
-0.37372
-0.40041
-0.41478
-0.39425
-0.3306
-0.22998
-0.1191
-0.043121
0.020534
0.032854
0.030801
0.020534
-0.0020534
-0.014374
-0.026694
-0.032854
-0.034908
-0.030801
-0.022587
0
0.0041068
0.020534
0.034908
0.043121
0.059548
0.088296
0.11704
0.13963
0.1499
0.154
0.15195
0.154
0.15606
0.15811
0.13963
0.13142
0.11294
0.096509
0.084189
0.084189
0.090349
0.078029
0.073922
0.063655
0.069815
0.082136
0.10678
0.1191
0.12115
0.12526
0.12115
0.11704
0.11294
0.11294
0.10883
0.10267
0.10883
0.10678
0.11704
0.11499
0.12115
0.1191
0.10883
0.10472
0.10267
0.10678
0.094456
0.022587
-0.13347
-0.25051
-0.22998
-0.022587
0.37782
0.72074
0.79055
0.57906
0.19918
-0.065708
-0.15606
-0.21561
-0.27515
-0.3306
-0.41068
-0.4538
-0.50513
-0.55031
-0.57084
-0.59754
-0.60575
-0.62423
-0.64066
-0.63039
-0.6078
-0.50719
-0.42094
-0.34497
-0.34292
-0.39425
-0.47228
-0.54004
-0.56263
-0.53183
-0.44148
-0.34908
-0.26489
-0.22587
-0.21766
-0.24435
-0.13963
-0.075975
-0.0020534
-0.0082136
-0.078029
-0.14374
-0.22177
-0.28953
-0.34086
-0.35729
-0.32033
-0.22177
-0.073922
0.073922
0.19302
0.26078
0.23203
0.15606
0.069815
-0.01232
-0.049281
-0.092402
-0.10062
-0.11088
-0.092402
-0.041068
0.0020534
0.055441
0.086242
0.094456
0.088296
0.059548
0.045175
0.016427
0.0061602
-0.0041068
-0.0041068
-0.010267
-0.01232
0
0.0082136
0.036961
0.053388
0.065708
0.065708
0.065708
0.071869
0.075975
0.080082
0.092402
0.10062
0.10472
0.11499
0.1232
0.12115
0.12936
0.13552
0.14784
0.1499
0.15606
0.14374
0.13347
0.13142
0.1232
0.12731
0.11704
0.11499
0.10883
0.10678
0.10267
0.10678
0.10472
0.10267
0.10267
0.10472
0.11088
0.1191
0.13142
0.13347
0.13552
0.13758
0.13963
0.13963
0.12936
0.12731
0.12526
0.12936
0.13963
0.14168
0.13758
0.12936
0.12731
0.10472
0.098563
0.086242
0.080082
0.069815
0.053388
0.047228
0.034908
0.043121
0.051335
0.067762
0.067762
0.061602
0.063655
0.063655
0.061602
0.053388
0.039014
0.022587
0.016427
-0.0061602
0.0041068
-0.014374
0.0020534
0.0041068
-0.0082136
-0.022587
-0.036961
-0.051335
-0.073922
-0.080082
-0.094456
-0.10472
-0.10883
-0.10472
-0.092402
-0.084189
-0.069815
-0.071869
-0.071869
-0.078029
-0.080082
-0.073922
-0.069815
-0.057495
-0.049281
-0.055441
-0.061602
-0.073922
-0.088296
-0.10267
-0.098563
-0.10062
-0.10062
-0.10472
-0.11704
-0.11499
-0.1191
-0.11294
-0.11704
-0.10267
-0.092402
-0.094456
-0.086242
-0.088296
-0.080082
-0.082136
-0.084189
-0.082136
-0.078029
-0.082136
-0.088296
-0.073922
-0.082136
-0.065708
-0.071869
-0.075975
-0.092402
-0.10678
-0.10678
-0.11294
-0.10472
-0.10267
-0.10062
-0.10472
-0.11499
-0.12115
-0.12731
-0.14168
-0.13758
-0.13347
-0.14374
-0.14579
-0.20739
-0.26694
-0.27926
-0.25257
-0.067762
0.17864
0.1807
-0.071869
-0.40452
-0.49281
-0.22793
-0.01232
-0.024641
-0.21971
-0.46201
-0.59138
-0.67967
-0.7269
-0.76181
-0.84189
-0.89117
-0.92402
-0.94045
-0.97947
-0.90965
-0.85626
-0.77002
-0.73511
-0.75154
-0.77413
-0.80493
-0.8193
-0.80082
-0.74333
-0.6078
-0.50924
-0.44148
-0.45791
-0.50308
-0.56468
-0.61191
-0.63244
-0.59959
-0.55031
-0.47844
-0.37166
-0.29363
-0.23614
-0.25257
-0.28337
-0.29774
-0.19507
-0.080082
0.075975
0.15606
0.12936
0.0082136
-0.1807
-0.30801
-0.30185
-0.22177
-0.084189
0.053388
0.13963
0.19097
0.16838
0.1499
0.12526
0.088296
0.057495
0.01848
-0.016427
-0.036961
-0.045175
-0.049281
-0.043121
-0.01848
0
0.0082136
0.030801
0.045175
0.078029
0.092402
0.11499
0.12526
0.13758
0.1499
0.154
0.14579
0.13552
0.12936
0.1232
0.11704
0.11499
0.11704
0.12526
0.12731
0.14168
0.13552
0.13758
0.13347
0.1232
0.11704
0.10883
0.11704
0.11294
0.11499
0.12526
0.12731
0.12526
0.11294
0.11088
0.10062
0.11704
0.12526
0.13963
0.13142
0.12526
0.12936
0.10267
0.10883
0.11294
0.12936
0.10883
0.01848
-0.12115
-0.21561
-0.14374
0.14579
0.577
0.80698
0.6961
0.3614
-0.041068
-0.23614
-0.27515
-0.30595
-0.34497
-0.35729
-0.46407
-0.52772
-0.59548
-0.59343
-0.57906
-0.59138
-0.62012
-0.62628
-0.65914
-0.66119
-0.66324
-0.5462
-0.43532
-0.32033
-0.31417
-0.36756
-0.46407
-0.54004
-0.577
-0.55647
-0.47433
-0.3655
-0.24641
-0.14784
-0.061602
-0.053388
-0.061602
-0.086242
-0.1232
-0.14579
-0.16838
-0.16427
-0.1232
-0.080082
-0.014374
0.049281
0.10678
0.1499
0.16838
0.1499
0.11704
0.084189
0.067762
0.047228
0.043121
0.055441
0.059548
0.063655
0.053388
0.047228
0.045175
0.057495
0.071869
0.078029
0.088296
0.10062
0.11704
0.11704
0.12526
0.13963
0.17043
0.20739
0.23819
0.26078
0.26489
0.27721
0.27515
0.27515
0.27721
0.27926
0.28337
0.27515
0.26283
0.27721
0.2731
0.27926
0.27105
0.25873
0.24846
0.24025
0.21971
0.19507
0.17248
0.15811
0.14784
0.13347
0.12936
0.12115
0.12936
0.13142
0.15606
0.16427
0.17659
0.1807
0.17043
0.16222
0.14374
0.14579
0.13758
0.13347
0.12936
0.12115
0.11294
0.096509
0.084189
0.061602
0.057495
0.047228
0.041068
0.026694
0.01848
0.0082136
-0.0041068
-0.01232
-0.014374
-0.010267
-0.010267
0.0020534
0.016427
0.024641
0.022587
0.01848
0.01848
0.0061602
0
-0.014374
-0.022587
-0.028747
-0.036961
-0.043121
-0.045175
-0.047228
-0.055441
-0.061602
-0.075975
-0.084189
-0.090349
-0.096509
-0.10062
-0.10472
-0.10883
-0.1191
-0.10883
-0.1191
-0.12731
-0.12115
-0.1232
-0.12115
-0.12731
-0.12115
-0.12936
-0.12526
-0.11499
-0.12115
-0.13142
-0.16427
-0.14168
-0.14784
-0.13142
-0.12731
-0.13347
-0.13963
-0.13552
-0.13758
-0.12936
-0.10678
-0.084189
-0.059548
-0.053388
-0.059548
-0.049281
-0.055441
-0.059548
-0.071869
-0.073922
-0.086242
-0.092402
-0.10472
-0.11499
-0.12115
-0.12936
-0.13552
-0.154
-0.15811
-0.17659
-0.19302
-0.2115
-0.21766
-0.21561
-0.21355
-0.20329
-0.19097
-0.17864
-0.15606
-0.12936
-0.11088
-0.098563
-0.084189
-0.075975
-0.078029
-0.088296
-0.078029
-0.075975
-0.071869
-0.069815
-0.094456
-0.16016
-0.26078
-0.25462
-0.21355
0.034908
0.20739
0.18686
-0.11294
-0.49281
-0.59959
-0.43121
-0.1191
0.010267
-0.041068
-0.24435
-0.42094
-0.52361
-0.60164
-0.65092
-0.71663
-0.77823
-0.81725
-0.86653
-0.88706
-0.94045
-0.95072
-0.94456
-0.82752
-0.70431
-0.57495
-0.56057
-0.61602
-0.71047
-0.78234
-0.78645
-0.76591
-0.73511
-0.70842
-0.71458
-0.70226
-0.68378
-0.53593
-0.40041
-0.23614
-0.16427
-0.19713
-0.29363
-0.41684
-0.50308
-0.49487
-0.43737
-0.34908
-0.26489
-0.17864
-0.10472
-0.069815
-0.057495
-0.067762
-0.10267
-0.12731
-0.14784
-0.13758
-0.11088
-0.059548
-0.030801
0.0061602
0.032854
0.047228
0.047228
0.039014
0.01232
0.016427
0.024641
0.026694
0.036961
0.043121
0.049281
0.059548
0.067762
0.080082
0.088296
0.090349
0.10062
0.088296
0.084189
0.078029
0.086242
0.084189
0.073922
0.078029
0.067762
0.080082
0.088296
0.098563
0.11088
0.12526
0.14374
0.16016
0.16222
0.17659
0.19097
0.19507
0.20534
0.20739
0.20329
0.21561
0.22793
0.24846
0.25257
0.25873
0.25051
0.24846
0.23819
0.22587
0.2115
0.18891
0.17659
0.16632
0.16222
0.16427
0.17248
0.18275
0.19302
0.20534
0.21561
0.22177
0.22587
0.23409
0.22793
0.21766
0.20945
0.19918
0.19713
0.17659
0.16427
0.13552
0.12115
0.11704
0.10267
0.092402
0.078029
0.073922
0.065708
0.067762
0.080082
0.086242
0.092402
0.096509
0.098563
0.090349
0.090349
0.096509
0.11088
0.12115
0.12731
0.12731
0.12526
0.12731
0.13552
0.14168
0.12526
0.1232
0.11499
0.10062
0.092402
0.073922
0.059548
0.041068
0.028747
0.01848
0.010267
0.0082136
0.0041068
-0.0020534
-0.0041068
-0.0041068
-0.01232
0.0061602
0.0082136
0.032854
0.045175
0.022587
-0.041068
-0.082136
-0.1499
-0.0020534
0.27721
0.30185
0.12115
-0.19918
-0.27515
-0.055441
0.080082
0.063655
-0.14784
-0.33881
-0.49897
-0.64271
-0.7269
-0.81109
-0.85216
-0.91992
-0.97947
-1
-0.91786
-0.82546
-0.72279
-0.68789
-0.72485
-0.78439
-0.83984
-0.86448
-0.86037
-0.82957
-0.76386
-0.6653
-0.58522
-0.54415
-0.56263
-0.60575
-0.63244
-0.64066
-0.62012
-0.59959
-0.56468
-0.53388
-0.50719
-0.39014
-0.27721
-0.15606
-0.094456
-0.11088
-0.14168
-0.20739
-0.26078
-0.27721
-0.25462
-0.19918
-0.12115
-0.049281
0.016427
0.078029
0.11088
0.10472
0.092402
0.075975
0.073922
0.061602
0.057495
0.045175
0.045175
0.045175
0.053388
0.053388
0.049281
0.061602
0.075975
0.088296
0.094456
0.10678
0.10883
0.12731
0.13963
0.154
0.16632
0.16838
0.18275
0.18275
0.19302
0.19918
0.2115
0.2115
0.20739
0.20945
0.20329
0.21561
0.21971
0.23614
0.23203
0.22998
0.22177
0.2115
0.20739
0.2115
0.22177
0.22382
0.23409
0.23409
0.23203
0.23203
0.23614
0.24025
0.24025
0.24435
0.24025
0.24025
0.23203
0.22587
0.22382
0.20739
0.20534
0.19507
0.18686
0.18275
0.17659
0.17248
0.16427
0.16222
0.15811
0.14374
0.13347
0.1232
0.10883
0.10062
0.10062
0.10472
0.11499
0.1191
0.12936
0.12731
0.12115
0.1232
0.1191
0.1191
0.10883
0.10883
0.092402
0.067762
0.053388
0.028747
0.024641
0.022587
0.030801
0.026694
0.030801
0.045175
0.057495
0.063655
0.049281
0.041068
0.0082136
0.01232
0.0041068
0.022587
0.010267
0.01848
0.016427
0.01232
0.0061602
0
-0.0020534
-0.0061602
-0.0041068
-0.0061602
-0.014374
-0.020534
-0.01232
-0.0041068
0
0.0082136
0.0082136
-0.0082136
-0.01232
-0.016427
-0.01848
-0.028747
-0.039014
-0.049281
-0.063655
-0.080082
-0.078029
-0.075975
-0.073922
-0.063655
-0.067762
-0.067762
0.034908
