0.71259
0.70071
0.69834
0.68409
0.66271
0.63895
0.61045
0.56295
0.52494
0.48219
0.45131
0.4228
0.40855
0.4133
0.42993
0.41568
0.36817
0.2304
0.0023753
-0.24466
-0.52257
-0.61758
-0.6152
-0.45131
-0.2304
0.0071259
0.24941
0.44418
0.54394
0.54632
0.52019
0.50356
0.52257
0.55819
0.61995
0.66271
0.71259
0.74822
0.76722
0.77435
0.76722
0.76485
0.73872
0.69359
0.64846
0.56057
0.47506
0.4228
0.43468
0.49406
0.5677
0.60808
0.6152
0.5962
0.56532
0.54632
0.52969
0.51069
0.50594
0.50831
0.50831
0.51069
0.49406
0.46318
0.42993
0.4038
0.37767
0.36105
0.35867
0.34442
0.33017
0.31354
0.32304
0.35154
0.33729
0.30641
0.2114
0.026128
-0.21378
-0.41568
-0.53444
-0.49169
-0.3753
-0.25416
-0.12114
0.014252
0.2114
0.38955
0.42518
0.30166
0.085511
-0.078385
-0.13539
-0.064133
0.07601
0.27553
0.27553
0.41568
0.43705
0.34917
0.26366
0.2399
0.2304
0.22565
0.20903
0.20428
0.20903
0.22803
0.27791
0.32304
0.37055
0.40618
0.41568
0.41093
0.4038
0.40855
0.4133
0.4323
0.45843
0.47506
0.48219
0.49644
0.50356
0.49406
0.48456
0.47031
0.44893
0.42993
0.42755
0.40855
0.3943
0.39192
0.41093
0.43705
0.43943
0.4228
0.35867
0.21615
-0.0095012
-0.24466
-0.39667
-0.4228
-0.35392
-0.28741
-0.20665
-0.090261
0.047506
0.16152
0.24466
0.31829
0.35629
0.37292
0.41805
0.45606
0.49406
0.52257
0.55344
0.59145
0.61045
0.6152
0.6152
0.58432
0.52732
0.44181
0.27553
0.11164
0.026128
0.07601
0.20665
0.31829
0.37055
0.38717
0.4038
0.43705
0.46318
0.49406
0.53207
0.55819
0.57957
0.58907
0.6057
0.61995
0.63183
0.6342
0.63658
0.6247
0.61045
0.5867
0.56057
0.53919
0.51781
0.50119
0.47743
0.46318
0.45606
0.45606
0.45131
0.43943
0.43468
0.41093
0.39667
0.4038
0.4038
0.41093
0.41805
0.43943
0.45131
0.44656
0.45131
0.44893
0.44893
0.46081
0.47268
0.46793
0.46081
0.44893
0.45368
0.46081
0.47981
0.49169
0.49644
0.46556
0.38242
0.2114
-0.028504
-0.27078
-0.52732
-0.60333
-0.60808
-0.44418
-0.24703
-0.049881
0.18765
0.33492
0.34917
0.2019
0.049881
-0.038005
-0.033254
0.049881
0.18765
0.27316
0.28266
0.20665
0.11639
0.07601
0.097387
0.13064
0.17815
0.2304
0.29691
0.34917
0.38242
0.39667
0.34679
0.28029
0.22803
0.2304
0.28741
0.36817
0.44418
0.48456
0.51544
0.54157
0.57245
0.60333
0.62708
0.66271
0.66033
0.6247
0.53682
0.39667
0.26603
0.23515
0.29929
0.40143
0.44893
0.45131
0.47031
0.48931
0.52019
0.54869
0.54157
0.49881
0.40618
0.33017
0.27078
0.29929
0.36817
0.42993
0.46318
0.48219
0.48931
0.49881
0.49644
0.50356
0.52494
0.54394
0.5677
0.58195
0.57482
0.57482
0.57007
0.56295
0.53207
0.50594
0.46318
0.4228
0.39905
0.38717
0.38005
0.37292
0.3943
0.39905
0.3943
0.36105
0.28979
0.15439
-0.07601
-0.30879
-0.47268
-0.54157
-0.47506
-0.3658
-0.19002
-0.0095012
0.18765
0.35867
0.47981
0.56295
0.60808
0.6342
0.65558
0.67458
0.68884
0.68409
0.68171
0.69359
0.69834
0.71259
0.71971
0.69359
0.61045
0.47743
0.27553
0.10214
0.021378
0.07601
0.2019
0.28741
0.31829
0.33017
0.33254
0.3658
0.40618
0.42755
0.41568
0.3943
0.34679
0.30879
0.30879
0.34917
0.41568
0.45368
0.49644
0.52494
0.55344
0.55107
0.56532
0.57482
0.57957
0.54869
0.4323
0.22328
-0.035629
-0.14964
-0.071259
0.092637
0.23515
0.24941
0.23515
0.26366
0.32304
0.32779
0.2399
0.095012
-0.07601
-0.18527
-0.22803
-0.2209
-0.16627
-0.07601
0.033254
0.095012
0.11876
0.11876
0.13064
0.14014
0.14964
0.15914
0.1734
0.19952
0.22803
0.27553
0.31354
0.34442
0.36342
0.37292
0.36817
0.38242
0.41093
0.41805
0.42043
0.4228
0.43468
0.44181
0.45368
0.45843
0.43943
0.41568
0.32542
0.18052
0.0071259
-0.061758
-0.035629
0.059382
0.13539
0.19715
0.25416
0.30879
0.38005
0.42993
0.47268
0.50594
0.53207
0.55582
0.59145
0.63183
0.66271
0.67696
0.68409
0.69834
0.70309
0.67933
0.62233
0.49169
0.24228
0.011876
-0.061758
0.021378
0.18765
0.27791
0.30404
0.33492
0.4133
0.49644
0.5772
0.63658
0.68646
0.70784
0.72447
0.72922
0.74347
0.74347
0.74109
0.74109
0.72684
0.70071
0.67458
0.64608
0.61283
0.59382
0.57482
0.56295
0.55344
0.54157
0.53207
0.50831
0.49881
0.48694
0.48219
0.46793
0.47268
0.47506
0.48694
0.48931
0.49406
0.49644
0.47981
0.47743
0.46318
0.46081
0.46318
0.47268
0.47031
0.47268
0.46081
0.43705
0.41568
0.4038
0.41805
0.46556
0.50119
0.52494
0.48456
0.3753
0.17102
-0.054632
-0.29216
-0.48456
-0.53682
-0.52494
-0.39667
-0.21615
0.061758
0.31591
0.48219
0.54869
0.54632
0.54632
0.59382
0.66746
0.74584
0.80523
0.84086
0.7696
0.66508
0.57245
0.53919
0.55107
0.55819
0.56295
0.57957
0.61758
0.63895
0.63658
0.57482
0.48219
0.39192
0.33017
0.32304
0.36342
0.4038
0.42755
0.45368
0.48219
0.51544
0.54157
0.57007
0.58195
0.58195
0.57245
0.5677
0.55107
0.54394
0.53444
0.52732
0.51069
0.48456
0.42755
0.31829
0.11164
-0.14252
-0.34679
-0.35629
-0.26841
-0.08076
-0.0047506
0.019002
-0.0071259
-0.052257
-0.11876
-0.16152
-0.16627
-0.10689
0.016627
0.11639
0.15677
0.13302
0.11876
0.14252
0.15202
0.12827
0.095012
0.068884
0.071259
0.087886
0.11164
0.14489
0.19002
0.23753
0.24941
0.25178
0.22565
0.2114
0.20428
0.21615
0.24466
0.27078
0.30166
0.33254
0.38242
0.41093
0.44893
0.47506
0.47743
0.48931
0.49881
0.50594
0.50594
0.49881
0.48456
0.47031
0.46081
0.47268
0.48456
0.50356
0.50831
0.51781
0.51544
0.50356
0.50831
0.50356
0.49881
0.49881
0.50356
0.49169
0.47506
0.45843
0.45131
0.44181
0.4323
0.42993
0.4323
0.45606
0.48456
0.49881
0.50119
0.51069
0.51544
0.50831
0.49406
0.49406
0.46318
0.44418
0.42518
0.43705
0.43943
0.45131
0.44893
0.45843
0.44418
0.44418
0.43943
0.42755
0.42755
0.42993
0.42043
0.39667
0.37767
0.3658
0.36342
0.3753
0.39905
0.41568
0.38005
0.26603
0.045131
-0.25891
-0.58432
-0.79335
-0.87411
-0.77435
-0.57957
-0.35629
-0.13302
0.042755
0.15677
0.20903
0.24228
0.27553
0.30166
0.29691
0.27078
0.23278
0.19952
0.1734
0.17815
0.19477
0.21615
0.24703
0.28979
0.30641
0.31116
0.28266
0.26603
0.25416
0.28741
0.35154
0.4228
0.47268
0.51781
0.54157
0.54632
0.54632
0.52257
0.49406
0.4228
0.33967
0.30166
0.31116
0.38242
0.46318
0.53444
0.59857
0.64133
0.66746
0.67696
0.69359
0.69121
0.63895
0.52257
0.32542
0.18527
0.14727
0.24941
0.36342
0.3753
0.36817
0.3753
0.41568
0.45131
0.47031
0.45606
0.4038
0.33729
0.28979
0.30166
0.34679
0.41093
0.46793
0.49644
0.53444
0.57482
0.61045
0.63183
0.65796
0.67221
0.66983
0.65796
0.65796
0.64608
0.64371
0.64133
0.63658
0.61283
0.59382
0.5772
0.55582
0.54632
0.50831
0.41805
0.2304
-0.030879
-0.26366
-0.34204
-0.29216
-0.12827
0.0071259
0.1639
0.35867
0.56295
0.64133
0.54632
0.32304
0.090261
-0.054632
-0.08076
-0.026128
0.10214
0.24466
0.33254
0.33967
0.28266
0.26128
0.25653
0.23515
0.18765
0.11164
0.059382
0.049881
0.092637
0.15202
0.21378
0.26366
0.30879
0.34204
0.34917
0.35867
0.35867
0.36342
0.37292
0.39667
0.42043
0.42755
0.4323
0.43468
0.42518
0.4323
0.44893
0.46081
0.47743
0.49881
0.51306
0.53682
0.56295
0.56532
0.52257
0.41805
0.2209
0.016627
-0.10689
-0.14727
-0.12352
-0.10214
-0.033254
0.095012
0.23515
0.36817
0.47031
0.54157
0.5867
0.61283
0.65321
0.67458
0.69834
0.70071
0.70546
0.69596
0.70071
0.71021
0.74584
0.74109
0.70546
0.53919
0.27791
0.071259
0.045131
0.1639
0.24941
0.2399
0.17577
0.16152
0.21615
0.28029
0.33017
0.36817
0.39667
0.41093
0.38955
0.35629
0.33017
0.32304
0.31829
0.33729
0.32542
0.33254
0.33492
0.3753
0.4038
0.4323
0.46318
0.47743
0.50356
0.51544
0.50119
0.4133
0.22328
-0.071259
-0.30166
-0.44893
-0.42993
-0.31591
-0.15677
0.038005
0.2304
0.40855
0.53444
0.61758
0.66983
0.70309
0.73634
0.7696
0.7981
0.8171
0.8361
0.85036
0.8361
0.82898
0.8171
0.80285
0.7696
0.74109
0.73159
0.72209
0.73634
0.72922
0.71259
0.67933
0.64846
0.61758
0.54394
0.4038
0.14252
-0.14489
-0.45843
-0.57957
-0.53919
-0.37767
-0.13777
0.092637
0.30641
0.38005
0.35392
0.18527
0.035629
-0.026128
0.0095012
0.08076
0.16865
0.24228
0.28504
0.30404
0.28504
0.26366
0.23515
0.2209
0.21378
0.20903
0.22328
0.23753
0.26366
0.26128
0.24703
0.23278
0.19952
0.19002
0.18527
0.1829
0.17102
0.16865
0.15914
0.17577
0.18765
0.17815
0.10451
-0.057007
-0.22328
-0.31829
-0.30404
-0.27316
-0.22328
-0.16152
-0.092637
0.0023753
0.099762
0.19715
0.29929
0.40855
0.50831
0.60095
0.68171
0.73397
0.77435
0.78385
0.80048
0.7981
0.79335
0.7791
0.76722
0.76485
0.7696
0.79097
0.7981
0.79335
0.77672
0.7601
0.73872
0.72684
0.72209
0.72684
0.71259
0.68646
0.65558
0.6247
0.61995
0.62233
0.62708
0.6247
0.62233
0.61758
0.58432
0.51306
0.34679
0.045131
-0.28266
-0.5867
-0.66508
-0.60808
-0.4228
-0.22565
-0.0095012
0.1734
0.31116
0.37292
0.36342
0.37292
0.40143
0.43468
0.4323
0.44181
0.46318
0.49406
0.55819
0.62708
0.68409
0.71496
0.73634
0.72684
0.72447
0.72922
0.73872
0.76247
0.75534
0.73397
0.61758
0.40855
0.2399
0.18052
0.23278
0.30879
0.35154
0.37767
0.4228
0.46318
0.50356
0.53444
0.57245
0.6152
0.62945
0.5867
0.43943
0.1639
-0.071259
-0.1734
-0.11164
0.021378
0.11639
0.1639
0.23515
0.26603
0.25891
0.2114
0.16152
0.12114
0.085511
0.021378
-0.095012
-0.25178
-0.28979
-0.28266
-0.2019
-0.11876
-0.061758
0.038005
0.13064
0.23278
0.29929
0.34442
0.39667
0.42993
0.44181
0.42755
0.36105
0.20903
0.14727
0.16152
0.25416
0.32067
0.32304
0.34204
0.38717
0.43943
0.49644
0.53682
0.56057
0.58432
0.61045
0.63658
0.65321
0.65321
0.64846
0.62945
0.61283
0.60095
0.5677
0.53919
0.50831
0.48456
0.45131
0.42755
0.4228
0.41805
0.4228
0.42043
0.42755
0.42755
0.43943
0.45368
0.45843
0.46081
0.46793
0.47506
0.47268
0.46081
0.45131
0.44656
0.44893
0.47268
0.47268
0.47268
0.47981
0.48694
0.49406
0.48694
0.47506
0.46556
0.45606
0.45131
0.42518
0.32067
0.11876
-0.1829
-0.49881
-0.65558
-0.69834
-0.56532
-0.37292
-0.14964
0.12352
0.34204
0.46793
0.49169
0.43468
0.37055
0.32067
0.29454
0.28979
0.29929
0.32304
0.34442
0.36342
0.36817
0.38005
0.3848
0.38955
0.40855
0.4133
0.42043
0.41568
0.41805
0.41093
0.37292
0.34204
0.29454
0.24941
0.22803
0.2304
0.22565
0.22803
0.2209
0.22803
0.23515
0.23753
0.24228
0.23278
0.2304
0.21853
0.19952
0.1734
0.16152
0.1734
0.1924
0.22328
0.25178
0.26841
0.29691
0.30166
0.31829
0.32542
0.32779
0.34204
0.33729
0.32779
0.29454
0.23515
0.083135
-0.10926
-0.29216
-0.33729
-0.29454
-0.1639
-0.026128
0.12827
0.28979
0.4323
0.54869
0.63658
0.71259
0.76722
0.80523
0.82898
0.84561
0.85273
0.84561
0.83373
0.81473
0.7981
0.79335
0.79335
0.7791
0.71971
0.59382
0.39192
0.21378
0.14489
0.19715
0.29691
0.34679
0.38717
0.4133
0.42993
0.47743
0.53444
0.55582
0.53207
0.47268
0.41568
0.3848
0.40618
0.45606
0.51306
0.57245
0.6342
0.65321
0.64608
0.61995
0.57957
0.48456
0.32067
0.085511
-0.023753
-0.054632
0.026128
0.095012
0.11401
0.16152
0.17102
0.16152
0.12589
0.11876
0.10689
0.10214
0.10214
0.13064
0.18052
0.23515
0.28741
0.31354
0.30879
0.30404
0.31829
0.34204
0.3753
0.41093
0.47031
0.52494
0.58195
0.61045
0.61995
0.6152
0.61995
0.6152
0.60808
0.5962
0.57957
0.56057
0.54157
0.55107
0.56532
0.58195
0.59382
0.61283
0.63183
0.64846
0.65321
0.65321
0.63658
0.59857
0.57007
0.54632
0.53207
0.53207
0.50831
0.44656
0.29216
0.035629
-0.22565
-0.42755
-0.47506
-0.4323
-0.28504
-0.10451
0.10451
0.28504
0.41568
0.50831
0.55107
0.55344
0.53207
0.48931
0.43468
0.39192
0.37767
0.35392
0.35392
0.33729
0.35154
0.3658
0.38717
0.3943
0.31829
0.2114
0.12352
0.085511
0.10689
0.13777
0.16865
0.20903
0.24466
0.27791
0.29929
0.30404
0.30641
0.29454
0.29929
0.30641
0.31354
0.29691
0.28266
0.24703
0.25653
0.27078
0.28979
0.29691
0.28266
0.25178
0.21853
0.2019
0.18765
0.18052
0.18052
0.16865
0.14014
0.12114
0.11876
0.11164
0.12352
0.11876
0.13539
0.13302
0.11876
0.13064
0.13777
0.18765
0.22565
0.24941
0.25178
0.24941
0.24466
0.22803
0.21853
0.24703
0.28504
0.32542
0.35392
0.30166
0.13777
-0.064133
-0.2019
-0.23753
-0.1924
-0.11401
-0.011876
0.11876
0.28504
0.42755
0.55582
0.63658
0.70309
0.77197
0.83373
0.90261
0.95724
0.98575
1
0.99762
0.981
0.95012
0.93349
0.91686
0.87173
0.7981
0.60808
0.39905
0.21615
0.14964
0.20665
0.25891
0.30879
0.34917
0.3658
0.39905
0.4133
0.43943
0.45843
0.48694
0.53207
0.56532
0.61758
0.66033
0.72447
0.7601
0.7886
0.80523
0.80285
0.78385
0.75297
0.72684
0.69596
0.67933
0.66746
0.65321
0.61758
0.57245
0.54157
0.50119
0.47981
0.45606
0.43705
0.42043
0.42755
0.44418
0.45368
0.46081
0.47268
0.48456
0.48456
0.49169
0.49406
0.50356
0.50831
0.52257
0.51781
0.49881
0.48931
0.47268
0.44893
0.4038
0.32779
0.11639
-0.20665
-0.56532
-0.73634
-0.7601
-0.60808
-0.40618
-0.19952
0.021378
0.1829
0.22328
0.19477
0.16627
0.1924
0.23278
0.27553
0.32542
0.36105
0.38955
0.4133
0.44893
0.47506
0.49406
0.49406
0.40618
0.30879
0.19002
0.11401
0.095012
0.099762
0.14252
0.19952
0.24703
0.28029
0.28979
0.27553
0.26841
0.27553
0.27316
0.27791
0.26603
0.27316
0.26603
0.27316
0.27078
0.26128
0.24228
0.23515
0.20903
0.1829
0.16865
0.17577
0.18527
0.16152
0.14727
0.11164
0.087886
0.064133
0.064133
0.066508
0.073634
0.087886
0.11164
0.11876
0.14252
0.15439
0.14964
0.15439
0.16152
0.15677
0.16865
0.16627
0.1829
0.17815
0.16865
0.16152
0.14489
0.13064
0.13064
0.1734
0.22328
0.25653
0.2304
0.064133
-0.13064
-0.30166
-0.33254
-0.27316
-0.13302
0.016627
0.1639
0.29454
0.38242
0.46556
0.52494
0.58432
0.6342
0.65796
0.66271
0.65558
0.65558
0.64846
0.64608
0.65083
0.69596
0.75534
0.7981
0.78147
0.62233
0.44893
0.31116
0.27553
0.32304
0.3943
0.44893
0.49881
0.53919
0.5867
0.63183
0.66508
0.67221
0.5867
0.44656
0.32779
0.28979
0.32542
0.3943
0.44893
0.47268
0.46793
0.42993
0.41805
0.42043
0.44181
0.41805
0.24941
0.068884
-0.026128
0.0071259
0.13064
0.1829
0.25416
0.32304
0.4133
0.49169
0.56532
0.6247
0.67933
0.72922
0.74584
0.76247
0.7601
0.77672
0.77672
0.7886
0.80285
0.80523
0.79335
0.76722
0.73159
0.68409
0.64846
0.62708
0.61995
0.61995
0.62708
0.6342
0.61283
0.58432
0.55107
0.52494
0.48694
0.47268
0.47506
0.47506
0.48694
0.48931
0.50831
0.52257
0.54157
0.54632
0.55582
0.56295
0.57482
0.58432
0.59857
0.61995
0.59857
0.55582
0.50356
0.47743
0.45606
0.40855
0.32779
0.11164
-0.19952
-0.49881
-0.59382
-0.54157
-0.34204
-0.11639
0.083135
0.23753
0.27553
0.29454
0.32779
0.3848
0.44656
0.48219
0.50356
0.50831
0.50119
0.50356
0.48694
0.51069
0.52019
0.53444
0.54632
0.56057
0.53919
0.44181
0.32067
0.19715
0.13064
0.11876
0.11876
0.12589
0.14014
0.1734
0.21378
0.25891
0.29691
0.28979
0.2209
0.14252
0.083135
0.078385
0.092637
0.12589
0.16865
0.20665
0.23278
0.24941
0.26366
0.27553
0.29929
0.28029
0.19477
0.11639
0.054632
0.057007
0.083135
0.12827
0.19002
0.24941
0.30166
0.31829
0.32542
0.31354
0.33729
0.35154
0.35392
0.34679
0.34679
0.33967
0.32304
0.30641
0.29691
0.29929
0.30641
0.34204
0.34917
0.34917
0.34917
0.31354
0.28029
0.27553
0.26366
0.27553
0.31354
0.37055
0.42043
0.44893
0.45606
0.44893
0.4133
0.3848
0.3848
0.40143
0.39905
0.41568
0.43468
0.46793
0.51069
0.57245
0.63183
0.68409
0.72447
0.74584
0.75772
0.7601
0.76247
0.74347
0.72684
0.71496
0.71021
0.70784
0.69596
0.67933
0.64846
0.53207
0.34917
0.087886
-0.10451
-0.21615
-0.2209
-0.16865
-0.057007
0.11401
0.28741
0.43468
0.57245
0.68409
0.74822
0.7886
0.80523
0.79572
0.75534
0.68646
0.62708
0.57482
0.54869
0.50831
0.45368
0.34442
0.1639
0.057007
-0.030879
-0.016627
0.059382
0.14727
0.24941
0.33492
0.38955
0.42043
0.44893
0.48694
0.53207
0.53444
0.49406
0.41805
0.32304
0.28741
0.27553
0.29216
0.29216
0.29454
0.31116
0.32067
0.34679
0.36105
0.36342
0.30879
0.1734
0.07601
0.0047506
0.014252
0.066508
0.11401
0.17102
0.24466
0.29216
0.31591
0.31591
0.31116
0.29929
0.27316
0.26603
0.27316
0.29216
0.30641
0.34442
0.34204
0.33492
0.33254
0.31829
0.29454
0.26366
0.23753
0.20903
0.21615
0.24703
0.27078
0.30404
0.29454
0.29929
0.26603
0.25416
0.24941
0.27078
0.28266
0.29216
0.30879
0.32067
0.35629
0.39192
0.44418
0.48219
0.52257
0.54869
0.56295
0.57482
0.58195
0.58907
0.58907
0.59382
0.59857
0.59382
0.61758
0.6342
0.65083
0.66271
0.66508
0.66508
0.64371
0.61995
0.59382
0.57482
0.53207
0.46793
0.26841
-0.0095012
-0.28504
-0.44893
-0.51069
-0.50119
-0.42993
-0.31829
-0.15677
-0.0095012
0.11639
0.19477
0.23753
0.25178
0.2399
0.23753
0.2399
0.29216
0.3658
0.43468
0.51544
0.51306
0.42755
0.34204
0.28504
0.28979
0.33017
0.37055
0.4133
0.43705
0.44418
0.44418
0.43705
0.4323
0.41805
0.4038
0.38005
0.38242
0.38955
0.4038
0.42518
0.44418
0.44181
0.41805
0.3848
0.34204
0.30641
0.27553
0.26603
0.24466
0.19715
0.13777
0.087886
0.033254
0.014252
0.0047506
-0.033254
-0.15677
-0.32067
-0.49406
-0.56532
-0.54632
-0.45606
-0.32542
-0.2114
-0.073634
0.0095012
0.092637
0.16152
0.22565
0.28266
0.29929
0.31354
0.31829
0.35154
0.3943
0.47743
0.55582
0.61995
0.66271
0.66033
0.6247
0.57957
0.53682
0.49881
0.46081
0.4038
0.23515
0.047506
-0.087886
-0.10451
-0.011876
0.10689
0.21615
0.33729
0.41805
0.45843
0.47981
0.44181
0.40618
0.31354
0.19002
0.085511
0.021378
0.045131
0.10214
0.20428
0.32304
0.4228
0.49644
0.53444
0.54157
0.50831
0.47506
0.44418
0.42043
0.40618
0.4038
0.4038
0.3943
0.40618
0.43705
0.49169
0.52732
0.55344
0.53682
0.47743
0.40855
0.34917
0.30166
0.24941
0.21853
0.17815
0.1639
0.18527
0.24941
0.32067
0.39192
0.43705
0.44181
0.40143
0.34917
0.28979
0.24703
0.19952
0.16627
0.13777
0.13064
0.15439
0.22565
0.30879
0.38717
0.45606
0.49406
0.48219
0.42518
0.35629
0.27316
0.22328
0.19715
0.2019
0.22803
0.29216
0.37767
0.46556
0.54394
0.6152
0.6342
0.60095
0.50119
0.40855
0.31829
0.25178
0.10689
-0.087886
-0.25891
-0.28741
-0.22328
-0.11164
-0.0071259
0.11401
0.2304
0.31116
0.37292
0.39905
0.40618
0.39905
0.4038
0.42518
0.47981
0.56057
0.58432
0.51544
0.44656
0.35392
0.34204
0.33967
0.3753
0.42993
0.47268
0.47268
0.45368
0.4228
0.43468
0.49881
0.58432
0.62945
0.54157
0.43468
0.30404
0.22565
0.26366
0.31354
0.3753
0.41568
0.42043
0.43705
0.48456
0.54157
0.61758
0.67696
0.74347
0.76485
0.6152
0.35154
0.14489
0.052257
0.095012
0.18527
0.26841
0.37292
0.49644
0.59857
0.67696
0.70546
0.70784
0.67458
0.61045
0.49644
0.31354
0.14252
0.038005
0.073634
0.19477
0.31354
0.42993
0.55107
0.65083
0.70784
0.73634
0.71971
0.67221
0.6152
0.5772
0.53444
0.49881
0.46081
0.46081
0.48694
0.54157
0.60095
0.65796
0.67696
0.66033
0.58907
0.50119
0.42043
0.36817
0.31591
0.25653
0.21615
0.2114
0.25653
0.33492
0.41568
0.48456
0.52257
0.52494
0.45606
0.37292
0.28504
0.23753
0.20665
0.17815
0.1734
0.19952
0.25178
0.31829
0.38242
0.42993
0.45368
0.44893
0.38955
0.33254
0.27316
0.24228
0.2019
0.18052
0.1924
0.25653
0.35867
0.46081
0.53919
0.58432
0.60095
0.58195
0.52732
0.45131
0.39192
0.33492
0.30879
0.26841
0.25653
0.27316
0.29929
0.33254
0.35392
0.35629
0.32779
0.20428
-0.0071259
-0.27791
-0.41805
-0.4323
-0.34204
-0.2209
-0.12114
-0.026128
0.066508
0.1924
0.33254
0.46081
0.55107
0.58195
0.52732
0.43705
0.36342
0.32542
0.31591
0.31354
0.33254
0.39192
0.48694
0.5962
0.71021
0.79335
0.80998
0.65083
0.3848
0.13777
0.0095012
0.035629
0.083135
0.12352
0.19715
0.25653
0.33017
0.3943
0.46081
0.49644
0.52257
0.54394
0.56057
0.5772
0.50831
0.27078
0.0095012
-0.1734
-0.19002
-0.064133
0.057007
0.19002
0.32542
0.42518
0.51306
0.5867
0.65083
0.69834
0.65558
0.43705
0.18527
0.045131
0.047506
0.13777
0.19715
0.24703
0.33967
0.43943
0.54157
0.61283
0.67221
0.71259
0.74584
0.76247
0.76485
0.75297
0.69359
0.6247
0.52257
0.43705
0.36105
0.31116
0.31591
0.34442
0.4038
0.45131
0.51069
0.53444
0.53919
0.52019
0.49644
0.46556
0.4133
0.34917
0.26603
0.20665
0.15677
0.11639
0.083135
0.10451
0.1639
0.25178
0.33254
0.40855
0.47268
0.50831
0.53444
0.53919
0.52019
0.51069
0.51781
0.53919
0.52257
0.46556
0.36817
0.26603
0.17577
0.12827
0.13064
0.16627
0.23515
0.29216
0.32304
0.32542
0.30879
0.29216
0.31354
0.38242
0.50119
0.61758
0.63183
0.48694
0.24228
-0.014252
-0.10689
-0.11401
-0.035629
-0.0071259
0.042755
0.078385
0.16865
0.29216
0.40143
0.47268
0.45131
0.39905
0.33492
0.32542
0.3658
0.42993
0.49644
0.5867
0.69596
0.77197
0.81473
0.82423
0.80523
0.74584
0.65796
0.40618
0.1734
-0.019002
-0.066508
0.026128
0.13539
0.27791
0.43705
0.56057
0.66746
0.74822
0.80048
0.81948
0.8171
0.80998
0.80285
0.8171
0.8266
0.83373
0.7981
0.72447
0.60808
0.46793
0.34917
0.26603
0.21378
0.1924
0.19715
0.20903
0.21378
0.23515
0.27316
0.33492
0.3753
0.29691
0.097387
-0.2019
-0.43705
-0.50831
-0.44893
-0.32304
-0.18052
-0.095012
-0.016627
0.071259
0.20428
0.34917
0.50831
0.64371
0.73397
0.78147
0.79572
0.80048
0.7886
0.79335
0.8076
0.81473
0.82898
0.85748
0.87648
0.68646
0.33967
-0.08076
-0.29454
-0.27078
-0.090261
0.085511
0.2019
0.30404
0.42993
0.50356
0.50831
0.44418
0.36342
0.32067
0.32542
0.36105
0.43943
0.56057
0.71259
0.72209
0.51069
0.26841
0.054632
0.0071259
0.033254
0.085511
0.15439
0.24941
0.31829
0.39192
0.44656
0.49406
0.55582
0.51069
0.37055
0.2209
0.14489
0.19715
0.29691
0.36817
0.36817
0.3658
0.32067
0.29216
0.26603
0.27316
0.32542
0.43468
0.53207
0.6057
0.63658
0.6342
0.61995
0.6152
0.60333
0.59145
0.57957
0.57957
0.56295
0.55819
0.54632
0.53919
0.52969
0.51544
0.50831
0.49169
0.49169
0.49644
0.50119
0.49881
0.50831
0.51069
0.49406
0.47981
0.46793
0.46081
0.45368
0.45606
0.46318
0.46556
0.47981
0.50356
0.52494
0.52019
0.51069
0.49169
0.47268
0.45843
0.43705
0.40618
0.36817
0.33492
0.32542
0.33492
0.38005
0.4323
0.48456
0.51781
0.55107
0.56057
0.56532
0.56532
0.55819
0.53919
0.51069
0.49406
0.47981
0.46081
0.45606
0.45368
0.44656
0.43943
0.4323
0.42043
0.3943
0.35867
0.31354
0.25416
0.21853
0.19715
0.19715
0.20903
0.22565
0.24703
0.25178
0.24703
0.24228
0.2399
0.2399
0.28029
0.32067
0.31116
0.19715
-0.087886
-0.48219
-0.86698
-1
-0.94774
-0.7696
-0.5867
-0.44181
-0.25416
-0.085511
0.071259
0.1924
0.24941
0.27316
0.28504
0.27553
0.28029
0.31354
0.35154
0.3753
0.3848
0.33492
0.30404
0.26841
0.26128
0.24941
0.23278
0.20903
0.1924
0.1829
0.19715
0.22565
0.26128
0.2399
0.13539
-0.0047506
-0.15202
-0.2304
-0.22565
-0.1924
-0.12589
-0.057007
0.011876
0.061758
0.10214
0.13064
0.14014
0.13064
0.13064
0.14964
0.17102
0.20428
0.2304
0.24703
0.25891
0.27553
0.26603
0.24703
0.21378
0.1829
0.14727
0.13064
0.10926
0.10214
0.078385
0.061758
0.052257
0.052257
-0.0095012
-0.13539
-0.30641
-0.46793
-0.50831
-0.44893
-0.34679
-0.25178
-0.15677
-0.061758
0.045131
0.16627
0.29454
0.41568
0.52019
0.6152
0.66983
0.68171
0.66033
0.58907
0.52257
0.46081
0.44656
0.43943
0.27791
0.14727
0.011876
0.030879
0.15202
0.26841
0.37292
0.44181
0.48219
0.51544
0.52257
0.53444
0.52019
0.50594
0.46793
0.42043
0.36817
0.33017
0.32304
0.33254
0.36105
0.37292
0.3753
0.38955
0.3943
0.4228
0.44893
0.47743
0.49169
0.50594
0.50594
0.48219
0.42518
0.38955
0.33967
0.30879
0.28504
0.26366
0.25416
0.24941
0.26366
0.28504
0.32304
0.38955
0.43705
0.46793
0.49644
0.52494
0.56057
0.59382
0.62945
0.64846
0.65083
0.6342
0.58195
0.47506
0.35629
0.25891
0.1924
0.16627
0.17102
0.13539
0.061758
-0.07601
-0.19477
-0.25416
-0.22803
-0.15677
-0.030879
0.10926
0.26366
0.40855
0.50119
0.53919
0.52257
0.47268
0.40143
0.35392
0.33492
0.35392
0.38242
0.4228
0.46318
0.49406
0.48694
0.52969
0.53919
0.54869
0.54157
0.49169
0.47031
0.44893
0.43943
0.42993
0.42043
0.42518
0.44181
0.46081
0.47506
0.48694
0.48456
0.49406
0.52969
0.54869
0.46318
0.24703
0.083135
-0.049881
-0.095012
-0.052257
-0.023753
0.08076
0.17102
0.24466
0.33967
0.43705
0.5677
0.59382
0.56057
0.47031
0.43943
0.46793
0.52732
0.6057
0.66508
0.69121
0.62945
0.5677
0.48694
0.43705
0.4133
0.39905
0.42755
0.47031
0.54157
0.60095
0.65321
0.67696
0.65796
0.60333
0.52732
0.48219
0.43468
0.33729
0.15202
0.0071259
-0.092637
-0.071259
0
0.045131
0.14014
0.23278
0.31591
0.33017
0.35154
0.36817
0.39192
0.38955
0.37767
0.33492
0.30879
0.33967
0.4038
0.47268
0.53682
0.59145
0.64371
0.66983
0.69359
0.67933
0.63183
0.55819
0.46793
0.3943
0.32779
0.17815
0.059382
-0.052257
-0.033254
0.10214
0.22803
0.33492
0.42993
0.45131
0.45131
0.46081
0.50119
0.55582
0.59857
0.61758
0.59857
0.53207
0.47268
0.42043
0.38005
0.35867
0.34679
0.34679
0.37055
0.42043
0.49881
0.55107
0.57007
0.54869
0.46318
0.36105
0.25653
0.19002
0.14252
0.14014
0.17102
0.2304
0.27791
0.31591
0.33967
0.35392
0.36105
0.38717
0.39905
0.39667
0.37292
0.33967
0.27553
0.23515
0.21853
0.23753
0.27316
0.32779
0.39667
0.44656
0.50594
0.57007
0.62233
0.64371
0.62708
0.56532
0.47268
0.39192
0.32542
0.30166
0.29454
0.32542
0.36817
0.4323
0.47506
0.51069
0.50594
0.46318
0.39905
0.33967
0.28029
0.26841
0.30166
0.34679
0.42993
0.52969
0.62233
0.67221
0.67221
0.62708
0.54632
0.43468
0.34917
0.28266
0.23515
0.22328
0.23278
0.25891
0.30404
0.33967
0.37055
0.3658
0.35867
0.32542
0.29454
0.27791
0.24228
0.14014
0.016627
-0.066508
-0.026128
0.054632
0.14014
0.2114
0.27791
0.31591
0.32542
0.31354
0.28504
0.29454
0.34917
0.40855
0.46318
0.49169
0.52494
0.57245
0.61758
0.62945
0.59382
0.50119
0.45368
0.45843
0.51544
0.57482
0.55344
0.48931
0.41568
0.40143
0.44418
0.48219
0.49881
0.48219
0.39905
0.28266
0.21378
0.20665
0.26841
0.33967
0.36817
0.28979
0.2019
0.10926
0.08076
0.087886
0.11401
0.16865
0.22565
0.30879
0.40618
0.50594
0.57957
0.66033
0.73159
0.78147
0.80998
0.80998
0.7601
0.66271
0.52969
0.3848
0.26128
0.19715
0.17577
0.1924
0.19952
0.22803
0.25891
0.29929
0.34679
0.40855
0.4323
0.3943
0.31354
0.20665
0.099762
0.011876
-0.0095012
0.071259
0.16627
0.21378
0.08076
-0.078385
-0.19477
-0.18052
-0.12352
-0.097387
-0.095012
-0.12589
-0.12589
-0.10689
-0.04038
0.045131
0.1734
0.34679
0.53919
0.70546
0.7886
0.72447
0.57007
0.4228
0.31116
0.26366
0.2304
0.2114
0.2304
0.25416
0.30404
0.37292
0.45131
0.51069
0.54632
0.56057
0.53207
0.47981
0.38005
0.27316
0.18527
0.15202
0.19002
0.25416
0.36342
0.46793
0.5677
0.62233
0.66033
0.65796
0.60333
0.52494
0.40143
0.27316
0.13539
0.054632
0.0047506
-0.0071259
0.021378
0.097387
0.17102
0.22803
0.28741
0.33729
0.38242
0.43468
0.45131
0.42043
0.34679
0.25653
0.1734
0.11876
0.10926
0.15439
0.22803
0.28741
0.31116
0.31354
0.27791
0.26128
0.25178
0.28029
0.24228
0.07601
-0.19952
-0.51306
-0.66746
-0.63183
-0.47506
-0.27078
-0.095012
0.021378
0.1639
0.29691
0.41093
0.44893
0.44656
0.42993
0.4133
0.40855
0.39905
0.42993
0.46793
0.56057
0.67933
0.7886
0.8361
0.83373
0.78385
0.68409
0.57245
0.45368
0.38242
0.27078
0.13302
0.016627
-0.042755
0
0.12114
0.24466
0.3658
0.43468
0.45368
0.44893
0.45131
0.46793
0.48219
0.48694
0.48694
0.47031
0.45843
0.44893
0.48219
0.54394
0.6247
0.72922
0.80998
0.87411
0.90974
0.91924
0.87648
0.76247
0.6247
0.46318
0.33017
0.2304
0.20428
0.2114
0.24466
0.30166
0.33254
0.35154
0.33017
0.31116
0.30166
0.31591
0.35867
0.38005
0.3848
0.33967
0.26841
0.18765
0.14014
0.14727
0.18527
0.25416
0.33967
0.42518
0.49406
0.53207
0.55582
0.53444
0.47031
0.36105
0.23753
0.10451
0.033254
0.0047506
0.023753
0.073634
0.14964
0.24466
0.33967
0.4133
0.46318
0.49881
0.54869
0.59382
0.59382
0.53682
0.47268
0.4038
0.32304
0.24466
0.20903
0.2019
0.25178
0.33729
0.41805
0.44893
0.45843
0.43705
0.4133
0.3943
0.38717
0.37767
0.35154
0.27553
0.15677
0.04038
0.0095012
0.12352
0.36342
0.51781
0.44893
0.24466
-0.078385
-0.21615
-0.25416
-0.21378
-0.17815
-0.1639
-0.14727
-0.12827
-0.12827
-0.11401
-0.045131
0.087886
0.24941
0.4038
0.53919
0.64371
0.72922
0.78147
0.76485
0.72209
0.61758
0.49644
0.35629
0.27078
0.22803
0.23515
0.24466
0.28504
0.32067
0.37292
0.4038
0.4323
0.45606
0.47506
0.51544
0.52732
0.51069
0.51544
0.49644
0.44418
0.31591
0.17577
0.083135
0.07601
0.15439
0.21615
0.26841
0.29454
0.31829
0.31354
0.32067
0.32067
0.33492
0.37055
0.42043
0.46318
0.47268
0.45606
0.44418
0.43705
0.4323
0.44656
0.47506
0.48456
0.50119
0.47268
0.40143
0.29454
0.18765
0.10451
0.08076
0.10214
0.15439
0.2114
0.26366
0.31354
0.35629
0.3753
0.36342
0.31591
0.25653
0.20428
0.22328
0.22328
0.13064
-0.071259
-0.28266
-0.3848
-0.31829
-0.17577
-0.019002
0.090261
0.17577
0.2114
0.20428
0.14727
0.11639
0.17815
0.33729
0.49169
0.51544
0.46081
0.35867
0.29929
0.27078
0.26366
0.32542
0.46318
0.61758
0.74822
0.84798
0.91449
0.95249
0.96437
0.962
0.93824
0.89311
0.7886
0.6057
0.38717
0.20428
0.10451
0.087886
0.14014
0.23515
0.31116
0.39192
0.43705
0.48219
0.49644
0.48931
0.49881
0.48694
0.47268
0.44656
0.4228
0.3848
0.33492
0.27553
0.2304
0.2019
0.21853
0.26603
0.33017
0.40618
0.44656
0.45131
0.42993
0.41568
0.45131
0.47506
0.48456
0.43705
0.36342
0.27791
0.23278
0.23753
0.28266
0.37292
0.47506
0.55344
0.58195
0.57245
0.52494
0.45368
0.38955
0.33254
0.30641
0.29691
0.29216
0.29929
0.30641
0.33254
0.35867
0.39192
0.44181
0.51781
0.60808
0.68646
0.73634
0.78385
0.7981
0.78147
0.72209
0.60808
0.47268
0.34442
0.25891
0.19715
0.1829
0.2304
0.32304
0.42755
0.50356
0.54869
0.51781
0.46081
0.38242
0.29216
0.24466
0.23753
0.27316
0.30641
0.31591
0.30166
0.29454
0.28266
0.31829
0.3848
0.49406
0.55819
0.45606
0.27078
-0.0095012
-0.11401
-0.13539
-0.14014
-0.14489
-0.17102
-0.15914
-0.07601
0.030879
0.15202
0.30166
0.46556
0.62945
0.73634
0.78385
0.79572
0.74347
0.65321
0.55819
0.51781
0.54157
0.58195
0.57482
0.56295
0.52257
0.51544
0.50831
0.48219
0.43943
0.3943
0.40143
0.50356
0.71971
0.90024
0.87886
0.69359
0.44893
0.28504
0.22565
0.23278
0.30879
0.41805
0.57482
0.75534
0.88124
0.91211
0.85511
0.78622
0.72684
0.68884
0.65083
0.5962
0.51544
0.4228
0.31829
0.23278
0.16152
0.15202
0.20665
0.33017
0.48219
0.6247
0.71971
0.77435
0.77672
0.76485
0.73397
0.70546
0.64371
0.53444
0.39667
0.24466
0.11639
0.0071259
-0.059382
-0.12114
-0.12589
-0.049881
0.12589
0.21615
0.15202
-0.019002
-0.19952
-0.20903
-0.12827
0.033254
0.17577
0.25178
0.2399
0.12114
-0.019002
-0.078385
0.04038
0.26841
0.51781
0.64846
0.68171
0.65083
0.62233
0.63895
0.65796
0.69359
0.72209
0.70546
0.65083
0.57482
0.50356
0.45368
0.42043
0.43468
0.49881
0.58195
0.67933
0.75297
0.78622
0.78622
0.76722
0.73634
0.69834
0.65083
0.56295
0.4133
0.25653
0.097387
-0.0095012
-0.087886
-0.08076
-0.033254
0.049881
0.14489
0.25416
0.36817
0.47268
0.56057
0.60808
0.62233
0.61045
0.55819
0.46318
0.35154
0.24228
0.14252
0.07601
0.061758
0.10689
0.19715
0.29929
0.38955
0.46318
0.48219
0.47981
0.44893
0.41093
0.3848
0.34679
0.33017
0.28741
0.24703
0.20665
0.20665
0.2399
0.33017
0.42043
0.48694
0.54157
0.55344
0.53919
0.51781
0.50119
0.47268
0.4228
0.35392
0.27791
0.18765
0.10689
0.078385
0.092637
0.17815
0.28979
0.41805
0.52969
0.61758
0.66033
0.67696
0.6342
0.5772
0.49169
0.4038
0.26841
0.10689
-0.097387
-0.24466
-0.25891
-0.083135
0.14014
0.25178
0.14964
-0.021378
-0.24941
-0.25178
-0.25891
-0.18765
-0.15202
-0.07601
0.0071259
0.083135
0.12589
0.13302
0.16152
0.23515
0.41093
0.63183
0.8076
0.88599
0.80523
0.69596
0.58432
0.45606
0.26841
0.087886
0.035629
0.1924
0.46318
0.64371
0.69834
0.6152
0.55107
0.57007
0.60333
0.65558
0.64846
0.56532
0.3943
0.28266
0.28266
0.4038
0.49406
0.46081
0.39192
0.33254
0.33729
0.37292
0.42755
0.48219
0.51781
0.50356
0.44181
0.38242
0.31829
0.27316
0.24703
0.27791
0.35154
0.46793
0.59857
0.71021
0.78622
0.80998
0.8076
0.7601
0.66508
0.53682
0.38955
0.24703
0.12352
0.061758
0.047506
0.068884
0.11639
0.18527
0.26128
0.34204
0.42518
0.50594
0.53919
0.50831
0.42755
0.31116
0.21615
0.14252
0.10451
0.11876
0.18052
0.30166
0.40618
0.49406
0.53682
0.54157
0.49169
0.41093
0.30404
0.17102
0.052257
-0.035629
-0.083135
-0.052257
0.042755
0.2019
0.36342
0.50831
0.6057
0.65558
0.66983
0.63895
0.55819
0.44181
0.32067
0.22803
0.15914
0.10689
0.11639
0.1734
0.23515
0.30641
0.35629
0.39192
0.39905
0.4038
0.38005
0.32779
0.26603
0.2114
0.1829
0.1734
0.21615
0.28266
0.37292
0.46556
0.53919
0.57482
0.58432
0.56057
0.49169
0.3848
0.23753
0.064133
-0.10689
-0.27791
-0.38955
-0.39905
-0.25891
0.0071259
0.2019
0.16865
0.049881
-0.16152
-0.1734
-0.18765
-0.17577
-0.17102
-0.17102
-0.10926
-0.016627
0.10214
0.19477
0.27791
0.3753
0.50594
0.66746
0.75534
0.73872
0.58432
0.4133
0.24941
0.083135
-0.08076
-0.073634
0.10214
0.47268
0.7981
0.92874
0.89311
0.7886
0.71496
0.65796
0.60095
0.50119
0.3943
0.22803
0.061758
-0.023753
0.083135
0.3658
0.67458
0.80285
0.74109
0.60333
0.50594
0.47743
0.46081
0.43705
0.3848
0.32067
0.27791
0.27791
0.31116
0.36817
0.44656
0.53682
0.61758
0.69359
0.72922
0.72684
0.67933
0.58195
0.43705
0.27553
0.12827
0.035629
-0.030879
-0.038005
0.014252
0.11401
0.22328
0.32779
0.41805
0.48694
0.54632
0.5772
0.55107
0.44656
0.31116
0.15914
0.045131
-0.0023753
0.021378
0.092637
0.18765
0.28979
0.37292
0.42755
0.45368
0.45606
0.41568
0.32779
0.22803
0.12352
0.028504
-0.026128
-0.04038
0.030879
0.14489
0.30879
0.47031
0.60095
0.67933
0.72922
0.7696
0.74109
0.68646
0.55819
0.42043
0.29929
0.23753
0.24466
0.29216
0.39667
0.50119
0.58432
0.6342
0.68171
0.73159
0.75772
0.71496
0.57245
0.35867
0.13777
0.090261
0.24228
0.52257
0.71021
0.69121
0.50119
0.31354
0.23278
0.19952
0.2304
0.24228
0.24941
0.22803
0.14014
0.047506
-0.054632
-0.092637
-0.07601
-0.021378
0.064133
0.22565
0.42518
0.60333
0.71021
0.75059
0.73634
0.60808
0.42518
0.24703
0.16152
0.17815
0.2209
0.23278
0.24228
0.29691
0.38242
0.47506
0.55582
0.6057
0.61995
0.60333
0.60095
0.60095
0.61995
0.65083
0.67933
0.64608
0.54394
0.39667
0.25416
0.1639
0.14252
0.16627
0.22565
0.29454
0.33967
0.34679
0.29216
0.19477
0.095012
0
-0.066508
-0.078385
-0.04038
0.059382
0.18527
0.30641
0.37767
0.43705
0.47031
0.50356
0.51306
0.51544
0.51069
0.49881
0.49169
0.48694
0.47506
0.45368
0.4323
0.41093
0.37767
0.36817
0.36342
0.33492
0.27553
0.21615
0.18765
0.18052
0.2209
0.29691
0.38717
0.47268
0.55107
0.59857
0.61995
0.6152
0.61045
0.59857
0.58907
0.57482
0.53919
0.49406
0.44181
0.40618
0.35867
0.32542
0.30641
0.28504
0.26128
0.23515
0.21615
0.19002
0.1734
0.18765
0.2209
0.26841
0.31591
0.35867
0.3848
0.39905
0.40618
0.39192
0.36817
0.34679
0.31354
0.28029
0.24228
0.2114
0.16865
0.12589
0.07601
0.057007
0.035629
-0.0047506
-0.078385
-0.15202
-0.2209
-0.24466
-0.18765
-0.10689
-0.052257
-0.12827
-0.23515
-0.4038
-0.40143
-0.36817
-0.29216
-0.19477
-0.11639
-0.021378
0.035629
0.08076
0.11639
0.11164
0.10926
0.11639
0.1734
0.26366
0.34679
0.32304
0.2399
0.16865
0.14252
0.12352
0.12827
0.19477
0.36817
0.55344
0.54394
