1] Testing Folder: 5
    Accuracy = 80%

2] Testing Folder: 4
    Accuracy = 67.5%

3] Testing Folder: 3
    Accuracy = 77.5%

4] Testing Folder: 2
    Accuracy = 80%

5] Testing Folder: 1
    Accuracy = 72.5%

---------------------------------------------------

AVG = Total /  5 = 75.5%