-0.20253
0
0.18987
0.20886
0.12025
0.094937
-0.13924
-0.26582
-0.42405
-0.55063
-0.75316
-0.88608
-0.79114
-0.65823
-0.36709
-0.075949
0.1962
0.36709
0.31013
-0.025316
-0.43671
-0.72152
-0.6962
-0.56329
-0.43038
-0.27848
-0.22785
-0.25949
-0.1962
-0.17089
-0.063291
-0.012658
-0.025316
-0.17089
-0.34177
-0.48734
-0.50633
-0.41139
-0.29747
-0.20886
-0.23418
-0.31013
-0.35443
-0.29747
-0.23418
-0.1519
-0.10759
-0.14557
-0.24051
-0.29747
-0.33544
-0.36076
-0.27848
-0.17089
-0.10127
-0.13291
-0.15823
-0.12658
-0.12025
-0.10127
-0.18987
-0.25949
-0.3481
-0.38608
-0.40506
-0.51899
-0.56962
-0.56329
-0.47468
-0.37975
-0.26582
-0.10759
0.031646
0.16456
0.1962
0.16456
0.025316
-0.18354
-0.43038
-0.70253
-0.83544
-0.8481
-0.81646
-0.62025
-0.3038
-0.018987
0.050633
-0.075949
-0.1962
-0.29114
-0.35443
-0.35443
-0.39241
-0.51266
-0.62658
-0.60127
-0.41139
-0.17089
-0.025316
0.16456
0.26582
0.33544
0.36709
0.23418
0.075949
-0.012658
0.044304
0.14557
0.21519
0.24051
0.25949
0.18987
0.16456
0.10127
0.044304
0.031646
-0.10759
-0.14557
-0.22152
-0.20253
-0.15823
-0.18987
-0.1519
-0.10759
-0.050633
-0.094937
-0.10759
-0.044304
0.06962
0.10127
0
-0.17722
-0.34177
-0.39241
-0.31013
-0.16456
-0.094937
-0.012658
-0.0063291
-0.031646
-0.056962
-0.094937
-0.16456
-0.20253
-0.23418
-0.14557
-0.10127
0.012658
0.10759
0.1519
0.11392
0.22152
0.32278
0.50633
0.61392
0.6962
0.55063
0.41772
0.22152
0.075949
0.025316
0
0.082278
0.13291
0.18354
0.20253
0.11392
0.031646
-0.050633
0.012658
0.13291
0.21519
0.36076
0.36709
0.26582
0.088608
-0.025316
-0.16456
-0.20886
-0.075949
0.17089
0.46203
0.71519
0.81013
0.76582
0.6519
0.51899
0.27848
-0.0063291
-0.29114
-0.44937
-0.48734
-0.3481
-0.11392
0.031646
0.20253
0.25949
0.33544
0.32278
0.27848
0.31013
0.27215
0.17089
0.063291
0.0063291
-0.037975
-0.018987
-0.0063291
0.12658
0.22785
0.43671
0.41139
0.41139
0.3038
0.25316
0.1962
0.12025
0.12658
0.12658
0.12658
0.15823
0.18987
0.056962
-0.031646
-0.031646
0.018987
0.12025
0.17089
0.28481
0.37975
0.44304
0.48734
0.41772
0.25316
0.037975
-0.13291
-0.27848
-0.31013
-0.32911
-0.22785
-0.24051
-0.14557
-0.082278
-0.050633
0.031646
0.063291
0.082278
0.094937
0.10127
0.11392
-0.088608
-0.31646
-0.55696
-0.6962
-0.68354
-0.60759
-0.40506
-0.31646
-0.14557
0.037975
0.25949
0.37975
0.40506
0.29747
0.20253
0.11392
0.025316
-0.14557
-0.28481
-0.16456
0.025316
0.27848
0.37975
0.28481
0.10759
-0.094937
-0.24051
-0.38608
-0.4557
-0.43038
-0.25949
-0.075949
0
0.075949
0.063291
0.10759
0.21519
0.39873
0.5443
0.62025
0.63291
0.50633
0.32278
0.06962
-0.088608
-0.32911
-0.43671
-0.3038
-0.14557
0.06962
0.20886
0.32278
0.41139
0.41139
0.37342
0.31646
0.25949
0.23418
0.13924
0.12025
0.11392
0.17722
0.14557
0.088608
0.13924
0.33544
0.43038
0.56329
0.58228
0.56962
0.51266
0.33544
0.24051
0.13924
0.094937
0.13291
0.17089
0.20253
0.31013
0.39241
0.36709
0.27848
0.12658
0.063291
0.056962
0.14557
0.17722
0.17722
0.10127
0.06962
0.018987
0.018987
-0.025316
0.0063291
0.050633
0.17089
0.24684
0.24051
0.22152
0.24051
0.17089
0.056962
-0.082278
-0.11392
-0.06962
0.075949
0.27848
0.41139
0.39873
0.32911
0.31013
0.18987
0.082278
-0.025316
-0.0063291
0.18987
0.39873
0.51266
0.51266
0.47468
0.44937
0.39873
0.23418
0.075949
0.025316
0.06962
0.16456
0.3038
0.36076
0.23418
0.17722
0.12025
0.20253
0.33544
0.44304
0.46203
0.48101
0.44937
0.39873
0.29114
0.18987
0.13291
0.11392
0.14557
0.24684
0.36709
0.49367
0.63291
0.81646
0.96203
0.94304
0.85443
0.6519
0.41139
0.27848
0.31013
0.36076
0.53165
0.70253
0.79747
0.86709
0.87975
0.8038
0.64557
0.44304
0.29114
0.18987
0.094937
0.050633
0.050633
0.06962
-0.025316
-0.044304
-0.063291
-0.012658
0.16456
0.31646
0.34177
0.29114
0.12658
-0.0063291
-0.16456
-0.3038
-0.35443
-0.36076
-0.1962
0.075949
0.34177
0.51266
0.61392
0.62025
0.48734
0.3038
0.088608
-0.13291
-0.27215
-0.35443
-0.38608
-0.34177
-0.13924
0.094937
0.24684
0.37342
0.40506
0.3038
0.063291
-0.18987
-0.29747
-0.3038
-0.3038
-0.24051
-0.22152
-0.20886
-0.21519
-0.16456
-0.12658
-0.10127
0
0.082278
0.13291
0.082278
-0.018987
-0.16456
-0.25316
-0.24051
-0.24684
-0.26582
-0.22152
-0.14557
-0.06962
0.0063291
-0.012658
-0.025316
-0.18354
-0.31013
-0.38608
-0.39873
-0.28481
-0.17089
-0.088608
0.0063291
0.12025
0.27215
0.27215
0.22152
0.12658
0.056962
-0.044304
-0.082278
-0.025316
0.056962
0.14557
0.15823
0.11392
0.12025
0.21519
0.32911
0.38608
0.36709
0.28481
0.11392
-0.056962
-0.13291
-0.088608
-0.037975
0.082278
0.26582
0.39873
0.3481
0.17722
0.0063291
-0.22152
-0.29747
-0.31013
-0.29747
-0.29114
-0.29747
-0.37975
-0.48101
-0.52532
-0.46835
-0.41139
-0.40506
-0.3481
-0.37975
-0.29114
-0.25316
-0.24051
-0.29114
-0.26582
-0.27848
-0.38608
-0.5443
-0.6519
-0.57595
-0.49367
-0.25949
-0.050633
0.17089
0.31013
0.31646
0.3038
0.094937
-0.15823
-0.43038
-0.58861
-0.57595
-0.55696
-0.48101
-0.48101
-0.39873
-0.36709
-0.34177
-0.41139
-0.39873
-0.36076
-0.31646
-0.28481
-0.22152
-0.20253
-0.16456
-0.17089
-0.14557
-0.037975
0.056962
0.1962
0.1519
0.050633
-0.13924
-0.33544
-0.44304
-0.44937
-0.32911
-0.25316
-0.22785
-0.21519
-0.23418
-0.27215
-0.23418
-0.12025
-0.037975
0.082278
0.075949
0.018987
-0.13291
-0.36709
-0.42405
-0.48734
-0.31646
-0.13924
-0.018987
-0.025316
-0.018987
0.0063291
-0.012658
-0.075949
-0.13924
-0.15823
-0.13924
-0.075949
0
0.088608
0.20253
0.32911
0.40506
0.40506
0.39241
0.37342
0.28481
0.22785
0.17089
0.10759
-0.044304
-0.12025
-0.15823
-0.13291
-0.082278
-0.025316
0.018987
-0.044304
-0.1519
-0.22785
-0.41772
-0.55696
-0.55063
-0.55063
-0.3038
-0.088608
0
-0.10759
-0.18987
-0.22785
-0.29114
-0.3481
-0.34177
-0.31013
-0.32911
-0.40506
-0.43671
-0.43038
-0.46203
-0.40506
-0.41772
-0.4557
-0.38608
-0.29747
-0.22152
-0.10127
0.025316
0.13924
0.22785
0.25316
0.28481
0.25949
0.17089
0.1519
0.10127
-0.031646
-0.1519
-0.27215
-0.35443
-0.35443
-0.36076
-0.37975
-0.36076
-0.33544
-0.16456
-0.14557
-0.14557
-0.20253
-0.12658
-0.10759
-0.13291
-0.25949
-0.48101
-0.53165
-0.51266
-0.37342
-0.27215
-0.25949
-0.39241
-0.5443
-0.6519
-0.65823
-0.5443
-0.56962
-0.42405
-0.33544
-0.22785
-0.20253
-0.25316
-0.31013
-0.3038
-0.22785
-0.20253
-0.22785
-0.29747
-0.43671
-0.58861
-0.60127
-0.51899
-0.41139
-0.3038
-0.23418
-0.17722
-0.18987
-0.28481
-0.37342
-0.47468
-0.56962
-0.47468
-0.3481
-0.24684
-0.12025
-0.094937
-0.037975
-0.088608
-0.25316
-0.3481
-0.49367
-0.46835
-0.37342
-0.16456
-0.050633
0.012658
0.063291
-0.025316
-0.075949
-0.10759
-0.1962
-0.25316
-0.38608
-0.4557
-0.47468
-0.39873
-0.29747
-0.1962
-0.13291
0
0.075949
0.082278
-0.025316
-0.17089
-0.37342
-0.53165
-0.63924
-0.63291
-0.60759
-0.60759
-0.58228
-0.61392
-0.5443
-0.39873
-0.31013
-0.25949
-0.27215
-0.32278
-0.18987
-0.063291
0.18987
0.1962
0.12025
0.044304
0.082278
0.13291
0.27215
0.41772
0.43671
0.38608
0.20886
0.22152
0.20253
0.24051
0.22152
0.11392
-0.044304
-0.10127
-0.12025
-0.10759
-0.12658
-0.14557
-0.17722
-0.11392
0.088608
0.33544
0.42405
0.36076
0.25949
0.20886
0.22152
0.32278
0.36076
0.3481
0.31646
0.25949
0.20253
0.082278
0.056962
0.094937
0.12658
0.13924
0.16456
0.27215
0.37342
0.48734
0.41772
0.16456
-0.094937
-0.18987
-0.17722
-0.10127
0.018987
0.075949
0.12658
0.20886
0.36709
0.4557
0.48734
0.44304
0.26582
0.018987
-0.29114
-0.41772
-0.44937
-0.32911
-0.13291
-0.044304
0.031646
0.063291
0.10127
0
-0.18354
-0.39241
-0.50633
-0.5443
-0.40506
-0.23418
-0.13291
-0.06962
-0.075949
-0.14557
-0.13924
-0.1519
0.0063291
0.0063291
0.012658
-0.06962
-0.13924
-0.17722
0.012658
0.1962
0.32278
0.34177
0.29114
0.35443
0.39873
0.53797
0.59494
0.56962
0.51266
0.46835
0.4557
0.50633
0.62658
0.66456
0.63924
0.51899
0.40506
0.4557
0.4557
0.5
0.38608
0.28481
0.31013
0.44937
0.62658
0.62658
0.53165
0.3038
0.063291
-0.056962
-0.050633
-0.018987
0.0063291
0.13291
0.23418
0.29114
0.25316
0.17089
0.031646
-0.06962
-0.088608
-0.10127
-0.15823
-0.17722
-0.20253
-0.22152
-0.36076
-0.41139
-0.4557
-0.37975
-0.31646
-0.15823
-0.050633
0.13924
0.3038
0.36076
0.24051
0.10127
-0.0063291
-0.050633
-0.025316
0.0063291
0.10127
0.20253
0.32911
0.36709
0.27215
0.11392
-0.0063291
-0.056962
-0.088608
-0.094937
-0.012658
0.025316
0.06962
0.082278
0.037975
0.10127
0.16456
0.20886
0.082278
-0.082278
-0.22152
-0.20253
-0.018987
0.22152
0.40506
0.39241
0.42405
0.5
0.53165
0.46835
0.39241
0.25316
0.18354
0.13291
0.20886
0.24051
0.27848
0.20253
0.1519
0.16456
0.17089
0.25949
0.34177
0.35443
0.41139
0.40506
0.37975
0.34177
0.33544
0.24684
0.31646
0.35443
0.39873
0.41139
0.3481
0.34177
0.37342
0.5
0.62658
0.63924
0.52532
0.40506
0.34177
0.24051
0.18354
0.11392
0.11392
0.012658
-0.018987
-0.10759
-0.22785
-0.26582
-0.14557
-0.044304
0.14557
0.29114
0.43671
0.57595
0.65823
0.68987
0.56962
0.36709
0.20253
0.13924
0.1519
0.15823
0.20886
0.16456
0.12025
0.16456
0.26582
0.37975
0.4557
0.5443
0.51899
0.56962
0.61392
0.44304
0.16456
-0.13924
-0.3038
-0.34177
-0.24051
-0.025316
0.13924
0.1962
0.24684
0.22785
0.044304
-0.20886
-0.43671
-0.5443
-0.55063
-0.49367
-0.36076
-0.27215
-0.15823
-0.075949
0.012658
0.050633
0.075949
0.12025
0.025316
-0.012658
-0.088608
-0.18354
-0.24684
-0.22152
-0.082278
0.012658
0.10127
0.12025
0.075949
-0.0063291
-0.012658
-0.025316
-0.10127
-0.14557
-0.1962
-0.27215
-0.38608
-0.35443
-0.29114
-0.17722
-0.17722
-0.22152
-0.29114
-0.37342
-0.43671
-0.56329
-0.56962
-0.56962
-0.31646
-0.06962
0.17722
0.35443
0.3038
0.16456
0.044304
0.018987
-0.11392
-0.25949
-0.38608
-0.38608
-0.36076
-0.31013
-0.22152
-0.15823
-0.082278
-0.0063291
0.082278
0.050633
-0.075949
-0.24684
-0.46203
-0.51266
-0.50633
-0.51899
-0.61392
-0.67089
-0.56962
-0.46203
-0.27215
-0.22152
-0.36076
-0.44937
-0.49367
-0.39873
-0.33544
-0.32278
-0.36709
-0.5
-0.62658
-0.51899
-0.39241
-0.25949
-0.20253
-0.12025
-0.012658
0.050633
0.18987
0.29747
0.25949
0.044304
-0.13291
-0.40506
-0.5443
-0.60127
-0.60127
-0.60127
-0.58228
-0.50633
-0.48734
-0.34177
-0.23418
-0.14557
-0.20886
-0.27848
-0.28481
-0.1962
-0.094937
-0.044304
-0.037975
0.063291
0.10759
0.21519
0.10759
-0.012658
-0.075949
-0.12658
-0.056962
0.12025
0.25949
0.39873
0.46203
0.53165
0.60759
0.60127
0.5
0.34177
0.088608
-0.082278
-0.17722
-0.18354
-0.17722
-0.10759
-0.012658
0.056962
0.17722
0.24684
0.39241
0.4557
0.58861
0.63291
0.58861
0.51899
0.31013
0.0063291
-0.28481
-0.46203
-0.61392
-0.68987
-0.63291
-0.46203
-0.21519
-0.037975
0.18354
0.38608
0.50633
0.48101
0.33544
0.075949
-0.13924
-0.26582
-0.36709
-0.40506
-0.37342
-0.25949
-0.17089
-0.063291
0.025316
0.0063291
-0.012658
-0.063291
-0.0063291
-0.012658
-0.025316
-0.11392
-0.33544
-0.56329
-0.75949
-0.75316
-0.65823
-0.37342
-0.050633
0.16456
0.20253
0.20253
0.16456
0.094937
-0.018987
-0.12658
-0.20886
-0.29114
-0.28481
-0.33544
-0.39873
-0.39873
-0.18987
0.037975
0.18987
0.22785
0.11392
-0.012658
-0.17722
-0.36709
-0.53797
-0.64557
-0.55063
-0.52532
-0.51266
-0.42405
-0.29747
-0.14557
-0.094937
-0.082278
-0.12658
-0.22152
-0.36076
-0.46835
-0.57595
-0.65823
-0.75316
-0.77215
-0.72152
-0.64557
-0.5
-0.4557
-0.39241
-0.31646
-0.25949
-0.18987
-0.075949
0.06962
0.10127
0.063291
-0.088608
-0.29114
-0.46835
-0.42405
-0.1962
0.018987
0.22152
0.3038
0.32911
0.22785
0.088608
-0.075949
-0.36076
-0.56962
-0.70886
-0.67722
-0.55063
-0.29114
0.0063291
0.20253
0.33544
0.29747
0.13291
-0.075949
-0.23418
-0.40506
-0.48101
-0.56962
-0.51266
-0.46203
-0.3038
-0.063291
0.12025
0.1962
0.25949
0.25949
0.20886
0.088608
-0.018987
-0.082278
-0.18354
-0.22152
-0.11392
-0.050633
0.082278
0.13924
0.082278
-0.031646
-0.16456
-0.25949
-0.34177
-0.43038
-0.46203
-0.37342
-0.21519
-0.031646
0.16456
0.20886
0.23418
0.22785
0.20886
0.1519
0.056962
-0.06962
-0.25949
-0.25316
-0.16456
0.037975
0.18354
0.22152
0.27215
0.18354
0.1519
0.13291
0.14557
0.075949
0.075949
0.13291
0.13924
0.075949
-0.075949
-0.27215
-0.43671
-0.4557
-0.48734
-0.44937
-0.37975
-0.29747
-0.25316
-0.26582
-0.15823
-0.12025
-0.12025
-0.10759
-0.082278
-0.037975
-0.031646
0.012658
0.037975
0.031646
0
0.037975
0.06962
0.012658
0.037975
0.025316
0.044304
-0.0063291
0.037975
0.050633
0.13291
0.18987
0.1519
0.11392
0.06962
0.06962
0.018987
0.044304
0.17722
0.33544
0.52532
0.66456
0.81646
0.79114
0.8038
0.75316
0.73418
0.63291
0.46203
0.3038
0.11392
0.031646
-0.0063291
-0.025316
0
0.082278
0.20253
0.22785
0.20253
0.13924
0.063291
-0.10127
-0.22152
-0.32911
-0.38608
-0.46203
-0.53165
-0.53165
-0.55063
-0.42405
-0.36076
-0.26582
-0.088608
0
0.018987
-0.06962
-0.12025
-0.075949
-0.025316
0.037975
0.063291
-0.031646
-0.1519
-0.10759
-0.11392
-0.11392
-0.1519
-0.26582
-0.32278
-0.32911
-0.39241
-0.36709
-0.40506
-0.39873
-0.31013
-0.34177
-0.33544
-0.27215
-0.20886
-0.1519
-0.11392
-0.025316
-0.082278
-0.056962
-0.018987
0.10127
0.06962
0.031646
-0.063291
-0.075949
0.11392
0.29114
0.48734
0.46835
0.48734
0.41139
0.3038
0.18987
0.14557
0.06962
0.056962
0.17089
0.3038
0.32911
0.25316
0.12025
0.12025
0.26582
0.46835
0.5443
0.49367
0.37342
0.31646
0.40506
0.41139
0.48101
0.37975
0.27215
0.25316
0.29747
0.37975
0.35443
0.36076
0.25316
0.17089
0.10127
0.050633
0.088608
0.063291
0.12658
0.18354
0.27215
0.32911
0.39241
0.31013
0.25316
0.17089
0.0063291
-0.063291
-0.10759
-0.018987
0.075949
0.15823
0.32278
0.49367
0.5443
0.56962
0.50633
0.39873
0.25316
0.18354
0.17722
0.16456
0.13291
0
-0.17722
-0.16456
-0.16456
-0.06962
-0.088608
0.012658
0.063291
0.13924
0.15823
0.18354
0.056962
-0.031646
0.012658
0.018987
0.012658
-0.11392
-0.24051
-0.3481
-0.51899
-0.58861
-0.58228
-0.42405
-0.10127
0.20253
0.46835
0.56329
0.53165
0.32278
0.050633
-0.18987
-0.26582
-0.32278
-0.39873
-0.38608
-0.26582
-0.088608
0.025316
0.088608
0.037975
0.075949
0.17722
0.22785
0.27215
0.25316
0.3038
0.33544
0.34177
0.36076
0.27848
0.1962
0.10759
0.11392
0.12658
0.24051
0.29747
0.33544
0.25949
0.25316
0.20886
0.082278
-0.012658
-0.094937
-0.13924
-0.22152
-0.29114
-0.21519
-0.11392
-0.063291
-0.06962
-0.18354
-0.20886
-0.1962
-0.10759
-0.082278
-0.082278
-0.15823
-0.26582
-0.36076
-0.41139
-0.46203
-0.48734
-0.42405
-0.29747
-0.14557
-0.012658
0.094937
0.13924
0.18354
0.22785
0.24684
0.23418
0.1962
0.29747
0.37342
0.39241
0.32911
0.25949
0.13924
0.094937
0.1519
0.15823
0.082278
-0.094937
-0.24684
-0.36076
-0.36076
-0.25949
-0.18987
-0.075949
-0.031646
-0.012658
-0.13291
-0.33544
-0.50633
-0.61392
-0.71519
-0.75316
-0.70253
-0.65823
-0.55696
-0.46835
-0.46835
-0.42405
-0.37975
-0.37975
-0.36709
-0.36076
-0.24684
-0.094937
-0.0063291
0.11392
0.1519
0.10759
-0.025316
-0.10127
-0.12658
-0.20886
-0.15823
-0.20886
-0.20253
-0.17089
-0.06962
-0.044304
-0.06962
-0.082278
-0.24051
-0.37975
-0.44937
-0.35443
-0.13291
0.094937
0.27215
0.26582
0.12025
-0.075949
-0.20886
-0.31013
-0.36076
-0.28481
-0.10759
0.12025
0.29747
0.41772
0.36709
0.24051
0.1519
0.082278
0.063291
0.018987
-0.018987
-0.12658
-0.11392
-0.10759
-0.06962
-0.025316
0.044304
0.20886
0.24051
0.1519
0.075949
0.037975
0.018987
0.031646
-0.063291
-0.1962
-0.31013
-0.28481
-0.25949
-0.20253
-0.17089
-0.18354
-0.18987
-0.18987
-0.082278
-0.018987
0.075949
0.18987
0.1519
0.044304
-0.10127
-0.1519
-0.10127
-0.088608
-0.088608
-0.094937
-0.088608
-0.082278
0.063291
0.13924
0.1962
0.17089
0.025316
-0.075949
-0.18354
-0.22785
-0.1962
-0.056962
0.1962
0.31013
0.26582
0.11392
-0.094937
-0.14557
-0.10759
0.050633
0.18354
0.21519
0.20253
0.27848
0.24684
0.16456
0.037975
0.018987
0.050633
0.14557
0.16456
0.15823
0.094937
0.088608
0.10759
0.13924
0.21519
0.1519
-0.018987
-0.15823
-0.11392
0.018987
0.13291
0.18987
0.14557
0.12025
0.063291
0.17722
0.25316
0.31013
0.28481
0.13291
-0.044304
-0.13291
-0.14557
-0.10127
-0.050633
0.10759
0.15823
0.16456
0.075949
-0.0063291
0.0063291
-0.025316
-0.044304
-0.06962
-0.10759
-0.06962
-0.056962
-0.050633
-0.063291
-0.037975
-0.082278
-0.20253
-0.29114
-0.22152
-0.12025
0.018987
0.094937
0.063291
-0.037975
-0.20886
-0.32911
-0.44304
-0.4557
-0.46835
-0.43038
-0.38608
-0.29747
-0.15823
-0.094937
0.018987
0.14557
0.27848
0.32278
0.20253
0.031646
-0.25949
-0.39873
-0.46835
-0.37342
-0.23418
-0.17089
-0.06962
-0.044304
0.082278
0.18354
0.24051
0.27848
0.37975
0.35443
0.13291
-0.20253
-0.55063
-0.73418
-0.70886
-0.44937
-0.15823
0.082278
0.3038
0.48734
0.56329
0.4557
0.35443
0.13924
-0.050633
-0.24051
-0.32911
-0.35443
-0.17722
0.050633
0.20886
0.20253
0.17722
0.1962
0.18354
0.1962
0.29114
0.37342
0.42405
0.51266
0.5
0.47468
0.32278
0.11392
-0.031646
-0.075949
-0.0063291
0.12658
0.15823
0.21519
0.24684
0.32911
0.32278
0.31646
0.24684
0.22152
0.22785
0.38608
0.56329
0.71519
0.87342
0.88608
0.79114
0.62025
0.53165
0.3481
0.18354
-0.025316
-0.22152
-0.27848
-0.20253
0.0063291
0.17722
0.3481
0.55063
0.72152
0.89873
0.9557
1
0.87975
0.66456
0.37975
0.050633
-0.24051
-0.40506
-0.38608
-0.32911
-0.17089
0.13291
0.44304
0.70886
0.79747
0.75949
0.56329
0.40506
0.23418
0.20253
0.15823
0.27848
0.37342
0.41772
0.43038
0.4557
0.47468
0.46835
0.52532
0.58861
0.59494
0.51899
0.46203
0.4557
0.46835
0.51266
0.60759
0.60127
0.68354
0.63924
0.51266
0.41772
0.38608
0.41139
0.48101
0.55696
0.65823
0.70253
0.63924
0.61392
0.46203
0.36076
0.3038
0.34177
0.41772
0.44937
0.56329
0.70253
0.79114
0.75316
0.61392
0.39241
0.1962
0.10127
0.06962
0.037975
0.06962
0.15823
0.29114
0.40506
0.46203
0.44937
0.40506
0.37342
0.34177
0.29114
0.31013
0.29114
0.1962
0.17089
0.18354
0.36076
0.46203
0.52532
0.56329
0.53165
0.39241
0.13924
-0.12658
-0.31013
-0.39873
-0.37975
-0.32911
-0.27215
-0.12658
0.044304
0.1519
0.25316
0.39241
0.55696
0.64557
0.66456
0.55063
0.32278
0.10127
-0.094937
-0.20253
-0.27215
-0.18354
-0.082278
-0.0063291
0.075949
0.13924
0.20253
0.22785
0.29114
0.24684
0.17089
0.037975
-0.0063291
-0.13924
-0.26582
-0.33544
-0.44304
-0.41772
-0.32911
-0.10127
0.025316
0.17722
0.23418
0.13924
-0.056962
-0.32911
-0.51266
-0.70253
-0.8038
-0.77215
-0.71519
-0.5
-0.44304
-0.24051
-0.15823
-0.018987
0.082278
0.1519
0.031646
-0.088608
-0.3038
-0.37342
-0.37342
-0.41772
-0.5
-0.62658
-0.77215
-0.85443
-0.98734
-1
-0.87975
-0.73418
-0.56962
-0.51266
-0.46835
-0.50633
-0.52532
-0.55696
-0.66456
-0.74684
-0.74051
-0.65823
-0.57595
-0.43671
-0.24684
-0.14557
-0.056962
0.075949
0.050633
0.0063291
-0.088608
-0.11392
-0.06962
0.012658
0.18354
0.32278
0.43038
0.43671
0.37975
0.22785
0.06962
0.044304
0.12025
0.1962
0.25316
0.27848
0.28481
0.29114
0.27848
0.25949
0.25949
0.25949
0.36709
0.38608
0.46835
0.52532
0.59494
0.58861
0.57595
0.44937
0.22152
0
-0.037975
-0.025316
-0.12025
-0.20253
-0.26582
-0.18987
-0.050633
0.13291
0.29114
0.36076
0.37975
0.24684
-0.056962
-0.23418
-0.38608
-0.33544
-0.22785
-0.10127
0.050633
0.10127
0.075949
0.063291
0.025316
-0.018987
0.018987
0.012658
0.0063291
-0.018987
-0.037975
0.082278
0.18987
0.34177
0.32278
0.17089
-0.044304
-0.13924
-0.20253
-0.15823
-0.063291
0.025316
0.06962
-0.0063291
-0.056962
-0.12025
-0.10759
-0.10759
-0.21519
-0.34177
-0.48734
-0.48734
-0.5
-0.39241
-0.32278
-0.3481
-0.48101
-0.67722
-0.77848
-0.82911
-0.78481
-0.57595
-0.3038
-0.13924
-0.12025
-0.18354
-0.36709
-0.41772
-0.38608
-0.3481
-0.25316
-0.1519
-0.056962
-0.088608
-0.18354
-0.21519
-0.25316
-0.31013
-0.36076
-0.38608
-0.43038
-0.47468
-0.58861
-0.68987
-0.6962
-0.53797
-0.28481
-0.11392
-0.063291
0.06962
0.13924
0.31646
0.38608
0.37342
0.32911
0.25949
0.18987
-0.037975
-0.28481
-0.39873
-0.41772
-0.37975
-0.39241
-0.37975
-0.43671
-0.3481
-0.27848
-0.22785
-0.32278
-0.44937
-0.5443
-0.60127
-0.56329
-0.46835
-0.39241
-0.37342
-0.32911
-0.26582
-0.21519
-0.18354
-0.11392
-0.050633
-0.018987
-0.044304
-0.17722
-0.37975
-0.50633
-0.46203
-0.39241
-0.3038
-0.24684
-0.06962
0.075949
0.20886
0.27215
0.27215
0.17722
0.088608
-0.025316
-0.17722
-0.32911
-0.39873
-0.47468
-0.5
-0.44304
-0.33544
-0.20253
-0.056962
0.018987
0.031646
-0.063291
-0.18354
-0.37342
-0.42405
-0.44304
-0.34177
-0.12025
-0.012658
0.11392
-0.031646
-0.29747
-0.51266
-0.57595
-0.59494
-0.55696
-0.40506
-0.27215
-0.12025
-0.16456
-0.22785
-0.36709
-0.44937
-0.5
-0.56962
-0.60127
-0.46203
-0.21519
0.018987
0.1962
0.17089
0.082278
-0.10759
-0.28481
-0.34177
-0.38608
-0.38608
-0.32911
-0.28481
-0.24684
-0.24684
-0.25316
-0.32911
-0.34177
-0.33544
-0.25949
-0.1962
-0.14557
-0.20886
-0.32911
-0.31646
-0.22785
-0.094937
-0.088608
-0.044304
-0.012658
-0.012658
-0.082278
-0.10759
-0.31013
-0.44937
-0.46203
-0.39873
-0.24051
-0.15823
-0.082278
-0.044304
-0.063291
-0.075949
-0.10127
-0.22152
-0.25949
-0.26582
-0.22785
-0.18354
-0.088608
-0.056962
-0.044304
-0.050633
0.0063291
0.037975
0.06962
0.21519
0.22152
0.18987
0.075949
0
-0.025316
0.031646
0.13924
0.18354
0.24684
0.27848
0.47468
0.55063
0.56329
0.50633
0.34177
0.16456
0.06962
0.037975
0.044304
0.088608
0.15823
0.28481
0.32278
0.41772
0.39241
0.37975
0.36709
0.39241
0.32911
0.1519
0.11392
0.031646
0.10127
0.16456
0.20886
0.1962
0.15823
0.094937
0.10759
0.056962
0.037975
0.12025
0.21519
0.28481
0.32911
0.35443
0.25949
0.13291
-0.056962
-0.22785
-0.24684
-0.063291
0.17089
0.31646
0.36709
0.36709
0.32911
0.29747
0.22785
0.15823
0.018987
-0.075949
-0.11392
-0.088608
0.044304
0.12658
0.13291
0.050633
-0.031646
-0.063291
-0.056962
-0.044304
-0.031646
0.037975
-0.037975
-0.088608
-0.075949
-0.13924
-0.10127
-0.12658
-0.28481
-0.40506
-0.49367
-0.50633
-0.41772
-0.39873
-0.41139
-0.5
-0.52532
-0.48101
-0.49367
-0.4557
-0.33544
-0.10759
0.12025
0.18354
0.1519
0.012658
-0.21519
-0.36709
-0.33544
-0.26582
-0.16456
-0.056962
-0.044304
-0.10127
-0.1519
-0.16456
-0.082278
-0.0063291
-0.012658
-0.13291
-0.20886
-0.24051
-0.1962
-0.22152
-0.3038
-0.37342
-0.35443
-0.31013
-0.1962
-0.11392
-0.18987
-0.31013
-0.50633
-0.65823
-0.63924
-0.46203
-0.16456
-0.018987
-0.050633
-0.082278
-0.12658
-0.22785
-0.29114
-0.33544
-0.41772
-0.42405
-0.33544
-0.20886
-0.082278
-0.012658
0.050633
0.050633
-0.018987
-0.20253
-0.3038
-0.37975
-0.26582
-0.12658
-0.050633
-0.018987
-0.06962
-0.18354
-0.17089
-0.056962
0.12025
0.20253
0.21519
0.21519
0.16456
0.044304
-0.10759
-0.31013
-0.50633
-0.62025
-0.70253
-0.58861
-0.36709
-0.14557
-0.050633
-0.082278
-0.13291
-0.16456
-0.13291
-0.050633
0.018987
0.025316
-0.06962
-0.13924
-0.088608
-0.11392
-0.12025
-0.16456
-0.22785
-0.27215
-0.35443
-0.43671
-0.46835
-0.41772
-0.32911
-0.1962
-0.012658
0.1962
0.35443
0.33544
0.17722
-0.031646
-0.20253
-0.37975
-0.37342
-0.41772
-0.39873
-0.1519
0.16456
0.48734
0.60759
0.59494
0.48101
0.38608
0.36709
0.43671
0.53797
0.43671
0.41139
0.3481
0.34177
0.37342
0.44304
0.58228
0.6519
0.76582
0.79114
0.81646
0.76582
0.61392
0.44937
0.36076
0.44304
0.5443
0.58228
0.5443
0.5443
0.48101
0.56962
0.66456
0.77215
0.77848
0.72785
0.70886
0.67722
0.62025
0.55063
0.41772
0.25949
0.17089
0.14557
0.13291
0.21519
0.29114
0.32911
0.24684
0.1519
0.063291
-0.018987
-0.037975
-0.018987
0.050633
0.056962
-0.025316
0.0063291
-0.018987
0.082278
0.22152
0.33544
0.3481
0.37975
0.32911
0.28481
0.36076
0.46203
0.48734
0.44937
0.46835
0.41772
0.31646
0.1962
0.11392
0.14557
0.22152
0.36076
0.43038
0.51266
0.56962
0.58861
0.53797
0.4557
0.41139
0.29114
0.23418
0.082278
0.012658
-0.037975
-0.025316
0.075949
0.075949
0.031646
-0.088608
-0.11392
-0.21519
-0.15823
-0.11392
-0.012658
0.056962
0.12025
0.18987
0.33544
0.48734
0.6519
0.6962
0.74051
0.70253
0.63291
0.56329
0.53165
0.53165
0.53797
0.4557
0.41139
0.29114
0.082278
-0.10127
-0.11392
-0.031646
0.031646
0.1519
0.17089
0.21519
0.20253
0.13291
0.06962
0
0.012658
0.056962
0.12025
0.10759
0.031646
-0.094937
-0.20886
-0.11392
-0.018987
-0.050633
-0.1962
-0.3481
-0.46835
-0.48734
-0.51266
-0.53165
-0.48734
-0.48734
-0.43671
-0.46203
-0.35443
-0.26582
-0.31013
-0.39873
-0.50633
-0.5
-0.39241
-0.28481
-0.13291
0
-0.0063291
-0.012658
-0.10759
-0.23418
-0.27215
-0.27848
-0.20253
-0.10127
0.056962
0.24051
0.36709
0.37975
0.36076
0.31646
0.27848
0.3481
0.50633
0.56329
0.61392
0.60127
0.52532
0.46203
0.42405
0.3481
0.24051
0.15823
0.18987
0.29114
0.34177
0.34177
0.20886
0.06962
-0.025316
-0.056962
-0.12658
-0.1519
-0.16456
-0.20886
-0.27848
-0.32278
-0.26582
-0.24051
-0.18987
-0.12025
0.0063291
0.15823
0.27848
0.26582
0.13924
-0.094937
-0.25949
-0.37975
-0.42405
-0.39241
-0.27848
-0.1519
-0.050633
0.031646
0.018987
0.012658
-0.056962
-0.094937
-0.23418
-0.31646
-0.33544
-0.36076
-0.49367
-0.63924
-0.60759
-0.48101
-0.34177
-0.34177
-0.4557
-0.5
-0.43671
-0.32278
-0.25949
-0.25949
-0.25316
-0.17722
-0.20253
-0.056962
-0.044304
-0.012658
-0.044304
-0.031646
0.031646
0.075949
0.10127
-0.0063291
-0.10127
-0.044304
0.13924
0.22785
0.1519
0.031646
-0.075949
-0.18354
-0.18987
-0.20886
-0.29114
-0.27215
-0.18354
-0.018987
0.063291
0.037975
0.0063291
-0.037975
-0.088608
-0.15823
-0.17722
-0.26582
-0.31646
-0.37342
-0.5
-0.49367
-0.46203
-0.40506
-0.36076
-0.32278
-0.22785
-0.12025
0.018987
0.12658
0.12658
-0.031646
-0.13924
-0.22785
-0.34177
-0.36709
-0.36709
-0.3481
-0.29747
-0.37975
-0.44304
-0.46835
-0.36709
-0.17722
-0.17089
-0.32278
-0.50633
-0.67089
-0.86709
-1
-0.96203
-0.88608
-0.72152
-0.56329
-0.40506
-0.31013
-0.25949
-0.23418
-0.25316
-0.43038
-0.56962
-0.77215
-0.84177
-0.77848
-0.62658
-0.44304
-0.18354
0.050633
0.1962
0.16456
0
-0.088608
-0.20886
-0.23418
-0.17722
-0.12658
0
0.13924
0.32911
0.37975
0.3481
0.1519
-0.037975
-0.28481
-0.37975
-0.32278
-0.24684
-0.13291
0.012658
0.10127
0.12025
0.088608
0.018987
-0.17089
-0.32278
-0.39873
-0.31013
-0.22152
-0.1519
-0.17089
-0.29114
-0.27215
-0.25949
-0.29747
-0.43671
-0.56329
-0.66456
-0.57595
-0.41772
-0.21519
-0.11392
-0.075949
-0.012658
0.12025
0.050633
-0.0063291
-0.23418
-0.39873
-0.57595
-0.64557
-0.65823
-0.55063
-0.3481
-0.088608
-0.025316
0.018987
-0.025316
-0.12658
-0.24684
-0.32911
-0.32278
-0.31013
-0.26582
-0.22152
-0.1962
-0.15823
-0.15823
-0.15823
-0.25316
-0.26582
-0.29114
-0.23418
-0.22152
-0.10127
0.037975
0.12025
0.16456
0.088608
0.082278
0.075949
0.075949
0.12025
0.018987
-0.031646
-0.12658
-0.13924
-0.1962
-0.13924
0.050633
0.13924
0.3038
0.36709
0.33544
0.41772
0.41772
0.34177
0.14557
-0.0063291
-0.025316
-0.025316
-0.050633
0.0063291
0.11392
0.10127
0.18354
0.21519
0.26582
0.22785
0.21519
0.082278
0.044304
0.018987
0.13291
0.20253
0.22152
0.27215
0.24684
0.27215
0.29114
0.31646
0.25949
0.13291
0.21519
0.29747
0.41772
0.41772
0.46203
0.38608
0.29747
0.20253
0.063291
0.0063291
-0.050633
-0.056962
-0.063291
-0.025316
0.018987
0.075949
0.088608
0.1519
0.20886
0.12025
-0.037975
-0.18354
-0.3038
-0.36709
-0.29747
-0.24684
-0.17722
-0.094937
-0.12025
-0.13924
-0.1519
-0.11392
-0.056962
-0.012658
-0.025316
0.10759
0.15823
0.17089
0.25316
0.29114
0.24051
0.20253
0.18354
0.13291
0.10759
0.088608
-0.050633
-0.06962
-0.094937
0.018987
0.10127
0.050633
0.044304
-0.012658
0.025316
0.044304
0.056962
0.012658
-0.044304
-0.037975
-0.063291
-0.13291
-0.22152
-0.1962
-0.18354
-0.056962
0.063291
0.11392
0.06962
0.025316
0.10127
0.12658
0.1519
0.094937
0.0063291
-0.12025
-0.27215
-0.31646
-0.39241
-0.33544
-0.1962
0.025316
0.27215
0.44937
0.43038
0.20886
-0.044304
-0.27848
-0.43038
-0.56962
-0.65823
-0.62658
-0.5443
-0.37342
-0.13924
0.056962
0.27215
0.32911
0.24684
-0.012658
-0.29747
-0.44937
-0.56329
-0.58861
-0.51899
-0.56329
-0.51266
-0.5
-0.32911
-0.22152
-0.1962
-0.088608
-0.044304
0.012658
0.031646
0.056962
0.094937
0.12025
0.10127
-0.044304
-0.24051
-0.36709
-0.39241
-0.3481
-0.26582
-0.17722
-0.06962
0.031646
0.18987
0.32911
0.41139
0.3038
0.14557
0.0063291
-0.11392
-0.12658
-0.13924
-0.13291
-0.075949
0
0.17089
0.25949
0.36709
0.41139
0.40506
0.39241
0.32911
0.31013
0.25316
0.21519
0.29114
0.36076
0.44304
0.58228
0.57595
0.60127
0.64557
0.62658
0.51899
0.38608
0.27848
0.29114
0.24051
0.24684
0.14557
0.025316
-0.063291
-0.025316
0.031646
0.12658
0.25949
0.36076
0.4557
0.43038
0.39241
0.25949
0.094937
-0.044304
-0.24051
-0.39241
-0.44304
-0.25949
-0.0063291
0.32278
0.5
0.47468
0.29114
0.10127
-0.0063291
-0.094937
-0.10127
-0.075949
-0.025316
0.044304
0.12658
0.32278
0.49367
0.57595
0.62025
0.64557
0.56962
0.57595
0.59494
0.51899
0.46203
0.32911
0.20253
0.025316
-0.050633
0.0063291
0.10759
0.29114
0.53797
0.68354
0.78481
0.6962
0.56962
0.41139
0.37342
0.4557
0.43671
0.31013
0.20253
0.12025
0.14557
0.15823
0.17089
0.18354
0.18354
0.31013
0.25949
0.20253
0.14557
0.16456
0.20253
0.13291
0.031646
-0.14557
-0.20253
-0.20253
-0.056962
0.025316
0.082278
0.13924
0.15823
0.14557
0.12025
0.10759
0.06962
0.13924
0.27215
0.38608
0.41139
0.32278
0.29747
0.25316
0.23418
0.22785
0.18987
0.12658
0.10127
0.063291
0.10127
0.23418
0.36076
0.41139
0.31646
0.20253
0.14557
0.075949
0.13924
0.29747
0.38608
0.46203
0.51899
0.49367
0.39241
0.21519
0.018987
-0.13924
-0.29747
-0.36076
-0.3481
-0.22785
-0.14557
0
0.056962
0.044304
0.094937
0.063291
-0.025316
-0.11392
-0.13291
-0.13924
-0.18354
-0.27848
-0.42405
-0.55696
-0.62025
-0.58228
-0.41772
-0.24051
-0.018987
0.094937
0.16456
0.16456
0.1962
0.22152
0.24051
0.32911
0.32911
0.27215
0.1519
0.10759
0.094937
0.18354
0.20253
0.17089
0.10127
0.044304
0.14557
0.1962
0.20253
0.14557
-0.06962
-0.25949
-0.33544
-0.25949
-0.094937
0.025316
0.16456
0.12658
0.018987
-0.18354
-0.24051
-0.28481
-0.13924
-0.050633
0.094937
0.21519
0.24684
0.25316
0.17089
0.13291
0.12658
0.094937
0
-0.10127
-0.13291
-0.17089
-0.14557
-0.13924
-0.1962
-0.27215
-0.26582
-0.39873
-0.44304
-0.56329
-0.5
-0.3481
-0.18987
0.031646
0.075949
0.15823
0.14557
0.13924
0.13291
0.025316
0.050633
0.037975
0.1519
0.25316
0.32911
0.29747
0.32278
0.34177
0.37975
0.33544
0.32278
0.26582
0.20253
0.13924
0.10759
0.094937
0.025316
0.056962
0.11392
0.13291
0.11392
0.06962
0.11392
0.11392
0.27215
0.29747
0.32911
0.3038
0.29114
0.29114
0.12658
0.088608
0
0.06962
0.056962
0.056962
-0.018987
-0.12658
-0.082278
-0.050633
-0.031646
-0.012658
-0.018987
0
0.025316
0.050633
0.012658
-0.11392
-0.12658
-0.11392
0.012658
0.050633
0.16456
0.18987
0.24051
0.20253
0.23418
0.23418
0.18987
0.12658
-0.018987
-0.12658
-0.15823
-0.056962
-0.088608
-0.025316
-0.031646
0.012658
-0.018987
-0.075949
-0.12025
-0.1962
-0.27215
-0.33544
-0.3481
-0.29114
-0.1519
-0.0063291
0.063291
0.018987
-0.10127
-0.26582
-0.55696
-0.71519
-0.79747
-0.78481
-0.58228
-0.36076
-0.094937
0.0063291
0.10127
0.082278
-0.025316
-0.21519
-0.43038
-0.61392
-0.62658
-0.51266
-0.32278
-0.18987
0.037975
0.24051
0.43671
0.43038
0.34177
0.18987
0.025316
0.037975
0.075949
0.10127
-0.0063291
-0.037975
-0.10127
-0.050633
-0.075949
-0.10127
-0.17089
-0.29114
-0.29747
-0.31646
-0.31646
-0.20886
-0.10759
-0.10127
-0.10759
-0.18354
-0.25316
-0.36076
-0.49367
-0.53165
-0.56329
-0.46835
-0.40506
-0.35443
-0.35443
-0.32911
-0.25316
-0.28481
-0.26582
-0.25949
-0.22785
-0.24051
-0.24051
-0.1962
-0.21519
-0.16456
-0.10127
-0.063291
-0.10127
-0.25316
-0.4557
-0.47468
-0.43671
-0.27848
-0.23418
-0.23418
-0.23418
-0.12025
-0.018987
0.056962
0.10127
0.06962
-0.018987
0.025316
0.037975
0.094937
0.018987
-0.088608
-0.32911
-0.48734
-0.44937
-0.34177
-0.18354
-0.12025
0.025316
0.14557
0.27215
0.43671
0.4557
0.44937
0.3481
0.22152
-0.056962
-0.27848
-0.51266
-0.63291
-0.60759
-0.51899
-0.35443
-0.3038
-0.23418
-0.25949
-0.28481
-0.32278
-0.27848
-0.18987
-0.22152
-0.18354
-0.17089
-0.18354
-0.27215
-0.44937
-0.4557
-0.46835
-0.28481
-0.10759
-0.025316
-0.018987
-0.018987
0.056962
0.10759
0.17722
0.22785
0.20253
0.06962
0.012658
-0.082278
0
0.10759
0.20253
0.24051
0.15823
0.17722
0.17089
0.17089
0.063291
-0.056962
-0.24684
-0.31013
-0.27848
-0.1962
-0.06962
-0.082278
-0.044304
-0.075949
-0.044304
-0.018987
-0.031646
-0.056962
-0.16456
-0.25949
-0.37975
-0.46203
-0.5
-0.52532
-0.53165
-0.43671
-0.22785
-0.094937
0.012658
0.031646
0.018987
-0.031646
-0.18987
-0.36709
-0.5
-0.52532
-0.43671
-0.38608
-0.41772
-0.33544
-0.20886
-0.044304
0.056962
0.16456
0.20886
0.1962
0.12025
-0.012658
-0.20253
-0.34177
-0.41139
-0.37975
-0.36076
-0.20886
-0.11392
-0.012658
0.056962
0.17722
0.3481
0.44937
0.60127
0.58228
0.47468
0.35443
0.21519
0.088608
-0.088608
-0.15823
-0.20253
-0.13291
-0.037975
0.075949
0.17722
0.22152
0.20253
0.031646
-0.14557
-0.28481
-0.22785
-0.24051
-0.17722
-0.13924
-0.0063291
0.082278
0.13291
0.17089
0.17722
0.16456
0.12658
0.031646
-0.082278
-0.18354
-0.18354
-0.20886
-0.18354
-0.050633
0.13924
0.32278
0.39873
0.38608
0.32278
0.25949
0.24684
0.22152
0.14557
0.088608
0.0063291
-0.037975
-0.037975
-0.018987
0.082278
0.12025
0.22152
0.17722
0.12658
0.094937
0.06962
0.063291
-0.050633
0.0063291
-0.044304
-0.050633
-0.094937
-0.094937
-0.17089
-0.33544
-0.29114
-0.16456
0.10759
0.27215
0.38608
0.39873
0.38608
0.29114
0.06962
-0.1962
-0.32911
-0.35443
-0.18987
0.0063291
0.29114
0.48101
0.51899
0.53797
0.48101
0.41139
0.37975
0.37975
0.3481
0.27848
0.26582
0.29747
0.20886
0.088608
-0.012658
0.012658
0.10127
0.28481
0.43671
0.48734
0.49367
0.44304
0.29747
0.082278
-0.15823
-0.32278
-0.40506
-0.37342
-0.32278
-0.32278
-0.39873
-0.32278
-0.27215
-0.20253
-0.11392
-0.044304
0.031646
0.06962
0.24051
0.32911
0.26582
0.088608
-0.13291
-0.29114
-0.32278
-0.25949
-0.20886
-0.16456
-0.075949
0.075949
0.17722
0.22785
0.21519
0.14557
0.050633
-0.088608
-0.10127
-0.12025
0.0063291
0.17722
0.34177
0.46203
0.52532
0.60127
0.71519
0.8481
0.90506
0.82911
0.70886
0.63924
0.61392
0.66456
0.62025
0.53797
0.41139
0.31646
0.36709
0.48734
0.5443
0.58228
0.5443
0.55696
0.4557
0.42405
0.31646
0.18354
0.10759
0.13924
0.06962
0.056962
0.018987
0.037975
0
-0.037975
-0.1519
-0.1519
-0.16456
-0.056962
-0.056962
-0.10127
-0.1519
-0.16456
-0.26582
-0.41772
-0.60759
-0.74051
-0.82278
-0.79114
-0.51266
-0.20253
0.1962
0.48734
0.51899
0.38608
0.17722
0.044304
-0.11392
-0.24684
-0.31013
-0.36076
-0.37342
-0.36709
-0.27215
-0.088608
0.094937
0.36709
0.47468
0.46835
0.41772
0.32278
0.1962
0.10127
0.050633
0
-0.012658
0.082278
0.29747
0.47468
0.62025
0.62025
0.56329
0.41772
0.25316
0.063291
-0.22152
-0.37975
-0.37342
-0.22152
-0.044304
0.15823
0.18354
0.1519
0.10127
0.13924
0.22785
0.25316
0.20886
0.075949
0.056962
0.063291
0.1962
0.25316
0.27848
0.27848
0.26582
0.24051
0.31013
0.40506
0.46203
0.5
0.48734
0.5
0.48734
0.39873
0.32278
0.15823
0.12658
0.088608
-0.012658
-0.044304
-0.088608
-0.044304
-0.037975
0
0.17722
0.27848
0.3481
0.32911
0.38608
0.31646
0.25949
0.15823
0.094937
0.088608
0.056962
0.06962
0.044304
0.10127
0.10759
0.094937
0.06962
0
0.025316
0.037975
0.018987
-0.012658
-0.06962
-0.17722
-0.24684
-0.31646
-0.36076
-0.29747
-0.27215
-0.3038
-0.34177
-0.29747
-0.18354
-0.050633
0.094937
0.24684
0.32911
0.25949
0.25316
-0.012658
-0.23418
-0.50633
-0.53797
-0.44304
-0.31013
-0.17089
-0.11392
-0.050633
0.056962
0.13924
0.11392
0.10759
0
-0.056962
-0.12025
-0.088608
0.037975
0.082278
0.0063291
-0.094937
-0.20253
-0.31646
-0.42405
-0.37342
-0.31013
-0.088608
0.031646
0.12658
0.10759
0.12658
0.094937
-0.018987
-0.14557
-0.18987
-0.21519
-0.20253
-0.20886
-0.25949
-0.4557
-0.57595
-0.58861
-0.50633
-0.41139
-0.26582
-0.20886
-0.27215
-0.31013
-0.34177
-0.24684
-0.22785
-0.14557
-0.17722
-0.1519
-0.056962
0.037975
0.050633
-0.0063291
-0.037975
-0.12025
-0.14557
-0.17722
-0.1519
-0.075949
-0.050633
0.10127
0.17089
0.15823
0.094937
0.037975
0.037975
0.056962
0.094937
0.10127
0.094937
0.018987
-0.050633
-0.22152
-0.36709
-0.43671
-0.43038
-0.35443
-0.24684
-0.037975
0.056962
0.20253
0.21519
0.1519
0.012658
-0.16456
-0.27215
-0.37342
-0.43038
-0.46203
-0.5
-0.62025
-0.65823
-0.56962
-0.37975
-0.15823
0.0063291
0.025316
-0.056962
-0.056962
-0.12658
-0.26582
-0.46835
-0.55063
-0.58861
-0.52532
-0.40506
-0.38608
-0.33544
-0.27848
-0.13291
0.012658
0.10759
0.23418
0.28481
0.29114
0.24684
0.16456
-0.031646
-0.1962
-0.26582
-0.22785
-0.20253
-0.17722
-0.094937
0.018987
0.088608
0.14557
0.082278
-0.025316
-0.15823
-0.31013
-0.38608
-0.39241
-0.43038
-0.36076
-0.32278
-0.22152
-0.063291
-0.088608
-0.22785
-0.44937
-0.60127
-0.67089
-0.56962
-0.48101
-0.51899
