0.1978
0.24176
0.34066
0.37912
0.39011
0.42308
0.43407
0.49451
0.57692
0.6044
0.59341
0.58791
0.58791
0.49451
0.30769
0.076923
-0.038462
0.093407
0.33516
0.54396
0.59341
0.55495
0.62088
0.67582
0.6978
0.68681
0.58242
0.51648
0.4011
0.37912
0.32967
0.36813
0.40659
0.38462
0.31319
0.25275
0.20879
0.098901
0.016484
-0.010989
-0.021978
-0.1044
-0.14286
-0.12088
0.0054945
0.16484
0.26374
0.31319
0.23626
0.23626
0.18681
0.098901
0.010989
-0.076923
-0.11538
-0.16484
-0.16484
-0.10989
-0.098901
-0.049451
-0.032967
-0.082418
-0.13736
-0.16484
-0.29121
-0.38462
-0.51099
-0.46154
-0.48352
-0.35714
-0.19231
-0.06044
0.010989
-0.021978
-0.054945
-0.17033
-0.26923
-0.25824
-0.1978
-0.13736
-0.076923
-0.043956
-0.12637
-0.17582
-0.23626
-0.25275
-0.26923
-0.25824
-0.24176
-0.21429
-0.26923
-0.31319
-0.23626
-0.1978
-0.076923
0.016484
0.071429
0.15934
0.16484
0.18681
0.071429
-0.0054945
-0.18681
-0.33516
-0.36264
-0.22527
-0.06044
0.12637
0.28571
0.37912
0.42308
0.37912
0.34615
0.24725
0.10989
0.038462
0.021978
-0.043956
-0.021978
-0.038462
-0.038462
0.038462
0.11538
0.13736
0.043956
-0.032967
-0.12637
-0.10989
-0.076923
-0.076923
-0.14286
-0.23077
-0.21978
-0.17033
-0.087912
-0.10989
-0.076923
-0.082418
-0.17033
-0.29121
-0.38462
-0.45055
-0.39011
-0.21429
-0.11538
-0.076923
-0.21978
-0.3022
-0.4011
-0.35714
-0.33516
-0.25275
-0.25275
-0.20879
-0.20879
-0.2033
-0.23077
-0.14835
-0.082418
-0.0054945
0
-0.18132
-0.32418
-0.42857
-0.48901
-0.61538
-0.81868
-0.76923
-0.69231
-0.54396
-0.54396
-0.42857
-0.39011
-0.36264
-0.26374
-0.13736
-0.054945
0.016484
-0.016484
0.049451
0.054945
0.12088
0.16484
0.082418
-0.032967
-0.076923
0
0.1044
0.093407
-0.049451
-0.17033
-0.28022
-0.31319
-0.26374
-0.28022
-0.31319
-0.33516
-0.47253
-0.56044
-0.6044
-0.53297
-0.38462
-0.2967
-0.29121
-0.21429
-0.25824
-0.22527
-0.15934
-0.18132
-0.12637
-0.14835
-0.071429
-0.054945
-0.06044
-0.087912
-0.21978
-0.20879
-0.11538
-0.010989
-0.016484
-0.082418
-0.082418
-0.098901
-0.049451
-0.071429
-0.16484
-0.20879
-0.2033
-0.076923
0.065934
0.25275
0.34615
0.42308
0.37912
0.45055
0.45604
0.41209
0.33516
0.26374
0.21978
0.28571
0.4011
0.53846
0.53846
0.47802
0.4011
0.35714
0.31868
0.38462
0.36813
0.40659
0.3956
0.47253
0.47802
0.53297
0.49451
0.46703
0.32418
0.2033
0.065934
-0.010989
-0.0054945
0.15934
0.33516
0.53846
0.74176
0.89011
0.92857
0.95604
0.96154
0.89011
0.71429
0.5
0.35714
0.1978
0.13736
0.13736
0.22527
0.36813
0.42857
0.5
0.42308
0.40659
0.43956
0.48901
0.43956
0.37363
0.28571
0.27473
0.28571
0.3022
0.32967
0.35165
0.52747
0.63736
0.7033
0.73626
0.70879
0.65385
0.56593
0.45604
0.35165
0.26923
0.17033
0.19231
0.23626
0.3956
0.53846
0.65934
0.75824
0.75275
0.77473
0.57692
0.40659
0.23626
0.12088
0.0054945
-0.087912
-0.043956
0.043956
0.18132
0.30769
0.36813
0.32418
0.38462
0.39011
0.42308
0.2967
0.16484
-0.049451
-0.1978
-0.34615
-0.3956
-0.43956
-0.30769
-0.087912
0.16484
0.44505
0.65385
0.76374
0.65385
0.53846
0.42308
0.37363
0.1978
0.06044
0.021978
0.038462
0.12088
0.26374
0.41209
0.52747
0.62088
0.55495
0.55495
0.53297
0.53846
0.5
0.47253
0.50549
0.57143
0.61538
0.60989
0.63187
0.59341
0.52747
0.46703
0.42857
0.37363
0.24725
0.098901
0
0.0054945
0.1044
0.23626
0.32418
0.35714
0.39011
0.27473
0.21429
0.10989
0.0054945
-0.10989
-0.22527
-0.24176
-0.24725
-0.24176
-0.18132
-0.15934
-0.098901
-0.06044
0.071429
0.16484
0.24176
0.28571
0.25824
0.15385
0.065934
0.10989
0.18681
0.28571
0.32418
0.28571
0.21429
0.14286
0.071429
-0.016484
0.054945
0.1978
0.37912
0.43956
0.45604
0.36813
0.25275
0.093407
-0.071429
-0.2033
-0.34615
-0.36813
-0.37912
-0.34615
-0.26923
-0.13187
-0.021978
0.093407
0.14286
0.12637
0.043956
-0.076923
-0.1044
-0.13736
-0.11538
-0.054945
-0.016484
-0.038462
-0.016484
-0.021978
0.054945
0.17582
0.26374
0.18681
0.038462
-0.093407
-0.21978
-0.28571
-0.45604
-0.43407
-0.28571
-0.10989
0.054945
0.13187
0.1978
0.21429
0.24176
0.25824
0.17582
0.13736
0.076923
0.021978
0.038462
0
0.027473
0
-0.021978
-0.021978
-0.016484
0.032967
0.054945
0.093407
0.087912
0.071429
-0.049451
-0.11538
-0.17033
-0.10989
-0.0054945
0.021978
0.1044
0.054945
-0.021978
-0.14835
-0.19231
-0.30769
-0.47802
-0.58242
-0.67033
-0.65934
-0.49451
-0.27473
-0.082418
0.021978
0.038462
0.021978
0.010989
0.0054945
0.016484
-0.043956
-0.17582
-0.27473
-0.31319
-0.2967
-0.24725
-0.19231
-0.17033
-0.15385
0.021978
0.065934
0.049451
-0.010989
-0.12088
-0.18132
-0.1978
-0.14835
-0.098901
-0.12088
0.0054945
0.038462
0.021978
-0.032967
-0.12637
-0.1044
-0.2033
-0.25275
-0.36264
-0.37363
-0.34615
-0.1978
-0.18681
-0.21429
-0.25824
-0.26374
-0.26374
-0.14835
-0.016484
0.082418
0.043956
0.043956
-0.032967
-0.12088
-0.25824
-0.28571
-0.31319
-0.17033
-0.016484
0.098901
0.13187
0.14835
0.23077
0.30769
0.42308
0.42857
0.46154
0.4011
0.30769
0.23626
0.19231
0.13736
0.15385
0.10989
0.016484
-0.016484
-0.032967
0.082418
0.23626
0.37363
0.42857
0.43407
0.42857
0.42857
0.35714
0.29121
0.19231
0.23626
0.18681
0.19231
0.15385
0.093407
0.043956
-0.054945
-0.11538
-0.17582
-0.19231
-0.14286
-0.13187
-0.093407
0.010989
0.11538
0.18681
0.17033
0.12088
0.14286
0.12088
0.12088
0.043956
-0.054945
-0.10989
-0.2033
-0.2033
-0.17033
-0.038462
0.021978
-0.010989
0.016484
0.010989
0.071429
0.098901
0.10989
0.13187
0.049451
0
0.0054945
0
0.049451
0.1044
0.065934
0.082418
0.12088
0.15934
0.19231
0.21978
0.21978
0.13736
0.016484
-0.027473
-0.071429
-0.093407
-0.17033
-0.17582
-0.23077
-0.17033
-0.10989
-0.027473
-0.016484
0.0054945
0.021978
-0.043956
-0.082418
-0.12088
-0.13736
-0.26374
-0.37912
-0.46154
-0.52747
-0.50549
-0.51099
-0.56044
-0.60989
-0.62088
-0.62637
-0.62637
-0.56593
-0.48901
-0.34066
-0.3022
-0.25824
-0.30769
-0.44505
-0.53846
-0.52198
-0.50549
-0.46154
-0.39011
-0.3022
-0.2033
-0.12088
-0.021978
0.010989
-0.010989
0.0054945
-0.049451
-0.054945
-0.098901
-0.021978
0.0054945
0.049451
0.098901
0.071429
0.032967
0.016484
0.010989
0
-0.10989
-0.19231
-0.22527
-0.26923
-0.24176
-0.15934
-0.071429
0.087912
0.1044
0.087912
0.065934
0.054945
0.21429
0.26923
0.31319
0.18681
0.065934
-0.016484
-0.027473
0.027473
0.032967
0.054945
0.14835
0.14835
0.043956
-0.043956
-0.071429
-0.043956
0.082418
0.13187
0.20879
0.21978
0.21978
0.20879
0.10989
0
-0.1044
-0.12088
-0.21978
-0.23626
-0.39011
-0.36813
-0.27473
-0.016484
0.18681
0.24725
0.32967
0.24725
0.2033
0.093407
0.016484
-0.010989
-0.038462
0.038462
0.06044
0.065934
-0.016484
0.016484
0.016484
0.054945
0.065934
0.038462
0.071429
0.18681
0.28571
0.28022
0.29121
0.25275
0.28571
0.27473
0.22527
0.12088
0.0054945
-0.087912
-0.010989
0
-0.0054945
0.021978
0.098901
0.1978
0.34066
0.41758
0.5
0.42857
0.3022
0.1978
0.12637
0.13187
0.22527
0.30769
0.31319
0.3022
0.30769
0.26374
0.20879
0.13187
0.1044
-0.0054945
0.0054945
-0.0054945
0.027473
0.016484
0.1044
0.14835
0.23077
0.2967
0.17582
0.032967
-0.098901
-0.12088
-0.093407
-0.082418
0.010989
0.071429
0.06044
0.098901
0.12088
0.12637
0.093407
0.087912
0.11538
0.16484
0.12637
0.049451
-0.14835
-0.2033
-0.22527
-0.25824
-0.35714
-0.47253
-0.41758
-0.3022
-0.06044
0.12088
0.27473
0.24725
0.12088
0.032967
-0.10989
-0.13736
-0.11538
-0.098901
-0.19231
-0.12637
-0.076923
-0.038462
-0.043956
-0.087912
-0.087912
-0.032967
0.032967
-0.0054945
-0.027473
-0.10989
-0.093407
-0.15934
-0.18132
-0.17582
-0.16484
-0.016484
0.049451
0.20879
0.2033
0.12088
0.032967
-0.13736
-0.27473
-0.43407
-0.46154
-0.41758
-0.31868
-0.31868
-0.32418
-0.33516
-0.28571
-0.1978
-0.18681
-0.12088
0.038462
0.087912
0.12088
0.071429
-0.032967
-0.1044
-0.21429
-0.2033
-0.25824
-0.28022
-0.25275
-0.13187
-0.016484
0.049451
0.1044
0.016484
-0.032967
-0.043956
-0.0054945
-0.021978
-0.11538
-0.23077
-0.39011
-0.46154
-0.3956
-0.27473
-0.16484
-0.12088
-0.071429
0.021978
0.027473
0.021978
-0.065934
-0.082418
-0.14835
-0.065934
-0.12088
-0.20879
-0.21429
-0.24725
-0.13187
-0.082418
0.038462
0.11538
0.21978
0.31868
0.32967
0.25275
0.1978
0.20879
0.26374
0.31319
0.35165
0.30769
0.25824
0.19231
0.1978
0.15934
0.12637
0.15385
0.24725
0.37912
0.63187
0.75824
0.77473
0.64835
0.51648
0.36813
0.26923
0.20879
0.25824
0.25824
0.26923
0.23077
0.2033
0.22527
0.31868
0.50549
0.65385
0.7033
0.75824
0.71978
0.62637
0.47253
0.31319
0.21429
0.15385
0.17033
0.18132
0.23626
0.28571
0.43956
0.51099
0.61538
0.50549
0.35714
0.10989
-0.027473
-0.13187
-0.24176
-0.36813
-0.35165
-0.35165
-0.32418
-0.28022
-0.24725
-0.22527
-0.28022
-0.26923
-0.25824
-0.11538
0.065934
0.18132
0.18132
0.10989
0.027473
-0.021978
-0.13736
-0.17033
-0.23626
-0.1978
-0.21978
-0.15385
-0.17033
-0.12088
-0.076923
-0.17033
-0.27473
-0.39011
-0.40659
-0.41209
-0.4011
-0.43956
-0.45604
-0.42857
-0.32967
-0.1044
0.027473
0.11538
0.19231
0.12088
-0.06044
-0.23626
-0.3956
-0.47253
-0.46703
-0.31868
-0.18132
0
0.13187
0.26923
0.28022
0.25275
0.19231
0.13736
0.043956
0.027473
-0.021978
-0.054945
-0.027473
0.049451
0.076923
0.082418
0.071429
0.016484
0.010989
0.038462
0.12637
0.21978
0.35714
0.51648
0.53846
0.48352
0.32418
0.18681
-0.027473
-0.14286
-0.14835
0.016484
0.17582
0.34615
0.45604
0.45604
0.4011
0.27473
0.19231
0.098901
0.054945
0.038462
0.098901
0.20879
0.24176
0.25275
0.098901
-0.076923
-0.14286
-0.17033
-0.065934
0.16484
0.46154
0.7033
0.81868
0.74176
0.47802
0.27473
0.087912
-0.021978
-0.18681
-0.25824
-0.29121
-0.3022
-0.20879
-0.11538
0.032967
0.14286
0.28022
0.35714
0.29121
0.16484
0.0054945
-0.054945
-0.15934
-0.049451
0.082418
0.21978
0.33516
0.3956
0.42857
0.29121
0.23077
0.076923
-0.049451
-0.18681
-0.24176
-0.3022
-0.31868
-0.31319
-0.3022
-0.24176
-0.15385
-0.087912
-0.065934
-0.15385
-0.14835
-0.20879
-0.24725
-0.22527
-0.2033
-0.23077
-0.28571
-0.36813
-0.45055
-0.47253
-0.47802
-0.3956
-0.31868
-0.1978
-0.071429
0.016484
0.032967
0.054945
0.043956
-0.038462
-0.17033
-0.25275
-0.30769
-0.32967
-0.32967
-0.25275
-0.15934
-0.12637
-0.13736
-0.22527
-0.36813
-0.50549
-0.48901
-0.46154
-0.36813
-0.27473
-0.23077
-0.21978
-0.15934
-0.18681
-0.31319
-0.41209
-0.31319
-0.24725
-0.23626
-0.35714
-0.51648
-0.51648
-0.52198
-0.40659
-0.35714
-0.21429
-0.082418
-0.076923
-0.1978
-0.32418
-0.37363
-0.32418
-0.31868
-0.37912
-0.43956
-0.53297
-0.58242
-0.66484
-0.6978
-0.65385
-0.49451
-0.35165
-0.23626
-0.18132
-0.11538
-0.14835
-0.17582
-0.3022
-0.40659
-0.47253
-0.42308
-0.32967
-0.18681
-0.12088
-0.049451
-0.065934
-0.098901
-0.093407
-0.027473
0.021978
0.1044
0.065934
0.0054945
-0.032967
-0.032967
0.010989
0.027473
0.010989
0.021978
0.06044
0.06044
0.049451
0.038462
0.038462
0.076923
0.18681
0.21978
0.23626
0.26923
0.25275
0.26374
0.21978
0.24725
0.24725
0.18132
0.1044
-0.027473
-0.12088
-0.15385
-0.17033
-0.1044
-0.082418
0.071429
0.13736
0.14286
0.087912
0.06044
-0.0054945
-0.043956
-0.016484
0.010989
0.17033
0.26374
0.40659
0.37363
0.29121
0.18681
0.049451
-0.076923
-0.17582
-0.21429
-0.24725
-0.21978
-0.12637
0.071429
0.28571
0.41209
0.43956
0.31319
0.2033
0.098901
-0.049451
-0.1978
-0.3022
-0.35165
-0.27473
-0.087912
0.11538
0.23626
0.13736
-0.032967
-0.19231
-0.34066
-0.28022
-0.27473
-0.23626
-0.25824
-0.30769
-0.35165
-0.46154
-0.46703
-0.35714
-0.2033
-0.087912
0.049451
0.093407
0.098901
0.087912
0.10989
0.10989
0.06044
0.065934
0.082418
0.12637
0.14835
0.12637
0.11538
0.093407
0.12637
0.14286
0.14835
0.15385
0.23077
0.18132
0.082418
-0.0054945
-0.12088
-0.18681
-0.26374
-0.24176
-0.1044
0.065934
0.26374
0.41758
0.49451
0.47253
0.51099
0.45604
0.3956
0.25275
0.12088
0.049451
0.065934
0.13187
0.10989
0.11538
0.17582
0.21978
0.21978
0.14835
0.098901
0.093407
0.10989
0.16484
0.15385
0.098901
0.14835
0.13736
0.20879
0.25824
0.3022
0.37912
0.37363
0.43407
0.45055
0.4011
0.36813
0.34615
0.2967
0.26923
0.20879
0.12637
0.038462
0.054945
0.21429
0.34615
0.38462
0.3956
0.32418
0.34615
0.37363
0.41209
0.42308
0.37363
0.39011
0.2967
0.27473
0.23626
0.32418
0.34066
0.38462
0.43407
0.43956
0.32418
0.23626
0.11538
0.010989
-0.027473
-0.016484
0.10989
0.21978
0.27473
0.32418
0.21978
0.16484
0.13736
0.049451
0.016484
-0.076923
-0.13736
-0.27473
-0.35165
-0.43407
-0.45055
-0.53297
-0.42857
-0.31319
-0.13736
0.038462
0.1044
0.15385
0.18681
0.23077
0.26923
0.27473
0.24725
0.2033
0.098901
-0.054945
-0.12637
-0.17033
-0.13187
-0.1044
0.010989
0.12637
0.26923
0.43956
0.54396
0.50549
0.44505
0.4011
0.37363
0.37912
0.37912
0.34615
0.25824
0.16484
0.17582
0.23626
0.33516
0.51648
0.58791
0.65934
0.56593
0.50549
0.2967
0.25824
0.21978
0.25275
0.21978
0.12637
0.12637
0.15385
0.21978
0.29121
0.32418
0.27473
0.20879
0.087912
0.071429
0.054945
0.038462
0.010989
-0.076923
-0.076923
-0.1044
-0.12637
-0.10989
-0.032967
-0.054945
-0.038462
-0.065934
-0.087912
-0.10989
-0.087912
-0.076923
-0.14835
-0.30769
-0.36264
-0.32967
-0.21429
-0.11538
0.082418
0.23626
0.21978
0.15385
-0.016484
-0.17033
-0.29121
-0.42857
-0.6044
-0.73077
-0.71978
-0.56044
-0.41758
-0.25824
-0.15385
-0.18132
-0.20879
-0.25824
-0.32967
-0.45055
-0.53297
-0.47802
-0.37363
-0.30769
-0.40659
-0.53297
-0.68681
-0.73626
-0.5989
-0.5
-0.31868
-0.15385
-0.11538
-0.071429
-0.17033
-0.25824
-0.41209
-0.51099
-0.48352
-0.50549
-0.41209
-0.40659
-0.36264
-0.30769
-0.2033
-0.098901
0.027473
0.10989
0.18681
0.11538
0.087912
0.06044
0.10989
0.071429
-0.06044
-0.12637
-0.28571
-0.33516
-0.44505
-0.39011
-0.36813
-0.36813
-0.18132
0.010989
0.26374
0.32967
0.34615
0.23077
0.19231
0.15385
0.043956
-0.13187
-0.3022
-0.34066
-0.39011
-0.28022
-0.17033
0.016484
0.093407
0.16484
0.19231
0.11538
0.093407
0.12637
0.25824
0.3022
0.30769
0.22527
0.12088
0.12088
0.13187
0.082418
-0.0054945
-0.13187
-0.12088
-0.13187
-0.027473
0.027473
0.093407
0.10989
0.12637
0.14835
0.13736
0.13187
0.15934
0.17033
0.087912
0.010989
-0.098901
-0.17033
-0.14286
-0.11538
-0.11538
-0.12637
-0.093407
-0.038462
0.082418
0.12637
0.13187
0.11538
0.038462
0.093407
0.15934
0.29121
0.37912
0.47802
0.52198
0.48901
0.42857
0.34615
0.2967
0.23077
0.18681
0.1044
0.032967
0.06044
0.016484
0.010989
-0.06044
0.038462
-0.054945
-0.021978
-0.0054945
0.049451
0.027473
-0.06044
-0.21978
-0.42308
-0.56044
-0.57692
-0.54945
-0.55495
-0.53846
-0.53846
-0.51648
-0.49451
-0.42308
-0.36264
-0.34615
-0.34615
-0.45055
-0.46154
-0.37363
-0.17582
-0.054945
-0.13736
-0.2033
-0.32418
-0.37363
-0.38462
-0.38462
-0.31319
-0.33516
-0.25275
-0.24176
-0.19231
-0.21429
-0.25824
-0.24725
-0.23626
-0.10989
0.027473
0.12088
0.25824
0.43956
0.52198
0.47802
0.35165
0.21429
0.076923
0.010989
0.021978
0.0054945
0.087912
0.15934
0.11538
0.06044
-0.027473
-0.032967
-0.032967
0.016484
0.11538
0.17033
0.23077
0.29121
0.4011
0.44505
0.48901
0.54396
0.62088
0.67033
0.64286
0.56044
0.42308
0.31319
0.32418
0.32418
0.31319
0.39011
0.41758
0.40659
0.26923
0.15385
0.13187
0.14286
0.17582
0.14286
0.076923
0.06044
0.14286
0.24176
0.37363
0.47253
0.51648
0.42857
0.32967
0.25275
0.14835
0.027473
-0.093407
-0.15385
-0.18681
-0.1978
-0.098901
-0.076923
0.0054945
0.12637
0.21429
0.34615
0.40659
0.41758
0.36813
0.29121
0.20879
0.16484
0.098901
0.10989
0.12088
0.032967
-0.065934
-0.038462
-0.065934
-0.021978
0.043956
0.11538
0.1978
0.2033
0.2033
0.16484
0.17033
0.11538
0.12088
0.087912
0.043956
-0.016484
-0.12088
-0.13736
-0.12637
0.0054945
0.065934
0.087912
0.10989
0.10989
0.043956
0
-0.06044
-0.093407
-0.093407
0.016484
0.082418
0.12088
0.22527
0.22527
0.21978
0.13736
0.049451
-0.15934
-0.29121
-0.3022
-0.2033
-0.010989
0.19231
0.36264
0.42857
0.34066
0.18681
0.027473
-0.16484
-0.18681
-0.14835
-0.1044
-0.087912
-0.054945
0.043956
0.20879
0.41758
0.57143
0.57692
0.49451
0.31319
0.15934
0.043956
0.043956
0.16484
0.23077
0.31319
0.38462
0.45604
0.53297
0.52747
0.48901
0.31319
0.093407
0.043956
-0.016484
0
-0.0054945
0.032967
-0.065934
-0.10989
-0.18681
-0.21429
-0.25824
-0.31319
-0.31319
-0.35165
-0.31319
-0.2033
-0.071429
0.043956
0.12088
0.1978
0.21978
0.26923
0.21978
0.21429
0.15934
0.21429
0.21429
0.1978
0.16484
0.15934
0.15385
0.15934
0.18132
0.16484
0.17582
0.17582
0.28022
0.43956
0.52747
0.64286
0.62088
0.55495
0.46154
0.41209
0.32418
0.34615
0.42857
0.52198
0.56044
0.60989
0.63736
0.62088
0.58242
0.53846
0.45055
0.35714
0.2033
0.19231
0.12637
0.13736
0.17033
0.14286
0.087912
0.12637
0.14835
0.18132
0.1044
0.027473
-0.032967
-0.0054945
0.043956
0.087912
0.12088
0.17582
0.20879
0.14286
0.043956
0.032967
0.016484
0.027473
0.076923
0.14286
0.24176
0.28022
0.2967
0.23077
0.093407
-0.027473
-0.043956
-0.021978
0.049451
0.17582
0.18681
0.17582
0.15385
0.19231
0.12637
0.010989
-0.17033
-0.26923
-0.30769
-0.3022
-0.31868
-0.42308
-0.3956
-0.35714
-0.3022
-0.38462
-0.46703
-0.53297
-0.5
-0.47802
-0.34615
-0.24725
-0.1978
-0.19231
-0.25275
-0.31319
-0.27473
-0.13187
0.016484
-0.016484
-0.093407
-0.13736
-0.17033
-0.12637
-0.12637
-0.10989
-0.098901
-0.098901
-0.087912
-0.13736
-0.18132
-0.20879
-0.18681
-0.16484
-0.15385
-0.14835
-0.18681
-0.13736
-0.054945
-0.12088
-0.18132
-0.2967
-0.3022
-0.32418
-0.31868
-0.34066
-0.3956
-0.47253
-0.41209
-0.3956
-0.3022
-0.25824
-0.18681
-0.20879
-0.17033
-0.15385
-0.12088
-0.13736
-0.22527
-0.26374
-0.28022
-0.26374
-0.1978
-0.12088
-0.12637
-0.076923
-0.06044
0.016484
0.11538
0.18132
0.12637
0.021978
-0.12637
-0.26374
-0.35714
-0.39011
-0.31868
-0.21978
-0.10989
0.043956
0.23626
0.34615
0.45055
0.48352
0.48901
0.44505
0.35165
0.28022
0.10989
-0.016484
-0.13187
-0.14835
-0.12088
0.027473
0.16484
0.25824
0.37912
0.43407
0.53846
0.49451
0.45055
0.31319
0.19231
0.11538
0.082418
0.021978
-0.076923
-0.11538
-0.049451
0.054945
0.16484
0.28571
0.24725
0.24725
0.23077
0.24176
0.18681
0.065934
0.021978
-0.098901
-0.13187
-0.16484
-0.13187
0.016484
0.12088
0.24176
0.31319
0.28571
0.25275
0.15385
0.016484
-0.087912
-0.021978
0.021978
0.15934
0.21978
0.14286
0.021978
-0.049451
-0.027473
0.054945
0.15385
0.21978
0.17582
0.06044
-0.032967
-0.032967
-0.06044
-0.0054945
0.032967
0.14835
0.21978
0.25275
0.17582
0.054945
-0.049451
-0.065934
0.032967
0.071429
0.16484
0.15934
0.15934
0.17582
0.23626
0.34615
0.37363
0.47253
0.39011
0.1978
-0.065934
-0.21429
-0.29121
-0.24176
-0.13187
-0.010989
0.098901
0.1978
0.23626
0.14286
0.021978
-0.1044
-0.21429
-0.35165
-0.41209
-0.4011
-0.31319
-0.17582
-0.038462
0.10989
0.18132
0.1978
0.18132
0.054945
-0.016484
-0.1044
-0.20879
-0.26374
-0.36813
-0.34066
-0.37363
-0.40659
-0.42308
-0.46703
-0.50549
-0.49451
-0.43956
-0.4011
-0.36813
-0.32418
-0.26923
-0.26923
-0.31319
-0.4011
-0.40659
-0.40659
-0.34615
-0.3022
-0.2967
-0.26923
-0.29121
-0.34615
-0.34615
-0.28022
-0.25275
-0.26374
-0.33516
-0.37363
-0.36264
-0.26374
-0.17033
-0.098901
-0.10989
-0.14835
-0.26374
-0.45055
-0.59341
-0.57143
-0.57143
-0.57143
-0.54945
-0.53297
-0.47253
-0.35165
-0.26374
-0.2033
-0.16484
-0.093407
0
-0.027473
-0.12088
-0.26374
-0.46154
-0.41758
-0.34066
-0.24725
-0.21978
-0.22527
-0.13187
-0.06044
-0.016484
-0.0054945
0.027473
0.016484
0.082418
0.12637
0.087912
-0.087912
-0.22527
-0.36813
-0.41758
-0.36813
-0.2967
-0.24725
-0.17033
-0.093407
-0.076923
-0.14835
-0.17582
-0.27473
-0.2967
-0.3022
-0.24725
-0.14286
-0.10989
-0.12088
-0.076923
-0.016484
0.010989
0.027473
-0.054945
-0.14835
-0.065934
-0.10989
-0.10989
-0.1978
-0.18132
-0.17582
-0.20879
-0.19231
-0.19231
-0.21429
-0.23626
-0.32418
-0.36264
-0.4011
-0.23626
-0.065934
0.1044
0.20879
0.26923
0.26923
0.29121
0.22527
0.1978
0.12088
0.049451
0.010989
-0.082418
-0.065934
-0.06044
-0.065934
-0.093407
-0.10989
-0.038462
0.016484
0.1044
0.26374
0.32967
0.22527
0.076923
-0.093407
-0.26374
-0.28571
-0.3022
-0.26923
-0.1978
-0.087912
-0.043956
-0.076923
-0.12088
-0.13736
-0.14286
-0.24176
-0.25824
-0.34066
-0.41209
-0.55495
-0.7033
-0.75275
-0.73626
-0.52747
-0.38462
-0.30769
-0.24725
-0.14286
-0.10989
-0.054945
-0.076923
-0.082418
-0.13736
-0.24176
-0.27473
-0.26923
-0.18681
-0.13187
-0.19231
-0.27473
-0.25824
-0.032967
0.18681
0.28022
0.28022
0.14286
-0.049451
-0.2033
-0.25275
-0.3022
-0.1978
-0.14286
-0.043956
0.021978
0.021978
0.0054945
-0.12637
-0.13187
-0.18132
-0.1978
-0.18132
-0.14835
-0.010989
0.11538
0.18681
0.2033
0.13736
0.016484
-0.043956
-0.0054945
0.049451
0.11538
0.13736
0.098901
0.0054945
-0.071429
-0.016484
-0.1044
-0.13736
-0.15385
-0.093407
0.021978
0.17582
0.15385
0.065934
-0.071429
-0.082418
-0.076923
0.065934
0.17582
0.24725
0.1978
0.15934
0.16484
0.14286
0.087912
0.0054945
-0.071429
-0.15934
-0.16484
-0.076923
0.010989
0.10989
0.12088
0.093407
0.054945
0.076923
0.16484
0.26923
0.3022
0.31868
0.16484
0.093407
0.043956
0.1044
0.065934
-0.016484
-0.065934
-0.093407
-0.12637
-0.19231
-0.18132
-0.24176
-0.16484
0
0.17582
0.31319
0.4011
0.39011
0.3956
0.29121
0.25275
0.17582
0.12088
0.13187
0.16484
0.23077
0.34066
0.47253
0.53297
0.56044
0.62637
0.58242
0.5
0.38462
0.27473
0.12088
-0.049451
-0.027473
0.087912
0.37363
0.52198
0.7033
0.73077
0.7033
0.63187
0.44505
0.31868
0.28022
0.25275
0.12088
-0.093407
-0.25275
-0.36813
-0.3956
-0.3956
-0.32418
-0.25275
-0.13187
-0.010989
0.065934
0.065934
0.054945
-0.0054945
-0.0054945
0.0054945
0.027473
0.032967
0.027473
0.027473
0.065934
0.071429
0.15385
0.15385
0.23077
0.26923
0.35165
0.38462
0.35714
0.28571
0.25824
0.17582
0.043956
-0.06044
-0.16484
-0.24725
-0.20879
-0.13187
-0.0054945
0.065934
0.14286
0.12088
0.032967
-0.049451
-0.098901
-0.11538
-0.17582
-0.3022
-0.39011
-0.37363
-0.31319
-0.1978
-0.18132
-0.10989
0.043956
0.2033
0.31868
0.32967
0.28022
0.18681
0.076923
-0.0054945
-0.071429
-0.20879
-0.31319
-0.33516
-0.30769
-0.15385
0.098901
0.21978
0.37363
0.4011
0.44505
0.39011
0.27473
0.2033
0.17033
0.076923
-0.016484
-0.11538
-0.30769
-0.43407
-0.31319
-0.11538
0.15385
0.25824
0.26374
0.24176
0.2967
0.4011
0.46154
0.47802
0.48901
0.46154
0.42308
0.37363
0.31319
0.27473
0.26923
0.32967
0.52747
0.64286
0.76374
0.82967
0.78571
0.66484
0.64286
0.58242
0.57692
0.51648
0.42308
0.4011
0.44505
0.47802
0.52198
0.47802
0.36264
0.35714
0.28022
0.2967
0.32418
0.2967
0.27473
0.20879
0.14835
0.071429
0.12088
0.32418
0.52198
0.71978
0.78571
0.87912
0.89011
0.90659
0.84066
0.74725
0.56044
0.37912
0.26923
0.14835
0.14835
0.12637
0.13736
0.032967
0.027473
0.071429
0.19231
0.41209
0.68132
0.91758
1
0.91758
0.68681
0.36813
0.12088
-0.054945
-0.1044
-0.093407
-0.010989
0.12088
0.24725
0.38462
0.56593
0.7033
0.69231
0.5989
0.31868
0.087912
-0.17033
-0.21978
-0.1978
-0.11538
0.038462
0.11538
0.15385
0.14835
0.06044
-0.098901
-0.25824
-0.28022
-0.21978
-0.17033
-0.082418
-0.054945
-0.043956
-0.098901
-0.06044
-0.049451
-0.010989
0.010989
0.027473
-0.016484
-0.010989
0.043956
0.065934
0.087912
0.054945
0.065934
0.098901
0.13187
0.23626
0.32967
0.28022
0.14835
-0.038462
-0.27473
-0.42857
-0.43956
-0.43407
-0.26374
-0.065934
0.12088
0.17582
0.1978
0.24176
0.31868
0.32418
0.25824
0.15385
0.15385
0.25824
0.41209
0.54396
0.53846
0.49451
0.2967
0.087912
-0.043956
-0.016484
0.093407
0.16484
0.21978
0.21978
0.1978
0.14286
0.082418
0.016484
-0.082418
-0.16484
-0.3022
-0.4011
-0.44505
-0.4011
-0.38462
-0.39011
-0.34615
-0.32967
-0.30769
-0.34615
-0.23626
-0.14835
0.043956
0.12637
0.082418
0.0054945
-0.098901
-0.12088
-0.18681
-0.21429
-0.17582
-0.20879
-0.26923
-0.3022
-0.27473
-0.2033
-0.065934
0.06044
0.18681
0.21978
0.23077
0.25824
0.20879
0.15385
0.082418
-0.049451
-0.16484
-0.3022
-0.42857
-0.46154
-0.33516
-0.049451
0.1978
0.43956
0.57692
0.59341
0.54396
0.41209
0.31868
0.23626
0.18132
0.2967
0.38462
0.41209
0.47802
0.57143
0.67033
0.6978
0.65934
0.58242
0.51648
0.49451
0.43407
0.35165
0.21429
0.15385
0.11538
0.1044
0.082418
0.17033
0.21429
0.28022
0.24725
0.13187
-0.010989
-0.065934
0.043956
0.11538
0.14286
0.1044
0.021978
-0.12088
-0.12088
-0.10989
-0.2033
-0.32418
-0.43407
-0.43956
-0.46154
-0.54396
-0.59341
-0.59341
-0.53297
-0.45055
-0.5
-0.67033
-0.68132
-0.65385
-0.52198
-0.42857
-0.36264
-0.33516
-0.32967
-0.23077
-0.17582
-0.13736
-0.13736
-0.032967
0.010989
-0.0054945
-0.054945
-0.14286
-0.25275
-0.24725
-0.15934
-0.016484
0.076923
0.14835
0.1044
0.087912
-0.021978
-0.10989
-0.20879
-0.27473
-0.25824
-0.24176
-0.31319
-0.33516
-0.29121
-0.24725
-0.076923
0.11538
0.25275
0.26374
0.20879
0.21429
0.23077
0.30769
0.37363
0.33516
0.17582
0.021978
-0.087912
-0.12088
-0.027473
0.10989
0.34615
0.5
0.57143
0.59341
0.46154
0.31868
0.076923
-0.20879
-0.42308
-0.62088
-0.63736
-0.64286
-0.57692
-0.35165
-0.10989
0.10989
0.2967
0.38462
0.3022
0.12088
-0.1044
-0.35165
-0.63736
-0.80769
-0.97253
-0.83516
-0.54396
-0.093407
0.29121
0.49451
0.58791
0.53846
0.38462
0.21978
0.087912
-0.098901
-0.20879
-0.25275
-0.19231
-0.23077
-0.28571
-0.33516
-0.38462
-0.37912
-0.37912
-0.34066
-0.35714
-0.2967
-0.24176
-0.24725
-0.23626
-0.18132
-0.16484
-0.13736
-0.13736
0.0054945
0.038462
0.087912
0.038462
-0.065934
-0.24176
-0.37363
-0.39011
-0.31868
-0.13187
0.1044
0.26923
0.34066
0.2967
0.18681
0.032967
-0.071429
-0.15934
-0.24725
-0.37912
-0.3956
-0.43407
-0.42308
-0.31868
-0.20879
-0.0054945
0.13187
0.21429
0.21429
0.12088
0.12088
0.12088
0.098901
0.027473
0.010989
-0.06044
-0.098901
-0.1044
0.016484
0.1044
0.13187
0.23077
0.3022
0.34615
0.32418
0.21978
0.19231
0.17582
0.23626
0.16484
0.071429
-0.027473
0.027473
0.098901
0.21429
0.28022
0.3022
0.24725
0.14286
0.082418
-0.0054945
0.021978
0.11538
0.19231
0.26374
0.34066
0.49451
0.50549
0.43956
0.41209
0.34066
0.34066
0.26374
0.27473
0.17582
0.17582
0.13736
0.076923
0.20879
0.31319
0.52198
0.56044
0.55495
0.49451
0.39011
0.21429
0.14286
-0.0054945
-0.027473
-0.054945
-0.0054945
0.071429
0.076923
0.087912
0.10989
0.082418
-0.032967
-0.12637
-0.21429
-0.25275
-0.20879
-0.25824
-0.28571
-0.28022
-0.23077
-0.21429
-0.21978
-0.12088
-0.087912
-0.010989
0.087912
0.23077
0.27473
0.26923
0.098901
-0.098901
-0.33516
-0.44505
-0.48352
-0.41758
-0.25275
-0.016484
0.1044
0.13736
0.12637
0.18681
0.23077
0.18681
0.15934
0.065934
0.087912
0.054945
0.054945
-0.010989
0.021978
0.3022
0.35714
0.37363
0.31319
0.26923
0.1044
0.06044
0
0
0
-0.027473
0.049451
0.10989
0.21429
0.34615
0.48352
0.61538
0.67582
0.61538
0.45055
0.31868
0.23626
0.12088
0.098901
0.076923
0.016484
0
0.065934
0.13187
0.14835
0.11538
0.082418
0.032967
0.016484
-0.016484
-0.071429
-0.071429
0
0.054945
0.12637
0.19231
0.2967
0.39011
0.47253
0.44505
0.38462
0.26923
0.093407
-0.071429
-0.27473
-0.41758
-0.47802
-0.25275
-0.098901
0.1044
0.13187
0.19231
0.2033
0.23077
0.2033
0.043956
-0.049451
-0.1044
-0.071429
-0.12637
-0.11538
-0.087912
0.010989
0.076923
0.2033
0.32418
0.38462
0.45055
0.37363
0.21429
0.12088
0.13736
0.15385
0.18132
0.1044
0.054945
0.082418
0.18132
0.27473
0.25824
0.2033
0.23077
0.28571
0.25824
0.15385
0.093407
-0.021978
-0.021978
-0.087912
-0.12637
-0.20879
-0.17582
-0.12637
-0.021978
-0.087912
-0.17033
-0.28571
-0.33516
-0.33516
-0.25275
-0.1978
-0.13736
0.010989
0.049451
0.049451
0.054945
-0.0054945
-0.11538
-0.26923
-0.43407
-0.6044
-0.76923
-0.8956
-0.88462
-0.7967
-0.53297
-0.28022
-0.016484
0.10989
0.1978
0.20879
0.1044
-0.043956
-0.1978
-0.36813
-0.51648
-0.58242
-0.53297
-0.47253
-0.35714
-0.18681
0.010989
0.12088
0.19231
0.12088
0.016484
-0.13736
-0.23077
-0.36264
-0.42857
-0.46703
-0.5
-0.43956
-0.15934
0.19231
0.53846
0.66484
0.67582
0.5
0.25824
0.038462
-0.14286
-0.36264
-0.37912
-0.31319
-0.22527
-0.10989
0.016484
0.13187
0.25275
0.21429
0.15934
0.19231
0.27473
0.32967
0.32418
0.18681
0.082418
0.054945
0.027473
-0.010989
-0.049451
-0.10989
-0.20879
-0.19231
-0.15934
0
0.076923
0.2033
0.32418
0.43407
0.47802
0.43956
0.40659
0.31868
0.25275
0.23626
0.19231
0.17582
0.20879
0.17582
0.20879
0.31868
0.35165
0.36813
0.32967
0.33516
0.34615
0.3022
0.32418
0.31868
0.30769
0.28022
0.27473
0.2033
0.15385
0.054945
0.016484
-0.043956
-0.1044
-0.087912
-0.12637
-0.16484
-0.14286
-0.12088
-0.14835
-0.13187
-0.12088
-0.13187
-0.087912
-0.043956
-0.016484
0.016484
0.098901
0.21429
0.25275
0.28571
0.35714
0.32967
0.35165
0.30769
0.31319
0.31319
0.2967
0.34066
0.45055
0.50549
0.51648
0.41209
0.35714
0.3022
0.38462
0.44505
0.43956
0.41758
0.34066
0.23077
0.17033
0.19231
0.15934
0.082418
0.027473
-0.071429
-0.06044
-0.010989
0.13187
0.17582
0.098901
0.038462
-0.049451
-0.082418
-0.18681
-0.2033
-0.1978
-0.082418
0.082418
0.15934
0.15934
0.16484
0.16484
0.25275
0.25824
0.26923
0.14835
0.038462
-0.071429
-0.098901
-0.14835
-0.14835
-0.076923
0.06044
0.13736
0.2033
0.28022
0.34615
0.4011
0.50549
0.43956
0.26923
0.065934
-0.18132
-0.25824
-0.23626
-0.15385
-0.093407
-0.093407
0.016484
0.18132
0.34066
0.43407
0.41758
0.31319
0.12088
0.027473
0.043956
0.1044
0.23626
0.34615
0.43956
0.54396
0.64835
0.65385
0.59341
0.44505
0.32418
0.28022
0.27473
0.39011
0.4011
0.43407
0.50549
0.5989
0.67033
0.54945
0.45055
0.4011
0.33516
0.2967
0.18681
0.093407
0.016484
0.010989
0.049451
0.18132
0.2967
0.44505
0.46154
0.48901
0.51099
0.5
0.49451
0.48901
0.52198
0.47253
0.40659
0.29121
0.21429
0.12637
0.093407
0.093407
0.010989
0.038462
0.082418
0.17033
0.1978
0.12088
0.071429
-0.065934
-0.20879
-0.26374
-0.26923
-0.2967
-0.30769
-0.34615
-0.35165
-0.35165
-0.30769
-0.26923
-0.24725
-0.18681
-0.1044
-0.065934
0.0054945
0.016484
-0.071429
-0.21978
-0.27473
-0.32418
-0.36813
-0.43407
-0.46154
-0.46703
-0.48901
-0.44505
-0.46154
-0.45055
-0.41209
-0.36264
-0.28571
-0.35165
-0.39011
-0.51099
-0.57692
-0.63736
-0.65385
-0.6044
-0.51648
-0.35165
-0.33516
-0.35165
-0.4011
-0.4011
-0.52198
-0.65385
-0.81319
-0.93407
-0.96703
-1
-0.84615
-0.75824
-0.63187
-0.46703
-0.31319
-0.26374
-0.3022
-0.37912
-0.52198
-0.5989
-0.66484
-0.67033
-0.61538
-0.50549
-0.36264
-0.25824
-0.093407
0.054945
0.12637
0.17033
0.28022
0.3022
0.32418
0.27473
0.25824
0.23626
0.098901
-0.027473
-0.17033
-0.22527
-0.26923
-0.14835
-0.027473
0.13187
0.28571
0.35165
0.36813
0.39011
0.42857
0.3956
0.35165
0.22527
0.12088
0.049451
0.065934
0.13736
0.15385
0.12088
0.12088
0.10989
0.21429
0.28571
0.37912
0.31868
0.20879
0.12637
0.038462
0.054945
0.093407
0.15385
0.18132
0.2033
0.25275
0.34066
0.32418
0.2033
0.087912
-0.076923
-0.14286
-0.1978
-0.21429
-0.32418
-0.34066
-0.36264
-0.38462
-0.34615
-0.29121
-0.21429
-0.17582
-0.11538
-0.093407
-0.098901
-0.087912
-0.087912
-0.010989
0.010989
0.071429
-0.010989
-0.14835
-0.24725
-0.26923
-0.26374
-0.37363
-0.42857
-0.46154
-0.46154
-0.35165
-0.25824
-0.26374
-0.3022
-0.3956
-0.48352
-0.5989
-0.62637
-0.57143
-0.45604
-0.37912
-0.2967
-0.26923
-0.28571
-0.35714
-0.31319
-0.36813
-0.36264
-0.45604
-0.5989
-0.68132
-0.68681
-0.45604
-0.28571
-0.087912
0.054945
0.10989
0.15385
0.21429
0.22527
0.15934
0.021978
-0.065934
-0.14286
-0.18681
-0.21429
-0.19231
-0.2033
-0.12088
-0.038462
-0.0054945
0.093407
0.15385
0.23626
0.32418
0.34615
0.35714
0.24176
0.18132
0.18132
0.1978
0.12637
-0.065934
-0.11538
-0.14286
-0.14286
-0.1044
-0.038462
0.082418
0.2033
0.28022
0.25275
0.098901
0.1044
0.032967
-0.027473
-0.071429
-0.071429
-0.038462
0.016484
0.071429
0.049451
0.016484
-0.038462
0
0
0.032967
0.027473
-0.10989
-0.25824
-0.42308
-0.45055
-0.46154
-0.36813
-0.31319
-0.24176
-0.18132
-0.082418
0.082418
0.087912
0.076923
0.032967
0.076923
0.076923
0.038462
0.043956
-0.032967
-0.054945
-0.1044
-0.016484
-0.032967
-0.032967
-0.093407
-0.18132
-0.26923
-0.24725
-0.2967
-0.22527
-0.11538
-0.027473
0.027473
0.093407
0.12088
0.12088
0.027473
-0.065934
-0.1978
-0.24176
-0.21978
-0.087912
0.032967
0.087912
0.14286
0.16484
0.15385
0.11538
0.1044
0.082418
0.043956
0.082418
-0.027473
-0.087912
-0.13187
0.016484
0.18132
0.36264
0.53297
0.48901
0.36264
0.16484
0.010989
-0.087912
-0.17033
-0.12637
-0.11538
-0.010989
0.12088
0.37912
0.48352
0.54945
0.43956
0.28022
0.14835
0
-0.12088
-0.27473
-0.35714
-0.29121
-0.2033
-0.16484
-0.06044
0.038462
0.14286
0.23626
0.31868
0.26374
0.087912
-0.14835
-0.31319
-0.43407
-0.48352
-0.41758
-0.3022
-0.15385
0.065934
0.23077
0.35714
0.4011
0.37912
0.31868
0.23626
0.25824
0.23626
0.20879
0.12088
0.13736
0.076923
0.065934
0.065934
0
-0.016484
-0.0054945
0.13187
0.26374
0.36264
0.32967
0.23077
0.071429
-0.098901
-0.23077
-0.3956
-0.48901
-0.43407
-0.26923
-0.065934
0.049451
0.12637
0.11538
0.098901
0.17582
0.25275
0.25824
0.17582
0.10989
0.016484
-0.016484
-0.032967
0.098901
0.23626
0.48352
0.67582
0.8022
0.82418
0.72527
0.46703
0.17582
0.071429
0.098901
0.23626
0.40659
0.51648
0.62637
0.63187
0.63736
0.52198
0.37912
0.32967
0.31319
0.37363
0.38462
0.45055
0.47802
0.53846
0.56593
0.59341
0.6044
0.52747
0.47253
0.4011
0.34615
0.31868
0.39011
0.36264
0.36264
0.43407
0.50549
0.57143
0.57143
0.6044
0.54396
0.52747
0.42308
0.31319
0.18132
0.15934
0.20879
0.31319
0.43956
0.52198
0.5989
0.56593
0.58242
0.58242
0.52198
0.51648
0.59341
0.66484
0.68681
0.68132
0.60989
0.58791
0.52198
0.46154
0.34615
0.17582
0.076923
0.10989
0.18681
0.21978
0.27473
0.31319
0.28022
0.28022
0.17033
0.076923
-0.0054945
-0.054945
-0.24176
-0.33516
-0.32418
-0.26923
-0.21978
-0.23077
-0.16484
-0.12637
-0.076923
-0.021978
-0.098901
-0.13736
-0.21429
-0.23626
-0.34066
-0.34615
-0.54396
-0.52198
-0.43956
-0.34615
-0.16484
0.065934
0.25824
0.45055
0.51099
0.36813
0.16484
-0.087912
-0.25824
-0.35165
-0.30769
-0.2033
-0.076923
-0.0054945
0.027473
0.027473
0.06044
0.082418
0.17033
0.087912
-0.06044
-0.18132
-0.27473
-0.23077
-0.15385
-0.1044
-0.12088
-0.12637
-0.21429
-0.25275
-0.27473
-0.13187
0.027473
0.13736
0.12088
-0.06044
-0.23077
-0.37912
-0.42308
-0.31319
-0.22527
-0.071429
0.038462
0.1044
0.12637
0.12637
-0.010989
-0.14835
-0.30769
-0.39011
-0.46154
-0.48901
-0.41209
-0.30769
-0.25824
-0.20879
-0.2033
-0.24725
-0.24176
-0.26923
-0.26374
-0.14286
-0.14286
-0.15385
-0.34066
-0.5
-0.52198
-0.53846
-0.42857
-0.31319
-0.22527
-0.14835
-0.098901
-0.12088
-0.093407
-0.10989
-0.071429
-0.032967
-0.06044
-0.12088
-0.15934
-0.21429
-0.21429
-0.21429
-0.18132
-0.11538
-0.032967
0.082418
0.027473
0.021978
0.087912
0.14286
0.17033
0.093407
-0.071429
-0.21978
-0.28022
-0.24725
-0.13736
-0.13736
-0.065934
-0.027473
-0.049451
-0.021978
0.032967
0.13736
0.23077
0.22527
0.082418
-0.13736
-0.27473
-0.19231
-0.087912
0.087912
0.24725
0.31319
0.25275
0.082418
-0.032967
-0.082418
-0.082418
-0.010989
0.06044
0.093407
0.054945
-0.054945
-0.15385
-0.24176
-0.16484
-0.076923
0
0.098901
0.17033
0.21978
0.2967
0.39011
0.40659
0.35165
0.21429
0.054945
-0.15385
-0.27473
-0.26374
-0.15934
-0.082418
-0.12088
-0.18681
-0.31319
-0.24725
-0.043956
0.36813
0.65934
0.78022
0.64286
0.28022
-0.10989
-0.40659
-0.64835
-0.85714
-0.81319
-0.65385
-0.29121
0.06044
0.24176
0.26923
0.17033
0.12088
0.054945
0.0054945
-0.021978
-0.065934
-0.14835
-0.35165
-0.43956
-0.43407
-0.26374
-0.010989
0.19231
0.32418
0.36813
0.34615
0.32967
0.28571
0.35165
0.5
0.63736
0.72527
0.74176
0.61538
0.31319
-0.038462
-0.23626
-0.30769
-0.21429
-0.038462
0.12088
0.22527
0.28571
0.35165
0.29121
0.25824
0.1978
0.13736
0.021978
-0.12637
-0.16484
-0.17033
-0.06044
0.043956
0.15385
0.19231
0.28571
0.29121
0.3022
0.32967
0.35714
0.36813
0.38462
0.33516
0.32967
0.19231
0.1044
0.016484
0.0054945
-0.010989
0.082418
0.038462
0
-0.12088
-0.1978
-0.31319
-0.46703
-0.46154
-0.3956
-0.3022
-0.27473
-0.26923
-0.30769
-0.27473
-0.12088
-0.021978
-0.0054945
-0.054945
-0.1978
-0.26374
-0.32418
-0.25275
-0.22527
-0.24176
-0.25275
-0.22527
-0.18132
-0.12637
-0.16484
-0.20879
-0.18132
-0.14835
-0.032967
-0.049451
0.021978
0.093407
0.1978
0.13736
0.049451
-0.010989
-0.076923
0.049451
0.2033
0.29121
0.27473
0.21978
0.1978
0.21978
0.22527
0.20879
0.21978
0.16484
0.12637
0.049451
-0.071429
-0.087912
-0.087912
-0.087912
-0.098901
-0.032967
-0.027473
-0.06044
-0.093407
-0.14286
-0.19231
-0.26374
-0.25824
-0.27473
-0.32967
-0.36264
-0.37363
-0.32967
-0.25275
-0.15934
-0.11538
-0.087912
-0.087912
-0.016484
0.027473
0.038462
0.076923
0.076923
-0.043956
-0.1978
-0.35165
-0.42308
-0.46703
-0.46154
-0.47253
-0.010989
