0.29617
0.35192
0.26132
0.052265
-0.26132
-0.35889
-0.20557
0.059233
0.26829
0.40767
0.46341
0.4216
0.29617
0.22648
0.010453
-0.19861
-0.36585
-0.52613
-0.5331
-0.4007
-0.17073
0.059233
0.21951
0.34495
0.37282
0.29617
0.12195
0.045296
-0.12195
-0.23345
-0.34495
-0.46341
-0.47038
-0.42857
-0.32404
-0.24739
-0.12195
0.066202
0.26132
0.33101
0.36585
0.20557
-0.038328
-0.27526
-0.40767
-0.46341
-0.56098
-0.57491
-0.41463
-0.19164
0.10801
0.22648
0.23345
0.094077
-0.080139
-0.19164
-0.26829
-0.26829
-0.22648
-0.19164
-0.20557
-0.15679
-0.038328
0.073171
0.22648
0.29617
0.19861
-0.066202
-0.2892
-0.54704
-0.65854
-0.67944
-0.58188
-0.45645
-0.37979
-0.24739
-0.13589
-0.038328
0.059233
0.26132
0.39373
0.4216
0.28223
0.066202
-0.16376
-0.35889
-0.42857
-0.45645
-0.44251
-0.34495
-0.27526
-0.22648
-0.24739
-0.17073
-0.073171
0.13589
0.41463
0.47735
0.24042
-0.15679
-0.56098
-0.88153
-0.92334
-0.78397
-0.61672
-0.50523
-0.43554
-0.26132
-0.059233
0.19164
0.47735
0.65854
0.63763
0.47735
0.2892
0.18467
0.2892
0.34495
0.33101
0.15679
0.15679
0.052265
0.059233
0.14286
0.26132
0.34495
0.38676
0.43554
0.49129
0.44948
0.32404
0.22648
0.21951
0.19164
0.017422
-0.066202
-0.11498
-0.052265
0.094077
0.20557
0.27526
0.23345
0.30314
0.33798
0.41463
0.40767
0.30314
0.12892
-0.031359
-0.12195
-0.16376
-0.24739
-0.30314
-0.2892
-0.26132
-0.15679
-0.0034843
0.14286
0.28223
0.33798
0.35889
0.26829
0.13589
-0.045296
-0.26829
-0.50523
-0.66551
-0.65854
-0.58188
-0.44251
-0.27526
-0.16376
-0.16376
-0.080139
0.031359
0.16376
0.21254
0.25436
0.25436
0.11498
0.010453
-0.073171
-0.23345
-0.31707
-0.35889
-0.34495
-0.35192
-0.26829
-0.1777
-0.052265
0.13589
0.2892
0.35192
0.28223
0.23345
0.14286
0.045296
0.031359
0.066202
0.066202
0.080139
0.10801
0.21254
0.43554
0.65854
0.80488
0.83275
0.74913
0.61672
0.45645
0.26132
0.11498
0.10801
0.10801
0.073171
0.073171
0.16376
0.24739
0.41463
0.57491
0.52613
0.37979
0.19164
0.059233
-0.045296
-0.059233
-0.080139
-0.12892
-0.20557
-0.31707
-0.39373
-0.38676
-0.32404
-0.22648
-0.12892
-0.052265
0.038328
0.031359
-0.12892
-0.24739
-0.21254
-0.11498
0.059233
0.19861
0.26132
0.19164
0.19861
0.17073
0.11498
0.017422
-0.080139
-0.24739
-0.5122
-0.6446
-0.68641
-0.59582
-0.42857
-0.28223
-0.20557
-0.20557
-0.17073
-0.21951
-0.21254
-0.24739
-0.14983
-0.059233
-0.059233
-0.052265
-0.14983
-0.26829
-0.35889
-0.37282
-0.34495
-0.23345
-0.066202
0.052265
0.087108
0.066202
0.02439
-0.02439
-0.031359
0.066202
0.19164
0.18467
0.080139
0.010453
-0.059233
-0.02439
0.045296
0.094077
0.12195
0.1777
0.28223
0.24739
0.19164
0.080139
-0.12892
-0.3101
-0.4216
-0.4007
-0.37979
-0.33798
-0.23345
-0.14983
-0.080139
0.052265
0.12892
0.17073
0.12892
0.0034843
-0.1777
-0.37282
-0.5122
-0.62369
-0.65854
-0.62369
-0.51916
-0.4216
-0.37979
-0.26132
-0.1777
-0.16376
-0.12892
-0.12892
-0.10801
-0.10801
-0.066202
-0.094077
-0.087108
-0.13589
-0.19164
-0.27526
-0.26132
-0.080139
0.17073
0.35889
0.43554
0.48432
0.4216
0.4216
0.45645
0.50523
0.48432
0.37282
0.21254
-0.0034843
-0.13589
-0.10801
-0.02439
0.080139
0.14983
0.16376
0.16376
0.24739
0.38676
0.55401
0.58188
0.57491
0.56098
0.56098
0.65854
0.79791
0.88153
0.78397
0.65157
0.47038
0.26132
0.10801
-0.017422
-0.14983
-0.24739
-0.24739
-0.21254
-0.19164
-0.14983
-0.066202
-0.059233
-0.23345
-0.30314
-0.29617
-0.17073
0.017422
0.10105
0.080139
-0.045296
-0.13589
-0.19164
-0.21951
-0.19164
-0.17073
-0.17073
-0.15679
-0.059233
-0.059233
-0.15679
-0.35889
-0.47735
-0.60976
-0.62369
-0.51916
-0.43554
-0.30314
-0.17073
-0.0034843
-0.0034843
-0.017422
-0.031359
-0.12195
-0.21951
-0.24739
-0.26132
-0.39373
-0.54007
-0.65157
-0.71429
-0.77003
-0.71429
-0.5122
-0.2892
-0.052265
0.010453
-0.0034843
-0.19164
-0.27526
-0.32404
-0.42857
-0.58885
-0.76307
-0.86063
-0.87456
-0.7561
-0.65854
-0.63066
-0.6446
-0.6446
-0.63763
-0.70732
-0.65854
-0.54704
-0.44251
-0.37282
-0.34495
-0.35889
-0.42857
-0.4216
-0.45645
-0.49129
-0.49826
-0.49826
-0.54704
-0.55401
-0.47735
-0.36585
-0.25436
-0.20557
-0.073171
0.031359
0.15679
0.29617
0.30314
0.26132
0.15679
0.12195
0.045296
-0.087108
-0.14983
-0.22648
-0.27526
-0.27526
-0.19164
-0.10801
-0.010453
0.15679
0.28223
0.33101
0.35192
0.34495
0.24042
0.10105
0.017422
-0.066202
-0.080139
0.045296
0.22648
0.30314
0.36585
0.33798
0.32404
0.24739
0.1777
0.10105
0.02439
-0.02439
-0.010453
0.045296
0.066202
0.15679
0.17073
0.18467
0.23345
0.38676
0.58188
0.71429
0.72822
0.63763
0.50523
0.39373
0.41463
0.35889
0.3101
0.2892
0.21951
0.3101
0.38676
0.52613
0.51916
0.43554
0.38676
0.3101
0.28223
0.2892
0.30314
0.30314
0.26829
0.2892
0.37282
0.46341
0.56098
0.58885
0.49826
0.42857
0.37979
0.32404
0.14983
-0.0034843
-0.059233
-0.080139
-0.052265
0.017422
-0.02439
-0.0034843
0.038328
0.10105
0.066202
-0.02439
-0.10105
-0.059233
-0.0034843
0.14983
0.24042
0.2892
0.21254
0.12195
0.066202
0.0034843
0.066202
0.066202
-0.017422
-0.13589
-0.21951
-0.34495
-0.41463
-0.33798
-0.21254
-0.031359
0.10801
0.19164
0.17073
0.15679
0.24739
0.37979
0.46341
0.4216
0.33798
0.1777
0.038328
-0.073171
-0.14983
-0.18467
-0.26132
-0.30314
-0.37979
-0.34495
-0.25436
-0.12892
-0.12195
-0.02439
0.080139
0.13589
0.17073
0.19861
0.18467
0.10801
0.045296
0.059233
0.0034843
-0.031359
-0.13589
-0.26829
-0.39373
-0.43554
-0.44251
-0.52613
-0.57491
-0.58188
-0.5122
-0.41463
-0.19861
0.02439
0.1777
0.20557
0.21254
0.27526
0.26132
0.29617
0.1777
-0.052265
-0.25436
-0.42857
-0.49129
-0.51916
-0.38676
-0.26829
-0.19164
-0.066202
-0.031359
-0.031359
-0.13589
-0.18467
-0.18467
-0.20557
-0.25436
-0.3101
-0.35889
-0.4007
-0.41463
-0.50523
-0.56794
-0.60976
-0.52613
-0.5122
-0.51916
-0.55401
-0.51916
-0.46341
-0.35192
-0.20557
-0.18467
-0.19164
-0.16376
-0.17073
-0.21951
-0.31707
-0.37282
-0.44251
-0.40767
-0.32404
-0.23345
-0.19164
-0.16376
-0.13589
-0.080139
-0.010453
0.052265
0.087108
-0.017422
-0.066202
-0.15679
-0.19861
-0.28223
-0.24042
-0.14983
-0.080139
-0.017422
-0.017422
-0.031359
-0.0034843
0.11498
0.17073
0.21951
0.19861
0.10105
-0.02439
-0.16376
-0.21254
-0.22648
-0.3101
-0.29617
-0.21254
-0.094077
0.080139
0.10801
0.073171
0.031359
0.12195
0.14983
0.14286
0.066202
0.02439
-0.017422
-0.031359
0.066202
0.14286
0.17073
0.14286
0.080139
0.066202
0.017422
0.02439
-0.066202
-0.19164
-0.27526
-0.19164
-0.066202
0.10105
0.21254
0.18467
0.080139
-0.031359
0.10105
0.1777
0.32404
0.43554
0.42857
0.33798
0.26829
0.23345
0.19164
0.12195
0.094077
0.087108
0.066202
0.052265
-0.02439
-0.087108
-0.073171
0.02439
0.12195
0.11498
0.094077
0.059233
0.059233
0.10105
0.25436
0.38676
0.49826
0.68641
0.83972
0.8676
0.72125
0.50523
0.24739
0.038328
0.010453
0.02439
0.087108
0.15679
0.27526
0.35889
0.38676
0.35192
0.19861
0.059233
-0.02439
0.017422
0.0034843
0.080139
0.16376
0.30314
0.38676
0.42857
0.45645
0.33798
0.26829
0.26829
0.3101
0.23345
0.087108
-0.059233
-0.12195
-0.0034843
0.15679
0.31707
0.35192
0.35889
0.36585
0.27526
0.34495
0.48432
0.65854
0.63066
0.52613
0.35889
0.23345
0.14983
0.14983
0.14983
0.12195
0.13589
0.1777
0.19164
0.16376
0.11498
0.017422
-0.10801
-0.13589
-0.16376
-0.24739
-0.33101
-0.38676
-0.36585
-0.26132
-0.010453
0.19164
0.28223
0.29617
0.36585
0.42857
0.56098
0.63763
0.56098
0.34495
0.066202
-0.066202
-0.073171
0.038328
0.20557
0.20557
0.080139
-0.094077
-0.10801
-0.10105
0.045296
0.19164
0.4007
0.52613
0.5122
0.38676
0.14286
-0.080139
-0.20557
-0.28223
-0.33798
-0.31707
-0.24042
-0.12195
0.045296
0.19164
0.24739
0.13589
0.010453
-0.15679
-0.24739
-0.27526
-0.19861
-0.13589
-0.045296
0.10801
0.24042
0.32404
0.38676
0.5122
0.61672
0.58188
0.51916
0.30314
0.010453
-0.32404
-0.44948
-0.30314
0.031359
0.39373
0.56098
0.60279
0.5122
0.47038
0.36585
0.3101
0.31707
0.2892
0.19861
0.12892
0.13589
0.10105
0.14286
0.17073
0.18467
0.12195
-0.010453
-0.038328
-0.02439
0.073171
0.14286
0.031359
-0.13589
-0.31707
-0.27526
-0.15679
-0.017422
0.02439
-0.066202
-0.24042
-0.32404
-0.24739
-0.12195
0.0034843
0.059233
-0.010453
-0.14286
-0.11498
-0.031359
0.010453
-0.059233
-0.24739
-0.4216
-0.5122
-0.41463
-0.28223
-0.28223
-0.3101
-0.36585
-0.37979
-0.34495
-0.30314
-0.21254
-0.12892
-0.038328
0.045296
0.10105
0.073171
0.031359
-0.080139
-0.19164
-0.25436
-0.25436
-0.26829
-0.20557
-0.10105
-0.031359
-0.10801
-0.1777
-0.19861
-0.19861
-0.19861
-0.28223
-0.41463
-0.54704
-0.60976
-0.52613
-0.40767
-0.27526
-0.045296
0.14286
0.28223
0.31707
0.26829
0.11498
0.080139
0.10801
0.14983
0.12195
0.059233
0.059233
0.0034843
0.02439
0.038328
0.12195
0.14286
0.20557
0.19164
0.13589
0.14286
0.11498
0.073171
-0.087108
-0.21951
-0.34495
-0.38676
-0.36585
-0.26829
-0.10801
-0.017422
0.21254
0.35889
0.41463
0.36585
0.27526
0.16376
0.017422
-0.052265
-0.12892
-0.1777
-0.14983
-0.066202
-0.052265
-0.052265
-0.031359
-0.0034843
0.031359
0.038328
-0.02439
-0.12892
-0.23345
-0.27526
-0.31707
-0.4007
-0.42857
-0.35889
-0.2892
-0.1777
-0.13589
-0.15679
-0.21951
-0.21951
-0.12195
-0.14983
-0.1777
-0.26829
-0.36585
-0.40767
-0.39373
-0.24042
-0.19861
-0.14286
-0.11498
-0.087108
-0.19861
-0.31707
-0.44948
-0.57491
-0.55401
-0.4216
-0.28223
-0.18467
-0.045296
-0.031359
-0.017422
0.010453
0.080139
0.22648
0.29617
0.34495
0.26132
0.087108
-0.13589
-0.29617
-0.3101
-0.33101
-0.20557
-0.11498
-0.059233
0.045296
0.094077
0.12195
-0.0034843
-0.13589
-0.24739
-0.37282
-0.4216
-0.39373
-0.37282
-0.32404
-0.27526
-0.22648
-0.21254
-0.21254
-0.21254
-0.29617
-0.29617
-0.21951
-0.14286
-0.14983
-0.20557
-0.21951
-0.24739
-0.16376
-0.066202
0.0034843
-0.059233
-0.12892
-0.23345
-0.35889
-0.40767
-0.39373
-0.30314
-0.25436
-0.16376
-0.087108
-0.017422
-0.02439
0.13589
0.27526
0.34495
0.4216
0.42857
0.37979
0.33101
0.38676
0.40767
0.41463
0.37979
0.27526
0.19861
0.10105
0.059233
0.045296
-0.045296
-0.073171
-0.094077
-0.10105
-0.14286
-0.13589
-0.11498
-0.045296
0.087108
0.12892
0.080139
0.0034843
0.02439
0.10801
0.11498
0.059233
-0.11498
-0.21254
-0.22648
-0.073171
-0.017422
0.02439
0.038328
0.031359
0.010453
0.010453
0.031359
0.059233
0.087108
0.15679
0.21254
0.11498
0.038328
-0.017422
-0.045296
0.066202
0.14983
0.12892
-0.059233
-0.24042
-0.30314
-0.28223
-0.22648
-0.14286
-0.10801
-0.12892
-0.17073
-0.28223
-0.31707
-0.30314
-0.23345
-0.14983
-0.10105
-0.0034843
0.15679
0.36585
0.55401
0.63763
0.63066
0.47038
0.39373
0.24042
0.11498
0.02439
0.010453
0.010453
-0.10105
-0.14983
-0.21951
-0.19164
-0.080139
0.16376
0.33798
0.40767
0.44948
0.34495
0.1777
0.0034843
-0.094077
-0.17073
-0.1777
-0.20557
-0.20557
-0.1777
-0.038328
0.14286
0.24042
0.26829
0.2892
0.2892
0.23345
0.087108
-0.010453
-0.1777
-0.18467
-0.087108
0.010453
0.14286
0.21951
0.19164
0.094077
0.010453
0.094077
0.26132
0.39373
0.52613
0.55401
0.52613
0.47038
0.36585
0.31707
0.19861
0.10801
-0.0034843
-0.12195
-0.13589
-0.080139
0.010453
0.038328
0.094077
0.12892
0.17073
0.26829
0.4216
0.42857
0.29617
0.18467
0.094077
0.12195
0.17073
0.21951
0.13589
-0.0034843
-0.02439
-0.052265
-0.052265
-0.073171
-0.059233
-0.073171
-0.031359
0.038328
0.073171
0.038328
-0.031359
-0.038328
0.0034843
0.16376
0.2892
0.30314
0.22648
0.18467
0.34495
0.46341
0.59582
0.58188
0.38676
0.031359
-0.14983
-0.14983
-0.017422
0.12892
0.20557
0.20557
0.12892
0.052265
0.017422
0.045296
0.045296
0.10801
0.13589
0.10105
0.16376
0.21254
0.25436
0.26132
0.26132
0.21951
0.12892
0.18467
0.26829
0.31707
0.26829
0.14983
0.10801
0.10105
0.14983
0.13589
0.038328
-0.059233
-0.066202
-0.15679
-0.26829
-0.24042
-0.14983
-0.031359
-0.038328
-0.087108
-0.16376
-0.10105
0.010453
-0.052265
-0.17073
-0.35192
-0.36585
-0.35192
-0.28223
-0.24042
-0.22648
-0.30314
-0.45645
-0.50523
-0.51916
-0.39373
-0.20557
-0.031359
0.094077
0.10105
0.12892
0.045296
0.080139
0.094077
0.059233
-0.087108
-0.13589
-0.10801
-0.080139
-0.12195
-0.14983
-0.12195
-0.031359
0.12195
0.18467
0.073171
-0.087108
-0.25436
-0.37282
-0.48432
-0.4216
-0.33798
-0.21254
-0.11498
-0.017422
0.052265
0.052265
0.11498
0.0034843
-0.19164
-0.49129
-0.70035
-0.83275
-0.82578
-0.70732
-0.56794
-0.44251
-0.35192
-0.17073
-0.045296
0.052265
0.15679
0.1777
0.19164
0.24739
0.24739
0.18467
0.045296
-0.02439
-0.02439
-0.031359
-0.080139
-0.15679
-0.2892
-0.2892
-0.12195
0.031359
0.094077
-0.017422
-0.12892
-0.33798
-0.41463
-0.44948
-0.44251
-0.45645
-0.37979
-0.22648
-0.12892
-0.031359
-0.0034843
-0.010453
-0.087108
-0.087108
-0.052265
0.038328
0.12195
0.094077
-0.045296
-0.26829
-0.31707
-0.26829
-0.14983
-0.031359
0.094077
0.16376
0.1777
0.15679
0.10105
0.087108
0.066202
0.15679
0.19164
0.16376
0.15679
0.12892
0.066202
-0.031359
-0.052265
-0.094077
-0.12195
-0.14286
-0.18467
-0.10801
0.038328
0.24739
0.30314
0.2892
0.2892
0.26132
0.24739
0.23345
0.30314
0.33798
0.40767
0.38676
0.36585
0.31707
0.31707
0.32404
0.24042
0.22648
0.26132
0.35889
0.44251
0.54007
0.61672
0.58188
0.52613
0.5122
0.52613
0.44948
0.37979
0.17073
0.02439
-0.052265
-0.0034843
0.087108
0.10105
0.16376
0.24042
0.36585
0.48432
0.58188
0.58885
0.46341
0.47735
0.41463
0.46341
0.51916
0.51916
0.42857
0.24739
0.10105
-0.0034843
-0.017422
0.010453
0.094077
0.087108
0.073171
0.052265
-0.0034843
0.031359
0.031359
0.15679
0.14286
0.066202
0.038328
0.017422
0.052265
0.13589
0.2892
0.35889
0.45645
0.48432
0.40767
0.28223
0.12195
0.038328
-0.052265
-0.080139
-0.02439
0.080139
0.10801
0.038328
-0.038328
-0.17073
-0.21951
-0.23345
-0.2892
-0.29617
-0.18467
-0.0034843
0.12195
0.19164
0.19164
0.066202
-0.10801
-0.26132
-0.30314
-0.2892
-0.22648
-0.20557
-0.27526
-0.39373
-0.36585
-0.27526
-0.15679
-0.10105
-0.052265
-0.066202
-0.20557
-0.30314
-0.44251
-0.59582
-0.65157
-0.63066
-0.63763
-0.63066
-0.60976
-0.54007
-0.4216
-0.27526
-0.10105
-0.12195
-0.19164
-0.35192
-0.49826
-0.54704
-0.43554
-0.18467
-0.059233
-0.010453
0.045296
0.10105
0.1777
0.26829
0.38676
0.32404
0.17073
0.010453
0.010453
-0.010453
-0.0034843
-0.038328
-0.17073
-0.29617
-0.36585
-0.42857
-0.42857
-0.28223
-0.19164
-0.17073
-0.17073
-0.15679
-0.12892
-0.14286
-0.017422
0.087108
0.15679
0.094077
-0.010453
-0.13589
-0.26132
-0.2892
-0.41463
-0.5331
-0.54704
-0.37282
-0.16376
-0.059233
-0.031359
-0.087108
-0.19164
-0.24739
-0.25436
-0.36585
-0.49129
-0.58188
-0.55401
-0.42857
-0.31707
-0.29617
-0.34495
-0.36585
-0.24739
-0.11498
-0.02439
-0.038328
-0.045296
-0.12195
-0.22648
-0.2892
-0.35192
-0.42857
-0.42857
-0.44251
-0.50523
-0.52613
-0.45645
-0.3101
-0.15679
0.010453
0.12892
0.13589
0.02439
-0.045296
-0.052265
-0.073171
-0.045296
-0.12195
-0.25436
-0.35192
-0.28223
-0.17073
-0.14983
-0.14286
-0.1777
-0.17073
-0.13589
-0.059233
-0.02439
-0.017422
-0.010453
-0.17073
-0.32404
-0.44251
-0.41463
-0.32404
-0.3101
-0.2892
-0.22648
-0.087108
0.010453
0.080139
0.010453
-0.10801
-0.15679
-0.20557
-0.33798
-0.46341
-0.47038
-0.43554
-0.37282
-0.29617
-0.21254
-0.11498
-0.010453
0.010453
-0.031359
-0.094077
-0.15679
-0.21951
-0.33798
-0.36585
-0.24042
-0.16376
-0.11498
-0.10801
-0.059233
-0.0034843
0.080139
0.12892
0.080139
0.052265
-0.010453
-0.052265
-0.12195
-0.13589
-0.14983
-0.1777
-0.12892
0.066202
0.26829
0.35889
0.39373
0.40767
0.4007
0.40767
0.44251
0.41463
0.29617
0.24739
0.22648
0.33798
0.40767
0.47735
0.48432
0.47038
0.48432
0.35192
0.17073
0.073171
0.11498
0.18467
0.26829
0.34495
0.37282
0.33798
0.26132
0.23345
0.20557
0.21951
0.3101
0.34495
0.27526
0.15679
0.052265
-0.031359
0.066202
0.12195
0.10801
0.02439
-0.031359
0.052265
0.14983
0.29617
0.38676
0.48432
0.42857
0.35192
0.3101
0.26132
0.33798
0.36585
0.35192
0.19164
-0.010453
-0.18467
-0.26132
-0.15679
0.045296
0.18467
0.15679
0.12892
0.14983
0.21951
0.21951
0.17073
0.045296
-0.094077
-0.045296
0.017422
0.094077
0.10801
0.11498
0.045296
-0.010453
0.038328
0.14983
0.25436
0.37979
0.46341
0.33101
0.12195
-0.14983
-0.37979
-0.49826
-0.62369
-0.67944
-0.73519
-0.67944
-0.57491
-0.58885
-0.73519
-0.8676
-0.77003
-0.6446
-0.4216
-0.25436
-0.11498
-0.073171
-0.0034843
0.10105
0.24042
0.37979
0.45645
0.45645
0.35192
0.26132
0.20557
0.087108
0.010453
-0.017422
-0.0034843
0.059233
0.19164
0.33101
0.35889
0.37282
0.35889
0.39373
0.33101
0.28223
0.080139
-0.15679
-0.31707
-0.25436
-0.080139
0.02439
0.10801
0.010453
-0.010453
0.010453
0.24739
0.45645
0.47038
0.39373
0.13589
-0.12892
-0.26829
-0.26829
-0.25436
-0.24042
-0.24042
-0.27526
-0.29617
-0.21254
0.059233
0.27526
0.43554
0.50523
0.41463
0.25436
0.066202
0.0034843
0.045296
0.12195
0.14286
0.059233
-0.059233
-0.12195
-0.031359
0.017422
0.12892
0.3101
0.44948
0.47735
0.44948
0.35192
0.19164
0.0034843
-0.080139
-0.045296
0.038328
0.16376
0.24042
0.28223
0.35889
0.43554
0.41463
0.24739
0.13589
0.031359
-0.087108
-0.24042
-0.35889
-0.35192
-0.26829
-0.10801
0.0034843
0.087108
0.15679
0.19164
0.10801
0.0034843
0.0034843
0.10801
0.24042
0.25436
0.24739
0.20557
0.20557
0.28223
0.26829
0.1777
0.066202
0.0034843
-0.11498
-0.19861
-0.26829
-0.26132
-0.35192
-0.46341
-0.54007
-0.60279
-0.58188
-0.48432
-0.35889
-0.24739
-0.16376
-0.059233
-0.031359
0.059233
0.10105
0.12892
0.010453
-0.17073
-0.3101
-0.43554
-0.43554
-0.35889
-0.16376
-0.045296
0.12195
0.17073
0.094077
-0.059233
-0.21951
-0.35889
-0.49129
-0.49826
-0.48432
-0.44251
-0.26829
-0.038328
0.24042
0.35192
0.41463
0.37282
0.29617
0.24042
0.24042
0.17073
0.12195
0.094077
-0.010453
-0.13589
-0.22648
-0.080139
0.1777
0.44948
0.69338
0.73519
0.59582
0.31707
0.11498
-0.087108
-0.14286
0.045296
0.24739
0.37979
0.29617
0.14983
-0.02439
-0.066202
0.017422
0.080139
0.066202
-0.031359
-0.16376
-0.35192
-0.51916
-0.44251
-0.25436
-0.14983
-0.14983
-0.21254
-0.35889
-0.40767
-0.44948
-0.43554
-0.46341
-0.38676
-0.25436
-0.16376
-0.10105
-0.080139
-0.094077
-0.1777
-0.19164
-0.26829
-0.34495
-0.2892
-0.19164
-0.059233
0.02439
0.073171
0.017422
-0.094077
-0.19861
-0.26132
-0.33101
-0.44948
-0.41463
-0.33101
-0.20557
-0.19861
-0.19861
-0.24739
-0.26132
-0.23345
-0.20557
-0.19861
-0.17073
-0.087108
-0.12195
-0.17073
-0.32404
-0.41463
-0.46341
-0.39373
-0.16376
-0.059233
0.052265
0.045296
-0.017422
-0.12892
-0.25436
-0.34495
-0.44948
-0.49129
-0.45645
-0.38676
-0.34495
-0.31707
-0.30314
-0.38676
-0.33798
-0.18467
0.045296
0.19861
0.20557
0.059233
-0.1777
-0.33798
-0.35192
-0.27526
-0.23345
-0.12195
-0.080139
-0.094077
-0.21951
-0.34495
-0.34495
-0.2892
-0.11498
0.017422
0.045296
-0.052265
-0.19164
-0.33798
-0.47735
-0.41463
-0.33101
-0.26132
-0.15679
-0.12892
-0.16376
-0.17073
-0.12195
-0.10105
-0.14286
-0.15679
-0.12195
-0.087108
-0.080139
-0.14983
-0.28223
-0.37282
-0.37282
-0.19164
-0.066202
0.010453
0.017422
-0.052265
-0.094077
-0.02439
0.1777
0.33101
0.42857
0.48432
0.50523
0.40767
0.25436
0.14286
0.02439
-0.031359
-0.052265
-0.059233
-0.010453
0.11498
0.19164
0.1777
0.15679
0.18467
0.21254
0.17073
0.14286
0.12195
0.045296
-0.010453
-0.045296
-0.094077
-0.14983
-0.21254
-0.28223
-0.2892
-0.22648
-0.059233
0.13589
0.24739
0.37282
0.26132
0.052265
-0.18467
-0.3101
-0.35889
-0.39373
-0.35889
-0.38676
-0.37979
-0.35889
-0.34495
-0.40767
-0.42857
-0.41463
-0.35889
-0.28223
-0.16376
-0.031359
-0.031359
-0.052265
-0.16376
-0.23345
-0.27526
-0.18467
-0.0034843
0.12892
0.21951
0.25436
0.31707
0.36585
0.38676
0.4007
0.39373
0.41463
0.41463
0.33101
0.12195
-0.052265
-0.16376
-0.21951
-0.20557
-0.11498
-0.059233
-0.045296
-0.017422
-0.0034843
-0.017422
-0.010453
-0.0034843
-0.0034843
-0.094077
-0.1777
-0.21951
-0.23345
-0.13589
-0.045296
-0.010453
-0.087108
-0.052265
-0.031359
0.073171
0.20557
0.37979
0.41463
0.27526
0.14983
0.10801
0.14983
0.22648
0.27526
0.22648
0.19164
0.22648
0.34495
0.45645
0.51916
0.56098
0.47038
0.42857
0.32404
0.1777
-0.031359
-0.11498
-0.045296
0.045296
0.15679
0.16376
0.13589
0.031359
-0.066202
-0.15679
-0.22648
-0.19164
-0.017422
0.1777
0.24739
0.20557
0.080139
-0.017422
0.0034843
0.073171
0.16376
0.12892
0.14286
0.087108
-0.010453
-0.10105
-0.22648
-0.31707
-0.4216
-0.38676
-0.33798
-0.32404
-0.34495
-0.24042
-0.052265
0.1777
0.39373
0.44251
0.35889
0.24042
0.26132
0.25436
0.24042
0.22648
0.15679
0.11498
0.094077
0.14983
0.10801
0.087108
0.080139
0.12195
0.12892
0.15679
0.18467
0.20557
0.27526
0.37979
0.36585
0.21254
0.038328
-0.031359
0.031359
0.1777
0.41463
0.67247
0.78397
0.74216
0.55401
0.21951
-0.045296
-0.16376
-0.14286
-0.02439
0.10801
0.18467
0.14286
0.094077
0.052265
0.045296
0.010453
0.038328
0.010453
-0.059233
-0.10801
-0.10105
0.02439
0.14983
0.29617
0.29617
0.16376
-0.010453
-0.14286
-0.30314
-0.40767
-0.39373
-0.33798
-0.29617
-0.27526
-0.26829
-0.19861
-0.094077
0.066202
0.087108
-0.02439
-0.19164
-0.22648
-0.15679
-0.017422
0.17073
0.28223
0.24739
0.087108
-0.12195
-0.34495
-0.43554
-0.33798
-0.20557
-0.10105
-0.038328
0.02439
0.059233
0.059233
0.13589
0.21951
0.24042
0.2892
0.38676
0.49826
0.6446
0.70732
0.65854
0.33798
0.038328
-0.094077
-0.045296
0.13589
0.35889
0.50523
0.56794
0.58188
0.46341
0.31707
0.26132
0.3101
0.42857
0.43554
0.4216
0.29617
0.14983
0.010453
-0.010453
0.066202
0.20557
0.42857
0.49826
0.49129
0.41463
0.37282
0.2892
0.15679
0.080139
-0.052265
-0.12892
-0.23345
-0.24042
-0.21951
-0.1777
-0.10105
0.010453
0.087108
0.14286
0.12892
0.0034843
-0.12892
-0.14286
-0.080139
-0.038328
-0.02439
-0.045296
-0.17073
-0.22648
-0.23345
-0.14286
-0.11498
-0.10801
-0.15679
-0.26829
-0.32404
-0.26829
-0.21254
-0.14286
-0.059233
-0.010453
-0.038328
-0.10801
-0.14286
-0.066202
-0.052265
-0.073171
-0.19164
-0.34495
-0.4007
-0.33798
-0.24739
-0.15679
0.038328
0.10801
0.087108
-0.017422
-0.10801
-0.17073
-0.19164
-0.11498
-0.10801
-0.031359
-0.010453
0.045296
0.10105
0.017422
-0.02439
-0.052265
-0.052265
-0.038328
-0.059233
-0.10105
-0.12892
-0.059233
-0.045296
-0.031359
-0.0034843
0.059233
0.0034843
-0.094077
-0.10801
0.017422
0.15679
0.23345
0.31707
0.29617
0.31707
0.31707
0.24042
0.17073
0.10801
0.14983
0.16376
0.13589
0.12892
0.12195
0.12195
0.12892
0.12195
0.073171
0.094077
0.15679
0.21951
0.19861
0.14286
0.094077
0.02439
-0.017422
-0.0034843
0.010453
0.010453
0.073171
0.059233
-0.045296
-0.15679
-0.24739
-0.27526
-0.26132
-0.10801
-0.0034843
0.031359
-0.0034843
0.010453
0.045296
0.14286
0.2892
0.31707
0.14983
-0.066202
-0.23345
-0.34495
-0.30314
-0.1777
-0.16376
-0.17073
-0.1777
0.010453
0.24739
0.5122
0.69338
0.74216
0.65157
0.46341
0.24739
-0.02439
-0.11498
-0.13589
-0.087108
-0.045296
-0.031359
0.045296
0.16376
0.33798
0.49826
0.58188
0.54007
0.48432
0.46341
0.37979
0.37282
0.38676
0.4216
0.4007
0.4007
0.36585
0.18467
0.066202
-0.010453
0.031359
-0.010453
0.038328
0.052265
-0.017422
-0.073171
-0.059233
-0.038328
0.031359
0.14983
0.25436
0.37282
0.43554
0.50523
0.4216
0.21951
-0.0034843
-0.20557
-0.24739
-0.19861
-0.031359
0.073171
0.12892
0.1777
0.13589
0.059233
-0.066202
-0.18467
-0.37282
-0.49826
-0.47038
-0.34495
-0.1777
0.010453
0.15679
0.11498
0.087108
0.017422
0.0034843
-0.12195
-0.24739
-0.35889
-0.4007
-0.28223
-0.073171
0.14983
0.15679
-0.031359
-0.22648
-0.4007
-0.47735
-0.49129
-0.44948
-0.4216
-0.28223
-0.16376
-0.14983
-0.26829
-0.38676
-0.48432
-0.49129
-0.4007
-0.31707
-0.24042
-0.17073
-0.15679
-0.14983
-0.21951
-0.12195
-0.080139
-0.10801
-0.19861
-0.20557
-0.16376
-0.14286
-0.10801
-0.19861
-0.25436
-0.26829
-0.1777
-0.12195
-0.17073
-0.2892
-0.43554
-0.5331
-0.52613
-0.37979
-0.21951
-0.045296
0.080139
0.080139
0.038328
-0.0034843
-0.11498
-0.24739
-0.32404
-0.35192
-0.33101
-0.33798
-0.32404
-0.29617
-0.33101
-0.36585
-0.39373
-0.43554
-0.55401
-0.60279
-0.54704
-0.5122
-0.49826
-0.49826
-0.51916
-0.5122
-0.4216
-0.26132
-0.12195
-0.087108
-0.073171
-0.02439
-0.010453
-0.017422
-0.02439
-0.066202
-0.10801
-0.087108
-0.080139
-0.059233
-0.0034843
-0.02439
-0.15679
-0.29617
-0.29617
-0.23345
-0.19164
-0.20557
-0.29617
-0.41463
-0.39373
-0.20557
0.010453
0.18467
0.17073
0.02439
-0.080139
-0.073171
0.010453
0.073171
0.080139
0.17073
0.15679
0.14286
0.045296
0.017422
-0.14286
-0.22648
-0.30314
-0.35192
-0.4216
-0.45645
-0.4007
-0.43554
-0.41463
-0.34495
-0.24739
-0.12892
-0.073171
0.010453
0.017422
0.045296
0.094077
0.21951
0.33101
0.44948
0.44948
0.27526
0.12892
0.045296
0.15679
0.24739
0.38676
0.33798
0.14286
0.02439
0.10105
0.30314
0.46341
0.58885
0.58885
0.58188
0.55401
0.54007
0.44948
0.25436
0.087108
-0.059233
-0.10801
-0.02439
0.052265
0.073171
0.031359
0.017422
0.080139
0.10801
0.19164
0.31707
0.33798
0.24739
0.15679
0.059233
0.010453
0.038328
0.26829
0.4007
0.54704
0.60279
0.56098
0.40767
0.24042
0.14983
0.052265
0.080139
0.10105
0.10801
-0.010453
-0.1777
-0.34495
-0.44251
-0.41463
-0.26829
-0.038328
0.052265
0.10801
0.073171
0.052265
0.0034843
0.045296
0.12892
0.17073
0.26132
0.30314
0.33101
0.31707
0.33798
0.37979
0.35889
0.42857
0.42857
0.43554
0.4007
0.35192
0.24042
0.10105
0.017422
-0.10801
-0.21951
-0.33101
-0.3101
-0.24739
-0.10105
0.13589
0.31707
0.38676
0.29617
0.21254
0.080139
0.087108
0.1777
0.26132
0.2892
0.27526
0.27526
0.22648
0.22648
0.19164
0.17073
0.17073
0.28223
0.42857
0.42857
0.4007
0.33101
0.33798
0.26829
0.18467
0.12195
0.10105
0.066202
0.10105
-0.010453
-0.14983
-0.25436
-0.2892
-0.34495
-0.30314
-0.28223
-0.24739
-0.3101
-0.27526
-0.24042
-0.23345
-0.20557
-0.16376
-0.045296
0.087108
0.24739
0.26132
0.26132
0.26829
0.37282
0.40767
0.3101
0.23345
0.12195
0.010453
-0.059233
-0.10105
-0.13589
-0.21254
-0.26132
-0.35192
-0.40767
-0.44251
-0.34495
-0.24042
-0.12892
-0.038328
-0.045296
-0.087108
-0.10801
-0.15679
-0.16376
-0.1777
-0.16376
-0.12892
-0.14286
-0.24042
-0.28223
-0.37282
-0.39373
-0.4007
-0.46341
-0.5122
-0.45645
-0.31707
-0.32404
-0.41463
-0.5331
-0.54007
-0.50523
-0.40767
-0.32404
-0.32404
-0.36585
-0.40767
-0.37979
-0.38676
-0.28223
-0.13589
-0.031359
0.038328
0.073171
-0.0034843
-0.16376
-0.10801
-0.0034843
0.087108
0.073171
-0.031359
-0.18467
-0.33101
-0.39373
-0.45645
-0.48432
-0.39373
-0.26829
-0.16376
-0.14983
-0.080139
-0.11498
-0.22648
-0.36585
-0.44948
-0.45645
-0.37979
-0.24739
-0.14983
-0.10801
-0.14286
-0.087108
-0.059233
0.02439
0.052265
0.087108
0.14286
0.14983
0.21254
0.28223
0.32404
0.35192
0.22648
0.052265
-0.038328
0.010453
0.11498
0.24042
0.38676
0.50523
0.52613
0.51916
0.48432
0.40767
0.36585
0.37282
0.43554
0.40767
0.38676
0.33101
0.22648
0.094077
0.073171
0.080139
0.14983
0.3101
0.36585
0.35192
0.19861
0.052265
-0.017422
-0.10801
-0.038328
0.010453
0.0034843
0.045296
0.14286
0.17073
0.1777
0.26829
0.41463
0.56098
0.67247
0.67247
0.5122
0.29617
0.20557
0.038328
-0.10801
-0.24739
-0.3101
-0.37979
-0.38676
-0.23345
0.031359
0.30314
0.43554
0.46341
0.33101
0.22648
0.12892
0.02439
-0.066202
-0.19164
-0.31707
-0.44251
-0.45645
-0.28223
-0.010453
0.1777
0.35889
0.54704
0.57491
0.51916
0.35889
0.13589
-0.12195
-0.3101
-0.41463
-0.44251
-0.37282
-0.24739
-0.10105
0.038328
0.19861
0.30314
0.25436
0.087108
-0.14286
-0.35192
-0.5122
-0.47038
-0.4007
-0.4007
-0.41463
-0.44251
-0.43554
-0.37282
-0.22648
-0.13589
-0.12195
-0.20557
-0.2892
-0.39373
-0.4216
-0.33101
-0.22648
-0.1777
-0.1777
-0.18467
-0.28223
-0.35192
-0.30314
-0.087108
0.1777
0.33101
0.40767
0.35192
0.37979
0.38676
0.42857
0.37979
0.30314
0.23345
0.080139
0.038328
0.087108
0.1777
0.33101
0.4216
0.50523
0.46341
0.39373
0.20557
0.017422
-0.21254
-0.39373
-0.47038
-0.56098
-0.61672
-0.60279
-0.45645
-0.26829
-0.038328
0.094077
0.045296
-0.0034843
-0.031359
0.010453
0.02439
0.080139
0.094077
-0.066202
-0.33798
-0.6446
-0.87456
-1
-0.90941
-0.74216
-0.49129
-0.28223
-0.14286
-0.14983
-0.23345
-0.21254
-0.22648
-0.21951
-0.26829
-0.3101
-0.33101
-0.32404
-0.21951
-0.10801
-0.02439
0.10105
0.19861
0.19861
0.20557
0.14286
-0.0034843
-0.18467
-0.36585
-0.35192
-0.32404
-0.27526
-0.21254
-0.19861
-0.16376
-0.052265
0.20557
0.39373
0.51916
0.50523
0.35889
0.12892
-0.080139
-0.17073
-0.20557
-0.12892
-0.052265
-0.059233
-0.24739
-0.27526
-0.13589
0.094077
0.35192
0.43554
0.4216
0.31707
0.30314
0.23345
0.087108
-0.059233
-0.12892
-0.17073
-0.20557
-0.14286
0.0034843
0.21951
0.39373
0.55401
0.61672
0.58188
0.58188
0.44251
0.22648
-0.10105
-0.38676
-0.62369
-0.69338
-0.57491
-0.4007
-0.21951
-0.080139
0.059233
0.1777
0.33798
0.52613
0.54704
0.38676
0.066202
-0.1777
-0.39373
-0.46341
-0.45645
-0.4216
-0.40767
-0.37979
-0.34495
-0.34495
-0.2892
-0.19164
-0.038328
-0.045296
-0.10105
-0.21254
-0.30314
-0.27526
-0.16376
-0.087108
-0.038328
-0.080139
-0.14983
-0.16376
-0.073171
0.010453
0.14286
0.1777
0.28223
0.33101
0.27526
0.19164
0.087108
0.045296
0.02439
0.066202
0.11498
0.1777
0.15679
0.14286
0.15679
0.21951
0.39373
0.47735
0.48432
0.45645
0.46341
0.42857
0.30314
0.22648
0.11498
-0.017422
-0.17073
-0.28223
-0.33101
-0.22648
-0.073171
0.059233
0.12892
0.10801
0.14983
0.12195
0.087108
0.11498
0.10105
0.094077
0.038328
0.038328
-0.038328
0.038328
0.11498
0.1777
0.052265
-0.045296
-0.031359
-0.038328
0.038328
0.059233
0.10801
0.087108
0.11498
0.17073
0.20557
0.18467
0.080139
-0.031359
-0.14983
-0.094077
0.031359
0.14983
0.24042
0.25436
0.19164
0.031359
-0.045296
-0.080139
-0.0034843
0.14983
0.29617
0.35192
0.27526
0.26132
0.28223
0.29617
0.33798
0.32404
0.22648
0.052265
-0.12195
-0.2892
-0.33798
-0.2892
-0.10105
0.0034843
0.10105
0.18467
0.26132
0.33101
0.35889
0.41463
0.26132
0.12195
-0.0034843
-0.12195
-0.19861
-0.23345
-0.14983
-0.017422
0.12195
0.17073
0.21951
0.25436
0.27526
0.37979
0.37282
0.35889
0.3101
0.19861
0.045296
-0.0034843
0.02439
0.066202
0.16376
0.17073
0.14983
0.094077
0.14983
0.25436
0.33798
0.38676
0.41463
0.40767
0.33101
0.30314
0.24042
0.15679
0.14983
0.22648
0.2892
0.26132
0.21254
0.10801
0.059233
0.0034843
0.010453
-0.059233
-0.094077
-0.010453
0.11498
0.19861
0.19164
0.11498
0.010453
-0.045296
-0.094077
-0.11498
-0.14983
-0.14983
-0.094077
-0.14983
-0.12892
-0.066202
0.12195
0.29617
0.37979
0.42857
0.33101
0.37282
0.47038
0.51916
0.41463
0.26132
0.11498
-0.038328
-0.1777
-0.29617
-0.44251
-0.65854
-0.73519
-0.66551
-0.50523
-0.30314
-0.21254
-0.19164
-0.32404
-0.4007
-0.44251
-0.40767
-0.3101
-0.19164
-0.10105
-0.052265
0.059233
0.19164
0.30314
0.37282
0.35889
0.25436
0.073171
0.010453
0.010453
-0.017422
-0.094077
-0.12892
-0.073171
0.010453
0.052265
-0.010453
-0.10105
-0.11498
-0.087108
-0.12892
-0.10105
-0.066202
-0.045296
-0.052265
-0.10801
-0.02439
0.010453
0.12195
0.20557
0.24739
0.21254
0.073171
-0.052265
-0.23345
-0.29617
-0.26132
-0.14983
-0.14286
-0.16376
-0.15679
-0.17073
-0.18467
-0.19861
-0.16376
-0.10105
0.017422
0.14286
0.15679
0.080139
0.010453
-0.094077
-0.1777
-0.26829
-0.28223
-0.2892
-0.15679
-0.010453
0.080139
0.10801
0.10801
0.045296
-0.02439
-0.10105
-0.19164
-0.2892
-0.4007
-0.41463
-0.33798
-0.24042
-0.17073
-0.20557
-0.2892
-0.33798
-0.24042
-0.080139
0.010453
-0.052265
-0.14286
-0.27526
-0.39373
-0.39373
-0.40767
-0.38676
-0.37282
-0.31707
-0.27526
-0.12892
0.073171
0.19861
0.21951
0.15679
0.17073
0.094077
0.080139
0.14983
0.24739
0.4216
0.52613
0.5331
0.40767
0.22648
0.066202
-0.11498
-0.2892
-0.35889
-0.3101
-0.27526
-0.26132
-0.22648
-0.13589
-0.10105
-0.059233
-0.038328
-0.073171
-0.12892
-0.16376
-0.26829
-0.4007
-0.42857
-0.45645
-0.46341
-0.46341
-0.45645
-0.43554
-0.39373
-0.34495
-0.2892
-0.20557
-0.094077
0.059233
0.12892
0.24042
0.35192
0.4007
0.35192
0.19164
0.038328
-0.15679
-0.2892
-0.29617
-0.21951
-0.10105
0.052265
0.27526
0.31707
0.23345
0.045296
-0.14286
-0.22648
-0.21951
-0.19861
-0.24042
-0.3101
-0.35192
-0.32404
-0.30314
-0.26829
-0.1777
-0.12195
-0.017422
0.0034843
0.094077
0.052265
0.059233
0.080139
-0.038328
-0.10801
-0.16376
-0.1777
-0.073171
0.10105
0.21951
0.26132
0.24739
0.19861
0.17073
0.13589
0.11498
0.12892
0.066202
0.0034843
-0.059233
-0.045296
0.087108
0.25436
0.35192
0.33101
0.26829
0.27526
0.30314
0.25436
0.24739
0.12195
-0.087108
-0.35192
-0.5331
-0.54704
-0.47038
-0.32404
-0.23345
-0.12195
0.031359
0.26132
0.39373
0.41463
0.46341
0.41463
0.33101
0.22648
0.17073
0.066202
-0.010453
-0.073171
-0.02439
0.11498
0.31707
0.49826
0.48432
0.41463
0.35889
0.27526
0.17073
0.066202
-0.031359
-0.23345
-0.38676
-0.5122
-0.51916
-0.50523
-0.39373
-0.25436
-0.14983
0.045296
0.29617
0.56794
0.68641
0.65157
0.48432
0.24042
0.02439
-0.15679
-0.25436
-0.29617
-0.17073
-0.031359
0.052265
0.19164
0.3101
0.45645
0.49826
0.49826
0.37282
0.10105
-0.12892
-0.22648
-0.22648
-0.20557
-0.12892
-0.14983
-0.20557
-0.23345
-0.080139
0.12892
0.31707
0.44948
0.44948
0.35192
0.2892
0.29617
0.23345
0.24042
0.18467
0.14286
0.080139
0.010453
0.017422
-0.059233
-0.073171
-0.045296
0.038328
0.038328
-0.010453
-0.038328
-0.10801
-0.12892
-0.087108
-0.10801
-0.12892
-0.12892
-0.14983
-0.19861
-0.24739
-0.24739
-0.21951
-0.20557
-0.24042
-0.35889
-0.5122
-0.60279
-0.60279
-0.56794
-0.49826
-0.38676
-0.33798
-0.33798
-0.39373
-0.4007
-0.37282
-0.35192
-0.22648
-0.14983
-0.10801
-0.13589
-0.17073
-0.20557
-0.24042
-0.19861
-0.15679
-0.12892
-0.087108
-0.031359
-0.10801
-0.21254
-0.27526
-0.26132
-0.15679
-0.0034843
0.20557
0.25436
0.22648
0.12892
0.045296
-0.017422
-0.073171
-0.045296
-0.11498
-0.10801
-0.010453
0.10105
0.1777
0.24739
0.29617
0.27526
0.26829
0.26132
0.21951
0.1777
0.15679
0.24042
0.24042
0.20557
0.1777
0.18467
0.19164
0.23345
0.23345
0.12195
-0.0034843
-0.14983
-0.22648
-0.24739
-0.14286
-0.066202
-0.031359
0.02439
0.10801
0.23345
0.22648
0.26829
0.24042
0.19861
0.066202
-0.038328
-0.21254
-0.2892
-0.26829
-0.1777
-0.059233
-0.0034843
0.052265
0.080139
0.045296
-0.0034843
-0.031359
-0.10105
-0.17073
-0.20557
-0.24042
-0.18467
-0.12195
-0.18467
-0.34495
-0.47038
-0.39373
-0.28223
-0.17073
-0.031359
0.017422
0.066202
0.21254
0.38676
0.5122
0.58188
0.58885
0.58188
0.48432
0.40767
0.36585
0.2892
0.21951
0.10105
-0.010453
-0.11498
-0.16376
-0.21254
-0.21951
-0.094077
0.080139
0.24042
0.23345
0.23345
0.22648
0.26132
0.22648
0.24042
0.2892
0.31707
0.4216
0.37979
0.27526
0.14286
-0.02439
-0.18467
-0.37979
-0.41463
-0.45645
-0.44948
-0.44948
-0.50523
-0.60976
-0.63763
-0.52613
-0.30314
-0.13589
-0.12195
-0.16376
-0.3101
-0.34495
-0.35192
-0.33798
-0.32404
-0.34495
-0.34495
-0.36585
-0.36585
-0.33798
-0.29617
-0.31707
-0.35192
-0.33101
-0.35192
-0.34495
-0.34495
-0.29617
-0.32404
-0.20557
-0.12892
-0.031359
0.066202
0.1777
0.22648
0.087108
-0.017422
-0.031359
0.073171
0.30314
0.44948
0.50523
0.5122
0.63763
0.77003
0.92334
1
0.90244
0.62369
0.1777
-0.080139
-0.22648
-0.26132
-0.24042
-0.17073
-0.059233
-0.0034843
0.066202
0.080139
0.10105
0.20557
0.2892
0.29617
0.19164
0.14983
0.094077
0.12892
0.17073
0.27526
0.2892
0.23345
0.15679
0.15679
0.12892
0.080139
0.02439
0.010453
0.059233
0.21951
0.24739
0.19861
0.12195
0.12892
0.14983
0.18467
0.19861
0.14983
0.073171
0.038328
0.12892
0.20557
0.23345
0.21951
0.13589
0.052265
0.059233
0.073171
0.038328
-0.066202
-0.1777
-0.29617
-0.41463
-0.36585
-0.27526
-0.16376
-0.10801
-0.15679
-0.26829
-0.34495
-0.14983
0.010453
0.12195
0.10105
0.12195
0.19861
0.21254
0.21951
0.18467
0.12195
0.10105
0.13589
0.15679
0.1777
0.14983
-0.066202
-0.33101
-0.46341
-0.44251
-0.34495
-0.24042
-0.17073
-0.10801
-0.11498
-0.02439
0.12892
0.18467
0.21951
0.21254
0.18467
0.080139
-0.010453
-0.094077
-0.1777
-0.24042
-0.2892
-0.21951
-0.13589
0.059233
0.19164
0.18467
0.11498
0.045296
0.010453
-0.038328
-0.087108
-0.13589
-0.25436
-0.31707
-0.35192
-0.36585
-0.41463
-0.39373
-0.24042
-0.052265
0.10105
0.19164
0.16376
0.12195
0.13589
0.12892
0.12195
0.087108
0.066202
-0.0034843
-0.12195
-0.16376
-0.23345
-0.2892
-0.28223
-0.21254
-0.10105
0.052265
0.23345
0.29617
0.24739
0.059233
-0.10801
-0.27526
-0.44251
-0.50523
-0.48432
-0.46341
-0.43554
-0.32404
-0.21951
-0.073171
0.0034843
-0.017422
-0.1777
-0.31707
-0.34495
-0.33798
-0.22648
-0.094077
-0.094077
-0.15679
-0.21951
-0.13589
-0.02439
0.080139
0.11498
0.010453
-0.10801
-0.23345
-0.21951
-0.24739
-0.33101
-0.39373
-0.37979
-0.34495
-0.24739
-0.21951
-0.21254
-0.10105
0.045296
0.21951
0.27526
0.30314
0.22648
0.094077
0.031359
0.045296
0.12195
0.080139
0.031359
-0.094077
-0.23345
-0.30314
-0.31707
-0.24042
-0.1777
-0.066202
-0.0034843
0.02439
0.073171
0.14983
0.14286
0.031359
-0.066202
-0.17073
-0.19164
-0.11498
0.031359
0.073171
0.080139
0.017422
-0.17073
-0.32404
-0.46341
-0.43554
-0.39373
-0.23345
-0.045296
0.17073
0.25436
0.28223
0.20557
0.087108
0.080139
0.094077
0.14286
0.073171
-0.080139
-0.21254
-0.34495
-0.34495
-0.29617
-0.23345
-0.2892
-0.26132
-0.24739
-0.21951
-0.17073
-0.27526
