-0.42442
-0.23143
-0.052092
0.094791
0.28608
0.37319
0.31341
0.18873
-0.038429
-0.26558
-0.46029
-0.63279
-0.72673
-0.76943
-0.78992
-0.79846
-0.79334
-0.77114
-0.75918
-0.73185
-0.70965
-0.69769
-0.68574
-0.6567
-0.63621
-0.60888
-0.59863
-0.57814
-0.57643
-0.56106
-0.55081
-0.53202
-0.53032
-0.53373
-0.54398
-0.57643
-0.60717
-0.64475
-0.67378
-0.68574
-0.62938
-0.55081
-0.48249
-0.41076
-0.38343
-0.36294
-0.28608
-0.21605
-0.21605
-0.16994
-0.20751
-0.30999
-0.38002
-0.40393
-0.43638
-0.47225
-0.52178
-0.57301
-0.62254
-0.67037
-0.70111
-0.71819
-0.73185
-0.74722
-0.78309
-0.82408
-0.85312
-0.8702
-0.85995
-0.8275
-0.78309
-0.74722
-0.70965
-0.68232
-0.66524
-0.63962
-0.60888
-0.58155
-0.56106
-0.54227
-0.52178
-0.49957
-0.48249
-0.46029
-0.43467
-0.4193
-0.41588
-0.42613
-0.45687
-0.51836
-0.58839
-0.63621
-0.63792
-0.40734
-0.17677
0.033305
0.11187
0.014518
0.091375
0.038429
-0.017933
-0.098207
-0.23826
-0.33049
-0.45175
-0.60205
-0.71136
-0.76943
-0.80188
-0.81383
-0.81383
-0.79675
-0.77797
-0.75747
-0.72673
-0.70111
-0.68232
-0.66695
-0.64987
-0.63621
-0.62084
-0.60034
-0.59009
-0.58668
-0.57985
-0.56789
-0.56277
-0.56618
-0.58155
-0.60376
-0.62767
-0.655
-0.66183
-0.655
-0.63108
-0.59351
-0.57131
-0.5474
-0.51836
-0.4842
-0.42613
-0.37489
-0.30145
-0.19898
-0.15969
-0.15115
-0.21435
-0.30316
-0.36294
-0.41076
-0.45175
-0.49787
-0.53202
-0.56447
-0.59693
-0.62425
-0.6345
-0.64646
-0.65158
-0.64646
-0.63962
-0.63279
-0.62425
-0.6123
-0.60717
-0.60376
-0.59351
-0.58839
-0.58326
-0.57301
-0.55764
-0.53886
-0.53032
-0.51324
-0.48933
-0.4842
-0.47908
-0.46712
-0.45346
-0.4398
-0.42784
-0.4193
-0.41418
-0.42101
-0.41588
-0.42101
-0.42101
-0.41588
-0.42101
-0.4193
-0.4193
-0.41247
-0.41418
-0.41759
-0.41759
-0.43467
-0.47566
-0.54569
-0.60205
-0.63108
-0.49274
-0.23826
-0.07088
0.14603
0.17336
0.29804
0.24509
0.024765
-0.25192
-0.49274
-0.63279
-0.71477
-0.77455
-0.81896
-0.85482
-0.8702
-0.87361
-0.86678
-0.85312
-0.84287
-0.83604
-0.81725
-0.79846
-0.77114
-0.74893
-0.72502
-0.70794
-0.70111
-0.6994
-0.69428
-0.69428
-0.6994
-0.70794
-0.7199
-0.73356
-0.73698
-0.71307
-0.68915
-0.655
-0.62596
-0.60205
-0.59009
-0.59863
-0.60205
-0.61742
-0.61571
-0.62084
-0.62254
-0.62938
-0.63108
-0.61913
-0.61742
-0.61059
-0.60547
-0.59351
-0.58326
-0.58155
-0.56106
-0.55081
-0.53202
-0.52348
-0.53715
-0.5491
-0.59693
-0.64646
-0.69769
-0.64475
-0.48079
-0.27583
-0.096499
-0.011102
-0.0076857
0.050384
0.024765
-0.021349
-0.14774
-0.2895
-0.40905
-0.48079
-0.5491
-0.62084
-0.65841
-0.66354
-0.66524
-0.64816
-0.64133
-0.64304
-0.6345
-0.61913
-0.61059
-0.61913
-0.61571
-0.61401
-0.61571
-0.62425
-0.62084
-0.61401
-0.57985
-0.57301
-0.56618
-0.50982
-0.43467
-0.33561
-0.28437
-0.25363
-0.24338
-0.23826
-0.29291
-0.34244
-0.39539
-0.43638
-0.44663
-0.46029
-0.47566
-0.49445
-0.49957
-0.46541
-0.45687
-0.47908
-0.52007
-0.56277
-0.58668
-0.59522
-0.59351
-0.60547
-0.60547
-0.59693
-0.58839
-0.57643
-0.56789
-0.55935
-0.56618
-0.5696
-0.55594
-0.5491
-0.5474
-0.54227
-0.54569
-0.53544
-0.53032
-0.50811
-0.48933
-0.47737
-0.46371
-0.45517
-0.45858
-0.48591
-0.52007
-0.58326
-0.63108
-0.61401
-0.4398
-0.21435
-0.035013
0.12041
0.17506
0.28096
0.3117
0.19385
0.0059778
-0.21264
-0.34927
-0.45687
-0.54569
-0.59522
-0.63279
-0.65841
-0.6772
-0.68061
-0.68745
-0.68232
-0.67037
-0.64987
-0.63792
-0.61742
-0.59693
-0.59009
-0.58668
-0.58326
-0.5918
-0.60888
-0.62254
-0.62596
-0.62767
-0.6345
-0.64475
-0.64816
-0.64475
-0.62425
-0.59863
-0.5047
-0.42955
-0.40051
-0.45517
-0.55423
-0.57131
-0.53886
-0.49103
-0.45858
-0.43809
-0.42613
-0.44833
-0.45687
-0.48249
-0.49787
-0.53544
-0.58839
-0.62425
-0.61059
-0.52861
-0.47395
-0.46883
-0.5064
-0.52519
-0.5064
-0.46712
-0.44663
-0.46883
-0.5064
-0.56106
-0.59009
-0.59693
-0.5918
-0.5696
-0.55252
-0.53715
-0.52348
-0.5064
-0.49616
-0.47737
-0.46029
-0.4415
-0.43638
-0.42613
-0.41076
-0.40051
-0.38856
-0.37319
-0.36294
-0.35611
-0.35269
-0.34244
-0.33561
-0.33561
-0.33049
-0.32536
-0.32536
-0.32195
-0.3117
-0.31512
-0.30487
-0.30145
-0.29804
-0.30999
-0.32365
-0.36123
-0.42784
-0.50811
-0.56618
-0.56106
-0.39368
-0.16823
0.0093937
0.26046
0.48249
0.57985
0.52519
0.15286
-0.20068
-0.43126
-0.57301
-0.68061
-0.75235
-0.79334
-0.81725
-0.81554
-0.80871
-0.80017
-0.78651
-0.7626
-0.73698
-0.71307
-0.69086
-0.6772
-0.66866
-0.67378
-0.65329
-0.6567
-0.65841
-0.66354
-0.67037
-0.67378
-0.67891
-0.68745
-0.70453
-0.71648
-0.7199
-0.71477
-0.71819
-0.72844
-0.72331
-0.69257
-0.63108
-0.56447
-0.45517
-0.38514
-0.33903
-0.34073
-0.38514
-0.3766
-0.33561
-0.30999
-0.35098
-0.43126
-0.53373
-0.61571
-0.6772
-0.7199
-0.7626
-0.807
-0.79675
-0.68403
-0.50982
-0.3766
-0.27071
-0.18019
-0.086251
-0.041845
-0.13066
-0.29633
-0.40905
-0.47737
-0.51665
-0.57301
-0.61401
-0.63962
-0.64475
-0.65329
-0.64987
-0.64816
-0.63962
-0.6123
-0.5918
-0.57301
-0.55594
-0.52861
-0.51153
-0.49445
-0.47054
-0.45687
-0.44663
-0.43296
-0.41418
-0.40393
-0.39026
-0.37831
-0.37319
-0.36977
-0.37319
-0.36635
-0.36977
-0.36635
-0.36294
-0.36294
-0.36635
-0.36977
-0.37148
-0.37831
-0.38685
-0.38685
-0.38514
-0.39368
-0.3971
-0.41247
-0.43467
-0.45517
-0.49616
-0.55594
-0.64304
-0.70794
-0.71819
-0.58839
-0.39539
-0.20751
0.023057
0.32707
0.64304
0.6123
0.32195
-0.16652
-0.44492
-0.60376
-0.74893
-0.86678
-0.93851
-0.9795
-1
-0.99317
-0.96755
-0.9351
-0.88898
-0.84629
-0.81042
-0.78138
-0.7626
-0.75235
-0.73868
-0.72331
-0.71136
-0.71307
-0.71136
-0.70282
-0.70453
-0.70623
-0.71477
-0.72331
-0.72331
-0.73015
-0.71819
-0.72161
-0.71819
-0.70111
-0.67891
-0.64816
-0.60376
-0.57301
-0.5491
-0.51665
-0.48933
-0.47908
-0.49445
-0.49787
-0.49957
-0.5269
-0.5696
-0.61571
-0.64133
-0.65158
-0.66012
-0.6567
-0.66012
-0.65841
-0.655
-0.655
-0.6567
-0.66866
-0.69257
-0.73185
-0.76772
-0.7848
-0.71648
-0.56277
-0.38856
-0.23143
-0.10333
0.12553
0.33049
0.39539
0.2263
-0.033305
-0.22972
-0.38514
-0.50811
-0.60888
-0.66695
-0.69428
-0.70965
-0.71477
-0.7199
-0.71648
-0.70111
-0.68745
-0.67037
-0.63792
-0.61571
-0.59863
-0.58155
-0.56789
-0.56277
-0.56447
-0.56277
-0.55764
-0.56447
-0.5696
-0.55594
-0.53544
-0.52348
-0.53373
-0.55935
-0.56618
-0.56447
-0.43467
-0.24509
-0.067464
0.0025619
-0.11187
-0.28779
-0.41076
-0.47054
-0.49616
-0.50299
-0.49616
-0.5064
-0.51665
-0.50982
-0.5064
-0.50299
-0.50811
-0.49957
-0.49274
-0.48933
-0.47395
-0.462
-0.45687
-0.45004
-0.4415
-0.43296
-0.43296
-0.42784
-0.42784
-0.43467
-0.4415
-0.42955
-0.42442
-0.42101
-0.41418
-0.4193
-0.42784
-0.43296
-0.4398
-0.46371
-0.52178
-0.58839
-0.65329
-0.64133
-0.47395
-0.27412
-0.12041
0.11529
0.41588
0.53544
0.47225
0.067464
-0.32536
-0.51836
-0.65329
-0.75918
-0.8497
-0.90606
-0.94193
-0.95218
-0.95389
-0.93681
-0.91631
-0.88557
-0.85995
-0.81725
-0.77626
-0.74722
-0.71819
-0.69599
-0.67208
-0.66354
-0.65841
-0.65158
-0.64133
-0.63279
-0.64133
-0.64816
-0.64475
-0.60717
-0.56106
-0.54056
-0.55594
-0.58497
-0.60376
-0.59009
-0.55935
-0.53715
-0.51324
-0.48933
-0.47395
-0.45346
-0.44833
-0.42101
-0.41418
-0.42955
-0.45175
-0.4842
-0.49103
-0.49445
-0.49274
-0.50299
-0.51665
-0.53202
-0.52519
-0.53202
-0.53202
-0.53544
-0.54398
-0.54569
-0.55423
-0.55935
-0.59009
-0.62938
-0.67378
-0.71307
-0.71477
-0.55081
-0.34244
-0.14432
0.029889
0.11529
0.25705
0.32024
0.27242
0.18531
0.036721
-0.13578
-0.30316
-0.46883
-0.58668
-0.655
-0.69086
-0.71136
-0.7199
-0.71307
-0.6994
-0.68232
-0.65329
-0.63108
-0.61059
-0.59522
-0.57643
-0.56447
-0.5696
-0.57131
-0.57985
-0.59863
-0.61571
-0.60376
-0.58326
-0.57131
-0.59009
-0.61742
-0.62254
-0.58839
-0.54569
-0.5047
-0.48933
-0.3988
-0.30999
-0.27925
-0.3117
-0.39539
-0.45175
-0.46883
-0.48762
-0.51494
-0.54569
-0.55935
-0.56106
-0.55935
-0.55423
-0.54569
-0.53202
-0.52348
-0.50811
-0.48762
-0.47737
-0.462
-0.44321
-0.43126
-0.42272
-0.41247
-0.40393
-0.39197
-0.38685
-0.37319
-0.36635
-0.36806
-0.36977
-0.36635
-0.36806
-0.36806
-0.35611
-0.35098
-0.34927
-0.35269
-0.37319
-0.42272
-0.48591
-0.55594
-0.59863
-0.50982
-0.26558
-0.096499
0.10504
0.27925
0.47737
0.44321
0.20581
-0.17677
-0.40051
-0.55252
-0.6772
-0.7626
-0.82408
-0.85312
-0.86336
-0.86849
-0.86849
-0.86678
-0.84799
-0.83775
-0.81213
-0.78309
-0.75747
-0.74381
-0.73356
-0.72161
-0.71819
-0.72673
-0.7199
-0.71477
-0.71136
-0.73185
-0.74893
-0.75747
-0.74722
-0.70282
-0.67208
-0.64646
-0.66012
-0.69599
-0.7643
-0.79163
-0.75064
-0.63108
-0.53373
-0.49274
-0.49274
-0.51324
-0.52007
-0.52348
-0.50128
-0.47566
-0.45517
-0.462
-0.49957
-0.53715
-0.56618
-0.58839
-0.61059
-0.61059
-0.61059
-0.59693
-0.59009
-0.57985
-0.5696
-0.57131
-0.55594
-0.5474
-0.53886
-0.53032
-0.51324
-0.49103
-0.48079
-0.45346
-0.43126
-0.40734
-0.39026
-0.37148
-0.36294
-0.35952
-0.36123
-0.35952
-0.36465
-0.37489
-0.38343
-0.43638
-0.50299
-0.56447
-0.54569
-0.34244
-0.11358
0.10162
0.22801
0.32365
0.38343
0.3971
0.23484
-0.0042699
-0.22118
-0.38514
-0.50982
-0.59522
-0.66866
-0.71648
-0.74893
-0.75064
-0.74552
-0.73015
-0.70623
-0.68232
-0.66695
-0.65841
-0.64133
-0.63792
-0.62596
-0.63279
-0.63279
-0.62254
-0.61401
-0.60888
-0.64304
-0.65329
-0.64133
-0.59522
-0.56447
-0.55252
-0.55252
-0.53715
-0.51836
-0.46541
-0.43296
-0.39539
-0.34244
-0.2912
-0.2912
-0.3339
-0.39368
-0.42784
-0.46371
-0.49274
-0.52519
-0.56789
-0.5918
-0.61571
-0.63792
-0.655
-0.66183
-0.67037
-0.67378
-0.67891
-0.66695
-0.6567
-0.64646
-0.62767
-0.61742
-0.60717
-0.60034
-0.57985
-0.56789
-0.55252
-0.53202
-0.52007
-0.51494
-0.5064
-0.49787
-0.49616
-0.48762
-0.47737
-0.462
-0.46371
-0.462
-0.45687
-0.47737
-0.50128
-0.5474
-0.6123
-0.68745
-0.64475
-0.42442
-0.19044
0.019641
0.17677
0.32195
0.34757
0.29291
0.04526
-0.20068
-0.38343
-0.49616
-0.60205
-0.67378
-0.72502
-0.76772
-0.79505
-0.79846
-0.77968
-0.7626
-0.75064
-0.73185
-0.71648
-0.69769
-0.67891
-0.66695
-0.655
-0.65841
-0.67208
-0.67378
-0.66695
-0.66183
-0.655
-0.68574
-0.69599
-0.67549
-0.6123
-0.55935
-0.5269
-0.52348
-0.55081
-0.57814
-0.58668
-0.60717
-0.61742
-0.63792
-0.57131
-0.50982
-0.43126
-0.42101
-0.45517
-0.44492
-0.41759
-0.37148
-0.38514
-0.42101
-0.46371
-0.48591
-0.49616
-0.51153
-0.52519
-0.53032
-0.53715
-0.53715
-0.55081
-0.56618
-0.58155
-0.60034
-0.6123
-0.6123
-0.60205
-0.58668
-0.57131
-0.55594
-0.54056
-0.52861
-0.50811
-0.49103
-0.46371
-0.44321
-0.41247
-0.38685
-0.37319
-0.36635
-0.3544
-0.35098
-0.34244
-0.33903
-0.33903
-0.34244
-0.34757
-0.34927
-0.3544
-0.3544
-0.37148
-0.43126
-0.52007
-0.61401
-0.63279
-0.46883
-0.2912
-0.093083
0.094791
0.37489
0.64304
0.65158
0.38685
-0.026473
-0.30999
-0.48762
-0.64133
-0.75747
-0.83091
-0.87703
-0.90436
-0.91631
-0.91631
-0.90094
-0.8702
-0.82579
-0.78822
-0.75235
-0.71819
-0.69257
-0.67891
-0.66866
-0.67037
-0.63108
-0.6123
-0.58155
-0.60547
-0.61913
-0.62084
-0.60547
-0.60034
-0.60205
-0.59863
-0.59522
-0.58668
-0.57814
-0.58839
-0.63279
-0.62596
-0.56277
-0.46712
-0.41588
-0.43467
-0.44321
-0.43126
-0.39197
-0.38173
-0.42613
-0.48591
-0.52007
-0.54056
-0.56106
-0.58326
-0.59009
-0.59693
-0.60888
-0.62254
-0.6345
-0.64646
-0.64646
-0.64475
-0.64133
-0.64646
-0.64475
-0.64646
-0.64475
-0.6345
-0.60547
-0.58839
-0.55935
-0.53715
-0.51324
-0.49103
-0.47395
-0.44833
-0.4415
-0.42613
-0.40393
-0.38343
-0.37489
-0.36977
-0.36294
-0.36977
-0.36294
-0.36294
-0.35952
-0.35781
-0.35611
-0.35098
-0.35269
-0.36123
-0.35952
-0.36465
-0.36977
-0.38002
-0.39026
-0.40051
-0.40393
-0.3988
-0.40051
-0.40051
-0.3988
-0.3971
-0.40222
-0.40734
-0.39539
-0.39197
-0.38685
-0.38173
-0.38856
-0.39539
-0.3988
-0.39026
-0.39026
-0.39539
-0.3988
-0.40222
-0.40734
-0.40564
-0.40051
-0.40051
-0.40222
-0.40222
-0.40222
-0.40564
-0.42272
-0.45517
-0.52178
-0.59693
-0.6567
-0.58668
-0.4415
-0.27071
-0.094791
0.13749
0.52348
0.67378
0.53544
0.11016
-0.34927
-0.57985
-0.70623
-0.80017
-0.86507
-0.90606
-0.93851
-0.96072
-0.96243
-0.9573
-0.9351
-0.91802
-0.89411
-0.8719
-0.83091
-0.807
-0.79846
-0.79846
-0.79163
-0.77626
-0.77284
-0.77284
-0.78651
-0.79505
-0.77626
-0.73698
-0.72331
-0.73015
-0.76601
-0.78651
-0.78992
-0.77797
-0.75406
-0.72161
-0.68232
-0.64475
-0.62767
-0.64304
-0.66354
-0.6772
-0.69086
-0.69257
-0.6772
-0.66524
-0.64646
-0.63621
-0.61059
-0.5918
-0.57814
-0.56789
-0.55594
-0.54227
-0.52519
-0.5064
-0.5047
-0.49445
-0.48591
-0.47737
-0.47395
-0.46883
-0.46371
-0.462
-0.46371
-0.4415
-0.43467
-0.43126
-0.43638
-0.43467
-0.43126
-0.42442
-0.4193
-0.40564
-0.40905
-0.40051
-0.40393
-0.44833
-0.52007
-0.59693
-0.58668
-0.40222
-0.19044
0.031597
0.23484
0.41588
0.51153
0.53032
0.33049
0.11529
-0.12553
-0.33219
-0.5047
-0.62767
-0.70623
-0.77114
-0.80529
-0.81725
-0.80529
-0.78651
-0.75064
-0.71819
-0.68403
-0.655
-0.63621
-0.64304
-0.62767
-0.60034
-0.58326
-0.59009
-0.62596
-0.64475
-0.65158
-0.63792
-0.63279
-0.62425
-0.61059
-0.60717
-0.62254
-0.64304
-0.66012
-0.66354
-0.68403
-0.69769
-0.70282
-0.70623
-0.71136
-0.72331
-0.72502
-0.73185
-0.73185
-0.72502
-0.72161
-0.71136
-0.6994
-0.68232
-0.655
-0.6345
-0.60547
-0.57472
-0.5491
-0.5269
-0.5047
-0.48591
-0.46371
-0.43809
-0.42101
-0.40905
-0.40393
-0.40564
-0.42101
-0.42784
-0.42955
-0.43638
-0.48249
-0.54398
-0.61913
-0.61913
-0.46029
-0.25534
-0.057216
0.16994
0.49616
0.62767
0.56789
0.19556
-0.17165
-0.35611
-0.49445
-0.61571
-0.71648
-0.77455
-0.81042
-0.82237
-0.84116
-0.84116
-0.82067
-0.78822
-0.7421
-0.70965
-0.67208
-0.66012
-0.65158
-0.6123
-0.57643
-0.54056
-0.53373
-0.55081
-0.57985
-0.58668
-0.57643
-0.5696
-0.57814
-0.58839
-0.61571
-0.62425
-0.62767
-0.61913
-0.60376
-0.60888
-0.61401
-0.61742
-0.62084
-0.61913
-0.61913
-0.61571
-0.61401
-0.60888
-0.6123
-0.62425
-0.62767
-0.62425
-0.6123
-0.60205
-0.5918
-0.58326
-0.56789
-0.55081
-0.52178
-0.5064
-0.48933
-0.46883
-0.44663
-0.43638
-0.41418
-0.40393
-0.39197
-0.37831
-0.37148
-0.38002
-0.42613
-0.50299
-0.58497
-0.58497
-0.40564
-0.19727
0.023057
0.30487
0.61571
0.71648
0.63962
0.30828
0.055508
-0.10333
-0.25534
-0.43296
-0.5696
-0.64816
-0.70453
-0.73527
-0.76089
-0.7643
-0.74893
-0.70965
-0.68915
-0.66012
-0.63962
-0.61913
-0.63279
-0.60547
-0.5696
-0.53544
-0.5269
-0.53202
-0.56447
-0.56789
-0.53202
-0.53202
-0.5269
-0.57131
-0.60376
-0.61059
-0.61059
-0.60888
-0.60717
-0.61059
-0.61059
-0.60205
-0.60034
-0.60376
-0.59522
-0.60717
-0.61571
-0.62425
-0.62254
-0.61742
-0.60547
-0.59863
-0.59863
-0.59693
-0.59863
-0.58839
-0.58326
-0.57301
-0.55423
-0.53715
-0.51665
-0.49274
-0.46883
-0.45175
-0.43296
-0.41076
-0.38685
-0.37831
-0.36806
-0.34927
-0.34586
-0.33561
-0.32878
-0.32195
-0.32195
-0.32024
-0.32536
-0.3339
-0.34415
-0.34757
-0.34927
-0.35611
-0.36294
-0.36806
-0.38002
-0.38856
-0.39368
-0.39368
-0.40051
-0.40222
-0.40734
-0.41247
-0.41418
-0.41588
-0.40905
-0.41247
-0.40564
-0.40393
-0.40564
-0.40393
-0.40222
-0.39368
-0.38514
-0.37489
-0.36465
-0.36806
-0.37148
-0.36977
-0.37831
-0.38173
-0.38514
-0.39197
-0.40393
-0.40393
-0.39026
-0.40051
-0.40222
-0.3971
-0.40222
-0.40564
-0.40734
-0.40393
-0.40051
-0.40051
-0.39368
-0.39539
-0.40222
-0.40564
-0.40734
-0.40734
-0.41588
-0.41759
-0.41759
-0.4193
-0.42101
-0.41588
-0.43126
-0.45175
-0.51665
-0.60547
-0.69086
-0.67037
-0.52519
-0.36465
-0.2041
0.052092
0.41247
0.58497
0.49957
0.10504
-0.3339
-0.5474
-0.67208
-0.77284
-0.8497
-0.8924
-0.92827
-0.9573
-0.96413
-0.95389
-0.92656
-0.91119
-0.89923
-0.88557
-0.87703
-0.85653
-0.85141
-0.85141
-0.87703
-0.86507
-0.84458
-0.81213
-0.80017
-0.81554
-0.84287
-0.85312
-0.8275
-0.79505
-0.76943
-0.75406
-0.7421
-0.75235
-0.76943
-0.79334
-0.74893
-0.69599
-0.64987
-0.64304
-0.64816
-0.6123
-0.57643
-0.57131
-0.60205
-0.60034
-0.53032
-0.46712
-0.44492
-0.49274
-0.56789
-0.61571
-0.6345
-0.62084
-0.61059
-0.59522
-0.58497
-0.58326
-0.5696
-0.56789
-0.55423
-0.55081
-0.54398
-0.53202
-0.52519
-0.50811
-0.49787
-0.47908
-0.47054
-0.47054
-0.46029
-0.44492
-0.43296
-0.41076
-0.41076
-0.3971
-0.3971
-0.38343
-0.36806
-0.36635
-0.34586
-0.33732
-0.33561
-0.32878
-0.32536
-0.32878
-0.33049
-0.33049
-0.35098
-0.41588
-0.49274
-0.56789
-0.4842
-0.2895
-0.084543
0.15286
0.35269
0.55081
0.63792
0.52861
0.33219
0.11187
-0.10333
-0.30999
-0.4842
-0.59009
-0.67037
-0.72502
-0.75064
-0.74893
-0.73868
-0.71136
-0.68232
-0.66866
-0.66354
-0.66866
-0.66524
-0.63962
-0.61401
-0.58326
-0.60547
-0.61913
-0.64646
-0.66183
-0.6567
-0.63279
-0.61913
-0.62938
-0.66866
-0.69599
-0.71136
-0.7421
-0.75747
-0.7626
-0.75918
-0.75406
-0.74552
-0.73698
-0.72844
-0.71819
-0.70965
-0.70453
-0.69769
-0.69086
-0.68574
-0.68574
-0.67378
-0.66354
-0.65329
-0.63279
-0.60717
-0.58839
-0.5491
-0.51836
-0.49103
-0.46883
-0.45346
-0.42955
-0.42101
-0.40905
-0.3988
-0.39197
-0.39368
-0.39026
-0.38002
-0.38343
-0.37489
-0.36465
-0.35952
-0.3544
-0.36123
-0.3544
-0.35781
-0.35098
-0.34415
-0.34927
-0.35269
-0.35952
-0.36123
-0.36635
-0.36465
-0.36465
-0.35781
-0.35952
-0.36123
-0.35781
-0.36294
-0.36465
-0.36635
-0.36635
-0.3766
-0.38343
-0.38514
-0.38856
-0.39368
-0.39026
-0.39197
-0.3971
-0.39539
-0.3988
-0.40051
-0.40734
-0.40905
-0.40734
-0.41076
-0.41076
-0.41588
-0.42784
-0.43467
-0.42955
-0.42442
-0.42442
-0.4193
-0.4193
-0.43126
-0.44833
-0.4842
-0.55764
-0.62938
-0.62254
-0.49616
-0.36294
-0.23313
-0.046968
0.27071
0.61913
0.60376
0.3339
-0.10845
-0.3766
-0.50982
-0.64133
-0.75064
-0.82237
-0.87874
-0.91973
-0.94535
-0.94535
-0.94535
-0.92314
-0.90948
-0.87532
-0.8497
-0.82408
-0.807
-0.807
-0.80871
-0.80188
-0.79846
-0.79846
-0.81042
-0.78651
-0.75064
-0.72502
-0.71477
-0.73698
-0.74722
-0.74893
-0.74893
-0.75064
-0.74039
-0.71136
-0.69599
-0.71648
-0.7421
-0.76601
-0.71648
-0.66354
-0.62938
-0.65158
-0.64646
-0.60888
-0.53544
-0.53373
-0.5918
-0.63792
-0.64304
-0.62084
-0.5918
-0.59522
-0.6123
-0.62084
-0.61401
-0.60376
-0.59522
-0.58497
-0.58155
-0.57814
-0.57131
-0.55252
-0.54398
-0.52007
-0.50299
-0.48591
-0.48079
-0.46712
-0.45346
-0.4415
-0.42101
-0.41076
-0.40222
-0.40051
-0.39197
-0.38343
-0.37831
-0.3766
-0.36977
-0.36977
-0.36977
-0.36635
-0.36806
-0.38002
-0.39026
-0.4398
-0.49787
-0.58155
-0.55764
-0.37148
-0.18873
0.00085397
0.26217
0.48591
0.64646
0.61742
0.4398
0.269
0.081127
-0.12724
-0.35611
-0.52861
-0.62767
-0.71307
-0.76772
-0.79675
-0.78992
-0.77284
-0.74893
-0.73185
-0.71477
-0.70965
-0.71307
-0.68061
-0.64646
-0.6123
-0.60376
-0.61059
-0.64475
-0.65841
-0.61401
-0.60034
-0.57643
-0.60547
-0.64987
-0.69086
-0.69086
-0.69428
-0.69428
-0.70453
-0.70965
-0.70623
-0.70282
-0.71307
-0.72673
-0.73185
-0.70965
-0.68574
-0.67037
-0.67208
-0.67037
-0.65841
-0.64816
-0.63279
-0.61571
-0.60376
-0.59522
-0.57985
-0.56106
-0.55252
-0.54056
-0.52861
-0.51153
-0.50299
-0.52348
-0.55594
-0.6123
-0.5269
-0.29804
-0.093083
0.064048
0.20751
0.25192
0.29291
0.25363
0.15115
0.060632
-0.064048
-0.23826
-0.40905
-0.5269
-0.62254
-0.66866
-0.69599
-0.7199
-0.72331
-0.72673
-0.72331
-0.70111
-0.67549
-0.66183
-0.65158
-0.655
-0.64646
-0.59863
-0.57131
-0.53544
-0.54569
-0.55252
-0.5491
-0.54056
-0.5474
-0.56618
-0.58668
-0.60034
-0.5918
-0.57643
-0.58326
-0.60034
-0.61401
-0.63279
-0.64816
-0.66695
-0.67208
-0.67208
-0.67378
-0.67037
-0.68232
-0.70282
-0.70794
-0.70453
-0.69257
-0.67891
-0.65841
-0.62938
-0.60547
-0.58155
-0.55081
-0.5269
-0.51324
-0.49274
-0.48249
-0.47395
-0.46883
-0.49957
-0.53032
-0.57643
-0.43638
-0.22459
-0.038429
0.15115
0.28437
0.39026
0.36806
0.30487
0.17336
0.084543
-0.046968
-0.22289
-0.38685
-0.48933
-0.57472
-0.63621
-0.6772
-0.71136
-0.71477
-0.7199
-0.71648
-0.70794
-0.68915
-0.67891
-0.67208
-0.66695
-0.68745
-0.69428
-0.63621
-0.59009
-0.5696
-0.55594
-0.53715
-0.48591
-0.41076
-0.39026
-0.39026
-0.45175
-0.48591
-0.49616
-0.5047
-0.49957
-0.50299
-0.53202
-0.57814
-0.62767
-0.66012
-0.67549
-0.67891
-0.68574
-0.68403
-0.67891
-0.66524
-0.64987
-0.63962
-0.62084
-0.60034
-0.57472
-0.55935
-0.53715
-0.53032
-0.51836
-0.51494
-0.50128
-0.48591
-0.4842
-0.46029
-0.44663
-0.4398
-0.42955
-0.41418
-0.40905
-0.40051
-0.40222
-0.38856
-0.40051
-0.39539
-0.40051
-0.40393
-0.3988
-0.39368
-0.39026
-0.39539
-0.39197
-0.39026
-0.3971
-0.40734
-0.41759
-0.48591
-0.54227
-0.64816
-0.63279
-0.46371
-0.25875
0.00085397
0.34586
0.68403
0.72673
0.56106
0.14091
-0.12553
-0.2468
-0.39197
-0.52519
-0.63108
-0.70623
-0.76601
-0.79846
-0.8275
-0.83091
-0.82579
-0.81213
-0.76772
-0.73015
-0.68745
-0.6567
-0.62938
-0.64475
-0.64816
-0.64646
-0.66012
-0.655
-0.67037
-0.69599
-0.73527
-0.75064
-0.74039
-0.70794
-0.67891
-0.64987
-0.65158
-0.63108
-0.60034
-0.58497
-0.56277
-0.54398
-0.48591
-0.45858
-0.47566
-0.53544
-0.6123
-0.64987
-0.67891
-0.68061
-0.67891
-0.67891
-0.67037
-0.66183
-0.65158
-0.63621
-0.62596
-0.62425
-0.61742
-0.60034
-0.58497
-0.57814
-0.56106
-0.55252
-0.53544
-0.52861
-0.51324
-0.49445
-0.48762
-0.47566
-0.46712
-0.46371
-0.45687
-0.4398
-0.43638
-0.47566
-0.51153
-0.5491
-0.41759
-0.24338
-0.04526
0.14091
0.36635
0.5474
0.53544
0.38514
0.13237
0.014518
-0.11529
-0.26217
-0.41247
-0.5269
-0.62254
-0.69428
-0.73698
-0.77114
-0.79675
-0.79505
-0.77797
-0.75747
-0.74722
-0.73527
-0.73356
-0.75406
-0.71307
-0.67208
-0.63108
-0.60376
-0.58326
-0.55594
-0.51324
-0.47737
-0.47908
-0.5047
-0.53032
-0.54227
-0.5491
-0.55935
-0.59009
-0.6123
-0.63279
-0.655
-0.67891
-0.70965
-0.72673
-0.73527
-0.73868
-0.7421
-0.74039
-0.72331
-0.70282
-0.67891
-0.65158
-0.62425
-0.59693
-0.57131
-0.55252
-0.53373
-0.51324
-0.49445
-0.48079
-0.47054
-0.46029
-0.4842
-0.5269
-0.58497
-0.50982
-0.32365
-0.15798
-0.014518
0.14432
0.29291
0.40393
0.35098
0.1819
0.029889
-0.081127
-0.21264
-0.36977
-0.49616
-0.57985
-0.66354
-0.71648
-0.73868
-0.75576
-0.77626
-0.79163
-0.79846
-0.78822
-0.77968
-0.77114
-0.77626
-0.77968
-0.77455
-0.7643
-0.75064
-0.73356
-0.71477
-0.69599
-0.69086
-0.6772
-0.66695
-0.64816
-0.63279
-0.61401
-0.60376
-0.59351
-0.57985
-0.5696
-0.55594
-0.5474
-0.54056
-0.53373
-0.53544
-0.53715
-0.53202
-0.53544
-0.5474
-0.58155
-0.62254
-0.62938
-0.462
-0.30658
-0.1614
-0.07088
0.12895
0.44833
0.51665
0.39197
0.091375
-0.14944
-0.24167
-0.34244
-0.46712
-0.58155
-0.66866
-0.74381
-0.81725
-0.85995
-0.88386
-0.88044
-0.86849
-0.83604
-0.80529
-0.77284
-0.74381
-0.70965
-0.69428
-0.66866
-0.64816
-0.62938
-0.62084
-0.61059
-0.5918
-0.57985
-0.57301
-0.5696
-0.5696
-0.5696
-0.5696
-0.56618
-0.56789
-0.57301
-0.57131
-0.57472
-0.58497
-0.58839
-0.59009
-0.58668
-0.59009
-0.59009
-0.58155
-0.59351
-0.60034
-0.59522
-0.59693
-0.58839
-0.58155
-0.57472
-0.56447
-0.56106
-0.56277
-0.55935
-0.56106
-0.55594
-0.55081
-0.5474
-0.54569
-0.5474
-0.55081
-0.54569
-0.54398
-0.53202
-0.54398
-0.54398
-0.55423
-0.56277
-0.57301
-0.63279
-0.68403
-0.77626
-0.69599
-0.52178
-0.29291
-0.040137
0.38514
0.74722
0.78651
0.52861
0.058924
-0.21435
-0.35098
-0.49103
-0.62938
-0.72331
-0.77284
-0.82408
-0.84458
-0.8719
-0.88044
-0.8719
-0.83775
-0.80017
-0.75747
-0.72673
-0.73698
-0.72673
-0.72844
-0.71648
-0.7199
-0.70111
-0.71307
-0.73356
-0.74893
-0.76089
-0.74552
-0.7199
-0.68232
-0.6772
-0.66012
-0.67549
-0.68403
-0.68745
-0.64646
-0.60376
-0.58668
-0.59863
-0.64304
-0.69599
-0.73527
-0.7626
-0.77797
-0.78651
-0.78309
-0.77284
-0.77114
-0.75918
-0.74722
-0.73868
-0.73527
-0.73356
-0.73868
-0.73015
-0.72844
-0.70965
-0.69599
-0.68915
-0.67891
-0.67037
-0.67037
-0.6567
-0.68061
-0.69428
-0.73185
-0.62254
-0.41759
-0.22801
-0.072588
0.074295
0.17677
0.26729
0.22289
0.096499
-0.0093937
-0.13066
-0.2468
-0.38173
-0.48591
-0.55081
-0.60547
-0.64475
-0.65158
-0.64133
-0.64475
-0.64304
-0.62425
-0.60717
-0.57301
-0.56618
-0.56277
-0.56618
-0.58497
-0.60205
-0.62767
-0.65329
-0.67378
-0.67891
-0.68232
-0.67891
-0.66012
-0.64987
-0.63621
-0.61913
-0.59863
-0.58155
-0.5696
-0.54569
-0.52861
-0.51324
-0.49274
-0.47225
-0.46371
-0.45858
-0.44663
-0.43638
-0.42442
-0.40734
-0.3988
-0.39539
-0.39026
-0.38343
-0.38002
-0.37148
-0.36977
-0.36977
-0.37148
-0.37319
-0.35952
-0.36123
-0.3544
-0.34757
-0.34927
-0.35781
-0.36123
-0.36635
-0.36635
-0.36635
-0.37148
-0.37319
-0.38856
-0.39197
-0.39026
-0.39368
-0.39026
-0.39026
-0.39197
-0.39026
-0.39197
-0.39197
-0.39197
-0.39197
-0.38685
-0.38343
-0.38173
-0.38343
-0.38856
-0.38856
-0.39197
-0.39539
-0.39368
-0.40564
-0.41418
-0.41588
-0.45346
-0.5047
-0.5918
-0.59863
-0.44663
-0.24338
0.0042699
0.38343
0.82408
0.92656
0.77455
0.29974
-0.057216
-0.21776
-0.34415
-0.47908
-0.56447
-0.63279
-0.69257
-0.73015
-0.74893
-0.74722
-0.7199
-0.68403
-0.65841
-0.64475
-0.62425
-0.61571
-0.60376
-0.60034
-0.60717
-0.61571
-0.62596
-0.61913
-0.59009
-0.57131
-0.57643
-0.58839
-0.61571
-0.62425
-0.62254
-0.62767
-0.62938
-0.63962
-0.65158
-0.68061
-0.71307
-0.70282
-0.69257
-0.67549
-0.64816
-0.58155
-0.52007
-0.44833
-0.41247
-0.41418
-0.40905
-0.41588
-0.39368
-0.40734
-0.45517
-0.53032
-0.59351
-0.62938
-0.64816
-0.65329
-0.65841
-0.65841
-0.64987
-0.63962
-0.62596
-0.60888
-0.5918
-0.57472
-0.56618
-0.55423
-0.53886
-0.52861
-0.51324
-0.49616
-0.48249
-0.46712
-0.44321
-0.42955
-0.4193
-0.40734
-0.3971
-0.39026
-0.40222
-0.43809
-0.4842
-0.48762
-0.32536
-0.19044
-0.035013
0.12383
0.29974
0.42613
0.42442
0.32707
0.22118
0.14432
-0.0076857
-0.18531
-0.35098
-0.46712
-0.55764
-0.62425
-0.65841
-0.68232
-0.69086
-0.69257
-0.68745
-0.66866
-0.64816
-0.64646
-0.64646
-0.6567
-0.67208
-0.69086
-0.69769
-0.69599
-0.69599
-0.69257
-0.68232
-0.67208
-0.66354
-0.64987
-0.63279
-0.62254
-0.61059
-0.5918
-0.58155
-0.56618
-0.5491
-0.53715
-0.53544
-0.52861
-0.52519
-0.52178
-0.52007
-0.51324
-0.50299
-0.50299
-0.50128
-0.49787
-0.49103
-0.48933
-0.47395
-0.46541
-0.46029
-0.4415
-0.4415
-0.43809
-0.4398
-0.43638
-0.4398
-0.44833
-0.44492
-0.45004
-0.44833
-0.44492
-0.4398
-0.42784
-0.42784
-0.45004
-0.49103
-0.53373
-0.48762
-0.41418
-0.32024
-0.30828
-0.21776
0.23826
0.69428
0.88898
0.67549
0.14432
-0.13237
-0.29633
-0.42784
-0.56447
-0.68915
-0.78138
-0.83433
-0.87532
-0.87703
-0.86166
-0.82921
-0.79334
-0.76089
-0.7626
-0.75747
-0.75406
-0.73527
-0.73356
-0.72502
-0.72844
-0.72161
-0.72161
-0.7199
-0.72161
-0.73527
-0.75576
-0.76772
-0.76601
-0.73698
-0.71477
-0.70623
-0.70623
-0.71477
-0.70794
-0.72331
-0.71648
-0.69428
-0.6772
-0.67378
-0.68061
-0.68061
-0.68061
-0.67549
-0.67378
-0.6772
-0.67037
-0.66524
-0.64987
-0.63962
-0.64475
-0.63792
-0.63621
-0.63279
-0.62084
-0.60717
-0.6123
-0.60376
-0.60547
-0.61401
-0.64133
-0.66524
-0.68574
-0.58839
-0.41247
-0.25192
-0.089667
0.048676
0.16652
0.18702
0.15115
0.043553
-0.0093937
-0.074295
-0.19044
-0.28779
-0.40051
-0.52007
-0.61401
-0.65841
-0.66354
-0.63962
-0.6123
-0.60376
-0.59351
-0.57131
-0.54227
-0.53032
-0.53373
-0.55594
-0.56618
-0.58668
-0.60376
-0.63108
-0.655
-0.66866
-0.67208
-0.68061
-0.67891
-0.6772
-0.67037
-0.66012
-0.64987
-0.62767
-0.61059
-0.59522
-0.58497
-0.56277
-0.55594
-0.54398
-0.5269
-0.51153
-0.5047
-0.49445
-0.48079
-0.46371
-0.45687
-0.45175
-0.45004
-0.4415
-0.43126
-0.42272
-0.42613
-0.42613
-0.42101
-0.4193
-0.41076
-0.40393
-0.40734
-0.40905
-0.41247
-0.40222
-0.41076
-0.40905
-0.40905
-0.40222
-0.41418
-0.41418
-0.42101
-0.42784
-0.4398
-0.43467
-0.43467
-0.4415
-0.43809
-0.44321
-0.45175
-0.45517
-0.45175
-0.45517
-0.46029
-0.46371
-0.462
-0.49103
-0.5491
-0.62425
-0.63108
-0.49103
-0.31853
-0.11358
0.2468
0.74893
0.94876
0.86507
0.40051
-0.0025619
-0.17848
-0.30316
-0.45004
-0.5491
-0.63792
-0.70965
-0.7643
-0.81725
-0.84116
-0.83945
-0.79505
-0.75235
-0.7199
-0.71307
-0.71648
-0.71307
-0.69599
-0.66866
-0.65841
-0.655
-0.67378
-0.69086
-0.70623
-0.68915
-0.64987
-0.59693
-0.57814
-0.58326
-0.60717
-0.61401
-0.57814
-0.48079
-0.45858
-0.45517
-0.50982
-0.56447
-0.61059
-0.6345
-0.66866
-0.6994
-0.72161
-0.72331
-0.72161
-0.72161
-0.71819
-0.71136
-0.71136
-0.70282
-0.69086
-0.68574
-0.68061
-0.67208
-0.66354
-0.6567
-0.65158
-0.63279
-0.62254
-0.60376
-0.58326
-0.56618
-0.55252
-0.53032
-0.52348
-0.51153
-0.5047
-0.49103
-0.48249
-0.46883
-0.46029
-0.44321
-0.43638
-0.42955
-0.41759
-0.40734
-0.40051
-0.39368
-0.38343
-0.37831
-0.37319
-0.37148
-0.37319
-0.3766
-0.37489
-0.36977
-0.37148
-0.36806
-0.36806
-0.36465
-0.37148
-0.37319
-0.37319
-0.39026
-0.3971
-0.39539
-0.43126
-0.4842
-0.55594
-0.49957
-0.3544
-0.15969
0.067464
0.49616
0.90948
1
0.79334
0.29804
-0.017933
-0.16652
-0.2895
-0.39026
-0.47908
-0.56447
-0.64304
-0.69428
-0.72673
-0.73868
-0.74552
-0.72502
-0.70111
-0.6772
-0.66354
-0.64816
-0.63962
-0.63621
-0.63108
-0.63621
-0.64475
-0.66866
-0.68915
-0.71307
-0.71136
-0.68574
-0.63962
-0.61571
-0.60034
-0.59693
-0.60376
-0.59863
-0.57472
-0.56789
-0.58668
-0.62596
-0.6567
-0.67891
-0.69086
-0.68232
-0.68915
-0.6994
-0.70794
-0.71477
-0.72502
-0.72673
-0.72844
-0.73015
-0.73868
-0.73185
-0.73185
-0.73698
-0.73527
-0.71648
-0.70282
-0.69428
-0.67037
-0.66695
-0.64987
-0.64475
-0.63621
-0.64133
-0.65158
-0.63279
-0.47054
-0.31341
-0.14603
0.0059778
0.13578
0.23143
0.2468
0.17848
0.074295
-0.0059778
-0.11699
-0.24167
-0.36977
-0.46883
-0.57814
-0.62084
-0.64816
-0.63621
-0.62938
-0.63792
-0.63621
-0.61571
-0.59009
-0.58497
-0.59351
-0.62084
-0.63621
-0.63792
-0.65329
-0.67891
-0.70111
-0.70623
-0.7199
-0.7199
-0.70794
-0.69086
-0.67891
-0.67891
-0.6567
-0.64304
-0.63621
-0.60888
-0.59009
-0.57985
-0.57131
-0.55594
-0.54398
-0.52178
-0.51836
-0.49616
-0.49957
-0.50299
-0.48591
-0.48591
-0.49274
-0.5047
-0.53032
-0.49445
-0.35098
-0.23997
-0.11529
0.04526
0.30999
0.50299
0.5047
0.37319
0.19385
0.094791
-0.043553
-0.22972
-0.38514
-0.48249
-0.55252
-0.57643
-0.59351
-0.6123
-0.61913
-0.62425
-0.62596
-0.63621
-0.66183
-0.68745
-0.70794
-0.71307
-0.72673
-0.73527
-0.73527
-0.73527
-0.73868
-0.74381
-0.73698
-0.72673
-0.70965
-0.69257
-0.67549
-0.66524
-0.64646
-0.62425
-0.61401
-0.59693
-0.58497
-0.57472
-0.55764
-0.55764
-0.54398
-0.53886
-0.52348
-0.5064
-0.49616
-0.49616
-0.50128
-0.49103
-0.49445
-0.49274
-0.48933
-0.4842
-0.47908
-0.47566
-0.47054
-0.47908
-0.47737
-0.48079
-0.48249
-0.47225
-0.462
-0.462
-0.46883
-0.47395
-0.46371
-0.46883
-0.46712
-0.45687
-0.45517
-0.45858
-0.46541
-0.46029
-0.46712
-0.46883
-0.46712
-0.47395
-0.47054
-0.49103
-0.48762
-0.49274
-0.49445
-0.48591
-0.48762
-0.48591
-0.51665
-0.56447
-0.63621
-0.64133
-0.49787
-0.32707
-0.12383
0.26558
0.76089
0.89582
0.75918
0.25192
-0.13749
-0.2912
-0.40734
-0.5269
-0.62596
-0.71136
-0.77968
-0.82408
-0.85141
-0.85482
-0.82237
-0.78651
-0.75406
-0.72673
-0.72331
-0.70965
-0.69257
-0.67378
-0.66354
-0.66183
-0.66183
-0.67208
-0.69769
-0.72673
-0.70623
-0.68232
-0.62425
-0.56277
-0.56106
-0.55081
-0.55764
-0.55935
-0.5474
-0.53032
-0.55081
-0.56618
-0.61742
-0.66183
-0.69257
-0.71819
-0.73185
-0.74722
-0.75747
-0.76943
-0.76601
-0.7643
-0.76772
-0.77114
-0.77114
-0.76772
-0.7626
-0.74722
-0.73698
-0.73527
-0.73015
-0.71477
-0.70111
-0.68232
-0.66866
-0.64475
-0.6345
-0.62938
-0.62254
-0.63792
-0.64304
-0.64646
-0.53715
-0.40393
-0.24167
-0.058924
0.15969
0.32365
0.37148
0.27583
0.074295
-0.014518
-0.10162
-0.21435
-0.33561
-0.46712
-0.55423
-0.59522
-0.60034
-0.59863
-0.60547
-0.63792
-0.63621
-0.61913
-0.59863
-0.59693
-0.61401
-0.64304
-0.64304
-0.655
-0.67037
-0.69769
-0.70623
-0.71648
-0.72161
-0.72331
-0.7199
-0.71307
-0.70794
-0.69428
-0.67891
-0.66695
-0.65329
-0.62767
-0.61571
-0.59693
-0.58155
-0.5696
-0.56277
-0.56106
-0.54569
-0.53886
-0.53032
-0.52007
-0.51665
-0.50299
-0.49787
-0.4842
-0.47908
-0.47054
-0.46371
-0.45687
-0.462
-0.462
-0.45346
-0.44492
-0.4415
-0.43467
-0.42613
-0.43467
-0.42955
-0.42272
-0.42272
-0.42272
-0.42613
-0.42613
-0.43126
-0.42272
-0.43467
-0.43638
-0.44492
-0.4415
-0.4398
-0.45175
-0.45858
-0.47566
-0.48591
-0.49445
-0.49616
-0.49616
-0.49616
-0.49445
-0.49616
-0.50299
-0.51494
-0.5269
-0.5696
-0.64133
-0.63621
-0.49103
-0.32536
-0.12553
0.27412
0.76089
0.88728
0.75747
0.26046
-0.11529
-0.25705
-0.36123
-0.48249
-0.57131
-0.65329
-0.72331
-0.7848
-0.83775
-0.84799
-0.82921
-0.7848
-0.73527
-0.71307
-0.70623
-0.70111
-0.69599
-0.68915
-0.68232
-0.6772
-0.66524
-0.66524
-0.67549
-0.68061
-0.655
-0.61571
-0.57643
-0.50982
-0.50982
-0.48762
-0.47054
-0.4842
-0.46883
-0.42784
-0.42101
-0.42101
-0.47054
-0.53886
-0.60547
-0.6567
-0.69257
-0.71477
-0.72844
-0.73185
-0.73868
-0.74552
-0.75064
-0.74722
-0.73527
-0.72844
-0.71648
-0.70453
-0.70111
-0.70111
-0.69086
-0.68061
-0.67549
-0.65841
-0.64646
-0.6345
-0.62938
-0.61401
-0.60547
-0.59863
-0.58155
-0.56618
-0.55764
-0.5491
-0.52861
-0.52519
-0.51665
-0.5047
-0.49957
-0.49274
-0.49274
-0.48933
-0.48591
-0.48591
-0.47737
-0.47225
-0.47566
-0.48249
-0.47054
-0.47737
-0.47225
-0.46712
-0.46541
-0.46712
-0.46371
-0.46371
-0.46029
-0.45687
-0.45346
-0.44833
-0.45346
-0.45346
-0.45517
-0.45517
-0.45346
-0.45004
-0.4415
-0.44833
-0.44321
-0.45517
-0.45858
-0.45687
-0.49274
-0.53886
-0.63621
-0.56447
-0.42101
-0.20068
0.10333
0.6123
0.94364
0.98975
0.6567
0.15628
-0.072588
-0.20751
-0.33219
-0.44833
-0.57643
-0.65841
-0.74722
-0.81554
-0.84458
-0.80017
-0.74893
-0.69428
-0.6772
-0.69086
-0.69428
-0.69769
-0.69257
-0.67891
-0.68061
-0.67037
-0.655
-0.65329
-0.66183
-0.62084
-0.60888
-0.57814
-0.5474
-0.55764
-0.55594
-0.53544
-0.53373
-0.49616
-0.4398
-0.41759
-0.41418
-0.46712
-0.53715
-0.60547
-0.64987
-0.68061
-0.69599
-0.7199
-0.7421
-0.75064
-0.75576
-0.74722
-0.75235
-0.74722
-0.75235
-0.75235
-0.75406
-0.75576
-0.75064
-0.75406
-0.74381
-0.73356
-0.72502
-0.70965
-0.70111
-0.69086
-0.68745
-0.67378
-0.66354
-0.64304
-0.62596
-0.60717
-0.59693
-0.57814
-0.56277
-0.56447
-0.54398
-0.52861
-0.5047
-0.49274
-0.4842
-0.47395
-0.46883
-0.46029
-0.45175
-0.45004
-0.44833
-0.44492
-0.43467
-0.43296
-0.42955
-0.42613
-0.4193
-0.42101
-0.4193
-0.41759
-0.41418
-0.40564
-0.39368
-0.39539
-0.3971
-0.40393
-0.39368
-0.40222
-0.3971
-0.38856
-0.37831
-0.38173
-0.39197
-0.40222
-0.45175
-0.51494
-0.55081
-0.44663
-0.29633
-0.086251
0.25875
0.73356
0.98975
0.95047
0.54569
0.10162
-0.10162
-0.21947
-0.36123
-0.46541
-0.55423
-0.62084
-0.68915
-0.73868
-0.77455
-0.76943
-0.74722
-0.70794
-0.68061
-0.67208
-0.66524
-0.67378
-0.65329
-0.66354
-0.64475
-0.63962
-0.64304
-0.63279
-0.62596
-0.59522
-0.57131
-0.54398
-0.5269
-0.54227
-0.54227
-0.52348
-0.49787
-0.42613
-0.36806
-0.36294
-0.37148
-0.40393
-0.4415
-0.49445
-0.52178
-0.52178
-0.51836
-0.55081
-0.5918
-0.62425
-0.61059
-0.57643
-0.53544
-0.52348
-0.46712
-0.38343
-0.33049
-0.32024
-0.35269
-0.36635
-0.38173
-0.40051
-0.43638
-0.49274
-0.52007
-0.53544
-0.55935
-0.55081
-0.53715
-0.5047
-0.45175
-0.42955
-0.42442
-0.45004
-0.49616
-0.55935
-0.58668
-0.60888
-0.62084
-0.63279
-0.63792
-0.65329
-0.6567
-0.655
-0.64304
-0.64304
-0.63792
-0.63279
-0.62767
-0.62938
-0.62425
-0.62084
-0.60888
-0.59009
-0.57814
-0.57131
-0.57131
-0.56106
-0.55423
-0.55252
-0.53715
-0.52348
-0.5269
-0.51665
-0.52178
-0.53032
-0.51153
-0.5047
-0.49274
-0.48933
-0.48762
-0.47054
-0.47395
-0.46883
-0.46371
-0.46029
-0.45858
-0.45517
-0.462
-0.45858
-0.45517
-0.45687
-0.44833
-0.45517
-0.45175
-0.45687
-0.45858
-0.45687
-0.45175
-0.45517
-0.45346
-0.45346
-0.46712
-0.46712
-0.47395
-0.47054
-0.46712
-0.46541
-0.45687
-0.45517
-0.45346
-0.44492
-0.4398
-0.43126
-0.4415
-0.48591
-0.5269
-0.59863
-0.50811
-0.3766
-0.18702
0.12553
0.62596
0.95389
0.95218
0.5696
0.057216
-0.19556
-0.32024
-0.43296
-0.50811
-0.58839
-0.67037
-0.7199
-0.78309
-0.81213
-0.807
-0.76601
-0.72502
-0.67891
-0.67891
-0.67037
-0.65841
-0.65158
-0.66354
-0.6994
-0.71648
-0.71648
-0.68915
-0.62254
-0.59522
-0.59693
-0.63792
-0.63962
-0.59351
-0.58326
-0.5918
-0.64133
-0.67891
-0.69769
-0.70965
-0.72161
-0.72161
-0.72502
-0.69769
-0.66012
-0.67378
-0.68574
-0.67378
-0.62596
-0.56618
-0.5064
-0.49103
-0.40564
-0.2912
-0.19385
-0.17506
-0.24851
-0.33903
-0.42784
-0.47737
-0.5269
-0.58155
-0.61742
-0.63279
-0.62425
-0.61742
-0.63279
-0.63279
-0.60376
-0.57985
-0.56618
-0.58497
-0.61913
-0.63279
-0.63279
-0.63792
-0.63792
-0.65158
-0.64646
-0.66183
-0.66183
-0.66524
-0.66012
-0.655
-0.64475
-0.63279
-0.62938
-0.62596
-0.61401
-0.60034
-0.59863
-0.59009
-0.58155
-0.57131
-0.56106
-0.5491
-0.53715
-0.53715
-0.51836
-0.50982
-0.49957
-0.49616
-0.48933
-0.48079
-0.47225
-0.462
-0.45517
-0.45346
-0.45175
-0.44492
-0.43809
-0.43126
-0.42613
-0.42613
-0.42784
-0.43467
-0.44321
-0.44833
-0.46029
-0.45687
-0.46029
-0.46029
-0.47054
-0.47225
-0.48249
-0.47908
-0.47908
-0.47566
-0.47225
-0.4842
-0.48249
-0.48933
-0.49103
-0.4842
-0.48591
-0.53202
-0.59351
-0.63792
-0.5491
-0.42955
-0.25705
0.033305
0.51665
0.85312
0.8719
0.50982
0.033305
-0.19898
-0.3339
-0.44492
-0.56106
-0.63792
-0.6994
-0.75235
-0.79163
-0.83945
-0.86849
-0.85312
-0.79675
-0.75576
-0.72161
-0.72673
-0.72502
-0.73698
-0.72844
-0.73698
-0.73868
-0.73015
-0.72502
-0.71648
-0.6994
-0.67549
-0.65158
-0.6567
-0.67549
