-0.35844
-0.39211
-0.39654
-0.35312
-0.26097
-0.16704
-0.1183
-0.144
-0.23261
-0.39211
-0.56934
-0.70669
-0.72619
-0.59149
-0.36198
-0.061586
0.25742
0.55428
0.7953
0.88392
0.83872
0.70492
0.51086
0.29464
0.041205
-0.21311
-0.44351
-0.59858
-0.6739
-0.69163
-0.65529
-0.59858
-0.53212
-0.47718
-0.42224
-0.34515
-0.25388
-0.16172
-0.12362
-0.14311
-0.21489
-0.2973
-0.40097
-0.50022
-0.50465
-0.41338
-0.20514
0.02171
0.16704
0.19451
0.13514
0.046522
-0.0607
-0.13514
-0.14134
-0.067789
0.090829
0.2521
0.37439
0.45857
0.48516
0.42224
0.27603
0.27603
0.073992
-0.11918
-0.28135
-0.40275
-0.4763
-0.52681
-0.56225
-0.60744
-0.63403
-0.65973
-0.64023
-0.57111
-0.47009
-0.36287
-0.27957
-0.22552
-0.17147
-0.1183
-0.058042
-0.024369
-0.019052
-0.059814
-0.14931
-0.2521
-0.3549
-0.3416
-0.2778
-0.12096
0.024369
0.17147
0.31502
0.43553
0.48959
0.48516
0.42667
0.31945
0.19008
0.052725
-0.062472
-0.16526
-0.24856
-0.33717
-0.42136
-0.49047
-0.54984
-0.58352
-0.58529
-0.56491
-0.52858
-0.4887
-0.45857
-0.44351
-0.45326
-0.48339
-0.46921
-0.44705
-0.40097
-0.39832
-0.42579
-0.42401
-0.3735
-0.27692
-0.17324
-0.073106
-0.0022153
0.11387
0.17324
0.19273
0.20957
0.24679
0.34692
0.45237
0.48782
0.47009
0.4249
0.35844
0.25742
0.11918
-0.054497
-0.2078
-0.31768
-0.36642
-0.38414
-0.39566
-0.40895
-0.40629
-0.36996
-0.31502
-0.26805
-0.24413
-0.2716
-0.29464
-0.30616
-0.28932
-0.26628
-0.28223
-0.3673
-0.50642
-0.6615
-0.71112
-0.6358
-0.41693
-0.17235
-0.0084183
0.042977
0.026141
0.027913
0.042091
0.098804
0.15463
0.25299
0.35844
0.43819
0.45591
0.41249
0.31679
0.17856
0.038547
-0.092601
-0.20425
-0.29641
-0.37971
-0.44351
-0.48782
-0.52149
-0.53212
-0.53389
-0.53478
-0.53744
-0.54807
-0.57023
-0.5782
-0.55162
-0.46123
-0.30261
-0.11564
0.053611
0.15286
0.18742
0.15552
0.087284
-0.016393
-0.1307
-0.2459
-0.25476
-0.19362
-0.048294
0.12805
0.30704
0.45326
0.53833
0.52681
0.41604
0.24767
0.038547
-0.15817
-0.29375
-0.38059
-0.43819
-0.49313
-0.54541
-0.5658
-0.54541
-0.4949
-0.45237
-0.44085
-0.45769
-0.48161
-0.47009
-0.41693
-0.33363
-0.26362
-0.22286
-0.20868
-0.19362
-0.16172
-0.12184
-0.085512
-0.067789
-0.093487
-0.16261
-0.18121
-0.17324
-0.078423
0.064245
0.19982
0.31945
0.38857
0.3868
0.3292
0.2202
0.084626
-0.024369
-0.092601
-0.12716
-0.17412
-0.2459
-0.30439
-0.3416
-0.3673
-0.38059
-0.40541
-0.41693
-0.37794
-0.32477
-0.25388
-0.20514
-0.20514
-0.25565
-0.36819
-0.48959
-0.54896
-0.49845
-0.34603
-0.16172
-0.026141
0.018166
-0.0048737
-0.07665
-0.12539
-0.16438
-0.12273
-0.014621
0.18653
0.36376
0.46478
0.46743
0.40275
0.29553
0.16526
0.024369
-0.082853
-0.18564
-0.29907
-0.42224
-0.54098
-0.62782
-0.67833
-0.6934
-0.6677
-0.59947
-0.51794
-0.44174
-0.38946
-0.3549
-0.34426
-0.36021
-0.3992
-0.45946
-0.49845
-0.44971
-0.32831
-0.13779
0.035888
0.15286
0.19628
0.18476
0.10501
0.016393
-0.046522
-0.025255
0.040319
0.15995
0.26274
0.38325
0.49934
0.6039
0.69606
0.75454
0.77492
0.71998
0.6296
0.47718
0.31591
0.13957
-0.022596
-0.16349
-0.26362
-0.34338
-0.40363
-0.4568
-0.5144
-0.55516
-0.54187
-0.41515
-0.19008
0.089942
0.34249
0.49579
0.56491
0.54541
0.46743
0.35667
0.24679
0.1759
0.17412
0.23881
0.30439
0.35401
0.3735
0.41161
0.48516
0.56314
0.61719
0.6296
0.59415
0.50377
0.38768
0.25033
0.12007
0.0057599
-0.092601
-0.16172
-0.21666
-0.23881
-0.26274
-0.27514
-0.27957
-0.2654
-0.27426
-0.33186
-0.47187
-0.66061
-0.78024
-0.78201
-0.6677
-0.50022
-0.31325
-0.097918
0.079309
0.19273
0.27869
0.27869
0.32388
0.36198
0.4187
0.48693
0.55428
0.61276
0.65707
0.66416
0.59858
0.44971
0.24147
0.019052
-0.17235
-0.30439
-0.38591
-0.44971
-0.49756
-0.55162
-0.60567
-0.65086
-0.67036
-0.65795
-0.62517
-0.58883
-0.55428
-0.53124
-0.51794
-0.5144
-0.51174
-0.52592
-0.59061
-0.65264
-0.69074
-0.64909
-0.54364
-0.43465
-0.32122
-0.20337
-0.081967
0.011077
0.075764
0.13248
0.19451
0.28046
0.35755
0.4311
0.49225
0.51617
0.47984
0.34781
0.17678
0.032344
-0.085512
-0.19096
-0.29907
-0.393
-0.4311
-0.42933
-0.41604
-0.43288
-0.50731
-0.62782
-0.77404
-0.8529
-0.83341
-0.72353
-0.58618
-0.47895
-0.41958
-0.37616
-0.32477
-0.25122
-0.17412
-0.12805
-0.10235
-0.11653
-0.17235
-0.2654
-0.40009
-0.51794
-0.59149
-0.53212
-0.36642
-0.15995
0.037661
0.1821
0.26185
0.26894
0.18742
0.065131
-0.061586
-0.15817
-0.23704
-0.30439
-0.36198
-0.41338
-0.46035
-0.50731
-0.56048
-0.60301
-0.62605
-0.63137
-0.61542
-0.59149
-0.57377
-0.57997
-0.59947
-0.62605
-0.62339
-0.53567
-0.39566
-0.19273
-0.018166
0.094373
0.11387
0.048294
-0.016393
-0.0039876
0.022596
0.087284
0.13248
0.19628
0.25122
0.29464
0.32388
0.37705
0.44085
0.49845
0.48604
0.39477
0.21311
-0.025255
-0.26274
-0.4568
-0.57909
-0.65618
-0.7315
-0.83429
-0.93886
-1
-0.94506
-0.7634
-0.50554
-0.27957
-0.15906
-0.13691
-0.16526
-0.20248
-0.23261
-0.25476
-0.27337
-0.31502
-0.35667
-0.38591
-0.39566
-0.35667
-0.31502
-0.29907
-0.31768
-0.37616
-0.43553
-0.48782
-0.49225
-0.42136
-0.26805
-0.069561
0.1121
0.22641
0.26008
0.25033
0.1759
0.02171
-0.1759
-0.32654
-0.40718
-0.39389
-0.37262
-0.34515
-0.28312
-0.20337
-0.12273
-0.095259
-0.1183
-0.18476
-0.25388
-0.31768
-0.29907
-0.21134
-0.057156
0.10058
0.24324
0.34072
0.42579
0.46212
0.45148
0.39832
0.31413
0.21489
0.10589
-0.0048737
-0.10678
-0.19008
-0.27249
-0.3549
-0.43465
-0.49845
-0.53567
-0.55162
-0.56402
-0.57377
-0.55605
-0.52415
-0.4949
-0.49668
-0.52769
-0.54896
-0.54187
-0.50111
-0.47541
-0.43376
-0.38768
-0.30793
-0.22286
-0.18653
-0.21489
-0.28401
-0.3292
-0.30439
-0.21755
-0.11121
-0.018166
0.048294
0.097031
0.11653
0.089942
0.035888
-0.022596
-0.073106
-0.10146
-0.11564
-0.11387
-0.13159
-0.16083
-0.21046
-0.28312
-0.37085
-0.45857
-0.52149
-0.54896
-0.55516
-0.5463
-0.53833
-0.53301
-0.53035
-0.54364
-0.59238
-0.6872
-0.82012
-0.88746
-0.82543
-0.64112
-0.38591
-0.18121
0.00044307
0.16172
0.31236
0.43908
0.51706
0.53655
0.47895
0.39654
0.30084
0.23615
0.1821
0.14134
0.097918
0.059814
0.030572
0.0057599
-0.022596
-0.090829
-0.17412
-0.30173
-0.42313
-0.52237
-0.572
-0.57023
-0.54807
-0.52237
-0.4887
-0.43465
-0.36198
-0.29907
-0.24856
-0.23172
-0.24058
-0.25919
-0.26894
-0.26805
-0.29996
-0.39743
-0.57909
-0.76429
-0.87417
-0.84759
-0.70492
-0.52503
-0.34249
-0.16438
-0.037661
0.035888
0.028799
0.011963
0.013735
0.092601
0.22729
0.40097
0.54364
0.59061
0.52592
0.35844
0.17324
-0.0075321
-0.12982
-0.21932
-0.27603
-0.33097
-0.38237
-0.44085
-0.4949
-0.5401
-0.56845
-0.59504
-0.60567
-0.62339
-0.61365
-0.57377
-0.50465
-0.42579
-0.34781
-0.28666
-0.2335
-0.20603
-0.20957
-0.24502
-0.35224
-0.47895
-0.60301
-0.6358
-0.58263
-0.49845
-0.45946
-0.46212
-0.45857
-0.38325
-0.18033
0.074878
0.35667
0.58883
0.73062
0.77581
0.69163
0.51174
0.32211
0.14843
0.010191
-0.11387
-0.22109
-0.33097
-0.41338
-0.49136
-0.55428
-0.60301
-0.59681
-0.56136
-0.49047
-0.41072
-0.3611
-0.32122
-0.3097
-0.31059
-0.31591
-0.31413
-0.30173
-0.27869
-0.24945
-0.24679
-0.2716
-0.37085
-0.50199
-0.60567
-0.6101
-0.50377
-0.31679
-0.15729
-0.053611
-0.030572
-0.061586
-0.094373
-0.073992
-0.058928
-0.0075321
0.032344
0.092601
0.15552
0.21755
0.26628
0.33097
0.37439
0.3735
0.31059
0.19982
0.07665
-0.058042
-0.18919
-0.29287
-0.39034
-0.47187
-0.53389
-0.5844
-0.58529
-0.56757
-0.53212
-0.49047
-0.40275
-0.28046
-0.12539
0.047408
0.19628
0.30527
0.36819
0.34781
0.25033
0.097918
-0.073992
-0.22995
-0.35135
-0.43996
-0.49934
-0.51972
-0.50908
-0.47452
-0.42844
-0.38591
-0.35933
-0.36021
-0.38591
-0.41072
-0.38768
-0.32477
-0.24236
-0.19628
-0.19185
-0.22375
-0.26362
-0.28401
-0.29818
-0.29021
-0.26805
-0.25742
-0.26805
-0.31945
-0.38857
-0.40984
-0.34338
-0.20337
-0.040319
0.12539
0.27071
0.4249
0.53124
0.54364
0.47009
0.35224
0.23793
0.14045
0.020824
-0.14045
-0.32388
-0.4825
-0.57377
-0.59681
-0.57111
-0.52681
-0.47009
-0.41338
-0.37173
-0.34072
-0.31768
-0.29464
-0.27337
-0.24679
-0.2202
-0.21134
-0.21489
-0.23172
-0.2459
-0.2397
-0.21932
-0.19185
-0.16704
-0.13779
-0.10323
-0.055383
0.010191
0.069561
0.12096
0.15995
0.19362
0.21311
0.19185
0.12982
0.052725
-0.0031015
-0.022596
-0.037661
-0.053611
-0.075764
-0.11564
-0.16438
-0.23172
-0.30173
-0.35667
-0.37173
-0.35844
-0.33097
-0.32654
-0.35755
-0.42401
-0.51794
-0.63403
-0.74214
-0.79885
-0.751
-0.59415
-0.35312
-0.1307
0.077537
0.20071
0.2521
0.23438
0.19539
0.16438
0.17678
0.19451
0.21311
0.23615
0.26451
0.33363
0.41427
0.49579
0.53301
0.5206
0.45326
0.36907
0.25033
0.1183
-0.038547
-0.22641
-0.40629
-0.572
-0.68276
-0.73239
-0.71201
-0.66504
-0.61453
-0.572
-0.53035
-0.48161
-0.43022
-0.37705
-0.34072
-0.31679
-0.34072
-0.40984
-0.50288
-0.54541
-0.47807
-0.32388
-0.15995
-0.028799
0.030572
0.037661
-0.0048737
-0.014621
0.0048737
0.10235
0.23084
0.38325
0.53655
0.64732
0.67213
0.62162
0.49668
0.33895
0.16969
0.01728
-0.10412
-0.22552
-0.33186
-0.4311
-0.51263
-0.57909
-0.61719
-0.63226
-0.62162
-0.60124
-0.57909
-0.57111
-0.54453
-0.4887
-0.41781
-0.33629
-0.26894
-0.22463
-0.22375
-0.27337
-0.37882
-0.53744
-0.65795
-0.68099
-0.58706
-0.42313
-0.19716
0.010191
0.20868
0.393
0.53655
0.6677
0.7634
0.77404
0.73859
0.62694
0.4568
0.26983
0.10589
-0.030572
-0.14931
-0.26097
-0.34869
-0.40009
-0.43553
-0.47275
-0.53301
-0.58618
-0.60656
-0.58175
-0.5144
-0.43553
-0.37882
-0.3292
-0.30704
-0.29375
-0.29641
-0.29287
-0.27957
-0.25033
-0.21577
-0.1821
-0.20337
-0.25388
-0.36819
-0.49136
-0.56668
-0.56491
-0.44262
-0.27426
-0.11653
-0.028799
-0.027913
-0.090829
-0.098804
-0.074878
0.041205
0.18742
0.32211
0.43819
0.50288
0.53478
0.55162
0.52769
0.4887
0.45946
0.4249
0.37616
0.24236
0.070447
-0.15463
-0.36376
-0.5658
-0.71467
-0.79176
-0.79973
-0.75897
-0.67036
-0.57288
-0.49668
-0.43642
-0.41161
-0.41693
-0.43199
-0.42933
-0.40097
-0.35135
-0.34515
-0.3611
-0.40009
-0.37528
-0.30084
-0.19539
-0.089056
-0.016393
0.022596
0.026141
0.0039876
-0.025255
-0.073106
-0.10501
-0.1502
-0.19894
-0.2459
-0.25299
-0.23084
-0.1759
-0.15374
-0.17147
-0.24679
-0.35224
-0.48427
-0.58175
-0.5844
-0.46212
-0.23438
0.027913
0.23793
0.36464
0.37882
0.29996
0.1564
0.011077
-0.087284
-0.12893
-0.11387
-0.089056
-0.094373
-0.12273
-0.17501
-0.23527
-0.2778
-0.27071
-0.22286
-0.14931
-0.10855
-0.12982
-0.23881
-0.37794
-0.4568
-0.48339
-0.44085
-0.37439
-0.30793
-0.19894
-0.032344
0.20603
0.48693
0.7377
0.88303
0.8786
0.75188
0.56402
0.36642
0.18564
0.036774
-0.093487
-0.19008
-0.2521
-0.29375
-0.33363
-0.37439
-0.40452
-0.42136
-0.42844
-0.43996
-0.44528
-0.44174
-0.4187
-0.38148
-0.3354
-0.28489
-0.23793
-0.21223
-0.19894
-0.2078
-0.20868
-0.20337
-0.19539
-0.19185
-0.23172
-0.31768
-0.4444
-0.57377
-0.65086
-0.61896
-0.48604
-0.26097
-0.058042
0.062472
0.091715
0.055383
0.048294
0.059814
0.097918
0.16969
0.23615
0.323
0.41338
0.47187
0.51617
0.51794
0.49047
0.41427
0.31679
0.21843
0.14045
0.079309
0.024369
-0.084626
-0.24679
-0.4311
-0.58529
-0.66327
-0.67656
-0.65264
-0.6039
-0.54098
-0.47452
-0.40097
-0.33363
-0.28135
-0.26185
-0.28046
-0.3354
-0.46389
-0.62871
-0.75631
-0.80151
-0.68454
-0.48427
-0.24856
-0.030572
0.12539
0.20868
0.23084
0.21843
0.17767
0.11741
0.034116
-0.020824
-0.045636
-0.030572
0.011077
0.062472
0.11298
0.14311
0.14045
0.094373
0.02171
-0.07222
-0.16615
-0.28312
-0.393
-0.49402
-0.50199
-0.44617
-0.31325
-0.18033
-0.069561
-0.0075321
0.042091
0.081081
0.11121
0.089056
0.027913
-0.058042
-0.09969
-0.12982
-0.16615
-0.21843
-0.2654
-0.30261
-0.32654
-0.3735
-0.43288
-0.46478
-0.45769
-0.38857
-0.30173
-0.20071
-0.090829
0.039433
0.14134
0.22818
0.29907
0.33008
0.33895
0.36907
0.38148
0.41781
0.38768
0.30173
0.17501
0.023482
-0.12007
-0.23704
-0.323
-0.38148
-0.41781
-0.42933
-0.43996
-0.45503
-0.48339
-0.50731
-0.51972
-0.51529
-0.50908
-0.49047
-0.45769
-0.42047
-0.38148
-0.35224
-0.32477
-0.31325
-0.3035
-0.3035
-0.3035
-0.3035
-0.29996
-0.29287
-0.29021
-0.28578
-0.27603
-0.26717
-0.25122
-0.26185
-0.29641
-0.36287
-0.44794
-0.53921
-0.5782
-0.52946
-0.38768
-0.20691
-0.054497
0.0048737
0.0022153
-0.050953
-0.090829
-0.065131
-0.046522
-0.0013292
0.023482
0.065131
0.12007
0.17856
0.22907
0.31059
0.42047
0.51883
0.57288
0.53301
0.42313
0.27869
0.1183
-0.057156
-0.24856
-0.44705
-0.59681
-0.68454
-0.69517
-0.64732
-0.57023
-0.48693
-0.41693
-0.37528
-0.34072
-0.30704
-0.2778
-0.28312
-0.28312
-0.26894
-0.23881
-0.16881
-0.071334
0.0084183
0.069561
0.074878
0.030572
-0.037661
-0.13425
-0.21311
-0.26274
-0.26185
-0.23172
-0.21311
-0.21755
-0.19539
-0.16083
-0.10412
-0.081081
-0.096145
-0.11298
-0.11918
-0.11032
-0.11387
-0.14843
-0.15995
-0.14843
-0.081081
0.035888
0.16083
0.26185
0.3035
0.28401
0.23527
0.14665
0.040319
-0.081967
-0.18387
-0.27692
-0.3354
-0.38946
-0.41072
-0.39034
-0.32477
-0.2202
-0.14665
-0.12007
-0.15286
-0.19539
-0.20248
-0.19096
-0.1502
-0.15109
-0.21932
-0.37528
-0.51174
-0.54807
-0.32743
0.027913
0.43642
0.75011
0.93354
1
0.97607
0.88569
0.7377
0.55871
0.33097
0.12362
-0.055383
-0.19362
-0.28755
-0.37971
-0.463
-0.5658
-0.6296
-0.67213
-0.62074
-0.50288
-0.37794
-0.26274
-0.21134
-0.17147
-0.13691
-0.11918
-0.10944
-0.10589
-0.11564
-0.14577
-0.19096
-0.24236
-0.28844
-0.32034
-0.3611
-0.393
-0.41338
-0.42579
-0.4187
-0.40452
-0.41338
-0.42933
-0.45237
-0.46212
-0.40009
-0.28932
-0.14843
-0.014621
0.048294
0.026141
-0.027913
-0.068675
-0.066903
-0.025255
0.039433
0.089942
0.11653
0.057156
-0.090829
-0.26628
-0.42667
-0.51529
-0.52769
-0.50199
-0.4444
-0.32034
-0.11918
0.10146
0.30173
0.41249
0.43642
0.38946
0.28578
0.17324
0.056269
-0.056269
-0.16261
-0.24945
-0.33186
-0.40275
-0.47895
-0.51706
-0.5401
-0.54896
-0.53389
-0.51794
-0.49934
-0.49934
-0.50554
-0.51794
-0.52858
-0.54364
-0.57023
-0.60744
-0.64112
-0.69872
-0.70137
-0.63137
-0.50908
-0.3354
-0.20691
-0.09969
-0.037661
-0.02171
-0.058042
-0.11564
-0.17147
-0.19451
-0.15197
-0.089056
0.01728
0.094373
0.15286
0.21311
0.29021
0.38768
0.45503
0.43996
0.34869
0.21223
0.053611
-0.11564
-0.28755
-0.45591
-0.59327
-0.68897
-0.73682
-0.76163
-0.75986
-0.75277
-0.71998
-0.68188
-0.64466
-0.61099
-0.57643
-0.53212
-0.47984
-0.42844
-0.36642
-0.32388
-0.30704
-0.34692
-0.46123
-0.59504
-0.65707
-0.59947
-0.41958
-0.22907
-0.07222
0.011077
0.047408
0.037661
-0.014621
-0.097918
-0.17412
-0.22463
-0.26983
-0.31502
-0.38148
-0.43465
-0.48427
-0.42756
-0.30616
-0.080195
0.14665
0.29996
0.38857
0.38591
0.31945
0.18387
0.01728
-0.15552
-0.27514
-0.34426
-0.37971
-0.40009
-0.38857
-0.36907
-0.32565
-0.28312
-0.28046
-0.26894
-0.26274
-0.24324
-0.2202
-0.19716
-0.17501
-0.16261
-0.19805
-0.27957
-0.42933
-0.57732
-0.65884
-0.58972
-0.36376
-0.03323
0.30084
0.57643
0.74657
0.821
0.81657
0.72619
0.57023
0.34869
0.12805
-0.059814
-0.21489
-0.3292
-0.41515
-0.47009
-0.50022
-0.53124
-0.54364
-0.53301
-0.50908
-0.45769
-0.43199
-0.40452
-0.39743
-0.38591
-0.37262
-0.34781
-0.32211
-0.2973
-0.27692
-0.26008
-0.25654
-0.25654
-0.25388
-0.25654
-0.26008
-0.27249
-0.28666
-0.29553
-0.30173
-0.29641
-0.31059
-0.34426
-0.40275
-0.48073
-0.49934
-0.46389
-0.36642
-0.26008
-0.13957
-0.023482
0.10501
0.26451
0.42844
0.61808
0.75454
0.80505
0.74922
0.64466
0.48516
0.30439
0.12273
-0.015507
-0.10058
-0.14931
-0.18742
-0.2335
-0.29198
-0.34338
-0.37262
-0.3735
-0.34692
-0.31591
-0.28666
-0.26451
-0.25122
-0.23704
-0.22198
-0.19982
-0.18564
-0.17944
-0.17856
-0.17856
-0.17235
-0.17678
-0.16792
-0.1502
-0.1183
-0.081967
-0.075764
-0.096145
-0.20957
-0.35047
-0.47098
-0.48427
-0.38414
-0.2459
-0.1245
-0.051839
-0.023482
-0.067789
-0.19539
-0.29553
-0.3035
-0.15109
0.11741
0.39743
0.59415
0.68631
0.66238
0.5782
0.48516
0.36287
0.22995
0.083739
-0.080195
-0.22995
-0.36642
-0.47541
-0.55782
-0.6163
-0.6358
-0.62605
-0.57909
-0.50377
-0.4249
-0.34781
-0.28223
-0.24324
-0.22198
-0.23615
-0.27603
-0.33895
-0.37705
-0.39566
-0.38857
-0.40097
-0.45414
-0.50377
-0.52681
-0.46035
-0.30616
-0.069561
0.19362
0.44971
0.65884
0.75986
0.74214
0.62074
0.43731
0.22198
0.027913
-0.12539
-0.21311
-0.24945
-0.26451
-0.26274
-0.26008
-0.2716
-0.30882
-0.3735
-0.44794
-0.50288
-0.53655
-0.53478
-0.50997
-0.47718
-0.44262
-0.40718
-0.38857
-0.36996
-0.37085
-0.3611
-0.35933
-0.36996
-0.38414
-0.39123
-0.36996
-0.33274
-0.28932
-0.2521
-0.21932
-0.20514
-0.18033
-0.14222
-0.081967
-0.0013292
0.073992
0.10501
0.073106
-0.055383
-0.24945
-0.43199
-0.50997
-0.46212
-0.29907
-0.11387
0.018166
0.097031
0.13425
0.19451
0.20957
0.2078
0.20957
0.25388
0.34692
0.46921
0.49934
0.47098
0.37439
0.25919
0.17856
0.09969
0.022596
-0.062472
-0.16438
-0.28401
-0.39034
-0.44794
-0.42844
-0.36287
-0.2778
-0.21223
-0.16792
-0.13868
-0.12007
-0.10412
-0.098804
-0.12539
-0.15109
-0.17856
-0.19362
-0.22818
-0.31059
-0.40275
-0.49756
-0.55428
-0.59592
-0.62605
-0.63403
-0.58706
-0.44883
-0.25299
-0.048294
0.11653
0.22286
0.31236
0.36553
0.40097
0.3735
0.30439
0.22552
0.1502
0.095259
0.042091
-0.029685
-0.09969
-0.16172
-0.20868
-0.24058
-0.25654
-0.27603
-0.2778
-0.28932
-0.30084
-0.32565
-0.34869
-0.37971
-0.40009
-0.40452
-0.39743
-0.37173
-0.36553
-0.37794
-0.40806
-0.44174
-0.45326
-0.43642
-0.40806
-0.37262
-0.34338
-0.32565
-0.3416
-0.38502
-0.48693
-0.58972
-0.65973
-0.60744
-0.48339
-0.27869
-0.066017
0.17501
0.37971
0.53744
0.59681
0.61276
0.58972
0.55693
0.48516
0.38059
0.27071
0.19894
0.15906
0.144
0.14311
0.17058
0.20337
0.23261
0.20425
0.10944
-0.054497
-0.21932
-0.35844
-0.44971
-0.49047
-0.5144
-0.53035
-0.54276
-0.5401
-0.53567
-0.51794
-0.49136
-0.46921
-0.45414
-0.46035
-0.48693
-0.53655
-0.60656
-0.63934
-0.60124
-0.48604
-0.31236
-0.15552
-0.037661
0.039433
0.061586
0.04475
-0.0084183
-0.071334
-0.13248
-0.19008
-0.27514
-0.32388
-0.28401
-0.15552
0.0039876
0.14577
0.24147
0.31591
0.36376
0.36907
0.34515
0.2973
0.23615
0.16615
0.07665
-0.030572
-0.18299
-0.30704
-0.40097
-0.44085
-0.4568
-0.47452
-0.48604
-0.4825
-0.46921
-0.44262
-0.41693
-0.39211
-0.38502
-0.39389
-0.39832
-0.39389
-0.40097
-0.4506
-0.52769
-0.572
-0.53301
-0.40452
-0.26185
-0.13868
-0.066903
-0.050066
-0.07665
-0.1121
-0.097918
-0.026141
0.051839
0.11298
0.13957
0.19539
0.28932
0.38059
0.45414
0.49756
0.49136
0.45148
0.34958
0.19982
0.006646
-0.18121
-0.33983
-0.42844
-0.45946
-0.48339
-0.50554
-0.52415
-0.53567
-0.54364
-0.5401
-0.53301
-0.50731
-0.47984
-0.45414
-0.44528
-0.47009
-0.53921
-0.63314
-0.72884
-0.77935
-0.74302
-0.62251
-0.44794
-0.2778
-0.1564
-0.032344
0.092601
0.23261
0.35755
0.43908
0.45326
0.40718
0.34515
0.30616
0.29375
0.34958
0.40541
0.4506
0.45237
0.35224
0.19096
0.0093044
-0.18387
-0.34249
-0.47009
-0.57023
-0.64112
-0.6677
-0.6677
-0.64377
-0.61276
-0.56757
-0.51972
-0.45769
-0.40097
-0.34869
-0.30793
-0.28046
-0.25831
-0.25919
-0.28489
-0.34426
-0.43199
-0.51972
-0.54984
-0.48782
-0.33451
-0.12893
0.043864
0.15463
0.15906
0.09969
-0.011963
-0.097918
-0.14577
-0.14754
-0.10855
-0.045636
-0.00044307
0.082853
0.16704
0.26894
0.36198
0.41338
0.42756
0.3992
0.31679
0.19185
0.059814
-0.0607
-0.15906
-0.2202
-0.2654
-0.31325
-0.35844
-0.4187
-0.48516
-0.55428
-0.6039
-0.63403
-0.61896
-0.57643
-0.51263
-0.44351
-0.40541
-0.40097
-0.42667
-0.46566
-0.47984
-0.43642
-0.34338
-0.20248
-0.04918
0.084626
0.19716
0.23527
0.18919
0.063358
-0.093487
-0.2202
-0.25654
-0.26008
-0.18121
-0.068675
0.089056
0.26274
0.43376
0.56314
0.65175
0.66504
0.61187
0.48604
0.30616
0.10146
-0.10146
-0.26805
-0.38857
-0.46212
-0.49579
-0.5206
-0.54098
-0.5658
-0.58883
-0.59149
-0.56845
-0.52149
-0.46478
-0.41604
-0.38414
-0.38148
-0.4187
-0.50377
-0.58352
-0.61808
-0.58175
-0.48516
-0.38591
-0.28666
-0.18564
-0.1121
-0.086398
-0.10767
-0.13425
-0.073106
0.0013292
0.10235
0.16526
0.20337
0.25565
0.29818
0.31148
0.31413
0.30173
0.29996
0.3097
0.29464
0.25033
0.1502
0.0093044
-0.14931
-0.29907
-0.42579
-0.52681
-0.60656
-0.66061
-0.70403
-0.77138
-0.87506
-0.90164
-0.81125
-0.54719
-0.21223
0.086398
0.33186
0.49934
0.58706
0.60833
0.55339
0.45503
0.31768
0.16438
0.024369
-0.095259
-0.19894
-0.27249
-0.30704
-0.29818
-0.27957
-0.27426
-0.29907
-0.35755
-0.40452
-0.43376
-0.42136
-0.39743
-0.37882
-0.37173
-0.38148
-0.39034
-0.40718
-0.4187
-0.43199
-0.44174
-0.45148
-0.46389
-0.4763
-0.47718
-0.47718
-0.4825
-0.45237
-0.37705
-0.23793
-0.079309
0.028799
0.084626
0.081967
0.013735
-0.07222
-0.17058
-0.19982
-0.20248
-0.1502
-0.07665
0.019938
0.12805
0.19539
0.21489
0.22286
0.22995
0.26628
0.31856
0.35224
0.32122
0.22286
0.093487
-0.045636
-0.17147
-0.30527
-0.43553
-0.55693
-0.64112
-0.67656
-0.65529
-0.60833
-0.56314
-0.52681
-0.51174
-0.50199
-0.48959
-0.48516
-0.47009
-0.45769
-0.4763
-0.47895
-0.45503
-0.37439
-0.25565
-0.17235
-0.16172
-0.22375
-0.3292
-0.41693
-0.44528
-0.36464
-0.2078
-0.016393
0.14488
0.22995
0.2202
0.15463
0.016393
-0.16172
-0.33895
-0.44262
-0.47275
-0.33629
-0.10235
0.19894
0.46566
0.6101
0.61985
0.52946
0.39123
0.23793
0.10323
-0.020824
-0.13425
-0.2397
-0.3354
-0.41072
-0.46743
-0.5082
-0.53655
-0.56314
-0.57909
-0.59504
-0.572
-0.52149
-0.45237
-0.39477
-0.35755
-0.34426
-0.33895
-0.35755
-0.39654
-0.46035
-0.5463
-0.59858
-0.61276
-0.5658
-0.49668
-0.41338
-0.26628
-0.050066
0.2397
0.54896
0.79265
0.9362
0.93974
0.82809
0.65086
0.44262
0.21755
0.035888
-0.094373
-0.17058
-0.21755
-0.26717
-0.33451
-0.41249
-0.46035
-0.48073
-0.46566
-0.44528
-0.44883
-0.45148
-0.45503
-0.44617
-0.42401
-0.38946
-0.35578
-0.32831
-0.29996
-0.28932
-0.28666
-0.30704
-0.35047
-0.41427
-0.50377
-0.57466
-0.57643
-0.48782
-0.31768
-0.13159
0.025255
0.12539
0.16526
0.12982
0.045636
-0.053611
-0.13248
-0.15906
-0.11564
0.0013292
0.17235
0.32122
0.39566
0.42579
0.42579
0.39123
0.323
0.21046
0.12273
0.050953
-0.010191
-0.10678
-0.26628
-0.37971
-0.42401
-0.38148
-0.28135
-0.23793
-0.23527
-0.26628
-0.31236
-0.32565
-0.33097
-0.34338
-0.35667
-0.38414
-0.39389
-0.41958
-0.43996
-0.4568
-0.44174
-0.3735
-0.26894
-0.1307
0.0031015
0.12007
0.21932
0.24679
0.23793
0.19982
0.16526
0.12982
0.062472
-0.062472
-0.22109
-0.38591
-0.52149
-0.58618
-0.54453
-0.3673
-0.11741
0.13425
0.27869
0.29021
0.22375
0.12184
0.031458
-0.053611
-0.12273
-0.15552
-0.14665
-0.13336
-0.13602
-0.16704
-0.24058
-0.32654
-0.44174
-0.49047
-0.48516
-0.393
-0.24236
-0.085512
0.048294
0.13957
0.18299
0.22818
0.24147
0.21932
0.13602
0.022596
-0.11387
-0.21666
-0.28844
-0.33895
-0.38768
-0.44262
-0.48693
-0.50908
-0.52858
-0.53655
-0.56668
-0.60833
-0.64821
-0.65529
-0.60479
-0.50908
-0.393
-0.28932
-0.16172
-0.023482
0.11032
0.22818
0.31325
0.36198
0.3992
0.40895
0.38059
0.32831
0.2654
0.22641
0.22995
0.25831
0.27337
0.24502
0.18121
0.053611
-0.10855
-0.28312
-0.44262
-0.53035
-0.56491
-0.5525
-0.51706
-0.46389
-0.44174
-0.44174
-0.4568
-0.46743
-0.46655
-0.44351
-0.40541
-0.3354
-0.25654
-0.18564
-0.15906
-0.18919
-0.28223
-0.40984
-0.49668
-0.50111
-0.40718
-0.26628
-0.14311
-0.094373
-0.11741
-0.12627
-0.11918
-0.063358
-0.0031015
0.064245
0.13691
0.22198
0.32743
0.42844
0.52503
0.55693
0.5082
0.40186
0.24945
0.084626
-0.073106
-0.20603
-0.30173
-0.37616
-0.46566
-0.58175
-0.70935
-0.73505
-0.64821
-0.47187
-0.30527
-0.19982
-0.14931
-0.12184
-0.12096
-0.12805
-0.12893
-0.092601
-0.059814
-0.04918
-0.084626
-0.16704
-0.18564
-0.12273
0.018166
0.20248
0.34072
0.41693
0.4311
0.38148
0.29641
0.15552
-0.00044307
-0.16704
-0.3611
-0.53921
-0.65086
-0.66238
-0.58529
-0.47009
-0.34603
-0.2521
-0.17412
-0.12362
-0.10412
-0.10235
-0.12539
-0.14843
-0.17501
-0.22286
-0.27071
-0.30439
-0.30084
-0.28135
-0.29109
-0.35135
-0.43022
-0.46566
-0.44085
-0.33895
-0.19185
-0.014621
0.14665
0.25388
0.26274
0.19185
0.090829
0.011963
-0.016393
0.018166
0.069561
0.10855
0.097031
0.050953
-0.026141
-0.10589
-0.18564
-0.26008
-0.34515
-0.42579
-0.50288
-0.56314
-0.58972
-0.60479
-0.59327
-0.5525
-0.45414
-0.3354
-0.20248
-0.094373
-0.035888
-0.014621
-0.018166
-0.011963
-0.012849
-0.038547
-0.093487
-0.16615
-0.26451
-0.40541
-0.51794
-0.55605
-0.45769
-0.22641
-0.0057599
0.1564
0.22198
0.17767
0.083739
-0.030572
-0.12982
-0.19628
-0.24502
-0.28666
-0.30882
-0.31502
-0.35312
-0.40718
-0.44085
-0.42401
-0.30261
-0.12893
0.061586
0.23172
0.37439
0.4444
0.43465
0.34249
0.17235
-0.020824
-0.20337
-0.36642
-0.48782
-0.57732
-0.6296
-0.65264
-0.65352
-0.64555
-0.64289
-0.64377
-0.65175
-0.6358
-0.56136
-0.41249
-0.2202
-0.035888
0.1121
0.19008
0.19894
0.16083
0.10146
0.018166
-0.066903
-0.13691
-0.14843
-0.089056
0.02171
0.13159
0.20337
0.23172
0.2202
0.22641
0.24236
0.25122
0.22995
0.18742
0.13159
0.070447
-0.0084183
-0.089056
-0.20868
-0.31148
-0.39654
-0.45503
-0.48427
-0.5082
-0.52149
-0.51351
-0.51086
-0.53212
-0.59947
-0.68631
-0.73062
-0.68099
-0.52415
-0.32034
-0.12273
0.011077
0.065131
0.048294
0.02171
0.028799
0.092601
0.1759
0.22198
0.25122
0.27692
0.32122
0.37616
0.42047
0.42667
0.38591
0.30173
0.18742
0.069561
-0.050953
-0.18476
-0.32477
-0.43819
-0.49668
-0.52503
-0.53921
-0.57554
-0.6039
-0.64909
-0.66061
-0.65884
-0.63846
-0.61276
-0.59592
-0.59504
-0.6039
-0.62605
-0.67125
-0.68188
-0.64555
-0.53567
-0.36376
-0.16615
0.0075321
0.144
0.1883
0.17324
0.09969
0.042091
0.031458
0.081081
0.14665
0.23793
0.38502
0.55693
0.71555
0.7891
0.74391
0.61896
0.42933
0.21134
-0.0031015
-0.20603
-0.3735
-0.52592
-0.63048
-0.6934
-0.69517
-0.66416
-0.6296
-0.59681
-0.58086
-0.55162
-0.51883
-0.48161
-0.44705
-0.42579
-0.42844
-0.45326
-0.49934
-0.56402
-0.60301
-0.57643
-0.4568
-0.26097
-0.051839
0.098804
0.18387
0.19185
0.15906
0.073992
-0.028799
-0.10146
-0.13868
-0.085512
0.012849
0.17501
0.35224
0.48427
0.55073
0.52946
0.44971
0.30793
0.13602
-0.027913
-0.13691
-0.19982
-0.25033
-0.30261
-0.3992
-0.49136
-0.5658
-0.62251
-0.66947
-0.69606
-0.67745
-0.60124
-0.51174
-0.47984
-0.52237
-0.63934
-0.751
-0.75277
-0.63226
-0.40984
-0.19805
-0.011963
0.14754
0.27426
0.38591
0.4506
0.463
0.42667
0.35578
0.26362
0.16261
0.079309
0.016393
-0.022596
-0.056269
-0.098804
-0.14665
-0.19805
-0.25299
-0.31236
-0.35844
-0.39034
-0.41161
-0.43642
-0.45857
-0.48161
-0.50022
-0.50908
-0.4825
-0.43819
-0.37705
-0.33363
-0.31591
-0.32654
-0.37173
-0.43908
-0.5144
-0.6163
-0.7377
-0.85379
-0.93265
-0.91139
-0.77404
-0.51086
-0.14045
0.2716
0.63048
0.83607
0.92645
0.89278
0.79442
0.63314
0.4187
0.22198
0.056269
-0.073992
-0.16615
-0.21666
-0.22907
-0.20868
-0.18653
-0.17678
-0.19805
-0.2397
-0.28312
-0.31591
-0.32565
-0.323
-0.32388
-0.33274
-0.33717
-0.33451
-0.32654
-0.31059
-0.29375
-0.30084
-0.32211
-0.3735
-0.43376
-0.50731
-0.57377
-0.60922
-0.60833
-0.54807
-0.43819
-0.30704
-0.16969
-0.061586
-0.042977
-0.11032
-0.20957
-0.32388
-0.31236
-0.1564
0.12273
0.43288
0.642
0.6996
0.66061
0.56491
0.4444
0.33186
0.22995
0.1121
0.0031015
-0.13514
-0.26451
-0.3611
-0.4187
-0.43288
-0.41604
-0.38414
-0.3611
-0.33186
-0.31413
-0.29464
-0.28046
-0.26717
-0.25565
-0.26008
-0.25919
-0.26097
-0.24147
-0.21577
-0.19894
-0.22463
-0.31059
-0.41161
-0.49845
-0.49756
-0.39654
-0.23704
-0.07222
0.047408
0.090829
0.062472
-0.026141
-0.12805
-0.22375
-0.24058
-0.27692
-0.26185
-0.20868
-0.073992
0.15286
0.34249
0.48782
0.54719
0.50642
0.38946
0.22641
0.050953
-0.10501
-0.24324
-0.3735
-0.47098
-0.52946
-0.53567
-0.52592
-0.51883
-0.55871
-0.60124
-0.63226
-0.58529
-0.49402
-0.37173
-0.24502
-0.10501
0.028799
0.1183
0.13514
0.07222
-0.042977
-0.17058
-0.28666
-0.36021
-0.36287
-0.28223
-0.11918
0.084626
0.27071
0.40275
0.4506
0.41249
0.31945
0.18919
0.051839
-0.083739
-0.21134
-0.30704
-0.37085
-0.43022
-0.47984
-0.54807
-0.63314
-0.73416
-0.76074
-0.72707
-0.59061
-0.41604
-0.23084
-0.07222
0.039433
0.078423
0.039433
-0.046522
-0.18742
-0.3097
-0.38148
-0.37705
-0.27249
-0.12716
0.061586
0.26274
0.44085
0.56402
0.57643
0.50022
0.34869
0.17147
0.0039876
-0.14754
-0.27426
-0.35578
-0.40629
-0.42401
-0.44794
-0.4887
-0.55516
-0.62339
-0.67745
-0.65352
-0.57023
-0.42844
-0.26097
-0.084626
0.090829
0.22729
0.29198
0.2778
0.18476
0.042091
-0.093487
-0.19982
-0.26451
-0.32034
-0.36996
-0.35578
-0.29198
-0.16438
-0.030572
0.074878
0.16172
0.22375
0.27071
0.28312
0.25388
0.14045
-0.006646
-0.16083
-0.30261
-0.4187
-0.51972
-0.58086
-0.61365
-0.61985
-0.62694
-0.6615
-0.72441
-0.75454
-0.73682
-0.65529
-0.53301
-0.42401
-0.32654
-0.24413
-0.19008
-0.15197
-0.14045
-0.13248
-0.12982
-0.13868
-0.14134
-0.097918
0.0084183
0.1564
0.28932
0.35312
0.36198
0.33895
0.28932
0.22729
0.14931
0.0607
-0.0022153
-0.035002
-0.052725
-0.071334
-0.11564
-0.18564
-0.27249
-0.35401
-0.40984
-0.4444
-0.49668
-0.60479
-0.66238
-0.67922
-0.59238
-0.44971
-0.30527
-0.17058
-0.071334
-0.01728
-0.018166
-0.07222
-0.17944
-0.31325
-0.43022
-0.47009
-0.43908
-0.31945
-0.13779
0.087284
0.26717
0.40363
0.47452
0.50908
0.52237
0.47009
0.35312
0.19539
0.016393
-0.15109
-0.28844
-0.38946
-0.47187
-0.5658
-0.61896
-0.63314
-0.5401
-0.37616
-0.20957
-0.078423
-0.0031015
0.018166
-0.0022153
-0.057156
-0.12539
-0.19805
-0.26097
-0.3416
-0.4311
-0.55782
-0.64555
-0.62782
-0.49845
-0.23261
0.048294
0.26894
0.4187
0.47098
0.44883
0.3611
0.22375
0.097031
0.016393
-0.027027
-0.065131
-0.13602
-0.24058
-0.35578
-0.45857
-0.51972
-0.56048
-0.57466
-0.5658
-0.51883
-0.44794
-0.37085
-0.31325
-0.29109
-0.28135
-0.25919
-0.22198
-0.16349
-0.11653
-0.14577
-0.2078
-0.29287
-0.33629
-0.25831
-0.073106
0.17501
0.38768
0.47895
0.47452
0.39654
0.28489
0.13248
-0.011077
-0.14134
-0.19451
-0.19451
-0.17767
-0.16261
-0.15995
-0.16438
-0.16881
-0.17856
-0.2016
-0.23615
-0.27426
-0.31591
-0.35047
-0.36376
-0.36553
-0.35135
-0.33629
-0.3354
-0.35401
-0.38768
-0.40718
-0.37173
-0.3035
-0.23172
-0.21134
-0.23881
-0.28932
-0.33629
-0.36907
-0.39034
-0.40984
-0.42667
-0.43553
-0.4444
-0.43819
-0.41604
-0.38059
-0.323
-0.23527
-0.10146
0.052725
0.19628
0.32477
0.4311
0.50377
0.51617
0.46921
0.40275
0.33008
0.28401
0.25919
0.23527
0.19805
0.13691
0.027913
-0.093487
-0.22552
-0.34781
-0.43908
-0.50997
-0.55605
-0.58175
-0.5782
-0.56225
-0.5525
-0.57377
-0.61896
-0.5977
-0.51794
-0.39389
-0.25033
-0.13336
-0.031458
0.029685
0.03323
-0.011077
-0.09969
-0.18742
-0.24324
-0.23261
-0.16792
-0.078423
0.0084183
0.047408
0.073106
0.052725
0.024369
0.028799
0.093487
0.19716
0.29553
0.33186
0.30527
0.2397
0.13868
0.01728
-0.12627
-0.26274
-0.35844
-0.40718
-0.39654
-0.36996
-0.34072
-0.34072
-0.38237
-0.45769
-0.54541
-0.60744
-0.59149
-0.48427
-0.3292
-0.14754
0.0048737
0.1183
0.17856
0.19982
0.21046
0.22818
0.25831
0.30261
0.34515
0.34958
0.30882
0.21489
0.086398
-0.042091
-0.15463
-0.23793
-0.30439
-0.36996
-0.43465
-0.49136
-0.52326
-0.54807
-0.53301
-0.49668
-0.4311
-0.37882
-0.35135
-0.32388
-0.29198
-0.25388
-0.21666
-0.19628
-0.19362
-0.214
-0.26008
-0.32211
-0.38502
-0.43908
-0.47541
-0.46123
-0.37262
-0.22375
-0.036774
0.1245
0.20868
0.22907
0.19894
0.15906
0.10412
0.048294
-0.037661
-0.1307
-0.22109
-0.27514
-0.31325
-0.32831
-0.33806
-0.34072
-0.32477
-0.30704
-0.323
-0.33363
-0.34515
-0.31945
-0.30882
-0.31591
-0.34958
-0.37616
-0.34869
-0.26185
-0.064245
0.16881
0.40009
0.56757
0.63934
0.62517
0.53301
0.38059
0.2202
0.068675
-0.058928
-0.16615
-0.2654
-0.34072
-0.393
-0.43465
-0.4506
-0.45769
-0.42047
-0.35224
-0.26628
-0.17767
-0.12627
-0.1307
-0.15995
-0.17856
-0.1883
-0.20868
-0.24236
-0.26894
-0.26451
-0.2397
-0.22552
-0.22641
-0.25742
-0.29553
-0.36021
-0.42313
-0.45503
-0.42933
-0.38059
-0.33717
-0.32388
-0.29641
-0.23527
-0.13868
0.0031015
0.1502
0.28755
0.39211
0.4249
0.38502
0.29109
0.14488
0.026141
-0.07222
-0.13336
-0.17767
-0.23261
-0.29287
-0.36376
-0.42579
-0.43819
-0.41161
-0.34958
-0.33363
-0.36464
-0.46123
-0.5401
-0.56845
-0.5082
-0.39832
-0.27869
-0.21755
-0.2016
-0.15197
-0.018166
0.20071
0.44351
0.62162
0.67568
0.61896
0.47187
0.27603
0.068675
-0.12982
-0.28312
-0.37173
-0.42224
-0.4249
-0.42667
-0.42047
-0.43465
-0.43376
-0.40186
-0.34338
-0.29287
-0.27426
-0.29464
-0.34338
-0.40452
-0.45414
-0.50111
-0.53567
-0.57023
-0.55605
-0.49668
-0.35135
-0.17058
-0.015507
0.098804
0.15374
0.15463
0.12716
0.058042
-0.015507
-0.071334
-0.10323
-0.13248
-0.1821
-0.28046
-0.41958
-0.52681
-0.53478
-0.39566
-0.13248
0.15906
0.39123
0.50111
0.49934
0.4187
0.28312
0.12982
-0.0013292
-0.094373
-0.15995
-0.22463
-0.33008
-0.44705
-0.5658
-0.64289
-0.68276
-0.67745
-0.65529
-0.64289
-0.62074
-0.58883
-0.48073
-0.32831
-0.17235
-0.029685
0.052725
0.08817
0.10235
0.07665
0.052725
0.054497
0.0607
0.054497
-0.022596
-0.1502
-0.29375
-0.35135
-0.32388
-0.20868
-0.058928
0.0607
0.1502
0.20691
0.21755
0.1883
0.12007
0.011963
-0.10944
-0.2397
-0.36376
-0.44794
-0.50465
-0.53389
-0.52326
-0.50554
-0.50111
-0.54453
-0.57732
-0.55073
-0.42844
-0.22729
-0.050953
0.077537
0.12805
0.12273
0.084626
0.011077
-0.04918
-0.1183
-0.17501
-0.25654
-0.36198
-0.40363
-0.36996
-0.22729
-0.040319
0.12627
0.2716
0.38857
0.47807
0.52769
0.51529
0.44262
0.31856
0.18564
0.051839
-0.032344
-0.11475
-0.2078
-0.33451
-0.51883
-0.6996
-0.84138
-0.91493
-0.92734
-0.89632
-0.82632
-0.73593
-0.64023
-0.57377
-0.48693
-0.32211
-0.09969
0.13602
0.24856
0.27692
0.22641
0.13957
0.062472
0.015507
0.006646
0.02171
0.029685
0.026141
0.013735
0.0057599
-0.013735
-0.045636
-0.070447
-0.056269
-0.0031015
0.042977
0.070447
0.03323
-0.027913
-0.10855
-0.19805
-0.2716
-0.3416
-0.40009
-0.44262
-0.45769
-0.45414
-0.44174
-0.42313
-0.41338
-0.41427
-0.42844
-0.44794
-0.4887
-0.52592
-0.59149
-0.62782
-0.62074
-0.51529
-0.33451
-0.13779
0.01728
0.073992
0.039433
-0.061586
-0.18564
-0.25033
-0.26097
-0.16969
0.0048737
0.20514
0.38768
0.47807
0.54187
0.58706
0.60301
0.57288
0.45148
0.30084
0.14577
0.014621
-0.098804
-0.20425
-0.29464
-0.38768
-0.45326
-0.49579
-0.50111
-0.48161
-0.45326
-0.43465
-0.41427
-0.38857
-0.3549
-0.32654
-0.3097
-0.2973
-0.29818
-0.31945
-0.34958
-0.3549
-0.31679
-0.24413
-0.16526
-0.10767
-0.073106
-0.068675
-0.077537
-0.090829
-0.098804
-0.11032
-0.11564
-0.12362
-0.12627
-0.17058
-0.21489
-0.25831
-0.27514
-0.29287
-0.28932
-0.2716
-0.21932
-0.11918
-0.0031015
0.11918
0.23261
0.32211
0.38237
0.3868
0.30793
0.15109
-0.057156
-0.27337
-0.4763
-0.56757
-0.5782
-0.46832
-0.3292
-0.18919
-0.081081
-0.0048737
0.047408
0.079309
0.064245
0.011077
-0.069561
-0.1502
-0.21311
-0.28401
-0.35755
-0.44262
-0.54719
-0.61453
-0.59238
-0.43022
-0.1759
0.089942
0.27514
0.37528
0.37173
0.31591
0.18121
-0.0022153
-0.19362
-0.37794
-0.51794
-0.60035
-0.60124
-0.53478
-0.44262
-0.42224
-0.42136
-0.46566
-0.43819
-0.35667
-0.27603
-0.16083
-0.048294
0.061586
0.13957
0.15906
0.12007
0.046522
-0.029685
-0.10235
-0.16083
-0.18564
-0.18742
-0.16704
-0.15552
-0.19008
-0.23084
-0.29907
-0.37971
-0.40718
-0.41249
-0.32388
-0.18033
-0.012849
0.1307
0.21666
0.21932
0.15109
0.042091
-0.087284
-0.18919
-0.2716
-0.34692
-0.42844
-0.53744
-0.642
-0.73505
-0.821
-0.84315
-0.78821
-0.64643
-0.44262
-0.25565
-0.13602
-0.080195
-0.069561
-0.07222
-0.04918
-0.010191
0.10412
0.27071
0.47364
0.65352
0.75631
0.77935
0.71112
0.56225
0.38414
0.19628
0.042977
-0.083739
-0.19273
-0.30882
-0.40806
-0.50465
-0.57554
-0.60922
-0.59149
-0.52503
-0.44971
-0.39832
-0.39034
-0.40097
-0.44085
-0.49225
-0.56402
-0.57288
-0.5144
-0.36021
-0.17678
-0.011077
0.097031
0.14045
0.12007
0.066903
-0.011077
-0.08817
-0.15286
-0.19362
-0.21666
-0.23881
-0.25476
-0.24679
-0.20868
-0.14931
-0.071334
0.0084183
0.10855
0.21134
0.28312
0.32477
0.35047
0.35755
0.33186
0.25565
0.13336
-0.046522
-0.20248
-0.35755
-0.50642
-0.63137
-0.72087
-0.70226
-0.58618
-0.42933
-0.27249
-0.15374
-0.093487
-0.087284
-0.10323
-0.11387
-0.086398
-0.042091
0.0057599
0.022596
0.006646
-0.019938
-0.027913
-0.03323
-0.040319
-0.075764
-0.10589
-0.092601
-0.03323
0.047408
0.094373
0.094373
0.034116
-0.058042
-0.15374
-0.25033
-0.34781
-0.43288
-0.46921
-0.43908
-0.37439
-0.29907
-0.24058
-0.22907
-0.25122
-0.29109
-0.32654
-0.34869
-0.35755
-0.34958
-0.33274
-0.31236
-0.31325
-0.30882
-0.31502
-0.33806
-0.40186
-0.53212
-0.66593
-0.6934
-0.58972
-0.34072
-0.054497
0.22463
0.4444
0.60035
0.66504
0.65441
0.57377
0.44617
0.28755
0.15374
0.067789
0.019052
-0.0039876
-0.027913
-0.04918
-0.074878
-0.10678
-0.13779
-0.18387
-0.22375
-0.27071
-0.32743
-0.37085
-0.40097
-0.43819
-0.46035
-0.49047
-0.51529
-0.50199
-0.44617
-0.35312
-0.25654
-0.19805
-0.18742
-0.21223
-0.25388
-0.30173
-0.35047
-0.3868
-0.40629
-0.39654
-0.36021
-0.3354
-0.31059
-0.30882
-0.30882
-0.3354
-0.38946
-0.40275
-0.3611
-0.23881
-0.08817
0.022596
0.073106
0.081967
0.095259
0.10767
0.14488
0.16969
0.15729
0.11475
0.066017
-0.16615
