0.56189
0.52539
0.49458
0.48317
0.4672
0.44096
0.35881
0.13292
-0.13862
-0.31432
-0.30633
-0.11922
0.051911
0.15459
0.18882
0.19795
0.19681
0.18311
0.17513
0.19338
0.2162
0.24701
0.28351
0.31546
0.31888
0.31432
0.3223
0.31204
0.29378
0.23217
0.16486
0.11922
0.10097
0.096406
0.11124
0.11808
0.14204
0.15345
0.166
0.15687
0.14318
0.14318
0.17171
0.21962
0.2607
0.28465
0.29036
0.28922
0.28465
0.28237
0.27781
0.25499
0.17969
0.024529
-0.20365
-0.38962
-0.43411
-0.35767
-0.24358
-0.19452
-0.18426
-0.20479
-0.24701
-0.29264
-0.27325
-0.19795
-0.10553
-0.0028523
0.10782
0.22419
0.33029
0.40217
0.43297
0.43411
0.41129
0.38848
0.37022
0.37935
0.38734
0.41358
0.43183
0.45807
0.48431
0.51512
0.54022
0.56532
0.56303
0.52082
0.41129
0.22305
-0.12721
-0.12721
-0.41129
-0.63035
-0.63149
-0.47176
-0.3223
-0.17855
-0.089561
-0.054193
-0.049629
-0.059897
-0.041643
-0.026811
0.0017114
0.055334
0.091843
0.16144
0.19452
0.21278
0.22761
0.22305
0.19795
0.15801
0.1158
0.099829
0.097547
0.1158
0.12721
0.13748
0.16144
0.20251
0.26868
0.32573
0.33371
0.26868
0.037079
-0.15231
-0.34398
-0.32116
-0.18197
-0.0074159
0.15916
0.27781
0.34626
0.36566
0.32573
0.17627
0.082715
-0.017684
-0.01312
0.027952
0.091843
0.16828
0.26298
0.35083
0.40559
0.45237
0.48774
0.52082
0.53223
0.5482
0.56075
0.5733
0.56532
0.52424
0.45693
0.36566
0.22761
0.03822
-0.12265
-0.29606
-0.31546
-0.22191
-0.022248
0.20365
0.3668
0.4729
0.51968
0.53451
0.51398
0.48203
0.46264
0.45693
0.45921
0.46378
0.46264
0.45351
0.43868
0.39304
0.20707
-0.047347
-0.40673
-0.51169
-0.43525
-0.28237
-0.14204
-0.065602
0.035938
0.14661
0.23788
0.29264
0.33485
0.39076
0.43639
0.46948
0.48659
0.49344
0.49914
0.50371
0.49572
0.4923
0.39875
0.25613
0.14661
0.14318
0.22647
0.32915
0.40901
0.50941
0.61666
0.65088
0.59498
0.417
0.16258
-0.12607
-0.26298
-0.3976
-0.36794
-0.30975
-0.166
0.033657
0.18996
0.28123
0.31546
0.29036
0.25956
0.22989
0.23331
0.24358
0.2664
0.28808
0.31432
0.34284
0.35767
0.36908
0.35083
0.32801
0.30519
0.29378
0.2721
0.25043
0.24358
0.25385
0.28694
0.32573
0.34626
0.35767
0.35311
0.34512
0.3474
0.34398
0.32915
0.29606
0.24244
0.16714
0.061038
-0.0051341
-0.12379
-0.18197
-0.21392
-0.21392
-0.18882
-0.20137
-0.21734
-0.18311
-0.15459
-0.12949
-0.15687
-0.20137
-0.14204
-0.13292
-0.066743
-0.031375
0.042784
0.14318
0.22076
0.27895
0.34056
0.39418
0.44324
0.48774
0.52082
0.54934
0.54364
0.50599
0.43639
0.37479
0.33942
0.33371
0.33371
0.30291
0.18768
-0.006275
-0.24358
-0.31432
-0.27096
-0.086138
0.081574
0.19566
0.29264
0.37365
0.44666
0.48203
0.50941
0.54592
0.59726
0.6429
0.68283
0.70108
0.71135
0.71021
0.70337
0.69538
0.67598
0.65203
0.62008
0.58471
0.55847
0.55048
0.54022
0.51284
0.46378
0.40217
0.34626
0.3166
0.26982
0.16942
-0.099829
-0.42841
-0.80491
-0.89047
-0.80833
-0.59498
-0.42042
-0.3474
-0.28237
-0.21962
-0.15687
-0.10782
-0.03822
0.037079
0.10896
0.17285
0.25613
0.34398
0.40103
0.42384
0.39532
0.36452
0.33143
0.29835
0.28351
0.2915
0.3166
0.34398
0.35083
0.32345
0.21962
-0.0051341
-0.25956
-0.48431
-0.59384
-0.5482
-0.46035
-0.29264
-0.13406
0.0051341
0.099829
0.15459
0.17627
0.19566
0.22989
0.29036
0.3611
0.43297
0.49572
0.5425
0.56303
0.56988
0.55391
0.55048
0.55163
0.55391
0.55505
0.55619
0.55733
0.54364
0.52653
0.49686
0.45921
0.42955
0.40673
0.40787
0.40673
0.43183
0.45807
0.47975
0.48774
0.29264
-0.22989
-0.52881
-0.75471
-0.57673
-0.41358
-0.33485
-0.28694
-0.24929
-0.20479
-0.11808
-0.017684
0.10097
0.19452
0.27667
0.32573
0.34512
0.40901
0.44894
0.47975
0.45237
0.39989
0.34969
0.31546
0.31204
0.34284
0.40901
0.46834
0.5174
0.48774
0.417
0.22076
0.082715
-0.166
-0.26298
-0.33029
-0.28465
-0.1854
-0.10211
-0.072447
-0.059897
-0.065602
-0.033657
0.02567
0.12265
0.22076
0.30063
0.35995
0.39875
0.44894
0.49686
0.54592
0.58243
0.60639
0.61666
0.61095
0.60639
0.59156
0.58357
0.58243
0.58813
0.59156
0.60297
0.60867
0.60297
0.58699
0.55733
0.52539
0.49572
0.48089
0.45693
0.43868
0.42384
0.40445
0.1603
-0.33029
-0.61438
-0.81175
-0.64518
-0.53679
-0.47861
-0.44552
-0.43069
-0.41244
-0.35539
-0.2607
-0.17056
-0.16828
-0.19452
-0.16486
-0.06332
0.10325
0.26298
0.3725
0.47176
0.56418
0.63377
0.64518
0.54592
0.20936
-0.20023
-0.45465
-0.5482
-0.38049
-0.20023
-0.019966
0.12607
0.20936
0.25043
0.27096
0.30975
0.34626
0.38277
0.41358
0.43183
0.4421
0.4421
0.4421
0.44552
0.45579
0.45807
0.4478
0.44324
0.43982
0.43868
0.45237
0.47404
0.48317
0.47519
0.43525
0.35311
0.0051341
-0.3417
-0.6486
-0.69538
-0.5231
-0.40103
-0.33371
-0.26754
-0.20936
-0.14775
-0.062179
0.042784
0.14889
0.22875
0.30063
0.34855
0.39418
0.43525
0.47861
0.52196
0.56418
0.59612
0.62578
0.64746
0.66914
0.67941
0.68739
0.68055
0.668
0.65545
0.64176
0.62807
0.6178
0.61323
0.5984
0.58471
0.56532
0.54364
0.52196
0.50713
0.49572
0.49344
0.49572
0.50371
0.50713
0.51968
0.53565
0.56532
0.39989
-0.14889
-0.56874
-0.99087
-0.90645
-0.74216
-0.62693
-0.5482
-0.51398
-0.49344
-0.49572
-0.48659
-0.42841
-0.35995
-0.2607
-0.11466
-0.00057045
0.064461
0.042784
-0.019966
-0.072447
-0.091843
-0.091843
-0.047347
0.031375
0.083856
-0.048488
-0.066743
-0.21962
-0.1603
-0.10896
-0.022248
0.090702
0.21278
0.30519
0.35197
0.38277
0.39646
0.41472
0.42384
0.43754
0.45123
0.4729
0.50029
0.53908
0.58015
0.62693
0.66229
0.66914
0.63948
0.56189
0.45009
0.24244
-0.024529
-0.30177
-0.50371
-0.43639
-0.336
-0.21164
-0.19909
-0.25271
-0.26868
-0.28237
-0.35995
-0.35539
-0.39076
-0.2972
-0.18996
-0.08842
-0.01312
0.040502
0.092983
0.16144
0.22875
0.28694
0.33485
0.38734
0.43411
0.48659
0.53793
0.59042
0.61438
0.63263
0.64176
0.64518
0.62921
0.55048
0.41244
0.166
-0.13177
-0.46149
-0.69196
-0.6931
-0.62122
-0.48888
-0.41586
-0.35425
-0.26298
-0.16942
-0.090702
-0.023388
0.070165
0.15345
0.24358
0.35995
0.44894
0.52082
0.52881
0.49686
0.46606
0.43639
0.41244
0.41928
0.44438
0.47861
0.50713
0.53337
0.56303
0.56532
0.54136
0.38505
0.080434
-0.19224
-0.50485
-0.59042
-0.58471
-0.45693
-0.28237
-0.1603
-0.10667
-0.10667
-0.12265
-0.12379
-0.11694
-0.14432
-0.13063
-0.10896
-0.032516
0.045066
0.12379
0.19795
0.28123
0.34969
0.40103
0.43411
0.45807
0.48203
0.51169
0.54478
0.56988
0.57558
0.5425
0.49344
0.43183
0.417
0.46492
0.53451
0.59954
0.60639
0.56189
0.44552
0.19224
-0.18996
-0.53451
-0.69424
-0.61666
-0.47633
-0.28009
-0.080434
0.08842
0.20936
0.2607
0.2972
0.32459
0.36338
0.3862
0.41129
0.44552
0.48545
0.53223
0.5733
0.5984
0.60867
0.62008
0.61438
0.59498
0.58928
0.60981
0.65659
0.68397
0.6429
0.5231
0.1101
-0.14204
-0.41129
-0.40331
-0.32345
-0.24815
-0.17056
-0.13748
-0.12493
-0.099829
-0.048488
0.034797
0.13063
0.22533
0.31546
0.39532
0.45237
0.50713
0.55048
0.59384
0.60411
0.60753
0.60639
0.61323
0.63149
0.65203
0.67142
0.68625
0.69766
0.71021
0.7182
0.72504
0.73075
0.73189
0.72618
0.72162
0.70907
0.69082
0.67256
0.65773
0.54022
0.079293
-0.2664
-0.59042
-0.57558
-0.44894
-0.37479
-0.31546
-0.26754
-0.24929
-0.24815
-0.24701
-0.21392
-0.166
-0.095265
-0.0051341
0.077011
0.12949
0.14889
0.14546
0.15345
0.15345
0.15459
0.1603
0.20593
0.25157
0.26412
0.1911
-0.13177
-0.23902
-0.47747
-0.41928
-0.34512
-0.23788
-0.079293
0.064461
0.17056
0.24815
0.30861
0.35881
0.39304
0.42841
0.45123
0.47861
0.50713
0.52653
0.53908
0.52767
0.52539
0.5231
0.5482
0.57787
0.60753
0.63491
0.65887
0.67712
0.67028
0.64062
0.62464
0.64518
0.70565
0.75813
0.71021
0.38277
-0.10896
-0.59384
-0.84712
-0.81517
-0.68625
-0.55961
-0.44894
-0.38505
-0.32915
-0.27781
-0.20593
-0.12493
-0.034797
0.051911
0.1409
0.23446
0.33029
0.41015
0.4729
0.53337
0.57901
0.63605
0.69424
0.73189
0.73759
0.69424
0.63377
0.54592
0.22989
-0.011979
-0.37365
-0.50029
-0.49686
-0.41129
-0.26868
-0.11352
0.00057045
0.070165
0.090702
0.10325
0.12493
0.16144
0.21506
0.2721
0.32687
0.37707
0.41472
0.44552
0.47519
0.49914
0.53793
0.56189
0.5733
0.55505
0.53451
0.53679
0.59042
0.63377
0.63833
0.55505
0.3223
-0.011979
-0.30177
-0.51284
-0.54364
-0.53223
-0.4672
-0.37821
-0.32345
-0.29264
-0.24472
-0.17741
-0.089561
-0.006275
0.065602
0.15003
0.20707
0.27096
0.33828
0.41015
0.46834
0.51968
0.54022
0.56418
0.58243
0.61095
0.63263
0.64632
0.65773
0.63605
0.54934
0.15459
-0.047347
-0.37479
-0.42499
-0.42042
-0.35311
-0.24929
-0.166
-0.11808
-0.080434
-0.03822
0.0096977
0.057616
0.10097
0.15117
0.21734
0.28123
0.3474
0.39532
0.44894
0.49458
0.52653
0.55391
0.5733
0.59384
0.62578
0.65317
0.67827
0.68739
0.6988
0.68625
0.68055
0.68169
0.68625
0.66686
0.4421
0.055334
-0.28009
-0.52424
-0.52082
-0.48203
-0.41814
-0.34969
-0.2972
-0.26982
-0.25157
-0.22191
-0.18311
-0.12037
-0.034797
0.056475
0.12835
0.1911
0.24815
0.29949
0.35425
0.39875
0.43982
0.47176
0.49686
0.51968
0.54022
0.55163
0.55391
0.55619
0.56988
0.59498
0.61438
0.62693
0.63263
0.63605
0.62921
0.61666
0.60525
0.59726
0.59726
0.5231
0.18654
-0.166
-0.4729
-0.56988
-0.51398
-0.45237
-0.3976
-0.33143
-0.29606
-0.2858
-0.28922
-0.28237
-0.2356
-0.16714
-0.051911
0.055334
0.11466
0.12265
0.11124
0.1101
0.13862
0.19566
0.26184
0.33828
0.38505
0.34855
0.12037
-0.0039932
-0.23331
-0.26526
-0.29606
-0.33143
-0.28808
-0.20936
-0.12721
-0.033657
0.073588
0.19681
0.32116
0.43297
0.52653
0.60068
0.64632
0.66343
0.64404
0.60639
0.55733
0.49686
0.4421
0.40103
0.39304
0.40673
0.43639
0.46492
0.48659
0.51055
0.53223
0.55619
0.58357
0.60981
0.63377
0.66343
0.68055
0.68625
0.69082
0.7239
0.76612
0.78893
0.72961
0.47176
0.12037
-0.26412
-0.50143
-0.59042
-0.60297
-0.54364
-0.43639
-0.36452
-0.33828
-0.33371
-0.32915
-0.28922
-0.22191
-0.13976
-0.042784
0.019966
0.067884
0.12037
0.19452
0.28922
0.37022
0.42156
0.42841
0.40331
0.33371
0.065602
-0.069025
-0.3166
-0.37479
-0.41472
-0.38049
-0.2721
-0.14318
-0.035938
0.043925
0.097547
0.15573
0.23674
0.33714
0.4227
0.49116
0.53337
0.53908
0.51854
0.47519
0.42042
0.38049
0.33828
0.31204
0.30747
0.33029
0.37593
0.42841
0.46492
0.50029
0.54934
0.60068
0.63833
0.63605
0.56189
0.33143
0.022248
-0.3109
-0.49116
-0.5425
-0.53109
-0.46035
-0.35539
-0.26868
-0.22305
-0.17513
-0.12493
-0.054193
0.0017114
0.046207
0.098688
0.15345
0.2162
0.28237
0.33485
0.38734
0.43982
0.53109
0.61209
0.65887
0.62236
0.50599
0.17171
-0.0028523
-0.3223
-0.39304
-0.43297
-0.42499
-0.336
-0.2105
-0.07587
0.014261
0.073588
0.14432
0.24358
0.3668
0.45693
0.51968
0.54364
0.56646
0.54706
0.49914
0.4421
0.40901
0.40559
0.42156
0.417
0.4227
0.43754
0.47176
0.51169
0.5425
0.57673
0.60867
0.62921
0.6486
0.66115
0.67712
0.67712
0.67256
0.69082
0.74102
0.79806
0.7992
0.67941
0.24358
-0.011979
-0.39076
-0.48774
-0.53793
-0.51169
-0.41472
-0.30633
-0.25956
-0.24929
-0.25043
-0.23103
-0.22076
-0.17627
-0.12949
-0.047347
0.031375
0.082715
0.15459
0.25271
0.35995
0.44096
0.47633
0.46606
0.43069
0.27667
0.092983
-0.12265
-0.27667
-0.32573
-0.36452
-0.31888
-0.22533
-0.11694
-0.039361
0.010839
0.053052
0.11922
0.22191
0.33029
0.43069
0.50941
0.55277
0.58471
0.57787
0.53908
0.49116
0.46492
0.45009
0.43639
0.40559
0.36566
0.30633
0.0096977
-0.21392
-0.5676
-0.66458
-0.69652
-0.64176
-0.49344
-0.28808
-0.12037
-0.029093
0.048488
0.14889
0.28351
0.40673
0.51968
0.60183
0.66229
0.68853
0.69538
0.67484
0.63605
0.58129
0.53451
0.49458
0.46606
0.44894
0.43069
0.42499
0.43525
0.46378
0.50485
0.5482
0.57901
0.5984
0.62236
0.65887
0.668
0.61666
0.28351
-0.05077
-0.41244
-0.5927
-0.5984
-0.56418
-0.47404
-0.35767
-0.26754
-0.21278
-0.17056
-0.12721
-0.065602
-0.014261
0.022248
0.057616
0.095265
0.15801
0.24244
0.32002
0.37593
0.42042
0.45009
0.48431
0.51284
0.53565
0.56988
0.6235
0.69994
0.75471
0.76155
0.5927
0.2915
-0.041643
-0.30291
-0.41015
-0.52196
-0.52539
-0.46264
-0.33942
-0.22989
-0.16714
-0.12607
-0.055334
0.027952
0.11352
0.17171
0.20479
0.22989
0.24016
0.27096
0.32002
0.37593
0.42156
0.44894
0.47062
0.50029
0.54136
0.57216
0.60068
0.61666
0.62921
0.63491
0.63833
0.6429
0.63948
0.63377
0.63035
0.64062
0.64176
0.62008
0.57102
0.54136
0.54136
0.50371
0.27781
-0.28351
-0.65431
-0.88705
-0.80148
-0.65203
-0.52082
-0.36566
-0.25043
-0.18426
-0.166
-0.11808
-0.084997
-0.058756
-0.026811
0.0051341
0.10211
0.20821
0.30405
0.37935
0.42499
0.47861
0.53109
0.5676
0.56988
0.47747
0.23788
0.011979
-0.23331
-0.31888
-0.38734
-0.37365
-0.30291
-0.19681
-0.081574
-0.0017114
0.030234
0.077011
0.15801
0.25956
0.36452
0.45807
0.54136
0.60411
0.65659
0.68853
0.69766
0.69538
0.66343
0.62693
0.56646
0.45351
0.18083
-0.12721
-0.47747
-0.69196
-0.76269
-0.7741
-0.68397
-0.51169
-0.36452
-0.24815
-0.16828
-0.10439
-0.0085568
0.12835
0.2664
0.39989
0.50485
0.5927
0.66001
0.71135
0.7433
0.75128
0.73075
0.68511
0.6235
0.5482
0.49458
0.44096
0.40901
0.38734
0.37707
0.38734
0.40445
0.43868
0.47519
0.50371
0.54478
0.57901
0.60411
0.5984
0.58129
0.59042
0.54364
0.36566
-0.25385
-0.63719
-1
-0.93269
-0.75471
-0.58471
-0.41472
-0.28922
-0.1911
-0.11466
-0.039361
0.037079
0.1158
0.18654
0.23788
0.25499
0.25956
0.26754
0.29036
0.32573
0.34626
0.3862
0.45237
0.53223
0.60068
0.62807
0.58357
0.28922
0.1158
-0.20251
-0.31318
-0.42042
-0.46149
-0.43297
-0.3417
-0.23331
-0.16144
-0.11124
-0.039361
0.070165
0.20479
0.32915
0.43639
0.5174
0.56418
0.58357
0.57787
0.55733
0.51626
0.45693
0.42156
0.39989
0.41129
0.41244
0.41928
0.4421
0.4923
0.53679
0.50827
0.37821
-0.010839
-0.21392
-0.47747
-0.53109
-0.58243
-0.54478
-0.42156
-0.26868
-0.18996
-0.1352
-0.073588
0.01312
0.11922
0.20707
0.27667
0.32915
0.35881
0.37365
0.37821
0.37593
0.37707
0.39304
0.42384
0.46834
0.50257
0.53679
0.5733
0.62122
0.65887
0.68283
0.70222
0.7182
0.72618
0.7182
0.7239
0.72276
0.71592
0.69766
0.69652
0.72276
0.64974
0.17969
-0.16372
-0.64518
-0.74444
-0.72732
-0.63948
-0.47519
-0.32801
-0.21506
-0.15117
-0.078152
0.0074159
0.083856
0.1409
0.15687
0.15916
0.15687
0.16372
0.21848
0.25727
0.30633
0.34626
0.42613
0.52995
0.63948
0.68967
0.67598
0.55163
0.26412
0.0074159
-0.25043
-0.32573
-0.41129
-0.42955
-0.40559
-0.33143
-0.24016
-0.18083
-0.14204
-0.07587
0.041643
0.17399
0.31318
0.4227
0.50029
0.5482
0.56532
0.54934
0.51055
0.44438
0.38848
0.35653
0.35197
0.34512
0.3417
0.35881
0.40217
0.44666
0.49002
0.51512
0.56075
0.60639
0.64974
0.668
0.66343
0.63035
0.31546
0.051911
-0.42156
-0.65431
-0.72276
-0.71706
-0.6235
-0.51968
-0.43868
-0.37365
-0.30405
-0.20479
-0.067884
0.081574
0.19452
0.27439
0.32915
0.3417
0.34626
0.33828
0.35425
0.37821
0.39076
0.38734
0.37593
0.39989
0.47062
0.56075
0.64518
0.66229
0.50257
0.24815
-0.045066
-0.24358
-0.32573
-0.41814
-0.42384
-0.3668
-0.26298
-0.18882
-0.1409
-0.073588
0.011979
0.1101
0.18882
0.27096
0.3223
0.38277
0.40559
0.40103
0.38848
0.38505
0.42156
0.48431
0.52653
0.55277
0.58015
0.60525
0.64518
0.68055
0.7182
0.74786
0.77068
0.80148
0.82088
0.81061
0.56189
0.22875
-0.14432
-0.38505
-0.41244
-0.42955
-0.38962
-0.34056
-0.31432
-0.2915
-0.25956
-0.17627
-0.092983
-0.017684
0.054193
0.12037
0.14318
0.18083
0.18197
0.20821
0.2413
0.29492
0.3417
0.38848
0.42613
0.47062
0.53109
0.60981
0.70793
0.81631
0.8688
0.80034
0.48317
0.20137
-0.12379
-0.25841
-0.37707
-0.43754
-0.42727
-0.41015
-0.34056
-0.28009
-0.20821
-0.11238
0.0039932
0.13748
0.24701
0.33029
0.38505
0.42384
0.42384
0.41129
0.39076
0.35539
0.34398
0.3474
0.37365
0.40559
0.43411
0.47861
0.51968
0.56075
0.59156
0.61666
0.64062
0.66115
0.68169
0.70793
0.73189
0.73645
0.70793
0.65659
0.59612
0.59612
0.61666
0.62693
0.29492
-0.019966
-0.43754
-0.5984
-0.60525
-0.56189
-0.4672
-0.36452
-0.30975
-0.2721
-0.2413
-0.1854
-0.11466
-0.06332
-0.047347
-0.041643
-0.033657
0.031375
0.1409
0.2664
0.35653
0.41814
0.42499
0.38734
0.18996
0.099829
-0.13406
-0.22761
-0.30747
-0.3417
-0.29949
-0.23902
-0.16372
-0.094124
-0.048488
0.015402
0.089561
0.1854
0.28351
0.37479
0.46948
0.54364
0.60981
0.65431
0.69082
0.72276
0.73987
0.74558
0.72504
0.68511
0.62464
0.53109
0.43525
0.36794
0.30177
0.28808
0.29378
0.3417
0.41472
0.4923
0.5482
0.44438
0.18882
-0.13406
-0.41928
-0.52539
-0.59954
-0.58015
-0.53565
-0.45465
-0.36452
-0.29606
-0.23103
-0.15117
-0.041643
0.082715
0.17741
0.26184
0.31774
0.36224
0.39989
0.40673
0.38049
0.35995
0.3611
0.41244
0.4672
0.50713
0.5482
0.59612
0.66115
0.70337
0.71249
0.70565
0.70222
0.71477
0.63948
0.32573
0.099829
-0.22076
-0.33485
-0.4478
-0.47404
-0.42727
-0.35311
-0.30747
-0.25043
-0.17855
-0.080434
0.021107
0.10211
0.16942
0.23446
0.27325
0.30291
0.30633
0.28694
0.28808
0.30975
0.35311
0.39076
0.42042
0.45009
0.498
0.55163
0.59726
0.63948
0.67028
0.69196
0.70565
0.71021
0.70222
0.68511
0.69424
0.72504
0.72847
0.42955
0.18654
-0.15916
-0.29949
-0.36338
-0.40217
-0.38962
-0.38049
-0.36566
-0.35995
-0.32687
-0.26868
-0.1854
-0.10553
-0.019966
0.041643
0.097547
0.11808
0.10782
0.071306
0.037079
-0.011979
-0.06332
-0.10325
-0.081574
0.0017114
0.12721
0.2413
0.31774
0.31204
0.32345
0.17627
0.092983
-0.056475
-0.15003
-0.19566
-0.27325
-0.33942
-0.36794
-0.34284
-0.25841
-0.1409
0.00057045
0.14775
0.28808
0.40787
0.49344
0.53679
0.56303
0.55048
0.53565
0.48659
0.41586
0.35539
0.32915
0.34398
0.37821
0.39875
0.417
0.44894
0.498
0.53908
0.56874
0.58813
0.60525
0.61894
0.63491
0.64974
0.65773
0.66343
0.66914
0.67598
0.67484
0.64974
0.60297
0.59042
0.60525
0.41244
0.13634
-0.19338
-0.38734
-0.42499
-0.47633
-0.51512
-0.53109
-0.51169
-0.47747
-0.41814
-0.33257
-0.25727
-0.16828
-0.07587
-0.01312
0.031375
0.080434
0.097547
0.12379
0.1101
0.067884
0.01312
-0.03822
-0.06332
-0.053052
-0.032516
-0.024529
-0.07587
-0.14661
-0.10896
-0.10553
-0.06332
-0.048488
-0.006275
0.11352
0.20936
0.27553
0.32915
0.34969
0.35539
0.34056
0.32915
0.29492
0.2607
0.19795
0.14546
0.10782
0.1158
0.23103
0.37935
0.5231
0.58699
0.56646
0.45009
0.12835
-0.23446
-0.62122
-0.78323
-0.75927
-0.65203
-0.53679
-0.43754
-0.37593
-0.30975
-0.18996
-0.041643
0.12151
0.28009
0.4227
0.55505
0.65887
0.7433
0.80034
0.84484
0.86537
0.87906
0.88021
0.88021
0.86766
0.85739
0.84256
0.83115
0.8186
0.80605
0.78779
0.7684
0.73873
0.69538
0.65659
0.64176
0.65659
0.65773
0.6178
0.55619
0.43754
0.092983
-0.23331
-0.54022
-0.67142
-0.63948
-0.61438
-0.58928
-0.58015
-0.57558
-0.56189
-0.50143
-0.39418
-0.2607
-0.10553
0.049629
0.17969
0.30291
0.41472
0.50257
0.55277
0.55961
0.55961
0.56874
0.56075
0.53223
0.46606
0.39532
0.30519
0.19452
0.016543
-0.30861
-0.47633
-0.69538
-0.70222
-0.65773
-0.53908
-0.37593
-0.23103
-0.1409
-0.053052
0.05077
0.17171
0.29036
0.41472
0.51968
0.60411
0.67028
0.7182
0.75357
0.78095
0.79464
0.79806
0.7935
0.78437
0.76612
0.72847
0.67028
0.5984
0.55733
0.52539
0.51169
0.49458
0.50599
0.53679
0.52995
0.47975
0.32915
-0.080434
-0.47975
-0.78095
-0.82088
-0.67256
-0.54592
-0.47747
-0.4227
-0.36224
-0.2858
-0.25043
-0.17627
-0.092983
0.026811
0.14775
0.24815
0.30291
0.3223
0.32915
0.34855
0.40103
0.45009
0.4729
0.45921
0.41814
0.36224
0.31204
0.2721
0.22076
0.19795
0.13862
0.0085568
-0.11808
-0.22191
-0.23103
-0.18768
-0.18996
-0.19452
-0.2162
-0.23217
-0.26298
-0.29949
-0.3474
-0.3862
-0.37136
-0.2972
-0.17627
-0.022248
0.15801
0.3668
0.55847
0.68169
0.73417
0.75128
0.7433
0.71363
0.67598
0.62464
0.58015
0.50827
0.45693
0.40331
0.40673
0.43297
0.47519
0.51854
0.55277
0.59042
0.60068
0.55961
0.49116
0.21164
-0.010839
-0.17513
-0.20821
-0.10439
-0.08842
-0.095265
-0.10211
-0.12037
-0.11808
-0.092983
-0.035938
0.055334
0.15687
0.27096
0.37136
0.45579
0.50257
0.53223
0.54022
0.52767
0.50599
0.44438
0.41015
0.3862
0.40673
0.43639
0.46264
0.47975
0.50599
0.53908
0.57102
0.59954
0.63491
0.67827
0.72847
0.77867
0.78095
0.73873
0.69424
0.66458
0.62122
0.25157
0.066743
-0.18083
-0.18197
-0.18083
-0.2664
-0.32915
-0.32002
-0.28694
-0.25043
-0.19681
-0.12037
-0.017684
0.084997
0.17627
0.25841
0.32687
0.32915
0.30177
0.26754
0.26868
0.29949
0.3417
0.37821
0.417
0.46492
0.5174
0.56646
0.62236
0.67827
0.73645
0.78323
0.80833
0.80376
0.77068
0.68169
0.37707
0.19795
-0.079293
-0.15573
-0.24586
-0.31432
-0.36908
-0.40217
-0.40787
-0.42841
-0.41015
-0.34969
-0.24815
-0.12493
-0.030234
0.041643
0.047347
0.14661
0.1854
0.1911
0.10553
-0.051911
-0.12493
-0.14889
-0.14661
-0.13177
-0.098688
-0.049629
0.019966
0.10211
0.18768
0.24586
0.27667
0.28465
0.2972
0.32116
0.34855
0.37365
0.40445
0.42955
0.44666
0.45465
0.45921
0.45921
0.4729
0.48659
0.50941
0.50713
0.4729
0.34512
0.023388
-0.18882
-0.39646
-0.40217
-0.38049
-0.40673
-0.41472
-0.42841
-0.43868
-0.41814
-0.37022
-0.26868
-0.12607
0.046207
0.21734
0.34284
0.38734
0.3725
0.33485
0.32915
0.35311
0.38163
0.40787
0.43754
0.46492
0.48888
0.49458
0.417
0.10211
-0.1101
-0.33257
-0.32116
-0.24815
-0.16258
-0.030234
0.098688
0.18654
0.20707
0.19681
0.20023
0.23331
0.29264
0.35083
0.42042
0.48774
0.53565
0.55163
0.55847
0.57787
0.57673
0.5733
0.54364
0.49344
0.46492
0.42727
0.24815
0.12607
-0.11694
-0.19681
-0.23217
-0.27895
-0.29378
-0.30633
-0.29492
-0.25385
-0.23674
-0.22191
-0.17969
-0.092983
0.022248
0.16714
0.28009
0.38848
0.46492
0.5231
0.56303
0.59612
0.62464
0.63719
0.64632
0.64176
0.62807
0.60411
0.55733
0.49686
0.45123
0.43069
0.43982
0.45693
0.48774
0.52995
0.57444
0.63491
0.65887
0.65088
0.43525
0.12037
-0.24358
-0.4478
-0.43069
-0.38734
-0.33942
-0.32801
-0.31774
-0.2915
-0.26184
-0.20479
-0.11352
0.018825
0.15573
0.27096
0.37136
0.44324
0.50257
0.54364
0.5676
0.58813
0.60867
0.58357
0.5174
0.417
0.34284
0.32915
0.34512
0.38505
0.42613
0.48089
0.55847
0.63605
0.66115
0.63719
0.56646
0.3474
0.15687
-0.092983
-0.17513
-0.16144
-0.16144
-0.18083
-0.23217
-0.27439
-0.29378
-0.30519
-0.29378
-0.26298
-0.16942
-0.056475
0.056475
0.1603
0.24929
0.3223
0.36908
0.39418
0.40445
0.39646
0.36452
0.30405
0.23674
0.20251
0.21278
0.24815
0.28465
0.31888
0.34969
0.38277
0.42384
0.46378
0.51169
0.55163
0.58129
0.61095
0.64062
0.67712
0.70907
0.69082
0.65773
0.64974
0.68283
0.65659
0.38734
0.166
-0.1101
-0.20936
-0.2721
-0.32687
-0.35881
-0.40331
-0.44666
-0.47975
-0.4672
-0.39304
-0.3109
-0.2607
-0.22761
-0.19338
-0.19452
-0.18426
-0.19224
-0.13748
-0.0074159
0.12835
0.19452
0.13976
-0.019966
-0.10439
-0.13177
-0.055334
0.049629
0.15117
0.24016
0.23674
0.12037
-0.051911
-0.23331
-0.39076
-0.47633
-0.53908
-0.52196
-0.48089
-0.38391
-0.23902
-0.071306
0.10325
0.24472
0.35311
0.417
0.44438
0.45921
0.47404
0.50485
0.55048
0.58813
0.60068
0.56303
0.47062
0.31204
0.13063
-0.033657
-0.14775
-0.23103
-0.24472
-0.24586
-0.17741
-0.039361
0.066743
0.15459
0.16144
0.031375
-0.034797
-0.071306
-0.034797
0.091843
0.21962
0.36566
0.50257
0.58129
0.61438
0.62236
0.62807
0.64062
0.64518
0.62578
0.5984
0.56189
0.4227
0.16258
-0.10667
-0.38962
-0.50827
-0.54364
-0.43525
-0.29036
-0.2162
-0.23217
-0.26868
-0.2972
-0.30177
-0.25956
-0.13748
-0.0074159
0.069025
0.10211
0.13177
0.20936
0.34512
0.47861
0.61095
0.7182
0.78665
0.82544
0.84598
0.83571
0.78323
0.57901
0.28808
0.037079
-0.18426
-0.25385
-0.30177
-0.24472
-0.11352
0.015402
0.095265
0.13292
0.19681
0.2721
0.37022
0.47062
0.54706
0.61666
0.66914
0.71135
0.75585
0.77867
0.77524
0.72847
0.66914
0.60753
0.5733
0.56532
0.58243
0.64176
0.70451
0.75585
0.76383
0.72847
0.6737
0.60525
0.54706
0.53908
0.57787
0.60753
0.41129
0.31888
0.096406
-0.0051341
-0.11466
-0.20023
-0.23446
-0.22647
-0.27667
-0.32687
-0.35653
-0.3166
-0.21164
-0.086138
0.032516
0.14318
0.23902
0.29492
0.32002
0.28123
0.22761
0.19795
0.20023
0.22989
0.27096
0.3223
0.38391
0.45693
0.52881
0.59726
0.66229
0.72162
0.76269
0.76954
0.76383
0.73531
0.68169
0.40331
0.18996
-0.1352
-0.23674
-0.27096
-0.26868
-0.30975
-0.35995
-0.3919
-0.38277
-0.37707
-0.35425
-0.30177
-0.20365
-0.092983
0.011979
0.10211
0.18197
0.25613
0.32915
0.39532
0.43411
0.43411
0.40217
0.33942
0.27439
0.22191
0.21506
0.23674
0.2858
0.30633
0.30975
0.2972
0.2858
0.2858
0.30975
0.34626
0.38962
0.42613
0.46378
0.4923
0.51284
0.51854
0.52767
0.52424
0.52082
0.51284
0.50599
0.49344
0.47747
0.4672
0.45009
0.43411
0.42613
0.43868
0.45921
0.4923
0.54022
0.58928
0.58129
0.25841
0.048488
-0.25385
-0.29949
-0.29378
-0.29036
-0.29606
-0.30975
-0.38163
-0.51284
-0.62464
-0.65431
-0.58129
-0.51169
-0.47519
-0.4672
-0.46149
-0.36338
-0.18882
0.031375
0.24358
0.41358
0.53337
0.59384
0.50143
0.18426
0.051911
-0.061038
0.090702
0.19795
0.2607
0.2915
0.24929
0.11694
-0.067884
-0.26298
-0.38391
-0.45009
-0.45807
-0.41358
-0.35539
-0.26298
-0.1409
-0.0074159
0.099829
0.17171
0.19909
0.21278
0.20365
0.21392
0.21506
0.21962
0.17399
0.051911
-0.027952
-0.082715
-0.018825
0.094124
0.21848
0.35539
0.48203
0.55163
0.53337
0.28808
0.041643
-0.080434
0.024529
0.27667
0.40331
0.417
0.32459
0.14318
-0.058756
-0.17399
-0.18768
-0.11694
-0.022248
0.069025
0.1603
0.24244
0.336
0.42384
0.50257
0.55505
0.57673
0.56532
0.54592
0.51512
0.49572
0.48317
0.48203
0.50143
0.53679
0.57216
0.60867
0.63377
0.65317
0.65773
0.66458
0.66914
0.66572
0.66914
0.66572
0.668
0.65545
0.65545
0.6486
0.64404
0.64518
0.63833
0.61894
0.60297
0.60183
0.60981
0.54706
0.2972
0.12721
-0.057616
-0.1158
-0.22989
-0.33143
-0.38049
-0.40673
-0.47176
-0.51968
-0.52082
-0.45351
-0.33371
-0.23788
-0.1409
-0.072447
-0.054193
-0.054193
-0.069025
-0.059897
0.0017114
0.096406
0.19909
0.28351
0.32687
0.33828
0.37479
0.42156
0.49572
0.56532
0.57558
0.53337
0.45237
0.34056
0.24016
0.13634
-0.0039932
-0.1101
-0.22875
-0.35539
-0.45237
-0.5482
-0.56075
-0.52082
-0.44096
-0.34512
-0.23103
-0.11808
-0.006275
0.10097
0.19681
0.27439
0.34398
0.39989
0.44552
0.47062
0.47633
0.44096
0.38734
0.31888
0.27439
0.26526
0.28922
0.32687
0.35539
0.36566
0.35653
0.35083
0.35425
0.38163
0.41472
0.44552
0.47062
0.48774
0.4923
0.48545
0.4729
0.4478
0.40673
0.31546
0.20707
0.10097
0.0096977
0.00057045
0.070165
0.22533
0.37821
0.4421
0.41015
0.32116
0.19338
0.059897
-0.10439
-0.30519
-0.46834
-0.57216
-0.56418
-0.47747
-0.35539
-0.21392
-0.087279
0.046207
0.15231
0.25043
0.32459
0.39304
0.44552
0.49344
0.53337
0.57102
0.60639
0.62921
0.66001
0.67256
0.69994
0.73417
0.78209
0.79464
0.5231
0.43525
0.10782
-0.096406
-0.31888
-0.52767
-0.56874
-0.55505
-0.54364
-0.5231
-0.48089
-0.39646
-0.27325
-0.15459
-0.031375
0.089561
0.20137
0.28694
0.34969
0.37707
0.38848
0.38962
0.37022
0.34855
0.31774
0.32915
0.36566
0.41015
0.42156
0.39989
0.3725
0.3474
0.35653
0.38163
0.41129
0.44438
0.47633
0.51398
0.54934
0.57901
0.58699
0.5676
0.52653
0.48089
0.45123
0.45807
0.50371
0.58129
0.68511
0.81746
0.9441
1
0.85739
0.48317
0.13063
-0.21164
-0.34626
-0.45693
-0.53109
-0.55505
-0.62122
-0.69652
-0.70793
-0.64518
-0.5425
-0.41472
-0.30405
-0.22076
-0.15231
-0.14546
-0.18882
-0.17513
-0.079293
0.094124
0.29949
0.47633
0.56075
0.53793
0.2607
-0.039361
-0.19566
-0.15231
0.032516
0.20936
0.33828
0.41586
0.37365
0.26412
0.090702
-0.13292
-0.2105
-0.31432
-0.33485
-0.40559
-0.50485
-0.5425
-0.5231
-0.46834
-0.37707
-0.27667
-0.16486
-0.072447
0.0051341
0.07587
0.14661
0.22875
0.28922
0.34284
0.3725
0.38277
0.3611
0.32915
0.30063
0.29264
0.30747
0.3417
0.38962
0.42841
0.46378
0.4923
0.52082
0.53908
0.56189
0.57901
0.5927
0.59726
0.59726
0.59498
0.59384
0.5984
0.60068
0.59726
0.5733
0.53565
0.47404
0.40787
0.35083
0.35653
0.43982
0.58928
0.77524
0.90873
0.93383
0.62921
0.33143
-0.084997
-0.32116
-0.42727
-0.51854
-0.54592
-0.54706
-0.56418
-0.5733
-0.52995
-0.45123
-0.31204
-0.18311
-0.072447
0.018825
0.077011
0.12721
0.13292
0.11124
0.030234
-0.071306
-0.11694
-0.096406
0.055334
0.2664
0.49458
0.63605
0.6235
0.34855
0.11694
-0.10896
-0.08842
0.019966
0.14432
0.28351
0.36908
0.35767
0.27325
0.1158
-0.1911
-0.36338
-0.58015
-0.61323
-0.61209
-0.57444
-0.46264
-0.30177
-0.16372
-0.043925
0.035938
0.095265
0.14204
0.18197
0.23788
0.30975
0.3919
0.47062
0.53793
0.58699
0.62464
0.65088
0.67028
0.68511
0.6931
0.69424
0.69196
0.68511
0.67598
0.66458
0.65659
0.63719
0.61323
0.5927
0.58129
0.56874
0.56303
0.55391
0.52653
0.4729
0.41586
0.34398
0.29378
0.21392
0.021107
-0.19909
-0.3976
-0.38848
-0.18768
0.066743
0.28123
0.39989
0.3474
0.14661
-0.10782
-0.34626
-0.45351
-0.46492
-0.41015
-0.35197
-0.31774
-0.29835
-0.25499
-0.18311
-0.079293
0.043925
0.15687
0.25157
0.32459
0.38049
0.42384
0.44894
0.45351
0.43183
0.42156
0.43754
0.47404
0.51284
0.52539
0.52995
0.53908
0.5733
0.55277
0.29949
0.19338
-0.056475
-0.14546
-0.30177
-0.37821
-0.32801
-0.2105
-0.10896
-0.056475
-0.019966
0.02567
0.051911
0.094124
0.12835
0.17171
0.23446
0.26868
0.32345
0.36794
0.42841
0.47062
0.48431
0.50143
0.50029
0.50599
0.48888
0.42727
0.36224
0.29492
0.27667
0.26298
0.24929
0.23331
0.20707
0.18426
0.16258
0.17627
0.12721
0.022248
-0.086138
-0.18654
-0.20593
-0.23902
-0.26754
-0.29606
-0.28922
-0.26868
-0.22989
-0.17855
-0.10325
0.014261
0.17285
0.32345
0.44438
0.47861
0.45351
0.40103
0.3725
0.38049
0.43297
0.51398
0.5927
0.63491
0.67598
0.71135
0.75699
0.79806
0.80034
0.76269
0.70337
0.63491
0.57558
0.51284
0.4478
0.35767
0.27667
0.20707
0.17056
0.15231
0.15345
0.17627
0.22191
0.26982
0.30177
0.30633
0.30861
0.32345
0.36224
0.40787
0.43069
0.39875
0.3611
0.30177
0.10439
0.06332
0.022248
0.15916
0.29264
0.27553
0.19795
0.073588
-0.10553
-0.27553
-0.39076
-0.44552
-0.45579
-0.45237
-0.417
-0.34855
-0.26298
-0.19224
-0.12721
-0.065602
0.0028523
0.051911
0.15117
0.27781
0.42384
0.5482
0.60525
0.6429
0.67256
0.69082
0.67712
0.59498
0.40445
0.26868
0.08842
0.018825
0.014261
0.056475
0.16144
0.22761
0.24358
0.21734
0.14661
0.077011
0.062179
0.098688
0.15231
0.16258
0.039361
-0.10896
-0.22647
-0.25956
-0.20365
-0.097547
-0.0028523
0.083856
0.1158
0.13063
0.12721
0.13748
0.15801
0.18882
0.21392
0.22875
0.25499
0.33371
0.43868
0.52881
0.5676
0.57216
0.58471
0.62008
0.65088
0.6737
0.67256
0.67142
0.66458
0.66686
0.67142
0.67598
0.6737
0.67142
0.66572
0.6737
0.67712
0.66001
0.51626
0.27439
-0.017684
-0.31888
-0.43639
-0.46378
-0.37022
-0.26754
-0.20251
-0.15801
-0.10782
-0.066743
-0.018825
0.035938
0.090702
0.13862
0.19795
0.24244
0.2972
0.34398
0.41129
0.47519
0.57216
0.62807
0.64632
0.59384
0.52424
0.46378
0.41928
0.39076
0.36338
0.31774
0.25956
0.19681
0.15345
0.1409
0.15916
0.19909
0.26184
0.33714
0.41244
0.4478
0.41015
0.32002
0.21278
0.11808
0.016543
-0.11922
-0.2162
-0.18197
-0.046207
0.1158
0.27439
0.37479
0.48659
0.46948
0.35767
0.08842
-0.17969
-0.38277
-0.47633
-0.49002
-0.45921
-0.41586
-0.336
-0.21962
-0.092983
0.035938
0.15916
0.26754
0.3611
0.43069
0.48203
0.51055
0.53109
0.54364
0.55505
0.56418
0.56075
0.55847
0.55163
0.54478
0.54022
0.54022
0.53223
0.51968
0.51284
0.50029
0.48089
0.46035
0.44324
0.43525
0.43069
0.40559
0.3725
0.32801
0.28009
0.091843
-0.006275
-0.10097
-0.054193
0.035938
0.058756
0.030234
0.043925
0.02567
-0.024529
-0.15573
-0.34855
-0.44324
-0.45921
-0.42384
-0.44096
-0.4923
-0.49572
-0.43639
-0.32459
-0.21278
-0.14432
-0.13063
-0.17171
-0.1603
-0.14546
-0.006275
0.11694
0.22533
0.32915
0.42727
0.54136
0.61209
0.5984
0.50029
0.3223
0.10325
-0.023388
-0.073588
0.01312
0.10896
0.24358
0.37707
0.47633
0.52995
0.48774
0.35653
0.090702
-0.18654
-0.38734
-0.47975
-0.46606
-0.42841
-0.33371
-0.19452
-0.039361
0.11466
0.24701
0.36338
0.43754
0.4672
0.46606
0.44096
0.42727
0.4227
0.43183
0.43069
0.37935
0.42727
0.46834
0.55847
0.60525
0.61438
0.61552
0.60068
0.55619
0.48659
0.3976
0.27439
0.15459
0.069025
-0.0085568
-0.07587
-0.077011
-0.046207
0.015402
0.062179
0.10439
0.17171
0.26868
0.32459
0.33029
0.32687
0.29036
0.24701
0.24929
0.23331
0.25727
0.25841
0.13748
0.006275
-0.18083
-0.3109
-0.37821
-0.42384
-0.41586
-0.3611
-0.27439
-0.15687
-0.040502
0.051911
0.095265
0.1101
0.098688
0.086138
0.12721
0.20137
0.31774
0.43183
0.52196
0.60297
0.67028
0.72504
0.749
0.75242
0.7433
0.70451
0.67028
0.64176
0.64062
0.65545
0.69082
0.73303
0.7741
0.80719
0.81061
0.75585
0.50599
0.23103
-0.040502
-0.20821
-0.22191
-0.20707
-0.1158
-0.027952
0.021107
-0.00057045
-0.046207
-0.083856
-0.058756
0.0096977
0.12037
0.23674
0.32915
0.39418
0.39418
0.33828
0.25271
0.15801
0.11352
0.13177
0.22191
0.27667
0.29264
0.28465
0.29492
0.35311
0.40787
0.45009
0.4729
0.46149
0.37707
0.2664
0.17513
0.11922
0.053052
-0.034797
-0.073588
-0.045066
0.041643
0.12493
0.17741
0.20251
0.21278
0.18197
0.13406
0.080434
0.021107
-0.040502
-0.12493
-0.20479
-0.24701
-0.26184
-0.19566
-0.062179
0.087279
0.22191
0.27325
0.25841
0.1911
-0.014261
-0.24586
-0.51169
-0.72732
-0.85625
-0.8688
-0.75357
-0.54364
-0.32801
-0.21392
-0.17285
-0.16714
-0.1409
-0.073588
0.019966
0.13634
0.25613
0.37022
0.48089
0.56988
0.64632
0.71249
0.75813
0.79692
0.82772
0.8494
0.87336
0.88363
0.8939
0.89846
0.88477
0.85739
0.81061
0.67712
0.44324
0.25841
0.15916
0.16486
0.12721
0.14889
0.19795
0.27895
0.28922
0.17627
0.015402
-0.13406
-0.27667
-0.34855
-0.34969
-0.32002
-0.25956
-0.21392
-0.11808
0.029093
0.16942
0.25727
0.26982
0.22989
0.16258
0.11352
0.092983
0.14661
0.24016
0.35311
0.44666
0.51512
0.57558
0.62807
0.67484
0.71592
0.74444
0.75471
0.75357
0.74216
0.72732
0.71249
0.68967
0.66572
0.63605
0.60639
0.57787
0.54706
0.51626
0.48774
0.45921
0.43868
0.417
0.39532
0.37707
0.35767
0.34056
0.32459
0.31318
0.2972
0.28351
0.26982
0.25956
0.25043
0.2413
0.23446
0.23103
0.22191
0.21734
0.21506
0.2162
0.21164
0.21506
0.22191
0.2356
0.25499
0.27781
0.31888
0.34969
0.34969
0.12721
-0.018825
-0.12835
-0.053052
0.071306
0.078152
0.035938
-0.029093
-0.12721
-0.25385
-0.36452
-0.44666
-0.48089
-0.52196
-0.51626
-0.45123
-0.32915
-0.18426
-0.071306
0.021107
0.090702
0.14661
0.1911
0.22647
0.25043
0.27325
0.29036
0.30633
0.30633
0.28922
0.2721
0.23674
0.097547
-0.0028523
-0.072447
-0.061038
-0.043925
-0.10325
-0.21164
-0.18768
-0.13406
-0.081574
-0.064461
-0.10097
-0.011979
0.070165
0.10782
0.14318
0.073588
0.014261
-0.15345
-0.40217
-0.61209
-0.77296
-0.86309
-0.91786
-0.8688
-0.70907
-0.51626
-0.35767
-0.25157
-0.18197
-0.11238
-0.042784
0.053052
0.15345
0.24244
0.31432
0.37479
0.417
0.45237
0.47633
0.49116
0.50029
0.49002
0.47861
0.45921
0.43297
0.40331
0.36908
0.3474
0.34398
0.33485
0.33714
0.33371
0.336
0.34969
0.35995
0.33942
0.27781
0.073588
-0.11352
-0.29606
-0.37707
-0.41129
-0.39304
-0.37022
-0.3166
-0.26754
-0.24586
-0.22305
-0.24929
-0.36566
-0.45807
-0.5174
-0.54022
-0.56303
-0.62693
-0.62122
-0.54706
-0.43297
-0.32573
-0.20593
-0.095265
-0.0051341
0.0051341
-0.053052
-0.17285
-0.25841
-0.22533
-0.14775
-0.062179
-0.015402
0.024529
0.08842
0.17513
0.24358
0.30519
0.34284
0.36452
0.38848
0.41472
0.43639
0.45921
0.43868
0.39532
0.35425
0.3474
0.39418
0.45465
0.48659
0.49116
0.48431
0.50371
0.51398
0.37707
0.33371
0.2413
0.25727
0.27439
0.17285
0.090702
0.035938
-0.006275
-0.058756
-0.15231
-0.24929
-0.24358
-0.20936
-0.13862
-0.061038
0.026811
0.1352
0.22533
0.26868
0.28694
0.31204
0.31318
0.32116
0.33485
0.38391
0.47062
0.56189
0.63948
0.66458
0.64632
0.6235
0.62122
0.6429
0.66686
0.67142
0.65887
0.65317
0.66115
0.70907
0.75813
0.77182
0.7182
0.6235
0.41814
