0.64584
0.6845
0.71695
0.74802
0.75354
0.72523
0.66724
0.57335
0.48153
0.35174
0.20193
0.041767
-0.088712
-0.13704
-0.11909
-0.050742
0.0058681
0.072834
0.098378
-0.032793
-0.28478
-0.39524
-0.38902
-0.14118
0.072144
0.19779
0.31584
0.42285
0.5485
0.67
0.73421
0.73214
0.6845
0.62582
0.57542
0.53745
0.50293
0.45323
0.41181
0.38143
0.38764
0.40766
0.44563
0.46911
0.48222
0.49534
0.49396
0.48775
0.50017
0.55885
0.65205
0.70797
0.71695
0.5844
0.36072
0.077667
-0.1688
-0.37936
-0.50639
-0.52226
-0.46565
-0.29306
-0.11633
0.059027
0.21712
0.34277
0.42699
0.47877
0.5126
0.52572
0.5271
0.50915
0.50984
0.47532
0.4194
0.31792
0.22195
0.15844
0.11495
0.10735
0.13359
0.090784
-0.087332
-0.2972
-0.35934
-0.22748
0.024508
0.20815
0.31999
0.44425
0.534
0.60028
0.63894
0.66103
0.68519
0.69624
0.70107
0.67415
0.59337
0.47601
0.35796
0.27235
0.24336
0.24543
0.26407
0.31101
0.36279
0.40421
0.4339
0.41042
0.33103
0.33103
0.19779
0.030721
-0.15775
-0.44701
-0.61339
-0.64584
-0.52434
-0.29168
-0.14463
-0.014843
0.097687
0.19365
0.2972
0.41111
0.50915
0.57957
0.61961
0.65412
0.67069
0.66724
0.6486
0.62168
0.61615
0.62582
0.64653
0.66103
0.67069
0.66793
0.63756
0.59337
0.54021
0.50708
0.48913
0.47394
0.45461
0.42285
0.39938
0.36141
0.31239
0.24543
0.13773
0.014843
-0.11426
-0.17294
-0.22057
-0.25578
-0.30825
-0.31584
-0.25578
-0.10114
0.092855
0.30549
0.50017
0.65274
0.72247
0.72868
0.68795
0.60787
0.5271
0.44011
0.35658
0.28409
0.22195
0.19572
0.18744
0.18674
0.08319
-0.20953
-0.59613
-0.7777
-0.74387
-0.46911
-0.23093
-0.045219
0.13704
0.32551
0.48775
0.58164
0.62927
0.64653
0.65412
0.67346
0.6921
0.71626
0.7273
0.70107
0.6562
0.59959
0.55126
0.51881
0.48775
0.4698
0.45392
0.45668
0.46289
0.48015
0.47739
0.45323
0.41526
0.35934
0.29099
0.21367
0.17846
0.12737
0.06524
0.0024163
-0.043838
-0.0072489
0.063859
0.049361
-0.060407
-0.095616
-0.056265
0.15292
0.3835
0.54919
0.63825
0.67484
0.65758
0.62789
0.59406
0.55402
0.49189
0.42837
0.38419
0.36762
0.37245
0.39455
0.42285
0.43666
0.44632
0.45116
0.47877
0.49603
0.51122
0.50501
0.50086
0.51122
0.54229
0.60442
0.66862
0.71419
0.7204
0.65482
0.55126
0.44149
0.38005
0.40766
0.44839
0.44701
0.35243
0.17018
-0.16051
-0.49051
-0.60166
-0.57197
-0.30825
-0.10597
0.054884
0.18744
0.22748
0.22402
0.20262
0.18674
0.17225
0.12254
0.070072
0.049361
0.067311
0.099068
0.13635
0.17294
0.23024
0.31722
0.40352
0.43045
0.3545
0.1971
0.068692
0.070763
0.1688
0.28271
0.29168
0.24059
0.18122
0.1108
0.015533
-0.11495
-0.21367
-0.21643
-0.096307
0.074215
0.25164
0.39524
0.49189
0.5126
0.4339
0.22679
-0.024508
-0.12806
-0.040387
0.21505
0.45185
0.50017
0.44839
0.33172
0.20746
0.0466
-0.08388
-0.080428
0.067311
0.28547
0.45599
0.52226
0.53538
0.50639
0.46842
0.45116
0.44494
0.45737
0.50224
0.59337
0.68105
0.75078
0.73076
0.63825
0.48706
0.31999
0.21505
0.1688
0.18951
0.26061
0.32965
0.37384
0.39938
0.39593
0.3545
0.29858
0.18951
0.0031067
-0.37107
-0.66448
-0.8136
-0.71143
-0.38902
-0.15706
0.055575
0.20331
0.30135
0.40076
0.48084
0.54505
0.58785
0.63272
0.66724
0.70038
0.72523
0.75906
0.79496
0.82672
0.84398
0.84674
0.84467
0.83638
0.83362
0.82672
0.79082
0.73973
0.66448
0.60442
0.59682
0.59199
0.60718
0.60442
0.51053
0.31653
-0.010701
-0.39455
-0.75354
-0.98964
-1
-0.90335
-0.55057
-0.19296
0.092855
0.34622
0.5409
0.67415
0.76458
0.81429
0.84122
0.83707
0.79082
0.70728
0.61132
0.52295
0.45047
0.40007
0.369
0.36417
0.37591
0.40697
0.44149
0.4553
0.43942
0.36831
0.29582
0.20193
-0.021056
-0.3117
-0.49189
-0.56783
-0.33172
-0.081118
0.20124
0.47739
0.67691
0.80739
0.86814
0.85986
0.81774
0.75492
0.68312
0.61477
0.55126
0.48567
0.43321
0.38971
0.35865
0.33172
0.31792
0.32896
0.37176
0.40766
0.44011
0.40076
0.31308
0.21505
0.15913
0.17432
0.25095
0.35174
0.46634
0.57335
0.63825
0.65551
0.62789
0.54229
0.32758
-0.11288
-0.37384
-0.57059
-0.42078
-0.24128
-0.16396
-0.10459
-0.058336
0.0044874
0.10252
0.17018
0.25095
0.3331
0.42561
0.49258
0.53469
0.55747
0.56921
0.58854
0.61685
0.64929
0.6776
0.69486
0.6921
0.68381
0.66931
0.65274
0.61754
0.55195
0.41526
0.23438
0.02796
-0.15361
-0.2758
-0.30894
-0.31308
-0.27442
-0.1902
-0.12323
-0.066621
-0.13566
-0.369
-0.48844
-0.50915
-0.27994
0.033483
0.34553
0.60925
0.80186
0.92682
0.99033
1
0.95375
0.86676
0.75078
0.61546
0.47877
0.36279
0.27649
0.21988
0.19986
0.19089
0.22402
0.2544
0.27994
0.24957
0.044529
-0.34829
-0.6486
-0.81084
-0.67276
-0.38971
-0.094926
0.21643
0.45737
0.61339
0.70038
0.73904
0.75423
0.73628
0.70866
0.6845
0.66655
0.62651
0.57335
0.50431
0.4408
0.40145
0.36969
0.3476
0.34277
0.33241
0.33379
0.33448
0.3407
0.35381
0.36486
0.38488
0.41802
0.47946
0.57335
0.64929
0.68795
0.65412
0.49465
0.23783
-0.031412
-0.27718
-0.4836
-0.5126
-0.48775
-0.29928
-0.055575
0.19365
0.4194
0.57197
0.63479
0.6341
0.59337
0.54021
0.4981
0.49189
0.47187
0.47877
0.41042
0.27787
0.12185
-0.00034518
-0.04591
-0.01001
0.058336
0.14118
0.20193
0.22402
0.22195
0.20677
0.13566
-0.076286
-0.21643
-0.29306
-0.19779
-0.00034518
0.16949
0.34277
0.48913
0.59751
0.69417
0.75561
0.74871
0.67829
0.56369
0.46703
0.39731
0.34967
0.32896
0.32206
0.31861
0.33656
0.36003
0.37384
0.3766
0.37867
0.41181
0.47739
0.55816
0.62306
0.63548
0.61408
0.58716
0.62513
0.63065
0.63134
0.55471
0.44287
0.31722
0.11011
-0.25647
-0.58785
-0.75768
-0.67691
-0.42768
-0.21091
-0.034173
0.1108
0.21643
0.30756
0.36831
0.4049
0.4263
0.43321
0.44356
0.4408
0.43528
0.43597
0.45461
0.4767
0.49672
0.52848
0.56783
0.6127
0.62996
0.52917
0.24474
-0.062478
-0.26269
-0.25371
-0.11909
-0.073524
-0.049361
-0.042458
0.0051778
0.067311
0.10597
0.11357
0.14601
0.21022
0.29997
0.4049
0.50501
0.58716
0.64584
0.67484
0.6776
0.64791
0.60028
0.55402
0.54229
0.55678
0.5913
0.61892
0.63479
0.64653
0.63894
0.54021
0.20608
-0.2475
-0.57818
-0.7273
-0.57266
-0.42354
-0.2689
-0.13497
-0.040387
0.0058681
0.00932
0.0086296
0.060407
0.18951
0.35174
0.49327
0.59475
0.65482
0.69417
0.72109
0.74802
0.77218
0.78875
0.79013
0.7632
0.72316
0.65896
0.60028
0.53814
0.48153
0.41111
0.25509
-0.11149
-0.42285
-0.62237
-0.54988
-0.31101
-0.17984
-0.048671
0.026579
0.099758
0.10666
0.050052
0.036935
0.13497
0.34829
0.59682
0.78737
0.89437
0.92544
0.89506
0.82948
0.74732
0.65758
0.57266
0.50017
0.4553
0.41388
0.39109
0.369
0.35658
0.3621
0.37729
0.40145
0.42147
0.44218
0.48015
0.50431
0.53538
0.56093
0.59613
0.65205
0.67829
0.63548
0.51467
0.30135
-0.025889
-0.36141
-0.49465
-0.4477
-0.16396
0.10114
0.27787
0.37453
0.38764
0.37522
0.37245
0.37107
0.36555
0.34415
0.32689
0.30273
0.28961
0.2758
0.2758
0.2834
0.2972
0.32413
0.35796
0.38281
0.39386
0.40697
0.41733
0.42285
0.42906
0.45599
0.47118
0.48153
0.42285
0.30549
0.17777
0.099068
0.11011
0.039696
-0.29168
-0.55264
-0.75561
-0.58578
-0.28685
-0.016224
0.24612
0.45737
0.63341
0.77494
0.84605
0.864
0.83086
0.75423
0.6486
0.5271
0.42837
0.35796
0.32965
0.30756
0.28892
0.2758
0.27787
0.28961
0.29858
0.2972
0.2972
0.29928
0.31653
0.34277
0.37314
0.3904
0.4049
0.41526
0.44149
0.48498
0.50984
0.4836
0.369
0.23369
0.098378
-0.012081
-0.1398
-0.26752
-0.34967
-0.38005
-0.2972
-0.1398
0.049361
0.22126
0.33241
0.40283
0.45116
0.49603
0.52572
0.54643
0.54781
0.50984
0.4194
0.29306
0.18951
0.1612
0.19572
0.26338
0.34346
0.42975
0.50501
0.54505
0.53952
0.48015
0.35243
0.072834
-0.32896
-0.55471
-0.6914
-0.52986
-0.35796
-0.18122
0.003797
0.15706
0.2903
0.39524
0.48084
0.54298
0.58371
0.61339
0.62858
0.64239
0.64446
0.64584
0.63825
0.62858
0.61546
0.60028
0.58578
0.57749
0.58095
0.58371
0.59199
0.5989
0.60235
0.61754
0.62789
0.63618
0.6341
0.54988
0.38557
0.18813
-0.047981
-0.27028
-0.51053
-0.70038
-0.7846
-0.72592
-0.56714
-0.32206
-0.050742
0.22195
0.43321
0.59337
0.69486
0.75147
0.75699
0.74802
0.73352
0.70452
0.68243
0.59544
0.46427
0.31377
0.18467
0.10459
0.078357
0.08457
0.11909
0.14463
0.12737
0.059027
-0.032102
-0.19158
-0.46773
-0.59268
-0.64929
-0.44011
-0.16603
0.081118
0.3117
0.48913
0.62306
0.73421
0.82396
0.88195
0.89644
0.8923
0.84881
0.79496
0.7135
0.61132
0.51743
0.42906
0.38005
0.35105
0.34484
0.34484
0.3476
0.35589
0.36279
0.36417
0.35381
0.3331
0.31861
0.35243
0.42009
0.50155
0.56369
0.53331
0.50639
0.4049
0.24474
0.039006
-0.19227
-0.40421
-0.52503
-0.60718
-0.54367
-0.36555
-0.11771
0.12392
0.30549
0.42009
0.46911
0.49672
0.52917
0.52986
0.54229
0.4836
0.38212
0.26476
0.16741
0.14256
0.17018
0.22541
0.31101
0.40835
0.44425
0.4408
0.37314
0.24474
0.023127
-0.1902
-0.31032
-0.31308
-0.19986
-0.079047
0.078357
0.23507
0.35934
0.44632
0.50708
0.54505
0.56162
0.57197
0.57611
0.58026
0.59751
0.62444
0.65896
0.69762
0.7204
0.72178
0.72454
0.74249
0.76458
0.76182
0.73007
0.65896
0.58923
0.48222
0.29306
0.063859
-0.20262
-0.4912
-0.63825
-0.70383
-0.55471
-0.32206
-0.053504
0.18674
0.37176
0.49741
0.58026
0.6341
0.67691
0.67967
0.6845
0.63687
0.55747
0.45668
0.37176
0.33241
0.34415
0.37591
0.41526
0.46703
0.52779
0.59268
0.61477
0.59199
0.49879
0.2758
-0.11288
-0.46773
-0.68243
-0.67415
-0.48291
-0.27994
-0.057646
0.15775
0.32827
0.45185
0.51674
0.54021
0.53814
0.5195
0.49603
0.46773
0.45323
0.45944
0.46703
0.47739
0.47463
0.46773
0.45668
0.4477
0.43873
0.44149
0.44149
0.44909
0.45668
0.46358
0.4912
0.51398
0.53262
0.52434
0.49879
0.46773
0.43942
0.41733
0.3835
0.34967
0.33034
0.33725
0.32068
0.22264
0.13082
-0.033483
-0.20677
-0.42009
-0.60925
-0.65965
-0.53607
-0.31101
-0.029341
0.23645
0.45599
0.61754
0.72661
0.79772
0.83983
0.84743
0.82741
0.78046
0.66103
0.50777
0.3552
0.25785
0.25026
0.30066
0.39317
0.48637
0.53193
0.4622
0.22472
-0.15568
-0.52019
-0.68381
-0.66379
-0.42906
-0.18122
0.10735
0.35934
0.54159
0.66931
0.75216
0.80255
0.81912
0.81015
0.78046
0.73766
0.68381
0.64515
0.60649
0.58164
0.55885
0.54712
0.53814
0.54021
0.53607
0.54712
0.54643
0.55747
0.57818
0.62789
0.65067
0.62306
0.53469
0.43183
0.369
0.34001
0.31515
0.29306
0.1681
0.02796
-0.088022
-0.20677
-0.28961
-0.44218
-0.60373
-0.6776
-0.60511
-0.40421
-0.12392
0.14394
0.37453
0.55816
0.69555
0.79013
0.84467
0.85778
0.86538
0.79634
0.64791
0.44909
0.25095
0.1253
0.062478
0.043148
0.0466
0.073524
0.087332
0.081809
0.029341
-0.095616
-0.32551
-0.53745
-0.63687
-0.59199
-0.38971
-0.18329
0.020366
0.204
0.37107
0.52157
0.63825
0.72523
0.75975
0.77494
0.77563
0.75699
0.74663
0.73835
0.75285
0.7708
0.76389
0.72799
0.65205
0.57335
0.4912
0.42768
0.36831
0.31861
0.24957
0.22264
0.15982
0.15982
0.15085
0.081118
-0.033483
-0.23645
-0.4339
-0.59959
-0.69555
-0.62444
-0.43942
-0.1398
0.15016
0.41733
0.64515
0.80324
0.89852
0.93234
0.92475
0.93027
0.92268
0.88195
0.77908
0.61615
0.42009
0.23024
0.050742
-0.074905
-0.12806
-0.10873
-0.058336
0.020366
0.088022
0.12875
0.14394
0.12875
0.025889
-0.20538
-0.46082
-0.56093
-0.47532
-0.1826
0.089403
0.30963
0.48291
0.60373
0.69417
0.75285
0.76873
0.74456
0.6914
0.61132
0.51881
0.41181
0.32344
0.25785
0.22057
0.20469
0.19986
0.20815
0.22541
0.23507
0.25095
0.262
0.27856
0.32206
0.40283
0.49603
0.59199
0.63134
0.64446
0.60166
0.55471
0.43528
0.29306
0.16741
0.031412
-0.14808
-0.33932
-0.47187
-0.4339
-0.24681
-0.033483
0.17294
0.32827
0.42837
0.47808
0.48982
0.50155
0.47739
0.46703
0.41111
0.32896
0.24612
0.17432
0.15568
0.18398
0.2544
0.31722
0.31308
0.2544
0.14325
0.074215
0.014843
-0.057646
-0.23231
-0.36486
-0.48844
-0.47325
-0.36831
-0.21436
-0.032102
0.13082
0.27235
0.39938
0.50362
0.57542
0.61961
0.63963
0.63894
0.6058
0.5699
0.53676
0.52986
0.5485
0.57749
0.60442
0.61754
0.60304
0.56231
0.5485
0.53814
0.48153
0.40145
0.24405
0.11288
0.023127
-0.15913
-0.36486
-0.63479
-0.74663
-0.7059
-0.49741
-0.22333
0.06455
0.31239
0.49534
0.62375
0.72454
0.79289
0.81774
0.80186
0.75975
0.70245
0.6417
0.58647
0.54229
0.50293
0.46842
0.43942
0.41871
0.40835
0.39593
0.38626
0.36969
0.36072
0.35658
0.35934
0.38695
0.41181
0.45392
0.46427
0.46773
0.42699
0.33241
0.14118
-0.075595
-0.28685
-0.37384
-0.34139
-0.18882
0.052123
0.31999
0.55678
0.71902
0.79289
0.80186
0.78184
0.74663
0.67346
0.60511
0.50224
0.39386
0.28202
0.20262
0.17777
0.21712
0.26476
0.3262
0.38074
0.4263
0.47049
0.50915
0.5057
0.44701
0.2972
-0.015533
-0.28685
-0.43321
-0.3766
-0.15361
-0.013462
0.081118
0.13911
0.21022
0.29237
0.34001
0.34484
0.34622
0.36624
0.4049
0.43942
0.46358
0.47946
0.49603
0.51398
0.53193
0.54159
0.5485
0.55402
0.55816
0.563
0.56369
0.56369
0.56576
0.57749
0.58716
0.58992
0.61477
0.64929
0.69624
0.73973
0.73076
0.71419
0.56921
0.30135
-0.06455
-0.43873
-0.67138
-0.74456
-0.64515
-0.41111
-0.14049
0.1184
0.33241
0.48844
0.60097
0.67138
0.72316
0.73835
0.71488
0.67967
0.59613
0.49603
0.39178
0.32206
0.3048
0.3262
0.35934
0.41181
0.4836
0.54988
0.59337
0.60787
0.55885
0.44356
0.23162
-0.068001
-0.50431
-0.79496
-0.9358
-0.81981
-0.534
-0.28064
-0.031412
0.18053
0.36072
0.51536
0.64032
0.73145
0.77977
0.80808
0.79427
0.76251
0.71143
0.65274
0.60856
0.57335
0.56438
0.56438
0.57335
0.58992
0.60028
0.56507
0.50224
0.40352
0.30825
0.24336
0.19434
0.17639
0.16189
0.15913
0.17432
0.204
0.23852
0.25992
0.25785
0.2261
0.15775
0.011391
-0.1612
-0.36555
-0.46565
-0.45116
-0.29444
-0.0079392
0.29858
0.54367
0.699
0.76735
0.7632
0.71902
0.65551
0.58785
0.52157
0.45806
0.35312
0.21919
0.099068
0.02865
0.032102
0.085261
0.16258
0.24059
0.33586
0.4339
0.48844
0.5126
0.43045
0.24957
-0.059717
-0.22955
-0.30204
-0.14739
0.069382
0.24888
0.38971
0.48291
0.53745
0.57335
0.59268
0.57404
0.53538
0.47877
0.4263
0.38074
0.3545
0.34898
0.35727
0.37522
0.40559
0.43735
0.46703
0.48913
0.50708
0.52503
0.54229
0.57335
0.61339
0.67069
0.68933
0.60097
0.44909
0.27442
0.1688
0.14808
0.12806
0.06524
-0.082499
-0.32689
-0.62789
-0.78253
-0.78046
-0.55402
-0.25233
0.030721
0.27649
0.46151
0.58785
0.65827
0.68174
0.67207
0.64791
0.62927
0.60373
0.5913
0.57957
0.563
0.54505
0.51191
0.47601
0.44425
0.41802
0.40973
0.4408
0.4912
0.46082
0.32551
0.04591
-0.24474
-0.48429
-0.61063
-0.65343
-0.56852
-0.42423
-0.21367
0.018985
0.23852
0.41457
0.52917
0.59406
0.64101
0.6776
0.69624
0.68243
0.64584
0.59959
0.56438
0.53883
0.50224
0.45323
0.39524
0.33863
0.30963
0.28892
0.29099
0.28961
0.29789
0.30411
0.30135
0.32482
0.39938
0.46634
0.51191
0.47532
0.40214
0.31653
0.16396
0.021056
-0.12185
-0.262
-0.30411
-0.29444
-0.14394
0.096307
0.3476
0.55609
0.67691
0.71004
0.68657
0.62306
0.55126
0.48222
0.42699
0.37591
0.33863
0.26545
0.17363
0.086641
0.041767
0.051433
0.099068
0.16603
0.28478
0.42837
0.55747
0.56162
0.48706
0.31446
0.093545
-0.20331
-0.35105
-0.35865
-0.17432
0.042458
0.17708
0.25992
0.29513
0.31861
0.34208
0.35865
0.37107
0.38833
0.41388
0.43252
0.46013
0.46634
0.47601
0.47256
0.48222
0.49672
0.51674
0.53538
0.55126
0.55885
0.56438
0.563
0.563
0.55678
0.56023
0.58716
0.64239
0.71212
0.7059
0.67622
0.48637
0.42768
0.34691
0.26269
0.058336
-0.233
-0.50362
-0.61339
-0.58716
-0.41871
-0.19641
0.043838
0.24197
0.40352
0.52917
0.61754
0.66724
0.67691
0.66241
0.62996
0.59613
0.55264
0.51329
0.47877
0.45116
0.43597
0.42423
0.43252
0.41733
0.38971
0.32896
0.26683
0.21712
0.22402
0.27787
0.27097
0.25716
0.10321
-0.0024163
-0.06524
-0.15568
-0.22817
-0.3835
-0.41388
-0.35658
-0.17156
0.069382
0.30204
0.49327
0.62858
0.72178
0.7777
0.79841
0.78253
0.73973
0.68795
0.60787
0.51398
0.42561
0.35105
0.2972
0.25371
0.21229
0.18674
0.18191
0.1826
0.17846
0.22333
0.31446
0.40973
0.40421
0.19089
-0.22817
-0.46565
-0.58164
-0.36348
-0.047981
0.25854
0.52157
0.70314
0.81084
0.85916
0.86952
0.83914
0.77494
0.69071
0.59406
0.4981
0.41111
0.34415
0.31239
0.28892
0.29237
0.3048
0.32206
0.34622
0.36072
0.35381
0.3407
0.32689
0.35865
0.41733
0.4981
0.53883
0.51812
0.42561
0.28478
0.1398
0.021056
-0.090093
-0.18191
-0.27994
-0.29997
-0.21919
0.023818
0.34415
0.6341
0.79979
0.80601
0.70176
0.56507
0.44494
0.34208
0.28133
0.23162
0.17156
0.11357
0.071453
0.072144
0.10942
0.15913
0.21298
0.27304
0.3331
0.3621
0.31032
0.24888
0.17501
0.15775
0.19365
0.25164
0.30411
0.35727
0.34967
0.27925
0.063859
-0.16741
-0.42285
-0.54229
-0.56645
-0.47946
-0.30342
-0.10045
0.091474
0.24474
0.35243
0.42078
0.45737
0.47946
0.48429
0.47325
0.45254
0.44218
0.45323
0.4912
0.53538
0.58923
0.62444
0.57473
0.49879
0.4125
0.36555
0.38626
0.40283
0.35865
0.26683
0.10045
-0.13013
-0.44287
-0.67415
-0.76044
-0.62444
-0.40076
-0.16396
0.08319
0.29375
0.46013
0.56645
0.63341
0.64791
0.64032
0.6058
0.57059
0.54298
0.52779
0.51743
0.51191
0.50431
0.50017
0.49948
0.5057
0.5126
0.52019
0.52779
0.5409
0.57059
0.61201
0.64722
0.66379
0.62444
0.563
0.49327
0.4477
0.41319
0.3407
0.21091
0.054884
-0.055575
-0.13082
-0.22748
-0.33725
-0.44218
-0.40145
-0.26407
-0.041767
0.20124
0.40697
0.56714
0.67276
0.75078
0.82327
0.86814
0.88747
0.83362
0.72523
0.60442
0.51812
0.4698
0.43114
0.36555
0.28754
0.23093
0.21367
0.22333
0.18467
0.078357
-0.11426
-0.33448
-0.52572
-0.57473
-0.53469
-0.36141
-0.19365
-0.043838
0.090784
0.19917
0.29444
0.38557
0.46634
0.53193
0.58854
0.61754
0.63548
0.63756
0.64239
0.64653
0.64998
0.65482
0.69279
0.7563
0.78944
0.76666
0.68657
0.58578
0.5057
0.44218
0.39869
0.36348
0.33103
0.30204
0.33103
0.3117
0.30411
0.2399
0.11357
0.003797
-0.14325
-0.26752
-0.35036
-0.398
-0.35381
-0.21091
0.021747
0.26338
0.49672
0.66793
0.77425
0.82534
0.81774
0.77425
0.67967
0.57749
0.47256
0.38764
0.30756
0.233
0.1688
0.13497
0.11909
0.11702
0.12737
0.17984
0.29651
0.40904
0.50086
0.50639
0.44701
0.39386
0.27304
0.17294
0.077667
-0.030721
-0.18674
-0.29858
-0.34484
-0.24405
-0.08388
0.093545
0.24612
0.36762
0.43114
0.44494
0.42078
0.39524
0.37867
0.38902
0.39731
0.41111
0.41802
0.41319
0.40352
0.38281
0.38695
0.42354
0.49189
0.56783
0.5768
0.53055
0.42837
0.31446
0.25302
0.15706
0.12254
0.14118
0.17018
0.17432
0.0044874
-0.17294
-0.34277
-0.31792
-0.18467
-0.0010356
0.16534
0.28616
0.35796
0.38626
0.38902
0.38074
0.36141
0.33034
0.29306
0.27304
0.27442
0.32275
0.39731
0.49396
0.58164
0.60718
0.56231
0.52295
0.50984
0.55264
0.63894
0.70383
0.6486
0.55954
0.38902
0.24888
0.050742
-0.27304
-0.63065
-0.80877
-0.8136
-0.57818
-0.35312
-0.11357
0.11909
0.31999
0.48153
0.60097
0.67553
0.70935
0.70659
0.69486
0.67553
0.67069
0.66862
0.66517
0.67484
0.68381
0.6921
0.68519
0.64929
0.58647
0.49465
0.38557
0.29651
0.23645
0.21988
0.21298
0.20746
0.19365
0.17777
0.16258
0.14946
0.14946
0.17018
0.21643
0.27166
0.32344
0.36831
0.398
0.41802
0.42768
0.4339
0.43942
0.44563
0.45461
0.45875
0.44701
0.42078
0.41457
0.44356
0.52365
0.62858
0.71074
0.67415
0.55954
0.43321
0.2613
0.074905
-0.17708
-0.38626
-0.43321
-0.3407
-0.14877
0.039006
0.18605
0.28616
0.36624
0.43045
0.50293
0.5554
0.59061
0.59613
0.57542
0.52365
0.45254
0.36693
0.29513
0.25647
0.24266
0.24336
0.2399
0.24405
0.29099
0.39455
0.45599
0.59406
0.64653
0.63548
0.48015
0.18329
-0.18191
-0.5409
-0.75078
-0.77149
-0.64446
-0.40835
-0.24128
-0.089403
0.048671
0.15775
0.28685
0.41457
0.52917
0.61546
0.66862
0.69002
0.68105
0.65896
0.63065
0.60373
0.58164
0.54712
0.5126
0.48706
0.47394
0.47877
0.47739
0.47739
0.48498
0.52434
0.59406
0.64308
0.61754
0.53607
0.42837
0.35105
0.30066
0.26545
0.23231
0.21436
0.2689
0.28547
0.27028
0.19779
0.011391
-0.11426
-0.262
-0.34691
-0.36624
-0.38902
-0.32896
-0.21022
0.0072489
0.22679
0.42975
0.59406
0.70521
0.78046
0.7922
0.74871
0.6486
0.52848
0.40697
0.30273
0.22748
0.17294
0.14877
0.1467
0.15361
0.1688
0.18467
0.21643
0.28823
0.38626
0.47946
0.53193
0.49603
0.41526
0.33656
0.21436
0.15499
0.12944
0.17225
0.20884
0.061098
-0.1467
-0.32689
-0.29306
-0.070072
0.18122
0.38764
0.5485
0.62927
0.65205
0.59613
0.50086
0.40904
0.35174
0.31446
0.28685
0.24543
0.20746
0.20538
0.23783
0.30687
0.37522
0.42561
0.45047
0.46013
0.47325
0.50155
0.53952
0.5913
0.64239
0.68381
0.69762
0.68726
0.65758
0.60856
0.563
0.49327
0.41871
0.35312
0.29168
0.25578
0.23852
0.24336
0.26061
0.27166
0.27028
0.27166
0.29306
0.34346
0.40214
0.48429
0.44839
0.35796
0.22472
0.016914
-0.12116
-0.23852
-0.29789
-0.2613
-0.18744
-0.045219
0.12668
0.27511
0.38074
0.45185
0.49879
0.54643
0.61477
0.65551
0.67
0.6203
0.51674
0.37107
0.21229
0.070763
-0.02865
-0.099758
-0.14049
-0.15499
-0.13635
-0.088022
-0.02865
-0.039006
-0.068001
-0.11426
-0.088022
-0.0017259
0.10942
0.21298
0.26821
0.16949
0.079738
-0.018295
0.00034518
0.12944
0.26269
0.4125
0.5195
0.57818
0.58233
0.53193
0.44978
0.37729
0.32896
0.31308
0.31377
0.33379
0.36003
0.37176
0.35865
0.33586
0.3407
0.39317
0.45599
0.50639
0.53055
0.53745
0.52295
0.50086
0.47601
0.47325
0.48982
0.51536
0.54159
0.55885
0.56576
0.56852
0.56852
0.56576
0.55885
0.57818
0.62375
0.68105
0.69762
0.65136
0.56023
0.46427
0.41111
0.37729
0.32068
0.24474
0.13152
-0.051433
-0.15913
-0.262
-0.29582
-0.32896
-0.40007
-0.41388
-0.36072
-0.22955
-0.060407
0.13221
0.32413
0.48291
0.59751
0.66103
0.68933
0.69693
0.68312
0.64653
0.56645
0.45047
0.31584
0.204
0.11909
0.054194
0.0065585
-0.015533
-0.011391
0.0072489
0.030031
0.043148
0.056265
0.08319
0.1467
0.22817
0.31308
0.39662
0.39455
0.35243
0.25647
0.12875
0.059717
0.036244
0.081809
0.10666
-0.054194
-0.1688
-0.25854
-0.15982
0.026579
0.20677
0.38281
0.56231
0.73007
0.83914
0.83569
0.73904
0.58923
0.45737
0.34277
0.26545
0.21781
0.19365
0.18053
0.18605
0.21781
0.28271
0.3552
0.41457
0.45185
0.47118
0.48982
0.50846
0.53262
0.56507
0.59821
0.62582
0.64308
0.65551
0.65965
0.67138
0.67207
0.68864
0.71074
0.70797
0.66655
0.57611
0.47256
0.38764
0.32068
0.28202
0.26269
0.26407
0.22541
0.22679
0.29789
0.4125
0.47256
0.44632
0.204
-0.042458
-0.3117
-0.46773
-0.50708
-0.46427
-0.33725
-0.15568
0.056955
0.23438
0.37867
0.46496
0.50846
0.51605
0.50777
0.50501
0.47808
0.42975
0.34553
0.24957
0.15982
0.088022
0.034864
0.003797
-0.012772
-0.025889
-0.0017259
0.062478
0.096307
0.16603
0.18122
0.16534
0.11357
-0.0079392
-0.15844
-0.30204
-0.34484
-0.3117
-0.13842
0.044529
0.21988
0.38419
0.50708
0.57473
0.60718
0.60304
0.56438
0.52848
0.47463
0.43666
0.4049
0.38833
0.38281
0.38488
0.39247
0.40076
0.41319
0.4263
0.43183
0.44425
0.4767
0.52572
0.57335
0.58371
0.54919
0.45254
0.32344
0.23024
0.20331
0.26821
0.40352
0.47325
0.53883
0.52434
0.47049
0.32827
0.016914
-0.42492
-0.61685
-0.70521
-0.46703
-0.28823
-0.10459
0.088022
0.262
0.38488
0.4477
0.44909
0.43252
0.40835
0.3835
0.3552
0.33241
0.3193
0.33241
0.36072
0.40697
0.4477
0.49258
0.53124
0.57128
0.60994
0.62858
0.62996
0.5913
0.53193
0.46842
0.42354
0.39317
0.3766
0.37314
0.38143
0.39247
0.41181
0.43528
0.46565
0.49396
0.51053
0.51881
0.51122
0.49327
0.47394
0.47739
0.50155
0.54021
0.58371
0.55057
0.46703
0.20677
0.058336
-0.094926
-0.14739
-0.19779
-0.32689
-0.38281
-0.39455
-0.33863
-0.25095
-0.14187
0.003797
0.16189
0.3193
0.44218
0.51122
0.53469
0.51053
0.46911
0.42078
0.37038
0.32965
0.2972
0.26821
0.25026
0.23852
0.23162
0.23093
0.23093
0.23024
0.23714
0.2475
0.25854
0.27373
0.29444
0.32137
0.35381
0.40421
0.48706
0.54919
0.54988
0.49948
0.42078
0.39247
0.42423
0.42078
0.32551
0.12875
-0.099068
-0.22333
-0.32206
-0.35036
-0.34553
-0.30549
-0.26614
-0.19365
-0.10183
0.069382
0.24128
0.39317
0.51536
0.61615
0.71764
0.80601
0.83983
0.79979
0.66655
0.4912
0.32137
0.18467
0.1108
0.10045
0.12116
0.1688
0.21022
0.22817
0.29237
0.3545
0.41802
0.43735
0.42354
0.40973
0.40076
0.36072
0.29168
0.20469
0.13773
0.13773
0.19365
0.19641
0.04591
-0.17708
-0.34829
-0.32965
-0.12392
0.13221
0.31377
0.39938
0.39317
0.38074
0.36348
0.33517
0.29858
0.27925
0.28478
0.30618
0.33241
0.35865
0.38626
0.42216
0.47325
0.53538
0.58647
0.63065
0.61754
0.57335
0.50017
0.4408
0.43252
0.52641
0.6845
0.80117
0.91647
0.8854
0.84536
0.77563
0.65896
0.46565
0.15292
-0.35381
-0.65689
-0.864
-0.76458
-0.61823
-0.44425
-0.26407
-0.076976
0.11149
0.25095
0.34898
0.40766
0.42837
0.43942
0.43735
0.44632
0.47394
0.50846
0.55471
0.60097
0.64239
0.67415
0.69486
0.70728
0.7135
0.71419
0.70659
0.69762
0.68726
0.67484
0.66172
0.65136
0.65689
0.66172
0.67829
0.66793
0.61823
0.54712
0.47601
0.43183
0.39731
0.35105
0.31515
0.3262
0.38695
0.38902
0.3621
0.17018
-0.056265
-0.26545
-0.42009
-0.45254
-0.44839
-0.38074
-0.27511
-0.10252
0.098378
0.26061
0.37314
0.44563
0.49948
0.55264
0.59406
0.59337
0.54505
0.46082
0.36348
0.27166
0.18882
0.13082
0.096307
0.081809
0.072144
0.070072
0.082499
0.13497
0.19917
0.27718
0.34415
0.3476
0.3048
0.21505
0.08319
0.031412
0.038315
0.14187
0.22195
0.16603
-0.043148
-0.20538
-0.28616
-0.1971
-0.032102
0.12185
0.2834
0.39869
0.47877
0.53952
0.57059
0.61754
0.68243
0.75009
0.77011
0.74249
0.67276
0.58716
0.47946
0.36003
0.25785
0.21022
0.22126
0.24819
0.27166
0.27649
0.28271
0.29582
0.32413
0.36762
0.42078
0.46082
0.45875
0.44978
0.45944
0.50155
0.53538
0.49327
0.29928
-0.02796
-0.26338
-0.4553
-0.45806
-0.45599
-0.40973
-0.30825
-0.19089
-0.062478
0.068001
0.18467
0.27925
0.33448
0.34967
0.34622
0.34277
0.34967
0.36624
0.37729
0.37936
0.38557
0.40766
0.45461
0.51881
0.58302
0.63479
0.66931
0.6914
0.69693
0.69693
0.69071
0.68795
0.69417
0.7059
0.72178
0.74594
0.74249
0.69693
0.61615
0.52295
0.45461
0.41111
0.38281
0.37867
0.38005
0.36831
0.35589
0.33241
0.33034
0.31446
0.22264
0.08388
-0.082499
-0.26407
-0.35865
-0.39317
-0.35796
-0.28478
-0.19227
-0.061098
0.1184
0.28547
0.39869
0.45737
0.47256
0.4698
0.46565
0.44632
0.4049
0.32896
0.24336
0.16603
0.10666
0.078357
0.066621
0.073524
0.074905
0.088022
0.12254
0.16603
0.22264
0.26959
0.3193
0.3407
0.36693
0.35934
0.27925
0.24474
0.1757
0.15844
0.19572
0.2544
0.36624
0.4194
0.31861
0.045219
-0.14946
-0.22057
-0.088022
0.12737
0.31999
0.49051
0.57473
0.57473
0.52572
0.44632
0.37936
0.3262
0.30204
0.31239
0.3331
0.36762
0.39731
0.45047
0.50708
0.57128
0.61685
0.65205
0.68036
0.71212
0.74802
0.77701
0.7922
0.79565
0.78599
0.77149
0.75078
0.71902
0.67138
0.60511
0.5409
0.48222
0.44425
0.42009
0.40214
0.39386
0.39178
0.39731
0.40697
0.40835
0.39869
0.3766
0.35589
0.33103
0.34622
0.37522
0.4194
0.43804
0.35934
0.15292
-0.016224
-0.22679
-0.31101
-0.34967
-0.34415
-0.25854
-0.16189
-0.06455
0.020366
0.11564
0.22195
0.31792
0.38626
0.40766
0.40007
0.36141
0.28961
0.20538
0.12392
0.057646
0.017604
0.00034518
0.0010356
0.019676
0.06524
0.11149
0.1757
0.20538
0.22195
0.20884
0.19986
0.22679
0.2834
0.3621
0.44701
0.44978
0.38419
0.25026
0.10045
0.031412
-0.014843
-0.068001
-0.2261
-0.28064
-0.37038
-0.35105
-0.30342
-0.23369
-0.11633
0.014843
0.1329
0.26752
0.40766
0.53055
0.60994
0.63963
0.63687
0.62651
0.6127
0.60718
0.59337
0.58854
0.58716
0.59337
0.60166
0.60442
0.61615
0.6272
0.64998
0.67346
0.69693
0.69624
0.67898
0.64722
0.61546
0.57818
0.52434
0.45737
0.38833
0.35381
0.37176
0.36279
0.23093
0.0079392
-0.21781
-0.31999
-0.27235
-0.22333
-0.16051
-0.1398
-0.090093
-0.060407
-0.053504
-0.035554
0.0086296
0.091474
0.1826
0.30066
0.42285
0.52295
0.59061
0.58854
0.52295
0.44149
0.36417
0.31032
0.26545
0.22886
0.20193
0.19503
0.18813
0.18398
0.20331
0.24197
0.3117
0.3545
0.3766
0.37245
0.2903
0.24059
0.16465
0.12323
0.14325
0.20193
0.32344
0.43942
0.45461
0.34553
0.036935
-0.16465
-0.30756
-0.22886
-0.025889
0.18329
0.37245
0.47118
0.48015
0.40904
0.29375
0.1688
0.089403
0.081118
0.13497
0.22472
0.30894
0.37729
0.42147
0.46634
0.51398
0.56162
0.58026
0.57749
0.56783
0.57197
0.59061
0.62168
0.65412
0.68036
0.69486
0.70866
0.71212
0.7135
0.73007
0.7273
0.74387
0.75147
0.76458
0.75492
0.70452
0.5989
0.47739
0.36486
0.30342
0.28133
0.29306
0.30825
0.32206
0.31722
0.32137
0.31515
0.3331
0.34829
0.36417
0.28547
0.11149
-0.049361
-0.24957
-0.33586
-0.35381
-0.34484
-0.2903
-0.21229
-0.091474
0.070072
0.23369
0.34208
0.41457
0.46358
0.50155
0.50017
0.46842
0.38557
0.27925
0.18605
0.12254
0.092855
0.08319
0.067311
0.054884
0.04591
0.047981
0.059717
0.090784
0.14049
0.22057
0.30963
0.36072
0.38971
0.35312
0.25578
0.21712
0.16465
0.18467
0.2475
0.33241
0.46151
0.56369
0.55885
0.398
0.089403
-0.13911
-0.28616
-0.25923
-0.16189
-0.062478
0.077667
0.16534
0.22472
0.204
0.14325
0.095616
0.082499
0.12392
0.1971
0.28409
0.38074
0.4836
0.57197
0.64308
0.68726
0.71074
0.71281
0.7135
0.71764
0.73283
0.75768
0.79151
0.82465
0.84191
0.83845
0.79358
0.7204
0.63618
0.54781
0.47049
0.41595
0.38212
0.37038
0.36831
0.36831
0.36969
0.37314
0.38005
0.38971
0.39317
0.37936
0.35381
0.34553
0.36348
0.43321
0.49741
0.50017
0.43114
0.25647
0.023127
-0.090784
-0.15913
-0.12392
-0.063169
-0.01001
0.10321
0.20055
0.22126
0.15844
0.050742
-0.030721
-0.034173
0.029341
0.10873
0.17087
0.18536
0.15499
0.10252
0.050742
0.032793
0.048671
0.086641
0.12668
0.1612
0.1971
0.233
0.27787
0.30342
0.31101
0.3048
0.2834
0.28271
0.31308
0.36003
0.44011
0.46565
0.44287
0.41042
0.29582
0.14739
0.053504
-0.055575
-0.025889
0.013462
0.098378
0.19365
0.22333
0.1039
-0.17639
-0.36624
-0.4125
-0.25164
-0.0051778
0.20124
0.39247
0.53745
0.60304
0.62858
0.60028
0.57473
0.56921
0.58233
0.60028
0.61961
0.62444
0.62789
0.61201
0.59475
0.58647
0.57128
0.57335
0.56783
0.53676
0.50086
0.43252
0.36762
0.29444
0.25164
0.25785
0.2399
0.17708
0.070763
-0.070763
-0.081118
0.0017259
0.10045
0.20331
0.25647
0.34277
0.4339
0.45737
0.3331
-0.014843
-0.22264
-0.3262
-0.19365
0.02727
0.19089
0.36969
0.52365
0.61546
0.66724
0.66517
0.63341
0.57266
0.48429
0.38902
0.28202
0.19296
0.13773
0.13635
0.16327
0.18813
0.1902
0.19158
0.21505
0.2758
0.34829
0.41871
0.47187
0.51605
0.54367
0.56369
0.57404
0.58233
0.58647
0.58578
0.58371
0.58026
0.57887
0.57611
0.57335
0.57887
0.58716
0.59544
0.60304
0.58716
0.5409
0.47049
0.39938
0.34346
0.30687
0.30687
0.33932
0.38143
0.41664
0.41871
0.40835
0.38764
0.369
0.29375
0.17501
0.0051778
-0.18398
-0.3407
-0.40145
-0.38488
-0.29168
-0.16051
-0.066621
0.034173
0.13773
0.23852
0.32344
0.39938
0.45254
0.51881
0.55195
0.55471
0.54298
0.49879
0.43735
0.33103
0.18744
0.063859
-0.025889
-0.06524
-0.08319
-0.11771
-0.14739
-0.17294
-0.16327
-0.10252
-0.0024163
0.12254
0.23921
0.3766
0.48637
0.55816
0.5699
0.54159
0.50501
0.47532
0.45392
0.4553
0.47049
0.50086
0.5195
0.53538
0.54298
0.54436
0.52365
0.49258
0.45392
0.4194
0.39524
0.38764
0.33172
0.17018
-0.26545
-0.51674
-0.70176
-0.52917
-0.3262
-0.18744
-0.047981
0.067311
0.11978
0.059717
0.051433
0.12392
0.29375
0.54159
0.68381
0.80117
0.85709
0.83914
0.80532
0.75216
0.70452
0.66103
0.62237
0.59475
0.5554
0.50362
0.43735
0.3621
0.29237
0.23369
0.204
0.19503
0.204
0.21712
0.23507
0.25164
0.2689
0.29789
0.34622
0.40214
0.43666
0.49534
0.55678
0.6203
0.64722
0.5989
0.46427
0.35105
0.27649
0.2903
0.32896
0.29858
0.054884
-0.18329
-0.40283
-0.41319
-0.25302
-0.08457
0.092164
0.20746
0.29651
0.33932
0.32413
0.262
0.1688
0.094926
0.074905
0.094235
0.14946
0.233
0.32068
0.40904
0.46703
0.49465
0.51674
0.53262
0.54988
0.56921
0.58992
0.60649
0.60856
0.5913
0.56093
0.52019
0.50362
0.46565
0.43873
0.40421
0.36003
0.30549
0.2399
0.18536
0.15982
0.16465
0.17915
0.21022
0.25854
0.31584
0.3476
0.36072
0.31653
0.24336
0.16603
0.053504
0.014843
0.02796
0.14118
0.27649
0.35381
0.1902
-0.13704
-0.40421
-0.47463
-0.32137
-0.068001
0.10114
0.22126
0.28478
0.29237
0.29651
0.28202
0.26614
0.25578
0.25095
0.23921
0.2185
0.20815
0.22817
0.27649
0.33379
0.3904
0.44287
0.46911
0.48567
0.4836
0.48084
0.48775
0.50915
0.53814
0.56162
0.58302
0.59959
0.61615
0.64032
0.65758
0.68243
0.70452
0.74387
0.78115
0.80255
0.79013
0.72385
0.62444
0.51191
0.40973
0.33241
0.26407
0.21298
0.18053
0.17708
0.21643
0.2399
0.21574
0.10804
-0.043838
-0.15223
-0.25026
-0.29375
-0.2613
-0.18122
-0.06593
0.024508
0.061788
0.070763
0.08388
0.1184
0.21712
0.34484
0.48913
0.55747
0.55609
0.53538
0.48222
0.4408
0.37107
0.28754
0.22817
0.16949
0.12737
0.078357
0.04591
0.051433
0.076286
0.1184
0.17225
0.20884
0.24059
0.25095
0.27925
0.32827
0.39455
0.4477
0.46289
0.45047
0.43459
0.44494
0.47049
0.5126
0.54574
0.58578
0.60994
0.6272
0.63065
0.60787
0.58095
0.55678
0.55609
0.58647
0.62996
0.68519
0.71004
0.69762
0.64101
0.59682
0.58509
0.55264
0.4981
0.26683
-0.073524
-0.40835
-0.64101
-0.67
-0.59682
-0.50224
-0.42768
-0.3117
-0.17156
0.003797
0.15154
0.24336
0.28133
0.31032
0.3621
0.43804
0.5057
0.52917
0.51536
0.48844
0.4339
0.37176
0.32137
0.30066
0.30618
0.33241
0.33586
0.33586
0.32827
0.31515
0.29444
0.27028
0.25647
0.26752
0.31515
0.35589
0.37107
0.35589
0.32827
0.2972
0.28823
0.30618
0.33172
0.30273
0.16949
-0.04729
-0.19089
-0.22748
-0.11219
0.071453
0.21229
0.26683
0.11771
-0.019676
-0.15016
-0.086641
0.056265
0.20469
0.28409
0.34691
0.3766
0.36969
0.33932
0.26476
0.20193
0.15085
0.12461
0.095616
0.059027
0.056265
0.10252
0.19365
0.29997
0.38212
0.44494
0.4912
0.54367
0.58095
0.62099
0.64929
0.67207
0.68864
0.70245
0.69624
0.68864
0.66862
0.64515
0.6203
0.59337
0.57749
0.56576
0.55609
0.54505
0.52779
0.50293
0.48498
0.4698
0.46634
0.46082
0.43666
0.38764
0.35312
0.35589
0.37798
0.40076
0.36003
0.24612
0.044529
-0.13635
-0.30204
-0.32827
-0.28409
-0.16603
-0.058336
0.00034518
0.013462
0.0024163
0.0086296
0.079047
0.19641
0.36003
0.45875
0.48291
0.45737
0.38212
0.29789
0.22333
0.1467
0.08388
0.034173
0.019676
0.031412
0.076286
0.15016
0.22402
0.30411
0.36348
0.4049
0.42906
0.44978
0.46565
0.47877
0.48291
0.48291
0.48913
0.49534
0.5057
0.52434
0.54436
0.56852
0.59544
0.62927
0.65412
0.6631
0.64791
0.60649
0.55885
0.50915
0.47187
0.44218
0.41388
0.40973
0.40559
0.41181
0.42078
0.42975
0.45737
0.48913
0.4981
0.48222
0.41595
0.26752
0.10252
-0.15016
-0.3407
-0.4698
-0.45806
-0.36486
-0.27442
-0.22333
-0.1681
-0.10459
0.030721
0.19779
0.30687
0.369
0.32551
0.30618
0.31792
0.36279
0.43804
0.49672
0.51674
0.50155
0.42147
0.31239
0.21781
0.15223
0.11702
0.097687
0.094235
0.11149
0.14946
0.19779
0.24888
0.30273
0.33725
0.36003
0.37729
0.38281
0.39109
0.40076
0.41595
0.44425
0.47394
0.48913
0.49396
0.46911
0.40766
0.369
0.31584
0.30135
0.29582
0.28409
0.24128
0.23024
0.22679
0.26061
0.31792
0.32896
0.29168
0.10321
-0.2903
-0.53814
-0.65551
-0.48775
-0.27856
-0.13635
0.0072489
0.14118
0.24266
0.30135
0.28064
0.19365
0.096307
0.042458
0.090093
0.22126
0.36762
0.46703
0.50017
0.49672
0.49327
0.50224
0.51743
-0.75078
