-0.21484
-0.35221
-0.51172
-0.56706
-0.46745
-0.28516
-0.12695
0.085938
0.083333
0.0084635
-0.072266
-0.056641
0.044922
0.1888
0.31315
0.39779
0.44336
0.44987
0.43815
0.41667
0.40104
0.4056
0.42839
0.46419
0.49674
0.52148
0.54167
0.54948
0.51823
0.32747
0.1901
0.071615
0.075521
0.19987
0.31055
0.36458
0.31445
0.27344
0.12435
-0.022135
-0.21484
-0.4056
-0.52734
-0.44401
-0.31901
-0.1224
0.030599
0.18034
0.27344
0.25911
0.16341
0.10742
0.12305
0.23893
0.42057
0.54427
0.60286
0.62435
0.52604
0.27669
-0.04362
-0.30534
-0.57747
-0.58984
-0.48047
-0.30664
0.070313
0.22786
0.25977
0.07487
-0.18359
-0.39388
-0.40104
-0.2793
-0.099609
0.07487
0.27018
0.42122
0.42122
0.48828
0.46094
0.32813
0.10156
-0.05013
-0.11458
-0.03125
0.13997
0.29753
0.50391
0.54883
0.60091
0.41211
0.2194
-0.16146
-0.50846
-0.79297
-0.86784
-0.70247
-0.48958
-0.16406
0.15755
0.27148
0.23372
0.078776
-0.056641
-0.061198
0.028646
0.17708
0.30143
0.39063
0.44076
0.47331
0.45768
0.46354
0.42188
0.28451
0.16016
0.061198
0.10482
0.26367
0.41536
0.49219
0.52474
0.41602
0.24089
0.047526
0.0071615
0.00065104
-0.14128
-0.23568
-0.37891
-0.2819
-0.13867
0.071615
0.15169
0.19206
0.11784
0.033854
-0.059245
-0.065755
0.016276
0.17839
0.35742
0.5
0.53516
0.49674
0.38086
0.24284
0.070964
-0.022135
-0.0052083
0.1276
0.36914
0.55469
0.66536
0.8138
0.70052
0.54753
0.041016
-0.39844
-0.85352
-0.875
-0.66667
-0.28125
0.020182
0.32096
0.37891
0.30664
0.11654
-0.033203
-0.11328
-0.078776
-0.017578
0.11393
0.27799
0.42253
0.56836
0.61328
0.67448
0.59831
0.50586
0.30794
0.035807
-0.1237
-0.14388
-0.0013021
0.15755
0.3112
0.34049
0.34896
0.30924
0.28646
0.10612
-0.22526
-0.54883
-0.76237
-0.71029
-0.57292
-0.25586
0.065755
0.27539
0.38672
0.29948
0.12565
-0.02474
-0.048177
0.05013
0.20573
0.35482
0.48438
0.58594
0.59766
0.53255
0.34049
0.16146
0.066406
0.10156
0.22396
0.34896
0.42513
0.48763
0.4987
0.36784
0.17513
-0.044922
-0.1582
-0.29753
-0.49219
-0.60742
-0.6875
-0.49414
-0.25456
-0.091797
0.098307
0.079427
-0.023438
-0.13411
-0.13086
-0.0065104
0.16992
0.33138
0.45052
0.5293
0.56315
0.56836
0.56315
0.55534
0.55208
0.54818
0.53711
0.52995
0.51888
0.48633
0.33529
0.16797
0.013672
-0.03776
0.014974
0.076823
0.11068
0.080729
-0.0026042
-0.034505
-0.039714
0.040365
0.0065104
-0.10417
-0.35156
-0.45964
-0.43424
-0.31185
-0.16927
0.046224
0.17643
0.37956
0.4707
0.48438
0.34245
0.01237
-0.26367
-0.39258
-0.32227
0.0071615
0.30273
0.42708
0.53646
0.47656
0.30143
-0.16602
-0.51237
-0.8099
-0.73047
-0.44596
-0.14583
0.089193
0.32357
0.33008
0.24609
0.027995
-0.11654
-0.14258
-0.04362
0.097005
0.23958
0.33138
0.36458
0.38867
0.40234
0.41081
0.33659
0.13867
-0.094401
-0.23893
-0.23633
-0.10938
0.060547
0.17839
0.25781
0.35872
0.36654
0.40755
0.22201
-0.16797
-0.52409
-0.73633
-0.65039
-0.4668
0.027344
0.28125
0.60807
0.66797
0.50651
0.14388
-0.23633
-0.44076
-0.42383
-0.22721
0.031901
0.24349
0.42969
0.51107
0.48633
0.37305
0.14193
-0.054688
-0.17773
-0.20898
-0.11914
0.020182
0.13216
0.28776
0.35156
0.31836
0.26693
0.035156
0.013672
-0.083984
-0.19661
-0.25065
-0.31315
-0.20964
-0.013021
0.29362
0.48047
0.59831
0.44987
0.1888
-0.039714
-0.1263
-0.090495
-0.015625
0.020182
0.021484
0.076172
0.12826
0.16602
0.16797
0.10221
0.036458
-0.020182
-0.041667
-0.028646
0.0013021
0.048828
0.10221
0.17253
0.26042
0.32422
0.39909
0.45508
0.48503
0.47266
0.41146
0.21549
-0.23307
-0.64258
-0.82878
-0.62565
-0.14844
0.32552
0.58659
0.57617
0.20898
-0.25651
-0.62565
-0.7207
-0.56966
-0.38086
-0.089844
0.11654
0.25977
0.2526
0.13997
0
-0.14518
-0.18294
-0.11979
0.070964
0.32878
0.4974
0.61589
0.64714
0.58529
0.37826
0.080078
-0.3724
-0.5918
-0.68294
-0.55534
-0.36133
-0.20508
0.14909
0.38997
0.45313
0.20898
-0.125
-0.3724
-0.41341
-0.31576
-0.17578
-0.038411
0.11914
0.29036
0.42448
0.49414
0.47721
0.39063
0.31315
0.25195
0.24284
0.26888
0.3099
0.36654
0.43815
0.4987
0.57943
0.65104
0.63802
0.57161
0.24219
0.069661
-0.19466
-0.1849
-0.24544
-0.40495
-0.42513
-0.35352
-0.067708
0.10677
0.28646
0.29036
0.20182
0.074219
0.016276
0.044271
0.1224
0.21549
0.31185
0.42969
0.53255
0.59049
0.58659
0.55599
0.49674
0.42188
0.19727
-0.035807
-0.23893
-0.25911
-0.067057
0.12109
0.35547
0.48698
0.54622
0.42188
0.24609
0.0078125
-0.375
-0.59115
-0.66732
-0.47982
-0.27279
-0.0091146
0.16471
0.36784
0.45898
0.43815
0.36589
0.31901
0.3444
0.39779
0.44466
0.46419
0.45638
0.44271
0.43555
0.43685
0.44466
0.46094
0.48633
0.51302
0.53711
0.54167
0.51693
0.47526
0.42773
0.39388
0.37305
0.36133
0.3457
0.32813
0.3112
0.30078
0.29427
0.29492
0.29688
0.30794
0.31315
0.3125
0.30078
0.29622
0.30599
0.32813
0.34635
0.34505
0.31706
0.28125
0.25391
0.24349
0.25065
0.27214
0.30078
0.32357
0.32878
0.32227
0.30469
0.28451
0.26042
0.23568
0.21289
0.19727
0.1862
0.18359
0.19596
0.21159
0.22135
0.22461
0.22396
0.22852
0.2487
0.27279
0.2793
0.22982
0.10612
-0.020182
-0.031901
0.12891
0.22786
0.14648
-0.24609
-0.60612
-0.72201
-0.59245
-0.34766
-0.15755
-0.098307
-0.096354
-0.16406
-0.19792
-0.24674
-0.25586
-0.25911
-0.19792
-0.17188
-0.13607
-0.15951
-0.11914
-0.11589
-0.16862
-0.20508
-0.18945
-0.11133
-0.0071615
0.050781
0.079427
0.05013
-0.089844
-0.21549
-0.26758
-0.19596
0.014323
0.11784
0.21094
0.3125
0.23177
0.14583
-0.041667
-0.32292
-0.39128
-0.40365
-0.27604
-0.024089
0.15495
0.20833
0.19076
-0.092448
-0.34635
-0.50195
-0.38477
-0.13672
-0.020182
0.16146
0.30664
0.20768
-0.051432
-0.30534
-0.43034
-0.33398
-0.16732
0.054036
0.24609
0.39388
0.30013
0.14583
-0.051432
-0.13151
-0.15951
-0.27344
-0.0071615
0.20182
0.34375
0.3431
0.23763
0.22591
0.21419
0.14258
-0.042318
-0.020833
0.088542
0.18229
0.14714
0.15625
0.23177
0.32422
0.30273
0.085286
-0.018229
-0.125
-0.14453
-0.19076
-0.13086
0.051432
0.24349
0.16081
0.20443
-0.029948
-0.19466
-0.49349
-0.66667
-0.65104
-0.37956
-0.084635
0.11523
0.34896
0.33789
0.31771
-0.033203
-0.32227
-0.46224
-0.29102
0.027995
0.33789
0.49154
0.71094
0.73503
0.58789
0.095703
-0.30924
-0.59115
-0.53516
-0.33138
-0.1263
0.19336
0.50195
0.50521
0.29232
-0.070964
-0.34505
-0.43815
-0.32292
-0.23893
0.056641
0.33268
0.36589
0.40755
0.16667
0.082682
0.0013021
-0.054688
-0.041016
0.059245
0.24674
0.41602
0.53776
0.6901
0.74414
0.71484
0.56055
0.31836
0.1543
0.030599
0.0045573
0.03125
0.12174
0.20638
0.36068
0.41341
0.43164
0.3125
0.1849
0.084635
-0.078776
-0.29753
-0.42122
-0.52018
-0.33138
-0.085938
0.23893
0.30208
0.35221
0.08138
-0.19271
-0.39453
-0.38477
-0.18815
0.020833
0.22396
0.51042
0.6862
0.69922
0.49023
0.013021
-0.39323
-0.58464
-0.5319
-0.30794
-0.19596
0.11849
0.38216
0.32487
0.14063
-0.13802
-0.42513
-0.51758
-0.51107
-0.41016
-0.10938
0.18164
0.40299
0.50586
0.48633
0.4082
0.26953
0.058594
-0.026042
-0.0045573
0.14974
0.33073
0.51758
0.63867
0.82161
0.82096
0.80599
0.62109
0.34635
0.12826
-0.080078
-0.11719
-0.034505
0.19596
0.35482
0.60938
0.70313
0.79883
0.71419
0.45573
-0.052734
-0.41471
-0.64714
-0.53125
-0.25391
0.058594
0.34049
0.54036
0.56901
0.42643
0.16406
-0.075521
-0.20703
-0.1582
0.014974
0.21354
0.41536
0.55924
0.70638
0.69206
0.66862
0.51042
0.31706
0.24089
0.24154
0.32552
0.41471
0.46354
0.47201
0.48958
0.50651
0.50456
0.48372
0.29297
0.15169
0.037109
0.089844
0.20052
0.31836
0.32943
0.39974
0.3418
0.46289
0.44922
0.45052
0.33659
0.0039063
-0.30208
-0.42188
-0.31901
-0.13542
0.13997
0.3112
0.53385
0.625
0.62695
0.45182
0.14063
-0.26953
-0.4668
-0.39779
-0.13737
0.27799
0.49089
0.63607
0.66341
0.66016
0.43229
-0.036458
-0.53646
-0.81836
-0.74805
-0.5013
0.039714
0.29883
0.62174
0.66211
0.4388
0.10612
-0.27214
-0.45443
-0.48242
-0.31706
-0.088542
0.10221
0.2487
0.34245
0.37826
0.37826
0.36979
0.35352
0.30208
0.29232
0.29688
0.33854
0.38086
0.38737
0.375
0.35612
0.33854
0.33138
0.33919
0.36979
0.40951
0.44531
0.46419
0.46875
0.46419
0.46354
0.46615
0.47721
0.48438
0.49479
0.50521
0.52214
0.53385
0.49479
0.37565
0.22331
0.055339
-0.11589
-0.29297
-0.48372
-0.57747
-0.61784
-0.55534
-0.48763
-0.35807
-0.21094
-0.065755
0.04362
0.11719
0.17904
0.23307
0.27279
0.30339
0.33073
0.34961
0.3431
0.3112
0.26302
0.21484
0.19206
0.18555
0.19466
0.20898
0.22656
0.24805
0.27474
0.29036
0.30924
0.32031
0.32747
0.33398
0.31966
0.29622
0.26432
0.23828
0.22656
0.23242
0.24609
0.26497
0.27409
0.26758
0.21875
0.08138
-0.16862
-0.41471
-0.5625
-0.53971
-0.50781
-0.51302
-0.56966
-0.61914
-0.59115
-0.49349
-0.34701
-0.18294
-0.050781
0.0625
0.16471
0.24544
0.30859
0.3099
0.27734
0.10677
-0.014974
-0.17969
-0.23372
-0.25521
-0.28711
-0.27083
-0.18815
0.020833
0.2194
0.29622
0.098307
-0.12174
-0.38021
-0.51758
-0.5599
-0.65169
-0.43164
-0.17122
0.18164
0.38281
0.42318
0.24935
-0.045573
-0.33203
-0.43555
-0.35742
-0.14714
0.13867
0.29883
0.55339
0.55143
0.53255
0.29818
-0.19466
-0.60417
-0.78451
-0.64453
-0.23307
0.076172
0.53255
0.70052
0.60938
0.18424
-0.26432
-0.55664
-0.49805
-0.24414
0.042318
0.29557
0.51758
0.55273
0.36003
0.13672
-0.10677
-0.23958
-0.22135
-0.12695
0.096354
0.28841
0.34505
0.31315
0.15169
0.041667
-0.074219
-0.12891
-0.094401
-0.042969
0.12044
0.18945
0.12956
0.17513
0.19531
0.18815
-0.089193
-0.25195
-0.33268
-0.32487
-0.32161
-0.25977
-0.21484
-0.033203
0.15951
0.27865
0.22852
0.09375
-0.051432
-0.13932
-0.15234
-0.11328
0.03776
0.25
0.40299
0.51302
0.5026
0.31185
0.17513
-0.0078125
-0.20833
-0.20573
-0.087891
0.12826
0.44727
0.61003
0.63346
0.56966
0.14193
-0.27474
-0.53581
-0.50911
-0.26302
-0.067708
0.03776
0.23047
0.32943
0.29167
0.10807
-0.14258
-0.25326
-0.24674
-0.13802
-0.0091146
0.11003
0.23047
0.38802
0.52474
0.64844
0.62044
0.48958
0.26563
0.077474
-0.0013021
0.052734
0.17578
0.3125
0.45182
0.62826
0.66602
0.71419
0.50781
0.3776
0.095703
-0.077474
-0.30404
-0.32031
-0.35742
-0.10547
0.075521
0.20833
0.25977
0.077474
-0.15755
-0.35612
-0.37826
-0.24089
-0.038411
0.16146
0.32422
0.43555
0.51367
0.54167
0.52083
0.45313
0.40885
0.42839
0.5013
0.57096
0.60742
0.62109
0.64583
0.64648
0.62956
0.54753
0.30859
0.11719
-0.01237
-0.015625
0.13932
0.27083
0.32943
0.37826
0.47266
0.46159
0.31185
-0.022135
-0.31966
-0.52083
-0.44076
-0.26237
-0.048828
0.1224
0.28841
0.39323
0.42188
0.34505
0.21484
0.11979
0.096354
0.14453
0.20768
0.28516
0.33073
0.41797
0.47526
0.47917
0.35612
0.13021
-0.046875
-0.11979
-0.035156
0.15299
0.31641
0.46224
0.64909
0.75846
0.65755
0.2207
-0.15495
-0.4349
-0.36458
-0.14779
-0.0013021
0.26172
0.52539
0.60221
0.39453
-0.01237
-0.40234
-0.54492
-0.44987
-0.22005
-0.045573
0.10482
0.22917
0.31836
0.36263
0.35872
0.34505
0.32747
0.32227
0.33008
0.36133
0.40365
0.44661
0.46159
0.43555
0.39258
0.34896
0.33203
0.33073
0.3444
0.35807
0.37174
0.39193
0.41081
0.42969
0.43034
0.40625
0.3776
0.35091
0.3444
0.34505
0.35612
0.33854
0.28255
0.15885
0.0045573
-0.15755
-0.2513
-0.30208
-0.29167
-0.33268
-0.37565
-0.37891
-0.45313
-0.40951
-0.375
-0.23893
-0.066406
0.067057
0.14518
0.19076
0.2207
0.23763
0.2513
0.26563
0.27214
0.27018
0.25977
0.25065
0.24349
0.23503
0.22982
0.23047
0.24544
0.26823
0.28711
0.28906
0.27604
0.25651
0.23698
0.22721
0.23047
0.25
0.26758
0.26563
0.22135
0.12435
0.026042
-0.0013021
0.058594
0.15885
0.18555
0.16146
0.026042
-0.065755
-0.22786
-0.53841
-0.64583
-0.6237
-0.37826
-0.11589
0.057943
0.10807
0.10807
0.089193
0.092448
0.11589
0.17057
0.21159
0.26432
0.28776
0.13086
-0.22591
-0.55273
-0.78971
-0.72266
-0.54948
-0.20833
0.12109
0.26367
0.37044
0.12891
-0.18359
-0.45508
-0.50716
-0.35872
-0.14453
0.051432
0.24544
0.35807
0.45898
0.43815
0.34049
0.11654
-0.10872
-0.29036
-0.29036
-0.15365
0.023438
0.23698
0.40625
0.41536
0.43164
0.27148
0.15755
0.020182
-0.1224
-0.23958
-0.26432
-0.22396
-0.014974
0.084635
0.39648
0.41732
0.22591
-0.12109
-0.3763
-0.45052
-0.35742
-0.21615
-0.029948
0.15234
0.31055
0.35807
0.21094
0.051432
-0.048828
-0.048177
0.054688
0.17773
0.2168
0.2793
0.30143
0.20768
0.067708
-0.10221
-0.22786
-0.23828
-0.20703
0.05013
0.22396
0.5026
0.63672
0.49154
0.30208
0.15755
-0.055339
-0.2819
-0.37956
-0.25846
-0.0071615
0.16081
0.34245
0.33919
0.34115
0.26693
0.10286
-0.067708
-0.14193
-0.079427
0.059896
0.2194
0.30339
0.46224
0.50456
0.55143
0.48828
0.33073
0.20378
0.066406
0.067057
0.13997
0.25
0.30859
0.45833
0.54948
0.73503
0.66862
0.55339
0.28776
-0.099609
-0.3418
-0.35872
-0.14583
0.13542
0.47135
0.56901
0.5918
0.39453
0.022786
-0.26758
-0.33008
-0.21354
-0.063802
0.05599
0.14388
0.25
0.34766
0.40951
0.39974
0.30794
0.2207
0.19206
0.26107
0.38672
0.50326
0.57096
0.5918
0.57227
0.55078
0.49414
0.41797
0.19922
-0.0039063
-0.19727
-0.25846
-0.13737
-0.072266
0.041667
0.16797
0.30208
0.37695
0.375
0.22266
-0.17839
-0.40365
-0.56901
-0.45833
-0.2819
-0.099609
0.10807
0.25065
0.34115
0.30729
0.14193
-0.0032552
-0.068359
-0.028646
0.071615
0.19206
0.26888
0.36979
0.41797
0.45117
0.31445
0.14714
-0.06901
-0.10677
-0.089844
-0.036458
-0.0071615
0.020182
0.21419
0.38281
0.42839
0.40104
0.13086
-0.24805
-0.43164
-0.44531
-0.20964
0.00065104
0.16341
0.25977
0.30339
0.2819
0.13151
-0.14193
-0.36719
-0.45638
-0.41341
-0.28711
-0.14128
-0.014974
0.10286
0.16732
0.24089
0.25065
0.19661
0.044271
-0.1263
-0.23047
-0.21289
-0.10156
0.061849
0.22135
0.47005
0.58659
0.66471
0.5957
0.3431
0.14323
-0.071615
-0.22201
-0.36068
-0.50065
-0.58203
-0.52409
-0.39193
-0.042318
0.23633
0.33008
0.20573
0.03776
-0.065104
-0.053385
0.036458
0.13151
0.19857
0.26497
0.32487
0.37435
0.39974
0.39648
0.39453
0.39063
0.38281
0.37565
0.36068
0.33789
0.27279
0.070964
-0.077474
-0.15039
-0.05599
0.22331
0.40625
0.42122
0.28906
0.2513
0.31771
0.37435
0.10938
-0.21615
-0.55143
-0.58594
-0.42448
-0.30143
0.05599
0.21615
0.37305
0.35221
0.23828
0.125
0.092448
0.022786
-0.19271
-0.38477
-0.49154
-0.39909
-0.082031
0.17708
0.46875
0.56055
0.64518
0.54362
0.46289
0.25911
0.036458
-0.13607
-0.22917
-0.27083
-0.26107
-0.21875
-0.083333
0.05013
0.33919
0.65104
0.77083
0.48112
0.035807
-0.43945
-0.69922
-0.77799
-0.69206
-0.56055
-0.27279
-0.057943
0.19206
0.29557
0.34635
0.33789
0.30143
0.17708
-0.018229
-0.23763
-0.32357
-0.25326
-0.038411
0.15755
0.39714
0.46354
0.51758
0.42122
0.23763
0.039063
-0.079427
-0.14583
-0.091797
0.019531
0.17448
0.38216
0.57552
0.71615
0.68555
0.64583
0.46029
0.052734
-0.2526
-0.50065
-0.45573
-0.31576
-0.1888
0.17188
0.5306
0.70182
0.69466
0.58789
0.4362
0.20638
-0.125
-0.42057
-0.51042
-0.37044
-0.051432
0.1263
0.33464
0.29622
0.32227
0.23047
0.14714
0.047526
-0.046224
-0.083333
-0.048177
0.024089
0.11849
0.22331
0.3431
0.51237
0.5944
0.63932
0.55534
0.36263
0.11719
-0.076823
-0.12109
-0.029297
0.17188
0.3138
0.50521
0.58529
0.57487
0.52214
0.40951
0.21094
-0.083984
-0.4349
-0.64258
-0.6543
-0.47135
-0.24479
-0.04362
0.088542
0.17643
0.17057
0.06901
-0.055339
-0.13151
-0.10482
-0.011719
0.10286
0.20443
0.29232
0.35156
0.38867
0.40495
0.39779
0.35352
0.24089
0.16536
0.14388
0.23763
0.38737
0.55273
0.61198
0.66471
0.68099
0.57161
0.29297
-0.046224
-0.41276
-0.54818
-0.48242
-0.38932
-0.24219
-0.020182
0.10742
0.19271
0.051432
-0.18099
-0.37174
-0.40495
-0.2513
0.013021
0.25716
0.45964
0.52539
0.53255
0.42448
0.25846
0.046875
-0.18424
-0.31641
-0.31966
-0.19531
-0.019531
0.18359
0.38216
0.54297
0.65951
0.64453
0.52409
0.3457
0.084635
-0.19792
-0.42708
-0.50846
-0.45508
-0.26563
-0.026042
0.13997
0.25391
0.20313
-0.095052
-0.49089
-0.7526
-0.7793
-0.58919
-0.25195
0.10156
0.33594
0.45247
0.52474
0.47852
0.40234
0.18945
-0.039714
-0.16471
-0.1263
0.022786
0.16667
0.27344
0.31836
0.34961
0.36849
0.31771
0.24479
0.084635
-0.0065104
-0.011068
0.086589
0.22201
0.32943
0.38216
0.41341
0.42318
0.43555
0.39323
0.25586
0.042318
-0.15755
-0.23438
-0.22721
-0.10807
-0.076823
0.13151
0.33984
0.5944
0.67318
0.58984
0.22201
-0.18685
-0.51042
-0.50651
-0.2832
0.00065104
0.24089
0.51042
0.57227
0.60482
0.49674
0.3418
0.11003
-0.17253
-0.40104
-0.46094
-0.34049
-0.040365
0.23893
0.52018
0.65104
0.63216
0.54427
0.33008
-0.033203
-0.5026
-0.69401
-0.74805
-0.55794
-0.3099
-0.053385
0.1569
0.45052
0.46159
0.27409
0.011719
-0.11979
-0.10807
-0.060547
-0.030599
-0.051432
-0.0065104
0.095052
0.26953
0.46224
0.5319
0.59375
0.56966
0.50846
0.35026
0.078125
-0.14063
-0.25977
-0.19466
-0.063151
0.12565
0.19466
0.32878
0.35612
0.47201
0.46615
0.41992
0.28971
0.00065104
-0.36719
-0.57227
-0.66341
-0.51628
-0.30924
0.095052
0.23177
0.36784
0.25716
0.020182
-0.2487
-0.36784
-0.36133
-0.25195
-0.088542
0.086589
0.28711
0.47266
0.62565
0.75586
0.69141
0.58854
0.34961
0.14128
0.0045573
-0.01888
0.055339
0.16276
0.27669
0.35286
0.45768
0.49544
0.52148
0.36133
0.14909
-0.078125
-0.21875
-0.25716
-0.26888
-0.27669
-0.14128
0.03125
0.34505
0.65495
0.79036
0.80404
0.62695
0.14714
-0.23828
-0.46289
-0.38086
-0.17057
-0.067057
0.24284
0.34701
0.4987
0.38932
0.23438
0.064453
-0.1276
-0.33268
-0.5013
-0.49089
-0.30599
0.0097656
0.24219
0.43034
0.4056
0.37956
0.18359
0.016927
-0.16406
-0.27865
-0.29622
-0.25716
-0.18099
-0.078125
0.066406
0.22201
0.3724
0.41602
0.51888
0.45573
0.37305
0.16602
-0.1582
-0.45052
-0.61784
-0.51888
-0.23763
0.21549
0.46875
0.67513
0.62565
0.31641
-0.031901
-0.36393
-0.53581
-0.5625
-0.42904
-0.2194
0.014323
0.17448
0.29557
0.3431
0.30664
0.25456
0.14193
0.067708
0.068359
0.14648
0.26497
0.36393
0.41406
0.42513
0.41536
0.4043
0.41341
0.39193
0.33529
0.17904
0.052734
-0.0058594
0.053385
0.17643
0.34375
0.53255
0.66797
0.82878
0.86393
0.72656
0.44141
-0.16016
-0.58594
-0.84375
-0.63737
-0.20703
0.06901
0.37174
0.49089
0.44401
0.15755
-0.21029
-0.48047
-0.49284
-0.31771
-0.070964
0.14193
0.29818
0.40039
0.42969
0.4388
0.4349
0.41211
0.34766
0.20247
0.092448
0.051432
0.11263
0.22786
0.33464
0.41536
0.4668
0.53125
0.54557
0.55664
0.42643
0.1849
-0.092448
-0.27669
-0.33203
-0.20378
-0.091797
0.15169
0.39518
0.49349
0.46745
0.21875
-0.24349
-0.62565
-0.78451
-0.65951
-0.4082
-0.23958
0.097005
0.25065
0.4375
0.34896
0.17969
0.022135
-0.10938
-0.28255
-0.40169
-0.44987
-0.32943
-0.08138
0.17318
0.45443
0.53906
0.62174
0.50977
0.39258
0.13346
-0.086589
-0.21159
-0.19857
-0.14193
-0.040365
0.055339
0.17969
0.32422
0.44466
0.41081
0.49219
0.3125
0.054688
-0.19206
-0.29883
-0.20443
-0.092448
0.06901
0.22852
0.5306
0.62891
0.62695
0.52083
0.42318
0.34766
0.20052
-0.10807
-0.33464
-0.43424
-0.21745
-0.042969
0.14974
0.15755
0.1556
0.11198
0.087891
0.085286
0.057943
0.046224
0.038411
0.030599
0.039714
0.072266
0.13346
0.27344
0.40885
0.52604
0.60221
0.59831
0.5918
0.5625
0.46159
0.19987
-0.050781
-0.2487
-0.22982
0.0084635
0.28646
0.48177
0.5931
0.63281
0.53581
0.32096
0.09375
-0.29492
-0.44076
-0.4707
-0.28581
-0.070964
0.089844
0.19987
0.27018
0.30859
0.31445
0.29688
0.29167
0.30078
0.31641
0.32292
0.31771
0.29622
0.27344
0.26432
0.27083
0.28516
0.30534
0.32096
0.33138
0.32943
0.3138
0.29427
0.27474
0.25846
0.23893
0.22656
0.22331
0.22982
0.24023
0.2513
0.25716
0.26237
0.26888
0.27344
0.27669
0.25716
0.22526
0.16406
0.1276
0.15365
0.29688
0.44857
0.53516
0.47461
0.28906
-0.016276
-0.33398
-0.68034
-0.85872
-0.94922
-0.80599
-0.61719
-0.4668
-0.38021
-0.32682
-0.25911
-0.21094
-0.18229
-0.11393
-0.0045573
0.13151
0.19727
0.13021
-0.065755
-0.22266
-0.34701
-0.35872
-0.33464
-0.22591
-0.01888
0.32878
0.52539
0.62174
0.5319
0.31185
-0.085938
-0.46224
-0.68034
-0.6888
-0.41927
-0.13346
0.23893
0.31641
0.34505
0.083333
-0.16081
-0.35938
-0.33854
-0.16536
0.041667
0.20638
0.35677
0.44596
0.49935
0.50521
0.4668
0.41016
0.3444
0.29557
0.26302
0.25065
0.25586
0.27474
0.29688
0.3112
0.31836
0.32292
0.32617
0.32747
0.32813
0.33529
0.3444
0.36068
0.37826
0.39518
0.41471
0.43359
0.45247
0.4668
0.47786
0.49414
0.5
0.49935
0.48698
0.46745
0.44076
0.39974
0.3431
0.26042
0.20964
0.25
0.25911
0.1569
-0.036458
-0.22266
-0.37305
-0.40885
-0.52604
-0.61328
-0.66211
-0.60091
-0.48893
-0.4069
-0.3776
-0.34635
-0.25651
-0.10286
0.096354
0.24674
0.35352
0.40039
0.34245
0.044271
-0.23633
-0.55859
-0.67578
-0.58529
-0.35091
0.013672
0.27734
0.5026
0.46484
0.2806
-0.0065104
-0.39453
-0.60807
-0.64844
-0.4401
-0.13867
0.063151
0.4349
0.49479
0.45182
0.085286
-0.2194
-0.36719
-0.29297
-0.11003
0.064453
0.21029
0.31901
0.35091
0.42122
0.34961
0.25716
0.072917
-0.09375
-0.16081
-0.14128
-0.064453
0.035156
0.13542
0.2819
0.41602
0.58529
0.61068
0.56771
0.32943
0.17643
0.041016
-0.027995
-0.091146
-0.12891
-0.031901
0.080729
0.28385
0.42318
0.38021
0.33073
0.17318
-0.17578
-0.43424
-0.67383
-0.63477
-0.36654
-0.14063
0.35352
0.5306
0.49219
0.30794
-0.0032552
-0.26367
-0.42643
-0.51628
-0.5026
-0.39063
-0.14128
0.14063
0.41016
0.49089
0.59961
0.51628
0.38542
0.091797
-0.18164
-0.33073
-0.29688
-0.13672
0.061198
0.23242
0.34961
0.42513
0.44857
0.29167
0.17057
0.011068
-0.05013
-0.056641
-0.035156
0.061198
0.16797
0.30208
0.40169
0.3444
0.49414
0.41536
0.32813
0.092448
-0.083984
-0.25781
-0.25326
-0.11263
-0.061198
0.24414
0.36784
0.51888
0.55729
0.3125
0.073568
-0.18555
-0.37565
-0.48177
-0.43229
-0.26042
-0.076172
0.097005
0.19206
0.26237
0.24805
0.18294
0.11523
0.019531
-0.050781
-0.074219
-0.059245
0.0065104
0.13216
0.36263
0.58333
0.68555
0.72721
0.6849
0.55924
0.35612
-0.015625
-0.3138
-0.49349
-0.44206
-0.125
0.19792
0.48958
0.75911
0.80013
0.70052
0.4388
-0.046875
-0.4082
-0.61589
-0.48503
-0.22721
-0.085938
0.15495
0.27148
0.27799
0.16276
-0.02474
-0.19271
-0.21224
-0.14388
-0.022135
0.11458
0.21549
0.27148
0.30859
0.3444
0.39779
0.42643
0.38997
0.27799
0.11003
-0.030599
-0.067708
-0.0097656
0.11589
0.26497
0.33919
0.41927
0.45898
0.41862
0.3418
0.16471
0.070313
0.033854
-0.010417
-0.11328
-0.2526
-0.43099
-0.54688
-0.54297
-0.45247
-0.17448
-0.08724
-0.037109
-0.12174
-0.20573
-0.24544
-0.1569
-0.013672
0.085286
0.15365
0.21419
0.26823
0.29557
0.25521
0.21745
0.19531
0.23372
0.28971
0.33984
0.3737
0.39518
0.40951
0.42122
0.43424
0.46549
0.48568
0.47201
0.3431
0.16211
-0.015625
-0.054688
0.064453
0.25716
0.43945
0.56641
0.60677
0.60742
0.47396
0.15039
-0.24479
-0.53516
-0.72266
-0.56706
-0.57031
-0.22396
-0.12826
-0.034505
-0.054688
-0.1556
-0.31445
-0.37109
-0.29102
-0.10482
0.10612
0.27669
0.39128
0.48177
0.54557
0.55859
0.4707
0.27344
0.13086
0.06901
0.11393
0.2194
0.34375
0.46875
0.54688
0.64779
0.61198
0.59115
0.4043
0.11328
-0.050781
-0.16276
-0.17057
-0.14909
-0.19857
-0.20443
-0.11979
-0.0052083
0.011068
0.035156
-0.11393
-0.33268
-0.43424
-0.38542
-0.15365
0.098958
0.23698
0.31901
0.36458
0.37956
0.3431
0.27995
0.16341
0.09375
0.051432
0.085938
0.18294
0.29883
0.39974
0.46094
0.52148
0.50716
0.47396
0.30273
0.039063
-0.20964
-0.33984
-0.30469
-0.12435
0.070964
0.30729
0.61328
0.77083
0.72526
0.48112
0.089844
-0.40039
-0.66081
-0.75391
-0.57227
-0.26107
-0.070313
0.25651
0.44141
0.43229
0.2474
-0.036458
-0.29948
-0.39583
-0.36198
-0.23112
-0.070313
0.18815
0.33398
0.57747
0.63216
0.70573
0.60677
0.39193
0.15299
0.0013021
0.0084635
0.1237
0.26563
0.38216
0.44792
0.43099
0.39323
0.29883
0.2207
0.13216
0.052734
0.02474
0.054036
0.13672
0.23828
0.31836
0.35742
0.36523
0.3431
0.34896
0.34505
0.35352
0.31901
0.19922
0.067708
-0.041667
-0.015625
0.10482
0.3431
0.45378
0.54362
0.5599
0.47591
0.39779
0.23307
0.025391
-0.16471
-0.38151
-0.61133
-0.6875
-0.57487
-0.36784
-0.24349
-0.059896
-0.041667
-0.089844
-0.25651
-0.38477
-0.38021
-0.26042
-0.06901
0.20703
0.37695
0.59245
0.64193
0.63867
0.55404
0.35938
0.14388
-0.017578
-0.072917
-0.0026042
0.14844
0.32357
0.43685
0.52604
0.50586
0.48307
0.36263
0.18424
-0.029948
-0.14909
-0.19076
-0.14258
0.014974
0.17969
0.2819
0.41406
0.41602
0.41732
0.32943
0.10938
-0.15365
-0.47591
-0.6582
-0.58073
-0.32682
-0.045573
0.094401
0.21224
0.24544
0.27995
0.22852
0.16536
0.12109
0.15169
0.20247
0.23893
0.26497
0.29102
0.31576
0.33008
0.3112
0.23958
0.12174
0.016927
-0.01237
0.029297
0.20703
0.42643
0.61914
0.71549
0.64063
0.35872
-0.031901
-0.43685
-0.67904
-0.7181
-0.40755
-0.096354
0.27018
0.46029
0.44661
0.2181
-0.076172
-0.44141
-0.60156
-0.55143
-0.33203
-0.021484
0.20443
0.43815
0.50977
0.52279
0.36849
0.13932
-0.095703
-0.22135
-0.17773
-0.0071615
0.20833
0.44076
0.54557
0.63086
0.58659
0.47266
0.35352
0.14518
-0.031901
-0.15039
-0.14128
-0.031901
0.17708
0.37435
0.45898
0.52604
0.5638
0.48372
0.33203
0.042969
-0.22201
-0.4974
-0.63802
-0.60221
-0.33984
-0.067708
0.085938
0.35286
0.30469
0.26888
-0.014974
-0.25521
-0.38672
-0.30208
-0.10221
0.10091
0.24219
0.32747
0.38411
0.42253
0.42253
0.33984
0.20117
0.044271
-0.034505
0.05599
0.24674
0.41211
0.46224
0.40625
0.24219
0.067708
-0.08724
-0.18164
-0.20313
-0.11979
0.056641
0.2819
0.48828
0.67253
0.69792
0.64128
0.44076
0.14844
-0.11263
-0.2513
-0.21289
-0.061849
-0.0019531
0.23568
0.39779
0.40039
0.37695
0.23242
0.17057
0.095052
0.0078125
-0.32487
-0.54948
-0.67839
-0.47396
-0.2487
0.0052083
0.10742
0.12305
0.089193
0.051432
0.01237
-0.032552
-0.070964
-0.10352
-0.13151
-0.14648
-0.14518
-0.12435
-0.074219
0.03776
0.2194
0.40299
0.59831
0.72266
0.76563
0.71029
0.52865
0.16862
-0.15951
-0.41536
-0.47786
-0.32292
-0.073568
0.30534
0.6276
0.83529
0.8112
0.65299
0.3112
-0.13672
-0.40299
-0.48438
-0.34049
-0.10677
-0.015625
0.17253
0.22396
0.16732
-0.0097656
-0.25651
-0.39193
-0.375
-0.24805
-0.11198
0.013021
0.095052
0.15104
0.20508
0.25326
0.32161
0.35352
0.27995
0.11784
-0.057292
-0.14583
-0.095703
0.048177
0.26172
0.34701
0.46484
0.53971
0.59115
0.54818
0.39909
0.20964
0.070964
0.031901
0.016276
0.022135
0.0019531
-0.0097656
-0.040365
-0.020833
0.039063
0.061849
-0.033854
-0.11979
-0.15104
-0.33398
-0.37826
-0.41667
-0.3099
-0.097656
-0.014323
0.18555
0.17904
0.1543
-0.063802
-0.24479
-0.2806
-0.14909
0.03776
0.19271
0.31641
0.41146
0.48698
0.49414
0.43815
0.35742
0.23633
0.13346
0.076172
0.076172
0.13867
0.25586
0.35612
0.44271
0.46354
0.52344
0.52474
0.4056
0.19727
-0.035807
-0.2513
-0.35677
-0.37305
-0.36589
-0.25391
-0.2793
-0.10417
0.0032552
0.10612
0.034505
-0.13086
-0.30013
-0.30404
-0.17122
0.0039063
0.1237
0.2168
0.26823
0.32552
0.35221
0.38867
0.41341
0.43164
0.44076
0.44792
0.45378
0.45768
0.46484
0.47396
0.47591
0.47135
0.44857
0.41602
0.38411
0.33203
0.32878
0.3418
0.39583
0.44076
0.45052
0.43815
0.42188
0.41146
0.41927
0.43229
0.48242
0.5638
0.58398
0.54297
0.30143
0.055339
-0.14453
-0.15104
-0.14323
-0.10091
-0.072917
-0.055339
-0.054688
-0.1224
-0.28385
-0.42969
-0.50065
-0.46484
-0.39128
-0.33724
-0.29883
-0.25521
-0.15885
-0.0071615
0.13346
0.24154
0.25716
0.2181
0.18164
0.020182
-0.14648
-0.2819
-0.29427
-0.15495
0.11849
0.3444
0.52148
0.63802
0.56966
0.39714
0.1556
-0.069661
-0.21745
-0.20117
-0.065104
0.15234
0.33073
0.56706
0.58073
0.50065
0.32682
-0.05013
-0.39128
-0.76302
-0.7832
-0.58333
-0.1543
0.26367
0.37565
0.43099
0.39583
0.15625
-0.14648
-0.4056
-0.47786
-0.36133
-0.18685
-0.079427
0.079427
0.16341
0.2207
0.17839
0.13151
0.12305
0.17513
0.23112
0.26172
0.28125
0.25651
0.16732
0.03776
-0.090495
-0.13411
0.02474
0.27799
0.49414
0.54362
0.38737
0.14518
-0.033203
-0.18099
-0.30469
-0.36523
-0.32031
-0.093099
0.16732
0.45443
0.60091
0.55143
0.46029
0.23242
-0.10742
-0.36198
-0.53581
-0.46094
-0.22917
-0.042969
0.39779
0.58984
0.59831
0.45768
0.19401
-0.045573
-0.30664
-0.49479
-0.63932
-0.63672
-0.35677
-0.086589
0.14388
0.1862
0.1224
0.0625
0.0045573
-0.079427
-0.12891
-0.11068
-0.045573
0.023438
0.078776
0.11914
0.13542
0.14128
0.15169
0.21484
0.31445
0.40755
0.41211
0.36393
0.29557
0.24284
0.1862
0.11979
0.037109
-0.037109
-0.06901
-0.053385
0.08724
0.26042
0.51302
0.65104
0.68294
0.66992
0.55794
0.41146
0.25326
0.083333
-0.021484
-0.089193
-0.086589
0.014974
0.061849
0.36198
0.52148
0.58073
0.51042
0.26172
-0.011719
-0.23633
-0.30859
-0.48438
-0.60677
-0.66211
-0.47135
-0.24023
-0.10547
0.016276
0.049479
0.048177
0.0058594
-0.0625
-0.11589
-0.14779
-0.11589
-0.01237
0.12695
0.23633
0.30664
0.29557
0.26042
0.16536
0.077474
0.0058594
-0.0052083
0.069661
0.22135
0.41602
0.58398
0.6582
0.63216
0.53711
0.48633
0.40039
0.32552
0.29427
0.27669
0.30078
0.30404
0.27214
0.24023
0.17643
0.19987
0.27799
0.33659
0.35742
0.39193
0.33203
0.26432
0.0065104
-0.21289
-0.46484
-0.51237
-0.39648
-0.2207
0.025391
0.13997
0.39714
0.4082
0.37695
0.27148
0.2194
0.18034
0.082682
-0.14648
-0.29883
-0.39844
-0.32161
-0.1237
0.089844
0.18424
0.19076
0.1556
0.085286
0.020182
-0.011719
-0.020182
-0.0058594
0.025391
0.052734
0.07487
0.067708
0.037109
0.014974
0.020182
0.1569
0.30208
0.53125
0.67253
0.75911
0.72591
0.5306
0.14518
-0.1875
-0.4388
-0.51302
-0.36523
-0.041667
0.41211
0.73568
0.88281
0.79948
0.625
0.2832
-0.1224
-0.4082
-0.44987
-0.26302
-0.0052083
0.088542
0.24935
0.27995
0.16992
-0.016276
-0.2793
-0.44206
-0.45833
-0.3776
-0.26563
-0.10677
0.03125
0.16471
0.26628
0.36979
0.4362
0.46289
0.37956
0.19596
-0.00065104
-0.19987
-0.27799
-0.24479
-0.08138
0.10221
0.20833
0.28516
0.36979
0.37695
0.34375
0.2194
0.087891
-0.056641
-0.21289
-0.41536
-0.46549
-0.42448
-0.19076
0.12174
0.29688
0.4707
0.60221
0.5319
0.24089
-0.18164
-0.54948
-0.69076
-0.63216
-0.3431
0.022786
0.3763
0.65365
0.67513
0.56445
0.45378
0.25977
0.093099
-0.010417
0.0032552
0.11523
0.24479
0.33464
0.36133
0.33268
0.3099
0.30208
0.31185
0.3112
0.26628
0.21289
0.1849
0.21875
0.30599
0.40169
0.4668
0.48112
0.4668
0.41992
0.41341
0.42122
0.44792
0.42773
0.30794
0.16602
0.05599
0.080729
0.20508
0.41081
0.56576
0.68164
0.75456
0.73568
0.70378
0.53516
0.23438
-0.10286
-0.29232
-0.39779
-0.29232
-0.36263
-0.16862
-0.20508
-0.14714
-0.31185
-0.52474
-0.77409
-0.83724
-0.67057
-0.36784
-0.063802
0.1556
0.28255
0.37044
0.35938
0.3418
0.21549
-0.021484
-0.24414
-0.36784
-0.30924
-0.072266
0.27539
0.49349
0.73698
0.73242
0.63021
0.4707
0.26888
0.076172
-0.05599
-0.095703
-0.053385
0.050781
0.17839
0.32747
0.46224
0.5306
0.56315
0.47005
0.46289
0.41927
0.35156
0.23958
0.11654
-0.014974
-0.052083
-0.036458
0.05599
0.25586
0.42643
0.77734
0.95964
1
0.8776
0.51237
0.10677
-0.35938
-0.78255
-0.93945
-0.95768
-0.66016
-0.37695
0.09375
0.26107
0.19922
0.014974
-0.15625
-0.29362
-0.36068
-0.38411
-0.32031
-0.22461
-0.13997
-0.09375
-0.054036
0.015625
0.098307
0.16667
0.22005
0.25977
0.27995
0.24609
0.21159
0.17708
0.16732
0.17773
0.19727
0.25846
0.33659
0.50911
0.68424
0.76628
0.75326
0.50716
0.21549
-0.022786
-0.15104
-0.18424
-0.1556
-0.093099
0.039714
0.13737
0.27865
0.34505
0.33659
0.32227
0.24544
0.11068
-0.041667
-0.1237
-0.13737
-0.067057
0.046875
0.1556
0.39128
0.42448
0.49544
0.32292
0.097005
-0.20182
-0.375
-0.38151
-0.4056
-0.40365
-0.40951
-0.22266
-0.095052
0.041016
0.082682
0.10221
0.064453
-0.097656
-0.25911
-0.34766
-0.30599
-0.17969
-0.027995
0.10612
0.19401
0.23633
0.2194
0.125
-0.039714
-0.19271
-0.28516
-0.26367
-0.13607
0.11719
0.39518
0.62109
0.74414
0.72917
0.58073
0.2487
-0.15495
-0.44922
-0.52344
-0.40885
-0.035156
0.28385
0.61784
0.80078
0.74544
0.63672
0.34115
-0.047526
-0.35156
-0.53776
-0.45443
-0.19336
0.066406
0.33203
0.37826
0.50977
0.39518
0.20768
-0.03776
-0.21745
-0.27799
-0.26563
-0.19466
-0.061198
0.087891
0.23372
0.35612
0.4362
0.49349
0.49154
0.48893
0.39583
0.23568
0.038411
-0.10286
-0.12109
-0.026693
0.14258
0.30143
0.35612
0.40169
0.45703
0.42643
0.35612
0.16992
-0.027995
-0.1543
-0.2513
-0.28776
-0.25781
-0.12695
0.073568
0.31576
0.4069
0.61589
0.60221
0.6276
0.48242
0.26497
0.0071615
-0.14063
-0.1224
0.011719
0.18359
0.36328
0.45508
0.61849
0.56445
0.3431
-0.22266
-0.71159
-0.96549
-0.78711
-0.29297
0.029948
0.38867
0.47526
0.35286
0.036458
-0.37174
-0.69596
-0.8151
-0.73828
-0.58398
-0.36979
-0.11914
0.089844
0.26042
0.375
0.35417
0.30664
0.19661
0.15039
0.16602
0.22917
0.30078
0.36719
0.41797
0.45508
0.4668
0.46159
0.46159
0.44922
0.42643
0.36589
0.26497
0.19531
0.19141
0.26758
0.37435
0.47005
0.52669
0.54362
0.5293
0.49674
0.51237
0.49089
0.47005
0.33789
0.14779
-0.027344
-0.13542
-0.12695
0.0039063
0.067057
0.18424
0.30794
0.42643
0.39453
0.18359
-0.072917
-0.39258
-0.56315
-0.58398
-0.39063
-0.13932
0.029297
0.080729
0.082682
0.058594
0.0013021
-0.11914
-0.21159
-0.26497
-0.23177
-0.10872
0.08138
0.31966
0.51172
0.64193
0.75
0.7526
0.64453
0.375
0.051432
-0.21289
-0.29948
-0.22656
-0.051432
0.21289
0.34505
0.49349
0.57617
0.53125
0.40299
0.21484
-0.10742
-0.39648
-0.66146
-0.70964
-0.65299
-0.39193
0.0084635
0.2806
0.41602
0.4401
0.31185
0.11068
-0.12956
-0.38867
-0.58073
-0.6901
-0.65365
-0.41992
0.031901
0.31315
0.5332
0.52995
0.39974
0.24284
0.066406
-0.11198
-0.24674
-0.29753
-0.22852
-0.074219
0.18099
0.44987
0.55729
0.67448
0.62305
0.56836
0.43229
0.23438
0.052083
-0.052083
-0.048828
0.039714
0.16211
0.29622
0.39779
0.47266
0.50846
0.56185
0.5957
0.53841
0.43555
0.22786
0.051432
-0.075521
-0.10547
-0.024089
0.11458
0.27474
0.43034
0.66732
0.7526
0.90495
0.88216
0.64518
0.22331
-0.29427
-0.77865
-0.97266
-0.88216
-0.53711
-0.029948
0.23893
0.2806
0.23503
-0.0013021
-0.27083
-0.55794
-0.66536
-0.58919
-0.4375
-0.20378
-0.0097656
0.15365
0.24674
0.26237
0.25586
0.21745
0.17383
0.10547
0.059245
0.054036
0.11654
0.23242
0.36003
0.44466
0.48438
0.48047
0.47461
0.42513
0.3763
0.27344
0.11328
-0.017578
-0.092448
-0.040365
0.088542
0.27669
0.4401
0.65495
0.72201
0.78711
0.74023
0.57227
0.26042
-0.06901
-0.32682
-0.40755
-0.30273
-0.11719
0.063151
0.26693
0.3737
0.32487
0.19336
-0.042318
-0.51367
-0.8418
-1
-0.80273
-0.48047
-0.24089
0.061198
0.1582
0.20768
0.11654
-0.026042
-0.083984
-0.11719
-0.11263
-0.13477
-0.085286
0.0097656
0.13411
0.26628
0.34896
0.4043
0.37305
0.36979
0.32031
0.26888
0.15885
-0.027344
-0.17318
-0.25521
-0.1888
-0.01237
0.2181
0.43359
0.60938
0.69661
0.73893
0.71549
0.58203
0.29883
0.018229
-0.19401
-0.26367
-0.1543
0.05013
0.16927
0.37695
0.44336
0.46745
0.33008
0.052734
-0.19401
-0.54818
-0.70573
-0.76888
-0.55273
-0.24284
-0.052083
0.27734
0.25586
0.29167
0.057292
-0.19271
-0.3724
-0.4349
-0.39714
-0.34375
-0.23763
-0.11914
0.052083
0.25586
0.49284
0.59766
0.66667
0.67448
0.5931
0.45638
0.22786
-0.075521
-0.26042
-0.28711
-0.12695
0.14323
0.42969
0.54297
0.64323
0.6276
0.55729
0.44922
0.26497
0.098307
-0.0039063
-0.014323
0.057292
0.1543
0.2526
0.33203
0.37695
0.39648
0.39518
0.40885
0.33398
0.40169
0.38672
0.54427
0.67708
0.83529
0.83984
0.69857
0.45964
0.1556
-0.17513
-0.49284
-0.61523
-0.48307
-0.044271
0.3418
0.58464
0.61784
0.44596
0.13021
-0.33138
-0.7793
-0.96354
-0.82357
-0.51888
-0.24219
0.090495
0.14583
0.16536
0.020833
-0.072266
-0.13216
-0.16992
-0.21354
-0.19206
-0.13997
-0.082682
-0.029948
0.013021
0.057943
0.11458
0.20638
0.33789
0.42839
0.47656
0.47396
0.4401
0.38672
0.27018
0.06901
-0.10156
-0.21224
-0.1569
0.04362
0.29557
0.43945
0.51042
0.50911
0.41602
0.31445
0.090495
-0.13672
-0.35482
-0.45833
-0.44401
-0.30664
-0.14128
0.010417
0.14583
0.20964
0.10612
-0.027995
-0.19271
-0.30729
-0.29362
-0.19336
-0.069661
0.042969
0.11263
0.14714
0.18685
0.22786
0.2793
0.31901
0.33984
0.35026
0.33333
0.27083
0.16146
0.044922
-0.029948
-0.013021
0.15234
0.35352
0.58398
0.65625
0.58464
0.39714
0.10352
-0.25456
-0.51042
-0.64258
-0.61198
-0.43424
-0.20313
0.12435
0.36198
0.47331
0.43099
0.30273
0.013021
-0.33529
-0.58919
-0.60872
-0.39844
-0.063802
0.080078
0.2793
0.39258
0.3151
0.13997
0.22331
