-0.07772
-0.098446
-0.093264
0.10363
0.23834
0.39896
0.43523
0.26425
0.082902
-0.072539
-0.041451
0.025907
0.072539
0.11399
0.18653
0.33161
0.43523
0.39896
0.17617
-0.11399
-0.22798
-0.18653
-0.020725
0.18135
0.18135
0.32642
0.40933
0.51813
0.59067
0.58549
0.40415
0.20207
0.088083
0.18135
0.34715
0.48705
0.43005
0.20207
0.041451
-0.11917
-0.10881
0.036269
0.15026
0.072539
-0.15026
-0.28497
-0.082902
0.25389
0.62176
0.80829
0.60622
0.29016
-0.020725
-0.24352
-0.35233
-0.32642
-0.15026
-0.015544
0.0051813
-0.0051813
-0.056995
-0.020725
0.015544
0.13472
0.20725
0.39896
0.60104
0.62176
0.57513
0.36269
0.26425
0.18653
0.11917
-0.015544
-0.15026
-0.25907
-0.22798
-0.13472
-0.11917
-0.15026
-0.11399
-0.07772
0.036269
0.18135
0.33161
0.37824
0.38342
0.37306
0.41969
0.46114
0.44041
0.36788
0.15544
0
-0.098446
-0.046632
0.088083
0.20725
0.21244
0.12435
0.17617
0.30052
0.45078
0.46632
0.43005
0.41969
0.51295
0.53886
0.70466
0.78238
0.79275
0.75648
0.54922
0.26943
0.051813
-0.11917
-0.19171
-0.26943
-0.2487
-0.2228
-0.18135
-0.088083
0.015544
0
-0.093264
-0.2228
-0.35751
-0.29016
-0.17098
-0.020725
0.15026
0.20725
0.27461
0.33679
0.29016
0.23834
0.15544
-0.0051813
-0.07772
-0.15026
-0.041451
0.041451
0.072539
0.12953
0.062176
0.036269
0.025907
-0.0051813
-0.11917
-0.082902
0.0051813
0.13472
0.31606
0.51813
0.67358
0.68394
0.54404
0.2487
0.056995
-0.072539
-0.051813
-0.072539
-0.12435
-0.067358
-0.046632
0.010363
0.010363
-0.031088
-0.088083
-0.088083
-0.036269
0.041451
0.0051813
-0.031088
0.051813
0.20207
0.40933
0.59585
0.65803
0.56477
0.36269
0.20725
0.093264
0.031088
0.010363
-0.015544
-0.10363
-0.12435
-0.10363
-0.082902
-0.046632
-0.07772
-0.10881
-0.072539
-0.031088
0.067358
0.036269
0.015544
0.031088
0.088083
0.07772
0.056995
0.093264
0.10881
0.21244
0.26425
0.35751
0.37306
0.21244
0.056995
-0.025907
0.11917
0.36788
0.46114
0.34715
0.29016
0.27461
0.29016
0.2487
0.17617
0.062176
-0.07772
-0.18135
-0.2487
-0.28497
-0.40415
-0.46632
-0.4456
-0.30052
-0.12953
-0.082902
-0.098446
-0.082902
0.056995
0.2228
0.26943
0.33161
0.36269
0.36788
0.3886
0.46114
0.39378
0.33679
0.22798
0.088083
-0.051813
-0.20207
-0.21762
-0.17617
-0.036269
0.062176
0.1399
0.19689
0.24352
0.26943
0.27461
0.25389
0.2228
0.15026
0.082902
-0.041451
-0.051813
-0.067358
0.015544
0.12435
0.18653
0.082902
-0.088083
-0.15544
-0.093264
0.020725
0.020725
0.12435
0.15026
0.26943
0.34197
0.30052
0.19171
0.10881
0.036269
0.082902
0.18135
0.23834
0.2228
0.20207
0.25907
0.34197
0.33679
0.34715
0.27461
0.23316
0.13472
0.10881
0.072539
0.010363
-0.12953
-0.37824
-0.65803
-0.68912
-0.53886
-0.28497
-0.15026
-0.036269
0.062176
0.15026
0.26425
0.35233
0.29534
0.14508
0.015544
-0.062176
-0.072539
-0.031088
-0.010363
-0.10363
-0.11917
-0.17098
-0.18135
-0.25907
-0.32124
-0.19171
-0.015544
0.18653
0.30052
0.28497
0.1399
0.0051813
-0.088083
-0.15026
-0.093264
-0.031088
0.082902
0.14508
0.12953
0.046632
-0.098446
-0.17617
-0.18653
-0.11399
0.036269
0.18653
0.33161
0.31088
0.29016
0.21244
0.19689
0.22798
0.37306
0.53368
0.66321
0.53368
0.37824
0.10363
-0.13472
-0.12953
-0.020725
0.036269
0.067358
-0.025907
-0.19171
-0.40415
-0.43005
-0.37306
-0.14508
0.056995
0.18135
0.24352
0.19171
0.12953
0.10363
0.051813
0.082902
0.025907
0.11399
0.30052
0.46114
0.43005
0.2487
0.072539
0.082902
0.24352
0.39896
0.48705
0.39378
0.19689
0.041451
0
-0.062176
-0.088083
-0.062176
0.098446
0.34197
0.59067
0.69948
0.55959
0.35233
0.11917
0.062176
0.07772
0.15026
0.18653
0.10881
0.056995
0.16062
0.2487
0.2228
0.1658
0.12435
0.12953
0.19689
0.21244
0.093264
0.051813
0.07772
0.38342
0.64249
0.82902
0.68912
0.43005
0.24352
0.31088
0.48705
0.66839
0.60622
0.48187
0.28497
0.11399
0.14508
0.14508
0.07772
-0.07772
-0.22798
-0.23316
-0.1658
0.067358
0.29534
0.46632
0.58549
0.62694
0.61658
0.59585
0.60622
0.57513
0.58549
0.47668
0.4715
0.39896
0.38342
0.33161
0.36269
0.34715
0.35233
0.31606
0.27461
0.22798
0.17617
0.10363
0.010363
-0.0051813
0.036269
-0.010363
0.020725
0.10881
0.15026
0.17617
0.18653
0.12953
0.14508
0.056995
0.088083
0.056995
0.046632
-0.041451
-0.07772
-0.10881
-0.11917
-0.12435
-0.041451
0.072539
0.27461
0.34715
0.26425
0.10881
-0.082902
-0.19171
-0.18135
-0.036269
-0.020725
-0.2487
-0.45596
-0.49223
-0.29534
-0.10363
0.067358
0.010363
-0.062176
-0.067358
0.036269
0.17098
0.21762
0.17617
0.1399
0.031088
0.062176
0.20725
0.31606
0.44041
0.3057
0.17098
0.020725
0.020725
0.15026
0.25907
0.35233
0.37306
0.28497
0.10881
-0.036269
-0.031088
0.020725
0.1658
0.15544
0.082902
-0.067358
-0.16062
-0.07772
0.020725
0.15026
0.17098
0.010363
-0.25389
-0.35233
-0.16062
0.12953
0.28497
0.25907
0.14508
0.088083
0.18653
0.27979
0.28497
0.2487
0.1399
0.088083
0.056995
0.051813
0.14508
0.10363
0.16062
0.1658
0.16062
0.13472
0.2228
0.18653
0.10881
-0.010363
-0.098446
-0.11399
-0.10363
-0.07772
-0.062176
-0.082902
-0.10881
-0.15026
-0.20207
-0.23834
-0.16062
-0.031088
0.056995
0.12953
0.18135
0.12435
0.11917
0.015544
-0.025907
-0.088083
-0.1399
-0.15026
-0.27979
-0.27461
-0.29534
-0.15544
-0.12953
-0.098446
-0.010363
0.025907
0.11399
0.10363
0.031088
-0.041451
-0.088083
-0.21244
-0.31088
-0.35751
-0.23316
-0.093264
0.025907
0.056995
0.015544
-0.15544
-0.29016
-0.23316
-0.056995
0.062176
0.12435
0.098446
0.041451
0.067358
0.17617
0.34197
0.43005
0.43523
0.2487
0
-0.12953
-0.15544
-0.18653
-0.27461
-0.36269
-0.22798
-0.015544
0.031088
-0.010363
-0.19171
-0.27461
-0.13472
-0.082902
-0.093264
-0.15026
-0.1399
0.020725
0.15026
0.21244
0.041451
-0.17617
-0.35233
-0.29534
-0.20725
-0.062176
-0.082902
-0.062176
-0.041451
0.11399
0.3057
0.27461
0.27979
0.24352
0.16062
0.10881
0
0.0051813
-0.07772
-0.093264
-0.23316
-0.34715
-0.4456
-0.4715
-0.36788
-0.2487
-0.098446
0.020725
0.020725
-0.015544
-0.036269
-0.015544
0.031088
0.093264
0.098446
0.07772
-0.088083
-0.14508
-0.11917
-0.07772
-0.046632
0.0051813
0.031088
0.12953
0.25907
0.19689
0.072539
-0.082902
-0.15544
-0.12435
0.0051813
0.17617
0.29016
0.25389
0.16062
0.1658
0.18653
0.20207
0.15544
0.16062
0.29016
0.33161
0.43005
0.3057
0.24352
0.12435
0.088083
0.10881
0.16062
0.15544
0.10363
0.051813
0.19689
0.33679
0.36788
0.3057
0.18135
0.072539
0.046632
0.17098
0.26425
0.33679
0.28497
0.1658
0.093264
0.093264
0.20725
0.22798
0.072539
0.010363
-0.0051813
0.020725
0.056995
0.0051813
-0.0051813
0.015544
0.23316
0.49741
0.6114
0.54922
0.47668
0.45078
0.45596
0.50777
0.54404
0.38342
0.24352
0.082902
0.046632
0.11399
0.12435
0.020725
-0.093264
-0.11399
-0.020725
0.15026
0.16062
0.20207
0.19171
0.25389
0.40415
0.48705
0.50777
0.3886
0.27461
0.17617
0.17617
0.30052
0.40933
0.27979
0.18135
0.11399
0.21244
0.31088
0.30052
0.32124
0.23316
0.11399
0.098446
0.14508
0.2487
0.40415
0.49223
0.54922
0.52332
0.35233
0.11399
-0.14508
-0.21244
-0.12953
-0.098446
-0.031088
-0.020725
0.072539
0.07772
0.10881
0.13472
0.14508
0.1399
0.031088
-0.056995
-0.067358
0.10881
0.39378
0.49223
0.51295
0.4456
0.39896
0.32642
0.3886
0.36788
0.43005
0.43005
0.4456
0.40415
0.29016
0.2487
0.26425
0.37824
0.37824
0.32642
0.051813
-0.20207
-0.30052
-0.25907
-0.082902
0.15026
0.27461
0.3886
0.28497
0.12953
-0.10881
-0.25389
-0.26425
-0.12435
-0.1658
-0.25907
-0.32642
-0.23316
-0.025907
0.1658
0.38342
0.35233
0.35233
0.35751
0.47668
0.57513
0.60104
0.58031
0.53886
0.52332
0.55959
0.49741
0.40415
0.37306
0.37824
0.37824
0.34715
0.26425
0.31088
0.33679
0.4456
0.49741
0.41969
0.36269
0.32124
0.31088
0.20207
0.1658
0.12435
0.19171
0.2487
0.24352
0.24352
0.22798
0.35233
0.35751
0.4456
0.47668
0.4456
0.40933
0.35751
0.36788
0.42487
0.39378
0.29016
0.19689
0.19689
0.31088
0.49741
0.5544
0.43523
0.16062
0
-0.041451
0.20725
0.40415
0.50259
0.35233
0.062176
-0.10881
-0.2487
-0.3057
-0.22798
-0.21762
-0.26943
-0.25389
-0.16062
-0.020725
0.21244
0.26943
0.21762
0.010363
-0.088083
-0.067358
0.13472
0.33679
0.56995
0.56477
0.43523
0.19689
0.020725
-0.11917
-0.11917
-0.025907
0.12953
0.20725
0.24352
0.23834
0.2228
0.19689
0.19689
0.22798
0.15544
0.1658
0.07772
-0.12953
-0.32642
-0.40933
-0.2487
0.031088
0.3057
0.25389
0.088083
-0.031088
0.046632
0.23834
0.26943
0.26943
0.14508
-0.015544
-0.11399
-0.12953
-0.12435
-0.046632
0.025907
0.062176
0.1658
0.1399
0.11399
0.015544
-0.010363
0.072539
0.051813
-0.041451
-0.072539
0.020725
0.29016
0.53886
0.66321
0.54922
0.29016
0.025907
-0.062176
-0.12435
-0.062176
0.041451
0.20207
0.2487
0.43523
0.50777
0.53368
0.48705
0.43005
0.39378
0.29534
0.26943
0.21244
0.1658
0.12435
0.062176
-0.031088
-0.015544
0.031088
-0.020725
-0.041451
-0.19171
-0.26425
-0.33679
-0.34715
-0.23316
-0.07772
0.041451
0.14508
0.051813
-0.10881
-0.3057
-0.31606
-0.18135
-0.07772
-0.14508
-0.24352
-0.2487
-0.07772
0.2228
0.38342
0.21762
-0.082902
-0.20725
-0.12435
0.15544
0.31606
0.29016
0.24352
0.10881
0.036269
-0.07772
-0.07772
-0.056995
-0.07772
-0.15026
-0.16062
-0.072539
0.062176
0.18135
0.20725
0.12953
0.0051813
-0.0051813
0.15026
0.32642
0.51295
0.58031
0.57513
0.26425
-0.07772
-0.39378
-0.35233
-0.13472
0.24352
0.40933
0.32642
0.21244
0.072539
0.036269
0.0051813
0.015544
-0.10881
-0.14508
-0.19689
-0.072539
0.17098
0.36269
0.39896
0.26425
0.11917
0.1658
0.33161
0.43523
0.40415
0.28497
0.11917
0.025907
0.11399
0.1658
0.14508
0.088083
0.0051813
-0.11917
-0.082902
0.067358
0.32642
0.52332
0.61658
0.55959
0.43523
0.36788
0.33679
0.29016
0.19689
0.072539
0.088083
0.015544
-0.041451
-0.025907
-0.031088
-0.025907
0.062176
0.18135
0.31606
0.31088
0.23316
0.12953
0.025907
0.031088
0.041451
-0.062176
-0.16062
-0.20207
-0.15544
0.025907
0.24352
0.35233
0.39896
0.39896
0.46114
0.40933
0.33161
0.32642
0.39378
0.31088
0.20725
-0.015544
-0.15544
-0.31606
-0.23316
-0.093264
0.17617
0.32124
0.33161
0.32124
0.27461
0.28497
0.27461
0.10363
-0.14508
-0.32642
-0.39896
-0.40933
-0.32642
-0.27461
-0.16062
0.041451
0.18653
0.33679
0.47668
0.51295
0.37824
0.041451
-0.13472
-0.15026
-0.051813
-0.025907
-0.025907
-0.098446
-0.020725
0.046632
0.25907
0.32642
0.3886
0.4715
0.51295
0.49741
0.51295
0.48187
0.35233
0.21244
0
-0.15544
-0.18135
-0.10881
0.10881
0.26943
0.39378
0.40933
0.29016
0.072539
-0.020725
0.07772
0.19171
0.22798
0.14508
0.072539
0.1658
0.50777
0.87047
1
0.7772
0.46632
0.12953
0.025907
0.072539
0.12435
0.13472
0.036269
-0.12435
-0.18653
-0.23834
-0.14508
-0.082902
-0.067358
0.088083
0.14508
0.1658
0.25907
0.35751
0.49741
0.40933
0.20725
0.031088
-0.10881
-0.17098
-0.1658
-0.10363
-0.020725
0.020725
0.072539
0.051813
0.072539
-0.025907
-0.067358
-0.056995
0.031088
0.15544
0.13472
0.07772
0.07772
0.041451
0.010363
0.020725
0.13472
0.19171
0.16062
0.0051813
-0.07772
-0.17098
-0.062176
0.051813
0.015544
-0.051813
-0.26943
-0.39896
-0.40415
-0.29534
-0.14508
-0.13472
-0.14508
-0.2487
-0.27979
-0.27979
-0.10881
0.046632
0.17617
0.22798
0.2228
0.093264
-0.07772
-0.17098
-0.28497
-0.31088
-0.39896
-0.41451
-0.3886
-0.2487
-0.098446
0.031088
0.10363
0.15544
0.23834
0.29534
0.27979
0.33679
0.25907
0.21762
0.18653
0.2228
0.19171
0.16062
0.10881
0.093264
0.062176
0.062176
0.072539
0.15544
0.23834
0.39378
0.45596
0.43005
0.3057
0.29534
0.31606
0.34715
0.33161
0.20207
0.010363
-0.031088
-0.0051813
0.15026
0.27461
0.32642
0.37306
0.32642
0.26425
0.25907
0.19171
0.20207
0.30052
0.4715
0.54922
0.56477
0.44041
0.33161
0.32124
0.36788
0.34197
0.20725
0.020725
-0.07772
-0.07772
0.031088
0.17617
0.22798
0.14508
0.1399
0.23316
0.40415
0.48187
0.33161
-0.07772
-0.40933
-0.43005
-0.15544
0.14508
0.27979
0.2228
0.062176
-0.062176
-0.051813
0.041451
0.1399
0.13472
0.020725
-0.18653
-0.29534
-0.31088
-0.23316
-0.1658
-0.098446
-0.031088
-0.046632
0
0.082902
0.072539
-0.0051813
-0.11399
-0.093264
-0.12953
-0.12953
-0.062176
-0.051813
0
0.062176
0.14508
0.20207
0.17098
0.12953
0.17617
0.19689
0.24352
0.25389
0.24352
0.23834
0.17098
0.1658
0.18135
0.22798
0.11917
0.015544
-0.12435
-0.12435
-0.1658
-0.31606
-0.3057
-0.20725
-0.072539
0.036269
0.093264
0.17098
0.25389
0.34197
0.3886
0.41969
0.45596
0.51813
0.43523
0.3886
0.37306
0.34197
0.34197
0.34197
0.36269
0.35233
0.21762
0.072539
0.020725
0.072539
0.18653
0.27979
0.3057
0.2487
0.26425
0.2228
0.18135
0.16062
0.1399
0.1658
0.24352
0.29534
0.38342
0.37824
0.43523
0.51295
0.5285
0.52332
0.49741
0.41451
0.22798
-0.015544
-0.14508
-0.19689
-0.0051813
0.25907
0.34197
0.27979
-0.025907
-0.15026
-0.18653
-0.025907
0.13472
0.13472
0.051813
0.067358
0.11399
0.20725
0.27461
0.20207
0.14508
0.067358
0.036269
0.1399
0.072539
0.082902
0.1658
0.23316
0.33161
0.3886
0.40415
0.38342
0.32124
0.23316
0.1658
0.056995
0
-0.010363
0.036269
0.11399
0.062176
-0.051813
-0.12435
-0.17098
-0.15544
-0.15544
-0.10363
-0.041451
-0.082902
-0.15026
-0.26425
-0.26425
-0.31088
-0.11399
0.067358
0.13472
0.062176
-0.051813
-0.082902
-0.020725
0.10363
0.21762
0.2228
0.18135
0.036269
-0.025907
-0.046632
0.051813
0.093264
0.051813
-0.062176
-0.082902
0.0051813
0.093264
0.1399
0.15544
0.18653
0.29534
0.40933
0.46632
0.40415
0.36788
0.26943
0.10363
-0.0051813
-0.041451
-0.015544
-0.010363
-0.010363
-0.13472
-0.1399
-0.088083
0.020725
0.056995
-0.025907
-0.051813
-0.041451
-0.015544
-0.031088
-0.088083
-0.19171
-0.18653
-0.093264
0.12953
0.31088
0.43005
0.45078
0.26943
0.10881
0.015544
-0.010363
0.010363
-0.082902
-0.1658
-0.20725
-0.2487
-0.25389
-0.16062
-0.046632
0.21762
0.4456
0.46114
0.34197
0.24352
0.19171
0.26943
0.31088
0.38342
0.3057
0.22798
0.14508
0.088083
0.036269
0.031088
0.020725
-0.088083
-0.18653
-0.20725
-0.12953
-0.036269
0.031088
-0.010363
-0.072539
-0.12953
-0.067358
0.046632
0.067358
0.072539
-0.0051813
0
0.0051813
0.15026
0.19171
0.17098
0.14508
0.15026
0.26425
0.26425
0.25907
0.26943
0.31088
0.48705
0.39896
0.27979
0.11917
0.10881
0.18135
0.18653
0.14508
0.088083
0.056995
0.067358
0.18135
0.20207
0.23316
0.24352
0.22798
0.17617
0.093264
0.056995
0.046632
0.098446
0.17617
0.19171
0.082902
0.015544
-0.051813
-0.046632
0.025907
0.07772
0.23834
0.29534
0.4456
0.40933
0.39896
0.41969
0.4715
0.49741
0.32642
0.19171
0.07772
0.14508
0.31606
0.49741
0.47668
0.3886
0.26943
0.13472
0.10363
0.082902
0.19171
0.35233
0.27461
0.24352
0.098446
0.0051813
0.056995
0.23316
0.44041
0.49223
0.40415
0.29534
0.2228
0.18135
0.28497
0.22798
0.29534
0.25389
0.32642
0.31606
0.31606
0.29016
0.21762
0.32642
0.46114
0.45596
0.36269
0.26943
0.23834
0.12953
-0.046632
-0.14508
-0.10363
-0.046632
0.0051813
0.041451
0.11399
0.3057
0.41451
0.39896
0.34715
0.38342
0.4456
0.40415
0.29534
0.067358
-0.14508
-0.3057
-0.19689
0.067358
0.20725
0.23834
0.12435
0.13472
0.098446
0.1399
0.17617
0.22798
0.21762
0.21244
0.12953
0.072539
0.12435
0.07772
0.12435
0.20207
0.33679
0.44041
0.44041
0.32124
0.22798
0.15026
0.093264
0.12435
0.15026
0.21244
0.22798
0.25389
0.2487
0.3057
0.50259
0.59067
0.4456
0.2228
0.0051813
-0.056995
0.056995
0.19689
0.18135
0.082902
0.025907
-0.0051813
0.093264
0.10363
0.056995
-0.17098
-0.27461
-0.23316
0.0051813
0.26425
0.39378
0.4715
0.39378
0.34715
0.33679
0.29534
0.28497
0.28497
0.23316
0.07772
-0.12435
-0.25389
-0.29534
-0.20725
0.036269
0.36788
0.59067
0.56995
0.34715
0.18653
0.12435
0.19171
0.19171
0.13472
0.020725
-0.10363
-0.30052
-0.43523
-0.54922
-0.49223
-0.31088
0.036269
0.31088
0.38342
0.31606
0.21244
0.25389
0.26943
0.31088
0.25907
0.093264
-0.082902
-0.23834
-0.37306
-0.33161
-0.3057
-0.16062
-0.07772
0.07772
0.20725
0.31606
0.35751
0.33679
0.24352
0.12435
0.062176
0.041451
0
-0.041451
-0.11917
-0.07772
-0.010363
0.072539
0.21762
0.3057
0.31088
0.25907
0.17617
0.072539
0.088083
0.12435
0.10881
-0.093264
-0.30052
-0.38342
-0.25389
0.07772
0.36269
0.60104
0.63731
0.5544
0.40933
0.17098
-0.010363
-0.17098
-0.32642
-0.41451
-0.34197
-0.34197
-0.43523
-0.46114
-0.34197
-0.036269
0.26425
0.52332
0.66321
0.6943
0.64249
0.65803
0.56995
0.34715
-0.0051813
-0.37824
-0.55959
-0.55959
-0.42487
-0.2487
-0.036269
0.16062
0.32124
0.4456
0.50259
0.45078
0.31088
0.20725
0.25389
0.2487
0.14508
0.031088
-0.0051813
0.015544
-0.041451
-0.041451
0.015544
0.17098
0.36788
0.54922
0.48705
0.43005
0.32642
0.2487
0.10881
0.046632
0.0051813
-0.041451
-0.082902
-0.036269
0.15026
0.34715
0.4456
0.4456
0.33679
0.25907
0.24352
0.20725
0.2228
0.31606
0.25389
-0.0051813
-0.21762
-0.23834
-0.12953
0.0051813
0.051813
0.031088
-0.1399
-0.11917
0.025907
0.28497
0.47668
0.41969
0.27979
0.098446
0.036269
-0.025907
-0.15026
-0.21244
-0.1658
-0.031088
0.14508
0.25907
0.29016
0.12435
-0.025907
-0.12953
-0.17098
-0.19689
-0.17098
-0.062176
0.036269
0.036269
-0.062176
-0.17098
-0.16062
-0.010363
0.23834
0.37824
0.42487
0.19689
0.072539
-0.015544
0.051813
0.19171
0.1658
0.072539
-0.07772
-0.20207
-0.20207
-0.15026
-0.036269
-0.015544
0.025907
0.025907
0.051813
0.020725
-0.015544
-0.041451
-0.10881
-0.067358
0.0051813
0
0.041451
0.12435
0.22798
0.25907
0.20725
0.18135
0.21762
0.3057
0.45596
0.52332
0.50259
0.31606
0.041451
-0.093264
-0.062176
0.088083
0.20725
0.22798
0.1658
0.20207
0.25907
0.39896
0.52332
0.66321
0.73575
0.72539
0.58549
0.39896
0.1658
0.11917
0.062176
0.051813
0.031088
0.072539
0.11399
0.29016
0.42487
0.53368
0.59067
0.60104
0.62694
0.51295
0.44041
0.30052
0.16062
0.046632
0.041451
0.056995
0.046632
-0.041451
-0.0051813
0.15026
0.26943
0.33161
0.43005
0.36269
0.35751
0.23316
0.056995
-0.046632
-0.093264
-0.10881
-0.14508
-0.093264
-0.088083
0.0051813
-0.020725
0.088083
0.24352
0.40415
0.46114
0.43005
0.31606
0.18653
0.21762
0.21762
0.20725
0.098446
-0.031088
-0.056995
-0.098446
-0.056995
-0.041451
-0.031088
0.072539
0.32124
0.46114
0.64249
0.68394
0.58031
0.3886
0.22798
0.15026
0.067358
-0.020725
-0.1399
-0.2487
-0.39378
-0.4715
-0.40415
-0.17617
0.093264
0.18135
0.27461
0.26943
0.3886
0.45596
0.35751
0.18135
0.046632
0.015544
0.031088
0.13472
0.15544
0.07772
-0.0051813
-0.062176
-0.14508
-0.21762
-0.22798
-0.20207
-0.07772
0.062176
0.18653
0.26943
0.26425
0.32642
0.34197
0.32642
0.15026
-0.036269
-0.2228
-0.23834
-0.088083
0.031088
0.020725
-0.17617
-0.28497
-0.33679
-0.19689
0.015544
0.2487
0.33161
0.098446
-0.11399
-0.33679
-0.35751
-0.20207
-0.10363
-0.0051813
0.031088
0.11399
0.11917
0.051813
-0.10881
-0.18653
-0.26943
-0.33679
-0.31088
-0.22798
-0.098446
0.072539
0.11917
0.046632
-0.07772
-0.20207
-0.31088
-0.1399
0.015544
0.1399
0.13472
0.12435
0.1399
0.19171
0.20725
0.27461
0.30052
0.28497
0.31606
0.33679
0.39378
0.41451
0.36788
0.27461
0.10881
-0.020725
-0.14508
-0.15544
-0.12953
0.010363
0.11917
0.10363
0.051813
0.025907
-0.082902
-0.025907
0
0.031088
-0.0051813
-0.020725
-0.067358
0.088083
0.2487
0.50259
0.56477
0.47668
0.23834
0.062176
-0.15026
-0.19171
-0.082902
0.041451
0.15544
0.19171
0.22798
0.18653
0.18135
0.22798
0.1658
0.062176
-0.051813
-0.18653
-0.17098
-0.11399
-0.025907
-0.19171
-0.24352
-0.41451
-0.36788
-0.34715
-0.21762
-0.010363
0.07772
-0.046632
-0.23316
-0.36269
-0.40933
-0.2487
-0.15026
-0.056995
-0.14508
-0.23316
-0.32124
-0.26943
-0.051813
0.15544
0.29016
0.25389
0.18653
0.10363
0.031088
0.020725
-0.010363
-0.015544
0.041451
0.13472
0.22798
0.30052
0.43523
0.54922
0.60622
0.53886
0.43523
0.31088
0.26943
0.34715
0.35233
0.31606
0.10881
0.072539
0.10881
0.33161
0.5285
0.60104
0.48187
0.26943
0.098446
0.051813
0.13472
0.3057
0.28497
0.17617
0.051813
0.0051813
-0.072539
0.010363
0.056995
0.21762
0.31088
0.37306
0.46114
0.43523
0.32124
0.16062
0.031088
0.036269
0.072539
0.17098
0.19171
0.23316
0.34197
0.43005
0.40415
0.37306
0.37306
0.28497
0.27461
0.25389
0.26425
0.21244
0.07772
-0.051813
-0.0051813
0.17098
0.3886
0.48705
0.40933
0.39378
0.26943
0.22798
0.20207
0.23834
0.21244
0.17617
0.23834
0.32642
0.43005
0.42487
0.45078
0.36788
0.21244
0.051813
-0.015544
0
0.056995
0.031088
-0.15026
-0.26425
-0.20725
0
0.15544
0.25907
0.25389
0.22798
0.35751
0.44041
0.46632
0.33161
0.15544
0.14508
0.10881
0.20725
0.26425
0.33161
0.31088
0.34197
0.3886
0.31088
0.25389
0.26425
0.32642
0.43523
0.42487
0.27461
-0.010363
-0.24352
-0.37824
-0.26943
-0.015544
0.31088
0.53368
0.51295
0.41451
0.39896
0.39896
0.40933
0.41451
0.40933
0.40933
0.39378
0.47668
0.49741
0.45596
0.51813
0.5285
0.48705
0.37824
0.34715
0.36269
0.36788
0.34197
0.23834
0.11917
0.067358
0.11917
0.21244
0.32642
0.34197
0.30052
0.31088
0.29534
0.34715
0.3057
0.34197
0.44041
0.54404
0.4715
0.35751
0.2228
0.056995
0.088083
0.098446
0.10881
0.1399
0.20725
0.35233
0.43005
0.3886
0.25389
0.23316
0.1399
0.21244
0.25907
0.17617
0.093264
0.031088
0
-0.088083
-0.067358
0.025907
0.17098
0.30052
0.31088
0.25907
0.21762
0.22798
0.37824
0.47668
0.51813
0.3886
0.24352
0.093264
0.1399
0.21244
0.19689
0.1658
0.20207
0.33161
0.43523
0.58031
0.53368
0.50777
0.40933
0.27461
0.22798
0.13472
0.14508
0.088083
0.015544
-0.062176
0.072539
0.2487
0.47668
0.53886
0.40415
0.10881
-0.046632
-0.062176
-0.015544
0.1658
0.26425
0.27979
0.20207
0.031088
-0.062176
-0.098446
0.020725
0.10881
0.15026
0.020725
-0.12435
-0.16062
-0.11917
-0.025907
0.10881
0.19171
0.2487
0.31606
0.32642
0.33679
0.41969
0.43005
0.51813
0.49741
0.40933
0.23834
0.098446
0
0.015544
0.031088
-0.046632
-0.051813
-0.062176
-0.046632
-0.056995
-0.062176
-0.10881
-0.18135
-0.15544
-0.11399
-0.11399
-0.11399
-0.1658
-0.2487
-0.31088
-0.32642
-0.30052
-0.23316
-0.12435
-0.10363
-0.13472
-0.14508
-0.020725
0.07772
0.088083
-0.051813
-0.17098
-0.29534
-0.17098
0.041451
0.32642
0.4715
0.4715
0.3886
0.15544
-0.036269
-0.16062
-0.1658
-0.20725
-0.19171
-0.16062
-0.20207
-0.16062
-0.093264
0.056995
0.17098
0.21762
0.15026
0.036269
-0.031088
-0.10363
-0.041451
0.0051813
0.07772
0.07772
-0.067358
-0.1399
-0.20725
-0.26425
-0.3057
-0.15544
0.025907
0.10363
-0.082902
-0.29016
-0.30052
-0.056995
0.21762
0.27461
0.12435
-0.072539
-0.056995
0.041451
0.12435
0.18135
0.082902
0.0051813
0.020725
0.062176
0.031088
-0.072539
-0.20207
-0.21762
-0.17617
-0.062176
0.13472
0.27461
0.3057
0.33679
0.37824
0.42487
0.45596
0.51295
0.41969
0.33161
0.17098
0
-0.020725
0.015544
0.27979
0.37824
0.39896
0.34715
0.21762
0.031088
-0.15026
-0.25389
-0.25907
-0.20725
-0.12435
-0.17617
-0.36788
-0.48187
-0.27979
-0.051813
0.20207
0.19171
0.072539
-0.088083
-0.17098
-0.1658
-0.041451
0.12435
0.32642
0.48187
0.48187
0.53368
0.39378
0.27461
0.11917
0.093264
0.14508
0.1658
0.11917
-0.0051813
-0.036269
0.098446
0.22798
0.29534
0.24352
0.20725
0.18135
0.17098
0.17617
0.26425
0.31606
0.23834
0.13472
0.072539
0.11917
0.37306
0.6943
0.85492
0.78238
0.58549
0.39378
0.28497
0.2228
0.10363
-0.07772
-0.1399
-0.082902
-0.062176
-0.15026
-0.28497
-0.29016
-0.21244
-0.025907
0.2228
0.43005
0.54404
0.46114
0.40933
0.29016
0.20725
0.046632
-0.17098
-0.2487
-0.19689
-0.056995
0.07772
0.23316
0.33161
0.37824
0.2487
0.16062
0.1399
0.16062
0.18135
0.19689
0.23316
0.23316
0.23834
0.17098
0.19171
0.26943
0.36269
0.31606
0.27461
0.21762
0.31606
0.35233
0.31606
0.21762
0.098446
-0.062176
-0.056995
-0.12953
-0.015544
0.025907
0.025907
0.0051813
-0.10363
-0.10363
-0.10363
-0.12435
-0.046632
0.031088
0.17098
0.23316
0.25389
0.18135
0.041451
0.031088
0.031088
0.046632
0.11917
0.1658
-0.041451
-0.082902
-0.12435
-0.098446
0.020725
0.1658
0.2487
0.07772
-0.12435
-0.2487
-0.23834
-0.21244
-0.2228
-0.29016
-0.3886
-0.40933
-0.35233
-0.25389
-0.2487
-0.21762
-0.32124
-0.34715
-0.36269
-0.36788
-0.28497
-0.10881
0.15026
0.33161
0.23316
0.015544
-0.18653
-0.2487
-0.17098
0.031088
0.10363
0.15544
0.1399
0.15544
0.18653
0.19171
0.3057
0.38342
0.4456
0.39378
0.36788
0.29534
0.17617
0.067358
-0.062176
-0.19171
-0.22798
-0.17617
-0.11399
0
0.072539
0.15026
0.25389
0.30052
0.34715
0.20725
0.072539
-0.020725
-0.1658
-0.33161
-0.63212
-0.88601
-1
-0.85492
-0.53368
-0.29534
-0.2228
-0.26425
-0.34715
-0.38342
-0.29534
-0.17098
-0.062176
-0.12953
-0.20207
-0.25907
-0.14508
0.041451
0.2487
0.18135
0.067358
0.031088
0.18135
0.19689
0.3057
0.35233
0.4715
0.58031
0.60622
0.64767
0.65285
0.68912
0.70984
0.70466
0.70466
0.62694
0.45596
0.26943
0.15026
0.26943
0.49223
0.68912
0.71503
0.64767
0.62176
0.66839
0.79793
0.79275
0.72539
0.65285
0.63731
0.64249
0.56995
0.32642
0.051813
-0.093264
0.10363
0.43005
0.65803
0.67876
0.63212
0.39378
0.29016
0.18653
0.2487
0.34715
0.41451
0.37306
0.17098
0.0051813
-0.088083
-0.0051813
0.093264
0.25907
0.45078
0.64767
0.6943
0.58549
0.21762
-0.098446
-0.38342
-0.5544
-0.62176
-0.60104
-0.41969
-0.062176
0.1658
0.21762
0.062176
-0.15026
-0.15544
-0.0051813
0.22798
0.34715
0.41969
0.40933
0.42487
0.4715
0.50777
0.48705
0.49741
0.46632
0.38342
0.19171
0.072539
-0.010363
-0.082902
-0.19171
-0.28497
-0.26943
-0.10363
0.11399
0.30052
0.3057
0.32124
0.37306
0.38342
0.24352
0.14508
0.072539
0.10881
0.1658
0.10363
0
-0.23834
-0.33161
-0.25389
-0.015544
0.13472
0.27979
0.34715
0.39378
0.45078
0.3886
0.31088
0.16062
0.10363
0.082902
0.11917
0.17617
0.15026
0.07772
0.12953
0.2228
0.39896
0.41451
0.32642
0.21762
0.14508
0.18653
0.20725
0.24352
0.2228
0.24352
0.27979
0.23316
0.20725
0.22798
0.30052
0.37824
0.46632
0.27979
0
-0.21762
-0.14508
0.088083
0.29534
0.63212
0.83938
0.9171
0.76684
0.54922
0.36269
0.32642
0.31606
0.28497
0.2487
0.1658
0.11399
0.031088
0.020725
0.18653
0.34197
0.41451
0.3886
0.39378
0.38342
0.37306
0.32642
0.26425
0.15026
0.13472
0
-0.26425
-0.46114
-0.4456
-0.25389
0.025907
0.15026
0.23316
0.33161
0.4715
0.57513
0.64249
0.53886
0.44041
0.24352
0.067358
-0.051813
-0.14508
-0.088083
-0.041451
0.031088
0.010363
-0.067358
-0.23316
-0.34715
-0.50777
-0.53368
-0.43523
-0.37306
-0.29016
-0.36788
-0.34715
-0.32124
-0.19171
0.056995
0.2487
0.25389
0.26943
0.19171
0.14508
0.10363
-0.015544
-0.046632
-0.07772
-0.11399
-0.015544
0.072539
0.17617
0.33161
0.35233
0.32124
0.24352
0.26943
0.12953
-0.025907
-0.088083
-0.046632
0.088083
0.20207
0.19689
0.082902
-0.0051813
-0.12435
-0.093264
-0.067358
-0.0051813
-0.046632
-0.10881
-0.10363
0.010363
0.14508
0.2228
0.27979
0.3057
0.28497
0.31088
0.40415
0.53368
0.51813
0.4715
0.34197
0.20207
0.062176
0.015544
-0.010363
0.031088
0.11399
0.082902
0.051813
0.051813
0.020725
0.10881
0.07772
0.046632
0.025907
0.020725
-0.056995
-0.11399
-0.1658
-0.15544
0.031088
0.18653
0.25907
0.3057
0.35751
0.35751
0.39896
0.35233
0.25907
0.19689
0.22798
0.35751
0.39896
0.40415
0.35751
0.27979
0.18135
0.18135
0.27461
0.34197
0.28497
0.12435
-0.051813
-0.18653
-0.25389
-0.2487
-0.35751
-0.44041
-0.43523
-0.32124
-0.10363
0.082902
0.21762
0.26425
0.20725
0.18135
0.082902
0
-0.041451
-0.12435
-0.1399
-0.1658
-0.11399
-0.17098
-0.20725
-0.18653
-0.22798
-0.31088
-0.40415
-0.44041
-0.36788
-0.23834
-0.051813
0.010363
-0.067358
-0.21762
-0.27979
-0.2487
-0.15026
-0.088083
-0.072539
-0.12435
-0.11399
-0.031088
0.031088
0.088083
0.072539
0.046632
-0.031088
0.020725
0.12435
0.18653
0.1399
0.088083
0.010363
-0.010363
0
0.20725
0.21762
0.2228
0.17617
0.15544
0.17617
0.11917
0.082902
0.010363
0.041451
0.082902
0.12953
0.07772
-0.072539
-0.2487
-0.34197
-0.28497
-0.10881
0.020725
0.046632
0.072539
0.051813
0.0051813
-0.020725
0.010363
0.082902
0.15544
0.33679
0.4456
0.42487
0.29534
0.15026
-0.025907
-0.17617
-0.18135
-0.20207
-0.098446
-0.031088
0.11399
0.25389
0.35751
0.39896
0.33679
0.2228
0.10363
0.062176
0.025907
0.020725
0.10363
0.17617
0.23316
0.31606
0.39378
0.50777
0.47668
0.41969
0.23316
-0.010363
-0.1399
-0.1399
-0.020725
0.10881
0.17098
0.19171
0.15026
0.1399
0.025907
-0.12953
-0.25389
-0.20725
-0.0051813
0.17098
0.32642
0.42487
0.40933
0.54404
0.62694
0.6943
0.56477
0.29534
0.088083
-0.11399
-0.15544
-0.082902
0.093264
0.21244
0.21244
0.025907
-0.067358
-0.010363
0.21762
0.31606
0.25389
0.07772
-0.082902
-0.20725
-0.23834
-0.18653
-0.11399
-0.0051813
0.15026
0.26425
0.26943
0.21762
0.11399
0.015544
0.046632
0.13472
0.26943
0.2487
0.10881
0.041451
-0.062176
-0.07772
-0.025907
0.093264
0.1399
0.19689
0.31088
0.36269
0.36788
0.41969
0.45078
0.43005
0.36788
0.30052
0.23834
0.30052
0.30052
0.27461
0.23316
0.23834
0.35233
0.43005
0.49223
0.41451
0.37824
0.3057
0.29534
0.27461
0.11399
-0.046632
-0.12435
-0.12435
-0.020725
0.14508
0.31606
0.35233
0.28497
0.17617
0.11399
0.062176
0.082902
0.093264
0.11399
0.16062
0.21762
0.20725
0.19171
0.2487
0.29534
0.4456
0.5285
0.49223
0.41451
0.31606
0.33161
0.35233
0.27461
0.18653
0.046632
-0.072539
0.020725
0.1658
0.32124
0.33161
0.17617
0.07772
0.0051813
-0.015544
0.10881
0.1658
0.093264
-0.0051813
-0.067358
0.041451
0.19171
0.3057
0.28497
0.26425
0.31088
0.41451
0.49741
0.56477
0.59585
0.63731
0.61658
0.60104
0.54404
0.33161
0.098446
-0.12435
-0.23834
-0.30052
-0.2487
-0.19689
-0.15544
-0.12435
-0.046632
0.025907
0.10363
0.19171
0.29016
0.30052
0.32642
0.25907
0.1658
0.17098
0.2487
0.29016
0.23316
0.093264
0.025907
0.0051813
0.041451
0.22798
0.32642
0.44041
0.37306
0.33679
0.34715
0.34715
0.3057
0.1399
-0.11399
-0.27979
-0.33679
-0.23834
-0.098446
0.093264
0.19689
0.25389
0.25389
0.17098
0.098446
0.041451
0.098446
0.1399
0.067358
-0.098446
-0.35751
-0.58549
-0.60104
-0.40933
-0.26425
-0.16062
-0.19689
-0.1658
-0.13472
-0.062176
0.062176
0.21762
0.31606
0.31088
0.14508
-0.036269
-0.27461
-0.41969
-0.39896
-0.38342
-0.23834
-0.1399
-0.10881
0.010363
0.19689
0.32642
0.33679
0.3057
0.28497
0.21244
0.16062
0.11917
0.10881
0.098446
0.093264
0.031088
0
-0.041451
-0.056995
0.0051813
0.062176
0.19689
0.22798
0.19171
0.21762
0.20725
0.12953
0.0051813
-0.072539
-0.046632
0.015544
-0.010363
-0.11917
-0.35751
-0.49223
-0.41451
-0.26943
-0.18135
-0.10881
-0.020725
0.11399
0.2487
0.26943
0.18653
0.051813
-0.10363
-0.20725
-0.36269
-0.39378
-0.34715
-0.29534
-0.33679
-0.33679
-0.34715
-0.31088
-0.17617
0.010363
0.21762
0.21762
0.15544
0.088083
0.098446
0.010363
-0.10363
-0.33679
-0.54404
-0.54922
-0.51813
-0.40933
-0.30052
-0.21244
-0.18653
-0.27979
-0.30052
-0.27979
-0.18653
-0.17617
-0.1658
-0.27461
-0.36788
-0.27461
-0.10363
0.10881
0.2228
0.11917
0.010363
-0.025907
0.19689
0.24352
0.20725
-0.082902
-0.31606
-0.37306
-0.25389
-0.082902
0.015544
0.031088
0.062176
0.088083
0.088083
0.07772
0.072539
0.088083
0
0
0.015544
-0.0051813
-0.1399
-0.32642
-0.44041
-0.41451
-0.27979
0.010363
0.18135
0.27461
0.26943
0.20725
0.072539
-0.0051813
-0.051813
-0.11917
-0.13472
-0.16062
-0.082902
-0.11917
-0.15544
-0.2487
-0.25907
-0.1658
-0.015544
0.067358
0.051813
0.10881
0.041451
0.015544
-0.067358
-0.12435
-0.20725
-0.24352
-0.19171
-0.046632
-0.051813
-0.07772
-0.098446
-0.098446
0.015544
0.098446
0.10363
-0.020725
-0.036269
0.025907
0.12435
0.15544
0.12953
0.088083
0.020725
-0.0051813
0.031088
0.031088
-0.0051813
0.036269
0.10881
0.11917
0.093264
0.031088
0.0051813
0.082902
0.19171
0.22798
0.19171
0.13472
0.056995
-0.015544
0.051813
0.13472
0.34715
0.40933
0.44041
0.39378
0.20725
0.031088
-0.041451
-0.051813
-0.020725
-0.031088
-0.062176
-0.10363
-0.031088
0.14508
0.30052
0.40933
0.41969
0.26943
0.015544
-0.15026
-0.093264
0.046632
0.19171
0.24352
0.26425
0.30052
0.39378
0.45078
0.39896
0.29016
0.21762
0.15026
0.1658
0.19689
0.23316
0.27461
0.27979
0.36269
0.48187
0.56995
0.65285
0.66839
0.63731
0.63731
0.66321
0.67876
0.59585
0.43005
0.36788
0.41451
0.50259
0.61658
0.56477
0.43523
0.29534
0.24352
0.23316
0.2228
0.27461
0.33679
0.43005
0.53368
0.4715
0.37306
0.3057
0.34715
0.41969
0.45078
0.54404
0.64249
0.66321
0.73057
0.69948
0.74611
0.66321
0.70466
0.65803
0.57513
0.49741
0.38342
0.34715
0.26943
0.21244
0.17617
0.20725
0.25389
0.34715
0.3886
0.32642
0.35233
0.35751
0.31088
0.27979
0.16062
0.056995
-0.031088
0.072539
0.2228
0.41451
0.52332
0.49223
0.48705
0.41451
0.56477
0.59585
0.55959
0.41969
0.31088
0.29534
0.36269
0.43523
0.48187
0.50259
0.4715
0.50259
0.43005
0.50777
0.49223
0.44041
0.38342
0.3057
0.31606
0.29534
0.35751
0.51813
0.6114
0.53368
0.32642
0.07772
-0.056995
0.025907
0.18653
0.32124
0.31088
0.3057
0.25389
0.2487
0.25389
0.35233
0.39896
0.40415
0.35751
0.26943
0.16062
0.10881
-0.036269
-0.11917
0
0.19689
0.45596
0.51813
0.45078
0.29016
0.10881
-0.041451
0.025907
0.14508
0.22798
0.17617
0.046632
0.010363
-0.031088
0.088083
0.19689
0.4715
0.6943
0.82902
0.76166
0.68912
0.55959
0.44041
0.37306
0.36788
0.4715
0.50259
0.42487
0.44041
0.37306
0.37824
0.37306
0.3057
0.29016
0.35233
0.48187
0.63212
0.56477
0.34197
0.093264
-0.15544
-0.23834
-0.23316
-0.23834
-0.19689
-0.062176
0.19689
0.43005
0.5285
0.4715
0.31088
0.12435
0.041451
0.10881
0.33679
0.68394
0.80829
0.72021
0.46114
0.32124
0.27461
0.32124
0.26943
0.34197
0.36269
0.33161
0.32642
0.21762
0.17098
0.11917
0.28497
0.45078
0.6943
0.86528
0.88601
0.82902
0.67358
0.59067
0.46632
0.40933
0.33679
0.27979
0.20725
0.22798
0.24352
0.12953
0.041451
0.0051813
0.056995
0.15544
0.15026
0.11917
0.031088
-0.0051813
0.010363
0.10881
0.19171
0.25907
0.31606
0.27979
0.29016
0.29534
0.27461
0.12435
-0.098446
-0.26943
-0.41969
-0.40933
-0.34715
-0.21762
-0.07772
0.036269
0.15544
0.17098
0.093264
-0.062176
-0.13472
-0.13472
-0.0051813
0.11399
0.15544
0.082902
-0.015544
-0.025907
-0.010363
0.062176
0.098446
0
-0.051813
-0.10363
-0.17098
-0.20725
-0.21244
-0.16062
-0.20207
-0.23834
-0.11917
0
0.19171
0.27461
0.27461
0.22798
0.20207
0.25907
0.19689
0.16062
0.12435
0.1658
0.18135
0.20207
0.12953
0.13472
0.1399
0.18135
0.19171
0.082902
0.036269
0.031088
0.051813
0.15026
0.32642
0.39896
0.37824
0.35751
0.33679
0.39378
0.48187
0.60622
0.6943
0.59067
0.42487
0.12435
-0.18653
-0.34715
-0.28497
-0.036269
0.14508
0.2228
0.17617
0.12435
0.082902
0.1658
0.23316
0.29016
0.33161
0.20725
0.067358
0
0.041451
0.1658
0.31606
0.49741
0.5544
0.4456
0.22798
0.07772
-0.0051813
-0.010363
0.025907
0.10363
0.041451
-0.072539
-0.21762
-0.3886
-0.42487
-0.34197
-0.13472
0.041451
0.062176
0.010363
-0.10881
-0.051813
-0.010363
0.051813
0.046632
0.11399
0.2228
0.31088
0.31606
0.44041
0.52332
0.54404
0.41969
0.21762
0.051813
-0.031088
0.0051813
0.10881
0.20207
0.29534
0.2487
0.0051813
-0.18135
-0.12953
0.07772
0.22798
0.21762
-0.010363
-0.27461
-0.38342
-0.33679
-0.23834
-0.11399
-0.0051813
0.12435
0.19171
0.20725
0.26425
0.25907
0.28497
0.26943
0.22798
-0.025907
-0.17098
-0.19689
-0.051813
0.1399
0.33161
0.36269
0.20725
0.036269
-0.051813
-0.041451
0.041451
0.067358
-0.0051813
-0.15544
-0.26943
-0.12435
0.046632
0.27979
0.31606
0.35751
0.32124
0.28497
0.29016
0.1658
0.072539
-0.072539
-0.11917
-0.051813
0.015544
0.056995
0.0051813
0.093264
0.23834
0.28497
0.16062
-0.025907
-0.13472
-0.23316
-0.21762
-0.19171
-0.11917
-0.093264
-0.07772
-0.062176
-0.082902
-0.088083
-0.088083
0.020725
0.19689
0.36269
0.49741
0.41451
0.26943
0.18135
0.12953
0.082902
0.15026
0.15544
0.16062
0.11399
0.031088
-0.051813
-0.098446
-0.16062
-0.21244
-0.25907
-0.30052
-0.17098
0.051813
0.28497
0.4456
0.50259
0.48187
0.31606
0.26943
0.10363
0.025907
-0.020725
-0.031088
-0.22798
-0.33161
-0.31088
-0.20725
-0.062176
0.072539
0.13472
0.1658
0.10363
0.072539
-0.015544
0.020725
0.062176
0.10881
0.10363
0.0051813
-0.056995
-0.11917
-0.072539
0.088083
0.21244
0.20725
0.18135
0.11399
0.025907
-0.051813
-0.062176
-0.098446
-0.056995
0.093264
0.16062
0.1658
-0.0051813
-0.17617
-0.1399
0.07772
0.37306
0.46114
0.21244
-0.093264
-0.22798
-0.22798
-0.098446
0.093264
0.24352
0.31088
0.37306
0.35233
0.37824
0.27461
0.25907
0.20725
0.17617
0.093264
-0.067358
-0.21244
-0.30052
-0.18135
-0.062176
0.10363
0.26943
0.23834
0.031088
-0.11399
-0.17098
-0.015544
0.062176
0.093264
0.082902
-0.025907
-0.062176
