-0.13514
-0.17297
-0.10811
0.027027
0.091892
0.043243
0.037838
0.14054
0.17838
0.18919
0.086486
-0.021622
0.0054054
0.27027
0.2973
0.29189
0.24865
0.2
0.12432
0.054054
-0.010811
0.1027
0.12973
0.21081
0.31351
0.21081
0.14595
0.16757
0.18378
0.42162
0.47568
0.42703
0.25405
0.17297
0.21081
0.23243
0.28649
0.28649
0.19459
0.07027
-0.12973
-0.11351
-0.17297
0.016216
0.032432
0.091892
0.0054054
-0.064865
-0.032432
-0.032432
0.027027
0.14054
0.18378
0.12432
0.2
0.14054
0.15135
0.07027
0.043243
0.048649
0.12973
0.054054
-0.032432
-0.11351
-0.10811
-0.075676
-0.12432
-0.21081
-0.11351
0.07027
0.11892
0.12432
0.12973
0.16216
0.32432
0.2973
0.41081
0.33514
0.14595
0.027027
-0.075676
0.0054054
0.081081
0.25946
0.25405
0.13514
0.054054
-0.0054054
-0.010811
0.048649
0.032432
0.0054054
0.075676
0.1027
0.16216
0.12973
0.07027
0.2973
0.2
0.27568
0.41081
0.38378
0.39459
0.16216
-0.07027
-0.17838
-0.11351
-0.0054054
0.064865
0.097297
0.16216
0.18919
0.17838
0.086486
0.021622
-0.037838
-0.048649
-0.016216
0.15676
0.19459
0.33514
0.28649
0.28108
0.27568
0.47568
0.36757
0.23243
0.010811
0.010811
-0.064865
-0.11892
-0.11351
-0.07027
0.054054
0.26486
0.30811
0.4
0.4
0.32973
0.28108
0.16757
0.081081
0.11351
0.12432
0.14054
0.40541
0.59459
0.62162
0.32432
0.17297
0.27027
0.32432
0.28108
0.1027
0.064865
0.059459
0.048649
0.048649
-0.027027
-0.086486
-0.07027
0.027027
0.17297
0.16757
0.14595
0.037838
0.075676
0.2
0.24865
0.50811
0.42162
0.32973
0.1027
-0.11351
-0.10811
-0.1027
-0.17297
-0.16757
-0.10811
-0.021622
-0.097297
-0.22703
-0.35135
-0.30811
-0.17838
-0.043243
0.032432
0.16757
0.45405
0.4
0.14054
-0.14054
-0.17297
0.097297
0.20541
0.22162
-0.032432
-0.075676
0.027027
0.17297
0.24324
0.16757
0.037838
-0.064865
-0.037838
0.032432
0.25946
0.19459
0.16757
0.0054054
-0.091892
-0.059459
-0.037838
0.0054054
0.23784
0.36757
0.33514
0.043243
-0.25946
-0.23784
-0.12432
0.16216
0.18378
0.27568
0.26486
0.18919
0.28108
0.2973
0.30811
0.34595
0.36216
0.43243
0.23243
0.12432
0.016216
-0.010811
0.0054054
-0.043243
-0.11892
-0.010811
0.086486
0.18919
0.26486
0.33514
0.3027
0.23784
0.14595
0.16757
0.21622
0.44865
0.51892
0.49189
0.37297
0.13514
0.19459
0.16216
0.28108
0.48108
0.41081
0.36216
0.19459
0.22703
0.18919
0.13514
0.2973
0.24324
0.17838
0.043243
-0.027027
-0.027027
-0.048649
-0.064865
0.091892
0.23784
0.32973
0.2
0.13514
0.059459
0.14054
0.11892
0.043243
0.032432
-0.13514
-0.13514
-0.25946
-0.27027
-0.22703
-0.28108
-0.23784
-0.2
-0.086486
-0.0054054
0.075676
-0.0054054
-0.16216
-0.21081
-0.12432
-0.17838
-0.043243
-0.18919
0.14595
0.21081
0.27027
0.2
-0.10811
-0.086486
-0.091892
-0.059459
0.0054054
0.12432
0.18378
0.22162
0.13514
0.043243
-0.15135
-0.29189
-0.27568
-0.097297
0.0054054
0.17297
0.34595
0.43243
0.45405
0.31351
0.30811
0.42703
0.36757
0.36757
0.30811
0.27568
0.22162
0.16757
0.064865
0.081081
0.14054
0.22703
0.24324
0.17297
-0.15135
-0.38378
-0.42162
-0.33514
-0.33514
-0.33514
-0.26486
-0.021622
0.12432
0.14595
-0.048649
0.081081
0.021622
0.10811
0.086486
0.24865
0.34595
0.37297
0.21081
0.081081
0.12973
0.18378
0.010811
-0.075676
-0.19459
-0.15135
-0.11892
-0.059459
-0.0054054
0.086486
0.24324
0.41622
0.43243
0.42703
0.27027
0.12973
0.17838
0.31892
0.26486
0.086486
-0.054054
-0.037838
0
-0.016216
0.16216
0.35135
0.48649
0.36216
0.28108
0.16216
0.043243
-0.086486
-0.21622
-0.20541
-0.086486
0.043243
0.25405
0.16757
0.15676
0.032432
-0.10811
-0.10811
-0.043243
0.1027
0.24324
0.31892
0.41622
0.69189
0.76757
0.62703
0.25405
-0.032432
-0.027027
0.10811
0.22162
0.43784
0.53514
0.51351
0.57297
0.56216
0.64324
0.52432
0.32973
0.18919
0.11892
0.086486
-0.010811
-0.12432
-0.10811
0.027027
0.24865
0.24865
0.27027
0.27568
0.28108
0.16216
0.027027
-0.081081
-0.059459
0.12432
0.27568
0.36757
0.33514
0.14595
0.086486
0.027027
0.38919
0.32432
0.21622
0.010811
-0.12973
-0.027027
-0.064865
-0.16216
-0.22162
-0.25946
-0.21081
0.07027
0.15676
0.16757
0.18378
0.21622
0.35135
0.36216
0.25405
0.10811
0.037838
0.075676
0.15135
0.16216
0.28108
0.4
0.56757
0.59459
0.64324
0.49189
0.36757
0.4
0.50811
0.55135
0.32973
0.086486
0.027027
0.12973
0.12973
0.15676
0.14595
0.12973
0.1027
0.037838
0.027027
0.010811
-0.043243
-0.081081
-0.17838
-0.097297
0.14595
0.23784
0.081081
-0.11351
-0.22703
-0.0054054
0.12973
0.091892
-0.11351
-0.15135
-0.15135
-0.14595
-0.16216
-0.1027
-0.097297
0.016216
0.24324
0.25405
0.15135
0.016216
0.027027
0.28649
0.18378
0.048649
-0.016216
-0.016216
0.091892
0.17297
0.25946
0.17838
0.15676
0.021622
0.064865
0.22162
0.41081
0.36757
0.15135
-0.075676
-0.07027
0.086486
0.26486
0.21622
0.010811
-0.15135
0.032432
-0.027027
-0.037838
-0.16216
-0.1027
0.11351
0.24865
0.39459
0.44865
0.50811
0.38378
0.22703
0.064865
-0.16757
-0.22162
-0.23243
-0.24865
-0.12432
-0.07027
0.086486
0.086486
-0.059459
0.059459
-0.07027
0.016216
0
0.054054
0.054054
0.086486
-0.075676
-0.12432
0.043243
0.12973
0.097297
0.021622
0.059459
0.054054
0.0054054
-0.075676
-0.021622
0.010811
0.097297
0.24865
0.55676
0.45405
0.28649
-0.064865
-0.25405
-0.24865
-0.12432
-0.010811
0.048649
0.010811
-0.064865
0.054054
0.097297
0.14595
0.032432
0.010811
-0.037838
-0.021622
-0.075676
0.086486
0.086486
0.10811
0.11892
-0.064865
-0.037838
-0.10811
-0.2
-0.059459
-0.027027
0.027027
0.12973
0.19459
0.38919
0.42162
0.37838
0.15135
-0.043243
-0.059459
-0.1027
-0.12432
-0.16757
-0.16757
-0.059459
-0.048649
0.081081
0.091892
0.086486
0.054054
0.027027
0.054054
0.097297
0.097297
-0.0054054
0.064865
0.21622
0.29189
0.31892
0.35135
0.35135
0.33514
0.1027
0.054054
0.043243
0.075676
0.0054054
0.081081
0.048649
0.048649
0.11892
0.091892
0.059459
0
-0.0054054
0.07027
-0.032432
-0.16216
-0.19459
-0.11351
-0.086486
0.15676
0.07027
-0.059459
-0.28649
-0.42162
-0.35676
-0.22703
0.037838
0.25405
0.38919
0.51351
0.24324
0.032432
-0.064865
-0.059459
0.054054
-0.064865
-0.16216
-0.17297
-0.1027
-0.091892
-0.17297
-0.17297
-0.17297
-0.027027
0.075676
0.11351
0.043243
-0.054054
-0.059459
0.054054
0.10811
0.075676
-0.037838
-0.021622
0.032432
0.048649
-0.081081
0.086486
0.11892
0.28108
0.11351
0.11892
0.010811
0.021622
0.032432
0.15135
0.091892
0.24324
0.07027
-0.097297
-0.22162
-0.25405
-0.14054
-0.027027
-0.048649
-0.016216
-0.021622
0.086486
0.22162
0.36216
0.24324
0.19459
0.14054
0.2
0.17297
0.23243
0.3027
0.26486
0.27568
0.24324
0.27027
0.25405
0.2
0.075676
0.059459
0.24865
0.31351
0.41622
0.36216
0.41622
0.54054
0.75676
0.91892
0.81622
0.48108
0.27027
0.059459
0.043243
0.010811
0.010811
0.097297
0.081081
0.010811
0.021622
0
-0.064865
-0.07027
-0.20541
-0.14054
-0.15676
-0.10811
-0.12432
-0.043243
0.23784
0.49189
0.48108
0.35676
0.23784
0.16216
0.22162
0.11892
0.037838
-0.081081
-0.081081
0.043243
0.043243
0.10811
0.064865
0.037838
0.054054
0.064865
0.15676
0.47568
0.31892
0.35135
0.054054
-0.016216
0.07027
0.11351
0.037838
-0.037838
-0.016216
0.3027
0.32973
0.41622
0.18378
0.021622
0.0054054
0.10811
0.25405
0.57297
0.58378
0.56216
0.45946
0.28649
0.24865
0.16757
0
0.086486
0.12973
0.32973
0.33514
0.30811
0.075676
-0.14054
-0.086486
0.0054054
0.059459
0
0.032432
0.11351
0.24324
0.27568
0.19459
0.14054
0.0054054
0.027027
-0.075676
-0.081081
-0.064865
-0.07027
-0.086486
-0.032432
0.043243
0.11351
0.38919
0.38919
0.29189
0.16216
-0.091892
-0.027027
0.086486
0.29189
0.29189
0.17838
0.054054
0.059459
0.097297
0.016216
0.027027
0.091892
0.17838
0.16216
0.2
0.17838
0.33514
0.3027
0.22162
0.15135
0.048649
0.086486
0.11351
0.17297
0.1027
0.16757
-0.043243
-0.059459
-0.07027
-0.14054
-0.054054
-0.010811
0.032432
0
-0.11351
0.086486
0.081081
0.11892
0.10811
0.054054
0.1027
0.10811
0.075676
-0.037838
-0.091892
-0.054054
0.18378
0.17297
0.086486
-0.059459
0.1027
0.054054
0.048649
-0.13514
-0.25405
-0.20541
-0.12973
-0.11351
-0.075676
-0.032432
0.13514
0.1027
0.27027
0.17297
0.15676
0.0054054
-0.059459
0.043243
0.059459
0.24865
0.27568
0.21081
0.25946
0.2973
0.39459
0.47568
0.40541
0.32432
0.24324
0.19459
0.27027
0.3027
0.31351
0.23243
0.086486
-0.054054
-0.14595
0.032432
0.043243
0.24865
0.13514
0.075676
-0.086486
-0.22703
-0.24865
-0.054054
-0.097297
-0.15135
-0.17838
-0.22703
-0.23784
-0.15676
-0.14054
0.12432
0.21081
0.15135
0.13514
-0.037838
-0.081081
-0.081081
-0.21081
-0.11892
-0.086486
-0.14595
0.016216
0.12973
0.16757
0.086486
0.016216
0.075676
0.16757
0.31892
0.35135
0.42703
0.29189
0.18378
0.07027
0.12973
0.25946
0.35135
0.4
0.27027
0.12973
0.23784
0.22703
0.2
0.11351
-0.07027
-0.16216
-0.14595
-0.12432
-0.11892
0.10811
0.19459
0.46486
0.42703
0.32973
0.3027
0.091892
0.081081
0.13514
0.38378
0.45405
0.47027
0.23243
0.064865
-0.032432
-0.25405
-0.52973
-0.73514
-0.60541
-0.23784
0.15135
0.51892
0.92973
0.98919
0.95676
0.48108
0.13514
-0.24324
-0.34054
-0.36757
-0.33514
-0.21622
-0.081081
0.054054
0.24324
0.48649
0.75135
0.84865
0.84865
0.67027
0.39459
0.26486
0.1027
0.048649
-0.17297
-0.37838
-0.27568
-0.2973
0.12973
0.18378
0.34054
0.31892
0.39459
0.56216
0.75676
0.79459
0.75135
0.67027
0.57838
0.43784
0.4973
0.48108
0.4973
0.29189
0.14054
-0.054054
-0.021622
0.075676
0.26486
0.21081
0.31351
0.22703
0.2973
0.52973
0.68108
0.55135
0.24324
-0.081081
-0.24865
-0.36216
-0.45405
-0.49189
-0.43243
-0.45946
-0.33514
-0.15135
-0.14595
-0.086486
0.027027
0.032432
0.19459
0.16757
0.10811
0.037838
-0.054054
0.27568
0.36216
0.34054
0.23784
0.054054
0.1027
0.18378
0.11892
0.048649
-0.0054054
0.25405
0.27027
0.30811
0.12973
-0.07027
-0.12432
-0.016216
0.043243
0.20541
0.18378
0.07027
-0.043243
-0.24865
-0.32432
-0.35676
-0.32973
-0.24324
-0.086486
-0.054054
-0.081081
0.12973
0.17297
0.4
0.35676
0.21081
0.27568
0.043243
0.17297
0.048649
-0.043243
-0.19459
-0.10811
-0.054054
0.032432
0.032432
-0.032432
0.081081
0.17838
0.21622
0.14595
0.086486
0.17838
0.23784
0.14595
-0.11892
-0.0054054
0.14054
0.27568
0.18378
-0.086486
-0.19459
-0.14595
-0.081081
-0.010811
-0.10811
-0.12973
0
0.0054054
0.16216
0.11351
-0.064865
-0.3027
-0.2973
-0.32432
-0.043243
-0.2
-0.25405
-0.40541
-0.41622
-0.27568
-0.10811
-0.11351
-0.26486
-0.42162
-0.27027
-0.07027
0.1027
0.15135
0.059459
0
0.043243
0.30811
0.29189
0.31351
0.027027
-0.11351
-0.043243
0.043243
0.048649
-0.016216
-0.043243
-0.021622
0.021622
0.010811
0.037838
0.016216
0.13514
0.16216
0.24865
0.10811
-0.016216
-0.059459
0.010811
-0.016216
0.032432
0.16216
0.10811
0.12432
0.1027
0.054054
0.054054
0.048649
-0.048649
-0.021622
0.059459
0.17297
0.24865
0.45946
0.58378
0.56757
0.49189
0.075676
-0.1027
-0.33514
-0.32973
-0.11351
-0.059459
0.021622
0.1027
0.18378
0.1027
-0.059459
-0.11351
0.064865
0.16757
0.1027
0.0054054
-0.021622
0.043243
0.16757
0.31892
0.43243
0.42162
0.25405
-0.075676
-0.18378
-0.13514
-0.081081
-0.13514
-0.31351
-0.41622
-0.41081
-0.24865
-0.081081
0.021622
-0.021622
0.043243
0.091892
0.10811
0.16757
0.12432
0.021622
0.0054054
0.14595
0.23243
0.23784
0.043243
0.11351
0.16757
0.086486
0.037838
0.16757
0.32973
0.50811
0.42162
0.31892
0.26486
0.24865
0.21081
0.23243
0.28108
0.52973
0.44865
0.36216
0.4
0.58378
0.74595
0.69189
0.48649
0.2973
0.21622
0.28108
0.20541
0.15135
0.027027
0.1027
0.18378
0.42162
0.56757
0.57838
0.5027
0.18919
0.11892
0.14595
0.21622
0.35135
0.26486
0.11351
-0.097297
-0.032432
0.054054
0.22703
0.2
0.12432
0.091892
0.25405
0.27027
0.18378
-0.0054054
-0.1027
0.059459
0.11892
0.23243
0.14595
0.043243
0.086486
0.17297
0.34595
0.49189
0.37838
0.18378
-0.016216
-0.13514
-0.12973
-0.17297
-0.12973
0.1027
0.15676
0.18378
0.13514
0.14054
0.41081
0.34595
0.28108
0.043243
-0.19459
-0.19459
-0.14595
-0.064865
-0.0054054
0.027027
0.17297
0.45405
0.54054
0.53514
0.27568
0.16216
0.1027
0.14054
0.075676
0.10811
0.25405
0.42162
0.57297
0.71351
0.58919
0.47027
0.27568
0.27027
0.35135
0.3027
0.3027
0.29189
0.32432
0.36216
0.39459
0.24865
0.25946
0.34595
0.35135
0.35676
0.21081
0.15135
0.081081
0.048649
0.17297
0.086486
-0.016216
-0.14054
-0.16757
-0.14595
-0.027027
0
0.18919
0.36216
0.33514
0.043243
-0.32973
-0.39459
-0.24324
-0.11351
-0.12432
-0.021622
-0.032432
0.032432
0.07027
0.043243
-0.027027
-0.13514
-0.17297
-0.16757
-0.12432
-0.12432
-0.15676
-0.14054
-0.27027
-0.27027
-0.17838
-0.0054054
0.016216
-0.11892
-0.30811
-0.37297
-0.31351
-0.27568
-0.21622
-0.32973
-0.13514
-0.25946
-0.16757
-0.23784
-0.24324
-0.27027
-0.07027
0.081081
0.086486
0.048649
-0.010811
-0.064865
-0.18378
-0.32432
-0.34595
-0.35676
-0.14595
0.016216
0.12973
0.13514
0.075676
0.048649
0.1027
0.027027
-0.010811
-0.14595
-0.24865
-0.22162
-0.17297
-0.086486
-0.048649
0.048649
0.054054
0.16757
0.18378
0.12432
-0.0054054
-0.24865
-0.21081
-0.12973
-0.059459
0.097297
0.075676
0.19459
0.31892
0.31892
0.18919
0.048649
0.016216
0.11892
0.16757
0.24865
0.30811
0.43784
0.46486
0.42703
0.62162
0.47568
0.52432
0.49189
0.2973
0.27568
0.21622
0.3027
0.51351
0.58919
0.53514
0.36757
0.16757
0.13514
0.12432
0.07027
0.07027
0.10811
0.081081
0.086486
0.16216
0.12973
0.12973
0.086486
0.075676
0.21081
0.39459
0.25946
0.13514
-0.097297
-0.10811
-0.048649
0
0.016216
0.075676
0.17297
0.24324
0.33514
0.37838
0.35676
0.25946
0.20541
-0.037838
-0.21081
-0.33514
-0.33514
-0.18919
-0.054054
0.07027
0.14595
0.16216
0.24865
0.22703
0.12432
0.037838
-0.027027
0.091892
0.14054
0.24324
0.18919
0.086486
0.048649
0.075676
0.075676
-0.043243
-0.037838
-0.086486
-0.10811
-0.13514
-0.016216
0.0054054
0.24324
0.26486
0.37838
0.29189
0.081081
-0.12973
-0.29189
-0.14054
0.097297
0.25946
0.23784
0.091892
-0.027027
-0.048649
0.010811
0.016216
0.23784
0.15676
0.20541
0.37838
0.57297
0.58919
0.41081
0.11892
0.054054
0.1027
0.16216
0.18378
0.17838
0.14054
0.2
0.41081
0.44324
0.38919
0.12973
-0.032432
0.10811
0.20541
0.33514
0.3027
0.081081
-0.075676
-0.12432
-0.027027
-0.048649
0.14054
0.23784
0.2973
0.31892
0.12973
0.14595
0.21081
0.19459
0.13514
0.11351
0.097297
0.081081
0.18919
0.1027
0.086486
0.021622
0.075676
0.12432
0.31351
0.38378
0.37838
0.35676
0.34054
0.29189
0.2
0.086486
0.075676
0.13514
0.43784
0.79459
0.88649
0.64865
0.28649
0.11892
0.091892
0.27027
0.38378
0.4
0.35676
0.42162
0.46486
0.42703
0.41622
0.32973
0.44324
0.42703
0.48649
0.48108
0.5027
0.37838
0.29189
0.37297
0.50811
0.61081
0.54595
0.34595
0.45946
0.26486
0.12432
-0.19459
-0.30811
-0.24324
-0.064865
0.054054
0.17838
0.19459
0.17297
0.1027
0.048649
-0.17838
-0.43243
-0.52973
-0.37838
-0.1027
0.18378
0.43243
0.55676
0.68108
0.59459
0.35676
0.086486
-0.037838
-0.07027
-0.1027
-0.048649
0.032432
0.21622
0.45405
0.56216
0.52432
0.35135
0.34595
0.51351
0.4973
0.2
-0.064865
-0.30811
-0.14054
0
0.097297
0.16216
0.13514
0.21622
0.27027
0.22162
0.1027
-0.054054
-0.18378
-0.16216
-0.24865
-0.29189
-0.26486
-0.11351
-0.0054054
-0.12432
-0.075676
-0.054054
0.091892
0.07027
-0.048649
-0.21622
-0.17297
-0.21622
-0.19459
-0.21622
-0.18378
0.010811
-0.043243
-0.12973
-0.18919
-0.15135
-0.14054
-0.22162
-0.23784
-0.20541
-0.14595
-0.064865
0.1027
0.28649
0.42703
0.37838
0.037838
-0.37838
-0.59459
-0.44324
-0.24865
0
0.016216
-0.054054
-0.10811
-0.16757
-0.097297
-0.091892
-0.054054
0.081081
0.18378
0.2
0.032432
-0.13514
-0.25405
-0.15135
0.064865
0.12432
0.27027
0.23243
0.2973
0.043243
-0.054054
-0.16216
-0.25405
-0.14595
-0.12432
-0.059459
-0.11351
-0.18919
-0.016216
-0.016216
-0.12973
-0.26486
-0.22162
-0.13514
-0.07027
-0.1027
-0.14595
-0.091892
0.064865
0.054054
-0.048649
-0.22162
-0.26486
-0.10811
0.032432
0.21081
0.39459
0.44324
0.47568
0.4
0.21622
0.15135
0.20541
0.23243
0.23243
0.23784
0.31892
0.45405
0.62703
0.78919
0.81081
0.57297
0.46486
0.27027
0.28649
0.27027
0.2973
0.30811
0.33514
0.43243
0.39459
0.24324
0.016216
0.11892
0.25405
0.39459
0.28649
0.28649
0.23784
0.24865
0.20541
0.059459
-0.1027
-0.16757
-0.075676
0.054054
0.31351
0.32973
0.4
0.3027
0.43784
0.34054
0.24865
0.081081
0.037838
0.10811
0.086486
0.086486
0.097297
0.11351
0.14595
0.21081
0.14054
0.15676
0.11892
0.28108
0.25946
0.15135
0.17838
-0.032432
-0.091892
-0.14054
-0.11351
0.048649
0.027027
0.075676
0.10811
0.059459
0.28108
0.34054
0.22703
0.11351
-0.097297
-0.15135
-0.17838
-0.28108
-0.21081
-0.26486
-0.12973
-0.24865
-0.34054
-0.4
-0.43243
-0.46486
-0.40541
-0.25946
-0.11351
0.0054054
-0.027027
-0.032432
0.11892
-0.021622
-0.14595
-0.2973
-0.21081
-0.11892
0.010811
-0.059459
-0.17297
-0.2
-0.016216
-0.054054
0.11351
-0.0054054
0.048649
0.16757
0.21081
0.16757
-0.097297
-0.29189
-0.25946
-0.14054
0.21081
0.25405
0.26486
-0.010811
-0.059459
0.059459
0.27027
0.2
0.16757
0.048649
-0.043243
0.059459
0.3027
0.38919
0.43243
0.3027
0.28108
0.38919
0.24324
0.11351
-0.15135
-0.2
-0.054054
0.16757
0.42162
0.62162
0.68108
0.52973
0.38919
0.31892
0.35135
0.27568
0.26486
0.25405
0.14595
0.27027
0.36757
0.61622
0.70811
0.64865
0.59459
0.48108
0.43243
0.47027
0.40541
0.24324
0.52432
0.49189
0.58378
0.36757
0.2973
0.27027
0.25405
0.18919
0.12432
0.054054
-0.010811
-0.043243
-0.11351
-0.18378
-0.15676
0.016216
0.13514
0.16757
0.2
0.12432
0.21081
0.17297
0.086486
-0.032432
-0.17297
-0.28649
-0.07027
0.032432
0.13514
-0.021622
-0.18378
-0.29189
-0.18378
-0.075676
-0.054054
-0.07027
-0.19459
-0.2973
-0.21081
-0.16757
-0.12432
-0.30811
-0.4
-0.24324
-0.19459
-0.13514
-0.14595
-0.19459
-0.14054
-0.11892
0.17297
0.25405
0.30811
0.15135
-0.032432
-0.059459
0.032432
0.15135
0.18919
0.24324
0.26486
0.2
0.26486
0.086486
0.048649
-0.032432
-0.048649
-0.043243
0.021622
0.19459
0.32432
0.29189
0.11351
0.097297
0.21081
0.3027
0.31351
0.17297
-0.0054054
-0.091892
0.086486
0.1027
0.091892
0.027027
-0.091892
-0.081081
-0.16216
-0.1027
0.043243
0.18919
0.23243
0.35676
0.44865
0.48108
0.39459
0.10811
-0.043243
0.10811
0.28108
0.35135
0.35135
0.19459
0.21622
0.24324
0.26486
0.21622
0.016216
-0.20541
-0.16216
-0.016216
0.11351
0.10811
0.12973
0.11351
0.12973
0.38919
0.57297
0.55676
0.40541
0.32973
0.52432
0.61622
0.61622
0.43784
0.19459
0.11892
0.25946
0.30811
0.4
0.36216
0.32973
0.36757
0.31351
0.44324
0.34054
0.24865
0.22703
0.22703
0.16757
0.081081
0.075676
0.17838
0.41081
0.36757
0.32432
0.20541
0.30811
0.34054
0.24865
0.016216
-0.091892
0.027027
0.081081
0.0054054
-0.16757
-0.28649
-0.19459
-0.043243
0.07027
0.14595
0.20541
0.14054
0.091892
0.17838
0.14595
0.11351
-0.091892
-0.10811
-0.027027
-0.010811
-0.0054054
0.010811
-0.016216
-0.048649
-0.048649
-0.037838
0.14054
0.12973
0.39459
0.20541
0.18378
0.13514
0.1027
0.17838
0.12973
0.097297
-0.054054
-0.19459
-0.18378
-0.12432
-0.15135
-0.11892
-0.19459
-0.21081
-0.22703
-0.15135
-0.081081
-0.086486
-0.059459
0.1027
0.25405
0.3027
0.27568
0.11351
0.059459
0.12973
0.19459
0.23243
0.19459
0.18919
0.25946
0.37838
0.35676
0.32432
0.28108
0.31351
0.38919
0.5027
0.31892
0.22162
0.059459
-0.081081
0.0054054
0.064865
0.2
0.22703
0.20541
0.086486
0.021622
0.07027
0.23784
0.37297
0.17297
-0.010811
-0.23243
-0.18919
-0.032432
0.28108
0.36216
0.37838
0.31351
0.17838
0.22162
0.18919
0.39459
0.3027
0.35676
0.45405
0.35135
0.16757
-0.14054
-0.31351
-0.2
-0.043243
0.16757
0.28108
0.2973
0.28649
0.21622
0.35676
0.37297
0.64865
0.61622
0.59459
0.45946
0.33514
0.17297
0.49189
0.48108
0.68108
0.43243
0.22162
0.14595
0.16216
0.28108
0.35676
0.44324
0.31892
0.28108
0.22703
0.18919
0.091892
-0.032432
-0.086486
-0.059459
0.097297
0.15135
0.17297
0.18378
0.075676
-0.043243
-0.21622
-0.25946
-0.17838
0
-0.027027
0.12973
0.091892
0.059459
0.043243
0.10811
0.059459
0.021622
-0.032432
0.032432
0.054054
0.032432
-0.032432
-0.0054054
0.14595
0.18919
0.21622
0.059459
-0.048649
-0.059459
-0.12973
-0.075676
-0.043243
-0.010811
-0.054054
-0.043243
-0.075676
0.07027
0.10811
0.12432
0
-0.091892
-0.048649
0.22162
0.24865
0.26486
0.26486
0.17297
0.34054
0.32432
0.25405
-0.010811
-0.14595
-0.11892
-0.14595
0
0.075676
0.2973
0.29189
0.20541
0.10811
0.027027
0.18378
0.31351
0.38919
0.2
0.16757
0.091892
0.17838
0.043243
-0.048649
-0.19459
-0.22162
-0.091892
0
0.048649
0.086486
0.21081
0.21622
0.22162
0.15135
0.14595
0.28649
0.31892
0.32432
0.41081
0.43784
0.62162
0.61622
0.45946
0.41622
0.41622
0.54054
0.62162
0.70811
0.56757
0.2973
0.10811
0.17297
0.15135
0.22162
0.32973
0.50811
0.36757
0.091892
-0.2
-0.34054
-0.27568
-0.21622
-0.11892
-0.037838
-0.016216
0.10811
0.07027
0.081081
-0.016216
0
-0.059459
0.075676
0.048649
-0.054054
-0.037838
-0.054054
0.043243
0.17838
0.091892
0.2
0.24324
0.36216
0.35676
0.20541
-0.1027
-0.07027
-0.081081
-0.075676
-0.16757
-0.28108
-0.20541
-0.1027
-0.13514
-0.2
-0.36216
-0.41622
-0.33514
-0.24865
-0.2
-0.091892
-0.032432
-0.021622
-0.097297
-0.086486
-0.037838
0.064865
0.21081
0.081081
-0.048649
-0.16216
-0.18919
-0.14054
-0.18919
-0.14054
0
0.081081
0.081081
0.037838
-0.14595
-0.18378
-0.16216
-0.15135
-0.1027
-0.20541
0.11351
0.064865
0.15135
-0.027027
-0.048649
-0.0054054
0.027027
-0.043243
0.064865
0.037838
0.086486
0.075676
-0.075676
-0.097297
-0.081081
-0.11892
-0.07027
0.11892
0.15676
0.07027
-0.17297
-0.29189
-0.21081
-0.11351
-0.097297
-0.22703
-0.32432
-0.20541
0.075676
0.19459
0.14595
-0.016216
-0.10811
-0.059459
0.14595
0.027027
-0.021622
-0.15676
-0.18919
-0.24865
-0.21081
-0.2
-0.19459
-0.14054
-0.18378
-0.25405
-0.28108
-0.17297
0.043243
0.15676
0.15135
0.12432
0.054054
0.027027
-0.059459
-0.064865
-0.097297
-0.13514
-0.14595
0.11892
0.32432
0.41081
0.27027
0.14595
0.14054
0.26486
0.34054
0.24865
0.091892
-0.0054054
0.2
0.11351
0.091892
-0.027027
-0.14595
-0.037838
0.2
0.34054
0.31351
0.23784
0.24865
0.097297
0.091892
-0.021622
0.037838
0.25405
0.53514
0.55135
0.40541
0.17838
0.075676
0.16216
-0.016216
-0.043243
-0.048649
0.17297
0.27027
0.45405
0.45946
0.28108
0.21081
-0.032432
0.07027
0.07027
0.26486
0.15676
-0.016216
-0.11351
-0.12973
0
0.059459
0.086486
0.13514
0.27568
0.37297
0.2973
0.16757
-0.010811
0.032432
0.048649
0.15135
0.18378
0.28649
0.25946
0.31351
0.32432
0.53514
0.44865
0.38378
0.07027
-0.097297
-0.097297
-0.010811
0.037838
0.15135
0.20541
0.22703
0.15135
0.16757
0.16216
0.25405
0.29189
0.33514
0.31351
0.11351
0.064865
0.048649
-0.037838
-0.0054054
-0.016216
0.12973
0.14595
0.2
0.15135
0.29189
0.28649
0.40541
0.25946
0.16757
0.037838
-0.010811
0.081081
0.081081
0.48649
0.53514
0.47568
0.32973
0.12432
0.086486
0.16216
0.27568
0.26486
0.18378
0.086486
0.11351
0.21081
0.17838
0.021622
-0.16216
-0.19459
0.027027
0.081081
0.12432
0.086486
0.086486
-0.043243
-0.086486
-0.15135
-0.12432
-0.010811
-0.048649
0.28649
0.23243
0.31351
0.19459
0.28649
0.28108
0.23784
0.18919
0.081081
0.054054
0.0054054
-0.1027
-0.15135
-0.1027
-0.0054054
0.054054
0.054054
0.054054
-0.075676
-0.13514
-0.21622
-0.021622
0.043243
0.048649
-0.054054
0.043243
0
0.2
0.086486
0.097297
-0.0054054
-0.075676
-0.12973
-0.17297
0.0054054
0.10811
0.18378
0.086486
0.0054054
-0.17297
-0.31892
-0.29189
-0.27027
-0.12973
-0.075676
0.14054
0.36757
0.29189
0.14054
-0.23243
-0.34054
-0.12973
0.021622
0.11351
-0.064865
-0.12973
-0.10811
0.048649
0.23784
0.16757
0.021622
-0.14054
-0.032432
0.16757
0.27568
0.25946
0.16216
0.010811
0.027027
0.14595
0.16757
0.15135
0.15135
0.081081
0.091892
-0.10811
-0.13514
0.16757
0.18378
0.27027
0.075676
-0.1027
-0.032432
0.12432
0.21622
0.1027
0.059459
0
0.091892
0.24324
0.41081
0.26486
0.16757
-0.010811
0.054054
0.054054
0.021622
-0.043243
0.021622
0.0054054
0.054054
0.0054054
-0.07027
-0.10811
-0.23243
-0.24324
-0.35676
-0.29189
-0.048649
0.20541
0.38919
0.24324
-0.037838
-0.21622
-0.23243
-0.21081
-0.075676
0.15135
0.27568
0.27568
0.054054
-0.043243
-0.07027
-0.016216
-0.021622
0.0054054
-0.010811
-0.048649
-0.11351
0.027027
0.11892
0.29189
0.3027
0.15135
0.075676
-0.027027
-0.027027
-0.059459
-0.11351
-0.11892
-0.11892
0.15135
0.32432
0.3027
0.23784
0.21081
0.40541
0.43784
0.54595
0.58378
0.59459
0.4973
0.33514
0.32432
0.45946
0.43243
0.24324
-0.059459
-0.23243
-0.14054
-0.097297
-0.19459
-0.22703
-0.11892
-0.021622
0.16216
0.2
0.45946
0.17297
0.07027
-0.11892
-0.26486
-0.25405
-0.2
-0.1027
0.027027
0.10811
0.11351
0.12432
0.17297
0.27027
0.24865
0.55676
0.31892
0.19459
0.15676
0.021622
0.23784
0.16757
0.22703
0.18378
0.28108
0.16757
0.12432
0.12973
0.048649
-0.054054
-0.11351
0.11892
0.17838
0.17838
0.11351
0.032432
0.0054054
-0.1027
-0.27027
-0.40541
-0.32973
-0.28649
-0.097297
-0.032432
0.027027
0.12973
0.081081
0.12432
0.37838
0.47027
0.40541
0.27568
0.15135
0.059459
0.075676
0.032432
0.07027
0.21622
0.2
0.18378
0.081081
0.19459
0.32432
0.26486
0.086486
0.016216
-0.021622
0.26486
0.23243
0.22162
0.043243
0.027027
0.2
0.23243
0.17838
0.07027
0.21081
0.19459
0.081081
-0.027027
0.048649
0.086486
0.1027
0.11892
0.13514
0.17297
0.17838
0.23784
0.19459
0.23243
0.14054
0.15676
0.24324
0.36757
0.45946
0.40541
0.32432
0.24324
0.18378
0.054054
-0.037838
0
-0.064865
0.054054
0.16757
0.30811
0.45946
0.48649
0.38378
0.27568
0.21081
0.2
0.13514
0.16757
0.4
0.50811
0.5027
0.32432
0.14054
0.2
0.37297
0.4973
0.48649
0.35676
0.25946
0.18378
0.22162
0.10811
0.25405
0.16757
0.091892
0.16757
0.23243
0.32432
0.27568
0.24324
0.27568
0.27568
0.32973
0.32973
0.24865
0.22703
0.18378
0.25946
0.42703
0.33514
0.1027
-0.2
-0.27027
-0.32973
-0.032432
-0.16216
-0.010811
-0.12973
-0.14595
0.1027
0.37297
0.50811
0.51351
0.51351
0.50811
0.37838
0.091892
-0.12432
-0.14054
0.037838
0.28649
0.39459
0.66486
0.75676
0.81622
0.63784
0.38378
0.18378
0.054054
-0.048649
0.24865
0.35135
0.41081
0.43243
0.3027
0.36757
0.41081
0.39459
0.46486
0.35676
0.45405
0.52432
0.46486
0.27027
0.1027
0.14054
0.36216
0.43243
0.58919
0.44865
0.22703
0.010811
-0.021622
0.0054054
0.22162
0.18919
0.18919
0.16757
0.16757
0.4
0.41622
0.3027
0.24324
0.086486
0.10811
0.032432
-0.086486
0.075676
0.24324
0.32432
0.23784
0.07027
0.037838
-0.0054054
-0.14595
-0.14595
0.091892
0.21622
0.28649
0.16216
-0.037838
-0.086486
-0.091892
-0.064865
-0.048649
0.12432
0.097297
0.19459
0.064865
0.12973
0.12973
0.064865
-0.032432
-0.12432
-0.12432
-0.086486
-0.021622
-0.064865
0.027027
-0.064865
0.10811
0.059459
-0.22162
-0.31351
-0.22703
-0.086486
0.25405
0.16216
0.12432
-0.075676
-0.12432
-0.10811
-0.016216
0.1027
0.037838
-0.059459
-0.064865
0.037838
0.25946
0.30811
0.15676
0.18919
0.18378
0.16757
0.14054
-0.043243
-0.032432
-0.27568
-0.20541
-0.27568
-0.21622
-0.17297
-0.22162
-0.1027
-0.075676
0.037838
0.081081
0.07027
0.15676
0.34054
0.40541
0.36757
0.21622
0.17297
0.043243
0.2
0.26486
0.18919
0.15135
0.021622
0
-0.0054054
0.0054054
0
0.091892
0.097297
0.16757
0.13514
0.1027
0.17838
0.3027
0.45405
0.51892
0.36757
0.24324
0.048649
0.032432
0.032432
-0.032432
-0.075676
-0.15135
-0.21622
-0.11351
-0.010811
0.032432
0.081081
0.10811
0.16216
0.17297
0.24865
0.31351
0.18919
-0.027027
-0.19459
-0.22703
-0.15676
-0.059459
0.0054054
0.027027
0.0054054
0.28108
0.28108
0.25405
0.12973
-0.054054
-0.0054054
-0.14054
-0.12973
-0.22703
-0.048649
0.29189
0.54595
0.57838
0.3027
0.14595
0.18919
0.22703
0.17297
0.16757
0.064865
0.086486
-0.010811
0
-0.048649
-0.086486
0
0.097297
0.32432
0.42162
0.39459
0.30811
0.34054
0.48108
0.56216
0.29189
0.059459
-0.21081
-0.18378
0.027027
0.086486
0.054054
-0.016216
-0.048649
0.081081
0.11351
0.22162
0.22703
0.11351
0.027027
0.075676
0.38919
0.5027
0.70811
0.62162
0.45405
0.42703
0.38919
0.41622
0.41081
0.45946
0.43784
0.36757
0.2973
0.36216
0.55135
0.55135
0.63243
0.50811
0.43243
0.34054
0.44324
0.41622
0.47568
0.2973
0.086486
-0.016216
0.048649
0.17297
0.25405
0.40541
0.39459
0.38919
0.22162
0.032432
0.15135
0.31892
0.52432
0.55676
0.42703
0.26486
0.23784
0.25405
0.23243
0.33514
0.29189
0.28649
0.29189
0.23784
0.29189
0.33514
0.33514
0.35676
0.24865
0.11892
0.11351
0.18919
0.32973
0.36757
0.42703
0.44324
0.39459
0.49189
0.46486
0.40541
0.26486
0.10811
-0.075676
-0.16216
-0.12432
-0.037838
0.22703
0.27027
0.26486
0.15135
-0.059459
-0.032432
-0.043243
-0.15135
-0.18378
0.1027
0.054054
0.010811
-0.21081
-0.081081
0.010811
0.081081
0.021622
-0.010811
0
-0.054054
-0.11892
-0.054054
-0.12973
-0.07027
-0.11892
-0.15676
-0.17838
-0.25946
-0.24865
-0.15676
-0.081081
0.0054054
0.091892
0.14054
0.13514
0.15676
-0.064865
0.12973
-0.0054054
-0.0054054
-0.054054
-0.19459
-0.25946
-0.3027
-0.34054
-0.18378
-0.21081
-0.14595
-0.2
-0.27568
-0.24324
-0.28108
-0.28649
-0.14054
-0.17297
0.027027
0.010811
0.12973
0.075676
-0.18378
-0.31351
-0.29189
-0.059459
0.064865
0.11892
0.086486
-0.064865
0.11351
0.15135
0.25405
0.15135
0.081081
-0.032432
-0.032432
-0.059459
-0.18378
-0.2973
-0.40541
-0.32432
-0.29189
-0.26486
-0.27568
-0.2973
-0.24324
-0.32973
-0.43784
-0.41081
-0.42703
-0.36757
-0.15676
-0.064865
-0.010811
-0.054054
-0.11351
0.027027
0.054054
0.091892
-0.027027
0.16216
0.23784
0.22703
0
-0.19459
-0.11892
-0.075676
0.043243
0.11351
0.27568
0.23243
0.14054
-0.0054054
-0.12973
-0.17297
-0.43784
-0.61622
-0.85946
-0.72432
-0.67027
-0.63784
-0.83784
-1
-1
-0.89189
-0.82703
-0.73514
-0.74595
-0.47027
-0.25405
-0.016216
-0.054054
-0.15135
-0.027027
0.1027
0.30811
0.31892
0.21081
0.048649
-0.059459
-0.10811
-0.22703
-0.30811
-0.12432
0.07027
0.16757
0.081081
0
-0.21081
-0.25405
-0.26486
-0.20541
0.021622
0.14054
0.091892
-0.059459
-0.16216
-0.13514
-0.0054054
-0.091892
-0.016216
-0.12432
-0.12432
0.17838
0.37297
0.4973
0.57297
0.42703
0.4973
0.42162
0.4
0.38378
0.32432
0.29189
0.21622
0.10811
0.10811
0.11892
0.24865
0.36216
0.39459
0.47568
0.58919
0.43784
0.19459
-0.010811
-0.17297
-0.064865
0.17297
0.21622
0.24324
0.24865
0.20541
0.37297
0.39459
0.45405
0.28649
0.13514
0.1027
0.091892
0.19459
0.23784
0.27568
0.23784
0.19459
0.26486
0.31351
0.29189
0.35135
0.55135
0.81622
0.54054
0.20541
-0.12432
-0.016216
0.15676
0.32973
0.38378
0.31351
0.37297
0.25946
0.21622
0.26486
0.21081
0.12973
0.037838
-0.054054
-0.12973
-0.13514
0.14054
0.35676
0.37838
0.3027
0.1027
0.097297
0.032432
0.081081
0.16216
0.081081
-0.12973
-0.086486
-0.016216
0.054054
-0.064865
-0.14595
-0.021622
0.048649
0.15135
0.15676
0.059459
0.13514
0.14054
0.075676
-0.22703
-0.50811
-0.49189
-0.55676
-0.31351
-0.23784
-0.16216
0.043243
-0.016216
-0.054054
-0.24324
-0.17838
-0.11351
-0.11351
-0.23784
-0.24865
-0.28108
-0.25946
-0.032432
-0.021622
0.021622
-0.14054
-0.16757
-0.097297
-0.075676
0.010811
0.23784
0.21622
0.23243
0.054054
-0.10811
-0.043243
-0.0054054
0.059459
0.010811
0.054054
-0.043243
-0.054054
-0.097297
0.010811
0.13514
0.20541
0.34054
0.38378
0.24865
0.10811
-0.054054
0.032432
0.021622
0.016216
0.18378
0.059459
0.043243
-0.13514
-0.14054
-0.032432
0.037838
0.021622
0.097297
0.086486
0.26486
0.11892
-0.075676
-0.2
-0.11892
0.054054
0.2
0.34595
0.31892
0.22703
0.18919
0.10811
0.032432
0.10811
0.032432
0.12973
0.1027
0.054054
0.064865
0.11351
0.21622
0.28108
0.17297
0
-0.091892
-0.17838
-0.18919
-0.20541
-0.22703
-0.17838
-0.091892
0.16757
0.30811
0.52973
0.53514
0.48649
0.38919
0.24324
0.15676
-0.064865
-0.22703
-0.22162
-0.064865
0.1027
0.35135
0.31892
0.42162
0.33514
0.18378
0.097297
0.0054054
0.091892
0.086486
0.11351
-0.086486
-0.13514
-0.20541
-0.12973
0.086486
0.10811
0.21622
-0.010811
0.0054054
-0.059459
-0.14595
-0.075676
0.027027
0.1027
0.054054
0.07027
0.20541
0.21081
0.20541
0.16216
0.24324
0.48108
0.56216
0.63243
0.57838
0.46486
0.36757
0.57297
0.4973
0.52973
0.35676
0.21622
0.33514
0.41622
0.47027
0.37297
0.34595
0.032432
-0.043243
-0.18919
-0.12973
-0.10811
-0.18919
-0.15676
-0.048649
-0.0054054
-0.010811
0.097297
0.32973
0.32973
0.30811
0.016216
-0.07027
-0.021622
-0.010811
0.010811
0.097297
0.086486
0.086486
0.037838
-0.027027
-0.059459
-0.16216
-0.081081
0.1027
0.19459
0.34595
0.39459
0.24324
0.10811
-0.091892
-0.17297
-0.1027
0
0.11351
0.18919
0.048649
-0.091892
-0.19459
-0.059459
0.016216
0.2973
0.28649
0.35676
0.18378
0.043243
-0.021622
-0.075676
0.064865
0.12973
0.37838
0.44865
0.50811
0.48649
0.17838
0.22162
0.12973
0.16216
0.21081
0.18919
0.23784
0.28108
0.38919
0.38919
0.38378
0.42162
0.37838
0.29189
0.075676
-0.037838
-0.048649
0.021622
0.07027
0.38919
0.26486
0.52973
0.33514
0.22703
0.027027
-0.15676
-0.15676
-0.059459
0.037838
0.027027
0.097297
0.054054
0.064865
0.059459
-0.016216
0.15676
0.42162
0.42162
0.35135
0.23784
0.2
0.20541
0.18378
0.15676
0.2
0.10811
0.12432
0.21622
0.23784
0.26486
0.22162
0.24865
0.27027
0.48108
0.51351
0.45405
0.4
0.18919
0.18378
0.048649
-0.016216
0.07027
0.32973
0.35676
0.22703
0.1027
0.11351
0.32432
0.41081
0.28649
0.21622
0.15135
0.24865
0.37838
0.47568
0.59459
0.67027
0.73514
0.76216
0.56757
0.53514
0.45946
0.42703
0.35676
0.32973
0.43784
0.54595
0.51892
0.51892
0.34054
0.2
0.12973
0.097297
0.25405
0.17297
0.45946
0.36216
0.42703
0.56757
0.27568
0.091892
-0.18919
-0.32432
-0.25405
-0.27027
-0.3027
-0.23243
-0.18919
-0.1027
-0.22162
-0.26486
-0.22703
-0.1027
0
0.0054054
0.12432
0.18378
0.44865
0.52973
0.51892
0.2973
-0.086486
-0.38378
-0.38378
-0.23784
-0.12432
0.037838
-0.0054054
0.037838
0.17297
0.23243
0.22162
0.027027
-0.091892
-0.15135
0.081081
-0.043243
-0.11351
-0.34595
-0.42162
-0.21081
-0.21081
-0.081081
0
0.064865
0
-0.15676
-0.032432
-0.10811
-0.086486
-0.31892
-0.22162
-0.15676
0.1027
0.20541
0.19459
-0.010811
-0.29189
-0.27568
-0.31351
-0.26486
-0.17838
0
0.12973
0.23784
0.12973
0.032432
0.21081
0.40541
0.45946
0.21081
-0.16216
-0.15676
-0.11892
-0.059459
-0.12432
-0.22162
-0.17297
-0.048649
0.15676
0.075676
0.097297
0.21622
0.3027
0.27568
0.097297
-0.059459
-0.054054
-0.027027
-0.091892
-0.059459
-0.1027
-0.15135
-0.22162
-0.059459
-0.07027
0.064865
-0.059459
-0.24324
-0.12973
0.016216
0.20541
0.3027
0.24324
0.23784
0.16757
0.21622
0.15676
0.29189
0.42703
0.36216
0.23784
-0.0054054
-0.097297
-0.081081
0.097297
0.12973
0.27568
0.22162
0.15135
0.28108
0.23243
0.27568
0.15135
0.18919
0.091892
0.16216
0.21081
0.13514
-0.054054
-0.30811
-0.47568
-0.45946
-0.23243
0.0054054
0.34054
0.36757
0.17838
-0.081081
-0.43243
-0.43243
-0.24865
0.21622
0.36216
0.33514
0.097297
0.048649
-0.021622
0.021622
-0.043243
0.14595
0.2
0.24865
0.097297
0.032432
0.064865
0.086486
0.1027
0.24324
0.16216
0.17838
0.027027
0.20541
0.23243
0.18919
0.2
0.043243
0.13514
0.14054
0.19459
0.14054
0.075676
0.027027
0.027027
0.14595
0.35135
0.44324
0.2973
0.14054
0.10811
0.27568
0.2
0.07027
-0.027027
-0.048649
0.22703
0.28649
0.41081
0.28108
0.20541
0.3027
0.35676
0.44324
0.52973
0.48108
0.55676
0.44865
0.48649
0.4
0.47027
0.52432
0.5027
0.36216
0.24324
0.28649
0.28108
0.31892
0.23784
0.10811
0.10811
0.19459
0.17297
0.086486
-0.010811
0.07027
0.23784
0.48108
0.58378
0.67027
0.84324
0.91892
1
0.89189
0.75676
0.76757
0.69189
0.58378
0.48649
0.5027
0.6
0.51351
0.46486
0.20541
0.081081
0.13514
0.27568
0.25946
0.11351
-0.2973
-0.5027
-0.45405
-0.32973
-0.075676
0.091892
0.11892
0.07027
0.086486
-0.016216
0.07027
0.15676
0.3027
0.24324
0.14595
0.11892
0.048649
0.46486
0.33514
0.29189
0.10811
0.20541
0.18378
0.12973
0.016216
0
-0.027027
-0.037838
0.0054054
0.10811
0.16757
0.12432
0.35135
0.2
0.16757
-0.14595
-0.15135
-0.25946
-0.064865
-0.19459
-0.17838
-0.1027
-0.097297
0.032432
0.17297
0.14054
0.18378
0.086486
-0.054054
-0.016216
-0.18378
-0.3027
-0.32432
-0.21622
0.16216
0.24324
0.21081
-0.037838
-0.016216
-0.048649
-0.064865
-0.091892
-0.081081
0.021622
0.086486
0.18378
0.2
0.2
0.12973
0.091892
0.14595
0.12432
0.24865
0.13514
0.091892
-0.097297
-0.20541
-0.11351
-0.1027
-0.16757
-0.11351
-0.28649
-0.30811
-0.37838
-0.31351
0.021622
0.0054054
-0.010811
-0.12432
