0.20257
0.16399
0.11254
0.048232
0.028939
0.028939
0.028939
0.041801
-0.0096463
0.048232
0.093248
0.17042
0.20257
0.24759
0.27974
0.2283
0.19614
0.18328
0.26045
0.28617
0.41479
0.46624
0.46624
0.41479
0.38907
0.35691
0.38264
0.47267
0.52412
0.54984
0.49196
0.47267
0.40836
0.29904
0.27974
0.28617
0.33762
0.41479
0.48553
0.51768
0.50482
0.44695
0.33762
0.24116
0.13826
0.1254
0.073955
0.0032154
-0.028939
-0.022508
0.03537
0.13826
0.23473
0.25402
0.3119
0.35691
0.38264
0.38264
0.35048
0.36334
0.25402
0.17685
0.1254
0.086817
0.048232
0.041801
0.10611
0.11254
0.1254
0.13183
0.14469
0.13826
0.041801
-0.028939
-0.14469
-0.18971
-0.22186
-0.18328
-0.209
-0.11897
-0.067524
-0.054662
-0.028939
-0.0096463
-0.022508
-0.067524
-0.10611
-0.11897
-0.099678
-0.022508
0.086817
0.1254
0.10611
0.03537
-0.067524
-0.209
-0.25402
-0.24759
-0.209
-0.21543
-0.099678
-0.03537
-0.0032154
-0.03537
-0.093248
-0.11897
-0.1254
-0.10611
-0.073955
-0.016077
0.022508
0.0096463
-0.048232
-0.16399
-0.10611
-0.11897
-0.080386
-0.03537
0.022508
0.028939
0.11254
0.14469
0.13183
0.048232
-0.054662
-0.093248
-0.13826
-0.18971
-0.209
-0.20257
-0.209
-0.21543
-0.15113
-0.10611
0.022508
0.16399
0.20257
0.14469
0.041801
-0.028939
-0.067524
-0.016077
0.067524
0.093248
0.041801
0.03537
0.061093
0.086817
0.17042
0.23473
0.24759
0.2283
0.17042
0.13183
0.13826
0.1254
0.15113
0.13826
0.073955
0.028939
-0.022508
-0.080386
-0.048232
0.067524
0.13826
0.18971
0.209
0.17685
0.10611
-0.0032154
-0.11254
-0.209
-0.209
-0.17685
-0.18328
-0.17042
-0.17042
-0.10611
-0.11897
-0.10611
-0.080386
-0.022508
0.016077
-0.041801
-0.10611
-0.2283
-0.26688
-0.20257
-0.099678
-0.067524
-0.041801
0.0032154
-0.016077
0.093248
0.25402
0.34405
0.35048
0.28617
0.24116
0.15756
0.086817
0.041801
0.0096463
-0.016077
0.0032154
-0.016077
-0.0096463
0.028939
0.080386
0.13183
0.10611
0.061093
0.093248
0.11254
0.20257
0.28617
0.35691
0.35048
0.35048
0.32476
0.25402
0.22186
0.14469
0.086817
0.0032154
0.086817
0.1254
0.19614
0.2283
0.26688
0.29904
0.35048
0.44051
0.47267
0.48553
0.54341
0.65916
0.7492
0.79421
0.82637
0.82637
0.82637
0.8135
0.8135
0.71704
0.70418
0.77492
0.89711
0.97428
1
1
0.9164
0.88424
0.85209
0.7299
0.54341
0.41479
0.42122
0.4791
0.54984
0.60772
0.65916
0.65916
0.60772
0.57556
0.49839
0.47267
0.47267
0.44695
0.32476
0.20257
0.073955
-0.028939
-0.0096463
0.099678
0.2926
0.41479
0.54984
0.54341
0.48553
0.36977
0.34405
0.33119
0.28617
0.27331
0.26688
0.2283
0.209
0.15756
0.099678
-0.0096463
-0.03537
-0.086817
-0.11254
-0.067524
0.028939
0.10611
0.14469
0.19614
0.209
0.15113
0.054662
-0.028939
-0.080386
-0.086817
-0.022508
-0.041801
-0.1254
-0.17042
-0.11897
-0.03537
0.048232
0.15756
0.19614
0.19614
0.16399
0.17685
0.15756
0.15756
0.17685
0.17685
0.2283
0.24759
0.30547
0.22186
0.15756
0.11897
0.11897
0.099678
0.11254
0.1254
0.13826
0.1254
0.15756
0.17042
0.17042
0.17042
0.15756
0.1254
0.061093
-0.0032154
-0.048232
-0.11897
-0.10611
-0.099678
-0.11897
-0.13826
-0.14469
-0.15756
-0.21543
-0.24116
-0.29904
-0.2926
-0.21543
-0.016077
0.18971
0.33119
0.45981
0.40193
0.27331
0.10611
-0.0096463
-0.028939
0.016077
0.13183
0.209
0.21543
0.19614
0.18971
0.18971
0.209
0.18328
0.11254
0.061093
0.061093
0.093248
0.073955
0.016077
-0.03537
-0.054662
-0.080386
-0.03537
0.054662
0.0032154
0.048232
0.022508
-0.028939
-0.13826
-0.26045
-0.24759
-0.24116
-0.18328
-0.10611
-0.061093
-0.0096463
0.061093
0.11897
0.11254
0.073955
0.061093
0.041801
-0.03537
-0.093248
-0.22186
-0.27331
-0.30547
-0.26045
-0.22186
-0.23473
-0.20257
-0.21543
-0.28617
-0.40193
-0.50482
-0.58842
-0.65916
-0.63344
-0.58199
-0.40193
-0.19614
-0.022508
0.03537
-0.022508
-0.067524
-0.18328
-0.32476
-0.48553
-0.5627
-0.65916
-0.67846
-0.63987
-0.54984
-0.42765
-0.27331
-0.13826
-0.086817
-0.041801
-0.028939
-0.061093
-0.13826
-0.30547
-0.36977
-0.51125
-0.48553
-0.33119
-0.15113
0.041801
0.13183
0.209
0.13183
0.048232
-0.041801
-0.13183
-0.14469
-0.080386
0.0096463
0.03537
0.054662
0.061093
0.0096463
-0.11897
-0.16399
-0.17042
-0.11897
-0.061093
-0.0096463
0.022508
0.0032154
0.03537
0.03537
0.028939
-0.016077
-0.016077
-0.086817
-0.11897
-0.067524
-0.054662
-0.099678
-0.086817
-0.028939
0.15113
0.21543
0.28617
0.2283
0.11897
0.080386
-0.0096463
-0.099678
-0.18328
-0.17685
-0.1254
-0.11897
-0.1254
-0.13183
-0.25402
-0.38264
-0.37621
-0.41479
-0.41479
-0.38907
-0.31833
-0.24759
-0.15756
-0.03537
0.022508
0.067524
0.0096463
-0.0032154
-0.061093
-0.0096463
0.022508
0.016077
-0.041801
-0.080386
-0.061093
-0.073955
-0.03537
-0.016077
-0.016077
-0.067524
-0.093248
-0.022508
-0.016077
0.022508
0.0032154
-0.0096463
-0.061093
-0.041801
0.016077
0.080386
0.15113
0.18328
0.209
0.17685
0.23473
0.22186
0.1254
-0.0032154
-0.10611
-0.19614
-0.27331
-0.22186
-0.14469
0.048232
0.21543
0.36334
0.36977
0.24759
0.15113
0.0096463
-0.16399
-0.30547
-0.36334
-0.33119
-0.24759
-0.14469
-0.080386
-0.0096463
0.061093
0.17042
0.099678
-0.0032154
-0.17685
-0.3119
-0.38907
-0.37621
-0.27974
-0.29904
-0.35691
-0.36977
-0.42122
-0.43408
-0.44695
-0.3955
-0.36334
-0.24759
-0.1254
-0.061093
-0.099678
-0.15113
-0.22186
-0.27331
-0.2283
-0.17042
-0.099678
-0.093248
-0.1254
-0.11897
-0.15756
-0.15113
-0.086817
0.041801
0.14469
0.17685
0.10611
-0.0032154
-0.10611
-0.11254
-0.11897
-0.18328
-0.2283
-0.30547
-0.31833
-0.2926
-0.17042
-0.03537
0.13183
0.25402
0.18971
0.086817
0.03537
0.067524
0.17685
0.25402
0.35048
0.34405
0.33119
0.26688
0.27974
0.27974
0.29904
0.40193
0.43408
0.42765
0.3955
0.45338
0.47267
0.49196
0.49839
0.42122
0.34405
0.19614
0.15113
0.1254
0.15113
0.26045
0.2926
0.31833
0.2926
0.25402
0.1254
0.061093
0.061093
0.11897
0.13826
0.10611
0.099678
0.067524
0.080386
0.067524
-0.073955
-0.209
-0.26688
-0.25402
-0.27331
-0.26688
-0.21543
-0.19614
-0.15756
-0.080386
-0.048232
-0.054662
-0.03537
0.016077
0.080386
0.15113
0.19614
0.15113
0.10611
0.054662
0.15756
0.23473
0.24759
0.24116
0.18971
0.18328
0.2283
0.26688
0.25402
0.20257
0.17685
0.1254
0.073955
0.022508
0.1254
0.24759
0.33762
0.38907
0.26688
0.15756
0.028939
0.016077
0.0032154
-0.067524
-0.093248
-0.073955
0.0096463
0.15756
0.2926
0.2283
0.099678
-0.0032154
-0.067524
-0.11254
-0.11897
-0.11254
-0.080386
-0.0096463
0.067524
0.17685
0.24116
0.32476
0.38907
0.3955
0.45338
0.41479
0.34405
0.18971
0.14469
0.093248
-0.016077
-0.17042
-0.31833
-0.3955
-0.40836
-0.27974
-0.041801
0.11897
0.23473
0.2283
0.18971
0.041801
-0.080386
-0.28617
-0.41479
-0.38907
-0.209
0.099678
0.34405
0.51125
0.53698
0.40836
0.15756
-0.080386
-0.36977
-0.58842
-0.60129
-0.50482
-0.29904
-0.099678
0.0032154
-0.028939
-0.093248
-0.067524
-0.061093
-0.054662
-0.11254
-0.13183
-0.13826
-0.17685
-0.19614
-0.24759
-0.28617
-0.23473
-0.10611
-0.041801
0.028939
0.093248
0.086817
0.067524
0.061093
0.073955
-0.0032154
-0.067524
-0.18328
-0.26045
-0.36334
-0.48553
-0.54984
-0.65916
-0.69775
-0.70418
-0.65273
-0.59486
-0.48553
-0.34405
-0.22186
-0.061093
0.048232
0.11897
0.13826
0.19614
0.22186
0.17042
0.11254
0.054662
0.03537
0.016077
0.086817
0.18328
0.28617
0.35048
0.43408
0.47267
0.49839
0.51768
0.47267
0.41479
0.38264
0.42765
0.44051
0.43408
0.51125
0.51125
0.49839
0.42122
0.33119
0.26045
0.25402
0.38907
0.4791
0.48553
0.43408
0.36334
0.3119
0.25402
0.23473
0.2283
0.25402
0.27331
0.31833
0.24116
0.2926
0.36334
0.47267
0.50482
0.49839
0.50482
0.48553
0.47267
0.48553
0.50482
0.5627
0.63987
0.72347
0.7492
0.7299
0.69775
0.65273
0.54984
0.4791
0.44695
0.45338
0.48553
0.54341
0.48553
0.43408
0.4791
0.48553
0.53055
0.50482
0.4791
0.45338
0.44051
0.51125
0.53698
0.51768
0.33762
0.28617
0.24116
0.26045
0.36334
0.35048
0.26688
0.20257
0.14469
0.14469
0.15113
0.18328
0.16399
0.18328
0.17042
0.18328
0.18328
0.11897
0.073955
0.080386
0.086817
0.18328
0.29904
0.26045
0.21543
0.18971
0.17685
0.17042
0.16399
0.20257
0.27974
0.38907
0.4791
0.50482
0.44695
0.37621
0.37621
0.32476
0.36977
0.42122
0.49196
0.46624
0.40193
0.38264
0.35048
0.33119
0.32476
0.29904
0.27974
0.26688
0.25402
0.17042
0.11254
0.13183
0.1254
0.073955
0.0032154
-0.099678
-0.17042
-0.10611
-0.0032154
0.093248
0.11897
0.10611
-0.0032154
-0.073955
-0.14469
-0.15113
-0.209
-0.26045
-0.2926
-0.35691
-0.40836
-0.41479
-0.34405
-0.24759
-0.2283
-0.15113
-0.17685
-0.20257
-0.23473
-0.27974
-0.28617
-0.28617
-0.209
-0.14469
-0.073955
-0.048232
0.016077
0.048232
0.03537
0.061093
0.080386
0.093248
0.15113
0.2283
0.18328
0.18328
0.17042
0.099678
0.067524
0.086817
0.16399
0.18328
0.14469
0.1254
0.10611
0.0096463
-0.061093
-0.11897
-0.25402
-0.33762
-0.42122
-0.42765
-0.32476
-0.19614
-0.1254
-0.041801
-0.054662
0.061093
0.073955
0.086817
0.093248
0.099678
0.086817
0.13183
0.14469
0.13183
0.048232
0.054662
0.028939
0.0032154
-0.0032154
0.054662
0.028939
-0.048232
-0.11897
-0.21543
-0.25402
-0.29904
-0.27331
-0.19614
-0.13183
-0.028939
-0.016077
-0.03537
-0.099678
-0.073955
-0.067524
-0.061093
-0.067524
-0.067524
-0.099678
-0.093248
-0.048232
-0.067524
-0.11897
-0.16399
-0.19614
-0.22186
-0.27331
-0.26045
-0.30547
-0.2926
-0.25402
-0.209
-0.20257
-0.23473
-0.24759
-0.31833
-0.26045
-0.21543
-0.14469
-0.14469
-0.20257
-0.24116
-0.28617
-0.36334
-0.36334
-0.36977
-0.33119
-0.25402
-0.27331
-0.29904
-0.26688
-0.17685
-0.1254
-0.093248
-0.099678
-0.093248
-0.10611
-0.073955
-0.0096463
0.0032154
-0.061093
-0.073955
-0.11254
-0.13183
-0.15113
-0.22186
-0.2926
-0.33762
-0.26688
-0.23473
-0.26045
-0.26045
-0.22186
-0.19614
-0.22186
-0.21543
-0.21543
-0.18328
-0.11254
-0.028939
0.028939
0.067524
0.13183
0.16399
0.15113
0.061093
0.016077
-0.086817
-0.10611
-0.14469
-0.14469
-0.18971
-0.22186
-0.23473
-0.27974
-0.24116
-0.18971
-0.13183
-0.093248
-0.028939
-0.0032154
-0.028939
-0.028939
0.054662
0.14469
0.18971
0.25402
0.25402
0.18328
0.086817
-0.0032154
-0.080386
-0.15113
-0.18328
-0.21543
-0.18971
-0.11897
-0.016077
0.067524
0.061093
0.11254
0.16399
0.24759
0.33119
0.43408
0.3955
0.33762
0.22186
0.11254
0.041801
0.080386
0.19614
0.26688
0.26688
0.3119
0.34405
0.33762
0.34405
0.37621
0.35691
0.35691
0.33119
0.23473
0.13183
0.061093
0.093248
0.15113
0.27974
0.33762
0.46624
0.52412
0.53055
0.4791
0.32476
0.25402
0.27331
0.3119
0.27974
0.24116
0.18971
0.13183
0.11897
0.11897
0.073955
-0.03537
-0.13183
-0.14469
-0.13183
-0.080386
-0.03537
-0.054662
-0.13826
-0.10611
-0.1254
-0.17042
-0.209
-0.16399
-0.10611
-0.10611
-0.10611
-0.21543
-0.35048
-0.42765
-0.45981
-0.37621
-0.29904
-0.13183
-0.099678
0.0096463
0.022508
-0.0096463
-0.048232
-0.086817
-0.03537
-0.03537
-0.067524
-0.093248
-0.054662
0.022508
0.041801
0.073955
0.073955
0.048232
0.022508
0.093248
0.14469
0.11897
0.03537
-0.1254
-0.209
-0.2283
-0.16399
-0.15756
-0.14469
-0.13826
-0.15756
-0.19614
-0.18971
-0.15113
-0.1254
-0.048232
0.03537
0.1254
0.067524
0.0032154
-0.061093
-0.17685
-0.18971
-0.14469
-0.080386
-0.016077
0.022508
0.080386
0.080386
0.061093
0.067524
0.080386
0.13826
0.26045
0.33119
0.31833
0.24759
0.23473
0.26688
0.27974
0.33119
0.2926
0.21543
0.11254
0.028939
-0.067524
-0.209
-0.26688
-0.3119
-0.3119
-0.32476
-0.28617
-0.21543
-0.16399
-0.048232
-0.022508
-0.086817
-0.14469
-0.22186
-0.28617
-0.32476
-0.25402
-0.21543
-0.2283
-0.21543
-0.28617
-0.38264
-0.4791
-0.53698
-0.57556
-0.54341
-0.49196
-0.31833
-0.19614
-0.14469
-0.16399
-0.15756
-0.1254
-0.11897
-0.11897
-0.21543
-0.209
-0.13826
-0.03537
0.041801
0.073955
0.073955
-0.03537
-0.048232
-0.11897
-0.15756
-0.17042
-0.13826
-0.099678
-0.13826
-0.15756
-0.17685
-0.11254
-0.10611
-0.028939
0.0032154
0.0096463
0.054662
0.093248
0.16399
0.10611
0.022508
-0.086817
-0.22186
-0.20257
-0.14469
-0.073955
-0.099678
-0.13826
-0.26045
-0.36977
-0.3955
-0.36977
-0.30547
-0.32476
-0.27974
-0.32476
-0.36334
-0.41479
-0.38907
-0.38907
-0.34405
-0.27331
-0.25402
-0.28617
-0.36977
-0.3955
-0.44695
-0.48553
-0.50482
-0.55627
-0.53055
-0.46624
-0.3119
-0.23473
-0.1254
-0.086817
-0.086817
-0.11897
-0.15113
-0.24759
-0.41479
-0.59486
-0.59486
-0.53055
-0.40836
-0.34405
-0.34405
-0.42122
-0.44695
-0.44695
-0.40193
-0.33762
-0.24116
-0.18971
-0.20257
-0.33762
-0.40193
-0.43408
-0.43408
-0.33762
-0.2283
-0.073955
0.11897
0.22186
0.27331
0.18971
0.13183
0.067524
-0.016077
-0.067524
-0.13183
-0.11254
-0.14469
-0.016077
0.073955
0.19614
0.31833
0.42765
0.42122
0.35048
0.32476
0.3119
0.27974
0.21543
0.16399
0.11254
0.15756
0.17685
0.11897
-0.016077
-0.13826
-0.14469
-0.086817
0.067524
0.18971
0.20257
0.14469
0.093248
0.093248
0.041801
0.0096463
-0.028939
-0.067524
-0.080386
-0.10611
-0.054662
-0.061093
0.054662
0.18971
0.31833
0.32476
0.33119
0.32476
0.29904
0.27974
0.26045
0.24116
0.19614
0.17685
0.16399
0.15113
0.15756
0.21543
0.29904
0.36977
0.48553
0.54341
0.57556
0.53698
0.49839
0.42122
0.27974
0.209
0.15113
0.086817
0.022508
-0.028939
-0.0096463
0.0032154
0.048232
0.016077
-0.080386
-0.14469
-0.11254
-0.0032154
0.073955
0.22186
0.26688
0.24116
0.13826
0.073955
-0.0096463
0.0096463
0.086817
0.13183
0.18328
0.209
0.2926
0.26045
0.27331
0.27331
0.24116
0.13826
0.054662
0.016077
-0.054662
-0.067524
-0.093248
-0.073955
-0.016077
0.073955
0.22186
0.3119
0.3955
0.42122
0.3955
0.33119
0.24116
0.11897
-0.080386
-0.2283
-0.27331
-0.21543
-0.209
-0.14469
-0.16399
-0.31833
-0.48553
-0.60129
-0.67203
-0.60129
-0.4791
-0.36977
-0.38264
-0.46624
-0.53055
-0.56913
-0.57556
-0.51768
-0.4791
-0.48553
-0.49839
-0.46624
-0.4791
-0.4791
-0.47267
-0.45981
-0.41479
-0.35691
-0.31833
-0.35048
-0.3955
-0.33119
-0.21543
-0.11897
-0.016077
0.099678
0.17042
0.28617
0.38264
0.42122
0.36977
0.23473
0.14469
-0.016077
-0.086817
-0.1254
-0.19614
-0.24759
-0.25402
-0.21543
-0.24116
-0.16399
-0.11897
-0.080386
-0.11254
-0.10611
-0.028939
-0.022508
-0.022508
-0.028939
-0.041801
-0.054662
-0.048232
-0.061093
-0.099678
-0.093248
-0.061093
-0.086817
-0.209
-0.2926
-0.34405
-0.33762
-0.27974
-0.20257
-0.13183
-0.073955
0.03537
0.086817
0.15113
0.20257
0.2283
0.25402
0.209
0.25402
0.31833
0.36977
0.41479
0.41479
0.41479
0.4791
0.60772
0.66559
0.61415
0.4791
0.37621
0.24759
0.209
0.20257
0.19614
0.22186
0.27331
0.35048
0.36977
0.35048
0.38907
0.40193
0.42765
0.44695
0.4791
0.45338
0.45981
0.45981
0.41479
0.33762
0.24759
0.2926
0.28617
0.37621
0.49839
0.61415
0.6463
0.60129
0.41479
0.18328
0.054662
0.073955
0.17685
0.26045
0.31833
0.35691
0.33762
0.28617
0.26688
0.20257
0.1254
0.080386
0.028939
0.0096463
0.0032154
0.061093
0.11897
0.13183
0.16399
0.19614
0.2283
0.27974
0.34405
0.38264
0.40193
0.44695
0.35048
0.22186
0.067524
0.0032154
-0.099678
-0.18328
-0.22186
-0.26045
-0.23473
-0.21543
-0.19614
-0.22186
-0.26688
-0.28617
-0.33119
-0.40193
-0.44695
-0.41479
-0.3955
-0.2926
-0.20257
-0.1254
-0.10611
-0.067524
-0.028939
-0.03537
0.054662
0.16399
0.26688
0.29904
0.29904
0.33119
0.2926
0.33762
0.40836
0.50482
0.53055
0.51768
0.49839
0.46624
0.44695
0.44051
0.44695
0.41479
0.3955
0.37621
0.32476
0.29904
0.26045
0.23473
0.17685
0.093248
-0.022508
-0.18971
-0.25402
-0.22186
-0.093248
-0.022508
0.11254
0.093248
-0.048232
-0.13183
-0.15113
-0.067524
-0.016077
0.03537
-0.028939
-0.067524
-0.11897
-0.0032154
0.099678
0.24116
0.35048
0.29904
0.22186
0.080386
0.041801
-0.022508
-0.067524
-0.067524
-0.073955
-0.11897
-0.17042
-0.16399
-0.17685
-0.067524
0.041801
0.086817
0.022508
-0.11897
-0.28617
-0.44051
-0.3955
-0.27331
-0.13826
-0.11897
-0.073955
0.022508
0.099678
0.13826
0.13183
0.093248
0.022508
-0.03537
-0.15113
-0.27974
-0.40193
-0.45981
-0.4791
-0.53055
-0.4791
-0.47267
-0.45981
-0.43408
-0.42122
-0.3955
-0.42122
-0.38264
-0.36334
-0.37621
-0.35048
-0.36334
-0.41479
-0.4791
-0.43408
-0.42122
-0.38264
-0.36977
-0.28617
-0.26045
-0.28617
-0.26688
-0.36977
-0.46624
-0.59486
-0.68489
-0.76849
-0.81994
-0.8328
-0.87781
-0.85852
-0.77492
-0.61415
-0.49839
-0.42122
-0.36334
-0.35048
-0.36977
-0.42765
-0.44051
-0.42765
-0.33119
-0.20257
-0.093248
-0.0096463
0.093248
0.24116
0.33762
0.34405
0.30547
0.209
0.13826
0.13183
0.17042
0.10611
0.11254
0.11254
0.15113
0.18971
0.23473
0.209
0.18328
0.18328
0.30547
0.46624
0.51768
0.60129
0.5627
0.50482
0.42122
0.32476
0.25402
0.18328
0.24759
0.27974
0.27974
0.27331
0.27974
0.26045
0.19614
0.17685
0.11254
0.016077
-0.067524
-0.18328
-0.24116
-0.36334
-0.40193
-0.43408
-0.45338
-0.45981
-0.41479
-0.36977
-0.32476
-0.24116
-0.19614
-0.15756
-0.17042
-0.19614
-0.28617
-0.33119
-0.3119
-0.27974
-0.25402
-0.26688
-0.24116
-0.2926
-0.30547
-0.33119
-0.40193
-0.46624
-0.40836
-0.27331
-0.1254
-0.028939
0.0032154
0.054662
0.03537
-0.0032154
-0.080386
-0.18971
-0.24116
-0.15113
-0.022508
0.080386
0.16399
0.18328
0.17042
0.20257
0.23473
0.24116
0.13826
0.041801
-0.10611
-0.209
-0.22186
-0.13183
0.016077
0.15113
0.32476
0.37621
0.38264
0.30547
0.21543
0.073955
-0.093248
-0.15113
-0.15113
-0.10611
0.048232
0.19614
0.31833
0.38264
0.45338
0.43408
0.38907
0.33762
0.35691
0.36977
0.40836
0.45338
0.45981
0.49839
0.58199
0.75563
0.82637
0.89711
0.9164
0.90997
0.78778
0.60772
0.42765
0.26688
0.19614
0.18971
0.24759
0.28617
0.38264
0.54341
0.67846
0.80707
0.88424
0.87781
0.78135
0.65273
0.50482
0.36977
0.2926
0.27974
0.27974
0.26688
0.33119
0.41479
0.4791
0.54341
0.55627
0.52412
0.45981
0.38907
0.21543
0.061093
-0.0032154
0.03537
0.17042
0.24759
0.38264
0.41479
0.36977
0.22186
0.11254
0.061093
0.099678
0.21543
0.21543
0.15756
0.0096463
-0.10611
-0.24759
-0.30547
-0.24759
-0.13826
-0.054662
-0.0096463
-0.016077
-0.041801
-0.022508
0.022508
-0.022508
-0.15756
-0.2926
-0.29904
-0.2926
-0.22186
-0.15113
-0.10611
-0.028939
0.099678
0.23473
0.27974
0.2926
0.30547
0.26688
0.15756
0.054662
0.03537
-0.048232
-0.048232
-0.061093
-0.03537
-0.0032154
0.048232
0.093248
0.16399
0.26688
0.35691
0.35691
0.36334
0.44051
0.51125
0.55627
0.53055
0.47267
0.42122
0.33762
0.36977
0.43408
0.51768
0.60772
0.63344
0.59486
0.49839
0.45981
0.36977
0.28617
0.26045
0.28617
0.28617
0.27331
0.25402
0.209
0.17685
0.17042
0.27331
0.33762
0.32476
0.26045
0.15756
0.13183
0.14469
0.25402
0.23473
0.17685
0.10611
0.099678
0.1254
0.17042
0.18971
0.1254
0.13826
0.2283
0.34405
0.3955
0.38907
0.31833
0.18971
0.13826
0.20257
0.2926
0.36977
0.42122
0.38907
0.26045
0.17042
0.1254
0.093248
0.073955
0.099678
0.21543
0.26688
0.29904
0.24759
0.17685
0.067524
0.080386
0.080386
0.067524
0.03537
-0.061093
-0.14469
-0.24116
-0.27331
-0.26688
-0.2283
-0.18971
-0.13183
-0.080386
-0.054662
0.054662
0.093248
0.13183
0.20257
0.30547
0.34405
0.35691
0.34405
0.26688
0.25402
0.23473
0.2283
0.18328
0.11897
0.099678
0.067524
0.016077
-0.093248
-0.17685
-0.32476
-0.37621
-0.34405
-0.28617
-0.209
-0.11254
0.0032154
0.022508
-0.0096463
-0.054662
-0.13183
-0.17042
-0.18328
-0.15756
-0.19614
-0.15113
-0.099678
-0.022508
-0.0032154
0.022508
0.041801
0.048232
0.03537
0.054662
0.048232
0.093248
0.13826
0.15756
0.11897
0.099678
0.054662
0.022508
-0.041801
-0.03537
-0.03537
-0.093248
-0.15113
-0.2283
-0.26688
-0.29904
-0.17685
-0.099678
-0.061093
-0.061093
0.0032154
0.028939
0.061093
0.1254
0.073955
0.080386
0.1254
0.2283
0.3119
0.38264
0.45338
0.4791
0.44051
0.35691
0.32476
0.209
0.13183
0.067524
0.080386
0.15756
0.25402
0.33119
0.3119
0.32476
0.33119
0.36977
0.3119
0.23473
0.26688
0.30547
0.37621
0.38907
0.36977
0.35048
0.3955
0.38264
0.24759
0.061093
0.022508
0.067524
0.13183
0.21543
0.19614
0.15113
0.13183
0.10611
0.061093
-0.0096463
0.0032154
0.022508
-0.0032154
-0.022508
-0.10611
-0.13183
-0.080386
0.041801
0.099678
0.067524
0.041801
0.067524
0.10611
0.11254
0.21543
0.23473
0.24116
0.20257
0.15113
0.054662
-0.054662
-0.093248
-0.086817
-0.048232
-0.0032154
0.054662
0.054662
0.073955
0.073955
0.061093
0.093248
0.15113
0.27974
0.32476
0.37621
0.36977
0.35048
0.28617
0.26045
0.2926
0.27974
0.35048
0.42765
0.47267
0.3955
0.29904
0.24116
0.13826
0.099678
0.080386
0.041801
-0.028939
-0.099678
-0.1254
-0.080386
-0.048232
-0.054662
-0.1254
-0.33119
-0.42765
-0.52412
-0.54984
-0.48553
-0.34405
-0.17042
-0.067524
0.028939
0.016077
0.0096463
0.016077
0.048232
0.1254
0.22186
0.35691
0.38264
0.29904
0.22186
0.080386
-0.028939
-0.16399
-0.2283
-0.20257
-0.17685
-0.1254
-0.093248
-0.11254
-0.080386
-0.041801
-0.048232
-0.14469
-0.27331
-0.32476
-0.37621
-0.34405
-0.32476
-0.26688
-0.209
-0.13826
-0.016077
0.048232
0.080386
0.041801
-0.061093
-0.17042
-0.2283
-0.19614
-0.15756
-0.03537
0.073955
0.080386
-0.0096463
-0.080386
-0.061093
-0.054662
-0.022508
0.061093
0.11897
0.15113
0.13183
0.11254
0.061093
0.048232
0.13183
0.18971
0.22186
0.209
0.086817
-0.067524
-0.19614
-0.22186
-0.17042
-0.18328
-0.11254
-0.086817
-0.0096463
0.048232
0.080386
0.11897
0.099678
0.16399
0.16399
0.15756
0.10611
0.13826
0.18971
0.24759
0.32476
0.3119
0.29904
0.27974
0.31833
0.3119
0.2926
0.33119
0.36334
0.38264
0.41479
0.51125
0.58199
0.71061
0.79421
0.75563
0.66559
0.53698
0.4791
0.35691
0.26688
0.25402
0.2926
0.35048
0.45338
0.53698
0.54984
0.59486
0.66559
0.68489
0.63987
0.56913
0.53698
0.53055
0.58842
0.62058
0.60129
0.46624
0.41479
0.40193
0.45338
0.5627
0.66559
0.68489
0.60129
0.51125
0.42122
0.36334
0.32476
0.28617
0.17685
0.067524
0.048232
0.0032154
-0.028939
-0.054662
0.028939
0.15756
0.23473
0.27331
0.2283
0.15113
0.15113
0.21543
0.26045
0.28617
0.30547
0.25402
0.17685
0.086817
0.028939
-0.022508
0.0032154
0.093248
0.18971
0.24116
0.3119
0.35691
0.33762
0.2926
0.209
0.099678
-0.0032154
-0.080386
-0.1254
-0.18328
-0.17685
-0.099678
0.0032154
0.061093
0.0032154
-0.054662
-0.13826
-0.209
-0.26688
-0.26045
-0.2283
-0.13183
-0.067524
-0.15113
-0.209
-0.2283
-0.17042
-0.18971
-0.23473
-0.34405
-0.38907
-0.32476
-0.14469
-0.028939
0.0096463
0.028939
0.0096463
-0.03537
-0.11254
-0.086817
-0.067524
-0.054662
-0.016077
-0.054662
-0.054662
-0.048232
0.0032154
0.022508
-0.048232
-0.054662
-0.080386
-0.1254
-0.19614
-0.23473
-0.29904
-0.3119
-0.23473
-0.17042
-0.061093
0.022508
0.11897
0.16399
0.21543
0.22186
0.13826
-0.061093
-0.28617
-0.41479
-0.43408
-0.35048
-0.11897
0.054662
0.24116
0.3955
0.49839
0.45338
0.37621
0.24759
0.15113
0.086817
0.073955
0.17042
0.24116
0.27974
0.3119
0.30547
0.26688
0.29904
0.32476
0.37621
0.45338
0.47267
0.3955
0.20257
0.048232
-0.099678
-0.26688
-0.32476
-0.33119
-0.25402
-0.11897
0.13826
0.41479
0.62701
0.71704
0.69132
0.53698
0.33119
0.19614
0.03537
-0.041801
-0.067524
-0.016077
0.048232
0.10611
0.18971
0.25402
0.26688
0.2926
0.27974
0.18328
0.028939
-0.086817
-0.18328
-0.18971
-0.15113
-0.093248
-0.067524
-0.048232
-0.041801
-0.0096463
-0.0032154
0.022508
0.061093
0.022508
0.0096463
-0.03537
-0.022508
-0.03537
0.0096463
0.099678
0.073955
0.054662
0.048232
0.041801
-0.0032154
-0.03537
-0.061093
-0.10611
-0.073955
-0.061093
-0.061093
-0.093248
-0.14469
-0.23473
-0.29904
-0.33762
-0.29904
-0.26045
-0.27974
-0.29904
-0.35691
-0.40193
-0.41479
-0.35691
-0.30547
-0.25402
-0.11897
-0.016077
0.048232
0.080386
0.061093
0.073955
0.099678
0.209
0.3119
0.3955
0.38264
0.38264
0.35048
0.36334
0.43408
0.50482
0.45338
0.36334
0.24759
0.11254
0.022508
-0.016077
-0.14469
-0.24759
-0.33762
-0.3119
-0.34405
-0.25402
-0.14469
0.022508
0.10611
0.14469
0.17685
0.13183
0.10611
0.03537
-0.03537
-0.14469
-0.11897
-0.067524
-0.093248
-0.086817
-0.086817
-0.054662
-0.048232
-0.028939
-0.03537
-0.041801
-0.016077
0.048232
0.086817
0.054662
0.073955
0.054662
0.054662
0.086817
0.13826
0.21543
0.24759
0.27331
0.23473
0.15113
0.067524
0.022508
-0.016077
-0.054662
-0.067524
-0.099678
-0.099678
-0.03537
0.11897
0.22186
0.25402
0.24116
0.11897
-0.054662
-0.17685
-0.24116
-0.26045
-0.23473
-0.13183
0.028939
0.18971
0.26688
0.29904
0.18971
0.10611
-0.0032154
-0.13826
-0.33762
-0.47267
-0.53698
-0.53698
-0.49196
-0.35048
-0.18971
0.0096463
0.17042
0.2926
0.24759
0.1254
-0.048232
-0.19614
-0.29904
-0.27974
-0.2283
-0.24116
-0.24759
-0.25402
-0.21543
-0.18971
-0.17042
-0.18328
-0.21543
-0.2283
-0.2283
-0.26688
-0.42765
-0.59486
-0.77492
-0.92283
-1
-0.94212
-0.85209
-0.7299
-0.51125
-0.32476
-0.14469
-0.016077
0.073955
0.093248
0.080386
0.11254
0.048232
-0.022508
-0.067524
-0.048232
-0.016077
-0.041801
-0.041801
-0.10611
-0.13183
-0.17042
-0.10611
-0.11254
-0.080386
-0.086817
-0.093248
-0.11254
-0.11897
-0.099678
-0.11897
-0.13826
-0.080386
-0.03537
-0.0032154
0.061093
0.1254
0.080386
0.041801
-0.016077
-0.061093
-0.099678
-0.11254
-0.086817
-0.14469
-0.099678
-0.086817
-0.099678
-0.13183
-0.15756
-0.18328
-0.2926
-0.38264
-0.45338
-0.40193
-0.33119
-0.19614
-0.080386
-0.073955
-0.067524
-0.073955
-0.048232
-0.0032154
0.10611
0.16399
0.22186
0.29904
0.40193
0.53698
0.6463
0.78778
0.83923
0.87138
0.86495
0.87138
0.86495
0.80707
0.80707
0.76206
0.67203
0.61415
0.59486
0.53698
0.49839
0.51768
0.51768
0.47267
0.44695
0.38264
0.3119
0.22186
0.18971
0.18328
0.2283
0.27974
0.38264
0.40193
0.44695
0.49839
0.52412
0.51125
0.44695
0.42122
0.37621
0.40193
0.43408
0.45981
0.38907
0.3119
0.24759
0.15756
0.1254
0.15756
0.22186
0.20257
0.18971
0.17685
0.17042
0.15756
0.1254
0.061093
-0.0032154
-0.0032154
0.061093
0.15113
0.29904
0.45981
0.54984
0.50482
0.3955
0.18971
-0.0096463
-0.093248
-0.073955
0.048232
0.15756
0.3119
0.40193
0.41479
0.40836
0.35691
0.24759
0.14469
0.061093
-0.073955
-0.17042
-0.18971
-0.067524
0.041801
0.11254
0.11897
0.086817
0.061093
0.048232
0.048232
-0.054662
-0.1254
-0.099678
-0.15113
-0.18328
-0.2283
-0.209
-0.19614
-0.13826
-0.016077
0.16399
0.31833
0.4791
0.60129
0.60772
0.57556
0.4791
0.31833
0.13183
-0.022508
-0.080386
-0.17685
-0.25402
-0.3119
-0.36334
-0.34405
-0.27974
-0.19614
-0.17042
-0.067524
-0.03537
-0.03537
-0.18328
-0.2926
-0.35048
-0.36334
-0.2926
-0.23473
-0.20257
-0.22186
-0.19614
-0.17042
-0.13826
-0.093248
-0.093248
-0.11254
-0.17042
-0.16399
-0.18971
-0.22186
-0.24759
-0.2283
-0.15756
-0.041801
0.10611
0.14469
0.086817
0.03537
0.0032154
-0.061093
-0.1254
-0.11897
-0.073955
-0.022508
0.0096463
0.080386
0.061093
0.080386
0.13183
0.17685
0.1254
0.0096463
-0.11254
-0.28617
-0.38907
-0.48553
-0.57556
-0.66559
-0.72347
-0.69132
-0.5627
-0.40836
-0.209
-0.13826
-0.10611
-0.093248
-0.086817
-0.15756
-0.17685
-0.17042
-0.16399
-0.2283
-0.27974
-0.30547
-0.30547
-0.26045
-0.14469
-0.03537
-0.0096463
0.016077
-0.0032154
-0.067524
-0.15113
-0.24116
-0.28617
-0.30547
-0.2283
-0.14469
-0.028939
0.03537
0.054662
-0.0096463
-0.093248
-0.041801
-0.041801
-0.061093
-0.11254
-0.1254
-0.086817
-0.054662
0.061093
0.054662
0.067524
0.041801
0.054662
-0.03537
-0.048232
-0.03537
0.054662
0.1254
0.18971
0.25402
0.18328
0.11254
0.054662
0.022508
0.016077
-0.054662
-0.1254
-0.27331
-0.31833
-0.2926
-0.22186
-0.17685
-0.11254
-0.022508
0.0096463
0.067524
0.10611
0.17685
0.20257
0.209
0.20257
0.1254
0.093248
0.054662
0.067524
0.028939
0.061093
0.11897
0.16399
0.23473
0.24116
0.24759
0.209
0.28617
0.32476
0.33119
0.2926
0.21543
0.073955
-0.048232
-0.067524
-0.028939
0.041801
0.054662
0.041801
-0.0096463
-0.028939
0.03537
0.048232
0.073955
0.073955
0.080386
0.061093
0.022508
0.041801
0.022508
0.0032154
0.061093
0.209
0.33119
0.40193
0.42122
0.40193
0.35691
0.3119
0.27974
0.17042
0.054662
-0.016077
-0.03537
-0.0096463
0.080386
0.18328
0.22186
0.27331
0.28617
0.28617
0.24116
0.209
0.22186
0.209
0.2283
0.23473
0.209
0.10611
0.086817
0.099678
0.14469
0.24759
0.33119
0.33762
0.28617
0.18971
0.086817
0.041801
0.061093
0.11897
0.11254
0.061093
0.099678
0.18971
0.3119
0.42122
0.45981
0.37621
0.17685
0.067524
-0.016077
0.0032154
0.054662
0.099678
0.099678
0.061093
0.067524
-0.016077
-0.11897
-0.23473
-0.25402
-0.30547
-0.31833
-0.29904
-0.29904
-0.33119
-0.32476
-0.2926
-0.27331
-0.24759
-0.22186
-0.24759
-0.26045
-0.29904
-0.3119
-0.36334
-0.35048
-0.33119
-0.30547
-0.2926
-0.209
-0.061093
0.022508
0.1254
0.18971
0.18328
0.11254
0.016077
0.054662
0.073955
0.11897
0.11897
0.099678
0.022508
0.03537
0.048232
0.028939
-0.086817
-0.22186
-0.34405
-0.46624
-0.3955
-0.30547
-0.15756
0.028939
0.209
0.29904
0.2926
0.27974
0.17042
0.03537
-0.061093
-0.041801
-0.054662
-0.093248
-0.16399
-0.25402
-0.26688
-0.24116
-0.11897
-0.03537
0.022508
0.073955
0.093248
0.073955
0.067524
0.11897
0.1254
0.15756
0.17685
0.16399
0.13826
0.11897
0.13826
0.073955
0.080386
0.14469
0.24116
0.27974
0.27974
0.31833
0.3119
0.41479
0.51768
0.5627
0.52412
0.44695
0.40193
0.35691
0.42765
0.50482
0.58199
0.58199
0.55627
0.53055
0.48553
0.45338
0.49196
0.59486
0.65916
0.70418
0.58842
0.38264
0.17685
0.041801
0.022508
0.067524
0.24759
0.33119
0.37621
0.34405
0.33762
0.28617
0.24116
0.27331
0.28617
0.31833
0.27974
0.26688
0.24759
0.2926
0.30547
0.31833
0.2926
0.30547
0.30547
0.22186
0.15113
0.13826
0.11897
0.11254
0.061093
0.1254
0.13826
0.15756
0.14469
0.13826
0.11897
0.099678
0.080386
-0.016077
-0.0096463
0.028939
0.041801
0.016077
-0.028939
-0.022508
-0.0096463
0.03537
0.13826
0.2283
0.26688
0.29904
0.33119
0.29904
0.24759
0.21543
0.18971
0.18328
0.18971
0.17042
0.086817
-0.0096463
-0.086817
-0.21543
-0.33762
-0.35048
-0.31833
-0.25402
-0.14469
-0.048232
-0.0096463
-0.0032154
0.073955
0.086817
0.086817
0.03537
-0.0032154
-0.0032154
0.0032154
0.028939
0.022508
0.03537
0.080386
0.17685
0.20257
0.209
0.24116
0.24116
0.25402
0.25402
0.33119
0.3119
0.3119
0.28617
0.19614
0.093248
0.0032154
0.0032154
-0.061093
-0.048232
-0.086817
-0.13826
-0.21543
-0.2283
-0.209
-0.17042
-0.1254
-0.048232
0.016077
0.0032154
-0.086817
-0.24759
-0.42765
-0.43408
-0.33119
-0.18328
-0.10611
-0.10611
-0.13183
-0.17042
-0.10611
0.016077
0.11897
0.18328
0.21543
0.26688
0.28617
0.32476
0.33762
0.29904
0.209
0.15113
0.1254
0.15113
0.18971
0.209
0.23473
0.18971
0.2283
0.18971
0.17042
0.22186
0.28617
0.42765
0.47267
0.55627
0.53698
0.44051
0.33119
0.22186
0.073955
-0.03537
-0.073955
-0.061093
-0.073955
-0.093248
-0.048232
0.028939
0.16399
0.32476
0.3955
0.37621
0.33119
0.28617
0.14469
0.061093
-0.016077
-0.073955
-0.14469
-0.18328
-0.14469
-0.11254
0.0032154
0.086817
0.1254
0.099678
0.048232
0.073955
0.041801
0.0096463
-0.03537
-0.13826
-0.16399
-0.15113
-0.03537
0.028939
0.11897
0.18971
0.24116
0.25402
0.2283
0.11897
-0.067524
-0.17685
-0.22186
-0.19614
-0.15756
-0.041801
0.054662
0.086817
0.073955
0.016077
-0.11254
-0.24116
-0.2283
-0.15756
-0.13183
-0.11254
-0.093248
-0.061093
-0.0096463
0.048232
0.028939
-0.041801
-0.11254
-0.11897
-0.099678
-0.067524
0.0096463
0.028939
-0.022508
-0.099678
-0.11897
-0.099678
-0.016077
0.016077
0.067524
0.086817
0.086817
0.10611
-0.054662
-0.16399
-0.23473
-0.16399
-0.086817
0.0032154
0.086817
0.080386
0.15756
0.209
0.2926
0.26045
0.15756
0.03537
-0.14469
-0.18328
-0.18328
-0.13826
-0.11254
-0.073955
-0.054662
-0.11897
-0.15756
-0.19614
-0.21543
-0.23473
-0.2283
-0.28617
-0.32476
-0.37621
-0.38264
-0.33119
-0.26688
-0.054662
0.13826
0.26045
0.26688
0.209
0.11897
0.0032154
-0.0032154
-0.022508
-0.073955
-0.0096463
0.080386
0.13183
0.099678
0.041801
-0.086817
-0.16399
-0.17685
-0.073955
-0.028939
-0.054662
-0.11897
-0.25402
-0.38264
-0.45981
-0.41479
-0.35048
-0.2283
-0.073955
0.080386
0.16399
0.13183
0.093248
0.03537
0.067524
0.15113
0.16399
0.11254
0.03537
-0.0032154
-0.093248
-0.1254
-0.11897
-0.080386
-0.11897
-0.17042
-0.21543
-0.26688
-0.26688
-0.22186
-0.15756
-0.14469
-0.11897
-0.11254
-0.13826
-0.13183
-0.048232
0.022508
0.067524
0.13183
0.13183
0.11897
0.13826
0.15756
0.21543
0.21543
0.26045
0.22186
0.13826
0.016077
-0.080386
-0.13826
-0.17042
-0.13826
-0.16399
-0.17685
-0.14469
-0.080386
-0.041801
-0.0032154
0.10611
0.15756
0.11897
0.03537
-0.016077
-0.099678
-0.14469
-0.19614
-0.26045
-0.2926
-0.29904
-0.24759
-0.22186
-0.1254
-0.0032154
0.0032154
-0.073955
-0.13826
-0.11897
-0.073955
-0.028939
-0.0096463
0.016077
0.054662
0.11254
0.17685
0.11897
0.073955
0.0096463
-0.028939
-0.14469
-0.16399
-0.16399
-0.15756
-0.13826
-0.067524
-0.016077
-0.03537
-0.048232
-0.13183
-0.2283
-0.22186
-0.20257
-0.17042
-0.21543
-0.27331
-0.38907
-0.54341
-0.58842
-0.56913
-0.44695
-0.33119
-0.1254
-0.0032154
0.022508
-0.0032154
-0.11897
-0.209
-0.27974
-0.27974
-0.30547
-0.26045
-0.2283
-0.13183
-0.054662
-0.054662
0.022508
0.048232
0.041801
0.0032154
0.016077
0.016077
0.0096463
0.041801
0.022508
-0.022508
-0.041801
-0.061093
-0.1254
-0.11254
-0.11254
-0.022508
0.067524
0.10611
0.15756
0.13826
0.11897
0.080386
0.0096463
-0.03537
-0.022508
0.073955
0.093248
0.11897
0.10611
0.080386
-0.016077
-0.10611
-0.15113
-0.21543
-0.23473
-0.24116
-0.23473
-0.21543
-0.15756
-0.11897
-0.13826
-0.17685
-0.17685
-0.1254
-0.093248
-0.041801
-0.054662
-0.14469
-0.209
-0.2283
-0.24759
-0.2926
-0.27331
-0.25402
-0.209
-0.13826
0.048232
0.15756
0.2283
0.26045
0.24116
0.209
0.17042
0.15756
0.11897
0.093248
0.10611
0.11254
0.13826
0.17042
0.20257
0.15756
0.13826
0.14469
0.15756
0.11254
0.061093
0.073955
0.022508
0.041801
0.0032154
-0.03537
-0.10611
-0.18971
-0.15113
-0.11254
0.0096463
0.10611
0.15113
0.080386
0.0032154
-0.061093
-0.11254
-0.080386
0.0096463
0.073955
0.054662
-0.041801
-0.17042
-0.28617
-0.26045
-0.18328
-0.048232
0.0096463
0.099678
0.13826
0.13826
0.18971
0.21543
0.209
0.1254
0.11254
0.0096463
-0.086817
-0.13826
-0.11897
-0.093248
-0.073955
0.028939
0.11254
0.17685
0.14469
0.099678
0.061093
0.028939
0.093248
0.11897
0.14469
0.18328
0.24116
0.25402
0.23473
0.23473
0.19614
0.19614
0.21543
0.30547
0.29904
0.29904
0.27974
0.2926
0.27331
0.2926
0.3119
0.3119
0.33119
0.29904
0.22186
0.15756
0.15113
0.21543
0.18328
0.15756
0.073955
0.016077
-0.022508
0.0032154
0.016077
-0.0032154
-0.048232
-0.022508
0.028939
0.03537
0.03537
-0.0032154
-0.028939
-0.0032154
0.093248
0.14469
0.20257
0.22186
0.23473
0.18328
0.13826
0.13826
0.14469
0.080386
0.016077
-0.099678
-0.16399
-0.18328
-0.15113
-0.099678
-0.086817
-0.022508
-0.054662
-0.14469
-0.26045
-0.32476
-0.3119
-0.27974
-0.24116
-0.23473
-0.209
-0.16399
0.016077
0.11897
0.20257
0.2283
0.17685
0.17042
0.13183
0.14469
0.041801
-0.067524
-0.16399
-0.24759
-0.30547
-0.35048
-0.32476
-0.29904
-0.21543
-0.14469
-0.093248
-0.11897
-0.10611
-0.11897
-0.17042
-0.20257
-0.24759
-0.26688
-0.30547
-0.2926
-0.25402
-0.3119
-0.38264
-0.38907
-0.36334
-0.30547
-0.28617
-0.30547
-0.3119
-0.33119
-0.29904
-0.29904
-0.33119
-0.33762
-0.38264
-0.45981
-0.62058
-0.76206
-0.88424
-0.94855
-0.84566
-0.65273
-0.45981
-0.24116
-0.10611
-0.10611
-0.24759
-0.42765
-0.60129
-0.7492
-0.76206
-0.69132
-0.60772
-0.54341
-0.42765
-0.33762
-0.26688
-0.19614
-0.11254
-0.061093
-0.054662
-0.0096463
0.048232
0.13183
0.20257
0.21543
0.16399
0.18328
0.2283
0.2926
0.33119
0.40193
0.49196
0.49839
0.50482
0.50482
0.47267
0.44695
0.40836
0.3955
0.36977
0.38907
0.42765
0.48553
0.47267
0.51125
0.55627
0.56913
0.54341
0.5627
0.53698
0.50482
0.4791
0.45338
0.40836
0.42122
0.45981
0.51768
0.49839
0.48553
0.38907
0.32476
0.27974
0.30547
0.38907
0.43408
0.62058
0.67846
0.72347
0.72347
0.7299
0.7299
0.63987
0.58199
0.53055
0.53055
0.54984
0.58199
0.54341
0.46624
0.42765
0.38907
0.36977
0.37621
0.3955
0.41479
0.43408
0.50482
0.54341
0.54984
0.53055
0.51768
0.44695
0.44695
0.49839
0.54984
0.57556
0.52412
0.47267
0.37621
0.29904
0.27974
0.22186
0.11897
0.073955
0.080386
0.022508
-0.0032154
-0.016077
-0.03537
-0.093248
-0.15756
-0.2926
-0.42765
-0.52412
-0.52412
-0.43408
-0.3119
-0.16399
-0.086817
-0.028939
0.022508
0.054662
0.067524
-0.0096463
-0.073955
-0.11254
-0.15113
-0.11254
-0.0096463
0.054662
0.11897
0.21543
0.24116
0.27331
0.26045
0.27331
0.20257
0.073955
-0.10611
-0.33119
-0.52412
-0.58199
-0.58842
-0.60129
-0.58199
-0.48553
-0.42122
-0.3955
-0.40193
-0.38907
-0.44051
-0.48553
-0.51768
-0.54984
-0.56913
-0.54984
-0.48553
-0.45338
-0.38907
-0.24116
-0.073955
0.073955
0.17042
0.2283
0.21543
0.27331
0.27974
0.26045
0.17042
0.1254
0.13826
0.11254
0.13183
0.16399
0.18971
0.15756
0.15113
0.13183
0.1254
0.15756
0.18328
0.18328
0.16399
0.13826
0.1254
0.061093
0.061093
0.1254
0.16399
0.15756
0.18328
0.10611
0.054662
0.0032154
0.0096463
0.022508
-0.0032154
-0.0032154
-0.041801
-0.086817
-0.11254
-0.061093
-0.0096463
0.016077
0.061093
0.0096463
-0.061093
-0.13826
-0.093248
-0.028939
0.073955
0.15756
0.14469
0.080386
0.048232
0.048232
0.016077
-0.041801
-0.03537
-0.041801
-0.048232
-0.0096463
0.054662
0.067524
0.11897
0.15113
0.18328
0.42122
