0.27224
0.38005
0.45553
0.43396
0.41779
0.31536
0.2938
0.2938
0.33693
0.42857
0.45013
0.4124
0.43396
0.47709
0.43935
0.42318
0.36388
0.3531
0.24528
0.18598
0.11051
-0.013477
-0.072776
-0.072776
-0.088949
-0.09434
-0.056604
-0.013477
0.088949
0.22372
0.25606
0.20216
0.051213
0.067385
0.056604
0.056604
-0.013477
-0.10512
-0.056604
0.024259
0.15364
0.25067
0.24528
0.15364
0.078167
-0.09434
-0.12668
-0.14286
-0.09973
-0.024259
-0.051213
-0.040431
-0.067385
-0.14286
-0.14286
-0.21294
-0.19137
-0.15903
-0.061995
-0.040431
-0.078167
-0.19137
-0.28841
-0.37466
-0.39623
-0.4124
-0.42318
-0.40701
-0.14286
-0.02965
0.018868
-0.061995
-0.15364
-0.2345
-0.30997
-0.34232
-0.2938
-0.26146
-0.1159
-0.10512
-0.12668
-0.22372
-0.32615
-0.29919
-0.27224
-0.18598
-0.15364
-0.24528
-0.2345
-0.25606
-0.22911
-0.25606
-0.18059
-0.11051
-0.088949
-0.018868
0.024259
0.12668
0.14825
0.19677
0.09973
0.0026954
-0.12129
-0.21833
-0.30997
-0.30458
-0.29919
-0.19677
-0.067385
0.02965
0.21294
0.22911
0.20755
0.051213
-0.088949
-0.24528
-0.32075
-0.33693
-0.35849
-0.20216
0.0080863
0.2345
0.30458
0.40162
0.39623
0.29919
0.14286
-0.15364
-0.34232
-0.48248
-0.48248
-0.30458
-0.14286
0.067385
0.22911
0.26146
0.14825
-0.013477
-0.18598
-0.36388
-0.30458
-0.1752
-0.045822
0.11051
0.20755
0.21833
0.21833
0.09973
-0.040431
-0.15364
-0.20755
-0.25067
-0.27224
-0.29919
-0.2938
-0.27763
-0.19137
-0.13208
-0.040431
0.018868
-0.072776
-0.09973
-0.12668
-0.03504
-0.051213
-0.0080863
0.072776
0.19677
0.33693
0.36927
0.30997
0.12129
-0.02965
-0.13208
-0.072776
-0.0026954
0.067385
0.056604
0.0026954
0.061995
0.1159
0.12129
0.03504
-0.14825
-0.24528
-0.26146
-0.15903
0.0080863
0.040431
0.02965
-0.083558
-0.083558
-0.18059
-0.10512
-0.018868
0.02965
0.051213
0.09973
0.16442
0.13208
0.13747
0.12668
0.11051
0.09434
0.040431
0.067385
0.088949
0.1159
0.10512
0.061995
0.045822
0.14825
0.28302
0.31536
0.3531
0.29919
0.28302
0.12129
0.061995
0.056604
0.12129
0.23989
0.40162
0.44474
0.45013
0.29919
0.1752
0.078167
0.061995
0.09973
0.13747
0.25067
0.36388
0.43935
0.46092
0.33154
0.26685
0.13747
0.13208
0.061995
0.045822
-0.02965
0.056604
0.18598
0.30997
0.36927
0.26685
0.22911
0.09973
0.078167
0.040431
0.11051
0.26146
0.48787
0.63881
0.61725
0.55256
0.42318
0.18598
-0.0080863
-0.067385
-0.040431
-0.03504
0.03504
0.16442
0.33693
0.49326
0.46631
0.3531
0.19137
0.09973
0.040431
0.051213
0.21294
0.3531
0.49865
0.34232
0.27763
0.21294
0.27763
0.30458
0.27763
0.26685
0.27763
0.21833
0.24528
0.2345
0.34771
0.42857
0.42857
0.41779
0.36927
0.30458
0.26685
0.24528
0.45013
0.61725
0.8814
0.97305
0.94609
0.74663
0.531
0.34771
0.26685
0.28302
0.38005
0.44474
0.37466
0.41779
0.36388
0.38005
0.39084
0.44474
0.45553
0.3531
0.2938
0.23989
0.1752
0.14825
0.051213
0.1159
0.10512
0.21294
0.36927
0.42857
0.54178
0.57412
0.57951
0.46092
0.39623
0.27763
0.23989
0.22911
0.20755
0.18059
0.11051
0.056604
0.083558
0.061995
0.067385
0.045822
0.078167
0.11051
0.22372
0.26146
0.30997
0.25606
0.32075
0.34771
0.37466
0.33693
0.28841
0.1752
0.12668
0.056604
0.061995
0.09973
0.18059
0.19677
0.20216
0.2345
0.27763
0.30458
0.21833
0.19677
0.11051
0.14825
0.27224
0.46092
0.52561
0.47709
0.31536
0.19137
0.083558
0.083558
0.09434
0.13747
0.27763
0.54178
0.83827
0.93531
0.85984
0.68733
0.53639
0.48787
0.45553
0.42318
0.38005
0.28841
0.18059
0.12668
0.056604
0.11051
0.1159
0.083558
0.061995
-0.02965
0.0026954
0.072776
0.28841
0.40701
0.42857
0.3531
0.29919
0.28841
0.36388
0.38005
0.45013
0.46631
0.54178
0.48248
0.45013
0.48787
0.63881
0.67116
0.57951
0.44474
0.48787
0.48787
0.56334
0.6496
0.63342
0.69811
0.67655
0.61186
0.62803
0.57412
0.59569
0.55256
0.4717
0.39084
0.1752
0.013477
-0.15364
-0.13208
-0.20755
-0.21294
-0.26685
-0.28841
-0.29919
-0.27224
-0.19137
-0.19677
-0.18598
-0.12668
-0.09973
-0.12668
-0.29919
-0.43396
-0.49326
-0.4124
-0.26146
-0.28302
-0.16981
-0.0026954
0.14825
0.1752
0.12668
0.083558
0.040431
0.018868
0.10512
0.18598
0.2345
0.16981
0.14286
0.09434
0.15903
0.29919
0.34771
0.27224
0.14825
0.13208
0.083558
0.13208
0.09973
-0.018868
-0.12668
-0.2345
-0.045822
0.040431
0.25067
0.27224
0.22911
0.056604
-0.09973
-0.16442
-0.1752
-0.16442
-0.14286
-0.15364
-0.09434
-0.0080863
-0.018868
-0.0080863
0.024259
0.072776
0.13747
0.18598
0.21294
0.24528
0.11051
0.10512
0.09434
0.15903
0.051213
-0.0080863
-0.067385
-0.045822
-0.018868
-0.013477
-0.056604
-0.067385
-0.024259
-0.0080863
0.0026954
0.051213
0.14286
0.25606
0.34232
0.41779
0.43396
0.42318
0.37466
0.31536
0.27763
0.25067
0.31536
0.13747
0.056604
-0.056604
0.0026954
-0.018868
-0.040431
0.0026954
-0.0080863
-0.09434
-0.16981
-0.19137
-0.16981
-0.24528
-0.2938
-0.33693
-0.2938
-0.23989
-0.19137
-0.14825
-0.1752
-0.14825
-0.20755
-0.24528
-0.30997
-0.30458
-0.34232
-0.34771
-0.22372
-0.088949
-0.013477
-0.083558
-0.22372
-0.42857
-0.48248
-0.34771
-0.19677
-0.12668
-0.14286
-0.19137
-0.25606
-0.16981
-0.20755
-0.18059
-0.1752
-0.1159
-0.072776
-0.03504
-0.072776
-0.056604
-0.045822
-0.0026954
0.0080863
0.051213
-0.040431
-0.013477
0.13747
0.22372
0.22372
0.18059
-0.045822
-0.25067
-0.43396
-0.54178
-0.52561
-0.43396
-0.36388
-0.27224
-0.19677
-0.14286
-0.14286
-0.12668
-0.088949
-0.067385
-0.02965
-0.061995
0.0026954
0.056604
0.067385
-0.024259
-0.078167
-0.15364
-0.21833
-0.21294
-0.18598
-0.14825
0.0026954
0.045822
0.14286
0.072776
0.072776
0.051213
-0.024259
-0.056604
-0.09434
-0.10512
-0.083558
0.072776
0.19677
0.27224
0.1159
0.051213
-0.10512
-0.1159
-0.083558
-0.19137
-0.29919
-0.41779
-0.42857
-0.40162
-0.29919
-0.24528
-0.25606
-0.26685
-0.34771
-0.30997
-0.2938
-0.2345
-0.15903
0.024259
0.061995
0.19137
0.22372
0.14286
0.14286
0.09434
0.040431
-0.083558
-0.13208
-0.083558
0.03504
0.02965
0.078167
0.051213
0.10512
0.018868
0.09434
0.09434
0.12129
0.09973
0.045822
-0.013477
-0.02965
-0.03504
-0.072776
-0.061995
0.09973
0.24528
0.29919
0.28841
0.24528
0.16981
0.083558
0.09434
0.11051
0.21294
0.27224
0.25067
0.20216
0.18059
0.18598
0.26685
0.36927
0.47709
0.53639
0.43935
0.38544
0.40162
0.37466
0.33154
0.28302
0.26685
0.2938
0.31536
0.38544
0.34232
0.2345
0.18598
0.15903
0.061995
0.051213
-0.013477
-0.024259
-0.067385
-0.061995
-0.083558
-0.083558
0.024259
0.13747
0.15364
0.18598
0.078167
0.013477
0.0080863
-0.02965
-0.0080863
-0.013477
-0.0080863
0.072776
0.15364
0.15364
0.20216
0.2345
0.25067
0.22372
0.067385
-0.067385
-0.061995
-0.13747
-0.09973
-0.078167
0.0080863
0.15903
0.25067
0.18598
0.15903
0.13747
-0.02965
-0.02965
-0.03504
0.083558
0.061995
0.072776
0.018868
-0.0080863
-0.0080863
0.013477
-0.02965
-0.1752
-0.38544
-0.36927
-0.38544
-0.28841
-0.25067
-0.27763
-0.3531
-0.38544
-0.46092
-0.49865
-0.43396
-0.32075
-0.15903
-0.088949
-0.09434
-0.18598
-0.14825
-0.0080863
0.15903
0.15364
0.02965
-0.11051
-0.21833
-0.29919
-0.33693
-0.3531
-0.44474
-0.46092
-0.39084
-0.30458
-0.20755
-0.19677
-0.15903
-0.15903
-0.09973
-0.0026954
0.12129
0.18598
0.22372
0.25067
0.18598
0.14825
0.067385
0.12129
0.21294
0.22372
0.083558
-0.078167
-0.21833
-0.19677
-0.013477
0.083558
0.18059
0.13747
-0.024259
-0.03504
-0.0026954
-0.03504
-0.12129
-0.18059
-0.16442
-0.056604
0.072776
0.078167
0.09434
0.067385
0.088949
0.14825
0.20755
0.32615
0.40701
0.38005
0.29919
0.2938
0.23989
0.19677
0.21294
0.30458
0.36927
0.36388
0.35849
0.27763
0.34771
0.37466
0.46631
0.45013
0.37466
0.31536
0.2345
0.30458
0.4124
0.54178
0.54717
0.49326
0.4124
0.32075
0.20755
0.19137
0.31536
0.43396
0.55795
0.58491
0.50943
0.30997
0.20216
0.11051
0.09973
0.061995
0.22372
0.2938
0.39084
0.35849
0.29919
0.21294
0.22372
0.24528
0.23989
0.25606
0.43396
0.60647
0.7035
0.54717
0.52022
0.43396
0.48787
0.48787
0.33693
0.13208
-0.0026954
-0.02965
0.0026954
0.024259
0.13208
0.21833
0.27763
0.24528
0.2345
0.10512
0.0026954
-0.1159
-0.10512
0.0026954
0.12129
0.16981
0.22911
0.36388
0.45013
0.46092
0.31536
0.21833
0.1159
-0.072776
-0.15364
-0.18598
-0.24528
-0.21833
-0.2345
-0.088949
-0.061995
-0.013477
0.061995
0.15364
0.15903
0.056604
-0.061995
-0.16981
-0.23989
-0.20755
-0.14286
-0.12129
-0.03504
0.045822
0.15903
0.20755
0.25067
0.24528
0.23989
0.21833
0.33693
0.25606
0.20755
0.045822
-0.045822
-0.040431
0.018868
0.040431
0.0026954
-0.083558
-0.12129
-0.14825
-0.16981
-0.078167
0.0026954
0.067385
0.11051
0.21294
0.16981
0.12668
0.061995
0.045822
-0.051213
-0.13208
-0.056604
0.0026954
0.10512
0.19677
0.26146
0.2345
0.18059
0.056604
-0.02965
-0.12129
-0.18059
-0.22911
-0.15903
-0.0026954
0.15903
0.27763
0.35849
0.40162
0.39623
0.20755
0.12129
-0.056604
-0.15364
-0.13747
-0.061995
0.061995
0.1159
0.13208
0.14825
0.12668
0.072776
0.09434
0.088949
0.1159
0.24528
0.31536
0.28841
0.22911
0.21833
0.20216
0.16442
0.14286
0.067385
0.0080863
0.03504
0.045822
0.20216
0.21833
0.24528
0.19137
0.12129
0.09434
0.11051
0.15364
0.12668
0.16981
0.1159
0.16442
0.19137
0.21833
0.12668
0.072776
0.11051
0.051213
0.13747
0.21294
0.2938
0.25606
0.13208
-0.040431
-0.045822
-0.067385
0.040431
0.13208
0.09973
0.20755
0.26685
0.34771
0.44474
0.48248
0.49326
0.52022
0.50404
0.53639
0.4717
0.30997
0.09434
-0.018868
-0.15903
-0.1752
-0.19677
-0.13747
-0.061995
0.067385
0.09973
0.11051
0.12668
0.14825
0.067385
-0.013477
-0.10512
-0.16442
-0.22911
-0.28841
-0.14286
0.02965
0.20216
0.33154
0.38544
0.39084
0.34232
0.25606
0.13208
0.0026954
-0.040431
-0.056604
-0.1159
-0.14825
-0.30997
-0.37466
-0.40701
-0.30997
-0.16442
-0.12129
-0.09973
-0.1159
-0.16442
-0.21294
-0.27224
-0.32615
-0.36388
-0.40162
-0.39084
-0.52022
-0.54178
-0.52022
-0.50404
-0.55256
-0.58491
-0.531
-0.48787
-0.32075
-0.15364
-0.067385
-0.061995
-0.27763
-0.4124
-0.60108
-0.67116
-0.6442
-0.59569
-0.45013
-0.2938
-0.13747
-0.056604
0.067385
0.024259
-0.0080863
-0.13208
-0.19137
-0.21833
-0.36388
-0.37466
-0.4124
-0.34771
-0.33154
-0.1752
-0.013477
0.14286
0.22911
0.1159
0.045822
-0.045822
-0.083558
-0.09434
-0.15903
-0.10512
0.0026954
0.067385
0.045822
0.024259
-0.040431
-0.018868
-0.12668
-0.1159
-0.1752
-0.12129
0.02965
0.14286
0.20216
0.19137
0.21294
0.19137
0.16981
0.12668
0.067385
0.018868
-0.051213
-0.045822
-0.13747
-0.072776
0.0080863
0.11051
0.09973
0.013477
-0.072776
-0.16981
-0.21833
-0.19677
-0.045822
0.024259
0.1159
0.1159
0.018868
0.061995
0.056604
0.13747
0.25606
0.34232
0.40701
0.39084
0.36927
0.36927
0.3531
0.2938
0.38005
0.34771
0.33693
0.27224
0.23989
0.32615
0.52022
0.75202
0.81132
0.65499
0.46092
0.2938
0.25606
0.15903
0.1159
0.083558
0.18059
0.25067
0.36388
0.42857
0.45553
0.47709
0.43935
0.27224
0.03504
-0.1752
-0.40162
-0.42318
-0.37466
-0.21833
-0.02965
0.16442
0.30997
0.4124
0.50943
0.57412
0.59569
0.531
0.56334
0.56334
0.43935
0.31536
0.12129
0.018868
-0.1159
-0.18598
-0.21833
-0.28302
-0.27224
-0.22372
-0.056604
0.013477
0.088949
0.040431
0.024259
-0.0026954
-0.083558
-0.14825
-0.16442
-0.11051
-0.024259
0.03504
0.0026954
-0.056604
-0.067385
-0.21833
-0.26685
-0.4124
-0.47709
-0.38005
-0.13747
0.10512
0.30458
0.48248
0.50943
0.53639
0.49865
0.49865
0.44474
0.34771
0.33154
0.28302
0.24528
0.15364
0.09434
0.018868
-0.051213
-0.072776
-0.067385
-0.09973
-0.02965
0.040431
0.013477
0.0026954
-0.0080863
0.061995
0.12668
0.15903
0.14286
0.14825
0.30458
0.34771
0.33693
0.11051
-0.0080863
-0.03504
0.0080863
0.072776
0.12129
0.1752
0.20755
0.14286
0.0080863
0.12668
0.24528
0.49865
0.57412
0.46092
0.32615
0.18059
0.045822
0.09973
0.13208
0.1752
0.11051
0.09434
0.19677
0.24528
0.35849
0.40701
0.41779
0.4124
0.36388
0.24528
0.083558
-0.056604
-0.088949
-0.040431
0.03504
0.072776
0.013477
-0.024259
0.024259
0.09434
0.20216
0.23989
0.30458
0.31536
0.25067
0.19677
0.19137
0.19677
0.18598
0.24528
0.27763
0.26685
0.23989
0.2345
0.21833
0.28841
0.38544
0.34771
0.1752
-0.045822
-0.19137
-0.20216
-0.12129
-0.072776
-0.02965
-0.088949
-0.1752
-0.21833
-0.27224
-0.21294
-0.078167
-0.0080863
0.15364
0.2345
0.24528
0.16442
0.03504
0.045822
0.10512
0.078167
0.02965
-0.018868
-0.09973
-0.045822
-0.018868
-0.051213
-0.056604
0.0080863
0.12129
0.19137
0.18598
0.1159
0.09973
0.040431
0.12668
0.14286
0.21833
0.30458
0.38005
0.38544
0.38005
0.27763
0.23989
0.18598
0.18059
0.16442
0.12129
0.13208
0.15903
0.12668
0.045822
0.09434
0.15364
0.14825
0.10512
0.078167
0.061995
0.056604
-0.0080863
0.11051
0.061995
0.10512
0.045822
0.024259
0.0080863
-0.013477
0.0026954
0.0026954
0.051213
0.09434
0.14825
0.083558
0.051213
-0.0080863
-0.013477
0.09973
0.22372
0.29919
0.21294
0.11051
0.040431
-0.02965
0.14286
0.22911
0.33154
0.28841
0.24528
0.13208
0.056604
-0.083558
-0.1159
-0.10512
0.024259
0.21833
0.30997
0.27763
0.16442
0.013477
-0.018868
0.061995
0.21294
0.3531
0.35849
0.22911
0.12668
-0.1159
-0.11051
0.0080863
0.12129
0.26146
0.28841
0.29919
0.2938
0.21294
0.20216
0.15903
0.03504
-0.11051
-0.09973
-0.25606
-0.25067
-0.30458
-0.23989
-0.15364
-0.024259
0.061995
0.13747
0.13208
0.18059
0.20216
0.16981
0.14286
0.09973
0.03504
0.067385
0.051213
0.088949
0.12129
0.15903
0.15364
0.1159
0.09434
0.09434
0.072776
-0.045822
-0.061995
-0.03504
0.072776
0.1159
0.15903
0.09434
-0.045822
-0.18059
-0.30458
-0.30458
-0.18059
0.0026954
0.083558
0.040431
0.0080863
-0.14286
-0.19677
-0.33693
-0.40162
-0.48248
-0.4717
-0.43396
-0.28841
-0.1752
0.0080863
0.2345
0.26685
0.3531
0.35849
0.34232
0.25606
-0.0026954
-0.18059
-0.34232
-0.33154
-0.25067
-0.1752
-0.061995
0.018868
0.13747
0.23989
0.27763
0.28841
0.22372
0.15903
0.12129
0.09973
0.024259
-0.0080863
-0.013477
0.045822
0.03504
0.072776
0.051213
-0.067385
-0.1159
-0.14825
-0.1752
-0.24528
-0.27224
-0.27224
-0.2345
-0.1159
-0.018868
0.12668
0.13747
0.27224
0.22372
0.20755
0.13208
0.12668
0.18598
0.18059
0.16442
0.09973
0.0080863
-0.045822
-0.013477
0.024259
0.061995
0.013477
-0.11051
-0.19677
-0.20755
-0.072776
-0.0080863
0.088949
0.18059
0.29919
0.42318
0.46092
0.46092
0.40162
0.22372
0.09434
0.0026954
-0.045822
-0.11051
-0.072776
-0.061995
0.051213
0.09434
0.09973
0.09973
0.28302
0.38544
0.36388
0.22911
0.14825
0.024259
-0.024259
0.018868
0.072776
0.024259
-0.045822
-0.040431
0.040431
0.09973
0.13747
0.061995
0.088949
0.16981
0.37466
0.59569
0.69811
0.69272
0.55795
0.39623
0.24528
0.14286
0.10512
0.078167
0.21833
0.30997
0.33154
0.32615
0.26685
0.19677
0.16442
0.19137
0.22372
0.2345
0.19137
0.16442
0.15364
0.15364
0.26685
0.24528
0.16442
0.12668
0.056604
0.0026954
-0.088949
-0.15364
-0.16442
-0.15364
-0.15903
-0.2345
-0.32615
-0.35849
-0.2938
-0.19137
-0.16442
-0.19677
-0.2345
-0.26146
-0.12129
0.056604
0.14825
0.056604
-0.067385
-0.26685
-0.45553
-0.59569
-0.61186
-0.53639
-0.40162
-0.28841
-0.1752
-0.11051
0.024259
0.045822
0.024259
0.013477
0.056604
0.024259
-0.10512
-0.22372
-0.22372
-0.20755
-0.22911
-0.25606
-0.30458
-0.34771
-0.29919
-0.15903
-0.018868
0.061995
0.18598
0.22372
0.18598
0.1752
0.10512
0.09973
0.12129
0.15903
0.13747
0.10512
0.14825
0.25067
0.42857
0.531
0.60108
0.50943
0.38005
0.15903
-0.0080863
-0.18598
-0.29919
-0.25606
-0.15903
-0.040431
0.067385
0.13747
0.22372
0.36927
0.48787
0.49865
0.46631
0.34771
0.27763
0.067385
-0.072776
-0.072776
0.013477
0.11051
0.2345
0.21294
0.13208
0.018868
-0.040431
-0.013477
0.013477
0.15364
0.25606
0.26685
0.32075
0.31536
0.28302
0.2345
0.22911
0.32075
0.45013
0.46631
0.4717
0.35849
0.26685
0.12129
0.024259
-0.0026954
-0.018868
0.072776
0.051213
0.072776
0.14825
0.21294
0.26146
0.39623
0.47709
0.57412
0.57951
0.51482
0.53639
0.50404
0.52022
0.54178
0.42857
0.37466
0.3531
0.34232
0.2938
0.20755
0.10512
0.018868
0.013477
0.1159
0.11051
0.1159
0.051213
-0.051213
-0.13747
-0.19677
-0.10512
0.0080863
0.09434
0.12129
0.16981
0.15364
0.061995
0.040431
-0.013477
0.013477
0.072776
0.16981
0.20755
0.14825
0.15903
0.13747
0.078167
0.061995
-0.03504
-0.12129
-0.061995
-0.03504
0.072776
0.12668
0.22911
0.26685
0.24528
0.22911
0.19677
0.16442
0.061995
0.02965
-0.045822
0.0026954
0.040431
0.22372
0.38005
0.48787
0.51482
0.34232
0.18059
0.02965
-0.0080863
-0.03504
-0.061995
-0.10512
-0.078167
-0.0080863
0.18059
0.34771
0.49326
0.53639
0.63342
0.63342
0.51482
0.37466
0.18598
0.10512
0.061995
0.018868
0.09434
0.22911
0.42857
0.62264
0.62264
0.62803
0.51482
0.4717
0.27224
0.23989
0.27224
0.27763
0.37466
0.44474
0.49326
0.4124
0.30458
0.15364
0.1752
0.18059
0.24528
0.27224
0.15903
0.088949
-0.018868
-0.067385
0.0080863
0.051213
0.13208
0.14825
0.1752
0.16981
0.16442
0.21294
0.27224
0.26146
0.1752
0.083558
0.024259
0.03504
0.1752
0.22911
0.23989
0.20755
0.28841
0.33693
0.28302
0.26146
0.23989
0.28302
0.4717
0.52022
0.42318
0.39084
0.38005
0.3531
0.4124
0.45013
0.38005
0.2938
0.051213
-0.09973
-0.22372
-0.14286
-0.1159
-0.088949
-0.024259
0.11051
0.32615
0.38005
0.39084
0.37466
0.2938
0.18598
0.072776
0.083558
0.083558
0.2345
0.25606
0.28302
0.19137
0.16981
0.12129
0.14286
0.16981
0.072776
0.1159
0.18059
0.29919
0.38544
0.38544
0.43935
0.3531
0.27763
0.28302
0.35849
0.35849
0.29919
0.19677
0.30997
0.48787
0.62264
0.69272
0.60108
0.45553
0.36927
0.21294
0.11051
0.02965
0.024259
-0.0080863
0.018868
0.15903
0.20216
0.26685
0.28302
0.39623
0.48248
0.48248
0.40701
0.26146
0.083558
-0.09434
-0.14825
-0.30997
-0.33154
-0.26685
-0.21294
-0.16981
-0.19677
-0.15903
-0.12668
-0.067385
-0.0080863
-0.024259
-0.0080863
0.067385
0.1159
0.14286
0.16442
0.2345
0.30997
0.28841
0.1752
0.02965
-0.16442
-0.20755
-0.26685
-0.28302
-0.24528
-0.15364
-0.078167
-0.23989
-0.40162
-0.46092
-0.29919
-0.078167
0.056604
0.18059
0.13208
0.0026954
-0.024259
-0.09434
0.024259
0.03504
-0.067385
-0.21833
-0.27763
-0.27763
-0.36927
-0.42318
-0.4717
-0.56334
-0.57951
-0.68733
-0.72507
-0.74124
-0.67655
-0.49865
-0.36927
-0.32075
-0.23989
-0.061995
0.14825
0.35849
0.48248
0.49326
0.42857
0.27224
0.061995
-0.12129
-0.21294
-0.18598
-0.083558
-0.12129
-0.22372
-0.34232
-0.47709
-0.47709
-0.531
-0.58491
-0.73046
-0.68733
-0.67116
-0.63342
-0.57951
-0.54717
-0.48787
-0.44474
-0.38005
-0.40701
-0.41779
-0.49326
-0.45553
-0.51482
-0.4717
-0.49865
-0.48787
-0.4717
-0.52561
-0.46631
-0.43935
-0.30458
-0.20216
-0.067385
0.040431
0.10512
0.20216
0.22911
0.2938
0.3531
0.46631
0.43396
0.38544
0.31536
0.18059
0.1159
0.1159
0.14825
0.18059
0.18059
0.1752
0.1159
0.15364
0.2345
0.26685
0.30997
0.32075
0.33154
0.37466
0.43396
0.48248
0.54178
0.45553
0.46631
0.35849
0.29919
0.18598
0.19137
0.26685
0.26146
0.34771
0.34771
0.30458
0.20755
0.09973
0.056604
0.11051
0.25067
0.2938
0.31536
0.36927
0.42318
0.36388
0.16981
0.045822
-0.051213
-0.040431
-0.0080863
0.072776
0.14825
0.19137
0.25067
0.21833
0.19137
0.16442
0.20755
0.088949
0.12129
0.16981
0.34771
0.38544
0.38544
0.40701
0.47709
0.52022
0.53639
0.54717
0.43396
0.46092
0.40701
0.32615
0.2345
0.1159
0.051213
-0.018868
-0.056604
-0.02965
-0.045822
0.02965
0.045822
0.12668
0.16981
0.25067
0.22372
0.14825
0.056604
0.083558
0.14825
0.072776
-0.0026954
-0.056604
-0.061995
0.024259
0.12129
0.23989
0.25606
0.36388
0.32075
0.33154
0.29919
0.28841
0.22372
0.19137
0.21833
0.18598
0.18598
0.14825
0.03504
-0.024259
-0.056604
0.11051
0.2938
0.39623
0.33693
0.32075
0.24528
0.25067
0.2345
0.21833
0.18598
0.15903
0.11051
0.03504
0.072776
0.14825
0.14825
0.072776
-0.0026954
0.14286
0.22911
0.35849
0.40162
0.34232
0.26146
0.2345
0.20755
0.1752
0.15903
0.20216
0.2345
0.32075
0.38005
0.39084
0.31536
0.27224
0.27763
0.23989
0.15903
0.013477
-0.10512
-0.29919
-0.40162
-0.43935
-0.34771
-0.20216
-0.0080863
0.13747
0.13208
0.1159
0.11051
0.11051
0.11051
0.21294
0.24528
0.29919
0.32075
0.31536
0.33154
0.31536
0.24528
0.09434
-0.040431
-0.15364
-0.088949
0.024259
0.13747
0.28302
0.27224
0.25067
0.14286
0.13747
0.0080863
-0.02965
-0.083558
0.078167
0.16981
0.25067
0.36927
0.28841
0.19677
0.1159
0.11051
0.051213
0.02965
0.013477
0.024259
0.10512
0.13747
0.16442
0.1752
0.18059
0.1159
-0.083558
-0.22372
-0.31536
-0.39623
-0.25067
-0.18598
-0.067385
0.013477
0.051213
0.10512
0.12129
-0.018868
-0.13208
-0.27224
-0.28841
-0.22372
-0.15903
-0.061995
-0.02965
0.0080863
-0.040431
-0.14825
-0.22911
-0.21833
-0.14286
-0.12129
-0.040431
-0.051213
-0.078167
-0.072776
0.024259
0.12668
0.24528
0.26146
0.18598
0.13747
0.083558
0.18059
0.23989
0.32075
0.34771
0.40162
0.33693
0.35849
0.38005
0.27763
0.22911
0.09434
-0.018868
-0.12668
-0.15903
-0.13208
-0.03504
-0.13208
-0.24528
-0.30997
-0.27224
-0.09973
0.18059
0.34771
0.50404
0.56334
0.44474
0.16442
-0.024259
-0.18598
-0.25606
-0.28302
-0.26685
-0.13747
-0.013477
0.13747
0.14825
0.12129
0.067385
0.088949
0.067385
0.078167
0.12668
0.13747
0.051213
0.0026954
0.11051
0.28302
0.46092
0.52022
0.4124
0.25067
-0.0026954
-0.18598
-0.2938
-0.26685
-0.083558
-0.018868
-0.078167
-0.19677
-0.19137
-0.16981
-0.061995
0.018868
0.078167
0.1159
0.0080863
-0.02965
-0.11051
-0.16442
-0.12668
-0.13747
-0.13208
-0.12129
-0.024259
0.051213
0.067385
0.040431
-0.078167
-0.15364
-0.2345
-0.27224
-0.36927
-0.43396
-0.35849
-0.2345
0.013477
0.14286
0.33154
0.34232
0.3531
0.19137
-0.040431
-0.2345
-0.18598
0.067385
0.28841
0.51482
0.6442
0.68194
0.54178
0.43396
0.33154
0.32615
0.4124
0.51482
0.58491
0.5903
0.49326
0.38005
0.20755
0.051213
0.045822
0.067385
0.12129
0.18059
0.33693
0.38005
0.42318
0.33693
0.11051
-0.067385
-0.13208
-0.051213
0.15364
0.33693
0.29919
0.10512
-0.1159
-0.14825
-0.083558
-0.045822
0.0026954
-0.040431
-0.083558
-0.10512
-0.083558
-0.040431
-0.056604
-0.02965
0.056604
0.045822
0.13208
0.088949
0.088949
0.051213
-0.024259
0.018868
0.045822
0.11051
0.18059
0.14825
0.10512
0.10512
0.045822
0.067385
-0.024259
-0.03504
-0.10512
-0.15903
-0.088949
-0.088949
-0.16981
-0.41779
-0.59569
-0.74124
-0.81132
-0.72507
-0.58491
-0.37466
-0.11051
0.056604
0.26685
0.28841
0.24528
0.25067
0.15903
0.13747
0.040431
-0.13747
-0.24528
-0.34232
-0.48248
-0.54178
-0.55256
-0.46631
-0.42318
-0.33693
-0.20216
-0.051213
0.03504
-0.024259
-0.09973
-0.21294
-0.19137
-0.18059
-0.1159
-0.12129
-0.18598
-0.22911
-0.32075
-0.39084
-0.30458
-0.14825
-0.0080863
0.040431
0.018868
-0.0026954
0.013477
0.051213
0.051213
0.067385
0.061995
0.024259
0.0080863
0.024259
0.078167
0.078167
-0.16442
-0.22372
-0.26146
-0.2345
-0.083558
0.03504
0.12129
0.15903
0.26146
0.34771
0.4124
0.39623
0.30997
0.36388
0.43935
0.63342
0.73585
0.81671
0.79515
0.63342
0.34232
0.067385
-0.045822
-0.088949
-0.024259
0.13747
0.39084
0.56334
0.57412
0.47709
0.2938
0.19137
0.061995
0.083558
0.061995
0.09434
0.13747
0.26685
0.39623
0.57412
0.74124
0.7035
0.69811
0.71968
0.69811
0.58491
0.40162
0.24528
0.19677
0.25606
0.38005
0.42318
0.44474
0.531
0.54178
0.53639
0.49326
0.42857
0.36388
0.23989
0.28302
0.28302
0.25067
0.26146
0.23989
0.30458
0.40162
0.43396
0.39623
0.34232
0.26146
0.26685
0.2345
0.31536
0.49326
0.66038
0.6496
0.44474
0.26685
0.045822
-0.045822
-0.083558
-0.083558
0.013477
0.09973
0.20755
0.18059
0.12129
0.11051
0.10512
0.18598
0.21833
0.24528
0.19137
0.061995
-0.056604
-0.14286
-0.1159
-0.045822
0.067385
0.1159
0.16981
0.25067
0.34232
0.34771
0.38005
0.33693
0.2938
0.21294
0.056604
0.0080863
-0.09973
-0.056604
0.040431
0.024259
0.16981
0.25606
0.35849
0.40701
0.34232
0.21294
0.018868
-0.14825
-0.1752
-0.14825
-0.061995
0.22911
0.42857
0.49865
0.38544
0.19677
-0.088949
-0.2345
-0.39084
-0.53639
-0.54717
-0.39623
-0.18598
0.078167
0.26685
0.49326
0.55795
0.54178
0.34771
0.18598
-0.09973
-0.36927
-0.51482
-0.46631
-0.28302
-0.14825
-0.061995
0.018868
0.09434
0.19677
0.21294
0.26685
0.28302
0.27224
0.1159
-0.13208
-0.42318
-0.66038
-0.82749
-0.85445
-0.69272
-0.55795
-0.25067
0.0026954
0.27224
0.4124
0.50404
0.50943
0.36927
0.19137
0.013477
-0.13208
-0.23989
-0.32075
-0.41779
-0.39623
-0.27224
0.018868
0.25067
0.42318
0.47709
0.45553
0.28841
0.1752
0.078167
-0.088949
-0.32075
-0.59569
-0.84367
-1
-0.83827
-0.59569
-0.28841
-0.083558
-0.061995
-0.09434
-0.18598
-0.33154
-0.37466
-0.42318
-0.49865
-0.49865
-0.48787
-0.30458
-0.09973
-0.02965
-0.13208
-0.2345
-0.19677
-0.083558
0.067385
0.09434
0.12129
0.024259
-0.024259
0.0080863
-0.0080863
-0.11051
-0.24528
-0.28841
-0.29919
-0.33154
-0.39084
-0.44474
-0.48248
-0.38005
-0.32615
-0.21294
-0.16981
-0.14286
-0.15903
-0.13747
-0.061995
0.018868
0.024259
0.051213
0.040431
0.18059
0.25606
0.28302
0.24528
0.22911
0.27763
0.33154
0.33154
0.34232
0.39623
0.33693
0.26685
0.20216
0.27224
0.38005
0.40162
0.43935
0.39084
0.39623
0.43396
0.45013
0.45013
0.38005
0.46631
0.56873
0.61725
0.62264
0.531
0.38544
0.33154
0.27763
0.37466
0.34771
0.31536
0.23989
0.10512
-0.024259
-0.078167
-0.13747
-0.09973
-0.15903
-0.16981
-0.15903
-0.067385
0.15364
0.2938
0.40701
0.40162
0.38544
0.20216
0.12668
0.12129
0.19137
0.18059
0.12129
0.16981
0.22372
0.30458
0.3531
0.39623
0.42857
0.40162
0.25606
0.09434
0.02965
0.0080863
0.061995
0.051213
0.21833
0.31536
0.30997
0.33693
0.45553
0.53639
0.531
0.40701
0.20216
0.10512
0.13208
0.18059
0.21294
0.14825
0.083558
0.078167
0.10512
0.19137
0.20755
0.18059
0.083558
-0.051213
-0.16981
-0.2345
-0.21833
-0.18059
-0.088949
0.061995
0.31536
0.36927
0.31536
0.22911
0.23989
0.23989
0.2938
0.25606
0.14286
0.03504
0.040431
0.1159
0.20216
0.33154
0.38544
0.38005
0.22372
0.20755
0.24528
0.26146
0.28841
0.20216
0.20755
0.13747
0.10512
-0.013477
-0.088949
-0.083558
0.09973
0.26146
0.39623
0.38544
0.32615
0.22372
0.15903
0.045822
-0.013477
0.0026954
0.02965
0.088949
0.045822
-0.024259
-0.14286
-0.48248
-0.6442
-0.6442
-0.4717
-0.34771
-0.34771
-0.40701
-0.57412
-0.70889
-0.71968
-0.61186
-0.46092
-0.26146
-0.10512
-0.040431
0.061995
0.088949
0.1159
0.072776
0.09434
0.1752
0.29919
0.36927
0.36388
0.26685
0.25606
0.27763
0.28841
0.21833
0.051213
-0.078167
-0.16442
-0.26685
-0.21833
-0.072776
0.045822
0.1752
0.18059
0.22372
0.15364
0.16981
0.10512
0.12129
0.15364
0.26146
0.3531
0.30997
0.36927
0.30458
0.23989
0.14825
0.10512
0.13747
0.16442
0.18059
0.14825
0.16442
0.28302
0.4717
0.5903
0.63881
0.57412
0.50404
0.36388
0.16981
0.056604
-0.018868
-0.024259
-0.024259
0.078167
0.067385
0.14825
0.19137
0.20755
0.15364
0.11051
0.067385
0.083558
0.12668
0.045822
-0.03504
-0.09973
-0.15364
-0.12668
-0.16442
-0.1159
-0.09973
-0.20216
-0.19137
-0.16981
-0.0026954
0.12668
0.15364
0.072776
-0.088949
-0.26146
-0.32615
-0.39084
-0.42857
-0.4124
-0.33693
-0.2938
-0.21294
-0.13747
0.0080863
0.018868
-0.018868
-0.09973
-0.20755
-0.24528
-0.28841
-0.32615
-0.38005
-0.27224
-0.18059
-0.0026954
0.078167
0.09434
0.018868
-0.13208
-0.26685
-0.38544
-0.42318
-0.34771
-0.20216
0.056604
0.2345
0.37466
0.27763
0.09434
0.018868
-0.09973
-0.19677
-0.35849
-0.45553
-0.39623
-0.36388
-0.38544
-0.21833
-0.13747
0.14825
0.25606
0.25067
-0.0026954
-0.24528
-0.45553
-0.61725
-0.62264
-0.59569
-0.49865
-0.38544
-0.21833
-0.051213
0.0026954
0.040431
0.1159
0.19137
0.16442
0.16981
0.11051
0.051213
0.03504
0.018868
-0.045822
-0.13208
-0.22372
-0.32075
-0.29919
-0.21294
-0.061995
-0.03504
-0.0080863
-0.067385
-0.13208
-0.14286
-0.12129
-0.0080863
0.013477
-0.0080863
-0.013477
-0.11051
-0.19677
-0.33693
-0.34771
-0.33154
-0.15903
-0.0026954
0.0026954
-0.1752
-0.38544
-0.48787
-0.46092
-0.3531
-0.14825
0.0026954
0.11051
0.078167
0.02965
-0.14825
-0.14825
-0.051213
0.013477
0.045822
-0.0080863
0.1159
0.21294
0.32615
0.25606
0.19137
0.13208
0.09434
0.12129
0.088949
0.088949
0.14825
0.15903
0.12668
0.03504
0.09973
0.1752
0.22372
0.27224
0.22911
0.15364
0.19137
0.1752
0.28302
0.30997
0.41779
0.39623
0.3531
0.32615
0.25067
0.28302
0.2938
0.35849
0.34232
0.32615
0.28302
0.22372
0.20755
0.18059
0.32075
0.25606
0.20755
0.15903
0.15364
0.1752
0.09973
0.11051
0.13208
0.25606
0.2345
0.22911
0.20755
0.26146
0.43396
0.39084
0.52022
0.55795
0.57412
0.50404
0.34771
0.26685
0.14286
0.11051
0.16442
0.27763
0.42857
0.44474
0.39623
0.38544
0.46631
0.56334
0.66577
0.66577
0.68733
0.66038
0.53639
0.46092
0.43396
0.38544
0.35849
0.3531
0.43935
0.53639
0.63881
0.72507
0.84906
0.95148
1
0.92453
0.65499
0.52561
0.4717
0.49326
0.44474
0.38544
0.30997
0.28302
0.3531
0.43396
0.51482
0.55256
0.51482
0.40701
0.25606
0.21833
0.15364
0.067385
-0.040431
-0.11051
-0.088949
-0.056604
-0.051213
-0.0080863
-0.03504
-0.040431
0.02965
0.12129
0.23989
0.30458
0.38005
0.31536
0.25067
0.2938
0.22911
0.19137
0.024259
-0.072776
-0.09973
-0.067385
0.024259
-0.0080863
-0.051213
-0.16442
-0.22911
-0.29919
-0.28302
-0.19677
-0.12129
-0.15364
-0.067385
-0.13208
-0.14825
-0.16442
-0.19677
-0.21833
-0.2938
-0.27224
-0.22372
-0.19137
-0.1159
-0.078167
0.051213
0.072776
0.018868
0.067385
0.072776
0.14825
0.10512
0.09973
0.10512
0.14286
0.14286
0.1752
0.29919
0.38544
0.34771
0.33693
0.33693
0.32075
0.28841
0.18059
0.12668
-0.0026954
-0.072776
0.0080863
0.040431
0.088949
0.14825
0.2345
0.28841
0.33693
0.26685
0.1159
0.040431
0.03504
0.045822
0.072776
0.045822
0.09973
0.10512
0.083558
0.03504
0.12129
0.15364
0.32075
0.41779
0.43396
0.33154
0.19137
0.02965
-0.13208
-0.14286
0.03504
0.23989
0.40162
0.50404
0.56873
0.51482
0.42857
0.33154
0.2938
0.31536
0.43935
0.46092
0.45013
0.33154
0.28302
0.33154
0.2938
0.34771
0.32075
0.26685
0.22372
0.09973
0.040431
0.14286
0.37466
0.55256
0.57412
0.50943
0.51482
0.42857
0.39084
0.40162
0.36388
0.25067
0.13208
0.16442
0.25606
0.39623
0.47709
0.52022
0.43935
0.4124
0.36927
0.27224
0.13747
0.024259
-0.013477
0.0026954
0.09973
0.23989
0.32075
0.45553
0.57951
0.66038
0.7035
0.6496
0.44474
0.25067
0.15903
0.19137
0.28302
0.20755
0.09434
0.040431
0.02965
0.09973
0.13747
0.12668
0.1159
0.19137
0.18598
0.040431
-0.12668
-0.2938
-0.27763
-0.1752
-0.03504
-0.018868
-0.03504
-0.056604
0.09434
0.18059
0.20216
0.12668
0.018868
-0.0080863
-0.09973
-0.21833
-0.26685
-0.27763
-0.19137
-0.13747
-0.16981
-0.23989
-0.18598
-0.12129
-0.0080863
-0.0026954
0.0026954
-0.061995
-0.10512
-0.16981
-0.18598
-0.16981
-0.12668
-0.09434
-0.13208
-0.10512
-0.0026954
0.083558
0.22372
0.25067
0.27763
0.27224
0.21294
0.088949
-0.13747
-0.36388
-0.39623
-0.33693
-0.27763
-0.1752
-0.2345
-0.10512
0.024259
0.20216
0.33693
0.36927
0.40701
0.30458
0.18059
0.051213
0.10512
0.09434
0.09434
-0.013477
0.0080863
0.0080863
-0.024259
-0.0026954
-0.045822
0.0026954
0.16442
0.24528
0.32615
0.26146
0.12129
-0.09434
-0.23989
-0.29919
-0.30997
-0.28841
-0.27763
-0.23989
-0.18059
-0.12129
-0.061995
-0.051213
-0.18059
-0.2938
-0.34232
-0.33693
-0.27224
-0.25606
-0.16981
-0.083558
0.0026954
0.051213
-0.018868
-0.0080863
-0.10512
-0.03504
-0.061995
0.018868
0.067385
0.088949
0.067385
0.061995
0.051213
0.0026954
0.051213
0.061995
0.14286
0.19137
0.26146
0.26146
0.12668
-0.0026954
-0.12668
-0.20755
-0.09434
0.02965
0.18059
0.2345
0.32075
0.26146
0.18598
0.051213
0.018868
0.02965
-0.0080863
-0.051213
-0.13208
-0.20755
-0.18598
-0.10512
-0.061995
0.051213
0.018868
-0.078167
-0.20755
-0.1752
-0.15903
-0.15364
-0.09973
-0.03504
0.018868
0.024259
0.024259
0.14286
0.18598
0.21833
0.25606
0.25606
0.30458
0.26146
0.27224
0.1752
0.078167
0.10512
0.051213
0.12129
0.22911
0.33693
0.39084
0.27763
0.09973
-0.03504
-0.018868
0.09434
0.33154
0.43396
0.531
0.54717
0.53639
0.531
0.46631
0.43396
0.4124
0.45553
0.39623
0.25067
0.09973
0.09973
0.19677
0.25606
0.30458
0.38005
0.34771
0.3531
0.3531
0.40162
0.36927
0.27763
0.16442
0.051213
-0.024259
-0.018868
0.061995
0.10512
0.14825
0.14286
0.083558
0.0026954
0.013477
0.013477
0.051213
0.03504
0.0080863
0.0026954
0.12668
0.30458
0.37466
0.36927
0.32075
0.28302
0.045822
-0.15903
-0.33154
-0.34232
-0.27224
-0.14825
0.045822
0.13208
0.13208
-0.045822
-0.22911
-0.34232
-0.31536
-0.19677
-0.03504
0.13747
0.29919
0.36927
0.32075
0.23989
0.10512
-0.03504
-0.18598
-0.21833
-0.24528
-0.20755
-0.16981
-0.11051
-0.051213
-0.051213
0.0026954
-0.0080863
-0.024259
-0.09434
-0.20216
-0.29919
-0.27763
-0.20755
-0.088949
0.024259
0.061995
0.078167
0.040431
-0.056604
-0.22911
-0.44474
-0.45553
-0.34232
-0.24528
-0.16981
-0.16981
-0.045822
0.024259
0.067385
0.10512
0.067385
0.072776
0.15903
0.27224
0.39084
0.43935
0.44474
0.47709
0.39084
0.36927
0.30997
0.32075
0.32075
0.36388
0.39623
0.42318
0.43935
0.44474
0.45013
0.36388
0.3531
0.27224
0.15903
-0.013477
-0.10512
-0.19677
-0.14825
-0.23989
-0.30997
-0.45013
-0.42318
-0.46092
-0.51482
-0.51482
-0.40701
-0.30458
-0.26146
-0.072776
0.040431
0.2345
0.27224
0.26685
0.25067
0.30458
0.40701
0.52022
0.42318
0.4124
0.26685
0.14286
0.09434
0.045822
-0.03504
-0.1159
-0.09434
-0.0080863
0.051213
0.09434
0.12668
0.10512
-0.061995
-0.18059
-0.27763
-0.27763
-0.22372
-0.14286
-0.10512
-0.083558
-0.1159
-0.15903
-0.23989
-0.25606
-0.25606
-0.18059
-0.16981
-0.056604
-0.051213
-0.09973
-0.088949
-0.12668
-0.16981
-0.21294
-0.27224
-0.25067
-0.24528
-0.18059
-0.072776
-0.040431
-0.16442
-0.16981
-0.24528
-0.18598
-0.25067
-0.26146
-0.26146
-0.13208
0.061995
0.16981
0.10512
-0.072776
-0.14825
-0.088949
0.045822
0.14825
0.13208
0.061995
0.024259
0.083558
0.083558
0.024259
-0.088949
-0.19137
-0.27763
-0.29919
-0.31536
-0.24528
-0.18598
-0.067385
0.0080863
-0.02965
-0.02965
-0.09434
-0.16442
-0.21294
-0.2345
-0.24528
-0.26146
-0.30997
-0.31536
-0.28302
-0.2345
-0.18059
-0.16981
-0.25067
-0.25606
-0.25067
-0.25606
-0.20216
-0.16981
-0.22911
-0.30997
-0.40701
-0.40162
-0.35849
-0.26685
-0.19677
-0.078167
-0.11051
-0.10512
-0.25067
-0.37466
-0.38544
-0.3531
-0.23989
-0.15903
-0.024259
0.0026954
-0.040431
-0.083558
-0.10512
-0.1159
-0.10512
-0.03504
0.013477
0.03504
-0.040431
-0.0080863
0.024259
0.11051
0.15903
0.11051
-0.024259
-0.11051
-0.1159
-0.14825
-0.09973
0.056604
0.20755
0.3531
0.41779
0.45013
0.43396
0.31536
0.19137
0.12129
0.15903
0.25606
0.24528
0.20216
0.13747
0.051213
-0.02965
-0.14286
-0.15903
-0.013477
0.1159
0.30458
0.41779
0.49326
0.42318
0.39623
0.26146
0.12668
0.056604
0.067385
0.15903
0.27763
0.4124
0.46631
0.37466
0.26685
0.14286
0.061995
0.02965
-0.0026954
0.024259
0.061995
0.061995
0.10512
0.061995
0.0026954
0.09434
0.15364
0.29919
0.38005
0.48787
0.38005
0.23989
0.14825
0.13747
0.18598
0.33154
0.49326
0.62264
0.5903
0.50943
0.37466
0.23989
0.19137
0.21294
0.14825
0.16442
0.21294
0.2938
0.38544
0.42857
0.52561
0.56873
0.67116
0.57412
0.48787
0.27763
0.12129
0.051213
0.09434
0.051213
0.12668
0.13747
0.23989
0.32615
0.37466
0.4124
0.45553
0.46631
0.51482
0.3531
0.2345
-0.072776
-0.30997
-0.43935
-0.45553
-0.32075
-0.23989
0.0026954
0.15364
0.30458
0.4124
0.58491
0.68733
0.69272
0.58491
0.32615
0.03504
-0.20216
-0.33154
-0.45013
-0.42857
-0.33154
-0.1752
-0.040431
-0.11051
-0.051213
0.013477
0.26146
0.52561
0.58491
0.531
0.32075
0.16981
-0.03504
-0.2345
-0.38005
-0.4717
-0.48248
-0.27224
-0.051213
0.1159
0.27763
0.38544
0.47709
0.45013
0.40701
0.41779
0.37466
0.38544
0.35849
0.27224
0.20216
0.27763
0.36388
0.43396
0.2938
0.16981
0.067385
0.09434
0.1752
0.2345
0.27224
0.30458
0.32615
0.27763
0.28841
0.33693
0.43935
0.54178
0.56334
0.531
0.54717
0.56334
0.6496
0.74663
0.72507
0.69811
0.7035
0.68733
0.74663
0.79515
0.67655
0.47709
0.36927
0.2938
0.34232
0.36388
0.29919
0.30458
0.28302
0.31536
0.27224
0.14286
0.15903
0.18598
0.24528
0.19137
0.078167
-0.0026954
-0.10512
-0.09434
-0.09973
-0.09973
-0.1752
-0.33154
-0.40162
-0.46092
-0.37466
-0.27224
-0.16981
-0.11051
-0.013477
0.045822
0.083558
0.088949
0.11051
0.16442
0.20216
0.28841
0.2938
0.28841
0.18598
0.15364
0.072776
-0.0080863
0.045822
0.067385
0.16442
0.18059
0.18598
0.22911
0.2938
0.31536
0.26146
0.19677
0.12129
0.20216
0.27763
0.34232
0.35849
0.30458
0.24528
0.22911
0.21833
0.15903
0.19677
0.30458
0.46092
0.47709
0.48787
0.46631
0.45553
0.49865
0.46631
0.28302
0.09434
0.0080863
0.056604
0.088949
0.024259
0.088949
0.088949
0.15364
0.13747
-0.024259
-0.11051
-0.12668
-0.1159
-0.067385
-0.088949
-0.0080863
0.09973
0.38544
