0.2766
0.46099
0.51773
0.37589
0.078014
-0.16312
-0.46099
-0.51773
-0.44681
-0.23404
-0.092199
0.035461
0.20567
0.078014
-0.021277
-0.049645
0.092199
0.19149
0.21986
0.26241
0.13475
0.078014
-0.049645
-0.21986
-0.33333
-0.41844
-0.50355
-0.67376
-0.85816
-0.84397
-0.75887
-0.67376
-0.51773
-0.47518
-0.50355
-0.51773
-0.51773
-0.51773
-0.50355
-0.3617
-0.23404
-0.16312
-0.20567
-0.20567
-0.21986
-0.29078
-0.21986
-0.13475
-0.035461
0.10638
0.26241
0.2766
0.12057
-0.0070922
-0.16312
-0.31915
-0.30496
-0.1773
-0.19149
-0.31915
-0.34752
-0.3617
-0.24823
-0.26241
-0.13475
-0.14894
-0.16312
-0.10638
-0.035461
-0.049645
0.021277
0.21986
0.24823
0.37589
0.47518
0.50355
0.31915
0.092199
0.021277
-0.0070922
0.20567
0.37589
0.47518
0.37589
0.12057
-0.078014
-0.21986
-0.20567
-0.06383
-0.0070922
0.0070922
0.049645
0.092199
0.021277
0.10638
0.16312
0.078014
0.0070922
0.06383
0.12057
0.06383
-0.049645
-0.1773
-0.1773
-0.23404
-0.021277
0.16312
0.30496
0.41844
0.44681
0.44681
0.29078
0.37589
0.29078
0.19149
0.078014
0.06383
0.092199
0.13475
0.20567
0.1773
0.20567
0.20567
0.14894
0.16312
0.1773
0.31915
0.53191
0.7305
0.70213
0.48936
0.31915
0.092199
-0.0070922
0.092199
0.26241
0.31915
0.2766
0.2766
0.30496
0.39007
0.60284
0.70213
0.65957
0.46099
0.20567
-0.13475
-0.31915
-0.39007
-0.31915
-0.30496
-0.21986
-0.06383
0.035461
0.092199
0.16312
0.16312
0.14894
0.21986
0.26241
0.20567
0.1773
0.14894
0.13475
-0.092199
-0.24823
-0.23404
-0.078014
0.20567
0.51773
0.63121
0.56028
0.44681
0.2766
0.092199
-0.049645
-0.035461
-0.078014
-0.13475
-0.078014
-0.092199
-0.092199
0.021277
0.1773
0.3617
0.3617
0.37589
0.34752
0.29078
0.24823
0.3617
0.31915
0.33333
0.3617
0.29078
0.092199
-0.0070922
0.0070922
-0.049645
0.035461
0.20567
0.31915
0.26241
0.1773
0.10638
-0.092199
-0.20567
-0.24823
-0.29078
-0.24823
-0.31915
-0.3617
-0.41844
-0.33333
-0.14894
-0.021277
-0.035461
-0.06383
-0.078014
-0.13475
-0.06383
0.12057
0.34752
0.34752
0.31915
0.092199
-0.06383
-0.13475
0.021277
0.26241
0.40426
0.47518
0.31915
-0.06383
-0.41844
-0.48936
-0.39007
-0.19149
0.0070922
0.20567
0.23404
0.31915
0.30496
0.34752
0.34752
0.41844
0.39007
0.33333
0.31915
0.33333
0.21986
0.092199
0.049645
0.0070922
-0.12057
-0.1773
-0.0070922
0.049645
0.20567
0.2766
0.26241
0.14894
-0.0070922
-0.12057
-0.31915
-0.33333
-0.30496
-0.2766
-0.39007
-0.47518
-0.39007
-0.39007
-0.26241
-0.13475
-0.06383
-0.13475
-0.1773
-0.20567
-0.33333
-0.30496
-0.21986
-0.10638
-0.16312
-0.34752
-0.47518
-0.44681
-0.19149
0.021277
0.1773
0.035461
0.049645
-0.092199
-0.29078
-0.53191
-0.58865
-0.40426
-0.16312
0.23404
0.37589
0.34752
0.1773
0.13475
0.12057
-0.0070922
-0.092199
-0.23404
-0.43262
-0.5461
-0.43262
-0.39007
-0.29078
-0.12057
0.06383
0.21986
0.13475
0.10638
0.06383
0.20567
0.48936
0.65957
0.70213
0.60284
0.50355
0.29078
0.14894
0.16312
0.23404
0.31915
0.31915
0.29078
0.23404
0.21986
0.30496
0.2766
0.14894
0.10638
0.23404
0.24823
0.31915
0.10638
-0.06383
-0.1773
-0.14894
0.021277
0.12057
0.23404
0.33333
0.3617
0.33333
0.33333
0.29078
0.2766
0.21986
0.26241
0.29078
0.30496
0.44681
0.44681
0.34752
0.20567
0.19149
0.1773
0.14894
0.12057
0.092199
0.035461
0.049645
0.06383
0.1773
0.23404
0.51773
0.57447
0.48936
0.30496
0.26241
0.19149
0.12057
0.12057
0.049645
0.092199
0.20567
0.48936
0.53191
0.51773
0.41844
0.23404
-0.0070922
-0.21986
-0.2766
-0.44681
-0.51773
-0.47518
-0.39007
-0.21986
-0.021277
0.30496
0.31915
0.43262
0.41844
0.24823
0.035461
-0.078014
-0.021277
0.021277
0.049645
-0.049645
-0.06383
-0.1773
-0.13475
-0.10638
-0.19149
-0.23404
-0.1773
-0.049645
0.035461
0.1773
0.33333
0.31915
0.31915
0.26241
0.31915
0.34752
0.43262
0.40426
0.21986
-0.035461
0.0070922
0.06383
0.21986
0.43262
0.44681
0.39007
0.34752
0.53191
0.56028
0.46099
0.31915
0.078014
-0.14894
-0.30496
-0.33333
-0.2766
-0.06383
0.23404
0.39007
0.44681
0.40426
0.47518
0.41844
0.37589
0.37589
0.2766
0.16312
-0.06383
-0.12057
-0.26241
-0.23404
-0.1773
-0.10638
-0.092199
-0.06383
0.049645
0.049645
0.10638
0.21986
0.34752
0.29078
0.20567
0.13475
-0.049645
-0.14894
-0.1773
-0.12057
-0.078014
-0.06383
0.049645
0.13475
0.1773
0.23404
0.19149
-0.078014
-0.23404
-0.43262
-0.60284
-0.63121
-0.56028
-0.46099
-0.39007
-0.13475
-0.035461
-0.078014
-0.24823
-0.46099
-0.65957
-0.71631
-0.51773
-0.30496
-0.16312
-0.14894
-0.13475
-0.19149
-0.06383
0.13475
0.30496
0.40426
0.40426
0.41844
0.24823
0.16312
0.20567
0.06383
-0.19149
-0.37589
-0.37589
-0.39007
-0.34752
-0.37589
-0.50355
-0.71631
-0.80142
-0.71631
-0.64539
-0.37589
-0.12057
0.049645
0.021277
-0.092199
-0.13475
-0.20567
-0.06383
0.19149
0.37589
0.47518
0.46099
0.41844
0.14894
-0.092199
-0.23404
-0.26241
-0.34752
-0.34752
-0.47518
-0.58865
-0.63121
-0.53191
-0.3617
-0.30496
-0.092199
-0.035461
-0.10638
-0.24823
-0.31915
-0.37589
-0.39007
-0.24823
-0.16312
-0.19149
-0.2766
-0.34752
-0.39007
-0.31915
-0.14894
-0.0070922
-0.0070922
-0.19149
-0.2766
-0.43262
-0.53191
-0.48936
-0.43262
-0.34752
-0.34752
-0.29078
-0.33333
-0.19149
0.092199
0.23404
0.1773
-0.13475
-0.40426
-0.70213
-0.68794
-0.53191
-0.30496
-0.29078
-0.31915
-0.2766
-0.31915
-0.12057
0.10638
0.34752
0.31915
0.13475
-0.049645
-0.20567
-0.20567
-0.12057
-0.049645
-0.12057
-0.16312
-0.2766
-0.34752
-0.23404
-0.0070922
0.16312
0.21986
0.23404
0.12057
-0.078014
-0.21986
-0.1773
-0.035461
0.035461
0.21986
0.33333
0.39007
0.37589
0.30496
0.30496
0.19149
0.23404
0.1773
0.10638
-0.021277
-0.0070922
-0.14894
-0.20567
-0.19149
-0.30496
-0.3617
-0.41844
-0.29078
-0.23404
-0.0070922
0.20567
0.34752
0.3617
0.29078
0.20567
-0.06383
-0.12057
-0.0070922
-0.021277
-0.06383
-0.1773
-0.092199
-0.0070922
0.23404
0.37589
0.40426
0.26241
0.13475
-0.021277
-0.1773
-0.14894
-0.092199
0.021277
-0.078014
-0.10638
-0.049645
0.049645
0.2766
0.46099
0.53191
0.24823
0.1773
0.14894
0.12057
0.12057
0.078014
0.16312
0.10638
0.21986
0.20567
0.16312
-0.021277
-0.021277
-0.10638
-0.078014
0.049645
0.049645
0.06383
-0.035461
-0.021277
-0.092199
-0.16312
-0.092199
-0.035461
0.06383
0.092199
0.078014
0.078014
0.0070922
0.13475
0.20567
0.31915
0.33333
0.3617
0.2766
0.19149
0.14894
-0.035461
-0.1773
-0.20567
-0.06383
-0.021277
-0.021277
0.092199
0.23404
0.26241
0.21986
0.26241
0.14894
0.092199
0.13475
0.10638
0.12057
0.14894
0.06383
-0.14894
-0.21986
-0.12057
0.049645
0.14894
0.13475
0.12057
-0.10638
-0.29078
-0.43262
-0.46099
-0.40426
-0.1773
0.021277
0.16312
0.34752
0.50355
0.60284
0.60284
0.5461
0.3617
0.13475
-0.10638
-0.29078
-0.34752
-0.3617
-0.19149
-0.035461
0.035461
0.092199
0.16312
0.21986
0.1773
0.24823
0.23404
0.021277
-0.21986
-0.26241
-0.23404
-0.092199
0.24823
0.40426
0.47518
0.47518
0.43262
0.29078
0.24823
0.31915
0.43262
0.50355
0.47518
0.40426
0.092199
-0.035461
-0.092199
0.06383
0.10638
0.12057
0.10638
0.078014
0.092199
0.049645
0.021277
-0.1773
-0.24823
-0.19149
-0.13475
0.0070922
0.14894
0.19149
0.10638
-0.035461
-0.1773
-0.3617
-0.50355
-0.46099
-0.41844
-0.29078
-0.092199
-0.12057
-0.23404
-0.30496
-0.30496
-0.31915
-0.37589
-0.26241
-0.19149
-0.1773
-0.3617
-0.46099
-0.50355
-0.46099
-0.23404
-0.16312
-0.19149
-0.26241
-0.37589
-0.48936
-0.51773
-0.31915
-0.1773
-0.06383
-0.021277
0.13475
0.16312
0.16312
0.19149
0.26241
0.29078
0.23404
0.3617
0.40426
0.56028
0.70213
0.61702
0.3617
-0.049645
-0.26241
-0.41844
-0.37589
-0.14894
0.049645
0.16312
0.21986
0.21986
0.06383
0.035461
0.16312
0.24823
0.20567
0.13475
0.10638
0.12057
0.33333
0.5461
0.7305
0.75887
0.80142
0.77305
0.60284
0.44681
0.2766
0.1773
0.06383
0.14894
0.24823
0.33333
0.31915
0.37589
0.37589
0.24823
0.21986
0.19149
0.10638
-0.078014
-0.14894
-0.30496
-0.39007
-0.29078
-0.21986
-0.24823
-0.23404
-0.06383
0.12057
0.43262
0.7305
0.91489
0.82979
0.58865
0.40426
0.14894
0.049645
0.14894
0.23404
0.12057
0.021277
-0.035461
-0.035461
0.1773
0.30496
0.41844
0.29078
0.10638
-0.0070922
-0.14894
-0.19149
-0.12057
-0.049645
-0.0070922
0.10638
0.21986
0.13475
0.10638
0.2766
0.43262
0.46099
0.41844
0.33333
0.20567
0.23404
0.29078
0.34752
0.23404
0.10638
-0.10638
-0.31915
-0.50355
-0.53191
-0.41844
-0.23404
0.12057
0.078014
-0.049645
-0.2766
-0.3617
-0.34752
-0.2766
-0.035461
0.10638
0.12057
-0.049645
-0.10638
-0.19149
-0.1773
-0.10638
-0.16312
-0.23404
-0.2766
-0.2766
-0.3617
-0.40426
-0.2766
-0.10638
0.0070922
0.16312
0.2766
0.13475
-0.021277
-0.12057
-0.06383
-0.10638
-0.12057
-0.19149
-0.44681
-0.68794
-0.80142
-0.84397
-0.77305
-0.58865
-0.37589
-0.24823
-0.078014
-0.0070922
0.035461
-0.0070922
0.0070922
0.035461
-0.092199
-0.13475
-0.16312
-0.10638
-0.035461
0.078014
0.035461
-0.035461
-0.078014
0.092199
0.1773
0.19149
0.26241
0.2766
0.29078
0.16312
0.14894
0.19149
0.078014
0.19149
0.14894
0.16312
0.21986
0.33333
0.3617
0.20567
0.14894
0.021277
-0.049645
-0.13475
0.021277
0.24823
0.40426
0.5461
0.47518
0.34752
0.24823
0.10638
-0.16312
-0.40426
-0.41844
-0.3617
-0.33333
-0.30496
-0.21986
-0.30496
-0.30496
-0.21986
-0.10638
-0.021277
0.049645
0.19149
0.06383
-0.092199
-0.31915
-0.51773
-0.63121
-0.50355
-0.3617
-0.21986
-0.10638
-0.021277
0.049645
0.13475
0.33333
0.40426
0.33333
0.20567
-0.0070922
-0.21986
-0.48936
-0.48936
-0.37589
-0.21986
-0.021277
0.31915
0.5461
0.61702
0.63121
0.37589
-0.035461
-0.39007
-0.58865
-0.67376
-0.64539
-0.50355
-0.30496
-0.2766
-0.29078
-0.26241
-0.24823
-0.1773
0.10638
0.13475
0.20567
0.14894
0.14894
-0.06383
-0.092199
-0.078014
0.21986
0.37589
0.41844
0.40426
0.24823
-0.0070922
-0.24823
-0.48936
-0.57447
-0.47518
-0.19149
-0.0070922
0.19149
0.24823
0.14894
-0.13475
-0.19149
-0.092199
-0.06383
-0.021277
-0.06383
-0.078014
-0.19149
-0.12057
-0.0070922
-0.0070922
-0.0070922
-0.021277
0.035461
-0.0070922
-0.049645
-0.13475
-0.30496
-0.3617
-0.31915
-0.20567
-0.23404
-0.14894
-0.20567
-0.3617
-0.50355
-0.50355
-0.37589
-0.31915
-0.14894
-0.1773
-0.21986
-0.24823
-0.23404
-0.26241
-0.21986
-0.0070922
0.23404
0.43262
0.46099
0.39007
0.1773
-0.078014
-0.13475
-0.06383
-0.049645
-0.12057
-0.1773
-0.39007
-0.44681
-0.40426
-0.30496
-0.33333
-0.39007
-0.29078
-0.23404
0.06383
0.39007
0.61702
0.48936
0.26241
-0.0070922
-0.40426
-0.53191
-0.53191
-0.37589
-0.26241
0.049645
0.31915
0.51773
0.63121
0.63121
0.50355
0.24823
0.14894
0.13475
0.14894
0.14894
0.20567
0.33333
0.44681
0.67376
0.74468
0.67376
0.50355
0.39007
0.2766
0.06383
0.092199
0.021277
-0.049645
-0.078014
0.021277
0.21986
0.24823
0.39007
0.47518
0.43262
0.23404
0.092199
-0.13475
-0.30496
-0.34752
-0.39007
-0.43262
-0.44681
-0.26241
-0.13475
0.021277
0.13475
0.13475
0.078014
-0.0070922
0.078014
-0.021277
0.035461
0.06383
0.06383
-0.021277
-0.19149
-0.14894
-0.13475
-0.035461
-0.06383
-0.21986
-0.50355
-0.60284
-0.46099
-0.30496
-0.16312
-0.1773
-0.26241
-0.44681
-0.5461
-0.48936
-0.47518
-0.33333
-0.12057
0.0070922
-0.078014
-0.24823
-0.41844
-0.50355
-0.44681
-0.20567
-0.0070922
0.0070922
0.078014
-0.049645
-0.2766
-0.48936
-0.64539
-0.64539
-0.64539
-0.40426
-0.2766
-0.21986
-0.23404
-0.24823
-0.2766
-0.29078
-0.1773
-0.12057
-0.078014
-0.06383
0.092199
-0.035461
-0.19149
-0.33333
-0.3617
-0.30496
-0.1773
-0.035461
-0.021277
-0.049645
-0.13475
-0.21986
-0.26241
-0.31915
-0.14894
-0.06383
0.10638
0.20567
0.23404
0.14894
-0.035461
-0.12057
-0.30496
-0.2766
-0.21986
-0.14894
-0.06383
0.12057
0.34752
0.39007
0.2766
0.14894
-0.035461
-0.1773
-0.12057
-0.13475
-0.13475
-0.035461
0.0070922
0.14894
0.12057
0.2766
0.33333
0.34752
0.3617
0.44681
0.5461
0.43262
0.31915
-0.021277
-0.34752
-0.46099
-0.29078
-0.049645
0.20567
0.43262
0.46099
0.39007
0.19149
0.06383
-0.049645
-0.035461
0.29078
0.46099
0.41844
0.24823
0.13475
0.049645
0.20567
0.37589
0.47518
0.56028
0.46099
0.37589
0.10638
-0.049645
-0.16312
-0.21986
-0.3617
-0.47518
-0.40426
-0.37589
-0.2766
-0.16312
-0.19149
-0.30496
-0.33333
-0.19149
-0.10638
0.035461
0.14894
0.34752
0.41844
0.46099
0.48936
0.50355
0.56028
0.67376
0.68794
0.51773
0.30496
-0.035461
-0.30496
-0.39007
-0.21986
0.10638
0.19149
0.37589
0.30496
0.24823
0.14894
0.19149
0.13475
0.0070922
0.10638
0.12057
-0.0070922
-0.12057
-0.21986
-0.2766
-0.29078
-0.12057
-0.0070922
0.19149
0.41844
0.63121
0.63121
0.50355
0.30496
0.092199
-0.035461
-0.12057
-0.0070922
0.021277
0.10638
0.31915
0.51773
0.64539
0.74468
0.87234
0.78723
0.70213
0.5461
0.33333
0.13475
-0.14894
-0.23404
-0.30496
-0.12057
0.092199
0.20567
0.049645
-0.035461
-0.049645
-0.10638
-0.021277
0.092199
0.29078
0.40426
0.5461
0.60284
0.61702
0.5461
0.58865
0.57447
0.40426
0.37589
0.21986
0.10638
0.049645
0.13475
0.13475
0.20567
0.40426
0.48936
0.50355
0.41844
0.41844
0.37589
0.3617
0.39007
0.37589
0.24823
0.035461
-0.12057
-0.37589
-0.39007
-0.20567
0.06383
0.24823
0.37589
0.47518
0.48936
0.56028
0.60284
0.5461
0.47518
0.33333
0.37589
0.2766
0.1773
0.12057
0.021277
-0.021277
-0.0070922
0.16312
0.2766
0.37589
0.63121
0.71631
0.63121
0.43262
0.26241
0.0070922
-0.078014
0.021277
0.078014
0.12057
0.16312
0.12057
0.049645
0.078014
0.31915
0.5461
0.7305
0.90071
0.88652
0.64539
0.33333
0.10638
-0.092199
-0.1773
-0.10638
-0.078014
-0.021277
0.13475
0.40426
0.57447
0.56028
0.63121
0.57447
0.43262
0.26241
0.16312
0.035461
-0.10638
-0.20567
-0.40426
-0.58865
-0.68794
-0.56028
-0.60284
-0.53191
-0.50355
-0.48936
-0.44681
-0.33333
-0.10638
-0.035461
-0.0070922
0.078014
0.092199
0.16312
0.14894
0.06383
-0.21986
-0.50355
-0.68794
-0.64539
-0.44681
-0.19149
0.10638
0.078014
0.049645
-0.10638
-0.14894
-0.13475
0.049645
0.2766
0.29078
0.21986
0.21986
0.12057
-0.06383
-0.29078
-0.47518
-0.48936
-0.40426
-0.21986
-0.049645
-0.021277
0.021277
-0.06383
-0.1773
-0.1773
0.049645
0.30496
0.34752
0.47518
0.31915
0.1773
-0.0070922
-0.078014
-0.30496
-0.5461
-0.64539
-0.77305
-0.77305
-0.74468
-0.5461
-0.44681
-0.29078
-0.16312
-0.19149
-0.33333
-0.50355
-0.50355
-0.58865
-0.58865
-0.47518
-0.31915
-0.29078
-0.29078
-0.29078
-0.39007
-0.31915
-0.14894
-0.021277
0.06383
0.021277
0.10638
0.092199
0.14894
0.21986
0.19149
0.021277
-0.13475
-0.19149
-0.24823
-0.10638
0.1773
0.57447
0.71631
0.65957
0.3617
-0.078014
-0.34752
-0.40426
-0.2766
-0.19149
-0.049645
-0.049645
-0.10638
-0.20567
-0.20567
-0.20567
-0.20567
-0.078014
0.0070922
0.10638
0.20567
0.43262
0.43262
0.30496
0.13475
-0.092199
-0.24823
-0.2766
-0.10638
0.049645
0.14894
0.3617
0.39007
0.39007
0.37589
0.34752
0.21986
0.06383
0.049645
-0.0070922
-0.06383
-0.16312
-0.16312
-0.20567
-0.19149
-0.12057
-0.035461
-0.10638
-0.1773
-0.13475
-0.23404
-0.1773
-0.12057
-0.078014
-0.1773
-0.20567
-0.20567
-0.2766
-0.20567
-0.078014
-0.035461
-0.12057
-0.21986
-0.19149
-0.16312
-0.06383
0.035461
0.16312
0.16312
0.26241
0.37589
0.41844
0.53191
0.68794
0.65957
0.51773
0.31915
0.078014
-0.20567
-0.46099
-0.50355
-0.41844
-0.29078
-0.13475
-0.049645
0.021277
0.092199
0.092199
-0.092199
-0.3617
-0.53191
-0.67376
-0.61702
-0.50355
-0.23404
-0.0070922
0.31915
0.57447
0.67376
0.41844
0.06383
-0.24823
-0.53191
-0.65957
-0.5461
-0.31915
-0.10638
0.10638
0.19149
0.10638
0.035461
-0.19149
-0.33333
-0.53191
-0.5461
-0.48936
-0.51773
-0.46099
-0.33333
-0.13475
-0.13475
-0.23404
-0.41844
-0.60284
-0.57447
-0.34752
-0.12057
-0.035461
0.092199
0.13475
0.078014
0.0070922
-0.021277
-0.0070922
-0.16312
-0.049645
-0.14894
-0.24823
-0.30496
-0.2766
-0.12057
-0.20567
-0.06383
-0.10638
-0.14894
-0.21986
-0.29078
-0.41844
-0.5461
-0.31915
-0.078014
0.19149
0.24823
0.3617
0.24823
0.13475
0.049645
-0.049645
-0.10638
-0.13475
-0.078014
-0.1773
-0.14894
-0.035461
0.078014
0.035461
0.0070922
0.078014
-0.021277
-0.06383
-0.035461
0.12057
0.23404
0.29078
0.26241
0.049645
-0.078014
0.021277
0.23404
0.3617
0.43262
0.57447
0.56028
0.51773
0.3617
0.23404
0.13475
0.23404
0.34752
0.26241
0.1773
0.06383
0.10638
0.0070922
0.23404
0.31915
0.5461
0.7305
0.87234
0.80142
0.46099
0.20567
-0.035461
-0.078014
0.049645
0.24823
0.37589
0.3617
0.3617
0.16312
-0.06383
-0.21986
-0.30496
-0.1773
0.035461
0.30496
0.33333
0.30496
0.20567
0.24823
0.16312
0.20567
0.29078
0.40426
0.46099
0.43262
0.51773
0.46099
0.44681
0.3617
0.26241
0.19149
0.16312
0.16312
-0.021277
-0.12057
-0.1773
-0.21986
-0.23404
-0.20567
-0.13475
-0.1773
-0.10638
-0.078014
-0.035461
0.078014
0.13475
0.30496
0.21986
0.10638
-0.049645
-0.26241
-0.53191
-0.63121
-0.63121
-0.60284
-0.43262
-0.1773
0.13475
0.37589
0.61702
0.60284
0.31915
0.021277
-0.26241
-0.39007
-0.53191
-0.51773
-0.57447
-0.48936
-0.34752
-0.078014
0.10638
0.1773
0.29078
0.19149
0.30496
0.34752
0.40426
0.26241
-0.06383
-0.10638
-0.10638
0.049645
0.26241
0.34752
0.26241
0.035461
-0.16312
-0.31915
-0.3617
-0.26241
-0.06383
-0.035461
-0.035461
-0.092199
-0.092199
-0.13475
-0.16312
-0.20567
-0.37589
-0.34752
-0.20567
-0.092199
-0.1773
-0.3617
-0.47518
-0.57447
-0.50355
-0.3617
-0.21986
-0.19149
-0.19149
-0.20567
-0.2766
-0.23404
-0.1773
-0.06383
-0.1773
-0.23404
-0.24823
-0.19149
-0.12057
0.021277
0.06383
0.0070922
0.092199
0.06383
0.049645
-0.0070922
-0.049645
0.0070922
0.021277
0.20567
0.19149
0.13475
0.049645
-0.0070922
0.021277
0.06383
0.30496
0.41844
0.46099
0.34752
0.39007
0.34752
0.43262
0.43262
0.31915
0.06383
-0.092199
-0.12057
-0.16312
-0.06383
0.12057
0.24823
0.12057
-0.06383
-0.23404
-0.41844
-0.39007
-0.20567
0.0070922
0.12057
0.16312
0.24823
0.078014
0.0070922
0.10638
0.26241
0.39007
0.48936
0.61702
0.65957
0.68794
0.67376
0.51773
0.31915
0.21986
0.12057
0.035461
0.035461
0.12057
0.19149
0.10638
-0.0070922
-0.16312
-0.24823
-0.24823
-0.13475
-0.06383
-0.10638
-0.092199
-0.20567
-0.23404
-0.21986
-0.12057
-0.092199
-0.14894
-0.12057
-0.021277
0.06383
0.1773
0.37589
0.46099
0.48936
0.51773
0.43262
0.34752
0.21986
0.1773
0.035461
-0.0070922
0.092199
0.19149
0.3617
0.39007
0.40426
0.29078
0.30496
0.29078
0.39007
0.37589
0.40426
0.43262
0.1773
-0.092199
-0.34752
-0.46099
-0.43262
-0.37589
-0.1773
-0.021277
0.14894
0.21986
0.21986
0.20567
0.30496
0.3617
0.24823
0.14894
0.06383
0.021277
-0.092199
-0.049645
0.049645
0.16312
0.2766
0.43262
0.51773
0.46099
0.58865
0.5461
0.51773
0.43262
0.37589
0.24823
0.12057
0.24823
0.19149
0.12057
0.06383
0.16312
0.1773
0.049645
-0.078014
-0.31915
-0.48936
-0.57447
-0.48936
-0.44681
-0.43262
-0.31915
-0.26241
-0.24823
-0.12057
-0.049645
-0.20567
-0.24823
-0.23404
-0.06383
0.06383
0.29078
0.48936
0.40426
0.24823
0.021277
-0.10638
-0.13475
-0.078014
0.078014
0.0070922
-0.1773
-0.40426
-0.63121
-0.7305
-0.56028
-0.26241
-0.021277
0.2766
0.46099
0.65957
0.65957
0.60284
0.31915
0.06383
-0.10638
-0.16312
-0.20567
-0.26241
-0.21986
-0.30496
-0.47518
-0.61702
-0.57447
-0.39007
-0.23404
0.06383
0.14894
0.20567
0.2766
0.47518
0.51773
0.39007
0.24823
-0.021277
-0.26241
-0.33333
-0.21986
-0.06383
-0.049645
-0.13475
-0.23404
-0.26241
-0.20567
-0.078014
-0.12057
-0.06383
0.092199
0.21986
0.40426
0.60284
0.8156
0.74468
0.71631
0.65957
0.61702
0.60284
0.60284
0.58865
0.37589
0.34752
0.31915
0.40426
0.30496
0.16312
0.19149
0.13475
0.23404
0.24823
0.23404
-0.021277
-0.078014
-0.06383
0.06383
0.31915
0.64539
0.84397
0.77305
0.58865
0.24823
0.0070922
-0.035461
0.19149
0.33333
0.2766
0.20567
-0.0070922
-0.13475
-0.035461
0.19149
0.56028
0.70213
0.82979
0.74468
0.60284
0.44681
0.44681
0.40426
0.37589
0.30496
0.19149
0.0070922
-0.12057
-0.23404
-0.31915
-0.29078
-0.12057
0.06383
0.23404
0.31915
0.37589
0.23404
0.14894
-0.0070922
-0.13475
-0.24823
-0.33333
-0.29078
-0.31915
-0.24823
-0.13475
-0.0070922
0.16312
0.20567
0.2766
-0.035461
-0.29078
-0.43262
-0.43262
-0.3617
-0.1773
-0.021277
0.035461
0.10638
0.14894
0.10638
-0.035461
-0.12057
-0.19149
-0.26241
-0.29078
-0.14894
-0.06383
-0.035461
-0.092199
-0.21986
-0.3617
-0.37589
-0.33333
-0.30496
-0.39007
-0.31915
-0.30496
-0.30496
-0.26241
-0.13475
0.049645
0.16312
0.2766
0.13475
-0.021277
-0.23404
-0.29078
-0.40426
-0.43262
-0.30496
-0.19149
-0.049645
0.0070922
0.12057
0.12057
0.13475
0.1773
0.12057
-0.14894
-0.46099
-0.60284
-0.65957
-0.56028
-0.40426
-0.37589
-0.43262
-0.47518
-0.33333
-0.1773
0.092199
0.1773
0.14894
-0.0070922
-0.20567
-0.33333
-0.50355
-0.60284
-0.53191
-0.33333
-0.1773
0.049645
0.12057
0.035461
-0.035461
-0.16312
-0.24823
-0.1773
0.049645
0.30496
0.29078
0.13475
-0.10638
-0.34752
-0.58865
-0.56028
-0.47518
-0.26241
-0.0070922
0.21986
0.24823
0.049645
-0.035461
-0.13475
-0.10638
0.06383
0.26241
0.3617
0.3617
0.44681
0.39007
0.31915
0.20567
0.29078
0.31915
0.40426
0.41844
0.24823
-0.021277
-0.2766
-0.3617
-0.44681
-0.3617
-0.16312
-0.049645
-0.0070922
-0.12057
-0.31915
-0.68794
-0.94326
-1
-0.92908
-0.80142
-0.61702
-0.37589
-0.31915
-0.21986
-0.092199
0.021277
-0.035461
-0.12057
-0.30496
-0.53191
-0.68794
-0.68794
-0.5461
-0.40426
-0.21986
-0.1773
-0.19149
-0.13475
-0.0070922
0.035461
-0.10638
-0.078014
-0.035461
0.049645
0.20567
0.33333
0.40426
0.26241
0.19149
0.06383
0.021277
0.021277
0.1773
0.14894
0.12057
0.16312
0.26241
0.29078
0.33333
0.40426
0.3617
0.41844
0.50355
0.57447
0.58865
0.58865
0.63121
0.44681
0.43262
0.39007
0.33333
0.10638
-0.19149
-0.43262
-0.58865
-0.44681
-0.078014
0.29078
0.50355
0.41844
0.24823
-0.0070922
-0.092199
0.0070922
0.14894
0.092199
-0.12057
-0.31915
-0.5461
-0.50355
-0.26241
0.092199
0.24823
0.40426
0.43262
0.33333
0.21986
0.14894
0.1773
0.13475
0.37589
0.43262
0.44681
0.31915
0.19149
-0.0070922
-0.12057
0.035461
0.16312
0.33333
0.47518
0.57447
0.16312
0.16312
-0.021277
-0.049645
-0.20567
-0.31915
-0.26241
-0.23404
-0.12057
-0.078014
0.12057
0.12057
0.14894
0.092199
0.0070922
0.0070922
0.16312
0.43262
0.43262
0.41844
0.26241
0.078014
-0.049645
-0.049645
0.092199
0.0070922
0.0070922
-0.049645
-0.092199
-0.31915
-0.47518
-0.56028
-0.57447
-0.5461
-0.50355
-0.46099
-0.47518
-0.3617
-0.2766
-0.2766
-0.23404
-0.16312
-0.10638
-0.12057
-0.049645
-0.035461
-0.16312
-0.10638
0.049645
0.26241
0.31915
0.39007
0.14894
-0.078014
-0.29078
-0.40426
-0.44681
-0.48936
-0.23404
-0.092199
-0.0070922
-0.0070922
0.0070922
-0.0070922
-0.078014
-0.16312
-0.14894
-0.14894
-0.1773
-0.021277
-0.049645
-0.078014
-0.035461
0.021277
0.13475
0.1773
0.049645
-0.16312
-0.33333
-0.39007
-0.53191
-0.60284
-0.65957
-0.51773
-0.34752
-0.092199
0.035461
0.078014
0.0070922
-0.078014
0.049645
0.1773
0.33333
0.33333
0.2766
0.035461
-0.1773
-0.30496
-0.47518
-0.41844
-0.14894
0.092199
0.13475
0.078014
-0.078014
-0.19149
-0.06383
0.20567
0.46099
0.68794
0.85816
0.87234
0.67376
0.47518
0.33333
0.26241
0.19149
0.30496
0.40426
0.46099
0.48936
0.60284
0.64539
0.60284
0.63121
0.58865
0.40426
0.21986
0.06383
-0.16312
-0.44681
-0.53191
-0.51773
-0.33333
-0.021277
0.37589
0.58865
0.65957
0.61702
0.43262
0.14894
0.0070922
0.021277
-0.14894
-0.2766
-0.31915
-0.24823
-0.1773
-0.10638
-0.035461
-0.078014
-0.092199
-0.0070922
0.049645
0.078014
0.092199
0.078014
-0.16312
-0.30496
-0.34752
-0.33333
-0.29078
-0.078014
0.20567
0.23404
0.19149
0.06383
-0.035461
-0.10638
0.06383
0.049645
0.035461
0.0070922
0.10638
0.33333
0.43262
0.61702
0.56028
0.48936
0.46099
0.61702
0.74468
0.64539
0.51773
0.16312
-0.24823
-0.50355
-0.53191
-0.50355
-0.47518
-0.33333
-0.20567
-0.13475
0.0070922
0.26241
0.33333
0.39007
0.39007
0.39007
0.34752
0.31915
0.37589
0.33333
0.46099
0.56028
0.56028
0.40426
0.14894
0.021277
-0.13475
-0.23404
-0.30496
-0.23404
-0.1773
-0.06383
0.092199
0.049645
0.092199
0.13475
0.06383
0.06383
0.23404
0.30496
0.19149
-0.078014
-0.21986
-0.29078
-0.31915
-0.29078
-0.31915
-0.39007
-0.33333
-0.19149
-0.14894
-0.26241
-0.37589
-0.47518
-0.51773
-0.34752
-0.078014
0.13475
0.19149
0.21986
0.13475
0.14894
0.13475
0.21986
0.1773
0.021277
-0.1773
-0.40426
-0.5461
-0.61702
-0.39007
-0.14894
-0.021277
0.20567
0.19149
0.1773
0.12057
0.16312
0.021277
-0.12057
-0.20567
-0.23404
-0.20567
-0.16312
-0.049645
-0.12057
0.0070922
0.16312
0.33333
0.31915
0.14894
-0.12057
-0.37589
-0.3617
-0.10638
0.19149
0.37589
0.5461
0.63121
0.63121
0.61702
0.56028
0.5461
0.50355
0.48936
0.46099
0.30496
0.20567
0.20567
0.1773
0.16312
0.2766
0.44681
0.43262
0.2766
0.16312
0.021277
-0.10638
0.049645
0.20567
0.21986
0.19149
0.16312
0.078014
-0.13475
-0.14894
-0.20567
-0.092199
0.078014
0.24823
0.24823
0.29078
0.43262
0.51773
0.48936
0.30496
0.1773
0.035461
-0.078014
-0.12057
-0.21986
-0.2766
-0.20567
0.10638
0.34752
0.60284
0.74468
0.64539
0.34752
0.12057
0.1773
0.092199
0.26241
0.29078
0.37589
0.41844
0.53191
0.70213
0.74468
0.82979
0.84397
0.75887
0.50355
0.29078
0.078014
-0.16312
-0.30496
-0.30496
-0.12057
-0.035461
0.12057
0.21986
0.14894
0.092199
0.021277
-0.14894
-0.39007
-0.37589
-0.26241
-0.10638
0.12057
0.26241
0.43262
0.34752
0.34752
0.19149
0.0070922
-0.1773
-0.29078
-0.30496
-0.24823
0.078014
0.092199
0.021277
-0.049645
0.021277
0.13475
0.23404
0.44681
0.43262
0.24823
-0.021277
-0.2766
-0.46099
-0.48936
-0.40426
-0.31915
-0.23404
-0.10638
0.16312
0.21986
0.29078
0.29078
0.078014
-0.10638
-0.19149
-0.16312
-0.0070922
0.23404
0.30496
0.26241
0.021277
-0.23404
-0.41844
-0.47518
-0.2766
-0.0070922
0.21986
0.21986
0.12057
-0.035461
-0.16312
-0.1773
-0.16312
-0.2766
-0.56028
-0.71631
-0.8156
-0.77305
-0.58865
-0.24823
0.092199
0.13475
0.2766
0.30496
0.2766
0.078014
-0.21986
-0.56028
-0.84397
-0.77305
-0.65957
-0.48936
-0.26241
0.035461
0.20567
0.21986
0.1773
-0.021277
-0.24823
-0.39007
-0.3617
-0.31915
-0.20567
-0.16312
-0.16312
-0.33333
-0.40426
-0.39007
-0.41844
-0.41844
-0.41844
-0.40426
-0.47518
-0.46099
-0.24823
-0.10638
0.19149
0.41844
0.44681
0.29078
0.06383
-0.049645
-0.30496
-0.44681
-0.5461
-0.57447
-0.57447
-0.48936
-0.33333
-0.20567
0.021277
0.21986
0.37589
0.40426
0.44681
0.33333
0.23404
0.035461
-0.078014
-0.16312
-0.30496
-0.21986
-0.19149
-0.12057
-0.12057
-0.092199
-0.092199
-0.078014
-0.049645
-0.078014
-0.14894
-0.10638
0.092199
0.23404
0.2766
0.31915
0.29078
0.31915
0.30496
0.34752
0.29078
0.30496
0.40426
0.43262
0.40426
0.30496
0.19149
0.12057
0.14894
0.10638
0.19149
0.21986
0.13475
0.14894
0.049645
0.078014
0.16312
0.2766
0.1773
0.24823
0.29078
0.23404
0.21986
0.092199
0.10638
0.021277
0.10638
0.26241
0.29078
0.47518
0.48936
0.46099
0.33333
0.21986
0.23404
0.23404
0.14894
0.06383
-0.078014
-0.20567
-0.049645
0.078014
0.19149
0.26241
0.37589
0.40426
0.20567
0.092199
-0.078014
-0.21986
-0.33333
-0.39007
-0.3617
-0.34752
-0.14894
-0.092199
-0.035461
0.035461
0.092199
0.06383
-0.049645
-0.12057
-0.30496
-0.51773
-0.61702
-0.41844
-0.20567
0.1773
0.26241
0.06383
-0.39007
-0.61702
-0.47518
-0.33333
-0.16312
-0.078014
-0.021277
0.0070922
0.0070922
0.19149
0.21986
0.41844
0.5461
0.61702
0.50355
0.34752
0.19149
0.078014
0.021277
0.035461
0.092199
0.10638
0.12057
0.078014
0.035461
0.092199
0.16312
0.12057
0.0070922
-0.06383
-0.12057
-0.1773
-0.06383
0.078014
0.31915
0.37589
0.58865
0.67376
0.65957
0.68794
0.88652
1
0.87234
0.7305
0.3617
-0.0070922
-0.24823
-0.29078
-0.1773
-0.092199
0.0070922
-0.14894
-0.33333
-0.44681
-0.40426
-0.21986
0.0070922
0.34752
0.50355
0.48936
0.31915
0.12057
-0.10638
-0.16312
-0.10638
-0.078014
-0.078014
-0.06383
0.12057
0.23404
0.34752
0.39007
0.30496
0.16312
0.13475
0.19149
0.19149
0.14894
0.10638
0.12057
-0.0070922
-0.0070922
-0.021277
-0.10638
0.035461
0.24823
0.39007
0.39007
0.33333
0.13475
-0.049645
-0.049645
0.13475
0.33333
0.33333
0.21986
-0.0070922
-0.30496
-0.47518
-0.48936
-0.39007
-0.29078
-0.1773
-0.14894
-0.19149
-0.16312
0.0070922
0.12057
0.12057
0.19149
0.21986
0.21986
0.13475
0.035461
-0.14894
-0.24823
-0.12057
-0.078014
-0.035461
-0.0070922
0.092199
0.078014
0.06383
-0.035461
0.035461
0.078014
0.12057
0.10638
0.021277
0.049645
0.092199
0.29078
0.34752
0.46099
0.56028
0.53191
0.47518
0.43262
0.43262
0.33333
0.19149
0.0070922
-0.23404
-0.34752
-0.30496
-0.21986
-0.12057
0.035461
0.14894
0.0070922
-0.1773
-0.29078
-0.19149
-0.0070922
0.33333
0.53191
0.56028
0.48936
0.39007
0.31915
0.21986
0.24823
0.092199
0.021277
-0.10638
-0.19149
-0.23404
-0.3617
-0.23404
-0.06383
0.10638
0.23404
0.39007
0.51773
0.53191
0.51773
0.2766
-0.0070922
-0.14894
-0.092199
0.049645
0.14894
0.16312
-0.035461
-0.26241
-0.44681
-0.41844
-0.46099
-0.43262
-0.43262
-0.34752
-0.19149
0.0070922
0.14894
0.14894
0.14894
0.14894
0.13475
-0.035461
-0.035461
0.092199
0.049645
0.12057
0.21986
0.12057
-0.049645
-0.1773
-0.26241
-0.39007
-0.34752
-0.31915
-0.26241
-0.41844
-0.40426
-0.2766
-0.092199
0.035461
-0.0070922
-0.035461
-0.1773
-0.14894
-0.049645
0.06383
0.13475
0.14894
-0.035461
-0.39007
-0.46099
-0.40426
-0.16312
0.14894
0.39007
0.5461
0.53191
0.51773
0.23404
-0.10638
-0.41844
-0.44681
-0.39007
-0.26241
-0.092199
0.0070922
-0.0070922
-0.13475
-0.23404
-0.3617
-0.29078
-0.14894
-0.078014
-0.13475
-0.21986
-0.21986
-0.092199
0.078014
0.33333
0.53191
0.53191
0.39007
0.39007
0.092199
-0.06383
-0.33333
-0.5461
-0.8156
-0.97163
-0.84397
-0.75887
-0.53191
-0.41844
-0.41844
-0.46099
-0.40426
-0.31915
-0.37589
-0.43262
-0.48936
-0.61702
-0.91489
-0.98582
-1
-0.84397
-0.5461
-0.29078
-0.20567
-0.29078
-0.31915
-0.44681
-0.51773
-0.5461
-0.46099
-0.41844
-0.47518
-0.50355
-0.57447
-0.67376
-0.75887
-0.70213
-0.67376
-0.65957
-0.56028
-0.47518
-0.44681
-0.43262
-0.37589
-0.44681
-0.41844
-0.24823
-0.1773
-0.24823
-0.33333
-0.34752
-0.24823
0.035461
0.37589
0.46099
0.31915
0.049645
-0.06383
-0.29078
-0.44681
-0.51773
-0.53191
-0.41844
-0.30496
-0.20567
-0.30496
-0.30496
-0.31915
-0.33333
-0.47518
-0.57447
-0.60284
-0.74468
-0.77305
-0.74468
-0.67376
-0.63121
-0.50355
-0.3617
-0.2766
-0.24823
-0.19149
-0.23404
-0.33333
-0.37589
-0.44681
-0.51773
-0.5461
-0.44681
-0.2766
-0.16312
0.16312
0.26241
0.19149
0.06383
0.10638
0.33333
0.48936
0.67376
0.56028
0.33333
0.078014
0.035461
0.078014
0.23404
0.53191
0.64539
0.63121
0.53191
0.50355
0.44681
0.39007
0.34752
0.33333
0.21986
0.14894
0.06383
-0.0070922
-0.021277
-0.0070922
0.13475
0.23404
0.39007
0.5461
0.51773
0.5461
0.56028
0.51773
0.30496
0.06383
-0.10638
-0.34752
-0.39007
-0.33333
-0.13475
0.049645
0.29078
0.43262
0.3617
0.21986
0.16312
0.14894
0.14894
0.23404
0.34752
0.34752
0.21986
0.19149
0.23404
0.1773
0.30496
0.33333
0.33333
0.29078
0.31915
0.33333
0.23404
0.20567
-0.06383
-0.23404
-0.31915
-0.29078
-0.2766
-0.30496
-0.24823
-0.20567
-0.1773
-0.13475
-0.0070922
0.0070922
0.0070922
0.16312
0.1773
0.1773
0.078014
0.035461
-0.0070922
0.06383
0.14894
0.20567
0.19149
0.20567
0.31915
0.20567
0.1773
0.1773
0.14894
0.20567
0.26241
0.43262
0.47518
0.51773
0.47518
0.40426
0.13475
-0.021277
-0.035461
-0.0070922
0.20567
0.50355
0.65957
0.51773
0.33333
-0.049645
-0.26241
-0.19149
0.0070922
0.16312
0.2766
0.43262
0.57447
0.68794
0.74468
0.77305
0.71631
0.60284
0.58865
0.40426
0.10638
-0.16312
-0.30496
-0.31915
-0.26241
-0.13475
-0.1773
-0.39007
-0.47518
-0.56028
-0.53191
-0.51773
-0.37589
-0.23404
-0.0070922
0.1773
0.33333
0.33333
0.31915
0.39007
0.43262
0.50355
0.43262
0.29078
-0.021277
-0.21986
-0.24823
-0.06383
0.10638
0.31915
0.47518
0.40426
0.31915
0.14894
-0.0070922
-0.16312
-0.1773
0.0070922
0.10638
0.21986
0.24823
0.12057
0.0070922
-0.078014
-0.0070922
-0.10638
-0.049645
0.12057
0.33333
0.37589
0.34752
0.1773
0.021277
-0.092199
-0.14894
-0.10638
-0.13475
-0.1773
-0.21986
-0.2766
-0.26241
-0.16312
-0.12057
-0.06383
0.19149
0.34752
0.26241
0.049645
-0.16312
-0.30496
-0.47518
-0.50355
-0.56028
-0.43262
-0.23404
0.078014
0.16312
0.16312
0.20567
0.20567
0.24823
0.30496
0.43262
0.47518
0.53191
0.51773
0.47518
0.39007
0.33333
0.39007
0.30496
0.26241
0.23404
0.10638
-0.13475
-0.33333
-0.3617
-0.40426
-0.24823
-0.021277
0.19149
0.19149
0.13475
0.092199
0.078014
0.21986
0.47518
0.61702
0.60284
0.50355
0.44681
0.31915
0.29078
0.29078
0.2766
0.14894
0.16312
0.13475
0.092199
0.049645
0.049645
-0.078014
-0.14894
-0.049645
-0.049645
-0.0070922
0.021277
0.10638
0.14894
0.035461
0.021277
-0.049645
-0.0070922
-0.0070922
0.0070922
0.12057
0.12057
0.19149
0.16312
0.10638
0.035461
0.06383
-0.035461
-0.021277
0.10638
0.10638
0.06383
0.049645
0.078014
0.021277
0.049645
0.092199
0.092199
0.021277
-0.16312
-0.19149
-0.2766
-0.23404
-0.1773
-0.14894
-0.13475
-0.092199
0.049645
0.049645
-0.078014
-0.21986
-0.47518
-0.64539
-0.67376
-0.63121
-0.70213
-0.7305
-0.8156
-0.75887
-0.64539
-0.34752
-0.10638
-0.049645
-0.021277
0.021277
0.10638
0.10638
0.049645
-0.1773
-0.3617
-0.31915
-0.092199
0.092199
0.021277
-0.06383
-0.30496
-0.40426
-0.40426
-0.23404
-0.078014
-0.092199
-0.021277
-0.16312
-0.33333
-0.44681
-0.33333
-0.2766
-0.2766
-0.24823
-0.29078
-0.21986
-0.092199
0.092199
0.20567
0.34752
0.56028
0.63121
0.65957
0.63121
0.51773
0.2766
-0.049645
-0.13475
-0.035461
0.035461
0.0070922
-0.0070922
-0.16312
-0.24823
-0.14894
-0.092199
-0.12057
-0.12057
-0.14894
-0.20567
-0.19149
-0.13475
-0.092199
-0.12057
-0.16312
-0.21986
-0.39007
-0.37589
-0.2766
-0.078014
0.021277
0.16312
0.20567
0.1773
0.24823
0.43262
0.53191
0.37589
0.23404
0.021277
-0.12057
-0.13475
0.049645
0.20567
0.24823
0.40426
0.40426
0.37589
0.2766
0.2766
0.1773
0.021277
0.021277
-0.021277
-0.021277
-0.035461
0.092199
0.092199
0.1773
0.20567
0.16312
0.021277
0.049645
0.092199
0.049645
0.0070922
0.0070922
0.0070922
-0.078014
-0.092199
0.0070922
0.078014
0.2766
0.43262
0.58865
0.5461
0.44681
0.40426
0.14894
-0.0070922
-0.049645
0.021277
0.092199
0.1773
0.39007
0.43262
0.41844
0.39007
0.33333
0.20567
0.14894
0.10638
-0.021277
-0.10638
-0.14894
-0.16312
-0.24823
-0.2766
-0.3617
-0.50355
-0.58865
-0.51773
-0.3617
-0.2766
-0.12057
-0.1773
-0.13475
-0.06383
0.12057
0.30496
0.29078
0.34752
0.21986
0.06383
-0.035461
-0.0070922
0.0070922
0.035461
0.078014
-0.0070922
-0.16312
-0.33333
-0.3617
-0.39007
-0.3617
-0.26241
-0.24823
-0.26241
-0.29078
-0.29078
-0.34752
-0.34752
-0.26241
-0.20567
-0.2766
-0.3617
-0.39007
-0.48936
-0.3617
-0.10638
0.14894
0.23404
0.21986
0.21986
0.078014
0.078014
0.10638
0.21986
0.06383
-0.06383
-0.14894
-0.31915
-0.24823
-0.0070922
0.29078
0.37589
0.29078
-0.049645
-0.5461
-0.75887
-0.70213
-0.53191
-0.48936
-0.29078
-0.19149
-0.12057
0.078014
0.26241
0.40426
0.3617
0.33333
0.092199
-0.16312
-0.21986
-0.14894
0.0070922
0.021277
0.06383
0.078014
0.06383
0.16312
0.39007
0.5461
0.64539
0.60284
0.37589
0.14894
-0.035461
-0.021277
0.035461
0.14894
0.29078
0.30496
0.24823
0.20567
0.26241
0.13475
0.1773
0.2766
0.3617
0.23404
0.092199
0.0070922
-0.16312
-0.078014
0.06383
0.21986
0.19149
0.092199
0.20567
0.37589
0.5461
0.74468
0.84397
0.8156
0.67376
0.37589
-0.049645
-0.29078
-0.24823
0.035461
0.23404
0.5461
0.63121
0.5461
0.48936
0.40426
0.3617
0.26241
0.33333
0.31915
0.23404
0.13475
0.23404
0.3617
0.43262
0.51773
0.46099
0.41844
0.33333
0.3617
0.34752
0.19149
0.092199
0.021277
-0.035461
0.021277
0.1773
0.21986
0.21986
0.16312
-0.0070922
-0.12057
-0.13475
-0.0070922
0.10638
0.1773
0.19149
0.19149
0.049645
-0.049645
-0.20567
-0.56028
-0.61702
-0.34752
0.19149
0.57447
0.64539
0.47518
0.12057
-0.035461
0.06383
0.21986
0.30496
0.47518
0.50355
0.40426
0.31915
0.21986
0.16312
0.021277
-0.035461
-0.0070922
-0.049645
-0.12057
-0.20567
-0.1773
-0.13475
0.078014
0.20567
0.26241
0.3617
0.41844
0.47518
0.23404
0.092199
-0.21986
-0.2766
-0.26241
-0.092199
-0.0070922
-0.0070922
0.092199
-0.035461
-0.1773
-0.23404
-0.1773
-0.10638
-0.13475
-0.092199
-0.14894
-0.24823
-0.24823
0.021277
0.14894
0.20567
0.20567
0.19149
0.10638
0.0070922
-0.021277
-0.049645
0.092199
0.21986
0.34752
0.40426
0.40426
0.48936
0.39007
0.40426
0.40426
0.46099
0.33333
0.12057
-0.035461
-0.30496
-0.31915
-0.21986
-0.16312
-0.24823
-0.30496
-0.23404
-0.20567
0.021277
0.31915
0.61702
0.67376
0.60284
0.24823
-0.24823
-0.57447
-0.63121
-0.51773
-0.40426
-0.23404
-0.13475
-0.092199
0.049645
0.16312
0.2766
0.21986
0.31915
0.24823
0.078014
-0.19149
-0.48936
-0.78723
-0.97163
-0.92908
-0.80142
-0.71631
-0.5461
-0.30496
-0.16312
-0.021277
0.078014
-0.0070922
-0.06383
-0.16312
-0.16312
-0.26241
-0.26241
-0.21986
-0.24823
-0.39007
-0.5461
-0.46099
-0.37589
-0.035461
0.24823
0.39007
0.23404
0.021277
-0.13475
-0.33333
-0.31915
-0.13475
0.078014
0.14894
0.1773
0.078014
-0.19149
-0.43262
-0.44681
-0.2766
-0.10638
-0.21986
