0.44086
0.23656
0.064516
-0.086022
-0.043011
0.13978
0.35484
0.58065
0.69892
0.69892
0.73118
0.50538
0.23656
0.053763
0.064516
0.17204
0.31183
0.44086
0.30108
0.2043
0.043011
0
0.043011
0.13978
0.30108
0.4086
0.54839
0.63441
0.5914
0.39785
0.26882
0.21505
0.12903
0.17204
0.2043
0.36559
0.46237
0.60215
0.55914
0.39785
0.19355
-0.053763
-0.1828
-0.33333
-0.31183
-0.26882
-0.11828
0.075269
0.25806
0.26882
0.11828
0.032258
-0.010753
-0.043011
0
0.032258
-0.064516
-0.13978
-0.15054
-0.086022
-0.043011
0.010753
0.075269
-0.010753
-0.11828
-0.15054
-0.11828
-0.12903
-0.23656
-0.26882
-0.34409
-0.29032
-0.23656
-0.21505
-0.30108
-0.3871
-0.29032
-0.26882
-0.10753
0.010753
0.075269
-0.032258
-0.21505
-0.27957
-0.27957
-0.10753
0.11828
0.10753
-0.053763
-0.23656
-0.35484
-0.41935
-0.34409
-0.16129
0.12903
0.26882
0.3871
0.32258
0.15054
-0.010753
-0.043011
-0.053763
-0.021505
0.12903
0.19355
0.12903
-0.010753
-0.086022
-0.086022
-0.010753
0.064516
0.086022
0.021505
-0.021505
-0.010753
-0.064516
0.021505
0.17204
0.096774
-0.043011
-0.2043
-0.24731
-0.32258
-0.4086
-0.46237
-0.51613
-0.54839
-0.4086
-0.24731
-0.086022
0.021505
0.010753
-0.053763
-0.29032
-0.51613
-0.52688
-0.50538
-0.37634
-0.23656
-0.21505
-0.22581
-0.24731
-0.2043
-0.25806
-0.19355
-0.10753
-0.010753
-0.021505
0
0.043011
0.010753
0.064516
0.053763
0
-0.23656
-0.32258
-0.44086
-0.44086
-0.36559
-0.15054
0.021505
0.086022
0.24731
0.17204
0.12903
-0.043011
-0.24731
-0.39785
-0.50538
-0.46237
-0.4086
-0.33333
-0.25806
-0.043011
0.26882
0.41935
0.6129
0.53763
0.4086
0.21505
0.053763
0
-0.086022
-0.086022
-0.11828
-0.2043
-0.31183
-0.27957
-0.25806
-0.15054
0
0.11828
0.086022
-0.075269
-0.24731
-0.43011
-0.50538
-0.47312
-0.41935
-0.39785
-0.37634
-0.29032
-0.35484
-0.31183
-0.19355
-0.13978
-0.12903
-0.12903
-0.096774
-0.075269
-0.053763
-0.010753
-0.053763
-0.10753
-0.096774
-0.032258
-0.021505
-0.053763
-0.11828
-0.26882
-0.39785
-0.36559
-0.27957
-0.21505
-0.096774
-0.086022
0
-0.086022
-0.021505
-0.086022
-0.2043
-0.35484
-0.36559
-0.23656
-0.17204
-0.010753
0
-0.064516
-0.086022
-0.11828
-0.075269
-0.021505
0.16129
0.30108
0.39785
0.32258
0.32258
0.19355
0.33333
0.49462
0.6129
0.58065
0.3871
0.21505
0.010753
0.010753
0.16129
0.29032
0.32258
0.22581
0.21505
0.043011
-0.010753
0
-0.053763
-0.10753
-0.12903
-0.053763
-0.10753
-0.064516
-0.064516
-0.021505
-0.043011
-0.11828
-0.096774
-0.17204
-0.12903
-0.11828
-0.10753
-0.086022
0.10753
0.26882
0.33333
0.36559
0.37634
0.31183
0.1828
0.064516
0.12903
0.10753
0.13978
0.24731
0.21505
0.23656
0.35484
0.36559
0.43011
0.47312
0.50538
0.46237
0.39785
0.46237
0.47312
0.39785
0.25806
0.11828
0
-0.064516
0
0.043011
0.021505
0.11828
0.23656
0.21505
0.11828
0.086022
0.053763
0.12903
0.26882
0.41935
0.39785
0.36559
0.30108
0.21505
0.2043
0.2043
0.35484
0.35484
0.3871
0.36559
0.37634
0.33333
0.31183
0.26882
0.2043
0.12903
0.096774
0.10753
0.13978
0.21505
0.45161
0.54839
0.58065
0.69892
0.67742
0.5914
0.49462
0.34409
0.13978
0.032258
0.032258
0.12903
0.13978
0.16129
0.17204
0.17204
0.23656
0.27957
0.36559
0.29032
0.21505
0.064516
-0.021505
-0.075269
0.010753
0.21505
0.35484
0.62366
0.78495
0.77419
0.65591
0.43011
0.27957
0.12903
0.16129
0.2043
0.32258
0.37634
0.51613
0.6129
0.69892
0.86022
0.84946
0.76344
0.63441
0.51613
0.35484
0.23656
0.17204
0.043011
-0.086022
-0.22581
-0.24731
-0.13978
0.043011
0.35484
0.50538
0.47312
0.33333
0.23656
0.10753
0.021505
-0.086022
-0.17204
-0.26882
-0.34409
-0.35484
-0.36559
-0.25806
0.064516
0.17204
0.064516
-0.032258
-0.1828
-0.17204
-0.010753
0.16129
0.37634
0.37634
0.47312
0.50538
0.56989
0.66667
0.67742
0.73118
0.65591
0.64516
0.49462
0.26882
0.13978
0.13978
0.17204
0.17204
0.15054
0.010753
-0.11828
-0.19355
-0.16129
-0.10753
-0.021505
0.096774
0.13978
0.053763
0.043011
0.064516
-0.010753
-0.010753
0.096774
0.26882
0.3871
0.36559
0.24731
0.075269
0.10753
0.27957
0.41935
0.48387
0.39785
0.32258
0.23656
0.010753
-0.15054
-0.25806
-0.36559
-0.30108
-0.086022
0.075269
0.24731
0.35484
0.36559
0.24731
0.19355
0.075269
-0.075269
-0.2043
-0.16129
-0.053763
0.11828
0.16129
0.16129
0.17204
0.24731
0.30108
0.34409
0.27957
0.27957
0.24731
0.086022
-0.064516
0.086022
0.13978
0.2043
0.23656
0.15054
0.11828
0.086022
0.010753
-0.12903
-0.31183
-0.30108
-0.34409
-0.32258
-0.31183
-0.2043
-0.16129
-0.11828
-0.021505
-0.032258
-0.021505
-0.064516
0.021505
0.021505
0.064516
0.13978
0.096774
-0.021505
-0.12903
-0.13978
-0.13978
-0.010753
0.1828
0.37634
0.45161
0.45161
0.46237
0.3871
0.37634
0.39785
0.39785
0.4086
0.34409
0.26882
0.064516
-0.11828
-0.24731
-0.24731
-0.23656
-0.053763
0.12903
0.24731
0.37634
0.35484
0.32258
0.24731
0.27957
0.26882
0.13978
-0.075269
-0.13978
-0.22581
-0.21505
-0.1828
-0.15054
-0.10753
0.010753
0.24731
0.36559
0.36559
0.32258
0.22581
0.22581
0.17204
0.16129
-0.021505
-0.24731
-0.41935
-0.56989
-0.64516
-0.58065
-0.34409
-0.21505
-0.13978
-0.064516
-0.043011
-0.032258
-0.043011
0.075269
0.11828
0.16129
0.075269
-0.086022
-0.26882
-0.32258
-0.29032
-0.25806
-0.2043
-0.053763
0.032258
0.10753
0.1828
0.32258
0.23656
0.25806
0.24731
0.21505
0.096774
-0.010753
-0.010753
-0.032258
0.010753
0.032258
0.086022
-0.010753
0.021505
0.043011
0.086022
0.13978
0.15054
0.12903
-0.010753
-0.053763
-0.16129
-0.2043
-0.10753
-0.096774
-0.15054
-0.21505
-0.11828
0.010753
0.22581
0.1828
0.2043
0.086022
-0.086022
-0.086022
-0.086022
-0.043011
-0.021505
0.010753
-0.021505
-0.2043
-0.26882
-0.37634
-0.35484
-0.29032
-0.10753
0.032258
0.064516
0.12903
0.086022
-0.032258
-0.064516
0.021505
0.043011
0.12903
0.22581
0.33333
0.36559
0.3871
0.39785
0.3871
0.47312
0.51613
0.43011
0.17204
-0.13978
-0.26882
-0.27957
-0.10753
0.10753
0.16129
0.086022
-0.010753
0.075269
0.13978
0.26882
0.30108
0.22581
0.021505
-0.16129
-0.25806
-0.39785
-0.31183
-0.17204
-0.010753
0.043011
0
-0.1828
-0.34409
-0.41935
-0.24731
-0.032258
0.053763
0.1828
0.10753
0.032258
-0.021505
0.10753
0.31183
0.43011
0.62366
0.54839
0.3871
0.19355
0.10753
0.075269
0.15054
0.31183
0.33333
0.31183
0.26882
0.22581
0.12903
0.17204
0.32258
0.39785
0.35484
0.17204
-0.010753
-0.13978
-0.096774
0.16129
0.39785
0.48387
0.3871
0.1828
-0.11828
-0.2043
-0.10753
0.021505
0.21505
0.35484
0.47312
0.31183
0
-0.45161
-0.67742
-0.82796
-0.74194
-0.3871
-0.032258
0.32258
0.49462
0.4086
0.086022
-0.16129
-0.34409
-0.34409
-0.24731
-0.032258
0.075269
0.075269
0.33333
0.48387
0.56989
0.50538
0.47312
0.3871
0.23656
0.10753
-0.13978
-0.26882
-0.23656
-0.12903
-0.021505
0
0.021505
-0.010753
-0.032258
-0.043011
0.053763
0.086022
0.096774
0.10753
0.11828
0.010753
0.010753
0.096774
0.096774
0.15054
0.21505
0.15054
0.086022
0.11828
0.29032
0.36559
0.43011
0.48387
0.45161
0.31183
0.021505
-0.11828
-0.27957
-0.27957
-0.21505
-0.15054
-0.064516
-0.021505
0.064516
0.11828
0.21505
0.44086
0.54839
0.50538
0.35484
0.11828
-0.15054
-0.25806
-0.32258
-0.29032
-0.35484
-0.31183
-0.33333
-0.44086
-0.54839
-0.53763
-0.44086
-0.35484
-0.21505
-0.19355
-0.23656
-0.31183
-0.29032
-0.22581
-0.21505
0.053763
0.2043
0.34409
0.39785
0.30108
0.2043
0.053763
0.032258
0.032258
-0.064516
-0.096774
-0.021505
-0.032258
-0.010753
0.12903
0.13978
0.19355
0.064516
-0.032258
-0.1828
-0.26882
-0.2043
-0.075269
0.043011
0.064516
0.096774
0.021505
0.11828
0.21505
0.23656
0.1828
0.16129
0.24731
0.23656
0.33333
0.33333
0.4086
0.33333
0.26882
0.25806
0.15054
0.16129
0.26882
0.2043
0.2043
0.10753
0.064516
0
-0.053763
-0.032258
0.021505
-0.086022
-0.064516
-0.064516
-0.053763
-0.13978
-0.11828
-0.13978
-0.15054
-0.032258
-0.075269
-0.11828
-0.075269
0.032258
0.15054
0.16129
0.15054
0.053763
-0.053763
0.043011
0.1828
0.33333
0.31183
0.19355
0.032258
-0.064516
-0.096774
0.096774
0.15054
0.1828
0.19355
0.23656
0.2043
0.17204
0.15054
0.16129
0.24731
0.44086
0.41935
0.31183
0.2043
0.1828
0.23656
0.29032
0.39785
0.4086
0.31183
0.21505
0.16129
0.16129
0.22581
0.32258
0.39785
0.43011
0.47312
0.46237
0.27957
0.053763
-0.11828
-0.27957
-0.4086
-0.44086
-0.35484
-0.22581
0
0.29032
0.48387
0.53763
0.65591
0.62366
0.56989
0.37634
0.2043
0.064516
0
0.032258
-0.096774
-0.26882
-0.35484
-0.27957
-0.15054
-0.032258
0.1828
0.30108
0.29032
0.16129
0.10753
0.010753
-0.096774
-0.12903
-0.31183
-0.48387
-0.6129
-0.5914
-0.50538
-0.37634
-0.11828
0.010753
0.096774
0.086022
0.075269
0.010753
-0.010753
-0.010753
0.043011
0
0.010753
0.096774
0.064516
0.096774
0.10753
0.2043
0.23656
0.34409
0.23656
0.053763
-0.12903
-0.19355
-0.13978
-0.064516
0.075269
0.22581
0.24731
0.21505
0.25806
0.24731
0.21505
0.29032
0.33333
0.24731
0.10753
-0.11828
-0.31183
-0.43011
-0.22581
0.032258
0.25806
0.3871
0.43011
0.39785
0.21505
0.15054
0.075269
0.086022
0.13978
0.24731
0.27957
0.30108
0.45161
0.44086
0.52688
0.47312
0.46237
0.39785
0.25806
0.23656
0.16129
0.064516
0.064516
0.12903
0.2043
0.25806
0.22581
0.12903
-0.010753
-0.075269
-0.096774
-0.053763
0.021505
0
-0.075269
-0.24731
-0.31183
-0.19355
-0.13978
-0.021505
0.032258
0.021505
-0.086022
-0.26882
-0.35484
-0.41935
-0.32258
-0.096774
-0.021505
0.032258
0.021505
0.032258
-0.053763
-0.12903
-0.11828
0.010753
-0.032258
-0.043011
-0.13978
-0.26882
-0.27957
-0.21505
-0.12903
-0.053763
-0.032258
-0.021505
-0.11828
-0.21505
-0.35484
-0.54839
-0.69892
-0.63441
-0.43011
-0.22581
-0.10753
-0.075269
-0.064516
-0.12903
-0.12903
-0.17204
-0.22581
-0.26882
-0.23656
-0.24731
-0.26882
-0.21505
-0.1828
-0.17204
-0.19355
-0.11828
-0.11828
-0.010753
0.053763
-0.10753
-0.4086
-0.62366
-0.5914
-0.53763
-0.29032
-0.10753
0.11828
0.10753
0.043011
-0.032258
-0.15054
-0.23656
-0.2043
-0.17204
-0.23656
-0.25806
-0.24731
-0.27957
-0.29032
-0.29032
-0.31183
-0.34409
-0.25806
-0.15054
-0.11828
-0.11828
-0.16129
-0.15054
-0.22581
-0.17204
-0.15054
-0.096774
-0.043011
0.064516
0.15054
0.053763
0.010753
-0.086022
-0.086022
0.010753
0.16129
0.19355
0.096774
0.096774
0.086022
0.053763
0.043011
0.10753
0.12903
0.096774
0.053763
0.010753
0.021505
0.11828
0.26882
0.37634
0.4086
0.35484
0.30108
0.2043
0.23656
0.34409
0.32258
0.33333
0.44086
0.51613
0.46237
0.32258
0.22581
0.10753
0.096774
0.16129
0.1828
0.24731
0.2043
0.16129
-0.032258
-0.12903
-0.075269
-0.043011
-0.053763
-0.021505
-0.010753
-0.032258
-0.021505
-0.010753
0.010753
0.086022
0.10753
0.053763
-0.075269
-0.1828
-0.19355
-0.12903
-0.15054
-0.075269
-0.075269
-0.064516
-0.021505
0.096774
0.12903
0.12903
0.22581
0.33333
0.4086
0.43011
0.52688
0.56989
0.54839
0.49462
0.30108
0.19355
0.12903
0.21505
0.26882
0.31183
0.32258
0.31183
0.30108
0.29032
0.3871
0.41935
0.3871
0.4086
0.32258
0.29032
0.36559
0.44086
0.39785
0.33333
0.26882
0.27957
0.26882
0.30108
0.37634
0.34409
0.33333
0.29032
0.24731
0.27957
0.30108
0.33333
0.22581
0.12903
0.053763
0.021505
-0.010753
0.064516
0.24731
0.2043
0.17204
0.13978
0.13978
0.10753
0.12903
0.12903
-0.010753
-0.13978
-0.17204
-0.15054
-0.12903
-0.053763
-0.16129
-0.26882
-0.36559
-0.34409
-0.34409
-0.43011
-0.46237
-0.51613
-0.41935
-0.23656
-0.096774
0.010753
-0.086022
-0.10753
-0.2043
-0.31183
-0.43011
-0.3871
-0.31183
-0.13978
0
0.032258
-0.010753
-0.10753
-0.15054
-0.2043
-0.2043
-0.075269
0.075269
0.1828
0.22581
0.24731
0.1828
0.15054
0.1828
0.19355
0.1828
0.096774
0.15054
0.15054
0.24731
0.30108
0.31183
0.30108
0.23656
0.2043
-0.086022
-0.19355
-0.22581
-0.11828
-0.021505
0.032258
0.10753
0.096774
0.096774
0.043011
-0.064516
-0.29032
-0.36559
-0.37634
-0.34409
-0.21505
-0.064516
0.10753
0.075269
0.10753
0.12903
0.12903
0.16129
0.23656
0.23656
0.10753
-0.032258
-0.16129
-0.15054
-0.010753
0.086022
0.096774
0.064516
0.19355
0.1828
0.16129
0.064516
0.075269
0.043011
-0.021505
-0.053763
-0.096774
-0.053763
-0.064516
-0.032258
-0.21505
-0.22581
-0.23656
-0.13978
-0.10753
-0.10753
-0.13978
-0.37634
-0.56989
-0.60215
-0.45161
-0.17204
0.064516
0.22581
0.075269
-0.086022
-0.29032
-0.34409
-0.36559
-0.24731
-0.10753
0.043011
0.15054
0.27957
0.33333
0.21505
0.10753
0.010753
-0.22581
-0.37634
-0.43011
-0.33333
-0.22581
-0.10753
-0.064516
-0.12903
-0.086022
0.021505
0.19355
0.26882
0.35484
0.35484
0.19355
-0.010753
-0.075269
-0.15054
-0.15054
-0.021505
-0.043011
-0.10753
-0.1828
-0.1828
-0.16129
-0.17204
-0.15054
-0.17204
-0.24731
-0.26882
-0.2043
-0.15054
-0.010753
0.1828
0.31183
0.27957
0.11828
0.021505
-0.19355
-0.25806
-0.23656
-0.086022
0.16129
0.39785
0.63441
0.52688
0.4086
0.27957
0.22581
0.1828
0.2043
0.21505
0.064516
-0.16129
-0.25806
-0.15054
0.11828
0.3871
0.64516
0.62366
0.56989
0.41935
0.27957
0.075269
0.12903
0.29032
0.35484
0.48387
0.45161
0.33333
0.15054
0.1828
0.26882
0.41935
0.52688
0.56989
0.44086
0.064516
-0.23656
-0.4086
-0.39785
-0.17204
0.11828
0.3871
0.44086
0.48387
0.29032
0.17204
0.075269
0.21505
0.33333
0.43011
0.51613
0.41935
0.2043
0.010753
-0.064516
0
0.086022
0.21505
0.11828
-0.064516
-0.33333
-0.39785
-0.3871
-0.12903
0.23656
0.51613
0.60215
0.50538
0.35484
0.064516
-0.10753
-0.19355
-0.25806
-0.33333
-0.4086
-0.3871
-0.3871
-0.32258
-0.22581
-0.053763
0.075269
0.30108
0.4086
0.45161
0.39785
0.39785
0.26882
0.17204
0.2043
0.1828
0.10753
0.10753
0.19355
0.26882
0.1828
0.064516
-0.15054
-0.3871
-0.50538
-0.50538
-0.51613
-0.54839
-0.46237
-0.48387
-0.49462
-0.49462
-0.35484
-0.22581
-0.15054
0.010753
0.043011
-0.010753
-0.064516
-0.086022
-0.13978
-0.2043
-0.21505
-0.17204
-0.086022
0.096774
0.37634
0.54839
0.65591
0.63441
0.48387
0.19355
-0.10753
-0.30108
-0.45161
-0.39785
-0.21505
-0.053763
0.021505
0.010753
0.096774
0.11828
0.21505
0.29032
0.29032
0.1828
0.010753
-0.10753
-0.34409
-0.43011
-0.46237
-0.41935
-0.44086
-0.27957
-0.13978
0
0.096774
0.16129
0.24731
0.26882
0.36559
0.4086
0.35484
0.41935
0.50538
0.65591
0.68817
0.80645
0.80645
0.76344
0.68817
0.65591
0.6129
0.55914
0.49462
0.30108
0.064516
-0.053763
-0.10753
-0.13978
-0.23656
-0.27957
-0.34409
-0.36559
-0.34409
-0.24731
-0.19355
-0.10753
0.12903
0.29032
0.37634
0.33333
0.35484
0.35484
0.53763
0.65591
0.68817
0.62366
0.53763
0.58065
0.51613
0.58065
0.53763
0.52688
0.45161
0.4086
0.48387
0.27957
0.12903
-0.032258
-0.1828
-0.36559
-0.48387
-0.49462
-0.45161
-0.33333
-0.075269
0.15054
0.11828
0.010753
-0.21505
-0.41935
-0.44086
-0.33333
-0.11828
0.010753
0.27957
0.44086
0.53763
0.49462
0.48387
0.50538
0.48387
0.53763
0.3871
0.24731
0.1828
0.29032
0.36559
0.34409
0.3871
0.41935
0.43011
0.46237
0.39785
0.21505
0.032258
-0.096774
-0.24731
-0.43011
-0.54839
-0.46237
-0.4086
-0.29032
-0.27957
-0.36559
-0.48387
-0.5914
-0.63441
-0.74194
-0.54839
-0.17204
0.29032
0.55914
0.6129
0.60215
0.45161
0.43011
0.48387
0.55914
0.50538
0.47312
0.44086
0.34409
0.26882
0.17204
0.075269
-0.075269
-0.064516
-0.010753
-0.043011
-0.086022
-0.11828
-0.12903
-0.1828
-0.17204
-0.11828
-0.086022
-0.032258
0.086022
0.1828
0.34409
0.44086
0.51613
0.51613
0.56989
0.67742
0.63441
0.52688
0.44086
0.24731
0.096774
-0.053763
0.032258
0.21505
0.36559
0.58065
0.6129
0.60215
0.54839
0.54839
0.47312
0.33333
0.22581
0.043011
-0.11828
-0.23656
-0.1828
-0.13978
-0.010753
0.23656
0.34409
0.34409
0.29032
0.25806
0.17204
0.1828
0.19355
0.23656
0.13978
0.11828
0.096774
0.053763
0.12903
0.13978
0.16129
0.032258
-0.064516
-0.11828
-0.19355
-0.10753
0.064516
0.1828
0.2043
0.1828
0.16129
0.11828
0.064516
0
-0.053763
-0.1828
-0.2043
-0.16129
-0.1828
-0.13978
-0.053763
0.075269
0.21505
0.35484
0.31183
0.19355
0.075269
0
-0.075269
-0.16129
-0.096774
-0.075269
-0.064516
-0.096774
-0.17204
-0.31183
-0.35484
-0.31183
-0.23656
-0.13978
-0.15054
-0.053763
-0.096774
-0.053763
0
0.032258
0.032258
-0.010753
0.010753
0.010753
-0.053763
0.010753
-0.021505
-0.13978
-0.25806
-0.31183
-0.30108
-0.1828
-0.10753
-0.010753
0.064516
0.16129
0.30108
0.31183
0.33333
0.33333
0.30108
0.17204
0.043011
0.032258
-0.021505
-0.064516
-0.053763
-0.021505
-0.075269
0.021505
0.043011
0.010753
0.086022
0.064516
0.11828
0.17204
0.22581
0.1828
0.053763
-0.053763
0.12903
0.35484
0.53763
0.63441
0.52688
0.31183
0.11828
0.13978
0.2043
0.27957
0.41935
0.4086
0.48387
0.50538
0.58065
0.53763
0.48387
0.52688
0.51613
0.48387
0.36559
0.19355
0
-0.16129
-0.11828
0.021505
0.12903
0.1828
0.33333
0.37634
0.50538
0.63441
0.60215
0.46237
0.31183
0.22581
0.1828
0.2043
0.33333
0.4086
0.41935
0.43011
0.41935
0.29032
0.27957
0.39785
0.48387
0.47312
0.35484
0.2043
0.064516
-0.064516
-0.15054
-0.29032
-0.34409
-0.32258
-0.15054
0.021505
0.22581
0.33333
0.37634
0.27957
0.26882
0.25806
0.22581
0.23656
0.25806
0.32258
0.22581
0.22581
0.13978
0.16129
0.32258
0.65591
0.94624
0.98925
0.88172
0.52688
0.19355
-0.10753
-0.096774
0.032258
0.1828
0.25806
0.19355
0.053763
0.053763
0.17204
0.23656
0.31183
0.44086
0.51613
0.53763
0.44086
0.35484
0.075269
-0.053763
-0.19355
-0.26882
-0.32258
-0.25806
0
0.15054
0.35484
0.44086
0.54839
0.54839
0.6129
0.66667
0.51613
0.35484
0.16129
0
-0.2043
-0.2043
-0.13978
-0.064516
0.043011
0.086022
0.13978
0.17204
0.30108
0.36559
0.36559
0.37634
0.34409
0.26882
0.15054
0.086022
0.053763
0.053763
0.043011
0.19355
0.26882
0.29032
0.4086
0.35484
0.26882
0.16129
0.086022
-0.032258
-0.16129
-0.24731
-0.43011
-0.64516
-0.82796
-0.74194
-0.53763
-0.21505
0.075269
0.16129
0.021505
-0.19355
-0.21505
-0.26882
-0.15054
-0.021505
-0.010753
-0.021505
-0.16129
-0.24731
-0.35484
-0.33333
-0.27957
-0.30108
-0.43011
-0.56989
-0.55914
-0.64516
-0.5914
-0.47312
-0.4086
-0.36559
-0.29032
-0.1828
-0.12903
-0.096774
-0.13978
-0.17204
-0.29032
-0.25806
-0.21505
-0.1828
-0.12903
0.021505
0.13978
0.13978
0.15054
0.075269
0
0.021505
0.075269
0.10753
-0.010753
0
-0.064516
-0.13978
-0.24731
-0.21505
-0.27957
-0.19355
-0.064516
-0.032258
0.021505
0.075269
0.15054
0.096774
0
-0.11828
-0.24731
-0.34409
-0.36559
-0.23656
-0.15054
-0.043011
0.043011
0.053763
0
-0.043011
-0.032258
-0.075269
-0.11828
-0.086022
-0.043011
-0.043011
-0.053763
-0.096774
-0.23656
-0.19355
-0.086022
-0.021505
-0.064516
-0.13978
-0.1828
-0.27957
-0.26882
-0.1828
-0.16129
-0.096774
0
0.12903
0.10753
0.032258
0.043011
0.043011
0.043011
0.11828
0.22581
0.22581
0.15054
-0.010753
-0.19355
-0.39785
-0.41935
-0.35484
-0.31183
-0.2043
-0.053763
0.032258
0.043011
0.096774
0.075269
0.12903
0.26882
0.43011
0.44086
0.3871
0.4086
0.36559
0.33333
0.2043
0.032258
-0.11828
-0.096774
0.032258
0.17204
0.17204
0.075269
0.032258
-0.053763
-0.043011
-0.010753
-0.064516
-0.12903
-0.22581
-0.22581
-0.34409
-0.29032
-0.23656
-0.17204
-0.13978
-0.11828
0.075269
0.15054
0.3871
0.52688
0.55914
0.4086
0.17204
-0.021505
-0.13978
-0.096774
-0.064516
-0.021505
-0.075269
-0.075269
-0.11828
-0.26882
-0.35484
-0.33333
-0.23656
-0.15054
-0.043011
0.010753
0.075269
0.12903
0.22581
0.26882
0.12903
0.12903
0.021505
-0.043011
-0.032258
-0.010753
0
-0.075269
0
0.021505
0.075269
0.10753
0.13978
0.064516
-0.043011
-0.043011
-0.075269
-0.17204
-0.29032
-0.35484
-0.43011
-0.46237
-0.41935
-0.29032
-0.16129
0
0.12903
0.075269
0.032258
0.053763
0.096774
0.021505
-0.043011
-0.010753
-0.010753
0.032258
0.086022
0.053763
0.021505
-0.021505
0.032258
-0.032258
-0.075269
0.021505
0.2043
0.3871
0.52688
0.46237
0.21505
-0.043011
-0.2043
-0.19355
-0.10753
0.16129
0.33333
0.35484
0.29032
0.10753
0
0
0.13978
0.31183
0.48387
0.6129
0.70968
0.70968
0.52688
0.39785
0.24731
0.22581
0.32258
0.50538
0.53763
0.43011
0.33333
0.21505
0.12903
0.096774
0.096774
0.064516
0.064516
0.021505
-0.13978
-0.22581
-0.27957
-0.11828
0.032258
0.17204
0.26882
0.23656
0.13978
0.075269
0.064516
0.053763
0.17204
0.30108
0.35484
0.30108
0.25806
0.27957
0.2043
0.22581
0.21505
0.30108
0.44086
0.68817
0.98925
1
0.77419
0.47312
0.086022
-0.24731
-0.31183
-0.22581
-0.086022
0.12903
0.36559
0.47312
0.46237
0.51613
0.55914
0.67742
0.7957
0.87097
0.80645
0.49462
0.19355
-0.11828
-0.41935
-0.51613
-0.3871
-0.053763
0.23656
0.52688
0.53763
0.41935
0.22581
0.1828
0.2043
0.30108
0.39785
0.33333
0.15054
0.021505
-0.043011
-0.075269
-0.021505
0.096774
0.17204
0.16129
0
-0.075269
-0.15054
0.010753
0.23656
0.34409
0.27957
0.12903
0.053763
-0.17204
-0.24731
-0.22581
-0.12903
-0.010753
0.2043
0.45161
0.52688
0.45161
0.29032
0.12903
0.021505
-0.043011
0.086022
0.064516
0.086022
0.11828
0.16129
0.086022
0.043011
-0.021505
-0.075269
-0.10753
-0.086022
-0.10753
-0.22581
-0.22581
-0.23656
-0.13978
-0.064516
-0.075269
-0.17204
-0.32258
-0.21505
-0.10753
-0.075269
-0.064516
-0.021505
0
-0.043011
-0.064516
-0.27957
-0.44086
-0.56989
-0.45161
-0.32258
-0.24731
-0.13978
-0.12903
-0.11828
-0.17204
-0.16129
-0.34409
-0.4086
-0.39785
-0.31183
-0.25806
-0.27957
-0.19355
-0.13978
0.010753
0.11828
0.10753
-0.032258
-0.064516
-0.064516
-0.12903
-0.10753
-0.064516
-0.032258
-0.010753
0.043011
0.075269
0.075269
0.086022
0.064516
0.043011
-0.096774
-0.15054
-0.10753
-0.1828
-0.11828
0.021505
0.2043
0.22581
0.21505
0.23656
0.34409
0.3871
0.33333
0.17204
-0.13978
-0.23656
-0.32258
-0.32258
-0.21505
0.010753
0.23656
0.35484
0.46237
0.51613
0.49462
0.37634
0.29032
0.16129
0.032258
-0.021505
0
0.021505
0.19355
0.33333
0.36559
0.27957
0.21505
0.11828
0.086022
0.12903
0.29032
0.44086
0.50538
0.55914
0.46237
0.35484
0.26882
0.23656
0.16129
0.16129
0.25806
0.34409
0.3871
0.30108
0.26882
0.17204
0.16129
0.17204
0.15054
0.15054
0.1828
0.21505
0.075269
-0.010753
-0.043011
0.043011
0.010753
-0.053763
-0.086022
-0.053763
0.043011
0.19355
0.26882
0.32258
0.37634
0.43011
0.41935
0.36559
0.4086
0.45161
0.41935
0.46237
0.39785
0.36559
0.24731
0.1828
0.12903
0.11828
0.22581
0.30108
0.29032
0.27957
0.30108
0.31183
0.23656
0.27957
0.26882
0.2043
0.2043
0.16129
0.12903
0.053763
0.096774
0.043011
-0.043011
-0.10753
-0.043011
-0.086022
-0.11828
-0.086022
0
0.043011
0.096774
0.1828
0.12903
0.075269
0
-0.11828
-0.30108
-0.4086
-0.41935
-0.44086
-0.30108
-0.075269
0.16129
0.31183
0.41935
0.45161
0.34409
0.24731
0.17204
0.053763
-0.032258
-0.12903
-0.17204
-0.25806
-0.26882
-0.17204
0
0.10753
0.22581
0.24731
0.26882
0.31183
0.32258
0.27957
0.15054
0.13978
0.11828
0.12903
0.086022
0.15054
0.096774
0.064516
0.15054
0.21505
0.32258
0.3871
0.36559
0.29032
0.096774
0
-0.064516
-0.043011
0.053763
0.15054
0.10753
0.021505
-0.010753
-0.010753
-0.086022
-0.096774
-0.10753
-0.23656
-0.33333
-0.45161
-0.45161
-0.3871
-0.22581
0.032258
0.086022
0.10753
0.010753
-0.12903
-0.21505
-0.2043
-0.043011
0.043011
0.16129
0.27957
0.34409
0.19355
0.064516
-0.075269
-0.23656
-0.29032
-0.26882
-0.2043
-0.23656
-0.27957
-0.26882
-0.26882
-0.13978
-0.021505
0
-0.086022
-0.1828
-0.31183
-0.3871
-0.32258
-0.12903
0.064516
0.24731
0.4086
0.53763
0.48387
0.41935
0.29032
0.15054
0.043011
0.096774
0.13978
0.043011
0
-0.064516
-0.10753
-0.053763
0.16129
0.21505
0.19355
0.086022
-0.021505
-0.16129
-0.13978
-0.064516
0.064516
0.15054
0.086022
0.13978
0.10753
0.15054
0.096774
0.010753
-0.032258
-0.043011
0.13978
0.13978
0.25806
0.21505
0.16129
-0.043011
-0.1828
-0.19355
-0.26882
-0.2043
-0.17204
-0.15054
-0.26882
-0.35484
-0.36559
-0.37634
-0.27957
-0.1828
-0.086022
-0.010753
0.075269
0.064516
0.13978
0.23656
0.32258
0.33333
0.24731
0.21505
0.13978
0.10753
0.043011
0.053763
0.043011
0.032258
0.22581
0.3871
0.51613
0.63441
0.67742
0.6129
0.4086
0.2043
0.075269
-0.043011
-0.10753
-0.16129
-0.27957
-0.30108
-0.13978
-0.021505
0.10753
0.1828
0.29032
0.17204
0.096774
0.096774
0.086022
0
-0.032258
0
-0.16129
-0.13978
-0.086022
0.086022
0.22581
0.45161
0.51613
0.32258
0.17204
0.021505
0.075269
0.043011
0.043011
-0.086022
-0.25806
-0.29032
-0.15054
0.043011
0.10753
0.075269
0.043011
-0.032258
0.053763
0.19355
0.26882
0.2043
0.23656
0.29032
0.36559
0.36559
0.36559
0.31183
0.19355
0.23656
0.23656
0.16129
0.16129
0.2043
0.23656
0.29032
0.34409
0.2043
-0.021505
-0.30108
-0.43011
-0.52688
-0.52688
-0.50538
-0.46237
-0.44086
-0.36559
-0.23656
-0.22581
-0.1828
-0.053763
0
-0.043011
-0.11828
-0.1828
-0.32258
-0.3871
-0.47312
-0.47312
-0.34409
-0.12903
0.23656
0.4086
0.60215
0.55914
0.51613
0.35484
0.24731
0.16129
-0.075269
-0.2043
-0.29032
-0.2043
-0.13978
0.010753
0.11828
0.096774
0.12903
0.16129
0.22581
0.086022
0.11828
0.075269
0.053763
0.075269
0.053763
0.064516
-0.021505
-0.032258
-0.032258
0.053763
0.2043
0.31183
0.39785
0.34409
0.37634
0.35484
0.33333
0.24731
0.30108
0.25806
0.19355
0.25806
0.23656
0.12903
0.13978
0.19355
0.17204
0.10753
0.086022
-0.032258
-0.11828
-0.13978
0
0.096774
0.2043
0.23656
0.16129
0.053763
-0.064516
0.043011
0.064516
0.1828
0.2043
0.23656
0.043011
-0.075269
-0.17204
-0.30108
-0.31183
-0.27957
-0.15054
0.043011
0.1828
0.30108
0.13978
-0.043011
-0.25806
-0.4086
-0.44086
-0.31183
-0.21505
-0.21505
-0.24731
-0.1828
0.021505
0.2043
0.46237
0.53763
0.47312
0.36559
0.33333
0.30108
0.13978
0.032258
-0.12903
-0.22581
-0.12903
0.10753
0.31183
0.3871
0.45161
0.4086
0.46237
0.49462
0.62366
0.60215
0.4086
0.11828
-0.1828
-0.48387
-0.73118
-0.73118
-0.63441
-0.30108
0.2043
0.50538
0.65591
0.64516
0.60215
0.52688
0.41935
0.30108
0.21505
0.053763
0.032258
0.075269
0.064516
0.043011
0.11828
0.22581
0.41935
0.62366
0.70968
0.5914
0.47312
0.3871
0.36559
0.19355
0.064516
-0.11828
-0.3871
-0.53763
-0.49462
-0.29032
-0.064516
0.13978
0.11828
0.010753
-0.13978
-0.12903
-0.053763
0.021505
0.12903
0.11828
-0.096774
-0.35484
-0.58065
-0.74194
-0.67742
-0.34409
0
0.17204
0.2043
0.2043
0.17204
0.13978
0.19355
0.086022
-0.10753
-0.32258
-0.44086
-0.50538
-0.56989
-0.50538
-0.4086
-0.26882
-0.086022
0.17204
0.26882
0.39785
0.3871
0.27957
0.075269
-0.10753
-0.19355
-0.4086
-0.60215
-0.80645
-0.95699
-1
-0.82796
-0.47312
-0.15054
0.13978
0.22581
0.16129
0.032258
-0.10753
-0.22581
-0.3871
-0.52688
-0.55914
-0.55914
-0.60215
-0.53763
-0.41935
-0.26882
-0.096774
-0.032258
-0.064516
-0.096774
-0.086022
-0.15054
-0.26882
-0.39785
-0.36559
-0.36559
-0.41935
-0.44086
-0.41935
-0.29032
-0.1828
-0.096774
-0.064516
0
0.23656
0.35484
0.45161
0.45161
0.50538
0.45161
0.34409
0.33333
0.31183
0.34409
0.32258
0.27957
0.13978
-0.021505
-0.11828
-0.075269
-0.053763
-0.064516
-0.032258
-0.11828
-0.26882
-0.3871
-0.45161
-0.52688
-0.58065
-0.63441
-0.67742
-0.64516
-0.46237
-0.37634
-0.1828
-0.086022
0.17204
0.31183
0.37634
0.39785
0.35484
0.1828
0.2043
0.26882
0.24731
0.19355
0.043011
-0.032258
-0.064516
0.043011
0.26882
0.26882
0.35484
0.33333
0.3871
0.3871
0.39785
0.30108
0.13978
-0.021505
-0.096774
-0.021505
0.053763
0.19355
0.1828
0.1828
0.1828
0.26882
0.33333
0.33333
0.32258
0.19355
-0.021505
-0.13978
-0.043011
0.12903
0.29032
0.46237
0.41935
0.29032
0.19355
0.26882
0.33333
0.43011
0.50538
0.41935
0.30108
0.26882
0.37634
0.3871
0.41935
0.37634
0.24731
0.12903
0.16129
0.27957
0.34409
0.35484
0.35484
0.4086
0.44086
0.39785
0.4086
0.26882
0.36559
0.41935
0.47312
0.39785
0.45161
0.58065
0.64516
0.68817
0.60215
0.48387
0.22581
0.021505
-0.15054
-0.25806
-0.1828
-0.064516
0.010753
0.043011
0.13978
0.096774
0.043011
-0.053763
-0.075269
-0.11828
-0.21505
-0.16129
-0.086022
0.032258
0.064516
0.10753
0.12903
0.15054
0.34409
0.35484
0.43011
0.37634
0.30108
0.11828
-0.021505
0.043011
0.064516
0.096774
0.043011
0.053763
0.021505
0.12903
0.23656
0.19355
0.075269
-0.10753
-0.11828
-0.12903
-0.043011
0.086022
0.22581
0.24731
0.21505
0.30108
0.29032
0.35484
0.46237
0.47312
0.39785
0.33333
0.36559
0.26882
0.27957
0.22581
0.15054
0.096774
0.19355
0.41935
0.50538
0.53763
0.50538
0.44086
0.32258
0.33333
0.27957
0.19355
0.10753
-0.086022
-0.2043
-0.35484
-0.34409
-0.37634
-0.33333
-0.25806
-0.053763
0.032258
0.043011
0.010753
-0.021505
-0.096774
-0.22581
-0.32258
-0.43011
-0.55914
-0.55914
-0.5914
-0.58065
-0.51613
-0.27957
-0.15054
-0.086022
-0.010753
-0.064516
-0.10753
-0.15054
-0.053763
-0.043011
-0.032258
0.010753
-0.075269
-0.16129
-0.23656
-0.21505
-0.22581
-0.086022
0.11828
0.29032
0.32258
0.29032
0.27957
0.19355
0.1828
0.10753
0.075269
0.075269
0.15054
0.23656
0.17204
0.075269
0.021505
-0.043011
-0.010753
0.075269
0.1828
0.27957
0.37634
0.35484
0.25806
0.032258
-0.096774
-0.22581
-0.30108
-0.29032
-0.22581
-0.12903
-0.075269
0.075269
0.086022
0.043011
-0.021505
0.10753
0.2043
0.30108
0.36559
0.25806
0.10753
-0.10753
-0.11828
-0.12903
-0.10753
0.021505
-0.043011
-0.11828
-0.17204
0
0.19355
0.53763
0.7957
0.82796
0.67742
0.36559
0.10753
-0.17204
-0.25806
-0.2043
-0.16129
-0.11828
-0.10753
-0.021505
-0.10753
-0.075269
-0.043011
0.096774
0.17204
0.23656
0.24731
0.12903
0.075269
-0.043011
-0.10753
-0.22581
-0.1828
-0.064516
-0.086022
-0.16129
-0.31183
-0.3871
-0.44086
-0.35484
-0.27957
-0.2043
-0.17204
-0.11828
-0.086022
-0.10753
-0.053763
-0.12903
-0.27957
-0.41935
-0.39785
-0.32258
-0.31183
-0.22581
-0.22581
-0.23656
-0.1828
-0.096774
0.010753
0.043011
0.086022
-0.021505
-0.15054
-0.22581
-0.22581
-0.33333
-0.47312
-0.53763
-0.53763
-0.48387
-0.34409
-0.10753
0.053763
0.16129
0.26882
0.29032
0.11828
-0.010753
-0.032258
-0.15054
-0.13978
-0.064516
0.021505
0.11828
0.16129
0.17204
0.064516
0.053763
0.13978
0.23656
0.26882
0.27957
0.33333
0.21505
0.27957
0.33333
0.33333
0.30108
0.2043
0.13978
-0.010753
-0.043011
-0.032258
-0.010753
-0.021505
-0.11828
-0.17204
-0.23656
-0.25806
-0.2043
-0.11828
-0.021505
0.17204
0.12903
0.032258
-0.10753
-0.086022
0
0.053763
0.12903
0.12903
0.1828
0.29032
0.48387
0.58065
0.55914
0.58065
0.48387
0.29032
0.11828
-0.010753
-0.11828
-0.096774
0
0.17204
0.36559
0.47312
0.63441
0.56989
0.47312
0.36559
0.19355
0.053763
-0.086022
-0.032258
0.043011
0.10753
0.22581
0.23656
0.27957
0.30108
0.44086
0.45161
0.51613
0.47312
0.30108
0.086022
-0.064516
0.043011
0.075269
0.096774
0.15054
0.11828
0.12903
0.15054
0.11828
0.053763
0.043011
0.064516
0
-0.053763
-0.086022
-0.043011
-0.086022
-0.096774
-0.075269
0
0.010753
0.096774
-0.010753
-0.12903
-0.36559
-0.44086
-0.3871
-0.27957
-0.10753
-0.032258
-0.010753
0.032258
0.021505
0
-0.010753
0.22581
0.37634
0.36559
0.2043
0.053763
-0.053763
-0.13978
-0.21505
-0.31183
-0.37634
-0.35484
-0.23656
-0.19355
-0.19355
-0.17204
-0.064516
0.15054
0.37634
0.55914
0.48387
0.39785
0.37634
0.3871
0.3871
0.43011
0.48387
0.4086
0.4086
0.4086
0.44086
0.45161
0.44086
0.41935
0.27957
0.25806
0.33333
0.39785
0.3871
0.3871
0.37634
0.30108
0.27957
0.26882
0.30108
0.21505
0.22581
0.21505
0.23656
0.33333
0.4086
0.45161
0.31183
0.30108
0.2043
0.096774
0.086022
0.21505
0.33333
0.35484
0.4086
0.37634
0.35484
0.31183
0.29032
0.1828
0.13978
0.22581
0.35484
0.46237
0.3871
0.26882
0.021505
-0.11828
-0.064516
0.032258
0.1828
0.2043
0.26882
0.24731
0.22581
0.24731
0.24731
0.23656
0.22581
0.33333
0.25806
0.27957
0.26882
0.23656
0.21505
0.22581
0.33333
0.29032
0.32258
0.26882
0.24731
0.075269
-0.010753
-0.032258
-0.064516
-0.032258
0.010753
0.096774
-0.032258
-0.043011
-0.096774
-0.10753
-0.021505
0.032258
0.010753
-0.10753
-0.19355
-0.19355
-0.19355
-0.16129
-0.2043
-0.19355
-0.17204
0.043011
0.22581
0.31183
0.45161
0.5914
0.6129
0.41935
0.23656
0
-0.086022
-0.053763
0.086022
0.13978
0.16129
0.16129
0.15054
0.096774
0.096774
0.17204
0.15054
0.11828
0.053763
-0.075269
-0.21505
-0.3871
-0.46237
-0.52688
-0.53763
-0.47312
-0.33333
-0.1828
-0.086022
0.064516
0.043011
-0.010753
0.010753
-0.021505
-0.11828
-0.2043
-0.22581
-0.25806
-0.2043
-0.13978
0
0.096774
0.21505
0.23656
0.15054
0.096774
0.010753
-0.075269
-0.2043
-0.19355
-0.19355
-0.24731
-0.21505
-0.1828
-0.096774
-0.10753
-0.021505
-0.010753
0.010753
0.064516
0.096774
0.11828
-0.021505
-0.10753
-0.25806
-0.30108
-0.32258
-0.21505
-0.10753
-0.13978
-0.10753
-0.16129
-0.16129
-0.11828
-0.032258
-0.053763
-0.10753
-0.13978
-0.23656
-0.30108
-0.36559
-0.35484
-0.39785
-0.32258
-0.19355
-0.010753
0.064516
0.043011
0.075269
-0.032258
-0.10753
-0.12903
-0.086022
-0.086022
-0.064516
0.021505
-0.010753
0.032258
-0.021505
-0.096774
-0.1828
-0.2043
-0.16129
-0.21505
-0.35484
-0.32258
-0.27957
-0.23656
-0.13978
-0.075269
-0.11828
-0.1828
-0.22581
-0.2043
-0.16129
0.010753
0.15054
0.096774
0.086022
0.032258
-0.053763
-0.086022
-0.10753
-0.053763
0
0.032258
0.17204
0.26882
0.34409
0.52688
0.60215
0.60215
0.53763
0.51613
0.46237
0.35484
0.33333
0.23656
0.22581
0.1828
0.25806
0.1828
0.086022
0.16129
0.19355
0.23656
0.21505
0.29032
0.24731
0.27957
0.36559
0.33333
0.29032
0.1828
0.2043
0.064516
0.043011
0.010753
0.075269
0.043011
-0.053763
-0.053763
-0.15054
-0.086022
-0.021505
-0.053763
-0.15054
-0.22581
-0.16129
-0.12903
-0.064516
-0.064516
0
0.064516
0.22581
0.39785
0.41935
0.37634
0.41935
0.44086
0.50538
0.47312
0.36559
0.19355
0.043011
0.021505
0.13978
0.19355
0.26882
0.24731
0.13978
-0.075269
-0.19355
-0.22581
-0.15054
0.010753
0.021505
0.021505
0.010753
0.15054
0.24731
0.31183
0.37634
0.33333
0.33333
0.31183
0.35484
0.29032
0.19355
0.11828
0.086022
0
0
0.19355
0.31183
0.35484
0.3871
0.33333
0.24731
0.15054
0.15054
0.075269
0.096774
0.2043
0.30108
0.25806
0.27957
0.24731
0.16129
0.15054
0.17204
0.16129
0.075269
0
0
0.075269
0.10753
0.17204
0.10753
0.032258
0.064516
0.12903
0.086022
0.064516
0.13978
0.19355
0.12903
0.13978
0.11828
0.032258
0.043011
0.19355
0.33333
0.4086
0.51613
0.46237
0.3871
0.27957
0.25806
0.1828
0.096774
0.086022
0.021505
0.021505
-0.021505
0.12903
0.10753
0.086022
0.096774
0.032258
0.10753
0.096774
0.12903
0.010753
-0.043011
-0.010753
0
0
-0.12903
-0.13978
-0.23656
-0.22581
-0.23656
-0.1828
-0.19355
-0.11828
-0.021505
-0.010753
-0.021505
-0.15054
-0.23656
-0.26882
-0.12903
0.043011
0.10753
0.16129
0.11828
0.13978
0
-0.11828
-0.22581
-0.32258
-0.30108
-0.12903
-0.010753
0.053763
0.11828
0.10753
0.021505
-0.053763
-0.17204
-0.25806
-0.3871
-0.30108
-0.12903
-0.032258
0.075269
0.086022
-0.021505
-0.2043
-0.27957
-0.41935
-0.54839
-0.62366
-0.54839
-0.47312
-0.36559
-0.12903
0
0
-0.086022
-0.086022
-0.075269
-0.086022
0.021505
0.096774
0.25806
0.34409
0.37634
0.2043
-0.043011
-0.25806
-0.36559
-0.41935
-0.37634
-0.22581
-0.16129
-0.021505
0.13978
0.22581
0.22581
0.1828
0.19355
0.13978
0.10753
0.064516
-0.010753
-0.096774
-0.086022
0.064516
0.15054
0.21505
0.36559
0.45161
0.50538
0.47312
0.3871
0.25806
0.11828
0
-0.10753
-0.23656
-0.16129
-0.064516
-0.032258
0
0.096774
0.19355
0.17204
0.1828
0.2043
0.096774
0.13978
0.21505
0.35484
0.4086
0.49462
0.52688
0.56989
0.52688
0.45161
0.3871
0.26882
0.26882
0.24731
0.13978
0.11828
0.096774
0.12903
0.2043
0.26882
0.15054
-0.053763
-0.2043
-0.17204
-0.032258
0.2043
0.46237
0.64516
0.66667
0.51613
0.31183
0.12903
0.032258
0.053763
0.16129
0.10753
-0.010753
0.064516
0.10753
0.33333
0.47312
0.45161
0.27957
0.096774
-0.021505
-0.12903
-0.19355
-0.2043
-0.1828
-0.10753
0
0.10753
0.075269
0.043011
-0.010753
-0.086022
-0.16129
-0.12903
0
0.064516
0.15054
0.2043
0.25806
0.31183
0.4086
0.3871
0.29032
0.096774
-0.021505
-0.053763
-0.11828
-0.032258
-0.043011
-0.075269
-0.13978
-0.021505
-0.043011
-0.043011
0.053763
0.010753
-0.043011
-0.17204
-0.22581
-0.32258
-0.43011
-0.48387
-0.52688
-0.54839
-0.48387
-0.33333
-0.30108
-0.1828
-0.086022
-0.010753
-0.010753
0
0.043011
0.053763
0.17204
0.2043
0.16129
0.021505
-0.10753
-0.075269
-0.17204
-0.16129
-0.1828
-0.16129
-0.17204
-0.1828
-0.21505
-0.25806
-0.24731
-0.2043
-0.1828
-0.2043
-0.2043
-0.12903
-0.1828
-0.2043
-0.1828
-0.053763
0.010753
0.2043
0.21505
0.25806
0.21505
0.27957
0.26882
0.19355
0.19355
0.096774
-0.032258
-0.096774
-0.021505
0.021505
0.11828
0.2043
0.30108
0.35484
0.3871
0.41935
0.41935
0.35484
0.25806
0.16129
0.021505
-0.010753
0.10753
0.11828
0.25806
0.44086
0.65591
0.74194
0.72043
0.55914
0.29032
0.41935
