0.2568
0.23263
0.15408
0.099698
0.039275
-0.05136
-0.12991
-0.05136
0.033233
0.14804
0.14199
0.12387
0.11178
0.087613
0.16012
0.17825
0.11178
0.021148
-0.075529
-0.14199
-0.11178
-0.14199
-0.13595
-0.2145
-0.23867
-0.20242
-0.22054
-0.19033
-0.16012
-0.087613
-0.093656
-0.0090634
0.0090634
-0.02719
-0.11782
-0.20846
-0.17221
-0.15408
-0.0090634
0.045317
0.015106
-0.033233
-0.14199
-0.17221
-0.17825
-0.02719
0.063444
0.16012
0.099698
0.13595
0.069486
0.057402
0.057402
-0.015106
-0.039275
0.075529
0.19637
0.20846
0.25076
0.29305
0.34139
0.30514
0.19033
0.099698
0.057402
0.11782
0.22659
0.29909
0.32326
0.27492
0.43807
0.4864
0.56495
0.55891
0.35952
0.15408
0.0030211
-0.10574
-0.20242
-0.20846
-0.22659
-0.16616
-0.12387
-0.12387
-0.087613
-0.15408
-0.16616
-0.22054
-0.18429
-0.16012
-0.099698
-0.12387
-0.24471
-0.26284
-0.15408
-0.057402
0.021148
-0.0030211
-0.069486
-0.069486
-0.18429
-0.28701
-0.26888
-0.28701
-0.35347
-0.29305
-0.23263
-0.12387
-0.14804
-0.2145
-0.33535
-0.34743
-0.34139
-0.29909
-0.27492
-0.33535
-0.27492
-0.35347
-0.39577
-0.41994
-0.40181
-0.42598
-0.45619
-0.4139
-0.51057
-0.50453
-0.571
-0.55287
-0.60121
-0.65559
-0.67372
-0.74018
-0.72205
-0.58308
-0.41994
-0.29305
-0.26284
-0.39577
-0.4864
-0.52266
-0.36556
-0.13595
-0.02719
0.075529
0.081571
0.081571
0.069486
0.12387
0.039275
-0.11782
-0.22659
-0.29305
-0.28097
-0.20846
-0.075529
0.093656
0.13595
0.13595
0.02719
-0.039275
-0.099698
-0.099698
-0.12991
-0.14199
-0.099698
-0.02719
0.05136
0.12991
0.16012
0.057402
0.021148
0.057402
0.093656
0.015106
-0.12991
-0.15408
-0.14199
-0.17825
-0.2568
-0.35952
-0.40785
-0.38973
-0.22659
-0.14804
0.12991
0.34743
0.50453
0.51662
0.32326
0.26284
0.25076
0.38369
0.55287
0.60121
0.49849
0.34743
0.12991
-0.063444
-0.10574
-0.10574
-0.039275
-0.02719
0.021148
0.13595
0.099698
0.20242
0.22054
0.30514
0.39577
0.48036
0.46224
0.27492
0.087613
0.063444
0.057402
0.12387
0.099698
0.17825
0.12991
0.081571
0.033233
0.033233
-0.0030211
-0.02719
0.039275
-0.0090634
0.045317
0.093656
0.069486
0.12991
0.081571
0.05136
-0.021148
-0.02719
0.14804
0.17825
0.12387
0.015106
-0.021148
0.05136
0.24471
0.38973
0.26284
0.25076
0.11782
0.099698
0.12991
0.087613
0.12387
-0.063444
-0.25076
-0.34743
-0.33535
-0.22054
-0.063444
0.16616
0.28097
0.38973
0.40785
0.35347
0.24471
0.12991
0.087613
0.075529
0.0030211
-0.0030211
-0.11178
-0.19637
-0.17825
-0.033233
0.12991
0.33535
0.47432
0.49849
0.44411
0.29909
0.17825
0.021148
-0.039275
-0.081571
-0.14199
-0.063444
-0.0030211
0.12387
0.15408
0.10574
0.075529
0.087613
0.069486
0.19637
0.26888
0.29909
0.24471
0.23867
0.14804
0.063444
-0.13595
-0.28701
-0.24471
0.0090634
0.36556
0.63142
0.6435
0.55891
0.46224
0.40181
0.38973
0.35952
0.2568
0.29305
0.35347
0.46224
0.57704
0.67372
0.72205
0.63142
0.60725
0.58912
0.7281
0.75831
0.79456
0.71601
0.4864
0.27492
0.14199
0.12387
0.099698
0.18429
0.28701
0.40785
0.571
0.70997
0.75227
0.63142
0.35952
0.17221
0.015106
-0.02719
-0.087613
-0.23867
-0.16012
-0.087613
0.063444
0.05136
0.02719
0.033233
0.075529
0.15408
0.24471
0.27492
0.15408
0.14199
0.11782
0.13595
0.015106
-0.11178
-0.16012
-0.14804
-0.075529
0.0030211
0.075529
0.11782
0.12387
0.15408
0.10574
0.075529
0.063444
-0.039275
-0.069486
-0.081571
-0.045317
0.063444
0.15408
0.22054
0.17221
0.087613
0.0030211
0.0090634
-0.02719
-0.087613
-0.099698
-0.099698
-0.10574
-0.16012
-0.19637
-0.28097
-0.2568
-0.14804
-0.063444
-0.045317
0.02719
0.015106
-0.0030211
-0.033233
-0.15408
-0.20846
-0.18429
-0.093656
-0.015106
-0.021148
-0.14804
-0.22659
-0.31118
-0.31118
-0.14804
0.05136
0.17825
0.26284
0.12991
-0.0090634
-0.18429
-0.33535
-0.43202
-0.36556
-0.28097
-0.22054
-0.28701
-0.46828
-0.51662
-0.55891
-0.43202
-0.27492
-0.20846
-0.17221
-0.12991
0.033233
0.10574
0.11782
-0.081571
-0.32931
-0.63142
-0.8429
-0.8852
-0.81873
-0.55891
-0.31722
-0.12991
-0.099698
-0.075529
-0.069486
-0.039275
-0.10574
-0.16012
-0.24471
-0.36556
-0.44411
-0.53474
-0.56495
-0.54683
-0.35952
-0.28701
-0.28097
-0.2568
-0.32326
-0.29909
-0.27492
-0.13595
-0.12991
-0.12991
-0.11178
-0.13595
-0.11782
-0.20846
-0.20846
-0.20242
-0.16616
-0.033233
0.021148
0.02719
-0.099698
-0.2145
-0.2568
-0.25076
-0.17221
-0.15408
-0.11782
-0.13595
-0.11178
-0.12387
-0.05136
-0.015106
-0.093656
-0.22659
-0.33535
-0.30514
-0.23263
-0.11782
-0.057402
-0.099698
-0.15408
-0.15408
-0.11178
-0.087613
-0.093656
-0.081571
0.039275
0.11178
0.22659
0.14199
0.18429
0.28097
0.43202
0.49849
0.34743
0.13595
0.045317
-0.02719
-0.021148
0.17221
0.31118
0.45015
0.49849
0.43202
0.27492
0.25076
0.22659
0.28097
0.2568
0.19033
0.063444
0.05136
0.045317
0.19033
0.28701
0.33535
0.31722
0.28097
0.2568
0.25076
0.33535
0.40181
0.36556
0.22659
-0.0030211
-0.099698
0.015106
0.22054
0.37764
0.49245
0.54079
0.58912
0.63142
0.69184
0.77644
0.78248
0.7281
0.66163
0.44411
0.31722
0.17825
0.27492
0.27492
0.37764
0.51057
0.65559
0.69184
0.69184
0.67372
0.65559
0.63142
0.47432
0.37764
0.27492
0.33535
0.46828
0.46828
0.48036
0.41994
0.35347
0.24471
0.17825
0.20846
0.2145
0.24471
0.25076
0.19033
0.081571
-0.02719
-0.20846
-0.26888
-0.33535
-0.25076
-0.16616
-0.20242
-0.22659
-0.19637
-0.2568
-0.19637
-0.17221
-0.19637
-0.32326
-0.4139
-0.54683
-0.571
-0.57704
-0.43202
-0.34743
-0.27492
-0.24471
-0.29909
-0.36556
-0.34743
-0.28701
-0.24471
-0.25076
-0.28701
-0.36556
-0.40785
-0.45619
-0.37764
-0.27492
-0.22054
-0.20242
-0.33535
-0.30514
-0.38973
-0.26284
-0.29305
-0.18429
-0.075529
-0.021148
-0.12387
-0.12387
-0.17825
-0.17825
-0.16616
-0.087613
-0.015106
0.081571
0.15408
0.12387
0.093656
-0.063444
-0.063444
-0.15408
-0.22659
-0.19637
-0.19637
-0.23263
-0.16012
-0.099698
0.021148
0.05136
0.087613
0.12387
0.075529
-0.02719
-0.093656
-0.13595
-0.05136
0.015106
-0.039275
-0.20846
-0.26284
-0.37764
-0.3716
-0.42598
-0.35952
-0.25076
-0.14804
-0.11782
-0.17825
-0.31118
-0.33535
-0.23263
-0.11782
-0.12387
-0.14199
-0.20242
-0.14804
-0.14199
-0.0090634
0.11178
0.20242
0.20846
0.069486
-0.17221
-0.28097
-0.29305
-0.2568
-0.27492
-0.28097
-0.22659
-0.30514
-0.32326
-0.39577
-0.31722
-0.25076
-0.2145
-0.16012
-0.10574
-0.093656
-0.02719
-0.14199
-0.16616
-0.17825
0.02719
0.12387
0.22054
0.22054
0.13595
0.045317
-0.015106
-0.045317
-0.093656
0.087613
0.19637
0.32931
0.26284
0.10574
-0.021148
-0.16616
-0.15408
-0.05136
0.14199
0.34743
0.4864
0.49849
0.52266
0.34743
0.29909
0.069486
0.021148
0.05136
0.093656
0.11782
0.19033
0.33535
0.40181
0.41994
0.28701
0.11178
-0.087613
-0.021148
0.045317
0.16616
0.20242
0.28097
0.36556
0.4139
0.38973
0.26888
0.081571
-0.063444
-0.087613
-0.11782
-0.18429
-0.16616
-0.17825
-0.16012
-0.069486
0.0090634
-0.0090634
-0.045317
-0.16616
-0.16012
-0.23263
-0.30514
-0.24471
-0.31722
-0.34139
-0.32931
-0.28097
-0.31722
-0.33535
-0.37764
-0.41994
-0.34139
-0.32326
-0.26888
-0.19637
-0.16012
-0.081571
-0.075529
-0.069486
-0.0030211
0.069486
0.16616
0.14804
0.13595
0.0090634
-0.02719
-0.0030211
0.05136
0.11178
0.16616
0.17825
0.11782
-0.063444
-0.11178
-0.2568
-0.20846
-0.14804
0.02719
0.057402
0.0030211
-0.14804
-0.31118
-0.3716
-0.31722
-0.12387
-0.02719
-0.0030211
0.05136
-0.015106
-0.02719
0.0030211
0.015106
-0.057402
-0.19033
-0.25076
-0.23263
-0.19637
-0.11178
-0.02719
0.033233
0.075529
-0.02719
0.02719
-0.093656
-0.15408
-0.33535
-0.45619
-0.40785
-0.35952
-0.24471
-0.31722
-0.30514
-0.31118
-0.34743
-0.29909
-0.31118
-0.29909
-0.24471
-0.11178
0.02719
0.19033
0.17825
0.11178
0.093656
0.039275
0.099698
0.069486
0.10574
0.11782
0.10574
0.12991
-0.093656
-0.22054
-0.42598
-0.57704
-0.51662
-0.40181
-0.19637
-0.063444
0.10574
0.11178
0.10574
-0.087613
-0.12387
-0.16616
0.0090634
0.13595
0.26284
0.22659
0.31722
0.34139
0.27492
0.32931
0.35347
0.40181
0.28701
0.12387
0.033233
-0.02719
0.02719
0.16012
0.32931
0.45619
0.49245
0.56495
0.51057
0.41994
0.29909
0.29305
0.26888
0.34743
0.32326
0.35952
0.43807
0.45015
0.49245
0.40785
0.42598
0.41994
0.37764
0.4139
0.34139
0.25076
0.15408
0.27492
0.36556
0.57704
0.59517
0.69789
0.63142
0.5287
0.39577
0.29909
0.2145
0.10574
0.10574
-0.02719
0.087613
0.19637
0.34139
0.3716
0.4139
0.35347
0.28701
0.17221
0.14199
0.12991
0.14804
0.14804
0.075529
0.021148
-0.045317
0.0030211
0.0090634
0.05136
0.05136
0.10574
0.063444
0.033233
-0.033233
-0.087613
-0.057402
0.0090634
0.14804
0.16616
0.16012
0.099698
0.075529
0.069486
0.12991
0.12387
0.10574
0.12387
0.2145
0.29909
0.35347
0.30514
0.30514
0.057402
-0.15408
-0.2568
-0.23867
-0.17825
-0.045317
0.081571
0.19033
0.24471
0.23263
0.16616
0.039275
-0.021148
-0.075529
-0.15408
-0.30514
-0.42598
-0.50453
-0.44411
-0.26888
-0.015106
0.12387
0.23867
0.24471
0.14804
-0.0030211
-0.14804
-0.28701
-0.3716
-0.37764
-0.34139
-0.2568
-0.19033
-0.069486
0.045317
0.069486
0.069486
-0.021148
-0.15408
-0.2145
-0.33535
-0.38973
-0.44411
-0.32931
-0.19637
-0.16012
-0.14804
-0.0090634
0.057402
0.02719
-0.16012
-0.29305
-0.31118
-0.19637
0.021148
0.12991
0.24471
0.36556
0.40785
0.31722
0.25076
0.057402
0.057402
0.033233
0.14804
0.16616
0.15408
0.12991
0.17221
0.11178
-0.05136
-0.10574
-0.22659
-0.27492
-0.34139
-0.43202
-0.55891
-0.56495
-0.45619
-0.29909
-0.20242
-0.28097
-0.36556
-0.49245
-0.44411
-0.34743
-0.29305
-0.39577
-0.50453
-0.45619
-0.34139
-0.23867
-0.22054
-0.28097
-0.33535
-0.34139
-0.2568
-0.19033
-0.12387
-0.20242
-0.23867
-0.26888
-0.16012
-0.045317
-0.0030211
0.033233
0.099698
0.039275
-0.05136
-0.2145
-0.35952
-0.37764
-0.32326
-0.14804
-0.063444
-0.02719
0.05136
0.075529
0.12387
0.093656
0.057402
-0.015106
-0.10574
-0.16012
-0.19033
-0.16616
-0.14199
-0.13595
-0.12387
-0.17825
-0.23263
-0.25076
-0.30514
-0.26888
-0.13595
-0.12387
-0.18429
-0.16012
-0.22054
-0.24471
-0.34743
-0.41994
-0.42598
-0.40785
-0.38973
-0.41994
-0.55891
-0.55287
-0.54683
-0.49849
-0.33535
-0.18429
-0.11178
-0.2145
-0.25076
-0.10574
-0.057402
0.063444
-0.021148
-0.05136
-0.075529
0.039275
0.10574
0.10574
0.12387
0.093656
0.05136
-0.033233
-0.063444
0.069486
0.081571
0.05136
0.0030211
0.0090634
-0.045317
-0.10574
-0.13595
-0.12991
-0.02719
0.015106
0.045317
-0.033233
-0.063444
-0.15408
-0.22054
-0.20242
-0.093656
-0.063444
-0.087613
-0.22659
-0.31118
-0.41994
-0.43202
-0.3716
-0.34139
-0.32326
-0.40785
-0.42598
-0.45015
-0.35347
-0.26284
-0.15408
-0.17221
-0.045317
0.081571
0.20846
0.20242
0.12387
-0.075529
-0.021148
0.021148
0.10574
0.021148
-0.18429
-0.19637
-0.16616
-0.033233
0.057402
0.081571
0.075529
0.11178
0.17825
0.19033
0.20242
0.22659
0.30514
0.26888
0.23867
0.2568
0.41994
0.49245
0.59517
0.55891
0.46828
0.43202
0.3716
0.26888
0.3716
0.31722
0.28701
0.22659
0.20242
0.20242
0.081571
0.081571
0.16012
0.29305
0.34743
0.34743
0.35952
0.46224
0.58308
0.65559
0.63142
0.67976
0.8006
0.81269
0.72205
0.58308
0.48036
0.43807
0.34139
0.17825
-0.0090634
-0.069486
0.0030211
0.15408
0.28701
0.38369
0.42598
0.4139
0.42598
0.3716
0.40785
0.30514
0.17825
0.20846
0.36556
0.54079
0.61934
0.69184
0.66163
0.64955
0.54683
0.54683
0.49245
0.43202
0.35952
0.24471
0.27492
0.32931
0.41994
0.38973
0.35347
0.32931
0.38973
0.51662
0.58912
0.59517
0.55287
0.50453
0.44411
0.39577
0.47432
0.55891
0.571
0.51057
0.43202
0.39577
0.33535
0.34743
0.30514
0.2568
0.20242
0.32931
0.54079
0.67372
0.69789
0.54683
0.43202
0.33535
0.35952
0.35347
0.28701
0.15408
0.14804
0.19637
0.36556
0.51662
0.52266
0.35347
0.17221
0.039275
0.0030211
0.093656
0.25076
0.32326
0.32326
0.26888
0.22659
0.2145
0.23263
0.26284
0.24471
0.2145
0.30514
0.32931
0.16616
0.057402
-0.081571
0.021148
0.13595
0.29909
0.4139
0.37764
0.33535
0.33535
0.36556
0.46828
0.50453
0.42598
0.37764
0.32931
0.29909
0.30514
0.26888
0.22054
0.12387
-0.05136
-0.11178
-0.081571
0.0030211
0.087613
0.14804
0.18429
0.14804
0.02719
-0.021148
-0.19033
-0.22054
-0.29305
-0.3716
-0.32931
-0.30514
-0.14804
-0.033233
0.02719
0.10574
0.11178
0.14804
0.10574
0.12991
0.075529
-0.075529
-0.23263
-0.42598
-0.52266
-0.52266
-0.44411
-0.34743
-0.2568
-0.12387
-0.021148
-0.039275
-0.11178
-0.26284
-0.4864
-0.67976
-0.77644
-0.67976
-0.46224
-0.18429
0.015106
0.033233
0.039275
0.063444
0.015106
-0.14804
-0.30514
-0.43202
-0.31118
-0.23867
-0.12991
-0.063444
-0.16616
-0.24471
-0.32326
-0.39577
-0.35347
-0.28097
-0.33535
-0.39577
-0.41994
-0.41994
-0.37764
-0.40181
-0.39577
-0.31722
-0.22054
-0.087613
-0.081571
-0.2145
-0.24471
-0.2568
-0.26888
-0.20242
-0.24471
-0.28701
-0.38973
-0.42598
-0.36556
-0.26888
-0.15408
-0.02719
-0.015106
-0.13595
-0.26284
-0.29909
-0.27492
-0.069486
0.099698
0.22659
0.23867
0.18429
0.16012
0.033233
-0.045317
-0.12991
-0.0030211
0.12991
0.30514
0.37764
0.29909
0.31722
0.27492
0.32931
0.29305
0.32931
0.28097
0.11178
-0.075529
-0.12387
-0.12991
-0.057402
0.0090634
0.063444
0.13595
0.25076
0.28097
0.35347
0.32931
0.37764
0.33535
0.26284
0.19637
0.05136
0.093656
0.099698
0.32326
0.38369
0.31118
0.11782
0.045317
-0.039275
-0.099698
-0.19033
-0.25076
-0.34743
-0.23867
-0.093656
-0.075529
-0.057402
-0.12387
-0.099698
-0.12991
-0.20242
-0.25076
-0.35347
-0.40181
-0.32326
-0.23263
-0.16012
-0.14804
-0.13595
-0.23263
-0.14804
-0.099698
-0.0090634
0.0090634
0.033233
0.087613
0.15408
0.099698
0.021148
-0.10574
-0.24471
-0.23867
-0.28701
-0.29909
-0.3716
-0.4139
-0.44411
-0.5287
-0.49849
-0.48036
-0.46224
-0.38973
-0.20846
-0.033233
0.17825
0.2568
0.18429
-0.12991
-0.38369
-0.58912
-0.6858
-0.74622
-0.74622
-0.67976
-0.6435
-0.35347
-0.22054
0.0090634
0.10574
0.045317
-0.039275
-0.17825
-0.34743
-0.4139
-0.4139
-0.42598
-0.33535
-0.3716
-0.28701
-0.17221
-0.057402
-0.033233
-0.087613
-0.14804
-0.22659
-0.29909
-0.32931
-0.13595
-0.063444
0.033233
-0.033233
-0.12387
-0.063444
0.081571
0.25076
0.26284
0.35347
0.49849
0.571
0.4864
0.2145
0.063444
-0.13595
-0.093656
-0.057402
-0.021148
0.0030211
0.093656
0.22659
0.17825
0.057402
-0.069486
-0.11782
-0.087613
0.0090634
-0.05136
-0.12387
-0.22659
-0.18429
-0.16012
-0.22659
-0.3716
-0.48036
-0.49245
-0.39577
-0.19033
-0.22054
-0.19033
-0.093656
-0.033233
0.075529
0.093656
0.10574
-0.063444
-0.30514
-0.46828
-0.51057
-0.51662
-0.46828
-0.38369
-0.38369
-0.32931
-0.16012
-0.0030211
0.093656
0.069486
-0.0030211
-0.11782
-0.17221
-0.22054
-0.19033
-0.23867
-0.35347
-0.35952
-0.38973
-0.17221
0.0030211
0.17221
0.28097
0.22054
0.099698
-0.045317
-0.099698
-0.045317
0.12387
0.11178
0.23867
0.26888
0.26888
0.22659
0.075529
0.063444
-0.0090634
0.033233
-0.081571
-0.093656
-0.057402
0.081571
-0.0030211
-0.14199
-0.23263
-0.29305
-0.12991
-0.015106
0.13595
0.14199
0.045317
0.0030211
-0.14199
-0.32931
-0.53474
-0.60725
-0.53474
-0.34743
-0.069486
0.19637
0.43202
0.66163
0.76435
0.75227
0.56495
0.55891
0.45619
0.38369
0.25076
0.15408
-0.0090634
-0.18429
-0.20846
-0.23867
-0.20846
-0.12991
-0.021148
0.057402
0.14804
0.093656
0.12991
0.0030211
-0.033233
-0.039275
-0.021148
0.0030211
0.045317
0.0090634
0.11178
0.25076
0.41994
0.54079
0.6435
0.55287
0.56495
0.51057
0.59517
0.58308
0.55891
0.52266
0.53474
0.53474
0.45015
0.35347
0.28097
0.27492
0.23867
0.16012
-0.063444
-0.22054
-0.2145
-0.20242
-0.15408
-0.099698
0.033233
0.13595
0.20846
0.23263
0.11782
-0.039275
-0.27492
-0.46224
-0.54683
-0.45619
-0.19033
0.099698
0.33535
0.40785
0.32931
0.26888
0.23263
0.20846
0.10574
0.033233
-0.039275
0.05136
-0.039275
-0.2145
-0.36556
-0.51662
-0.49245
-0.32931
-0.015106
0.12991
0.22054
0.13595
0.05136
0.015106
0.033233
0.033233
-0.02719
-0.10574
-0.075529
-0.16012
-0.31722
-0.48036
-0.47432
-0.45015
-0.47432
-0.62538
-0.71601
-0.76435
-0.65559
-0.55287
-0.50453
-0.49245
-0.43807
-0.40181
-0.3716
-0.37764
-0.26888
-0.19033
0.015106
0.17825
0.26284
0.22659
0.31118
0.32326
0.28097
0.14804
-0.021148
-0.22054
-0.23263
-0.17825
0.0030211
0.15408
0.26888
0.38973
0.19033
0.10574
-0.0090634
-0.045317
-0.045317
0.02719
0.12387
0.14804
0.081571
-0.015106
0.0030211
0.021148
0.099698
0.14199
0.12387
0.099698
0.021148
-0.02719
-0.11782
-0.26888
-0.41994
-0.58912
-0.69184
-0.58912
-0.45619
-0.47432
-0.43202
-0.49245
-0.55891
-0.61934
-0.6435
-0.81269
-0.71601
-0.66163
-0.54683
-0.33535
-0.23867
-0.12991
-0.31118
-0.62538
-0.78248
-0.72205
-0.49245
-0.24471
0.021148
0.2145
0.32326
0.28701
0.12991
-0.0030211
-0.14199
-0.31722
-0.35952
-0.40181
-0.28097
-0.26284
-0.22054
-0.26888
-0.22659
-0.31118
-0.34743
-0.27492
-0.10574
-0.02719
0.05136
-0.0090634
-0.099698
-0.14804
-0.12991
-0.18429
-0.2568
-0.29305
-0.26888
-0.20846
-0.14199
-0.075529
-0.0030211
0.039275
0.093656
0.12991
0.093656
0.10574
0.16012
0.17221
0.081571
0.057402
-0.045317
-0.11178
-0.039275
0.12991
0.25076
0.2145
0.11178
0.081571
0.057402
0.16012
0.24471
0.32931
0.23263
0.10574
-0.021148
-0.033233
-0.0090634
0.02719
-0.045317
-0.10574
-0.075529
-0.039275
-0.02719
-0.099698
-0.039275
-0.075529
-0.0030211
0.093656
0.14804
0.19637
0.19033
0.22054
0.20242
0.23263
0.26284
0.11782
-0.045317
-0.24471
-0.25076
-0.31118
-0.29909
-0.20242
-0.19637
-0.087613
0.069486
0.23867
0.34139
0.18429
0.015106
-0.063444
-0.063444
0.10574
0.20242
0.19637
0.16012
0.11782
0.069486
0.075529
0.069486
0.039275
0.081571
0.093656
0.26284
0.33535
0.24471
0.11782
-0.0030211
-0.11178
-0.093656
-0.075529
0.063444
0.099698
0.16012
0.12387
0.033233
-0.045317
-0.05136
0.033233
0.11782
0.18429
0.14804
0.12387
0.081571
-0.02719
-0.14804
-0.14804
-0.045317
0.05136
0.12991
0.14199
0.16616
0.10574
0.11178
0.19033
0.20846
0.20846
0.081571
0.015106
-0.11178
-0.087613
-0.10574
-0.069486
-0.015106
-0.015106
0.18429
0.23263
0.31118
0.37764
0.39577
0.32931
0.20242
0.05136
-0.033233
0.039275
0.20846
0.38369
0.40181
0.43202
0.46224
0.31722
0.19637
0.057402
-0.069486
-0.15408
-0.20846
-0.19637
-0.22659
-0.14804
-0.14804
-0.12991
-0.13595
-0.069486
0.0090634
0.22054
0.34139
0.48036
0.4864
0.42598
0.36556
0.29305
0.22054
0.23867
0.28097
0.28097
0.28701
0.35347
0.40785
0.35952
0.22054
0.081571
-0.045317
-0.14199
-0.10574
-0.063444
0.045317
0.081571
0.18429
0.20242
0.23867
0.24471
0.29909
0.30514
0.26284
0.20846
0.11178
0.081571
0.063444
0.057402
0.015106
0.11178
0.33535
0.43807
0.5287
0.55287
0.52266
0.46828
0.39577
0.28097
0.14804
0.075529
0.15408
0.12991
0.17221
0.15408
0.14804
0.16012
0.22659
0.25076
0.28097
0.22659
0.18429
0.069486
-0.021148
-0.039275
0.033233
0.05136
-0.02719
-0.081571
-0.075529
-0.02719
0.057402
0.27492
0.32931
0.40181
0.35952
0.22054
0.093656
0.069486
0.14199
0.2145
0.22659
0.22054
0.27492
0.25076
0.2568
0.2568
0.16012
0.19033
0.28097
0.29305
0.29909
0.20242
0.22659
0.28097
0.3716
0.43202
0.46224
0.40785
0.38973
0.33535
0.31118
0.35347
0.36556
0.31118
0.26284
0.25076
0.22659
0.12991
-0.093656
-0.16616
-0.25076
-0.26284
-0.17825
-0.20242
-0.28701
-0.38973
-0.4864
-0.47432
-0.51057
-0.45015
-0.40181
-0.28097
-0.081571
0.081571
0.10574
-0.057402
-0.2145
-0.50453
-0.72205
-0.86103
-0.81269
-0.66767
-0.54079
-0.44411
-0.39577
-0.32326
-0.42598
-0.49849
-0.47432
-0.43807
-0.32931
-0.29909
-0.34743
-0.34139
-0.25076
-0.23867
-0.29305
-0.28701
-0.26284
-0.22054
-0.24471
-0.2568
-0.33535
-0.26284
-0.093656
0.12387
0.30514
0.46828
0.50453
0.50453
0.43807
0.35952
0.27492
0.20846
0.12991
0.11782
0.057402
0.087613
0.10574
0.16012
0.081571
0.093656
0.093656
0.14199
0.23867
0.32931
0.41994
0.42598
0.40785
0.20846
0.11782
-0.033233
-0.081571
-0.16012
-0.26888
-0.2145
-0.26888
-0.24471
-0.19637
-0.11178
-0.05136
-0.087613
-0.19033
-0.40785
-0.5287
-0.43807
-0.27492
-0.18429
-0.16616
-0.021148
0.015106
0.05136
-0.0030211
-0.10574
-0.0030211
0.13595
0.28701
0.28097
0.039275
-0.17825
-0.28701
-0.25076
-0.063444
0.063444
0.13595
-0.0090634
-0.12991
-0.15408
-0.087613
0.015106
0.0090634
-0.081571
-0.13595
-0.081571
-0.015106
0.087613
0.093656
0.12991
0.05136
-0.087613
-0.087613
-0.093656
-0.099698
0.0030211
0.093656
0.23867
0.15408
0.10574
-0.02719
-0.12991
-0.22659
-0.34743
-0.32931
-0.19033
-0.05136
-0.0090634
0.075529
0.087613
0.099698
0.057402
0.0030211
0.13595
0.29909
0.43807
0.42598
0.37764
0.16616
0.045317
0.021148
-0.093656
-0.20242
-0.25076
-0.29305
-0.20846
-0.10574
0.045317
0.16616
0.22054
0.17825
0.12387
0.021148
0.02719
0.075529
0.045317
-0.069486
-0.25076
-0.20846
-0.16012
0.057402
0.16012
0.11782
0.02719
0.099698
0.23263
0.34743
0.23867
0.12991
0.069486
0.11782
0.11782
0.081571
0.063444
0.10574
0.18429
0.16616
0.0090634
-0.063444
-0.25076
-0.32931
-0.29305
-0.15408
0.015106
0.057402
0.18429
0.22659
0.18429
0.2145
0.30514
0.40181
0.48036
0.51662
0.47432
0.51057
0.40785
0.42598
0.30514
0.24471
0.2145
0.17825
0.075529
-0.05136
-0.10574
-0.20242
-0.12991
-0.021148
0.14199
0.20846
0.2145
0.20242
0.033233
-0.0090634
0.015106
0.087613
0.16616
0.15408
0.20846
0.23263
0.34743
0.40181
0.26888
0.11782
-0.057402
-0.17221
-0.29909
-0.32931
-0.2568
-0.14199
-0.057402
0.11178
0.12387
0.039275
-0.099698
-0.26284
-0.32931
-0.29909
-0.14804
-0.02719
0.033233
0.11782
0.23263
0.26284
0.28701
0.35347
0.34743
0.34743
0.16012
0.039275
-0.075529
-0.11178
-0.081571
-0.081571
-0.12991
-0.24471
-0.31118
-0.31722
-0.32931
-0.34139
-0.3716
-0.43807
-0.3716
-0.29305
-0.23867
-0.19637
-0.17825
-0.075529
-0.015106
0.075529
0.033233
-0.081571
-0.27492
-0.40181
-0.51057
-0.60121
-0.70997
-0.78852
-0.90937
-0.87311
-0.69184
-0.48036
-0.4139
-0.43807
-0.44411
-0.26888
-0.021148
0.14199
0.20846
0.23263
0.20846
0.16616
0.0090634
-0.093656
-0.015106
0.15408
0.26888
0.4139
0.33535
0.31118
0.29305
0.31118
0.31118
0.17825
0.0090634
-0.12991
-0.2145
-0.17825
-0.10574
0.045317
0.18429
0.4139
0.54079
0.45619
0.38973
0.34139
0.27492
0.27492
0.19637
0.063444
-0.015106
-0.087613
0.033233
0.11782
0.19637
0.14199
0.021148
-0.039275
-0.087613
-0.069486
-0.14804
-0.10574
-0.02719
0.069486
0.15408
0.22659
0.35952
0.28701
0.22054
0.16616
0.11178
0.093656
0.057402
0.057402
0.05136
0.11782
0.12387
0.19033
0.093656
0.057402
-0.02719
-0.057402
0.021148
0.057402
0.10574
0.12991
0.20242
0.18429
0.14804
0.039275
0.039275
0.0090634
-0.081571
-0.057402
0.16012
0.31722
0.33535
0.20846
-0.11178
-0.33535
-0.5287
-0.59517
-0.59517
-0.41994
-0.22054
-0.063444
-0.039275
-0.045317
-0.14804
-0.14804
-0.19033
-0.093656
-0.087613
-0.075529
-0.081571
-0.099698
-0.05136
-0.0030211
-0.021148
-0.17221
-0.22659
-0.23867
-0.16616
-0.27492
-0.40181
-0.51662
-0.49245
-0.43807
-0.40181
-0.32326
-0.38369
-0.29909
-0.19637
-0.039275
0.11782
0.19033
0.20846
0.23263
0.27492
0.19033
0.12387
-0.0090634
-0.099698
-0.14804
-0.34743
-0.36556
-0.49849
-0.63142
-0.67976
-0.73414
-0.63142
-0.57704
-0.35952
-0.22659
-0.11178
-0.045317
-0.10574
-0.14804
-0.24471
-0.33535
-0.49849
-0.76435
-0.92749
-1
-0.9577
-0.78852
-0.46224
-0.13595
0.057402
0.081571
-0.0030211
0.0030211
0.033233
0.075529
0.099698
0.021148
-0.015106
0.10574
0.12387
0.15408
0.12991
0.11782
0.24471
0.45619
0.75227
0.8429
0.92749
0.99396
0.98792
0.86103
0.72205
0.46224
0.28701
0.17221
0.19033
0.34139
0.38369
0.38369
0.37764
0.34743
0.39577
0.50453
0.52266
0.58912
0.5287
0.26284
-0.039275
-0.22054
-0.12991
0.16616
0.34743
0.53474
0.63746
0.54683
0.46224
0.38973
0.40181
0.38369
0.30514
0.17825
0.11178
0.12387
0.30514
0.40785
0.54683
0.60121
0.571
0.5287
0.45015
0.44411
0.31722
0.25076
0.15408
0.057402
0.069486
0.12991
0.38973
0.56495
0.76435
0.86707
0.96375
0.92145
0.8006
0.67372
0.39577
0.15408
-0.063444
-0.17221
-0.28701
-0.35347
-0.45619
-0.54683
-0.49245
-0.3716
-0.20846
-0.015106
0.13595
0.29909
0.34139
0.27492
0.11178
0.05136
-0.033233
-0.0090634
-0.087613
-0.12991
-0.18429
-0.22659
-0.29909
-0.35347
-0.33535
-0.20846
-0.12991
0.02719
0.13595
0.10574
0.02719
-0.075529
-0.26888
-0.43807
-0.55287
-0.55891
-0.40181
-0.26888
-0.16616
-0.19637
-0.27492
-0.35952
-0.37764
-0.4139
-0.48036
-0.41994
-0.28097
-0.15408
-0.063444
-0.087613
-0.28097
-0.46224
-0.57704
-0.50453
-0.2145
0.26284
0.63746
0.79456
0.74622
0.58912
0.22659
-0.015106
-0.23867
-0.26888
-0.26888
-0.19637
-0.075529
0.075529
0.11782
0.19637
0.26284
0.30514
0.43202
0.4139
0.35952
0.22659
0.14804
0.033233
-0.11178
-0.23867
-0.2145
-0.12991
0.0090634
0.17221
0.24471
0.24471
0.23263
0.23263
0.18429
0.14804
0.063444
-0.11178
-0.40785
-0.74622
-0.8852
-0.81269
-0.45015
0.069486
0.54683
0.87311
0.91541
0.93353
0.82477
0.60121
0.32326
0.045317
-0.26888
-0.42598
-0.61329
-0.7281
-0.6858
-0.47432
-0.28097
-0.23263
-0.23867
-0.20242
-0.057402
0.16012
0.4139
0.54683
0.56495
0.48036
0.26284
-0.0030211
-0.4139
-0.7281
-0.8852
-0.78852
-0.571
-0.34743
-0.23867
-0.075529
0.20846
0.52266
0.74622
0.98187
1
0.8852
0.53474
0.12387
-0.36556
-0.57704
-0.73414
-0.64955
-0.49849
-0.27492
0.015106
0.2145
0.26888
0.19033
0.15408
0.05136
0.045317
0.0090634
-0.063444
-0.16616
-0.17221
-0.18429
-0.20242
-0.19033
-0.14199
-0.18429
-0.11178
-0.057402
0.19033
0.32326
0.35952
0.3716
0.34743
0.30514
0.26284
0.12387
0.02719
-0.05136
-0.087613
-0.26888
-0.30514
-0.30514
-0.22659
-0.31722
-0.35952
-0.37764
-0.26888
-0.12387
-0.057402
-0.02719
0.05136
0.12387
0.23867
0.26888
0.10574
-0.069486
-0.17825
-0.15408
0.039275
0.14804
0.15408
0.20846
0.33535
0.31118
0.31722
0.2568
0.20846
0.22054
0.14804
0.12991
0.12991
0.19033
0.35952
0.4139
0.33535
0.28701
0.17825
0.17825
0.099698
0.087613
0.0030211
-0.069486
-0.063444
-0.02719
-0.05136
-0.13595
-0.063444
-0.039275
0.0090634
-0.0030211
-0.021148
-0.045317
-0.093656
-0.05136
-0.069486
-0.075529
-0.11782
-0.16012
-0.13595
-0.075529
0.069486
0.34743
0.53474
0.65559
0.60725
0.31118
0.12387
-0.063444
-0.18429
-0.29305
-0.31118
-0.34139
-0.32931
-0.32326
-0.28701
-0.28097
-0.22659
-0.28097
-0.34139
-0.46828
-0.50453
-0.4139
-0.26888
-0.10574
0.081571
0.18429
0.23263
0.2145
0.16616
0.10574
-0.14804
-0.28701
-0.42598
-0.3716
-0.35952
-0.23263
-0.087613
0.11782
0.33535
0.44411
0.49849
0.45015
0.29909
0.10574
-0.05136
-0.14199
-0.12991
-0.12387
-0.15408
-0.19033
-0.28097
-0.2568
-0.17221
-0.021148
0.17221
0.24471
0.32326
0.20242
0.081571
-0.087613
-0.17825
-0.16616
-0.16616
-0.22659
-0.42598
-0.55891
-0.60725
-0.54079
-0.50453
-0.44411
-0.37764
-0.26284
-0.14199
0.12991
0.26888
0.2145
0.15408
0.021148
-0.10574
-0.14199
-0.16616
-0.11178
-0.14804
0.039275
0.23867
0.56495
0.75831
0.67976
0.51662
0.28701
0.11782
-0.057402
-0.087613
0.0090634
0.15408
0.28097
0.30514
0.35347
0.32931
0.32326
0.33535
0.35347
0.34743
0.28097
0.34743
0.3716
0.4139
0.36556
0.43807
0.40181
0.43807
0.37764
0.31118
0.14804
-0.02719
-0.093656
-0.087613
0.063444
0.17825
0.28701
0.26888
0.28701
0.29909
0.30514
0.42598
0.51662
0.6435
0.65559
0.62538
0.46224
0.18429
-0.021148
-0.20846
-0.29305
-0.40181
-0.42598
-0.4139
-0.40181
-0.34139
-0.26888
-0.14199
-0.039275
0.14804
0.18429
0.16616
0.11782
0.033233
0.021148
0.045317
0.075529
0.12991
0.05136
0.033233
0.081571
0.033233
0.015106
0.057402
0.093656
0.12387
-0.057402
-0.021148
0.0090634
0.087613
0.17221
0.22054
0.31118
0.39577
0.45619
0.48036
0.42598
0.35952
0.29909
0.23867
0.20242
0.26284
0.26888
0.35347
0.44411
0.49245
0.43807
0.46224
0.48036
0.36556
0.45619
0.38369
0.46224
0.4139
0.32931
0.23263
0.069486
-0.039275
-0.099698
-0.063444
0.13595
0.34743
0.45015
0.33535
0.20242
0.081571
0.05136
-0.039275
0.093656
0.22054
0.41994
0.51662
0.52266
0.43807
0.31118
0.26888
0.22054
0.16012
0.087613
0.021148
0.0030211
0.14804
0.20242
0.38369
0.26284
0.17825
0.099698
0.045317
0.05136
0.039275
0.17825
0.20242
0.31722
0.3716
0.35952
0.35347
0.35952
0.28097
0.20242
0.039275
-0.057402
-0.15408
-0.22659
-0.16616
-0.16012
-0.063444
-0.02719
0.093656
0.10574
0.19637
0.26284
0.38973
0.43807
0.34139
0.19033
-0.087613
-0.35952
-0.51057
-0.5287
-0.45015
-0.3716
-0.31118
-0.28701
-0.20242
-0.045317
0.20846
0.4139
0.49849
0.36556
0.057402
-0.19033
-0.2568
-0.28097
-0.24471
-0.2568
-0.2568
-0.17825
-0.12991
-0.0030211
0.099698
0.22054
0.35347
0.32931
0.26888
0.12387
0.099698
0.021148
-0.015106
0.099698
0.11782
0.11782
-0.0090634
-0.093656
-0.2145
-0.25076
-0.19033
-0.057402
0.015106
0.063444
0.033233
0.057402
0.15408
0.24471
0.19033
0.02719
-0.069486
-0.12387
-0.17221
-0.069486
-0.039275
0.099698
0.069486
0.02719
-0.015106
-0.14804
-0.24471
-0.26284
-0.20846
-0.13595
-0.13595
-0.099698
-0.16012
-0.19637
-0.27492
-0.29909
-0.29909
-0.16012
-0.12991
-0.29909
-0.28097
-0.33535
-0.24471
-0.22054
-0.18429
-0.10574
-0.045317
-0.015106
0.015106
-0.0090634
-0.057402
-0.12991
-0.075529
-0.0030211
0.081571
0.20242
0.18429
0.2145
0.057402
-0.12991
-0.22659
-0.29305
-0.34743
-0.42598
-0.46224
-0.32931
-0.14804
-0.075529
0.0090634
0.021148
0.057402
-0.021148
-0.18429
-0.51057
-0.78852
-0.95166
-0.92749
-0.90332
-0.71601
-0.50453
-0.31118
-0.057402
0.19033
0.42598
0.4864
0.37764
0.093656
-0.22659
-0.4864
-0.65559
-0.65559
-0.47432
-0.26888
-0.015106
0.22659
0.25076
0.22659
0.13595
0.039275
0.063444
0.11782
0.14804
0.14199
0.087613
-0.093656
-0.32931
-0.49245
-0.42598
-0.24471
-0.10574
0.087613
0.23867
0.34743
0.28701
0.13595
-0.12387
-0.31118
-0.3716
-0.42598
-0.54683
-0.55891
-0.45015
-0.22659
-0.021148
0.02719
0.015106
0.0090634
0.05136
0.12387
0.11782
0.063444
-0.05136
-0.17825
-0.29909
-0.43202
-0.37764
-0.38369
-0.34139
-0.29305
-0.12387
0.087613
0.28097
0.30514
0.099698
-0.015106
-0.05136
-0.075529
-0.10574
-0.19033
-0.24471
-0.20242
-0.18429
0.033233
0.16616
0.30514
0.38369
0.4864
0.4864
0.55891
0.53474
0.50453
0.41994
0.39577
0.35952
0.28701
0.23263
0.2568
0.36556
0.33535
0.36556
0.22054
0.20846
0.14804
0.19637
0.16616
0.16012
0.15408
0.19637
0.24471
0.31118
0.38973
0.28097
0.26284
0.22054
0.2145
0.22054
0.20846
0.25076
0.29909
0.26284
0.31118
0.23263
0.12991
0.17825
0.26888
0.28701
0.29909
0.23867
0.2145
0.12991
-0.063444
-0.25076
-0.40785
-0.26284
-0.12991
0.039275
0.075529
0.14804
0.35347
0.42598
0.39577
0.22054
0.19637
0.16616
0.28097
0.38369
0.32326
0.26284
0.22054
0.10574
-0.039275
-0.17825
-0.33535
-0.45619
-0.42598
-0.38369
-0.33535
-0.19033
-0.05136
0.11782
0.24471
0.20846
0.28097
0.22659
0.12387
-0.045317
-0.23263
-0.31118
-0.29909
-0.17221
-0.081571
-0.015106
0.0030211
0.039275
-0.0090634
0.033233
0.15408
0.19637
0.22054
0.17825
-0.021148
-0.28097
-0.48036
-0.51662
-0.44411
-0.32326
-0.093656
0.033233
0.2145
0.26284
0.25076
0.045317
-0.16012
-0.34743
-0.53474
-0.69184
-0.72205
-0.80665
-0.81269
-0.61329
-0.31118
0.02719
0.15408
0.23263
0.34139
0.2568
0.16012
0.0090634
-0.05136
-0.033233
-0.015106
-0.021148
-0.11782
-0.081571
0.0090634
0.099698
0.063444
-0.015106
-0.19033
-0.29909
-0.44411
-0.51662
-0.48036
-0.36556
-0.099698
0.093656
0.28701
0.37764
0.2568
0.05136
-0.24471
-0.38369
-0.4864
-0.60121
-0.42598
-0.20242
0.057402
0.17221
0.16012
0.099698
0.05136
0.0030211
-0.069486
-0.34139
-0.47432
-0.51057
-0.41994
-0.35952
-0.16012
0.14804
0.45619
0.63746
0.55891
0.25076
-0.093656
-0.32326
-0.46224
-0.34139
-0.16616
0.11178
0.40785
0.64955
0.79456
0.73414
0.55287
0.38973
0.25076
0.11178
-0.16616
-0.19033
-0.099698
0.18429
0.4864
0.67372
0.64955
0.61329
0.70997
0.75831
0.77644
0.65559
0.56495
0.57704
0.54079
0.49245
0.26888
0.081571
-0.10574
-0.0090634
-0.015106
0.063444
-0.069486
-0.10574
-0.22054
-0.26888
-0.2568
-0.12387
0.015106
0.22659
0.22659
0.11782
-0.12387
-0.38973
-0.59517
-0.70393
-0.7281
-0.58912
-0.49245
-0.24471
0.045317
0.2145
0.31722
0.30514
0.12991
-0.087613
-0.32931
-0.43202
-0.48036
-0.45619
-0.43202
-0.19637
-0.0030211
0.23867
0.39577
0.26888
0.22054
0.14199
0.069486
-0.045317
-0.021148
-0.057402
-0.20242
-0.26284
-0.22659
-0.033233
0.057402
0.19637
0.23867
0.22659
0.16616
0.039275
-0.11782
-0.19033
-0.22054
-0.2145
-0.20846
-0.20846
-0.29305
-0.34743
-0.31118
-0.057402
0.14804
0.19637
0.075529
0.039275
-0.039275
-0.075529
-0.14199
-0.14199
-0.099698
-0.081571
-0.05136
-0.17221
-0.12991
-0.081571
-0.057402
-0.069486
-0.021148
0.11178
0.11782
0.12387
0.075529
0.039275
0.045317
-0.039275
-0.069486
-0.075529
-0.16012
-0.14804
-0.12991
-0.16616
-0.099698
-0.25076
-0.43202
-0.47432
-0.40785
-0.32326
-0.26284
-0.29305
-0.18429
-0.087613
0.17221
0.32931
0.3716
0.16616
-0.0090634
-0.22054
-0.35347
-0.3716
-0.30514
-0.11178
-0.0030211
0.17221
0.23867
0.32931
0.36556
0.34743
0.25076
0.23867
0.23867
0.30514
0.35952
0.38973
0.34139
0.38369
0.32931
0.38369
0.34139
0.33535
0.30514
0.31722
0.20242
0.17221
0.14199
0.099698
-0.033233
-0.045317
0.087613
0.26888
0.38369
0.32931
0.34743
0.29305
0.26284
0.18429
0.093656
0.12387
0.19637
0.19033
0.14804
0.16012
0.17825
0.13595
-0.015106
-0.081571
-0.10574
0.02719
0.27492
0.40785
0.37764
0.36556
0.19637
0.20242
-0.021148
-0.045317
-0.14199
-0.18429
-0.05136
0.17825
0.42598
0.54683
0.66767
0.61329
0.56495
0.37764
0.2145
-0.0090634
-0.087613
-0.02719
0.18429
0.33535
0.43202
0.51662
0.58912
0.58912
0.55287
0.38369
0.26284
0.13595
0.12991
0.11782
0.14804
0.26888
0.32931
0.42598
0.3716
0.39577
0.34139
0.39577
0.33535
0.29909
0.19637
0.25076
0.29909
0.38369
0.51662
0.60725
0.62538
0.49245
0.27492
0.16616
0.0090634
0.045317
0.039275
0.14804
0.17221
0.35347
0.38369
0.25076
0.23867
0.29305
0.28701
0.15408
0.033233
-0.02719
-0.069486
-0.039275
0.057402
0.10574
0.19637
0.18429
0.081571
0.0090634
-0.063444
-0.14199
-0.18429
-0.14199
-0.039275
0.015106
-0.093656
-0.16616
-0.23263
-0.32931
-0.35952
-0.29909
-0.20242
-0.20846
-0.17825
-0.20242
-0.27492
-0.30514
-0.29305
-0.34743
-0.27492
-0.2145
-0.087613
-0.13595
-0.25076
-0.30514
-0.29305
-0.26888
-0.25076
-0.13595
-0.039275
0.039275
-0.0090634
-0.23867
-0.28701
-0.24471
-0.039275
0.069486
0.20846
0.2145
0.26888
0.19637
0.19637
0.05136
-0.087613
-0.28097
-0.23263
-0.28097
-0.25076
-0.18429
-0.12387
-0.14199
-0.021148
0.0090634
0.093656
-0.057402
-0.22659
-0.33535
-0.34743
-0.38973
-0.32326
-0.28701
-0.2568
-0.16012
-0.057402
-0.02719
0.069486
0.093656
0.02719
-0.087613
-0.15408
-0.26888
-0.31722
-0.2145
-0.12387
-0.0030211
0.0030211
0.087613
0.15408
0.19637
0.19033
0.069486
-0.11178
-0.11782
-0.075529
0.069486
-0.0030211
0.069486
0.16012
0.23263
0.2145
0.22054
0.12991
0.17825
0.19637
0.12387
-0.039275
-0.11782
-0.093656
-0.0030211
0.11782
0.20846
0.26284
0.17221
-0.0030211
-0.039275
-0.081571
-0.16616
-0.11782
-0.16616
-0.16012
-0.063444
0.063444
0.17221
0.14804
0.02719
-0.045317
-0.12387
-0.16012
-0.033233
0.02719
0.15408
0.2568
0.17825
0.11178
-0.05136
-0.12991
-0.18429
-0.22054
-0.32326
-0.52266
-0.59517
-0.54683
-0.34139
-0.32931
-0.32931
-0.34743
-0.31722
-0.32326
-0.38973
-0.35347
-0.34139
-0.29305
-0.25076
-0.39577
-0.49849
-0.64955
-0.64955
-0.58308
-0.55891
-0.49849
-0.45619
-0.45015
-0.42598
-0.49245
-0.58912
-0.61934
-0.63142
-0.53474
-0.53474
-0.3716
-0.32931
-0.35952
-0.46828
-0.63142
-0.64955
-0.63142
-0.54079
-0.48036
-0.41994
-0.32326
-0.35347
-0.37764
-0.46224
-0.4139
-0.31722
-0.2145
-0.25076
-0.14199
-0.22659
-0.16616
-0.15408
-0.063444
-0.0090634
0.015106
0.045317
0.015106
-0.0090634
0.033233
0.087613
0.05136
0.045317
0.087613
0.13595
0.24471
0.24471
0.19637
0.18429
0.19033
0.29909
0.31722
0.42598
0.47432
0.54683
0.41994
0.27492
0.28097
0.26888
0.28097
0.29305
0.28097
0.29909
0.23263
0.063444
-0.045317
-0.12991
0.015106
0.16012
0.33535
0.41994
0.35952
0.33535
0.33535
0.37764
0.37764
0.19033
0.11782
0.099698
0.17221
0.11178
0.10574
0.033233
0.057402
0.11782
0.11782
0.063444
0.021148
0.075529
0.087613
0.11782
0.05136
0.0090634
-0.033233
0.02719
0.093656
0.087613
-0.0030211
0.057402
0.14199
0.31722
0.4139
0.39577
0.25076
0.12387
0.05136
-0.015106
-0.075529
-0.12387
-0.063444
0.039275
0.11782
0.13595
0.14199
0.14199
0.23867
0.39577
0.37764
0.38369
0.38973
0.36556
0.32931
0.33535
0.26888
0.093656
-0.081571
-0.17221
-0.13595
-0.10574
-0.02719
0.075529
0.19033
0.23867
0.14804
0.021148
-0.17825
-0.19637
-0.22659
-0.16616
-0.11782
-0.099698
-0.16012
-0.22054
-0.25076
-0.23263
-0.29305
-0.17221
0.039275
0.25076
0.28701
0.26888
0.11178
-0.033233
-0.081571
-0.14199
-0.19637
-0.34743
-0.39577
-0.39577
-0.22054
-0.015106
0.081571
0.069486
-0.069486
-0.19033
-0.28701
-0.30514
-0.32326
-0.26284
-0.33535
-0.35347
-0.30514
-0.26284
-0.14199
0.069486
0.22659
0.31118
0.32326
0.19637
0.063444
-0.25076
-0.43807
-0.58308
-0.72205
-0.66767
-0.49849
-0.23263
-0.02719
0.099698
0.20242
0.12991
0.081571
0.021148
-0.069486
-0.087613
-0.13595
-0.23263
-0.4139
-0.55891
-0.54079
-0.39577
-0.2145
0.05136
0.24471
0.3716
0.23867
0.0030211
-0.20846
-0.28701
-0.18429
-0.10574
-0.057402
0.021148
0.19637
0.34139
0.24471
