-0.11111
-0.087719
-0.052632
0.064327
-0.017544
-0.16959
-0.61404
-0.67251
-0.69591
-0.52047
-0.35673
-0.26316
-0.25146
-0.29825
-0.26316
-0.35673
-0.21637
-0.005848
0.02924
-0.087719
-0.26316
-0.39181
-0.46199
-0.45029
-0.55556
-0.62573
-0.74269
-0.52047
-0.22807
-0.052632
-0.02924
-0.12281
-0.15789
-0.25146
-0.23977
-0.26316
-0.32164
-0.39181
-0.36842
-0.26316
-0.21637
-0.21637
-0.18129
0.005848
0.1462
0.29825
0.28655
0.087719
0.076023
-0.087719
-0.35673
-0.4152
-0.40351
-0.32164
-0.32164
-0.32164
-0.32164
-0.36842
-0.26316
-0.040936
0.064327
0.064327
0.1345
0.12281
0.22807
0.18129
0.099415
-0.017544
-0.052632
-0.16959
-0.32164
-0.39181
-0.47368
-0.22807
-0.30994
-0.15789
-0.099415
-0.064327
-0.017544
-0.12281
-0.02924
-0.11111
-0.20468
-0.12281
-0.005848
0.005848
-0.099415
-0.087719
-0.22807
-0.20468
-0.21637
-0.11111
-0.087719
0.1345
0.099415
0.052632
-0.20468
-0.30994
-0.18129
-0.02924
0.21637
0.27485
0.1462
-0.087719
-0.087719
0.02924
0.087719
0.1462
0.040936
0.11111
0.1345
0.20468
0.21637
0.1462
0.11111
0.12281
0.22807
0.21637
0.27485
0.26316
0.22807
0.22807
0.33333
0.29825
0.32164
0.32164
0.4269
0.39181
0.4269
0.53216
0.57895
0.52047
0.27485
0.017544
-0.23977
-0.25146
-0.20468
-0.1345
-0.18129
-0.30994
-0.26316
-0.50877
-0.60234
-0.56725
-0.33333
-0.11111
0.076023
0.18129
0.052632
-0.11111
-0.18129
-0.005848
0.11111
0.25146
0.18129
0.087719
0.12281
0.076023
0.11111
0.087719
0.11111
0.052632
-0.017544
-0.040936
-0.005848
0.052632
-0.040936
-0.076023
-0.040936
-0.1345
-0.20468
-0.20468
-0.11111
0.099415
0.39181
0.45029
0.4269
0.34503
0.4152
0.36842
0.26316
0.26316
0.25146
0.21637
0.064327
-0.017544
-0.12281
-0.040936
0.076023
0.22807
0.27485
0.4386
0.56725
0.50877
0.48538
0.4386
0.35673
0.15789
0.005848
0.02924
0.005848
-0.087719
-0.19298
-0.21637
-0.19298
-0.076023
-0.017544
-0.040936
-0.040936
0.064327
0.087719
-0.099415
-0.26316
-0.23977
-0.19298
0.052632
0.16959
0.21637
0.076023
-0.099415
-0.21637
-0.30994
-0.4386
-0.56725
-0.56725
-0.54386
-0.35673
-0.25146
-0.26316
-0.16959
-0.017544
0.15789
0.19298
0.1462
0.064327
-0.017544
-0.040936
-0.064327
-0.099415
-0.23977
-0.21637
-0.28655
-0.36842
-0.40351
-0.45029
-0.46199
-0.56725
-0.48538
-0.34503
-0.26316
-0.34503
-0.4152
-0.52047
-0.4269
-0.23977
-0.26316
-0.26316
-0.36842
-0.32164
-0.35673
-0.39181
-0.36842
-0.20468
-0.12281
-0.064327
0.02924
-0.076023
-0.052632
0.099415
0.29825
0.23977
0.18129
0.087719
-0.064327
0.040936
0.19298
0.49708
0.67251
0.67251
0.68421
0.56725
0.49708
0.40351
0.29825
0.21637
0.087719
0.02924
-0.22807
-0.33333
-0.28655
-0.017544
0.12281
0.19298
0.1462
0.12281
0.15789
0.23977
0.005848
-0.16959
-0.34503
-0.49708
-0.33333
-0.12281
0.15789
0.20468
0.076023
0.087719
0.040936
-0.052632
-0.076023
-0.017544
0.12281
0.1462
0.1345
0.040936
-0.099415
-0.23977
-0.29825
-0.21637
-0.052632
0.1345
0.1462
0.099415
-0.040936
-0.099415
-0.32164
-0.50877
-0.67251
-0.66082
-0.47368
-0.28655
-0.1462
-0.21637
-0.19298
0.076023
0.22807
0.27485
0.26316
0.38012
0.38012
0.4152
0.4152
0.39181
0.32164
0.23977
0.23977
0.052632
0.02924
-0.02924
0.005848
-0.12281
-0.20468
-0.12281
-0.076023
0.1462
0.18129
0.12281
-0.18129
-0.26316
-0.1462
0.087719
0.21637
0.18129
0.052632
-0.052632
0.064327
-0.02924
-0.1462
-0.28655
-0.15789
-0.087719
-0.005848
0.02924
-0.005848
0.017544
-0.087719
-0.017544
0.02924
0.052632
0.017544
-0.18129
-0.21637
-0.1462
0.052632
0.11111
0.18129
0.28655
0.32164
0.20468
0.040936
0.099415
0.017544
0.25146
0.28655
0.35673
0.35673
0.20468
0.19298
0.1345
0.11111
-0.005848
-0.16959
-0.4152
-0.47368
-0.26316
-0.076023
0.12281
0.19298
0.18129
0.064327
-0.099415
-0.15789
-0.28655
-0.36842
-0.35673
-0.32164
-0.47368
-0.53216
-0.4269
-0.34503
-0.11111
0.087719
0.19298
0.22807
0.22807
0.040936
-0.16959
-0.4152
-0.46199
-0.35673
-0.18129
0.11111
0.18129
0.064327
-0.1345
-0.32164
-0.39181
-0.4386
-0.4152
-0.36842
-0.18129
-0.040936
0.052632
0.099415
0.11111
0.4269
0.54386
0.45029
0.25146
0.064327
-0.12281
-0.22807
-0.35673
-0.4269
-0.47368
-0.4152
-0.1345
-0.064327
0.017544
-0.02924
-0.005848
-0.1345
-0.26316
-0.15789
-0.087719
-0.02924
-0.040936
-0.11111
-0.1462
-0.32164
-0.25146
-0.20468
-0.02924
0.02924
0.076023
0.1345
0.18129
0.052632
-0.1345
-0.21637
-0.02924
0.22807
0.34503
0.4386
0.38012
0.30994
0.32164
0.4386
0.52047
0.4386
0.47368
0.38012
0.23977
0.087719
0.1462
0.30994
0.23977
0.4269
0.40351
0.34503
0.11111
0.02924
-0.099415
-0.087719
0.052632
0.21637
0.076023
-0.064327
-0.12281
-0.087719
0.099415
0.23977
0.052632
-0.12281
-0.16959
-0.16959
-0.22807
-0.36842
-0.36842
-0.18129
0.017544
0.087719
0.02924
-0.11111
-0.15789
-0.087719
-0.052632
-0.099415
-0.20468
-0.087719
-0.076023
-0.040936
-0.087719
-0.076023
-0.18129
-0.16959
-0.02924
0.005848
0.005848
-0.18129
-0.35673
-0.50877
-0.47368
-0.40351
-0.35673
-0.35673
-0.15789
0.1462
0.45029
0.61404
0.56725
0.26316
-0.005848
-0.23977
-0.27485
-0.27485
-0.25146
-0.45029
-0.4269
-0.27485
-0.052632
0.11111
0.02924
0.087719
0.11111
0.064327
0.076023
0.1345
0.16959
-0.02924
-0.017544
-0.087719
-0.064327
-0.087719
-0.12281
-0.20468
-0.30994
-0.33333
-0.38012
-0.32164
-0.22807
-0.064327
-0.040936
-0.005848
-0.064327
0.064327
0.16959
0.15789
0.25146
0.040936
-0.18129
-0.30994
-0.4269
-0.49708
-0.50877
-0.32164
-0.15789
0.052632
0.26316
0.21637
0.076023
-0.02924
-0.064327
-0.064327
-0.005848
0.005848
-0.005848
-0.02924
-0.076023
-0.19298
-0.20468
-0.20468
-0.017544
0.11111
0.1345
0.087719
-0.005848
-0.040936
0.099415
0.28655
0.25146
0.052632
-0.1345
-0.23977
-0.15789
-0.040936
0.099415
0.005848
-0.18129
-0.12281
-0.29825
-0.32164
-0.38012
-0.25146
-0.29825
-0.35673
-0.25146
-0.15789
-0.21637
-0.38012
-0.49708
-0.54386
-0.39181
-0.36842
-0.38012
-0.4269
-0.52047
-0.40351
-0.33333
-0.1462
0.099415
0.25146
0.22807
0.1462
0.20468
0.1462
0.15789
0.12281
0.076023
0.005848
0.052632
0.18129
0.087719
-0.02924
-0.11111
-0.087719
-0.076023
0.040936
0.064327
0.099415
-0.005848
-0.064327
0.1345
0.35673
0.62573
0.80117
0.64912
0.50877
0.33333
0.23977
-0.005848
-0.11111
-0.052632
-0.064327
-0.02924
0.087719
0.087719
0.076023
0.15789
0.076023
0.040936
-0.18129
-0.21637
-0.1462
-0.16959
-0.18129
-0.099415
-0.12281
-0.087719
-0.064327
-0.12281
-0.23977
-0.1462
-0.076023
0.087719
0.22807
0.4269
0.30994
0.26316
0.28655
0.16959
0.087719
-0.017544
0.02924
-0.040936
-0.040936
-0.15789
-0.28655
-0.38012
-0.4386
-0.34503
-0.35673
-0.20468
-0.11111
-0.017544
0.040936
-0.052632
0.087719
0.052632
0.22807
0.34503
0.36842
0.18129
0.02924
-0.16959
-0.27485
-0.33333
-0.39181
-0.35673
-0.38012
-0.34503
-0.21637
-0.18129
-0.099415
-0.02924
-0.017544
-0.064327
-0.02924
0.12281
0.25146
0.34503
0.33333
0.36842
0.34503
0.36842
0.32164
0.33333
0.49708
0.59064
0.63743
0.52047
0.26316
-0.005848
-0.33333
-0.30994
-0.12281
0.052632
0.1345
0.28655
0.30994
0.4152
0.40351
0.33333
0.099415
-0.12281
-0.052632
0.11111
0.1462
0.02924
-0.087719
-0.25146
-0.22807
-0.1345
0.11111
0.1462
0.20468
0.12281
-0.02924
-0.22807
-0.34503
-0.39181
-0.27485
-0.11111
0.12281
0.005848
-0.099415
-0.1462
-0.12281
-0.26316
-0.47368
-0.50877
-0.53216
-0.53216
-0.48538
-0.54386
-0.4386
-0.1462
0.076023
0.1462
0.15789
0.22807
0.1345
0.02924
-0.18129
-0.22807
-0.16959
-0.1345
-0.1345
-0.16959
-0.23977
-0.18129
-0.22807
-0.20468
-0.1345
-0.017544
0.005848
-0.099415
-0.20468
-0.27485
-0.34503
-0.4386
-0.33333
-0.15789
-0.087719
0.1462
0.005848
-0.076023
-0.052632
0.076023
0.052632
0.052632
0.18129
0.30994
0.35673
0.22807
0.22807
0.087719
-0.040936
-0.15789
-0.32164
-0.40351
-0.50877
-0.54386
-0.57895
-0.32164
-0.02924
0.28655
0.23977
-0.064327
-0.22807
-0.32164
-0.1345
0.005848
0.15789
0.005848
-0.16959
-0.087719
-0.005848
0.040936
0.076023
-0.040936
-0.15789
-0.22807
-0.20468
-0.29825
-0.32164
-0.36842
-0.38012
-0.36842
-0.26316
-0.39181
-0.52047
-0.54386
-0.35673
-0.21637
-0.25146
-0.36842
-0.56725
-0.57895
-0.53216
-0.40351
-0.28655
-0.45029
-0.4269
-0.48538
-0.50877
-0.53216
-0.46199
-0.38012
-0.39181
-0.30994
-0.30994
-0.39181
-0.46199
-0.48538
-0.62573
-0.64912
-0.63743
-0.52047
-0.64912
-0.78947
-0.7193
-0.62573
-0.4152
-0.22807
-0.22807
-0.21637
-0.21637
-0.087719
-0.064327
-0.005848
0.1345
0.21637
0.1462
-0.099415
-0.099415
-0.087719
0.15789
0.40351
0.50877
0.46199
0.30994
0.087719
-0.087719
-0.076023
0.064327
0.1462
0.12281
0.11111
0.052632
-0.02924
-0.16959
-0.22807
-0.26316
-0.16959
0.1345
0.1462
-0.02924
-0.22807
-0.15789
0.052632
0.017544
-0.16959
-0.4269
-0.4386
-0.39181
-0.34503
-0.26316
-0.32164
-0.15789
-0.099415
-0.1345
-0.22807
-0.26316
-0.29825
-0.21637
-0.1345
-0.087719
-0.26316
-0.34503
-0.21637
-0.02924
0.19298
0.38012
0.48538
0.45029
0.29825
0.19298
-0.076023
0.017544
0.087719
0.27485
0.21637
0.12281
0.12281
0.11111
0.15789
0.005848
-0.1462
-0.27485
-0.28655
0.02924
0.20468
0.52047
0.81287
0.82456
0.67251
0.32164
-0.076023
-0.30994
-0.46199
-0.55556
-0.50877
-0.48538
-0.12281
0.18129
0.36842
0.40351
0.45029
0.23977
0.076023
0.087719
0.064327
0.02924
-0.052632
0.005848
0.1462
0.12281
0.16959
0.16959
0.23977
0.38012
0.40351
0.28655
0.087719
0.005848
-0.017544
-0.040936
-0.064327
-0.076023
-0.052632
-0.30994
-0.46199
-0.61404
-0.66082
-0.48538
-0.39181
-0.34503
-0.22807
0.040936
0.26316
0.34503
0.38012
0.35673
0.12281
-0.064327
-0.11111
-0.076023
0.12281
0.076023
-0.052632
-0.30994
-0.4152
-0.30994
-0.1345
0.02924
0.1462
0.33333
0.45029
0.61404
0.73099
0.7193
0.64912
0.4152
0.11111
-0.21637
-0.49708
-0.62573
-0.68421
-0.73099
-0.55556
-0.4386
-0.38012
-0.48538
-0.55556
-0.46199
-0.28655
0.064327
0.19298
0.20468
0.15789
0.19298
0.15789
-0.16959
-0.25146
-0.36842
-0.28655
-0.32164
-0.38012
-0.4152
-0.49708
-0.45029
-0.40351
-0.40351
-0.099415
0.21637
0.4386
0.38012
0.26316
0.087719
0.017544
-0.12281
-0.18129
-0.32164
-0.38012
-0.27485
-0.26316
-0.34503
-0.26316
-0.34503
-0.16959
0.02924
0.28655
0.38012
0.25146
0.040936
-0.017544
-0.052632
0.11111
0.26316
0.21637
-0.017544
-0.099415
-0.076023
-0.02924
-0.052632
0.076023
0.19298
0.29825
0.40351
0.16959
-0.26316
-0.45029
-0.33333
0.017544
0.25146
0.35673
0.33333
0.15789
-0.017544
-0.16959
-0.087719
0.040936
0.34503
0.50877
0.56725
0.49708
0.4152
0.28655
0.36842
0.59064
0.60234
0.55556
0.4152
0.54386
0.53216
0.45029
0.35673
0.26316
0.064327
0.052632
-0.052632
-0.099415
-0.1345
-0.064327
-0.064327
-0.02924
-0.12281
-0.087719
-0.16959
-0.11111
-0.15789
-0.12281
-0.20468
-0.1462
-0.052632
0.076023
0.15789
0.16959
0.20468
0.064327
-0.087719
-0.18129
-0.26316
-0.1462
-0.064327
-0.005848
-0.017544
-0.052632
-0.017544
-0.21637
-0.25146
-0.23977
-0.017544
0.052632
0.076023
-0.076023
-0.22807
-0.29825
-0.19298
-0.1345
-0.11111
0.005848
0.087719
0.1462
0.36842
0.50877
0.52047
0.28655
0.16959
-0.005848
0.005848
-0.12281
-0.15789
-0.19298
-0.27485
-0.35673
-0.57895
-0.68421
-0.62573
-0.4269
-0.27485
-0.32164
-0.40351
-0.4152
-0.54386
-0.53216
-0.39181
-0.34503
-0.34503
-0.19298
-0.052632
0.20468
0.32164
0.54386
0.62573
0.69591
0.74269
0.57895
0.29825
-0.076023
-0.087719
-0.076023
0.18129
0.30994
0.38012
0.25146
0.017544
-0.11111
-0.32164
-0.32164
-0.30994
-0.15789
-0.1462
-0.017544
-0.005848
-0.076023
-0.1345
0.005848
0.12281
0.052632
0.052632
-0.017544
-0.1462
-0.19298
-0.26316
-0.23977
-0.30994
-0.18129
-0.21637
-0.33333
-0.4152
-0.33333
-0.23977
-0.33333
-0.38012
-0.36842
-0.4152
-0.32164
-0.19298
-0.064327
-0.076023
-0.005848
0.005848
0.02924
0.076023
0.099415
-0.017544
-0.076023
0.1345
0.35673
0.50877
0.4386
0.23977
-0.02924
-0.23977
-0.27485
-0.25146
-0.18129
-0.25146
-0.15789
-0.26316
-0.18129
-0.099415
-0.064327
-0.064327
-0.1462
-0.1462
-0.21637
-0.33333
-0.46199
-0.52047
-0.52047
-0.40351
-0.19298
-0.12281
-0.017544
0.19298
0.38012
0.4152
0.27485
0.12281
-0.25146
-0.4269
-0.60234
-0.63743
-0.53216
-0.28655
-0.11111
-0.11111
-0.19298
-0.18129
-0.12281
-0.099415
-0.052632
-0.076023
-0.25146
-0.4386
-0.59064
-0.4386
-0.34503
-0.12281
-0.16959
-0.1462
-0.28655
-0.33333
-0.46199
-0.48538
-0.20468
0.099415
0.25146
0.26316
0.20468
0.16959
0.16959
0.064327
-0.1462
-0.46199
-0.64912
-0.69591
-0.57895
-0.50877
-0.47368
-0.54386
-0.67251
-0.63743
-0.39181
-0.21637
-0.076023
-0.005848
0.099415
0.18129
0.20468
0.20468
0.099415
-0.005848
0.040936
0.087719
0.02924
0.005848
0.099415
-0.005848
0.017544
-0.11111
-0.02924
0.087719
0.1462
0.29825
0.35673
0.34503
0.29825
0.11111
-0.16959
-0.22807
-0.19298
-0.076023
0.052632
0.23977
0.22807
0.22807
0.22807
0.18129
0.064327
0.11111
0.25146
0.54386
0.60234
0.60234
0.53216
0.4152
0.35673
0.34503
0.48538
0.53216
0.53216
0.38012
0.052632
-0.18129
-0.26316
-0.27485
-0.1345
0.052632
0.16959
0.19298
0.26316
0.16959
0.12281
-0.099415
-0.22807
-0.19298
-0.27485
-0.21637
-0.11111
-0.22807
-0.22807
-0.20468
0.017544
0.23977
0.29825
0.29825
0.02924
-0.1345
-0.21637
-0.18129
-0.21637
-0.15789
-0.099415
-0.099415
0.040936
0.18129
0.20468
0.16959
0.1345
0.15789
-0.11111
-0.27485
-0.33333
-0.21637
-0.076023
0.064327
0.087719
0.087719
-0.040936
-0.12281
-0.29825
-0.47368
-0.4152
-0.45029
-0.25146
-0.02924
0.099415
0.23977
0.1345
0.11111
-0.11111
-0.36842
-0.50877
-0.45029
-0.26316
-0.087719
0.15789
0.30994
0.30994
0.064327
-0.052632
-0.040936
0.064327
0.19298
0.18129
0.087719
-0.064327
-0.12281
-0.20468
-0.1345
0.052632
0.19298
0.28655
0.28655
0.18129
0.052632
-0.12281
-0.19298
-0.25146
-0.39181
-0.47368
-0.26316
-0.18129
0.087719
0.22807
0.40351
0.52047
0.61404
0.59064
0.35673
0.052632
0.076023
0.12281
0.33333
0.4386
0.35673
0.005848
-0.21637
-0.25146
-0.017544
0.19298
0.38012
0.54386
0.62573
0.49708
0.4269
0.29825
0.34503
0.4386
0.47368
0.45029
0.50877
0.55556
0.4386
0.21637
0.21637
0.23977
0.25146
0.23977
0.32164
0.35673
0.35673
0.38012
0.30994
0.26316
0.22807
0.18129
-0.064327
-0.12281
-0.099415
0.02924
0.15789
0.22807
0.15789
0.017544
0.052632
0.20468
0.4269
0.4152
0.29825
0.20468
-0.005848
-0.064327
0.040936
0.064327
-0.087719
-0.27485
-0.20468
-0.052632
0.087719
0.12281
-0.064327
-0.20468
-0.18129
-0.099415
-0.052632
-0.12281
-0.052632
0.017544
-0.02924
0.064327
0.02924
-0.005848
0.017544
0.040936
0.076023
-0.040936
0.005848
0.15789
0.005848
-0.11111
-0.25146
-0.32164
-0.4386
-0.46199
-0.48538
-0.59064
-0.7193
-0.62573
-0.49708
-0.36842
-0.087719
-0.064327
-0.1345
-0.21637
-0.28655
-0.26316
-0.36842
-0.40351
-0.46199
-0.47368
-0.23977
-0.21637
-0.18129
-0.33333
-0.32164
-0.40351
-0.46199
-0.67251
-0.63743
-0.53216
-0.26316
0.040936
-0.064327
-0.23977
-0.45029
-0.48538
-0.36842
-0.25146
-0.25146
-0.20468
-0.36842
-0.4152
-0.46199
-0.55556
-0.46199
-0.25146
0.005848
0.11111
0.29825
0.45029
0.21637
-0.005848
-0.33333
-0.47368
-0.53216
-0.27485
-0.005848
0.4269
0.67251
0.78947
0.53216
-0.017544
-0.32164
-0.49708
-0.52047
-0.38012
-0.16959
0.02924
0.017544
0.02924
-0.099415
-0.15789
-0.26316
-0.30994
-0.33333
-0.38012
-0.12281
0.02924
0.087719
-0.017544
0.017544
0.02924
0.005848
0.16959
0.1345
0.052632
0.017544
0.040936
0.12281
0.20468
0.4386
0.55556
0.53216
0.30994
0.22807
0.12281
0.099415
0.076023
-0.017544
-0.099415
-0.22807
-0.16959
-0.076023
0.02924
0.12281
0.26316
0.39181
0.59064
0.63743
0.4269
0.27485
0.27485
0.32164
0.32164
0.22807
0.27485
0.040936
0.11111
0.005848
-0.005848
0.005848
0.02924
-0.052632
-0.12281
-0.099415
-0.099415
-0.1345
-0.23977
-0.28655
-0.22807
-0.1462
-0.064327
-0.099415
-0.040936
-0.1345
0.099415
0.18129
0.22807
0.22807
0.076023
-0.28655
-0.59064
-0.74269
-0.74269
-0.60234
-0.4269
-0.22807
-0.15789
-0.27485
-0.39181
-0.49708
-0.46199
-0.30994
-0.21637
-0.19298
-0.19298
-0.1462
-0.1462
-0.25146
-0.23977
-0.12281
-0.087719
0.017544
0.1345
0.1462
-0.052632
-0.22807
-0.29825
-0.34503
-0.25146
-0.11111
0.052632
0.052632
-0.076023
-0.064327
-0.076023
0.064327
0.15789
0.21637
0.16959
0.15789
0.005848
-0.27485
-0.45029
-0.49708
-0.4152
-0.35673
-0.52047
-0.47368
-0.4386
-0.30994
-0.20468
-0.18129
-0.28655
-0.28655
-0.32164
-0.30994
-0.29825
-0.040936
-0.087719
-0.15789
0.005848
0.005848
-0.040936
-0.064327
-0.02924
0.064327
-0.11111
-0.11111
-0.15789
0.02924
0.02924
0.040936
0.02924
-0.11111
-0.087719
-0.040936
-0.005848
-0.040936
0.040936
-0.099415
-0.1345
-0.20468
-0.21637
-0.21637
-0.16959
-0.02924
-0.16959
-0.15789
-0.25146
-0.23977
-0.21637
-0.19298
-0.076023
-0.16959
-0.076023
0.040936
0.099415
-0.052632
-0.19298
-0.27485
-0.26316
-0.040936
-0.052632
0.017544
-0.02924
0.040936
0.017544
-0.12281
-0.33333
-0.26316
-0.087719
-0.087719
-0.22807
-0.4152
-0.46199
-0.30994
-0.017544
0.12281
0.16959
0.23977
0.12281
0.017544
-0.087719
0.040936
0.23977
0.39181
0.48538
0.38012
0.23977
0.064327
0.017544
-0.017544
-0.076023
0.087719
0.1345
0.040936
-0.052632
-0.099415
-0.052632
-0.005848
0.087719
0.12281
0.087719
0.12281
0.19298
0.087719
-0.02924
-0.087719
-0.087719
-0.064327
-0.005848
0.1345
0.19298
0.29825
0.35673
0.26316
0.12281
0.02924
0.12281
0.15789
0.064327
-0.18129
-0.22807
-0.30994
-0.30994
-0.18129
-0.26316
-0.16959
-0.099415
-0.076023
-0.16959
-0.19298
-0.087719
0.052632
0.16959
0.18129
0.35673
0.35673
0.16959
-0.18129
-0.48538
-0.47368
-0.27485
-0.15789
-0.30994
-0.32164
-0.27485
-0.1462
0.017544
0.11111
0.02924
-0.22807
-0.28655
-0.30994
-0.39181
-0.4386
-0.46199
-0.45029
-0.55556
-0.45029
-0.33333
-0.052632
-0.040936
0.040936
0.02924
0.15789
0.23977
0.064327
-0.18129
-0.25146
-0.12281
0.005848
0.20468
0.38012
0.40351
0.1462
-0.064327
-0.18129
-0.19298
-0.15789
-0.040936
-0.017544
-0.005848
0.005848
0.1345
0.1345
0.21637
0.064327
0.15789
0.099415
0.18129
0.27485
0.1345
0.099415
-0.052632
-0.017544
0.005848
0.052632
0.040936
-0.040936
0.017544
0.15789
0.35673
0.46199
0.45029
0.34503
0.26316
0.23977
0.18129
0.064327
-0.040936
0.12281
0.25146
0.34503
0.32164
0.23977
0.1462
0.02924
-0.052632
-0.32164
-0.46199
-0.4269
-0.23977
-0.02924
-0.21637
-0.16959
-0.16959
-0.12281
-0.12281
-0.12281
-0.21637
-0.12281
-0.052632
-0.052632
-0.02924
0.005848
0.040936
-0.052632
-0.099415
-0.040936
0.02924
-0.040936
-0.12281
-0.052632
-0.19298
-0.20468
-0.15789
-0.02924
0.087719
0.15789
0.15789
-0.11111
-0.25146
-0.39181
-0.39181
-0.30994
-0.22807
-0.064327
-0.1345
-0.11111
-0.040936
-0.12281
-0.11111
-0.064327
0.1345
0.21637
0.23977
0.30994
0.33333
0.32164
0.29825
0.29825
0.27485
0.11111
0.087719
-0.005848
-0.1462
-0.22807
-0.4269
-0.50877
-0.50877
-0.34503
-0.20468
-0.16959
-0.02924
-0.1345
-0.20468
-0.40351
-0.56725
-0.7076
-0.62573
-0.32164
-0.064327
-0.11111
-0.22807
-0.23977
-0.33333
-0.29825
-0.20468
-0.1345
-0.18129
-0.22807
-0.22807
-0.26316
-0.21637
-0.15789
-0.30994
-0.27485
-0.21637
-0.064327
0.052632
0.02924
0.099415
0.12281
0.21637
0.36842
0.56725
0.50877
0.4386
0.32164
0.20468
0.040936
-0.017544
-0.017544
0.005848
0.11111
0.18129
0.27485
0.21637
0.1462
0.12281
0.087719
0.052632
0.005848
-0.11111
-0.39181
-0.40351
-0.28655
-0.25146
-0.15789
-0.18129
-0.12281
-0.052632
0.052632
-0.064327
-0.1345
-0.35673
-0.29825
-0.005848
0.12281
0.26316
0.1345
0.017544
0.087719
0.23977
0.36842
0.38012
0.38012
0.21637
-0.02924
-0.1345
-0.087719
-0.16959
-0.11111
-0.076023
-0.1462
-0.22807
-0.38012
-0.36842
-0.4152
-0.40351
-0.39181
-0.40351
-0.4269
-0.40351
-0.33333
-0.33333
-0.36842
-0.26316
-0.38012
-0.36842
-0.47368
-0.38012
-0.45029
-0.40351
-0.27485
-0.15789
-0.12281
-0.19298
-0.1462
-0.1462
-0.1345
-0.19298
-0.22807
-0.19298
0.076023
0.22807
0.19298
0.1345
0.017544
-0.087719
-0.20468
-0.076023
-0.017544
0.017544
-0.076023
-0.18129
-0.38012
-0.47368
-0.48538
-0.25146
0.076023
0.20468
0.22807
0.052632
-0.15789
-0.064327
-0.12281
-0.11111
-0.28655
-0.36842
-0.4269
-0.40351
-0.30994
-0.22807
-0.1462
-0.12281
-0.099415
-0.22807
-0.54386
-0.54386
-0.63743
-0.55556
-0.49708
-0.28655
-0.22807
-0.19298
-0.1462
-0.19298
-0.22807
-0.38012
-0.46199
-0.45029
-0.18129
0.040936
0.16959
0.040936
-0.1462
-0.064327
-0.099415
0.052632
0.25146
0.38012
0.32164
0.18129
-0.052632
-0.29825
-0.33333
-0.18129
0.15789
0.21637
0.29825
0.27485
0.12281
0.099415
0.18129
0.099415
-0.052632
-0.1462
-0.15789
-0.29825
-0.4152
-0.35673
-0.25146
-0.064327
0.1345
0.26316
0.32164
0.29825
0.28655
0.23977
0.12281
0.20468
0.23977
0.1345
0.005848
-0.16959
-0.099415
-0.017544
0.19298
-0.005848
-0.076023
-0.1462
-0.02924
-0.15789
-0.29825
-0.34503
-0.22807
-0.040936
0.18129
0.23977
-0.005848
-0.30994
-0.54386
-0.67251
-0.61404
-0.46199
-0.29825
-0.27485
-0.1345
0.02924
0.064327
-0.064327
-0.26316
-0.21637
-0.21637
-0.064327
0.21637
0.40351
0.36842
0.16959
-0.005848
-0.26316
-0.16959
-0.076023
0.076023
0.040936
-0.052632
-0.21637
-0.34503
-0.18129
0.087719
0.30994
0.21637
0.12281
0.017544
-0.20468
-0.26316
-0.19298
-0.15789
-0.21637
-0.27485
-0.22807
-0.18129
-0.11111
-0.16959
-0.16959
-0.21637
-0.20468
-0.1462
0.040936
0.18129
0.25146
0.064327
-0.21637
-0.39181
-0.39181
-0.34503
-0.34503
-0.38012
-0.4386
-0.46199
-0.29825
-0.11111
0.005848
0.02924
0.02924
0.052632
-0.005848
-0.087719
-0.23977
-0.34503
-0.34503
-0.21637
-0.22807
-0.12281
0.12281
0.26316
0.1462
0.076023
0.1462
0.39181
0.69591
0.7193
0.64912
0.45029
0.46199
0.47368
0.36842
0.29825
0.26316
0.25146
0.20468
0.19298
0.34503
0.34503
0.4269
0.33333
0.23977
0.076023
0.12281
0.1345
0.099415
0.25146
0.33333
0.32164
0.087719
0.087719
0.1345
0.15789
0.064327
-0.15789
-0.21637
-0.32164
-0.23977
-0.21637
-0.1462
-0.017544
0.040936
0.16959
0.017544
-0.017544
-0.25146
-0.40351
-0.39181
-0.1462
-0.099415
0.02924
-0.017544
-0.017544
0.076023
0.052632
0.16959
0.18129
0.25146
0.38012
0.4386
0.47368
0.46199
0.34503
0.11111
0.20468
0.23977
0.27485
0.052632
-0.15789
-0.20468
-0.33333
-0.22807
-0.18129
-0.099415
0.005848
0.11111
0.30994
0.22807
0.12281
0.064327
0.20468
0.15789
0.28655
0.26316
0.099415
0.099415
-0.076023
-0.11111
-0.21637
-0.20468
-0.11111
-0.02924
0.052632
0.1462
0.26316
0.16959
0.27485
0.34503
0.36842
0.40351
0.16959
-0.076023
-0.27485
-0.16959
-0.040936
-0.017544
-0.099415
-0.040936
-0.099415
-0.15789
-0.22807
-0.28655
-0.27485
-0.19298
-0.005848
0.040936
0.11111
0.076023
-0.02924
-0.16959
-0.30994
-0.18129
-0.22807
-0.18129
-0.064327
0.040936
0.017544
-0.22807
-0.19298
-0.30994
-0.20468
-0.15789
-0.040936
-0.052632
-0.076023
-0.1345
-0.26316
-0.29825
-0.27485
-0.18129
-0.12281
0.02924
0.1462
0.20468
0.21637
0.16959
0.32164
0.32164
0.40351
0.28655
0.099415
0.099415
0.18129
0.27485
0.20468
0.16959
0.28655
0.32164
0.4386
0.38012
0.21637
-0.02924
-0.15789
-0.16959
-0.099415
-0.052632
0.040936
0.1345
0.099415
0.22807
0.29825
0.34503
0.4152
0.4269
0.32164
-0.017544
-0.12281
-0.15789
-0.12281
-0.005848
0.11111
0.19298
0.26316
0.35673
0.49708
0.52047
0.50877
0.46199
0.4152
0.36842
0.21637
0.005848
-0.12281
-0.02924
0.11111
0.064327
-0.017544
-0.1345
-0.21637
-0.23977
-0.19298
-0.1462
-0.1462
-0.23977
-0.45029
-0.53216
-0.55556
-0.40351
-0.23977
-0.23977
-0.27485
-0.1462
-0.064327
0.017544
0.19298
0.32164
0.28655
0.15789
0.040936
-0.1345
-0.27485
-0.27485
-0.30994
-0.27485
-0.35673
-0.32164
-0.28655
-0.29825
-0.1345
-0.1462
-0.099415
0.02924
-0.064327
-0.19298
-0.36842
-0.4386
-0.49708
-0.55556
-0.56725
-0.4269
-0.30994
-0.22807
-0.21637
-0.27485
-0.28655
-0.22807
-0.099415
-0.052632
-0.12281
-0.005848
0.087719
0.12281
0.11111
0.12281
0.064327
0.16959
0.22807
0.15789
0.005848
-0.21637
-0.15789
-0.1462
0.052632
0.21637
0.26316
0.18129
0.1462
0.18129
0.099415
0.1345
0.005848
0.017544
-0.087719
0.040936
0.064327
-0.087719
-0.15789
-0.16959
-0.15789
-0.15789
-0.052632
0.11111
0.017544
-0.19298
-0.36842
-0.26316
-0.16959
0.02924
-0.087719
-0.16959
-0.23977
-0.11111
-0.040936
-0.1345
-0.16959
-0.50877
-0.75439
-0.88304
-0.64912
-0.40351
-0.29825
-0.29825
-0.33333
-0.34503
-0.28655
0.087719
0.29825
0.59064
0.59064
0.27485
-0.099415
-0.4152
-0.32164
-0.20468
-0.11111
-0.087719
-0.087719
-0.12281
-0.1462
-0.087719
-0.099415
-0.02924
0.12281
0.32164
0.30994
0.20468
0.017544
-0.16959
-0.11111
0.099415
0.22807
0.16959
0.040936
0.099415
0.1462
0.15789
0.22807
0.28655
0.36842
0.35673
0.26316
0.087719
-0.076023
-0.1345
-0.11111
0.017544
0.1345
0.076023
-0.18129
-0.32164
-0.35673
-0.22807
-0.076023
0.1462
0.087719
-0.052632
-0.25146
-0.30994
-0.30994
-0.11111
0.11111
0.30994
0.1462
-0.005848
-0.11111
0.017544
0.25146
0.49708
0.46199
0.20468
0.017544
0.11111
0.30994
0.30994
0.32164
0.15789
-0.052632
-0.18129
-0.28655
-0.34503
-0.34503
-0.26316
-0.27485
-0.30994
-0.4386
-0.47368
-0.47368
-0.12281
0.30994
0.52047
0.4269
0.35673
0.46199
0.45029
0.4386
0.4152
0.30994
0.099415
0.076023
0.19298
0.4269
0.54386
0.50877
0.28655
0.21637
0.23977
0.28655
0.19298
0.02924
-0.20468
-0.18129
-0.22807
-0.27485
-0.32164
-0.52047
-0.48538
-0.34503
-0.30994
-0.39181
-0.35673
-0.22807
-0.087719
0.040936
0.02924
0.040936
-0.02924
-0.040936
-0.1345
-0.21637
-0.087719
0.1345
0.36842
0.45029
0.49708
0.36842
0.21637
0.017544
0.12281
0.26316
0.33333
0.36842
0.30994
0.076023
-0.11111
-0.19298
-0.22807
-0.19298
0.017544
0.040936
0.052632
0.064327
0.076023
0.052632
0.005848
-0.15789
-0.12281
-0.19298
-0.22807
-0.1462
-0.26316
-0.26316
-0.22807
-0.19298
-0.23977
-0.1462
-0.064327
-0.087719
-0.18129
-0.30994
-0.4269
-0.36842
-0.23977
-0.005848
0.1462
0.19298
0.1462
-0.017544
-0.30994
-0.4152
-0.32164
-0.21637
-0.02924
0.12281
0.12281
0.02924
0.052632
-0.040936
0.11111
0.28655
0.32164
0.22807
-0.19298
-0.26316
-0.22807
-0.1462
-0.099415
-0.040936
-0.017544
0.02924
0.28655
0.36842
0.4152
0.26316
0.11111
-0.22807
-0.52047
-0.49708
-0.36842
-0.25146
-0.32164
-0.28655
-0.32164
-0.25146
-0.28655
-0.4386
-0.64912
-0.73099
-0.53216
-0.34503
-0.23977
-0.28655
-0.4152
-0.35673
-0.29825
-0.052632
0.064327
0.076023
0.005848
-0.02924
-0.12281
-0.34503
-0.30994
-0.4152
-0.29825
-0.19298
-0.26316
-0.28655
-0.28655
-0.22807
-0.30994
-0.28655
-0.21637
-0.005848
-0.1462
-0.017544
-0.11111
-0.087719
0.087719
0.22807
0.32164
0.27485
0.18129
-0.076023
-0.35673
-0.50877
-0.60234
-0.49708
-0.36842
-0.18129
-0.12281
-0.20468
-0.29825
-0.26316
-0.23977
-0.32164
-0.22807
-0.36842
-0.49708
-0.67251
-0.7076
-0.73099
-0.59064
-0.4152
-0.27485
-0.28655
-0.48538
-0.53216
-0.60234
-0.46199
-0.28655
-0.32164
-0.50877
-0.69591
-0.81287
-0.7193
-0.59064
-0.33333
-0.040936
0.005848
-0.12281
-0.25146
-0.39181
-0.32164
-0.22807
-0.087719
-0.087719
-0.064327
-0.017544
-0.18129
-0.21637
-0.28655
-0.33333
-0.50877
-0.55556
-0.49708
-0.46199
-0.39181
-0.25146
-0.18129
-0.16959
-0.099415
-0.064327
-0.064327
-0.052632
-0.076023
-0.12281
-0.1345
-0.017544
0.005848
-0.040936
0.005848
0.19298
0.21637
0.26316
0.28655
0.20468
0.15789
0.087719
0.23977
0.25146
0.087719
0.064327
-0.099415
-0.017544
-0.099415
0.02924
0.19298
0.26316
0.29825
0.23977
0.099415
0.052632
0.087719
0.11111
0.30994
0.4269
0.54386
0.50877
0.30994
0.23977
0.11111
0.087719
0.29825
0.4386
0.4152
0.30994
0.1462
0.087719
0.21637
0.30994
0.4269
0.45029
0.46199
0.30994
-0.02924
-0.33333
-0.40351
-0.25146
0.052632
0.34503
0.47368
0.47368
0.49708
0.48538
0.52047
0.4152
0.47368
0.4269
0.29825
0.16959
0.02924
-0.064327
-0.34503
-0.39181
-0.46199
-0.39181
-0.1462
0.1345
0.34503
0.40351
0.4152
0.27485
0.040936
-0.21637
-0.18129
-0.1345
-0.052632
-0.02924
-0.040936
-0.12281
-0.16959
-0.15789
-0.12281
-0.005848
-0.017544
-0.1462
-0.28655
-0.39181
-0.20468
-0.099415
0.076023
0.20468
0.33333
0.34503
0.23977
0.040936
-0.040936
-0.052632
-0.017544
-0.064327
-0.20468
-0.27485
-0.27485
-0.40351
-0.39181
-0.30994
-0.099415
0.099415
0.23977
0.29825
0.1345
-0.12281
-0.18129
-0.1462
-0.1345
-0.1462
-0.20468
-0.4269
-0.4152
-0.15789
0.19298
0.35673
0.4269
0.36842
0.18129
-0.064327
-0.26316
-0.4269
-0.4152
-0.20468
-0.18129
-0.23977
-0.27485
-0.18129
-0.005848
0.099415
0.25146
0.26316
0.1345
-0.12281
-0.29825
-0.35673
-0.38012
-0.18129
-0.099415
-0.1462
-0.38012
-0.4152
-0.39181
-0.20468
0.017544
0.22807
0.30994
0.21637
0.1345
-0.099415
-0.21637
-0.19298
-0.16959
-0.1462
-0.16959
-0.064327
-0.005848
-0.064327
-0.18129
-0.32164
-0.55556
-0.80117
-0.67251
-0.56725
-0.28655
-0.11111
-0.052632
-0.18129
-0.19298
-0.27485
-0.40351
-0.4386
-0.45029
-0.55556
-0.56725
-0.55556
-0.32164
-0.18129
-0.12281
-0.040936
0.005848
0.1345
0.32164
0.33333
0.28655
0.26316
0.4152
0.48538
0.28655
0.19298
-0.076023
-0.087719
-0.20468
-0.1462
-0.040936
0.017544
0.18129
0.12281
0.040936
-0.21637
-0.4152
-0.52047
-0.62573
-0.48538
-0.29825
-0.1462
0.11111
0.16959
0.16959
0.064327
0.087719
-0.064327
-0.28655
-0.4269
-0.36842
-0.39181
-0.45029
-0.39181
-0.38012
-0.33333
-0.28655
-0.099415
-0.087719
-0.052632
-0.12281
-0.21637
-0.26316
-0.29825
-0.18129
-0.099415
0.040936
0.34503
0.48538
0.59064
0.4152
0.16959
-0.20468
-0.21637
-0.12281
0.26316
0.38012
0.38012
0.1462
-0.16959
-0.18129
0.005848
0.34503
0.50877
0.52047
0.38012
0.23977
0.1462
0.16959
0.18129
0.27485
0.36842
0.25146
0.052632
-0.1462
-0.1345
-0.12281
-0.064327
0.12281
0.26316
0.11111
0.040936
-0.017544
0.005848
0.040936
0.064327
0.052632
-0.040936
-0.11111
0.052632
0.1462
0.30994
0.45029
0.4269
0.27485
0.12281
0.076023
0.087719
0.12281
0.30994
0.22807
0.087719
-0.064327
-0.1345
-0.02924
0.11111
0.20468
0.22807
0.11111
-0.15789
-0.26316
-0.34503
-0.34503
-0.30994
-0.20468
-0.25146
-0.076023
-0.11111
-0.11111
0.052632
0.099415
0.19298
0.052632
0.1345
0.18129
0.22807
0.16959
0.20468
0.26316
0.1462
0.22807
0.20468
0.20468
0.25146
0.29825
0.25146
0.1345
0.11111
0.005848
0.017544
-0.017544
-0.18129
-0.22807
-0.4269
-0.35673
-0.16959
0.087719
0.15789
0.21637
-0.099415
-0.4269
-0.62573
-0.73099
-0.62573
-0.48538
-0.27485
-0.21637
-0.02924
0.12281
0.38012
0.50877
0.57895
0.60234
0.63743
0.85965
1
0.82456
0.64912
0.59064
0.81287
0.73099
0.48538
0.23977
0.15789
0.19298
0.099415
0.02924
-0.39181
-0.54386
-0.46199
-0.20468
0.087719
0.33333
0.39181
0.47368
0.49708
0.56725
0.60234
0.4269
0.4269
0.4152
0.46199
0.45029
0.45029
0.4269
0.29825
0.23977
0.076023
-0.11111
-0.20468
-0.18129
-0.1345
-0.02924
0.16959
0.12281
-0.040936
-0.30994
-0.46199
-0.66082
-0.69591
-0.56725
-0.38012
-0.087719
-0.017544
-0.12281
-0.34503
-0.4269
-0.23977
-0.040936
0.064327
0.064327
-0.005848
-0.099415
-0.16959
-0.18129
-0.20468
-0.1345
0.005848
0.26316
0.36842
0.28655
0.30994
0.29825
0.16959
-0.12281
-0.4269
-0.66082
-0.53216
-0.18129
0.099415
0.28655
0.087719
-0.005848
-0.23977
-0.32164
-0.34503
-0.30994
-0.45029
-0.47368
-0.53216
-0.60234
-0.66082
-0.66082
-0.52047
-0.4269
-0.26316
-0.19298
-0.12281
-0.076023
-0.076023
-0.21637
-0.47368
-0.62573
-0.74269
-0.73099
-0.55556
-0.25146
-0.02924
0.076023
0.18129
0.22807
0.15789
-0.052632
-0.099415
-0.18129
-0.28655
-0.32164
-0.54386
-0.61404
-0.62573
-0.36842
-0.11111
0.064327
0.19298
0.12281
0.017544
-0.040936
-0.040936
-0.15789
-0.1345
-0.076023
0.005848
0.087719
-0.017544
-0.02924
-0.099415
0.16959
0.47368
0.4269
0.38012
0.22807
0.28655
0.36842
0.36842
0.30994
0.29825
0.19298
0.040936
0.005848
-0.099415
-0.16959
-0.1345
-0.052632
0.02924
0.27485
0.27485
0.19298
0.052632
0.15789
0.22807
0.20468
0.11111
-0.064327
-0.1462
-0.11111
-0.052632
0.064327
-0.11111
-0.22807
-0.26316
-0.18129
-0.052632
0.076023
0.087719
0.02924
0.017544
-0.087719
-0.23977
-0.40351
-0.50877
-0.52047
-0.61404
-0.55556
-0.53216
-0.38012
-0.12281
0.064327
0.11111
-0.005848
-0.017544
-0.29825
-0.32164
-0.16959
0.12281
0.040936
-0.11111
-0.19298
-0.15789
-0.087719
-0.076023
-0.11111
-0.26316
-0.26316
-0.35673
-0.34503
-0.39181
-0.22807
0.02924
0.064327
-0.005848
-0.12281
-0.1345
-0.1462
-0.005848
0.087719
0.087719
-0.017544
-0.22807
-0.38012
-0.40351
-0.18129
-0.005848
0.11111
0.1462
0.18129
0.1462
0.005848
-0.22807
-0.49708
-0.68421
-0.61404
-0.30994
-0.16959
0.017544
0.11111
0.28655
0.27485
0.19298
-0.087719
-0.21637
-0.29825
-0.005848
0.064327
-0.005848
-0.27485
-0.27485
-0.27485
-0.18129
0.052632
0.099415
0.20468
0.27485
0.32164
0.34503
0.18129
0.11111
-0.040936
-0.02924
-0.017544
0.040936
-0.099415
-0.099415
-0.064327
-0.064327
-0.1345
-0.16959
-0.052632
0.040936
-0.087719
-0.1462
-0.26316
-0.38012
-0.60234
-0.7193
-0.82456
-0.62573
-0.34503
-0.15789
-0.1345
-0.12281
-0.16959
-0.27485
-0.50877
-0.61404
-0.49708
-0.28655
-0.017544
0.052632
0.02924
0.017544
0.12281
0.12281
0.064327
0.19298
0.22807
0.19298
0.15789
0.076023
-0.052632
-0.19298
-0.21637
-0.29825
-0.33333
-0.39181
-0.27485
-0.20468
-0.27485
-0.28655
-0.30994
-0.25146
-0.087719
0.087719
0.26316
0.18129
0.099415
-0.017544
-0.20468
-0.29825
-0.28655
-0.15789
0.087719
0.4152
0.56725
0.52047
0.25146
0.19298
-0.052632
0.064327
0.11111
0.12281
-0.005848
-0.076023
-0.02924
0.12281
0.20468
0.28655
0.22807
0.087719
0.005848
0.005848
-0.1462
-0.29825
-0.4152
-0.38012
-0.4269
-0.45029
-0.48538
-0.48538
-0.34503
-0.16959
-0.087719
-0.19298
-0.20468
-0.20468
-0.22807
-0.35673
-0.39181
-0.4386
-0.40351
-0.25146
-0.20468
-0.27485
-0.21637
-0.16959
-0.064327
-0.099415
-0.02924
-0.15789
-0.18129
-0.23977
-0.11111
-0.16959
-0.23977
-0.34503
-0.49708
-0.52047
-0.39181
-0.21637
-0.21637
-0.39181
-0.35673
-0.30994
-0.27485
-0.32164
-0.26316
-0.26316
-0.15789
-0.005848
0.017544
-0.11111
-0.27485
-0.34503
-0.38012
-0.28655
-0.19298
-0.26316
-0.27485
-0.4269
-0.45029
-0.57895
-0.54386
-0.33333
-0.16959
-0.18129
-0.22807
-0.23977
-0.38012
-0.33333
-0.28655
-0.11111
-0.064327
0.02924
0.02924
0.12281
0.19298
0.005848
-0.22807
-0.38012
-0.25146
-0.22807
-0.30994
-0.46199
-0.46199
-0.27485
-0.1345
-0.005848
0.02924
-0.005848
-0.1462
-0.27485
-0.29825
-0.40351
-0.39181
-0.27485
-0.27485
-0.19298
-0.087719
-0.19298
-0.26316
-0.19298
-0.02924
0.19298
0.30994
0.4152
0.21637
0.26316
0.30994
0.45029
0.45029
0.4269
0.39181
0.39181
0.34503
0.40351
0.34503
0.21637
0.017544
-0.017544
-0.12281
-0.087719
0.017544
0.064327
0.16959
0.1345
0.32164
0.26316
0.38012
0.49708
0.56725
0.35673
0.26316
0.099415
-0.005848
-0.052632
-0.099415
0.052632
0.27485
0.48538
0.52047
0.35673
0.30994
0.26316
0.36842
0.30994
0.27485
0.25146
0.21637
0.20468
0.28655
0.28655
0.39181
0.45029
0.50877
0.40351
0.15789
0.076023
-0.076023
-0.30994
-0.30994
-0.18129
0.1345
0.4269
0.50877
0.53216
0.39181
0.29825
0.16959
0.064327
0.064327
0.12281
0.064327
0.02924
-0.017544
-0.040936
0.076023
0.21637
0.52047
0.49708
0.46199
0.28655
0.20468
0.064327
-0.1345
-0.099415
-0.12281
-0.040936
-0.017544
-0.20468
-0.48538
-0.48538
-0.22807
-0.005848
0.27485
0.38012
0.48538
0.4269
0.39181
0.29825
0.02924
-0.11111
-0.02924
0.11111
0.1462
0.25146
0.27485
0.21637
0.21637
0.18129
0.1345
0.052632
-0.02924
-0.23977
-0.77778
-1
-0.83626
-0.4269
-0.005848
0.29825
0.25146
0.15789
0.064327
-0.064327
-0.18129
-0.20468
-0.12281
-0.15789
-0.19298
-0.25146
-0.11111
0.099415
0.21637
0.26316
0.26316
0.21637
0.32164
0.46199
0.54386
0.36842
0.1345
-0.18129
-0.38012
-0.48538
-0.30994
-0.20468
-0.099415
-0.087719
0.017544
0.12281
0.16959
0.25146
0.02924
-0.017544
0.052632
0.12281
0.20468
0.26316
0.25146
-0.064327
-0.30994
-0.36842
-0.22807
-0.15789
-0.1462
-0.005848
0.099415
0.28655
0.39181
0.28655
0.12281
-0.11111
-0.30994
-0.55556
-0.39181
-0.12281
0.21637
0.29825
0.29825
0.20468
0.02924
-0.16959
-0.27485
-0.21637
-0.25146
-0.15789
0.005848
0.16959
0.30994
0.34503
0.099415
-0.25146
-0.40351
-0.47368
-0.46199
-0.4269
-0.34503
-0.29825
-0.4269
-0.39181
-0.34503
-0.16959
-0.076023
-0.005848
-0.12281
-0.1345
-0.076023
-0.21637
-0.28655
-0.38012
-0.40351
-0.4386
-0.49708
-0.4386
-0.4269
-0.4386
-0.4269
-0.21637
-0.052632
0.087719
0.087719
-0.12281
-0.38012
-0.47368
-0.47368
-0.57895
-0.73099
-0.75439
-0.67251
-0.66082
-0.64912
-0.64912
-0.73099
-0.54386
-0.36842
-0.18129
-0.1345
-0.18129
-0.20468
-0.20468
-0.22807
-0.099415
0.040936
0.15789
0.33333
0.29825
0.15789
-0.076023
-0.19298
-0.21637
-0.12281
0.02924
-0.040936
-0.26316
-0.49708
-0.47368
-0.32164
-0.33333
-0.27485
-0.38012
-0.22807
-0.23977
-0.20468
-0.29825
-0.53216
-0.53216
-0.55556
-0.33333
-0.21637
-0.005848
0.099415
0.25146
0.32164
0.18129
-0.017544
-0.18129
-0.12281
-0.087719
0.005848
0.11111
0.18129
0.099415
0.02924
0.02924
0.005848
0.20468
0.32164
0.32164
-0.005848
-0.23977
-0.33333
-0.26316
0.02924
0.28655
0.4386
0.35673
0.26316
0.29825
0.23977
0.32164
0.28655
0.32164
0.33333
0.39181
0.4152
0.32164
0.26316
0.29825
0.20468
-0.02924
-0.16959
-0.27485
-0.22807
-0.15789
0.052632
0.16959
0.19298
0.38012
0.35673
0.32164
0.15789
0.12281
0.099415
0.040936
0.052632
0.017544
0.087719
0.18129
0.38012
0.32164
0.35673
0.45029
0.53216
0.52047
0.38012
0.017544
