0.33596
0.35315
0.37393
0.39685
0.41476
0.42192
0.41905
0.42335
0.43625
0.45415
0.47779
0.50072
0.52364
0.53725
0.54441
0.5437
0.5437
0.54513
0.54728
0.54871
0.54871
0.54585
0.53653
0.51934
0.50358
0.49499
0.49355
0.49499
0.50645
0.50215
0.4914
0.45272
0.40401
0.36605
0.34169
0.33381
0.32163
0.32163
0.32521
0.29226
0.16476
-0.3202
-0.5967
-0.71991
-0.50501
-0.13467
0.12607
0.30086
0.30086
0.45917
0.54728
0.55587
0.50501
0.41404
0.30301
0.25501
0.25931
0.29871
0.34885
0.43123
0.55372
0.67837
0.72923
0.71347
0.69341
0.67765
0.66189
0.61032
0.52865
0.42479
0.26576
0.04298
-0.17837
-0.31519
-0.29083
-0.07235
0.22206
0.51003
0.67264
0.69413
0.54871
0.30587
-0.062321
-0.25
-0.2894
-0.098854
0.20917
0.40473
0.54656
0.64255
0.67837
0.67908
0.66834
0.64398
0.60458
0.56232
0.51934
0.47564
0.43481
0.40115
0.37894
0.36819
0.36246
0.36103
0.36175
0.36246
0.37249
0.38109
0.38897
0.3947
0.39542
0.39255
0.37894
0.351
0.30731
0.25358
0.22493
0.22278
0.26361
0.33883
0.39971
0.42407
0.37679
0.26289
-0.066619
-0.5043
-0.70845
-0.60387
-0.18266
0.22779
0.47779
0.60387
0.64613
0.6096
0.54728
0.43625
0.29011
0.19842
0.19269
0.30874
0.43768
0.58524
0.74427
0.85602
0.89828
0.80444
0.66117
0.52221
0.40473
0.2808
0.14828
0.032951
-0.043696
-0.13252
-0.30731
-0.44198
-0.43266
-0.23782
0.040115
0.22923
0.30946
0.31375
0.27865
0.23424
0.23639
0.27937
0.35172
0.42192
0.48066
0.51218
0.54298
0.54585
0.53868
0.51934
0.48496
0.44556
0.39327
0.3467
0.28582
0.21275
0.13754
0.076648
0.054441
0.047278
0.058739
0.084527
0.093123
0.089542
0.038682
-0.068052
-0.26504
-0.45774
-0.47779
-0.2851
0.023639
0.3245
0.50287
0.50931
0.38968
0.12464
-0.14398
-0.15544
-0.015043
0.2808
0.51074
0.6447
0.72779
0.75072
0.71275
0.649
0.58309
0.53797
0.51791
0.51218
0.51862
0.51719
0.50501
0.46633
0.42049
0.38324
0.37966
0.4033
0.43983
0.47923
0.50645
0.51289
0.50143
0.48782
0.47779
0.46848
0.45559
0.44269
0.42765
0.40616
0.37178
0.32665
0.24713
0.058023
-0.35172
-0.67049
-0.80516
-0.50645
-0.022206
0.40043
0.66476
0.75287
0.68195
0.49284
0.22493
-0.063754
-0.22851
-0.23926
-0.091691
0.12106
0.33954
0.52937
0.68768
0.72135
0.67335
0.55731
0.41046
0.28152
0.19269
0.20989
0.27794
0.37679
0.45201
0.50788
0.6139
0.69699
0.75072
0.70989
0.62393
0.55372
0.50501
0.48926
0.48496
0.49427
0.49713
0.50573
0.5043
0.50072
0.49857
0.50358
0.52006
0.54155
0.56089
0.57307
0.56877
0.55014
0.50716
0.44914
0.399
0.37034
0.36032
0.35817
0.34957
0.34026
0.32808
0.31519
0.3116
0.31734
0.33739
0.34957
0.33668
0.30946
0.21633
0.037249
-0.38181
-0.71275
-0.83524
-0.53868
-0.033668
0.39112
0.61605
0.68696
0.65688
0.56805
0.45057
0.30086
0.11175
0.017908
-0.036533
-0.0093123
0.012178
0.10387
0.22779
0.38682
0.48352
0.5086
0.50287
0.46562
0.39112
0.30014
0.19269
0.15974
0.11103
0.045129
-0.0351
-0.058023
0.074499
0.2765
0.45917
0.52436
0.50645
0.44269
0.37966
0.33023
0.31304
0.33739
0.38897
0.44126
0.48496
0.49785
0.4914
0.48281
0.47278
0.45272
0.41762
0.38037
0.34026
0.31017
0.28582
0.26934
0.26361
0.25931
0.26719
0.27865
0.30014
0.33668
0.38324
0.43553
0.47278
0.47923
0.45559
0.4212
0.39398
0.37966
0.37966
0.38181
0.38825
0.39112
0.39756
0.39327
0.38682
0.3639
0.32378
0.20559
-0.039398
-0.53868
-0.79656
-0.84599
-0.43768
0.043696
0.38539
0.52077
0.5659
0.54011
0.48711
0.41905
0.32235
0.18911
0.10029
0.070201
0.12249
0.15974
0.22063
0.33309
0.4735
0.58524
0.58238
0.52937
0.46132
0.40831
0.33524
0.2894
0.27221
0.27077
0.25931
0.23209
0.18052
0.068052
-0.057307
-0.15115
-0.19198
-0.18481
-0.19269
-0.26218
-0.31877
-0.29226
-0.16332
0.047994
0.22063
0.37249
0.44413
0.50931
0.51504
0.47994
0.44054
0.36748
0.30086
0.25645
0.25788
0.2894
0.34885
0.41547
0.48138
0.5308
0.55731
0.56447
0.55014
0.52722
0.50143
0.48066
0.46705
0.45917
0.46132
0.46848
0.47779
0.48496
0.4914
0.49928
0.50358
0.50931
0.51146
0.51146
0.51003
0.51146
0.51074
0.51361
0.52436
0.53868
0.55874
0.57163
0.56519
0.54513
0.50287
0.46275
0.4341
0.42622
0.43768
0.47063
0.51862
0.56662
0.60817
0.58811
0.44341
0.17765
-0.18266
-0.44771
-0.42622
-0.21347
0.10745
0.32665
0.41691
0.46203
0.45989
0.41619
0.35602
0.29011
0.22779
0.17765
0.12464
0.088109
0.078797
0.095989
0.12822
0.15258
0.149
0.11891
0.077364
0.054441
0.090974
0.16046
0.25716
0.32736
0.36819
0.36533
0.34169
0.29513
0.27077
0.24069
0.23639
0.24785
0.2851
0.31948
0.35244
0.37464
0.39756
0.37894
0.25215
-0.11819
-0.45702
-0.67837
-0.57521
-0.27937
0.081662
0.36246
0.52077
0.54441
0.46562
0.34957
0.15974
0.015043
-0.1096
-0.11318
-0.026504
0.15903
0.36175
0.58023
0.6884
0.70917
0.6884
0.64756
0.59814
0.54943
0.52937
0.53152
0.53653
0.52937
0.5265
0.50358
0.47278
0.42335
0.36605
0.28367
0.17264
0.01361
-0.18195
-0.41189
-0.56304
-0.6712
-0.68481
-0.66476
-0.59456
-0.45201
-0.25716
-0.022923
0.19699
0.36175
0.45845
0.4563
0.38037
0.29011
0.24499
0.25716
0.31519
0.40043
0.47708
0.54298
0.59169
0.6139
0.59885
0.54011
0.37034
0.060888
-0.20415
-0.42837
-0.43123
-0.27507
-0.0078797
0.28868
0.47063
0.51934
0.40759
0.20272
-0.040831
-0.09957
-0.049427
0.14613
0.34527
0.47421
0.59026
0.66332
0.68052
0.6798
0.66332
0.63968
0.60745
0.58381
0.56662
0.56017
0.55587
0.55014
0.54083
0.5308
0.52149
0.51504
0.50931
0.49857
0.48854
0.47923
0.47206
0.46705
0.4692
0.46562
0.46991
0.48066
0.49928
0.52436
0.55802
0.59384
0.61676
0.61318
0.57092
0.50501
0.44126
0.40043
0.39542
0.43052
0.47779
0.51504
0.52006
0.44269
0.21562
-0.27507
-0.57378
-0.62679
-0.33381
0.015759
0.20774
0.27292
0.34885
0.40401
0.42264
0.41261
0.37679
0.33524
0.30874
0.30802
0.32521
0.35888
0.39613
0.44556
0.47278
0.48782
0.47421
0.42407
0.29011
0.053009
-0.26719
-0.47135
-0.47063
-0.19054
0.15616
0.52006
0.7192
0.74785
0.60817
0.3553
0.0351
-0.19771
-0.25501
-0.1404
0.10315
0.31877
0.47994
0.62822
0.68338
0.68553
0.65616
0.62106
0.57235
0.5351
0.51289
0.50645
0.51433
0.52364
0.53223
0.54226
0.55444
0.56948
0.5745
0.56734
0.54943
0.51934
0.49427
0.46777
0.44628
0.42765
0.41691
0.40974
0.40544
0.4033
0.40831
0.41691
0.4298
0.45057
0.4735
0.49355
0.50931
0.50788
0.48639
0.45774
0.44054
0.44126
0.45917
0.47063
0.47206
0.47636
0.44269
0.35387
0.06447
-0.38897
-0.6447
-0.59527
-0.25788
0.073782
0.27865
0.41691
0.52794
0.57163
0.55014
0.47923
0.38754
0.3202
0.28223
0.29298
0.31017
0.3245
0.30874
0.26862
0.18911
0.085244
-0.050143
-0.16619
-0.30158
-0.35888
-0.36032
-0.19628
0.090258
0.34885
0.49857
0.46347
0.31948
0.16547
0.032951
0.023639
0.11461
0.27006
0.45201
0.55372
0.59456
0.57235
0.51074
0.46777
0.45989
0.44986
0.4341
0.41476
0.399
0.38109
0.35244
0.33095
0.30802
0.30731
0.30731
0.31877
0.33381
0.35888
0.3861
0.41977
0.44484
0.46275
0.45989
0.44484
0.41332
0.38539
0.35888
0.34241
0.33095
0.32378
0.31948
0.31447
0.30802
0.30372
0.30014
0.30301
0.31089
0.32235
0.33596
0.3467
0.35244
0.351
0.34742
0.34742
0.35029
0.35673
0.3639
0.36819
0.37106
0.36676
0.35029
0.32951
0.30659
0.29298
0.28653
0.30731
0.36032
0.43266
0.50143
0.54799
0.56877
0.57951
0.54943
0.351
-0.17908
-0.57378
-0.87106
-0.69771
-0.34814
-0.09384
0.058739
0.10673
0.014327
-0.2414
-0.36246
-0.42192
-0.25573
0.019341
0.26433
0.45201
0.55659
0.56304
0.52507
0.47493
0.41046
0.36676
0.34169
0.34456
0.3639
0.37106
0.38181
0.37894
0.37106
0.35888
0.351
0.34957
0.34384
0.32736
0.2808
0.21203
0.14183
0.10172
0.12106
0.18195
0.25788
0.3288
0.38181
0.42264
0.44842
0.46991
0.48639
0.49928
0.50573
0.49499
0.47421
0.43768
0.40688
0.38897
0.39327
0.42264
0.44126
0.47779
0.46203
0.42908
0.33166
0.1447
-0.29298
-0.53009
-0.68553
-0.4384
-0.10602
0.12034
0.21418
0.24928
0.18983
0.045129
-0.081662
-0.12106
-0.049427
0.1096
0.25143
0.36963
0.4341
0.44341
0.43768
0.44126
0.44269
0.45344
0.45917
0.47421
0.46347
0.44556
0.39398
0.30086
0.12751
-0.14828
-0.46275
-0.70057
-0.75716
-0.58811
-0.29799
0.016476
0.2192
0.27077
0.14183
-0.1139
-0.38682
-0.44413
-0.38395
-0.11676
0.15616
0.34097
0.51433
0.59097
0.60817
0.60315
0.57951
0.55587
0.55014
0.56662
0.59312
0.62178
0.6447
0.65831
0.66332
0.66404
0.65903
0.65258
0.64685
0.64112
0.63467
0.62679
0.61605
0.59885
0.58095
0.56519
0.55301
0.54656
0.54226
0.53797
0.53367
0.52579
0.51719
0.51074
0.50072
0.49499
0.4957
0.50716
0.51648
0.52364
0.51074
0.48066
0.41762
0.25215
-0.13252
-0.63539
-0.86748
-0.75358
-0.26934
0.22708
0.56734
0.69126
0.61318
0.28367
-0.20487
-0.35387
-0.33668
-0.037966
0.29871
0.53582
0.73997
0.86461
0.85315
0.77794
0.66332
0.52077
0.37751
0.26934
0.24642
0.27507
0.30014
0.35029
0.47851
0.6404
0.76862
0.77507
0.70129
0.63252
0.58381
0.55516
0.54585
0.56232
0.58954
0.61819
0.6404
0.64756
0.63109
0.59169
0.55372
0.53438
0.53367
0.55229
0.58023
0.60888
0.61461
0.56519
0.4212
0.19699
-0.061605
-0.33238
-0.57593
-0.80014
-0.88682
-0.77436
-0.5
-0.17335
0.047278
0.19556
0.23567
0.23926
0.16332
0.048711
-0.073066
-0.19556
-0.31017
-0.37464
-0.3467
-0.24212
-0.11103
0.0093123
0.13968
0.2894
0.41619
0.45917
0.41905
0.3553
0.29585
0.25358
0.21633
0.19699
0.17335
0.16189
0.1404
0.13324
0.13395
0.15903
0.21777
0.29298
0.35458
0.38181
0.38968
0.399
0.42908
0.46848
0.51433
0.54513
0.56877
0.58811
0.59742
0.60172
0.5967
0.57665
0.53868
0.48567
0.43911
0.41189
0.40903
0.42192
0.44054
0.44054
0.4255
0.37321
0.25
-0.05086
-0.46418
-0.66404
-0.62607
-0.26146
0.13252
0.47421
0.62966
0.63897
0.49713
0.23209
-0.17264
-0.38109
-0.44126
-0.22994
0.089542
0.35673
0.56877
0.72421
0.7414
0.69484
0.59814
0.48854
0.37464
0.31375
0.32808
0.40186
0.47851
0.5745
0.69484
0.8202
0.90688
0.90043
0.8116
0.70917
0.58309
0.47493
0.39613
0.37536
0.38467
0.40831
0.42908
0.44126
0.45201
0.43195
0.39828
0.34599
0.2765
0.19986
0.06447
-0.1404
-0.41977
-0.61032
-0.61676
-0.38181
-0.0093123
0.35673
0.6053
0.71132
0.6404
0.42622
0.10745
-0.17049
-0.24857
-0.12464
0.11605
0.37393
0.54298
0.66762
0.70559
0.67192
0.65544
0.63968
0.64398
0.63467
0.62966
0.62607
0.61963
0.61461
0.61605
0.62607
0.63825
0.64828
0.6404
0.61533
0.59241
0.57593
0.57951
0.58238
0.57593
0.55731
0.54943
0.54226
0.53223
0.49857
0.45201
0.38754
0.31877
0.24713
0.19699
0.17622
0.17837
0.17264
0.060172
-0.24355
-0.57593
-0.69842
-0.51934
-0.14542
0.22564
0.46633
0.56734
0.52364
0.35458
0.069484
-0.34885
-0.57378
-0.63754
-0.43553
-0.14112
0.12106
0.32808
0.45487
0.44269
0.35387
0.22493
0.06447
-0.060172
-0.16189
-0.19771
-0.2149
-0.16905
-0.018625
0.18052
0.35387
0.44986
0.49212
0.5308
0.5702
0.59527
0.61175
0.62822
0.65115
0.66189
0.66189
0.65258
0.64112
0.6361
0.62894
0.61963
0.60387
0.59026
0.57808
0.57092
0.5659
0.56232
0.56017
0.55874
0.55802
0.55372
0.54799
0.54011
0.53152
0.5265
0.52436
0.52507
0.52794
0.52937
0.53295
0.53295
0.52865
0.52579
0.5265
0.53009
0.53582
0.53725
0.53438
0.53295
0.53295
0.54083
0.54155
0.52149
0.46275
0.25788
-0.28295
-0.59097
-0.73352
-0.38968
0.075931
0.39327
0.54155
0.63395
0.65974
0.6361
0.57808
0.48711
0.28725
0.065903
-0.14828
-0.20415
-0.096705
0.035817
0.13968
0.16117
0.16691
0.16189
0.15616
0.13539
0.10745
0.08596
0.074499
0.075215
0.083095
0.10315
0.14828
0.17479
0.20989
0.21418
0.21275
0.15616
0.015759
-0.3159
-0.73567
-0.88968
-0.78152
-0.38181
0.044413
0.34384
0.50716
0.54585
0.49355
0.42622
0.37894
0.32808
0.30086
0.29943
0.33023
0.39255
0.46777
0.54799
0.61891
0.66404
0.68338
0.68195
0.67192
0.66046
0.65759
0.66404
0.67335
0.67908
0.67192
0.62607
0.55372
0.39327
0.13467
-0.15473
-0.38897
-0.4563
-0.2808
0.027937
0.4341
0.72779
0.83811
0.74212
0.51146
0.23281
0.031519
-0.053725
-0.088109
-0.012178
0.070201
0.20487
0.34814
0.41619
0.42479
0.39828
0.3467
0.29513
0.25645
0.24857
0.27436
0.31375
0.36032
0.39542
0.42049
0.42622
0.41905
0.40401
0.38539
0.37321
0.37034
0.37607
0.39327
0.41476
0.43768
0.45774
0.47278
0.48352
0.49284
0.49785
0.50573
0.51576
0.53367
0.55444
0.57092
0.57235
0.55874
0.53582
0.5086
0.48782
0.45559
0.40258
0.34026
0.20057
-0.20702
-0.62321
-0.81089
-0.55659
-0.036533
0.37966
0.56519
0.64112
0.61819
0.4957
0.23496
0.055874
-0.045845
0.030802
0.22779
0.44914
0.6096
0.68338
0.65903
0.60888
0.56734
0.54298
0.50645
0.46347
0.42049
0.3596
0.27364
0.19198
0.13467
0.12106
0.12822
0.16404
0.21132
0.27221
0.30874
0.32521
0.32163
0.2851
0.21562
0.071633
-0.10888
-0.24857
-0.32808
-0.351
-0.34097
-0.34384
-0.27507
-0.20774
-0.075215
0.053725
0.1884
0.31662
0.40544
0.45989
0.48639
0.50072
0.51146
0.52149
0.52865
0.53653
0.54871
0.56089
0.57235
0.57665
0.57736
0.57665
0.58524
0.60029
0.61963
0.63467
0.62249
0.58381
0.52149
0.46418
0.43195
0.4298
0.45774
0.5
0.54513
0.58524
0.6053
0.58453
0.52149
0.3553
0.12679
-0.17908
-0.58309
-0.88395
-0.89971
-0.64327
-0.19699
0.12536
0.28223
0.30731
0.27937
0.19842
0.071633
-0.059456
-0.18123
-0.21132
-0.15473
-0.028653
0.10458
0.21418
0.2894
0.37034
0.4341
0.48782
0.52077
0.52507
0.49713
0.44054
0.35315
0.25215
0.15616
0.096705
0.089542
0.11891
0.16619
0.18625
0.17622
0.12607
0.022206
-0.19842
-0.43195
-0.4649
-0.30158
0.097421
0.43052
0.65473
0.7457
0.71347
0.57092
0.37966
0.20989
0.15401
0.15473
0.15616
0.16762
0.2235
0.32736
0.45702
0.50215
0.51361
0.49785
0.47278
0.4341
0.40043
0.38897
0.39112
0.41404
0.44914
0.48424
0.51361
0.53295
0.55659
0.56304
0.55301
0.50287
0.43911
0.34527
0.19628
-0.044413
-0.3553
-0.55874
-0.57951
-0.36748
-0.061605
0.29441
0.54656
0.6798
0.66691
0.58095
0.49069
0.41189
0.33811
0.34312
0.4384
0.56662
0.65115
0.73567
0.83883
0.91619
0.93052
0.83095
0.72923
0.66547
0.64398
0.6404
0.66117
0.69198
0.72923
0.74713
0.74857
0.70845
0.63825
0.53653
0.38968
0.18123
-0.13539
-0.50931
-0.70272
-0.67264
-0.38539
-0.050143
0.25287
0.42837
0.4735
0.399
0.29226
0.21418
0.17335
0.1798
0.22779
0.29871
0.37178
0.43696
0.48639
0.51934
0.5437
0.55444
0.57808
0.58668
0.59957
0.5967
0.59599
0.60387
0.59527
0.58596
0.56447
0.54011
0.49785
0.42264
0.21848
-0.1404
-0.44126
-0.57808
-0.41046
-0.065186
0.33238
0.65688
0.81662
0.80372
0.60673
0.27507
-0.091691
-0.24499
-0.23352
-0.025072
0.18696
0.36032
0.48639
0.53152
0.4957
0.41905
0.3553
0.28868
0.22851
0.19126
0.18768
0.20774
0.23567
0.2543
0.27006
0.29226
0.32736
0.37034
0.41619
0.45989
0.49499
0.52579
0.55229
0.5745
0.5967
0.61175
0.61533
0.59599
0.56519
0.51862
0.47421
0.42908
0.399
0.37822
0.36963
0.36748
0.37178
0.3947
0.41476
0.4255
0.41834
0.40401
0.38825
0.33668
0.18553
-0.22278
-0.6884
-0.89327
-0.72206
-0.22421
0.20272
0.45702
0.5265
0.50573
0.39398
0.23639
0.068768
-0.07808
-0.1053
-0.02149
0.11246
0.22923
0.31232
0.36246
0.39183
0.40831
0.41046
0.41189
0.4033
0.39398
0.38109
0.37751
0.38467
0.4033
0.43553
0.45774
0.47493
0.46777
0.45272
0.44198
0.43983
0.44771
0.45845
0.43625
0.41046
0.38395
0.35315
0.34885
0.30444
0.14327
-0.3288
-0.59599
-0.7586
-0.53797
-0.16404
0.11676
0.34742
0.50143
0.52221
0.44341
0.26862
0.015043
-0.14613
-0.23782
-0.21848
-0.11318
0.050143
0.25501
0.45845
0.56519
0.61605
0.6096
0.57951
0.51361
0.44484
0.39685
0.40258
0.44986
0.53653
0.62536
0.68553
0.71347
0.75931
0.81375
0.85029
0.83166
0.75788
0.68052
0.61246
0.54585
0.47564
0.40616
0.34957
0.31447
0.31304
0.32092
0.35029
0.36819
0.39398
0.39327
0.37106
0.31375
0.23138
0.11246
-0.043696
-0.26504
-0.57307
-0.82951
-0.88181
-0.62249
-0.17908
0.29011
0.59456
0.71848
0.7149
0.58811
0.4298
0.27436
0.16404
0.12822
0.14398
0.20272
0.26576
0.3245
0.37536
0.40831
0.43625
0.44413
0.45057
0.44126
0.4298
0.42407
0.43052
0.44484
0.4649
0.49284
0.5265
0.55802
0.57521
0.55731
0.52077
0.4735
0.41547
0.36103
0.2765
0.075931
-0.31662
-0.50287
-0.61676
-0.37249
-0.092407
0.14398
0.3245
0.44771
0.4649
0.36533
0.070917
-0.26361
-0.44842
-0.42479
-0.20057
0.07808
0.30086
0.48352
0.57163
0.5745
0.55874
0.53438
0.50501
0.47708
0.46991
0.48281
0.50358
0.53797
0.56877
0.59169
0.601
0.59814
0.59957
0.60387
0.6096
0.61533
0.60817
0.58309
0.53438
0.47206
0.40401
0.34097
0.2937
0.27221
0.29298
0.33309
0.38037
0.41619
0.42837
0.42049
0.37034
0.2808
0.10745
-0.2063
-0.64112
-0.77292
-0.66547
-0.20487
0.25
0.52937
0.61963
0.54155
0.33883
0.15903
-0.0078797
-0.063037
-0.093123
-0.036533
0.10602
0.24857
0.36461
0.40831
0.42049
0.42765
0.42908
0.43052
0.4298
0.43266
0.44413
0.45487
0.4649
0.46562
0.46203
0.45559
0.44986
0.45129
0.45272
0.45487
0.45487
0.44986
0.44054
0.42908
0.42264
0.42837
0.45559
0.49713
0.54083
0.56232
0.55158
0.51791
0.48782
0.47206
0.48424
0.53152
0.58453
0.58811
0.53582
0.3596
0.090974
-0.32665
-0.70702
-0.75788
-0.55301
-0.14398
0.1755
0.34169
0.44771
0.51218
0.52507
0.5043
0.45129
0.39327
0.33668
0.30802
0.28223
0.27722
0.28438
0.30587
0.33524
0.36032
0.37894
0.38968
0.38968
0.38682
0.38252
0.37751
0.3639
0.33238
0.27149
0.19914
0.12751
0.090258
0.11891
0.1841
0.26504
0.33238
0.36676
0.38467
0.38968
0.3861
0.36748
0.32307
0.25716
0.18052
0.098138
0.047994
0.030086
0.045845
0.053725
0.034384
-0.0057307
-0.066619
-0.11175
-0.14542
-0.16977
-0.18052
-0.18123
-0.18553
-0.16762
-0.084527
0.049427
0.22421
0.3553
0.35888
0.19198
-0.09957
-0.23281
-0.19628
0.060172
0.30444
0.43553
0.52507
0.56519
0.56948
0.52865
0.45702
0.3861
0.31805
0.27722
0.26289
0.28152
0.31232
0.34456
0.3861
0.41117
0.41905
0.41189
0.39112
0.38467
0.38252
0.3861
0.37321
0.35602
0.34527
0.36891
0.41905
0.47135
0.51433
0.52865
0.51361
0.47278
0.41332
0.36461
0.33453
0.32808
0.3288
0.34527
0.38324
0.42622
0.46848
0.48711
0.49427
0.49928
0.5043
0.51146
0.52865
0.55372
0.57951
0.58739
0.57521
0.54226
0.51433
0.49785
0.49212
0.4957
0.52292
0.55229
0.5745
0.51791
0.34026
0.022206
-0.38968
-0.68123
-0.6798
-0.46418
-0.10029
0.18768
0.40115
0.54298
0.58381
0.55874
0.48352
0.3553
0.17407
-0.047278
-0.18266
-0.25788
-0.27507
-0.23066
-0.14756
-0.01361
0.085244
0.093123
0.07235
0.050143
0.04298
0.040115
0.049427
0.085244
0.13754
0.2063
0.26648
0.32163
0.37464
0.42908
0.48567
0.54298
0.59026
0.62894
0.65903
0.68266
0.68625
0.6755
0.66046
0.64828
0.63968
0.62536
0.60673
0.59957
0.59527
0.59384
0.57736
0.55372
0.51504
0.47708
0.42335
0.36605
0.32521
0.29441
0.28223
0.22421
0.043696
-0.33668
-0.69986
-0.81304
-0.57163
-0.090974
0.36461
0.66762
0.81948
0.80659
0.66905
0.48209
0.26504
0.008596
-0.10172
-0.14398
-0.089542
-0.0028653
0.11175
0.26003
0.38181
0.41834
0.41117
0.39398
0.36676
0.33381
0.29871
0.26218
0.23639
0.22278
0.21562
0.17407
0.089542
0.042264
0.060888
0.15831
0.23639
0.26218
0.2414
0.19914
0.13252
0.014327
-0.1533
-0.20702
-0.21418
-0.1139
-0.023639
0.11676
0.28653
0.44699
0.53295
0.54226
0.53725
0.54656
0.55946
0.57092
0.58954
0.60745
0.62607
0.64756
0.66404
0.67765
0.6884
0.69269
0.69771
0.69699
0.69914
0.69484
0.69126
0.69842
0.70989
0.71705
0.70272
0.66762
0.62966
0.60029
0.57951
0.56017
0.54155
0.53438
0.52006
0.47278
0.36175
0.15688
-0.093123
-0.37607
-0.72994
-0.96777
-0.90401
-0.60315
-0.12607
0.18625
0.34742
0.40043
0.40401
0.34885
0.26074
0.19054
0.16476
0.19054
0.24785
0.29011
0.3202
0.34169
0.37249
0.40544
0.44341
0.47851
0.51074
0.53295
0.54226
0.5437
0.54585
0.55158
0.56662
0.58596
0.60387
0.61891
0.62679
0.62321
0.6053
0.58166
0.56375
0.53868
0.51289
0.48352
0.45989
0.43338
0.38395
0.2457
-0.13754
-0.57736
-0.75287
-0.55372
-0.050143
0.36032
0.54585
0.5788
0.49785
0.27436
0.0028653
-0.20774
-0.27006
-0.15831
0.030086
0.1884
0.28797
0.31877
0.31232
0.30444
0.29656
0.29226
0.29298
0.29656
0.30229
0.30372
0.30229
0.30587
0.31304
0.33453
0.36032
0.39685
0.42908
0.4563
0.47636
0.48782
0.49427
0.49785
0.50143
0.50215
0.50501
0.50358
0.5
0.49212
0.47994
0.46991
0.46777
0.47851
0.48639
0.47923
0.45989
0.42192
0.37321
0.29155
0.089542
-0.32736
-0.79585
-0.99713
-0.74928
-0.2149
0.28152
0.58381
0.68195
0.60817
0.22851
-0.089542
-0.28653
-0.18768
0.07235
0.30587
0.47779
0.61032
0.62679
0.56519
0.47206
0.39542
0.33166
0.28797
0.25501
0.23138
0.21132
0.20702
0.21777
0.23567
0.25788
0.28295
0.31375
0.33739
0.35602
0.36032
0.35458
0.34599
0.34026
0.34097
0.34814
0.36103
0.37822
0.39542
0.41117
0.42622
0.43768
0.44628
0.44628
0.44771
0.44341
0.4384
0.4341
0.42622
0.41834
0.41117
0.40544
0.40115
0.39685
0.3904
0.38539
0.37894
0.37536
0.37822
0.38467
0.39828
0.41261
0.42335
0.42908
0.43625
0.44484
0.46132
0.47923
0.5043
0.53653
0.56089
0.56734
0.5437
0.50788
0.47421
0.46777
0.4914
0.53797
0.54656
0.42908
0.14255
-0.27292
-0.65974
-0.76648
-0.60315
-0.27794
0.030086
0.17335
0.2414
0.26791
0.26361
0.23854
0.19556
0.11318
-0.032951
-0.29656
-0.48782
-0.60244
-0.53438
-0.399
-0.26361
-0.13037
0
0.11533
0.21991
0.29011
0.33238
0.34814
0.35602
0.36533
0.38324
0.40473
0.41762
0.41261
0.38252
0.33309
0.28152
0.26074
0.29226
0.36032
0.42693
0.47063
0.47206
0.45774
0.43338
0.41332
0.39828
0.39685
0.41332
0.43696
0.45559
0.46418
0.45201
0.43481
0.39971
0.35315
0.30516
0.27077
0.26791
0.28223
0.30086
0.2937
0.17622
-0.11963
-0.57808
-0.77507
-0.73496
-0.3596
0.054441
0.37106
0.56232
0.59026
0.46418
0.2063
-0.1755
-0.47636
-0.62966
-0.54656
-0.28725
0.047278
0.34026
0.5702
0.65258
0.65616
0.62106
0.59527
0.54728
0.50573
0.46705
0.44413
0.44699
0.4649
0.47923
0.4914
0.50287
0.51218
0.51862
0.52507
0.5308
0.54298
0.55014
0.54656
0.52794
0.51218
0.50072
0.49499
0.49284
0.47708
0.47708
0.46347
0.44484
0.41261
0.33883
0.16476
-0.15974
-0.5043
-0.66261
-0.52507
-0.20057
0.19914
0.52221
0.71132
0.75931
0.6533
0.44556
0.14183
-0.088825
-0.22421
-0.18123
-0.037249
0.17335
0.37536
0.53152
0.56089
0.48567
0.40473
0.34241
0.29441
0.27865
0.27221
0.31232
0.36461
0.41977
0.45989
0.47923
0.48352
0.47779
0.46418
0.44341
0.42622
0.42335
0.43553
0.46275
0.48854
0.51361
0.53438
0.55301
0.57092
0.59097
0.60244
0.61461
0.62106
0.62822
0.63037
0.63467
0.6361
0.63825
0.64112
0.64542
0.65473
0.66619
0.6798
0.69771
0.70845
0.70057
0.6712
0.62249
0.56662
0.5265
0.50143
0.49713
0.51003
0.52937
0.55946
0.54011
0.44413
0.23997
-0.030086
-0.31877
-0.62178
-0.81232
-0.7235
-0.38754
0.10745
0.47206
0.63968
0.63395
0.48352
0.25143
-0.012178
-0.16117
-0.17407
-0.04298
0.12464
0.27436
0.34814
0.37751
0.40473
0.44914
0.48209
0.48281
0.44986
0.40616
0.40616
0.41189
0.42049
0.39971
0.33954
0.25573
0.15258
0.080946
0.027221
-0.0050143
-0.051576
-0.12751
-0.24713
-0.35745
-0.45415
-0.47278
-0.43983
-0.42335
-0.35888
-0.26003
-0.084527
0.088825
0.27221
0.42049
0.54298
0.60888
0.60387
0.56948
0.52865
0.49857
0.4914
0.49069
0.50573
0.52006
0.53725
0.55372
0.56304
0.56805
0.56089
0.55731
0.54871
0.54728
0.54441
0.54155
0.53797
0.5308
0.52507
0.52292
0.51862
0.51648
0.51576
0.51504
0.51146
0.51289
0.51218
0.51719
0.53223
0.55731
0.59456
0.62679
0.65258
0.64971
0.61748
0.5659
0.52149
0.49713
0.49212
0.51003
0.55229
0.57665
0.5437
0.3861
0.13682
-0.19413
-0.48424
-0.56519
-0.40974
-0.088109
0.23997
0.44484
0.55158
0.49069
0.2414
-0.015759
-0.21991
-0.27722
-0.23424
-0.16619
-0.087393
-0.030086
-0.0071633
0.0078797
0.039398
0.061605
0.078797
0.088825
0.088109
0.091691
0.1053
0.13467
0.18052
0.23567
0.29585
0.35888
0.4212
0.48281
0.5308
0.56948
0.59312
0.6096
0.62034
0.62178
0.6096
0.58166
0.56447
0.54513
0.5308
0.50931
0.48926
0.48281
0.49284
0.50143
0.49355
0.46275
0.39971
0.30659
0.18911
0.047994
-0.10315
-0.27794
-0.48782
-0.68625
-0.72923
-0.55516
-0.18696
0.19842
0.49713
0.68553
0.77149
0.7808
0.71705
0.62034
0.53009
0.46275
0.43553
0.43553
0.44986
0.4735
0.4957
0.51289
0.52507
0.5308
0.52865
0.52149
0.51433
0.51289
0.51791
0.52794
0.54155
0.55444
0.56017
0.54799
0.51791
0.48496
0.45845
0.44556
0.4298
0.41117
0.4033
0.41834
0.41691
0.34885
0.19413
-0.047278
-0.32235
-0.57808
-0.73567
-0.67049
-0.4255
-0.075215
0.21633
0.39112
0.40759
0.24212
0.008596
-0.18696
-0.24212
-0.17264
-0.051576
0.066619
0.19054
0.2765
0.34885
0.40043
0.43696
0.46203
0.48496
0.49642
0.49355
0.47636
0.44628
0.40043
0.36605
0.35172
0.34312
0.33596
0.33954
0.35817
0.40115
0.44914
0.48782
0.51003
0.52149
0.52794
0.53725
0.54871
0.5659
0.58811
0.61246
0.63037
0.62607
0.60387
0.56877
0.54155
0.51504
0.49642
0.48567
0.49642
0.5086
0.50358
0.43481
0.30014
0.11748
-0.079513
-0.26862
-0.46275
-0.6447
-0.64398
-0.45057
-0.10888
0.23782
0.43481
0.55014
0.55014
0.49284
0.35888
0.17622
0.034384
-0.032951
-0.012178
0.049427
0.11605
0.17264
0.21418
0.25716
0.28582
0.30731
0.32521
0.32378
0.30587
0.27221
0.23926
0.19986
0.16046
0.11032
0.053725
0.00071633
-0.011461
0.025788
0.10888
0.19699
0.2414
0.22779
0.17908
0.13395
0.11461
0.12679
0.15616
0.2063
0.2894
0.37894
0.45774
0.49857
0.50716
0.50072
0.47493
0.43696
0.4033
0.38682
0.39183
0.40903
0.41117
0.40688
0.37822
0.28797
0.096705
-0.087393
-0.16404
-0.12822
0.0071633
0.10029
0.22708
0.35244
0.40258
0.36032
0.24857
0.092407
-0.13181
-0.16332
-0.065186
0.22421
0.53009
0.77579
0.92622
1
0.93338
0.81447
0.70917
0.62321
0.55158
0.51289
0.50143
0.51218
0.53295
0.5745
0.6139
0.6404
0.64327
0.63181
0.61461
0.59599
0.57593
0.55158
0.5351
0.53367
0.54298
0.55301
0.56304
0.55946
0.55516
0.54585
0.51791
0.47564
0.38252
0.3202
0.26648
0.25358
0.23926
0.20057
0.13897
0.098138
0.098138
0.12822
0.15258
0.12178
-0.040831
-0.37607
-0.67908
-0.85602
-0.75716
-0.47923
-0.17479
0.096705
0.32163
0.47063
0.56447
0.55587
0.40186
0.042264
-0.26648
-0.46275
-0.43911
-0.28295
-0.073782
0.11891
0.27722
0.34097
0.34241
0.35387
0.37679
0.40903
0.44842
0.48997
0.5308
0.5659
0.59241
0.61175
0.62393
0.63181
0.63539
0.6361
0.63252
0.62679
0.62034
0.61246
0.60458
0.59599
0.59026
0.58668
0.58238
0.58095
0.57665
0.57378
0.56877
0.5659
0.56662
0.57092
0.58309
0.5967
0.60745
0.61103
0.59742
0.58309
0.54871
0.50501
0.45917
0.41404
0.38897
0.36533
0.2414
-0.14613
-0.52794
-0.68481
-0.46203
0.030802
0.42765
0.67264
0.79226
0.7808
0.54298
0.12106
-0.081662
-0.12894
0.095272
0.38467
0.59097
0.74427
0.80301
0.74857
0.67479
0.61175
0.56519
0.52364
0.48352
0.43911
0.39112
0.34527
0.31017
0.2894
0.26934
0.24427
0.20487
0.17335
0.15473
0.1404
0.12393
0.10888
0.11461
0.1447
0.19413
0.25287
0.30444
0.34097
0.36032
0.351
0.26719
0.083095
-0.18625
-0.41476
-0.5086
-0.41476
-0.18195
0.17192
0.51289
0.75501
0.83453
0.75573
0.60244
0.43123
0.30158
0.27722
0.30946
0.35172
0.38682
0.50287
0.63395
0.76433
0.7808
0.74069
0.70272
0.69269
0.68625
0.68123
0.68052
0.6755
0.65688
0.62822
0.58883
0.55874
0.53295
0.51504
0.50215
0.50072
0.50501
0.51433
0.52364
0.51433
0.47779
0.4033
0.29585
0.19341
0.11246
0.092407
0.13324
0.21275
0.30301
0.37679
0.42765
0.4563
0.40974
0.18911
-0.25501
-0.58739
-0.72206
-0.47851
-0.10172
0.21991
0.43266
0.5437
0.53223
0.4298
0.28367
0.14112
0.015043
-0.088825
-0.13037
-0.10387
-0.016476
0.076648
0.13467
0.16762
0.17693
0.19484
0.19126
0.17908
0.16762
0.16977
0.18696
0.22636
0.27794
0.34312
0.41691
0.48567
0.5437
0.58238
0.60817
0.62106
0.62679
0.62966
0.63109
0.63539
0.64398
0.6533
0.66476
0.6755
0.68123
0.67264
0.64828
0.60172
0.53582
0.46562
0.41977
0.3947
0.4033
0.41834
0.43481
0.44556
0.45057
0.40186
0.27436
0.047994
-0.22493
-0.48209
-0.66905
-0.76648
-0.75573
-0.61963
-0.33596
0.0071633
0.33453
0.55372
0.65115
0.59814
0.38467
0.1139
-0.11963
-0.19341
-0.13324
0.090974
0.33095
0.53725
0.63181
0.64183
0.62607
0.62034
0.6139
0.60315
0.58381
0.55014
0.5043
0.4384
0.37178
0.31375
0.29155
0.27722
0.25716
0.21203
0.16762
0.12751
0.10244
0.065903
0.031519
0.0093123
0.01361
0.04298
0.088825
0.14183
0.16476
0.1096
-0.12249
-0.50501
-0.69269
-0.65759
-0.30802
0.10673
0.45917
0.69842
0.83453
0.83668
0.74499
0.64112
0.56375
0.52221
0.51218
0.53367
0.57665
0.62536
0.67264
0.70487
0.71418
0.69413
0.64685
0.58238
0.52722
0.49212
0.47923
0.47994
0.48926
0.5043
0.52937
0.53223
0.51003
0.4384
0.32808
0.17765
0.027937
-0.12536
-0.27077
-0.43052
-0.52507
-0.49427
-0.35458
-0.12607
0.085244
0.25788
0.36318
0.37822
0.27722
0.073782
-0.098138
-0.18052
-0.10602
0.04298
0.18195
0.29083
0.36103
0.39756
0.4033
0.39398
0.36103
0.3116
0.24928
0.19054
0.14398
0.11748
0.10673
0.12178
0.14971
0.19842
0.26218
0.32235
0.36246
0.36819
0.34957
0.33023
0.32521
0.3159
0.31734
0.30229
0.27006
0.20559
0.10315
-0.1053
-0.42335
-0.62321
-0.63395
-0.33023
0.076648
0.44484
0.71347
0.87464
0.91762
0.82593
0.68481
0.51648
0.37536
0.27722
0.3202
0.43338
0.54083
0.54728
0.62536
0.71203
0.84885
0.88252
0.83095
0.76576
0.71991
0.66691
0.59957
0.51862
0.43553
0.37178
0.34599
0.35172
0.37178
0.38467
0.34885
0.22564
0.065903
-0.098138
-0.19484
-0.24642
-0.27149
-0.26791
-0.23496
-0.16619
-0.060888
0.036533
0.15903
0.25716
0.35172
0.41762
0.44771
0.44771
0.4298
0.37607
0.26648
0.022206
-0.39398
-0.65544
-0.74069
-0.46203
-0.075215
0.30946
0.58739
0.77006
0.78152
0.62536
0.37106
0.060888
-0.16404
-0.18911
-0.050143
0.19771
0.47779
0.69413
0.83309
0.82951
0.74427
0.65688
0.60315
0.56662
0.55516
0.55587
0.56734
0.58453
0.60172
0.60673
0.60029
0.57521
0.57092
0.56519
0.57593
0.58166
0.57808
0.5788
0.57521
0.57736
0.58238
0.59026
0.58883
0.57736
0.56375
0.55014
0.54083
0.53295
0.52221
0.50788
0.47421
0.42622
0.37034
0.33238
0.30946
0.31232
0.31662
0.30802
0.28653
0.26218
0.22564
0.17049
0.075931
-0.065186
-0.23281
-0.39971
-0.57951
-0.7808
-0.95702
-0.98496
-0.8202
-0.4606
-0.082378
0.24785
0.46132
0.55229
0.50716
0.30086
0.073066
-0.073782
-0.058023
0.080946
0.25072
0.40115
0.51433
0.58238
0.60745
0.61891
0.61963
0.62106
0.61819
0.61461
0.6096
0.59957
0.59241
0.57808
0.57665
0.56805
0.56447
0.54513
0.51289
0.48711
0.46777
0.48209
0.51146
0.53868
0.54083
0.48997
0.35888
0.16476
-0.10745
-0.34957
-0.52006
-0.55874
-0.48639
-0.37822
-0.26504
-0.17765
-0.057307
0.10029
0.2937
0.47851
0.58668
0.60745
0.56232
0.48281
0.40759
0.35817
0.34169
0.35458
0.38324
0.41404
0.43195
0.44699
0.44914
0.44842
0.44484
0.43983
0.43195
0.40473
0.35817
0.30587
0.26074
0.21347
0.16332
0.083095
-0.13181
-0.41762
-0.58381
-0.48424
-0.13682
0.25287
0.53582
0.71777
0.83453
0.88467
0.85745
0.77794
0.67264
0.5788
0.51719
0.49212
0.49427
0.51791
0.54656
0.57521
0.59241
0.59742
0.59742
0.59957
0.61246
0.63395
0.65043
0.65186
0.62607
0.57736
0.51862
0.46347
0.43266
0.42049
0.43481
0.47063
0.50716
0.5
0.45845
0.37249
0.26146
0.075215
-0.26361
-0.73352
-1
-0.9341
-0.59026
-0.16691
0.079513
0.2457
0.30229
0.22923
0.014327
-0.1884
-0.28582
-0.24499
-0.14183
-0.047994
0.041547
0.13682
0.23567
0.33668
0.42837
0.49642
0.54728
0.58453
0.6096
0.62894
0.64398
0.65544
0.65903
0.64183
0.60673
0.55444
0.49785
0.45917
0.43983
0.44198
0.45344
0.46705
0.48209
0.48281
0.47135
0.43625
0.39398
0.34097
0.2894
0.24928
0.2192
0.17837
0.1096
0.032951
-0.080946
-0.30874
-0.53725
-0.72063
-0.66905
-0.38109
-0.018625
0.31519
0.5437
0.6712
0.72779
0.73496
0.71347
0.66834
0.60387
0.53438
0.45917
0.40401
0.37034
0.36819
0.39183
0.4341
0.47493
0.50501
0.51576
0.50573
0.47708
0.4298
0.39183
0.36103
0.32951
0.29656
0.24857
0.2063
0.16834
0.14542
0.14398
0.13754
0.08596
-0.15616
-0.60888
-0.83023
-0.83095
-0.45415
-0.014327
0.3553
0.62536
0.80086
0.83596
0.77292
0.65258
0.51074
0.35602
0.25931
0.24212
0.3159
0.39327
0.44914
0.55301
0.69413
0.8288
0.88181
0.79513
0.69628
0.63682
0.61103
0.59241
0.57235
0.55014
0.52865
0.49928
0.45344
0.40688
0.34527
0.26862
0.11533
-0.11103
-0.4384
-0.69126
-0.76576
-0.57951
-0.25143
0.10745
0.39828
0.61963
0.74069
0.76074
0.70845
0.63754
0.54011
0.44699
0.36891
0.3245
0.30731
0.32307
0.34312
0.37034
0.39542
0.41691
0.42765
0.43123
0.42335
0.40831
0.38754
0.38109
0.38682
0.40688
0.43481
0.46203
0.48926
0.50788
0.50573
0.47636
0.42622
0.37393
0.33668
0.31877
0.3245
0.35315
0.39613
0.43195
0.41834
0.31089
0.098854
-0.17264
-0.43195
-0.61032
-0.72063
-0.67479
-0.45702
-0.101
0.27722
0.55158
0.68553
0.69126
0.51576
0.23138
-0.040115
-0.20774
-0.2063
-0.10244
0.063037
0.21132
0.31232
0.34599
0.36175
0.3861
0.40688
0.42407
0.4384
0.45702
0.48066
0.50501
0.53152
0.55444
0.58023
0.59885
0.61175
0.60458
0.58166
0.5437
0.50645
0.47493
0.45415
0.44556
0.45415
0.46203
0.47063
0.46991
0.44986
0.41261
0.34312
0.25788
0.15473
0.075931
0.014327
-0.066619
-0.25
-0.55731
-0.76504
-0.74355
-0.44484
-0.05659
0.26648
0.47564
0.58023
0.62536
0.61461
0.57593
0.51862
0.45129
0.38324
0.34169
0.31734
0.30086
0.29656
0.30587
0.33095
0.36819
0.41117
0.45702
0.50573
0.55086
0.59097
0.62106
0.64613
0.66905
0.69126
0.7063
0.70559
0.68052
0.62751
0.5659
0.51791
0.48281
0.46991
0.46991
0.48997
0.51504
0.52221
0.44628
0.26719
-0.0057307
-0.30946
-0.55946
-0.71633
-0.72779
-0.6447
-0.44269
-0.20344
0.042264
0.27221
0.41261
0.44054
0.29871
0.101
-0.012178
0.0093123
0.14255
0.26361
0.37822
0.48496
0.54943
0.55229
0.50501
0.46562
0.4341
0.41619
0.39828
0.38252
0.36819
0.35888
0.35745
0.37106
0.3947
0.42693
0.45344
0.4649
0.4692
0.45702
0.43768
0.41332
0.38897
0.36819
0.35673
0.3553
0.36819
0.38754
0.40544
0.40974
0.36963
0.29513
0.20201
0.09957
0.02937
-0.0050143
-0.0057307
-0.030086
-0.11246
-0.38539
-0.68911
-0.88109
-0.77722
-0.40043
0
0.30158
0.51074
0.64971
0.69842
0.63825
0.52292
0.40688
0.35029
0.34957
0.39183
0.45129
0.5
0.53725
0.55946
0.57307
0.57808
0.58381
0.59599
0.61246
0.62966
0.64255
0.64613
0.63754
0.6096
0.5659
0.50573
0.45917
0.41619
0.39255
0.38968
0.40974
0.43195
0.4255
0.3245
0.12679
-0.13539
-0.38968
-0.57736
-0.67407
-0.66046
-0.57378
-0.3947
-0.19341
0.04298
0.26003
0.42479
0.48926
0.48639
0.40401
0.23926
0.014327
-0.15115
-0.19413
-0.080946
0.078797
0.23997
0.38252
0.50072
0.5616
0.57521
0.58309
0.59456
0.60888
0.62321
0.64112
0.65759
0.66547
0.66977
0.65688
0.63754
0.61246
0.58739
0.56232
0.53797
0.51719
0.51648
0.52937
0.54585
0.55158
0.53295
0.49642
0.45129
0.39542
0.34312
0.29585
0.25358
0.19842
0.11318
-0.012178
-0.29298
-0.5616
-0.72636
-0.67192
-0.39971
-0.12321
0.11175
0.27149
0.38252
0.44914
0.48782
0.49069
0.47779
0.45057
0.42264
0.40258
0.39542
0.399
0.41332
0.4298
0.45415
0.47135
0.47923
0.47564
0.46633
0.4692
0.49069
0.5265
0.57665
0.63395
0.6884
0.72994
0.74212
0.72063
0.6755
0.62607
0.58668
0.56017
0.55014
0.56089
0.58524
0.61246
0.58596
0.47278
0.23138
-0.063037
-0.36461
-0.57951
-0.6841
-0.67407
-0.52722
-0.28725
0.017192
0.29441
0.48997
0.59742
0.63181
0.60673
0.5351
0.44341
0.36246
0.30516
0.2765
0.26433
0.26934
0.28295
0.30516
0.33238
0.59527
