0.11464
-0.27327
-0.63005
-0.71446
-0.46423
0.0020952
0.37145
0.59054
0.64322
0.63963
0.57917
0.49356
0.31278
0.013469
-0.3044
-0.40198
-0.22837
0.11404
0.40138
0.54385
0.55163
0.49416
0.42053
0.35828
0.3499
0.36366
0.36606
0.3499
0.30859
0.25531
0.19725
0.14756
0.12062
0.1302
0.15235
0.1721
0.16492
0.15594
0.16971
0.21101
0.26908
0.31098
0.31757
0.31398
0.21461
-0.14636
-0.71146
-0.99342
-0.99641
-0.81802
-0.21221
0.39479
0.66776
0.7821
0.63364
0.16851
-0.2613
-0.4355
-0.26669
0.066746
0.26669
0.31577
0.30739
0.27507
0.22837
0.17629
0.14337
0.11104
0.078719
0.060162
0.054175
0.066148
0.096079
0.11344
0.12661
0.12661
0.12182
0.11883
0.12062
0.129
0.14876
0.1751
0.20443
0.23676
0.27567
0.31218
0.33014
0.31218
0.27088
0.21461
0.1727
0.15714
0.16312
0.18587
0.2176
0.22718
0.23436
0.23376
0.23436
0.23676
0.24993
0.29063
0.36965
0.4337
0.305
-0.10626
-0.46663
-0.63185
-0.4367
-0.129
0.093086
0.19545
0.23077
0.21341
0.17091
0.080515
-0.020054
-0.10745
-0.1284
-0.090691
-0.051781
-0.013469
0.022448
0.058964
0.099072
0.13858
0.1739
0.20862
0.23556
0.25052
0.26669
0.27926
0.305
0.34451
0.3894
0.46483
0.51272
0.47501
0.12362
-0.54924
-0.93954
-0.99641
-0.80066
-0.2601
0.23376
0.51392
0.63963
0.61389
0.37085
-0.064352
-0.46902
-0.58994
-0.37923
0.024244
0.32116
0.47321
0.50793
0.48758
0.42053
0.3056
0.12062
-0.12781
-0.33313
-0.35768
-0.14397
0.13738
0.39898
0.54744
0.59174
0.57438
0.51931
0.43969
0.31637
0.15654
-0.0056869
-0.067345
-0.0038911
0.19784
0.34391
0.45286
0.46782
0.44867
0.42113
0.37983
0.32894
0.28584
0.24993
0.22957
0.23676
0.24514
0.23017
0.19545
0.14816
0.10985
0.078719
0.05657
0.05238
0.063155
0.093086
0.12302
0.15295
0.18587
0.21461
0.23735
0.2589
0.28824
0.32176
0.36127
0.3918
0.41275
0.40557
0.36965
0.31757
0.27028
0.23735
0.21221
0.2194
0.23257
0.2601
0.072733
-0.4774
-0.9132
-0.99701
-0.87309
-0.36366
0.057767
0.20862
0.21221
0.055971
-0.18887
-0.43071
-0.55403
-0.49117
-0.31398
-0.12421
0.016462
0.081113
0.096079
0.089494
0.084705
0.093685
0.10087
0.11104
0.12242
0.15175
0.17929
0.19066
0.19246
0.20024
0.22179
0.24933
0.29542
0.33912
0.37324
0.40317
0.33613
-0.024843
-0.63484
-0.96169
-0.99162
-0.68931
-0.132
0.35169
0.56899
0.62826
0.49476
0.16133
-0.34092
-0.68872
-0.73122
-0.40317
0.040407
0.36845
0.53966
0.58635
0.54385
0.45825
0.37444
0.28884
0.18767
0.079916
0.023047
0.063155
0.20323
0.4349
0.64262
0.80245
0.87249
0.86052
0.80126
0.67195
0.51392
0.35828
0.19485
0.038013
-0.090691
-0.19126
-0.33493
-0.47082
-0.55163
-0.54924
-0.42592
-0.26968
-0.10207
0.037414
0.094882
0.093685
0.076324
0.029033
-0.051182
-0.11883
-0.14996
-0.12302
-0.070937
-0.029033
0.015864
0.066148
0.10745
0.14816
0.18288
0.22718
0.27207
0.31398
0.36187
0.41515
0.45286
0.47201
0.43909
0.37504
0.31039
0.26788
0.28465
0.3475
0.41455
0.39838
0.0434
-0.50374
-0.89704
-0.92218
-0.52409
-0.063753
0.27686
0.45825
0.49356
0.36785
0.10087
-0.25172
-0.49716
-0.54265
-0.36007
-0.10506
0.11284
0.22359
0.26788
0.24394
0.21401
0.19485
0.1721
0.090093
-0.06076
-0.217
-0.23376
-0.12182
0.14756
0.34211
0.50733
0.55103
0.50554
0.22418
-0.30859
-0.77911
-0.96708
-0.79767
-0.42053
-0.11883
0.080515
0.19844
0.26848
0.29542
0.29422
0.29003
0.27926
0.25771
0.23017
0.20443
0.19246
0.18887
0.19605
0.20742
0.22478
0.24154
0.24454
0.24035
0.23975
0.25831
0.29542
0.35708
0.4331
0.49117
0.55462
0.56959
0.53607
0.28225
-0.32834
-0.89644
-0.9994
-0.98025
-0.6103
0.0044897
0.38402
0.55223
0.58875
0.38102
-0.0062855
-0.36067
-0.46782
-0.27088
0.11583
0.37324
0.49416
0.48219
0.40018
0.29901
0.21401
0.16073
0.11943
0.072134
0.03921
0.03921
0.063155
0.10626
0.14576
0.1739
0.19186
0.19784
0.19964
0.20623
0.22957
0.2607
0.3026
0.32775
0.32834
0.30979
0.28165
0.27447
0.27567
0.28105
0.28165
0.3062
0.33912
0.42293
0.47022
0.45286
0.12362
-0.48937
-0.91081
-0.96049
-0.53367
0.012272
0.41634
0.55462
0.54265
0.34511
0.011075
-0.35588
-0.53786
-0.4355
-0.10147
0.20623
0.43969
0.54744
0.58216
0.53966
0.45525
0.38162
0.33014
0.27926
0.23017
0.19186
0.14936
0.11643
0.089494
0.058964
0.033224
0.018258
0.033224
0.078719
0.1308
0.18288
0.20563
0.20443
0.19306
0.1745
0.16732
0.1727
0.19126
0.21461
0.24753
0.27567
0.29722
0.30021
0.28465
0.25352
0.21999
0.19306
0.18048
0.17869
0.17929
0.17989
0.17929
0.17749
0.17809
0.18767
0.21401
0.25651
0.32236
0.40916
0.50015
0.57558
0.61568
0.62227
0.61628
0.59593
0.48279
-0.025441
-0.50614
-0.8282
-0.71685
-0.29482
0.081712
0.31637
0.44508
0.40078
0.21401
-0.083508
-0.32415
-0.33134
-0.15774
0.1284
0.35588
0.44687
0.44328
0.35169
0.21221
0.088297
0.015265
-0.014666
-0.027836
-0.048189
-0.082311
-0.12302
-0.13798
-0.132
-0.093685
-0.042203
0.029033
0.096678
0.13679
0.14696
0.10147
-0.13319
-0.59892
-0.96767
-0.99701
-0.90123
-0.393
0.12781
0.44089
0.55462
0.56061
0.36965
-0.032625
-0.48219
-0.64801
-0.51033
-0.093086
0.24334
0.44148
0.51871
0.54265
0.51512
0.45166
0.33313
0.14936
-0.067944
-0.21221
-0.21521
-0.045196
0.15953
0.32954
0.39359
0.37683
0.33254
0.29841
0.27507
0.28045
0.3038
0.32356
0.33373
0.34211
0.34391
0.34511
0.3457
0.34151
0.33673
0.33673
0.33673
0.33852
0.34092
0.35229
0.37025
0.38701
0.41155
0.4343
0.47381
0.49237
0.50793
0.35169
-0.129
-0.73661
-0.99461
-0.99162
-0.72164
-0.1302
0.26729
0.40617
0.38102
0.14756
-0.23316
-0.53307
-0.56959
-0.36247
-0.074529
0.12362
0.20383
0.23077
0.21521
0.17869
0.16732
0.18468
0.20922
0.21999
0.22179
0.23257
0.24873
0.27626
0.30081
0.32176
0.33732
0.34511
0.35049
0.35468
0.35588
0.35109
0.33912
0.31877
0.29782
0.27207
0.24693
0.22119
0.20323
0.18827
0.18527
0.20144
0.23735
0.30021
0.35588
0.38701
0.37204
0.31338
0.28285
0.30679
0.42772
0.5654
0.57917
0.17809
-0.30021
-0.70548
-0.65699
-0.28345
0.077522
0.28465
0.37444
0.35828
0.20144
-0.042203
-0.35169
-0.48339
-0.36726
-0.06974
0.24813
0.46124
0.54265
0.53667
0.44089
0.31338
0.18168
0.043999
-0.10027
-0.19605
-0.16552
-0.0032924
0.25711
0.4774
0.66357
0.739
0.77731
0.78509
0.6965
0.45944
0.0026938
-0.51631
-0.80605
-0.77312
-0.52589
-0.2188
0.019455
0.17989
0.25232
0.23855
0.15953
0.05657
-0.070937
-0.16432
-0.17809
-0.099072
0.029033
0.15355
0.24214
0.27686
0.2619
0.22478
0.21221
0.21461
0.22957
0.22119
0.20443
0.19126
0.1757
0.13499
0.093685
0.07812
0.10925
0.15235
0.20563
0.25831
0.31278
0.36067
0.37384
0.36606
0.35648
0.33912
0.32954
0.32296
0.30919
0.28584
0.24573
0.19605
0.15355
0.14936
0.19605
0.24633
0.30679
0.32056
0.31577
0.097276
-0.51332
-0.92457
-0.9982
-0.95271
-0.48578
0.050584
0.29183
0.38342
0.28764
-0.085304
-0.50733
-0.70787
-0.58994
-0.21161
0.11464
0.30859
0.39359
0.40617
0.36127
0.31518
0.28524
0.27686
0.25352
0.23616
0.2182
0.21101
0.21101
0.21999
0.24214
0.2589
0.29243
0.31158
0.34331
0.36905
0.37264
0.35229
0.31937
0.29542
0.29362
0.33972
0.40617
0.49117
0.45465
0.048189
-0.51931
-0.92517
-0.92517
-0.48937
0.015265
0.37803
0.55283
0.57917
0.41455
0.097276
-0.31877
-0.59413
-0.59473
-0.37145
-0.10985
0.080515
0.16971
0.20204
0.1751
0.10865
0.048788
0.01287
-0.018258
-0.06076
-0.096079
-0.10685
-0.073331
0.0020952
0.12182
0.24933
0.3475
0.38342
0.35588
0.31877
0.29602
0.28225
0.27148
0.2607
0.2595
0.26669
0.27926
0.29183
0.3032
0.3032
0.29303
0.27926
0.25651
0.23316
0.21042
0.19186
0.18048
0.17929
0.19545
0.22119
0.26309
0.31637
0.37683
0.44388
0.50314
0.55283
0.38282
-0.20802
-0.76055
-0.98982
-0.77971
-0.24753
0.22538
0.393
0.43909
0.34391
0.060162
-0.37983
-0.73002
-0.7396
-0.45525
-0.03023
0.27746
0.42831
0.48279
0.4343
0.30859
0.14517
-0.021251
-0.15953
-0.21401
-0.14636
0.035618
0.20862
0.34092
0.3894
0.39599
0.36726
0.3056
0.24154
0.19425
0.1739
0.16013
0.14157
0.12661
0.11344
0.10147
0.10326
0.11404
0.13319
0.15055
0.15834
0.16492
0.16732
0.16911
0.16432
0.14996
0.13798
0.1296
0.14337
0.15893
0.1727
0.1727
0.16253
0.14457
0.12302
0.10566
0.096678
0.10925
0.13439
0.17091
0.20982
0.24514
0.27387
0.29422
0.32775
0.36726
0.43969
0.54505
0.64382
0.70847
0.51033
-0.13738
-0.68632
-0.98144
-0.81084
-0.37743
0.0098773
0.23676
0.3475
0.26848
0.03921
-0.26908
-0.46244
-0.40138
-0.14098
0.19545
0.4343
0.5211
0.49117
0.37863
0.24394
0.13738
0.045795
-0.049386
-0.15893
-0.23496
-0.24993
-0.20802
-0.13738
-0.059563
0.014068
0.087698
0.15534
0.20802
0.24633
0.27267
0.29841
0.33194
0.36606
0.38521
0.37863
0.36007
0.3493
0.37803
0.46064
0.54984
0.5666
0.26788
-0.33254
-0.79707
-0.94732
-0.6073
-0.15415
0.20383
0.38701
0.41993
0.3056
0.037414
-0.33194
-0.63963
-0.68752
-0.42532
-0.068542
0.23676
0.37923
0.40078
0.3493
0.26788
0.20922
0.18527
0.16971
0.16312
0.16672
0.18647
0.22179
0.25292
0.28584
0.32595
0.36127
0.38761
0.39898
0.40796
0.40976
0.39719
0.35289
0.29722
0.25651
0.23795
0.26609
0.29482
0.32834
0.16911
-0.28943
-0.80485
-0.99401
-0.97067
-0.60251
-0.10266
0.25292
0.40377
0.42592
0.22418
-0.22897
-0.66836
-0.81682
-0.61209
-0.17689
0.16432
0.3463
0.40976
0.42113
0.37983
0.34271
0.29782
0.23795
0.14337
0.06974
0.038013
0.063753
0.14277
0.24873
0.3469
0.42113
0.43789
0.44328
0.45166
0.47201
0.4774
0.46782
0.45585
0.44807
0.4349
0.40557
0.30141
-0.030829
-0.62885
-0.98863
-0.9982
-0.94732
-0.42831
0.20742
0.53547
0.66058
0.6528
0.39599
-0.032625
-0.47261
-0.65699
-0.52529
-0.18168
0.076923
0.19725
0.20742
0.1739
0.11464
0.064352
0.054175
0.068542
0.083508
0.094283
0.10805
0.1284
0.15534
0.18887
0.2182
0.24933
0.27267
0.28524
0.29003
0.28165
0.26549
0.23855
0.21221
0.18647
0.17091
0.16312
0.16073
0.16133
0.16612
0.18048
0.19186
0.19964
0.19186
0.18288
0.17031
0.1757
0.18048
0.19006
0.18228
0.17749
0.17031
0.1721
0.17869
0.18348
0.18228
0.18228
0.20443
0.24693
0.30021
0.40796
0.5217
0.64202
0.478
-0.099671
-0.71506
-0.98563
-0.76474
-0.20323
0.28225
0.53966
0.57198
0.3906
0.070338
-0.30081
-0.40976
-0.29422
0.010476
0.29303
0.49955
0.63065
0.68991
0.65579
0.52409
0.40736
0.28165
0.096079
-0.12362
-0.31458
-0.37803
-0.28704
-0.099072
0.023646
0.090691
0.042203
0.0068842
-0.035019
-0.038611
-0.023047
-0.0032924
0.0020952
-0.0068842
0.0044897
0.049386
0.11284
0.19186
0.2613
0.30679
0.32415
0.32116
0.32116
0.32595
0.33493
0.34451
0.35169
0.3499
0.34511
0.32715
0.31518
0.3038
0.29662
0.29662
0.30081
0.3056
0.31817
0.33852
0.3457
0.33373
0.28644
0.22598
0.19306
0.20204
0.27267
0.43789
0.63304
0.72523
0.37564
-0.17031
-0.64382
-0.65519
-0.27447
0.10027
0.28943
0.35468
0.33014
0.1745
-0.05238
-0.33912
-0.44268
-0.34211
-0.099671
0.14756
0.26489
0.28584
0.22598
0.11404
0.027237
-0.0074828
0.013469
0.02185
0.019455
0.0092787
0.029632
0.072733
0.13798
0.20682
0.27866
0.31577
0.30679
0.25711
0.18527
0.13319
0.10506
0.081113
0.055971
0.035019
0.030829
0.042203
0.065549
0.092487
0.11344
0.1314
0.13439
0.129
0.12002
0.12002
0.12481
0.14277
0.16372
0.18647
0.20084
0.20204
0.19545
0.18767
0.18527
0.18707
0.18707
0.18767
0.19485
0.21101
0.23197
0.27387
0.35588
0.51332
0.70009
0.74499
0.32356
-0.16791
-0.59234
-0.58276
-0.28943
-0.051182
0.090093
0.15534
0.1739
0.132
0.02604
-0.12721
-0.2601
-0.28764
-0.21281
-0.11883
-0.030829
0.064951
0.18647
0.32415
0.3918
0.40317
0.37863
0.31637
0.22598
0.12661
0.058366
0.038611
0.050584
0.063155
0.055373
0.025441
0.0074828
0.015265
0.036217
0.059563
0.082311
0.09129
0.09548
0.093086
0.093086
0.10266
0.12182
0.14038
0.15953
0.17989
0.19964
0.2194
0.22897
0.23795
0.23556
0.23257
0.22538
0.21999
0.2188
0.2194
0.22059
0.21521
0.21101
0.20682
0.20024
0.19844
0.19425
0.19784
0.21101
0.23496
0.26908
0.3038
0.33254
0.33194
0.3062
0.27028
0.23077
0.23197
0.28524
0.42472
0.60551
0.6085
0.10985
-0.36486
-0.67016
-0.51751
-0.13499
0.10446
0.19784
0.22239
0.15415
-0.015864
-0.29063
-0.4786
-0.49057
-0.36546
-0.12242
0.046992
0.16791
0.20862
0.16732
0.096678
0.06076
0.071535
0.10566
0.16911
0.22299
0.25711
0.2595
0.22897
0.085902
-0.19186
-0.55103
-0.85034
-0.90422
-0.64562
-0.28524
0.11523
0.35229
0.45585
0.37204
0.018857
-0.50973
-0.83059
-0.80365
-0.44687
-0.076324
0.14038
0.24753
0.30919
0.31577
0.28704
0.27148
0.27207
0.27986
0.29003
0.28824
0.29003
0.28524
0.28405
0.27746
0.26669
0.2613
0.26429
0.27806
0.30919
0.34211
0.38462
0.4331
0.45884
0.46124
0.4367
0.37683
0.17929
-0.18108
-0.57438
-0.75995
-0.61628
-0.23975
0.18647
0.49177
0.63783
0.49416
0.069141
-0.46543
-0.68093
-0.51033
-0.076324
0.29482
0.45825
0.50254
0.50075
0.45406
0.37264
0.2613
0.10207
-0.072733
-0.20084
-0.22059
-0.099671
0.096678
0.27926
0.42353
0.47142
0.47201
0.44208
0.38821
0.31218
0.22478
0.11045
0.018857
-0.014666
0.016462
0.14038
0.27806
0.39419
0.46124
0.46184
0.43789
0.41335
0.38881
0.37264
0.35828
0.3469
0.33732
0.32775
0.32356
0.31817
0.32475
0.3487
0.39779
0.4768
0.50614
0.49476
0.25591
-0.23795
-0.85932
-1
-0.99581
-0.72882
-0.00029931
0.58575
0.78869
0.73062
0.32834
-0.26489
-0.72942
-0.79228
-0.51092
-0.13319
0.15415
0.31039
0.35409
0.3062
0.19186
0.042802
-0.129
-0.28285
-0.38581
-0.37743
-0.29782
-0.18468
-0.098474
-0.034421
-0.0020952
0.03023
0.070937
0.12242
0.1727
0.21042
0.24095
0.24933
0.25471
0.25412
0.2619
0.27447
0.28764
0.29722
0.30141
0.29422
0.28704
0.27447
0.26729
0.2619
0.2607
0.27207
0.30021
0.33493
0.36546
0.38162
0.36965
0.34151
0.31518
0.29782
0.31039
0.34331
0.45825
0.59952
0.71805
0.5199
-0.10147
-0.62826
-0.83478
-0.52649
-0.033224
0.29961
0.45286
0.46782
0.33613
0.065549
-0.28105
-0.57498
-0.63903
-0.46483
-0.20383
0.049386
0.1733
0.22299
0.21101
0.17749
0.14996
0.15055
0.14996
0.091889
0.015265
-0.052978
-0.11104
-0.17989
-0.24214
-0.28105
-0.2625
-0.20263
-0.10985
-0.02185
0.048189
0.069141
0.072733
0.11523
0.15834
0.17929
0.15474
0.10985
0.081113
0.073331
0.070338
0.063155
0.069141
0.085304
0.11763
0.16552
0.21161
0.26429
0.29602
0.28405
0.24813
0.1751
-0.0032924
-0.31158
-0.69291
-0.91799
-0.86591
-0.51152
-0.10386
0.29961
0.50434
0.54984
0.35468
-0.069141
-0.5229
-0.71984
-0.56241
-0.18946
0.15415
0.34511
0.43849
0.51272
0.53906
0.54984
0.57079
0.57737
0.57617
0.55522
0.5205
0.4774
0.41754
0.33972
0.25292
0.1745
0.12362
0.10266
0.096678
0.10207
0.11344
0.12302
0.12721
0.12362
0.12541
0.13978
0.16612
0.19784
0.22538
0.23556
0.23496
0.2194
0.21221
0.21401
0.22299
0.24394
0.25172
0.2601
0.25711
0.25831
0.2613
0.26968
0.27507
0.28045
0.28225
0.28345
0.27926
0.27507
0.27387
0.26968
0.27028
0.26549
0.2595
0.25112
0.24633
0.25172
0.26788
0.29782
0.33972
0.38641
0.42772
0.44388
0.45106
0.48818
0.60132
0.73421
0.73301
0.22957
-0.29961
-0.71805
-0.64502
-0.24095
0.045795
0.1757
0.17151
0.046393
-0.17929
-0.478
-0.60132
-0.53786
-0.28045
0.0092787
0.22478
0.3457
0.36905
0.31039
0.22239
0.14038
0.10087
0.064352
0.049985
0.067944
0.10685
0.15355
0.17929
0.14936
0.085902
0.015265
-0.0044897
0.024843
0.13559
0.29183
0.46244
0.61389
0.76474
0.9132
1
0.84017
0.30141
-0.41155
-0.88207
-0.94373
-0.66058
-0.31338
-0.052978
0.072134
0.13379
0.13858
0.045795
-0.12601
-0.36905
-0.52888
-0.5229
-0.3487
-0.11703
0.060162
0.14576
0.16552
0.15295
0.15415
0.15594
0.15534
0.14636
0.13858
0.1308
0.080515
-0.014068
-0.10506
-0.13858
-0.079916
0.064352
0.24693
0.42532
0.57797
0.64202
0.63843
0.4804
0.10506
-0.42652
-0.84615
-0.95929
-0.67195
-0.26729
0.11943
0.37085
0.51691
0.56001
0.49117
0.25771
-0.1302
-0.51811
-0.64142
-0.47501
-0.11763
0.1739
0.32954
0.34032
0.27686
0.16253
0.054175
-0.014666
-0.02604
0.0056869
0.075127
0.15115
0.20862
0.24095
0.25112
0.24813
0.25292
0.26489
0.28764
0.31398
0.34511
0.36546
0.38282
0.38102
0.38102
0.38043
0.37025
0.35887
0.35409
0.36067
0.37204
0.37743
0.37384
0.36726
0.36007
0.35468
0.35468
0.35169
0.35289
0.3499
0.3469
0.35109
0.36366
0.38222
0.3906
0.38821
0.37564
0.39958
0.49536
0.62826
0.73661
0.58336
-0.080515
-0.60311
-0.94253
-0.70248
-0.22059
0.1284
0.31398
0.3475
0.22837
-0.014666
-0.33553
-0.6067
-0.6079
-0.41095
-0.075726
0.19725
0.35109
0.42652
0.42652
0.38342
0.33553
0.32176
0.31458
0.28704
0.2176
0.13679
0.071535
0.0092787
-0.046992
-0.097276
-0.11344
-0.097875
-0.05238
-0.02604
-0.022448
-0.036815
-0.063155
-0.12421
-0.23197
-0.34511
-0.39359
-0.31039
-0.072134
0.25471
0.53008
0.70667
0.74918
0.68333
0.57857
0.34451
-0.0080814
-0.42532
-0.6977
-0.69829
-0.45525
-0.1733
-0.022448
-0.0098773
-0.082311
-0.18647
-0.31218
-0.41335
-0.44867
-0.34451
-0.15235
0.0434
0.16552
0.22897
0.26369
0.28884
0.29422
0.29243
0.28285
0.27267
0.25711
0.24454
0.24214
0.25112
0.2607
0.27088
0.27567
0.28704
0.29602
0.32236
0.35169
0.3912
0.42293
0.45346
0.48698
0.5223
0.57797
0.65459
0.73182
0.71386
0.37683
-0.31697
-0.86232
-0.99581
-0.77492
-0.18408
0.29303
0.54924
0.57438
0.3918
0.049386
-0.35828
-0.61808
-0.58336
-0.32715
-0.029033
0.16791
0.25112
0.26908
0.25471
0.20982
0.18468
0.18108
0.19784
0.22658
0.2625
0.31098
0.35528
0.38043
0.3918
0.38821
0.38462
0.3894
0.40377
0.42772
0.44328
0.4367
0.40557
0.35947
0.31877
0.29422
0.27028
0.2607
0.27207
0.31937
0.38043
0.34211
0.061957
-0.45944
-0.86591
-0.88087
-0.49177
0.042802
0.44268
0.60431
0.58575
0.38222
0.02604
-0.42891
-0.69171
-0.63604
-0.28884
0.0871
0.3493
0.47441
0.51033
0.48099
0.35708
0.20443
0.041006
-0.094882
-0.12122
-0.02185
0.18767
0.37204
0.50614
0.55223
0.5636
0.56899
0.54385
0.51631
0.48518
0.46842
0.45525
0.4343
0.36546
0.27028
0.12062
-0.16193
-0.55522
-0.96708
-0.9988
-0.99581
-0.75875
-0.10985
0.42472
0.63903
0.70667
0.54565
0.17869
-0.27148
-0.56181
-0.54205
-0.27986
-0.0092787
0.15774
0.20084
0.19784
0.19725
0.18887
0.20682
0.23197
0.26549
0.28165
0.28943
0.28764
0.28644
0.28704
0.29482
0.28165
0.26669
0.24873
0.23975
0.24573
0.28285
0.3469
0.40377
0.42831
0.38821
0.24214
-0.076923
-0.54445
-0.97486
-0.9994
-0.99581
-0.73601
0.051182
0.62047
0.86232
0.80724
0.44328
-0.09129
-0.44388
-0.44029
-0.13439
0.13738
0.26848
0.26788
0.22538
0.16971
0.12122
0.10087
0.10207
0.11404
0.13738
0.16492
0.19485
0.22478
0.25052
0.27088
0.28764
0.29602
0.3038
0.30979
0.31697
0.32954
0.33912
0.35289
0.36546
0.3906
0.41814
0.44029
0.42472
0.38222
0.31637
0.25471
0.20084
0.16193
0.15355
0.18946
0.27626
0.38043
0.45884
0.46244
0.12362
-0.34511
-0.68093
-0.61868
-0.20323
0.18168
0.36366
0.40257
0.393
0.33254
0.24573
0.15953
0.10446
0.076324
0.094882
0.10207
0.097875
0.074529
0.01287
-0.093086
-0.21042
-0.27626
-0.26309
-0.16432
0.0026938
0.20144
0.40198
0.55522
0.69111
0.79048
0.82221
0.70248
0.41275
0.023646
-0.30859
-0.4367
-0.31398
-0.10087
0.01287
0.016462
-0.10446
-0.20682
-0.29422
-0.44567
-0.52709
-0.46004
-0.25172
0.0068842
0.19246
0.27088
0.3056
0.3062
0.27746
0.23735
0.19784
0.16193
0.13379
0.11464
0.10446
0.097276
0.10027
0.10985
0.12721
0.14337
0.15953
0.1739
0.18707
0.20024
0.2158
0.23077
0.24693
0.2607
0.27447
0.28524
0.29303
0.29123
0.27806
0.24633
0.24753
0.28584
0.41574
0.57019
0.6953
0.54864
-0.097875
-0.65759
-0.98623
-0.79587
-0.22359
0.24394
0.49596
0.53427
0.3906
0.132
-0.19306
-0.45465
-0.46064
-0.23197
0.090691
0.3493
0.44627
0.43071
0.34391
0.2164
0.11404
0.081113
0.11523
0.17031
0.2194
0.2158
0.15415
0.038611
-0.13978
-0.34092
-0.51512
-0.58695
-0.53906
-0.36785
-0.14996
0.033224
0.16432
0.20263
0.19725
0.18048
0.13619
0.045196
-0.085902
-0.21101
-0.23316
-0.12362
0.071535
0.20982
0.28704
0.27148
0.24753
0.2176
0.20503
0.21341
0.23376
0.26908
0.31577
0.36965
0.38701
0.37204
0.31577
0.14517
-0.13918
-0.54325
-0.88985
-0.93535
-0.64621
-0.11104
0.44687
0.80724
0.90961
0.67794
0.16851
-0.40257
-0.75756
-0.70667
-0.38881
-0.065549
0.14397
0.22239
0.25471
0.26309
0.24873
0.22538
0.20323
0.19365
0.20204
0.22059
0.23975
0.26309
0.27327
0.27626
0.26489
0.24334
0.2194
0.18527
0.15534
0.12721
0.11583
0.11703
0.13619
0.16073
0.18408
0.2164
0.2601
0.31637
0.41455
0.50554
0.58096
0.53547
0.18647
-0.42412
-0.9551
-0.9988
-0.94253
-0.40916
0.29183
0.6953
0.81024
0.67674
0.31338
-0.19246
-0.54086
-0.55822
-0.28764
0.055971
0.28644
0.44987
0.5217
0.54624
0.46304
0.25531
-0.049985
-0.37444
-0.6085
-0.60132
-0.37085
-0.090093
0.16732
0.29183
0.33553
0.32834
0.29841
0.27088
0.25651
0.24454
0.22598
0.20742
0.19844
0.20024
0.21461
0.23017
0.25112
0.27447
0.3026
0.31577
0.32176
0.31458
0.3062
0.29602
0.29003
0.28943
0.30021
0.32595
0.36366
0.42053
0.47381
0.57498
0.64681
0.71446
0.5672
0.11643
-0.59353
-0.98803
-0.99761
-0.90302
-0.28644
0.32894
0.60132
0.60371
0.34391
-0.11883
-0.53248
-0.62586
-0.42412
-0.094882
0.13798
0.22359
0.25591
0.25591
0.23735
0.20862
0.18168
0.16253
0.15115
0.15594
0.1751
0.20323
0.23316
0.25531
0.27507
0.28405
0.29003
0.29183
0.29123
0.29722
0.30201
0.31937
0.3469
0.36726
0.36546
0.33912
0.28943
0.23556
0.19485
0.16971
0.16911
0.19605
0.23676
0.30979
0.40138
0.48339
0.5217
0.36007
-0.089494
-0.51212
-0.64382
-0.42113
-0.050584
0.18048
0.25352
0.26788
0.2613
0.24514
0.24214
0.22718
0.18647
0.11943
0.067345
0.042802
0.044597
0.063753
0.082909
0.11224
0.13858
0.14337
0.1302
0.10685
0.084705
0.085902
0.075726
0.084705
0.099671
0.13679
0.19784
0.3038
0.41515
0.48997
0.46902
0.19126
-0.33613
-0.9144
-0.9988
-0.98503
-0.57857
0.14517
0.61568
0.77671
0.6941
0.36785
-0.14098
-0.5229
-0.55762
-0.29063
0.07812
0.36845
0.51751
0.58156
0.56899
0.37863
0.067345
-0.27746
-0.55462
-0.59234
-0.42951
-0.18048
0.066148
0.21401
0.27986
0.28584
0.24753
0.21161
0.19425
0.19306
0.19485
0.19964
0.19964
0.20742
0.20383
0.20323
0.18887
0.16911
0.14217
0.12481
0.13379
0.15355
0.17989
0.19844
0.21101
0.22239
0.23316
0.25591
0.29901
0.36187
0.4349
0.51152
0.59773
0.67016
0.67136
0.39359
-0.20263
-0.82879
-0.99761
-0.92397
-0.45286
0.064951
0.31637
0.3912
0.31518
0.10386
-0.19665
-0.4792
-0.57857
-0.45226
-0.18288
0.081113
0.26549
0.33673
0.31518
0.18946
-0.035019
-0.26369
-0.44448
-0.49177
-0.39958
-0.20204
0.041604
0.24334
0.37983
0.41455
0.34391
0.19066
0.02185
-0.07812
-0.03023
0.1314
0.3475
0.51512
0.61748
0.63005
0.60132
0.52649
0.42472
0.33553
0.27028
0.22837
0.20024
0.17869
0.1751
0.19066
0.21521
0.24514
0.26309
0.27387
0.28584
0.29003
0.29063
0.27387
0.24573
0.2176
0.19425
0.18946
0.21101
0.26369
0.39539
0.50673
0.6103
0.51571
0.10865
-0.55043
-0.97905
-0.99761
-0.88746
-0.28584
0.3038
0.55642
0.55702
0.29063
-0.17989
-0.63484
-0.739
-0.50973
-0.044597
0.3493
0.54445
0.6103
0.54744
0.35349
0.10326
-0.10027
-0.19365
-0.16193
-0.049386
0.099671
0.22418
0.31817
0.35468
0.36366
0.35049
0.32595
0.27986
0.25052
0.23795
0.23676
0.24514
0.25711
0.28644
0.3463
0.37564
0.37923
0.31577
0.10207
-0.23077
-0.7378
-0.98384
-0.96887
-0.6103
-0.036217
0.44388
0.66836
0.62107
0.33014
-0.1326
-0.53726
-0.62167
-0.41934
-0.075726
0.20922
0.33373
0.36905
0.34211
0.26729
0.17749
0.10207
0.06076
0.048788
0.066746
0.10506
0.14876
0.18767
0.21521
0.22897
0.22778
0.22119
0.20623
0.19545
0.19964
0.22718
0.28465
0.37803
0.4367
0.4774
0.34092
0.0068842
-0.53307
-0.93535
-0.99042
-0.71745
-0.18048
0.34331
0.67016
0.75995
0.56839
0.16372
-0.33613
-0.67914
-0.67315
-0.3912
-0.019455
0.29782
0.44927
0.50973
0.48698
0.3493
0.13559
-0.087698
-0.2194
-0.22658
-0.13379
-0.01287
0.10865
0.21042
0.28285
0.31757
0.32954
0.32236
0.31458
0.30859
0.31158
0.31697
0.31278
0.29123
0.26309
0.23197
0.20922
0.20323
0.2176
0.24993
0.28405
0.32116
0.34211
0.36247
0.3906
0.40617
0.40497
0.37264
0.30979
0.24454
0.20383
0.20323
0.23676
0.33254
0.48459
0.63903
0.76235
0.70368
0.24274
-0.36007
-0.76893
-0.71805
-0.26669
0.21999
0.45286
0.54145
0.4768
0.28644
0.023646
-0.27626
-0.49776
-0.52649
-0.32954
-0.061359
0.26729
0.47441
0.58755
0.54385
0.28824
-0.069141
-0.40976
-0.59413
-0.54505
-0.28405
0.015864
0.31877
0.48279
0.54445
0.50913
0.42053
0.32356
0.24035
0.18288
0.16672
0.21999
0.27806
0.31697
0.28045
0.12002
-0.12002
-0.4343
-0.6971
-0.74798
-0.56839
-0.23855
0.10386
0.33134
0.4337
0.44388
0.35349
0.1727
-0.041006
-0.23436
-0.30201
-0.21999
-0.048788
0.099671
0.20922
0.23855
0.25292
0.23855
0.22598
0.2176
0.24095
0.29063
0.35947
0.4361
0.47082
0.478
0.46064
0.37384
0.22418
0.027836
-0.12481
-0.19784
-0.19126
-0.132
0.00089793
0.14876
0.28824
0.38402
0.30799
0.00029931
-0.36546
-0.52469
-0.37085
-0.041604
0.20144
0.28345
0.28045
0.24214
0.18527
0.12781
0.094882
0.059563
0.0434
0.045795
0.081113
0.1308
0.18168
0.22718
0.26429
0.29782
0.32176
0.33613
0.34151
0.3475
0.35349
0.37085
0.39898
0.43849
0.4786
0.49835
0.48159
0.4361
0.37564
0.32176
0.3038
0.35109
0.48698
0.64202
0.7827
0.68572
0.19545
-0.42951
-0.83538
-0.73182
-0.23496
0.27088
0.52709
0.59353
0.50673
0.28943
0.0026938
-0.33732
-0.57977
-0.59713
-0.40617
-0.12302
0.18827
0.39958
0.50314
0.43191
0.1739
-0.16133
-0.45106
-0.53547
-0.40856
-0.14996
0.10566
0.29901
0.38521
0.38581
0.32595
0.22778
0.129
0.063155
0.042203
0.070937
0.13798
0.17869
0.21521
0.22418
0.20922
0.16612
0.10506
0.054175
0.049985
0.06974
0.090691
0.10506
0.11224
0.12182
0.1314
0.14038
0.15654
0.1727
0.18767
0.19545
0.20563
0.22119
0.24214
0.25771
0.27148
0.26968
0.25352
0.22478
0.19246
0.16133
0.13679
0.12062
0.12362
0.132
0.13978
0.15714
0.18527
0.24514
0.33613
0.45585
0.59593
0.70967
0.69231
0.28105
-0.4768
-0.93834
-0.99701
-0.81203
-0.21281
0.2164
0.39898
0.37264
0.1739
-0.092487
-0.38641
-0.46363
-0.3475
-0.088896
0.16492
0.33134
0.40437
0.4331
0.40497
0.34391
0.28943
0.23975
0.19665
0.17929
0.17629
0.22239
0.2619
0.27088
0.24633
0.15415
0.032625
-0.086501
-0.16073
-0.16372
-0.14576
-0.11344
-0.058964
0.015265
0.081113
0.10207
0.07812
0.020652
-0.11464
-0.37444
-0.7396
-0.98683
-0.96468
-0.63245
-0.064951
0.38402
0.60132
0.60311
0.37264
-0.032625
-0.39958
-0.49057
-0.31937
-0.06076
0.16492
0.27207
0.33493
0.36127
0.3493
0.34032
0.33792
0.36486
0.39958
0.47082
0.50374
0.49596
0.42532
0.24514
0.00868
-0.22957
-0.37085
-0.35828
-0.24454
-0.039808
0.17809
0.38462
0.41754
0.26729
-0.017061
-0.27387
-0.33553
-0.20263
-0.011673
0.1727
0.23257
0.24334
0.2188
0.16791
0.096079
0.0038911
-0.064951
-0.05238
0.035618
0.14038
0.24693
0.33493
0.3906
0.4361
0.41275
0.36187
0.28524
0.16133
-0.013469
-0.20682
-0.33074
-0.29841
-0.098474
0.19485
0.47201
0.66717
0.74918
0.71745
0.52529
0.18767
-0.24993
-0.61149
-0.72463
-0.5672
-0.30919
-0.035019
0.10865
0.16193
0.11703
0.0032924
-0.10027
-0.13679
-0.10566
-0.045196
0.049386
0.15534
0.23975
0.26369
0.26369
0.24394
0.22837
0.21341
0.20263
0.21101
0.23795
0.2601
0.28584
0.30141
0.33194
0.35528
0.38043
0.39779
0.40078
0.3906
0.37983
0.36067
0.32236
0.27686
0.24454
0.25831
0.31158
0.37324
0.43729
0.47321
0.41754
0.0871
-0.43789
-0.86232
-0.92397
-0.55881
-0.055971
0.35109
0.51751
0.53906
0.41275
0.15355
-0.20563
-0.58934
-0.78629
-0.68034
-0.35528
0.0044897
0.29362
0.51092
0.63185
0.67854
0.63484
0.51092
0.34271
0.16971
0.07393
0.081113
0.19844
0.35289
0.46184
0.46363
0.34211
0.19665
0.0434
-0.044597
-0.12421
-0.18887
-0.23735
-0.24154
-0.20802
-0.12182
-0.018857
0.084705
0.17749
0.24933
0.29782
0.3038
0.28345
0.25352
0.22718
0.20982
0.19725
0.19485
0.19725
0.20982
0.23496
0.26549
0.30081
0.32475
0.33373
0.32176
0.29123
0.26309
0.24573
0.23915
0.24633
0.28524
0.37743
0.53966
0.69231
0.75157
0.49955
-0.097875
-0.65459
-0.89823
-0.61149
-0.094882
0.32655
0.49716
0.52948
0.42772
0.22897
-0.035618
-0.32894
-0.53188
-0.54505
-0.35588
-0.10147
0.18168
0.43071
0.58695
0.6965
0.67315
0.48339
0.15594
-0.22478
-0.52948
-0.61329
-0.47441
-0.24394
0.0020952
0.19545
0.29362
0.32415
0.28165
0.18767
0.057767
-0.055373
-0.073331
0.011075
0.18168
0.33792
0.39479
0.33194
0.20862
0.0871
0.021251
0.02185
0.051182
0.10147
0.15834
0.21999
0.28345
0.32954
0.36187
0.38162
0.38821
0.38222
0.35947
0.30739
0.25172
0.19605
0.15115
0.12721
0.12182
0.13619
0.16911
0.23676
0.34271
0.43131
0.48339
0.34331
-0.09129
-0.70368
-0.99342
-0.99222
-0.68991
-0.085304
0.38641
0.5648
0.58276
0.44089
0.15474
-0.23735
-0.59054
-0.68213
-0.49716
-0.12362
0.20204
0.41574
0.53307
0.57079
0.55103
0.48339
0.38881
0.26309
0.17749
0.13439
0.16432
0.21161
0.24095
0.22359
0.14936
0.0434
-0.012272
-0.02185
-0.033822
-0.057169
-0.067944
-0.05657
-0.023047
-0.0044897
0.020054
0.06076
0.089494
0.11583
0.12182
0.11883
0.11823
0.11883
0.12002
0.11344
0.10207
0.094882
0.099072
0.12062
0.16013
0.20623
0.23795
0.25232
0.25292
0.24573
0.23676
0.23616
0.25771
0.29662
0.35588
0.42772
0.43969
0.31218
-0.011673
-0.54445
-0.92397
-0.97186
-0.64981
-0.13319
0.31518
0.56121
0.64562
0.56001
0.33194
-0.0038911
-0.37085
-0.5642
-0.52409
-0.32655
-0.097276
0.072134
0.21161
0.31278
0.37683
0.37803
0.31877
0.19904
0.0044897
-0.18228
-0.29303
-0.31158
-0.26968
-0.2188
-0.11284
0.018258
0.16851
0.27207
0.33014
0.32056
0.27926
0.20862
0.14756
0.13439
0.16193
0.20682
0.2595
0.3044
0.34032
0.37204
0.38222
0.36726
0.33134
0.27746
0.22837
0.20443
0.20323
0.21221
0.21999
0.22538
0.22897
0.22837
0.23017
0.24274
0.2607
0.28884
0.3493
0.44089
0.52769
0.58336
0.50913
0.19665
-0.3469
-0.86411
-0.99042
-0.75875
-0.19485
0.36546
0.71565
0.83119
0.68991
0.3044
-0.2158
-0.61509
-0.65819
-0.40377
-0.018857
0.29303
0.4786
0.57797
0.59473
0.5205
0.40617
0.26489
0.12242
0.021251
0.014068
0.084705
0.22897
0.35528
0.41095
0.37504
0.24633
0.094283
-0.020054
-0.097875
-0.14816
-0.18587
-0.21999
-0.24454
-0.26369
-0.2595
-0.2176
-0.14996
-0.071535
0.0032924
0.075127
0.12362
0.14936
0.14636
0.12242
0.10506
0.089494
0.084705
0.097875
0.11404
0.132
0.15534
0.17989
0.19784
0.20742
0.21101
0.22718
0.25591
0.3056
0.35109
0.38043
0.42712
0.48698
0.53786
0.51452
0.3493
0.0080814
-0.48459
-0.83059
-0.89045
-0.5235
0.012272
0.46004
0.73481
0.77611
0.58934
0.2158
-0.22837
-0.48459
-0.46663
-0.25471
-0.01287
0.15415
0.26729
0.36426
0.3918
0.36247
0.30021
0.19784
0.05238
-0.079916
-0.14038
-0.085902
0.041006
0.20563
0.33313
0.4331
0.48878
0.50015
0.49955
0.47022
0.44807
0.4349
0.42233
0.41215
0.40437
0.39419
0.37923
0.35588
0.33194
0.30679
0.27926
0.25471
0.23077
0.21101
0.19425
0.18527
0.18887
0.19425
0.20204
0.2194
0.25052
0.26908
0.29063
0.35169
0.38282
0.30979
0.023646
-0.44508
-0.85334
-0.95391
-0.70368
-0.16552
0.34451
0.64083
0.71925
0.6085
0.36965
0.02604
-0.36127
-0.6091
-0.61568
-0.43011
-0.14936
0.066746
0.24334
0.36546
0.43251
0.42951
0.28225
-0.0020952
-0.36127
-0.62287
-0.64681
-0.47082
-0.2188
0.020652
0.19784
0.29662
0.32715
0.29243
0.25052
0.20263
0.16432
0.11284
0.063155
0.025441
0.0038911
-0.00029931
0.015265
0.052978
0.096678
0.14636
0.18288
0.21042
0.22478
0.23436
0.26489
0.32595
0.4331
0.53068
0.57737
0.42412
0.057767
-0.51691
-0.94553
-0.99282
-0.77611
-0.26309
0.22957
0.53248
0.6522
0.60611
0.35828
0.0038911
-0.37085
-0.5648
-0.50494
-0.25292
0.02185
0.23316
0.36785
0.45226
0.49177
0.48518
0.39838
0.22119
-0.00089793
-0.17689
-0.22179
-0.18647
-0.12781
-0.065549
0.018857
0.12362
0.22957
0.31637
0.37204
0.39958
0.38881
0.35169
0.30141
0.24933
0.20922
0.18887
0.19365
0.2182
0.24873
0.26848
0.28405
0.28644
0.29482
0.305
0.32894
0.36426
0.40377
0.4367
0.44807
0.43011
0.39779
0.37623
0.40497
0.48279
0.57139
0.60072
0.38581
-0.12302
-0.73361
-0.97845
-0.86531
-0.39719
0.084107
0.35349
0.46483
0.44448
0.31039
0.11284
-0.10386
-0.30919
-0.41934
-0.4355
-0.37145
-0.25172
-0.11523
0.03023
0.15295
0.24933
0.3056
0.33014
0.34032
0.35708
0.37264
0.39479
0.40557
0.40856
0.38701
0.35289
0.31757
0.28285
0.25471
0.23436
0.22538
0.24693
0.30739
0.44747
0.56839
0.66357
0.51751
0.086501
-0.52529
-0.90482
-0.88387
-0.41455
0.090691
0.50075
0.66836
0.6935
0.58875
0.35229
0.054175
-0.25711
-0.47082
-0.5229
-0.40557
-0.24035
-0.029632
0.12601
0.22179
0.26729
0.24573
0.20982
0.15175
0.094882
0.072733
0.12601
0.23616
0.3906
0.50075
0.53188
0.47142
0.29362
0.06076
-0.17809
-0.28764
-0.34151
-0.33433
-0.27926
-0.18946
-0.14457
-0.14576
-0.15534
-0.11045
-0.018258
0.042203
0.046992
0.0434
0.058964
0.10386
0.16193
0.21401
0.22359
0.20862
0.18527
0.17151
0.16552
0.16492
0.16492
0.16612
0.1721
0.18228
0.19605
0.2158
0.23855
0.2613
0.28165
0.30141
0.32356
0.3499
0.37803
0.39719
0.39479
0.36426
0.30919
0.24454
0.21521
0.2194
0.30201
0.45465
0.60371
0.739
0.67914
0.29123
-0.32595
-0.72344
-0.68512
-0.26549
0.22897
0.49895
0.6073
0.58575
0.42891
0.16253
-0.1727
-0.48698
-0.60371
-0.50614
-0.28405
-0.039808
0.15594
0.27926
0.37444
0.38222
0.36486
0.31697
0.25112
0.17151
0.10745
0.093086
0.1326
0.2182
0.32894
0.41095
0.46842
0.46483
0.39
0.23436
0.058964
-0.10027
-0.19006
-0.24274
-0.27387
-0.2625
-0.19545
-0.10446
-0.040407
-0.042802
-0.15055
-0.42113
-0.76295
-0.96648
-0.83777
-0.42293
0.132
0.55762
0.77671
0.76115
0.55223
0.21281
-0.16193
-0.44867
-0.49955
-0.35109
-0.11284
0.11404
0.27387
0.38581
0.45166
0.46363
0.43849
0.40317
0.34511
0.29662
0.26489
0.25771
0.25412
0.23855
0.217
0.20204
0.20144
0.20742
0.22718
0.25172
0.3038
0.37444
0.46004
0.52948
0.51512
0.41395
0.16073
-0.20323
-0.68692
-0.98025
-0.99461
-0.84376
-0.37803
0.085304
0.33732
0.39838
0.26369
-0.03023
-0.40976
-0.67195
-0.62646
-0.33134
0.03023
0.29542
0.42293
0.46423
0.47261
0.44687
0.41634
0.42053
0.42831
0.45525
0.42113
0.36546
0.26788
0.14576
0.023646
-0.079318
-0.11164
-0.064352
0.072134
0.1733
0.3056
0.37863
0.36606
0.26549
0.090691
-0.074529
-0.18108
-0.21401
-0.19904
-0.11643
-0.032026
0.047591
0.091889
0.12242
0.15474
0.1727
0.1751
0.1751
0.17749
0.19725
0.23197
0.26549
0.29961
0.32236
0.32595
0.31158
0.27986
0.24633
0.22837
0.22299
0.23795
0.2595
0.28644
0.3056
0.34032
0.37743
0.46124
0.5654
0.63843
0.6079
0.29901
-0.2589
-0.74738
-0.91859
-0.68273
-0.23376
0.12062
0.32116
0.36426
0.27447
0.089494
-0.12362
-0.30919
-0.3894
-0.34211
-0.17689
-0.015265
0.13439
0.23975
0.31518
0.34511
0.33493
0.28884
0.25531
0.23975
0.2176
0.20982
0.22897
0.24154
0.23077
0.16612
0.023047
-0.15235
-0.34211
-0.45046
-0.45585
-0.40018
-0.27267
-0.10805
0.096079
0.27986
0.37504
0.36306
0.24813
0.094283
-0.049985
-0.10087
-0.061359
0.047591
0.14816
0.22359
0.27088
0.29602
0.30859
0.29782
0.27986
0.27866
0.3038
0.37324
0.41036
0.41574
0.35229
0.16133
-0.12302
-0.48698
-0.84196
-0.88387
-0.67614
-0.27088
0.16193
0.4337
0.55642
0.56241
0.40317
0.16133
-0.090691
-0.27567
-0.29123
-0.1727
0.041006
0.24214
0.37444
0.43011
0.42353
0.35109
0.2158
0.068542
-0.040407
-0.047591
0.020652
0.132
0.29123
0.38222
0.44089
0.42652
0.33792
0.18408
0.017061
-0.11164
-0.14217
-0.082909
0.051182
0.28165
0.46842
0.59713
0.62526
0.52469
0.3038
0.023646
-0.20563
-0.31877
-0.34032
-0.27626
-0.15774
0.0014966
0.10626
0.16013
0.17929
0.18707
0.16312
0.12362
0.092487
0.10685
0.15893
0.22119
0.29422
0.35229
0.39599
0.40377
0.3918
0.37803
0.36666
0.36187
0.37983
0.41275
0.41275
0.36726
0.19066
-0.11703
-0.57019
-0.97007
-0.99761
-0.95989
-0.50673
0.12421
0.54924
0.73122
0.69231
0.41694
0.0020952
-0.39359
-0.52709
-0.37983
-0.076324
0.20623
0.37683
0.50314
0.57079
0.58815
0.52649
0.44388
-0.98803
