0.35527
0.32658
0.28101
0.20338
0.1038
0.027848
-0.0042194
-0.022785
-0.064979
-0.12743
-0.21857
-0.29451
-0.35359
-0.38565
-0.41603
-0.41772
-0.36203
-0.227
-0.080169
0.097046
0.24895
0.34177
0.38228
0.34177
0.23376
0.11899
0.031224
-0.048101
-0.12574
-0.19325
-0.22869
-0.19325
-0.11392
-0.036287
0.022785
0.0059072
-0.021097
-0.054852
-0.1038
-0.14768
-0.16287
-0.173
-0.18819
-0.19494
-0.19325
-0.20169
-0.2135
-0.21857
-0.227
-0.24557
-0.27595
-0.28776
-0.29958
-0.26414
-0.19325
-0.068354
0.034599
0.17468
0.29283
0.38734
0.44304
0.43629
0.43629
0.40422
0.34008
0.27595
0.19662
0.095359
0.0042194
-0.058228
-0.11055
-0.16118
-0.2
-0.22194
-0.25907
-0.30464
-0.36034
-0.45148
-0.51561
-0.53755
-0.47342
-0.3519
-0.19494
-0.012658
0.13586
0.24051
0.30633
0.31139
0.26245
0.16962
0.054852
-0.076793
-0.19831
-0.26245
-0.27764
-0.27932
-0.27764
-0.28101
-0.29283
-0.30464
-0.29789
-0.30464
-0.33165
-0.3654
-0.39241
-0.40928
-0.42447
-0.43797
-0.45148
-0.46835
-0.47004
-0.38228
-0.21519
0.05654
0.3519
0.60675
0.76034
0.85148
0.8616
0.80591
0.69451
0.57131
0.43966
0.31477
0.20338
0.098734
-0.0042194
-0.1173
-0.20844
-0.2962
-0.3654
-0.41097
-0.4346
-0.47848
-0.52236
-0.56962
-0.58819
-0.49367
-0.2692
0.054852
0.36709
0.62025
0.7789
0.84304
0.81772
0.75021
0.66245
0.54262
0.40084
0.27089
0.14768
0.037975
-0.051477
-0.15105
-0.26414
-0.3789
-0.48186
-0.573
-0.63376
-0.61013
-0.52068
-0.31477
-0.07173
0.1865
0.37046
0.45485
0.48354
0.47511
0.44135
0.39578
0.32827
0.23207
0.13418
0.039662
-0.043038
-0.12911
-0.20169
-0.25401
-0.29958
-0.34177
-0.34852
-0.34008
-0.32152
-0.30633
-0.2962
-0.31139
-0.32827
-0.32489
-0.32996
-0.32658
-0.31646
-0.27426
-0.25063
-0.20338
-0.1443
-0.044726
0.059916
0.17637
0.27764
0.33502
0.36709
0.37553
0.36203
0.35696
0.36878
0.39072
0.35021
0.25738
0.12743
0.0025316
-0.088608
-0.13418
-0.14599
-0.173
-0.20675
-0.26414
-0.32489
-0.39241
-0.44135
-0.48186
-0.52068
-0.55612
-0.60338
-0.69958
-0.63376
-0.42278
-0.019409
0.36371
0.63713
0.78059
0.8211
0.7789
0.69958
0.59156
0.44641
0.30295
0.17806
0.070042
-0.029536
-0.1173
-0.21688
-0.31983
-0.42447
-0.5173
-0.6
-0.66582
-0.71646
-0.77722
-0.82616
-0.78228
-0.64219
-0.38059
-0.058228
0.26751
0.49536
0.59831
0.60338
0.56624
0.49367
0.39747
0.29958
0.19831
0.11899
0.073418
0.039662
-0.0025316
-0.05654
-0.11392
-0.173
-0.24219
-0.28945
-0.33333
-0.37722
-0.41435
-0.46667
-0.55612
-0.70464
-0.85485
-0.76203
-0.50886
-0.039662
0.39578
0.69958
0.86667
0.93755
0.90549
0.79916
0.66245
0.52574
0.40253
0.27932
0.18987
0.10211
0.016034
-0.05654
-0.12911
-0.18987
-0.25063
-0.29789
-0.3654
-0.44979
-0.54093
-0.59325
-0.56793
-0.44304
-0.173
0.098734
0.32152
0.44304
0.47511
0.45316
0.40928
0.37384
0.32658
0.25907
0.1865
0.12236
0.064979
0.027848
0.0075949
-0.022785
-0.088608
-0.15949
-0.23038
-0.30802
-0.36034
-0.39409
-0.41435
-0.42616
-0.4346
-0.48186
-0.49367
-0.45485
-0.27764
-0.043038
0.2135
0.4346
0.58819
0.65232
0.65401
0.6
0.49536
0.34684
0.21519
0.098734
-0.0042194
-0.085232
-0.14937
-0.22025
-0.30127
-0.36371
-0.42278
-0.48354
-0.52405
-0.56118
-0.60338
-0.66751
-0.65738
-0.56456
-0.32658
-0.017722
0.26076
0.47511
0.54768
0.58312
0.573
0.55781
0.52743
0.46329
0.36371
0.23713
0.13249
0.031224
-0.05654
-0.12405
-0.17468
-0.22194
-0.25063
-0.26751
-0.30295
-0.33671
-0.31814
-0.26751
-0.19156
-0.12574
-0.039662
0.063291
0.13249
0.16793
0.14768
0.091983
0.02616
-0.037975
-0.10549
-0.15612
-0.16287
-0.097046
0.0059072
0.12405
0.20506
0.23038
0.22532
0.20169
0.18312
0.13586
0.085232
0.019409
-0.049789
-0.12068
-0.18312
-0.24219
-0.30802
-0.35696
-0.38228
-0.42278
-0.47848
-0.54093
-0.56624
-0.54093
-0.3519
-0.046414
0.28608
0.54599
0.68439
0.71646
0.68608
0.61688
0.52743
0.4211
0.32321
0.2557
0.19494
0.14262
0.081857
0.017722
-0.068354
-0.16624
-0.25738
-0.35527
-0.46667
-0.57131
-0.62869
-0.60844
-0.49367
-0.31139
-0.14093
-0.012658
0.068354
0.13418
0.18143
0.21519
0.22532
0.18819
0.12236
0.048101
-0.0092827
-0.075105
-0.14599
-0.20844
-0.27257
-0.31477
-0.34515
-0.36203
-0.37553
-0.39747
-0.40084
-0.40591
-0.42278
-0.43629
-0.48017
-0.58143
-0.73671
-0.74684
-0.63376
-0.32321
0.058228
0.42785
0.68776
0.87342
0.93249
0.88861
0.78903
0.6557
0.53924
0.4211
0.33333
0.26414
0.19325
0.12405
0.068354
0.016034
-0.043038
-0.11392
-0.19831
-0.29958
-0.40422
-0.50042
-0.56962
-0.55274
-0.39409
-0.13924
0.12911
0.32827
0.43291
0.45148
0.42447
0.40084
0.38059
0.3519
0.31477
0.28101
0.2135
0.1308
0.037975
-0.037975
-0.1173
-0.18481
-0.25232
-0.32321
-0.39241
-0.45654
-0.52405
-0.59831
-0.65232
-0.66582
-0.65063
-0.62025
-0.5038
-0.32827
-0.10042
0.12911
0.32489
0.47173
0.56456
0.61519
0.60169
0.53586
0.47173
0.41266
0.35696
0.28776
0.21013
0.11561
0.019409
-0.068354
-0.12743
-0.19662
-0.26076
-0.31983
-0.39241
-0.48692
-0.55949
-0.60338
-0.61519
-0.573
-0.41435
-0.15105
0.15949
0.43797
0.60844
0.65063
0.62532
0.55612
0.44641
0.31139
0.18312
0.090295
0.016034
-0.05654
-0.12743
-0.21519
-0.29958
-0.35865
-0.38228
-0.40084
-0.40759
-0.42447
-0.43966
-0.41772
-0.29789
-0.10717
0.066667
0.18143
0.21857
0.19156
0.13755
0.078481
0.02616
-0.036287
-0.078481
-0.12574
-0.18481
-0.25063
-0.31646
-0.35696
-0.39409
-0.40422
-0.32996
-0.16962
0.078481
0.30464
0.44304
0.48692
0.4903
0.48186
0.42447
0.32658
0.21857
0.10717
0.021097
-0.051477
-0.10717
-0.19156
-0.31308
-0.42954
-0.53755
-0.62194
-0.67764
-0.63376
-0.54768
-0.29958
0.014346
0.29958
0.48186
0.53755
0.53418
0.49367
0.42616
0.34346
0.22363
0.091983
-0.039662
-0.15443
-0.28101
-0.37722
-0.44641
-0.4903
-0.51899
-0.54599
-0.58312
-0.65401
-0.71308
-0.69789
-0.53249
-0.27257
0.021097
0.22363
0.32321
0.38903
0.43122
0.45992
0.44979
0.4211
0.37722
0.32489
0.28439
0.24219
0.19325
0.12068
0.044726
-0.036287
-0.14262
-0.23376
-0.31814
-0.36034
-0.34684
-0.24726
-0.1308
-0.049789
-0.024473
-0.043038
-0.08692
-0.12405
-0.14262
-0.173
-0.21013
-0.23207
-0.23882
-0.22025
-0.19156
-0.11561
0.016034
0.15781
0.30295
0.41097
0.44304
0.45485
0.4346
0.37215
0.28945
0.20338
0.13249
0.078481
0.04135
0.0025316
-0.051477
-0.13249
-0.20338
-0.26076
-0.3097
-0.34684
-0.37215
-0.40759
-0.46667
-0.55612
-0.62025
-0.59325
-0.42954
-0.18481
0.063291
0.29958
0.51392
0.70127
0.76878
0.77553
0.73165
0.67089
0.55612
0.42954
0.28945
0.16118
0.073418
-0.0092827
-0.11561
-0.24388
-0.34008
-0.41097
-0.44304
-0.45654
-0.4903
-0.59494
-0.69789
-0.67089
-0.4903
-0.18987
0.10211
0.35021
0.52743
0.63038
0.65907
0.6135
0.54768
0.47511
0.39916
0.31308
0.2135
0.13418
0.058228
-0.021097
-0.085232
-0.14768
-0.22869
-0.31814
-0.41772
-0.52743
-0.63544
-0.74008
-0.7789
-0.64557
-0.42447
-0.076793
0.19325
0.39409
0.50042
0.51561
0.45654
0.38397
0.31308
0.23038
0.16456
0.12405
0.1038
0.066667
0.012658
-0.046414
-0.1173
-0.20169
-0.28439
-0.37215
-0.48692
-0.57806
-0.59325
-0.47173
-0.2692
-0.044726
0.11055
0.17806
0.19156
0.16456
0.10886
0.05654
0.014346
-0.032911
-0.095359
-0.15105
-0.21013
-0.25401
-0.3097
-0.33671
-0.3789
-0.43122
-0.46329
-0.42616
-0.33333
-0.2135
-0.078481
0.027848
0.14093
0.2557
0.3384
0.35696
0.32489
0.27595
0.21857
0.15105
0.098734
0.04135
-0.024473
-0.081857
-0.10886
-0.14768
-0.22025
-0.25738
-0.18819
-0.02616
0.17975
0.32996
0.39241
0.40591
0.3654
0.27932
0.16287
0.058228
-0.0075949
-0.068354
-0.11561
-0.14937
-0.17131
-0.21519
-0.25907
-0.32152
-0.36878
-0.38397
-0.34346
-0.26076
-0.15949
-0.012658
0.13418
0.24219
0.28945
0.28101
0.23544
0.173
0.098734
0.048101
-0.0025316
-0.036287
-0.05654
-0.11392
-0.21688
-0.36709
-0.5308
-0.67764
-0.78397
-0.81097
-0.72489
-0.50549
-0.19662
0.14262
0.40422
0.59494
0.71983
0.75021
0.70633
0.60844
0.50211
0.38228
0.27764
0.18312
0.083544
-0.032911
-0.14093
-0.22869
-0.31477
-0.37722
-0.40759
-0.4211
-0.42447
-0.45316
-0.46498
-0.4211
-0.20506
0.04135
0.26751
0.3789
0.44979
0.49536
0.49198
0.47342
0.44304
0.39916
0.33671
0.25063
0.13755
0.00084388
-0.12068
-0.22025
-0.29114
-0.3519
-0.38228
-0.41603
-0.45823
-0.48186
-0.48523
-0.40928
-0.27595
-0.10042
0.031224
0.085232
0.11392
0.13586
0.11561
0.059916
-0.00084388
-0.085232
-0.18143
-0.25738
-0.31139
-0.33333
-0.33165
-0.28101
-0.18987
-0.064979
0.097046
0.24557
0.3384
0.3519
0.33671
0.28101
0.22869
0.17131
0.10886
0.024473
-0.04135
-0.081857
-0.13586
-0.18143
-0.22025
-0.23376
-0.25063
-0.27426
-0.2962
-0.40422
-0.5173
-0.52911
-0.40759
-0.15612
0.11392
0.33671
0.50042
0.58143
0.60675
0.57806
0.49367
0.40422
0.30802
0.24051
0.173
0.11392
0.073418
0.02616
-0.022785
-0.081857
-0.15443
-0.21013
-0.23882
-0.25401
-0.2827
-0.31814
-0.38903
-0.5308
-0.75021
-0.8903
-0.84135
-0.57975
-0.2557
0.098734
0.3789
0.62869
0.78903
0.8211
0.77046
0.67595
0.55612
0.42447
0.29283
0.15781
0.031224
-0.08692
-0.17637
-0.22869
-0.27764
-0.32152
-0.3519
-0.41097
-0.4903
-0.56287
-0.6135
-0.66751
-0.71646
-0.63882
-0.45992
-0.14262
0.17131
0.41941
0.56624
0.63038
0.64726
0.60506
0.54262
0.44641
0.34008
0.19325
0.076793
-0.024473
-0.10042
-0.17468
-0.19831
-0.21857
-0.24726
-0.28101
-0.3519
-0.4211
-0.5038
-0.58143
-0.6692
-0.6962
-0.62532
-0.41435
-0.13418
0.13755
0.3519
0.48186
0.5173
0.53249
0.5173
0.4903
0.45148
0.41097
0.33165
0.22025
0.10886
0.02616
-0.029536
-0.085232
-0.14768
-0.21688
-0.27426
-0.29789
-0.30633
-0.31646
-0.33333
-0.32827
-0.34684
-0.36371
-0.41435
-0.50717
-0.63544
-0.6827
-0.57637
-0.31814
0.037975
0.41772
0.7384
0.92911
1
0.98481
0.89705
0.76034
0.58987
0.44979
0.31477
0.22532
0.173
0.12405
0.083544
0.039662
-0.02616
-0.12743
-0.22532
-0.29789
-0.37215
-0.44979
-0.56118
-0.72658
-0.8211
-0.76034
-0.48186
-0.1038
0.21181
0.39916
0.45654
0.43966
0.40591
0.33502
0.24557
0.13249
0.036287
-0.049789
-0.097046
-0.12236
-0.10886
-0.12743
-0.15612
-0.19325
-0.24051
-0.28945
-0.36371
-0.44135
-0.52911
-0.56456
-0.54937
-0.47679
-0.38059
-0.23038
-0.049789
0.11224
0.24895
0.31139
0.3097
0.27932
0.26076
0.27426
0.29958
0.33165
0.3384
0.32152
0.27426
0.24557
0.22869
0.1865
0.12405
0.048101
-0.029536
-0.12068
-0.18819
-0.26414
-0.32321
-0.3789
-0.43966
-0.5173
-0.59662
-0.64388
-0.64388
-0.57637
-0.41941
-0.16793
0.1308
0.41603
0.64219
0.76203
0.79241
0.77215
0.71477
0.60675
0.47511
0.34515
0.23713
0.14262
0.064979
0.0075949
-0.066667
-0.17468
-0.24895
-0.36371
-0.47679
-0.58143
-0.65738
-0.74852
-0.80084
-0.74515
-0.52574
-0.17131
0.19662
0.49705
0.65907
0.71646
0.72489
0.67932
0.59662
0.48692
0.36371
0.21688
0.083544
-0.032911
-0.14093
-0.22869
-0.29789
-0.37046
-0.45485
-0.54599
-0.61857
-0.72152
-0.76709
-0.71646
-0.52911
-0.27595
-0.01097
0.19831
0.32658
0.36878
0.3789
0.35021
0.31477
0.2692
0.23038
0.1865
0.12068
0.061603
0.01097
-0.021097
-0.036287
-0.061603
-0.13755
-0.25063
-0.34346
-0.39747
-0.39241
-0.31308
-0.19494
-0.08692
-0.016034
0.053165
0.10211
0.12068
0.1173
0.068354
0.0059072
-0.05654
-0.061603
-0.049789
-0.022785
-0.00084388
-0.0075949
-0.036287
-0.051477
-0.046414
-0.04135
-0.053165
-0.064979
-0.051477
-0.063291
-0.088608
-0.13249
-0.18987
-0.24895
-0.28101
-0.27257
-0.24726
-0.22363
-0.23038
-0.28945
-0.33502
-0.34008
-0.23544
-0.039662
0.21013
0.45654
0.60169
0.66076
0.66245
0.627
0.54262
0.44304
0.34177
0.23207
0.13586
0.053165
-0.029536
-0.12405
-0.22194
-0.31139
-0.39409
-0.45316
-0.47342
-0.48354
-0.51899
-0.55274
-0.51055
-0.36371
-0.10886
0.18143
0.39578
0.50211
0.51392
0.45148
0.35696
0.24219
0.15105
0.068354
-0.016034
-0.076793
-0.12911
-0.17806
-0.22194
-0.2557
-0.27089
-0.29283
-0.3097
-0.34008
-0.38397
-0.41603
-0.40253
-0.38397
-0.38228
-0.35021
-0.227
-0.017722
0.23038
0.45992
0.61013
0.6827
0.69283
0.64388
0.55274
0.44304
0.33502
0.20506
0.083544
-0.012658
-0.083544
-0.14262
-0.18819
-0.20506
-0.20844
-0.19662
-0.20844
-0.23038
-0.27932
-0.29114
-0.27426
-0.23544
-0.19494
-0.14093
-0.039662
0.10549
0.2962
0.47848
0.58987
0.63713
0.62363
0.55949
0.44473
0.31308
0.18481
0.051477
-0.073418
-0.173
-0.25232
-0.31139
-0.3519
-0.39241
-0.44135
-0.49198
-0.50717
-0.48692
-0.43122
-0.38565
-0.35359
-0.2962
-0.18819
0.061603
0.29958
0.52574
0.66076
0.71308
0.6827
0.60169
0.52236
0.39578
0.25063
0.10886
0.0042194
-0.075105
-0.1173
-0.14599
-0.18143
-0.23207
-0.26751
-0.29114
-0.31814
-0.33502
-0.36203
-0.40759
-0.48692
-0.58819
-0.70127
-0.71308
-0.58481
-0.3384
-0.058228
0.2135
0.46498
0.67426
0.74515
0.71646
0.64726
0.55443
0.45148
0.35359
0.25401
0.15105
0.068354
-0.0042194
-0.054852
-0.1038
-0.12236
-0.1443
-0.17637
-0.2
-0.22194
-0.24557
-0.27089
-0.30633
-0.37553
-0.46498
-0.56456
-0.69451
-0.76371
-0.57806
-0.26076
0.19494
0.51055
0.68608
0.77215
0.74515
0.67932
0.57806
0.44304
0.28776
0.14599
0.02616
-0.059916
-0.098734
-0.11561
-0.13249
-0.17806
-0.23207
-0.28608
-0.35021
-0.41772
-0.49367
-0.58143
-0.7097
-0.78397
-0.77553
-0.64557
-0.3519
-0.00084388
0.32827
0.55274
0.67426
0.70633
0.68945
0.64895
0.59156
0.51392
0.40084
0.27764
0.12743
-0.031224
-0.17131
-0.28608
-0.38903
-0.49367
-0.56287
-0.61181
-0.61519
-0.60169
-0.57131
-0.51561
-0.41772
-0.23544
-0.034599
0.15949
0.30802
0.41097
0.44304
0.43629
0.40591
0.35696
0.28945
0.23376
0.17806
0.12574
0.090295
0.05654
-0.0092827
-0.10549
-0.23207
-0.38397
-0.54937
-0.70464
-0.8211
-0.86329
-0.79072
-0.5865
-0.29958
-0.024473
0.21013
0.39578
0.5308
0.59494
0.61857
0.59494
0.51561
0.41772
0.31814
0.20169
0.080169
-0.034599
-0.13755
-0.24219
-0.33165
-0.40084
-0.45992
-0.50211
-0.53924
-0.58819
-0.67257
-0.77553
-0.92405
-1
-0.98312
-0.71139
-0.35021
0.0025316
0.24726
0.39409
0.4616
0.48354
0.49198
0.46329
0.40759
0.32489
0.24557
0.16456
0.097046
0.046414
-0.01097
-0.075105
-0.14599
-0.20506
-0.27595
-0.34852
-0.41097
-0.4903
-0.55612
-0.61688
-0.64557
-0.61519
-0.47004
-0.2
0.14599
0.41435
0.59662
0.65232
0.63882
0.58987
0.54599
0.48523
0.41941
0.34008
0.26414
0.16287
0.059916
-0.046414
-0.16287
-0.27595
-0.37722
-0.48186
-0.58143
-0.65232
-0.69114
-0.72489
-0.71308
-0.61181
-0.40084
-0.14937
0.083544
0.26076
0.37215
0.43797
0.45992
0.4346
0.38397
0.33502
0.29789
0.24557
0.18312
0.097046
-0.01097
-0.1308
-0.23882
-0.33165
-0.42447
-0.51224
-0.573
-0.62869
-0.66245
-0.60844
-0.45992
-0.25907
-0.04135
0.15443
0.30127
0.39578
0.45316
0.48523
0.50549
0.51392
0.50886
0.46667
0.39916
0.31646
0.22194
0.10549
-0.016034
-0.12068
-0.21857
-0.29958
-0.35865
-0.39072
-0.4211
-0.43966
-0.48017
-0.51392
-0.53924
-0.51392
-0.41941
-0.1865
0.088608
0.37722
0.56118
0.60675
0.59494
0.54262
0.45316
0.37384
0.2962
0.22532
0.14768
0.08692
0.031224
-0.029536
-0.068354
-0.090295
-0.10717
-0.13755
-0.16793
-0.21857
-0.28439
-0.36371
-0.43797
-0.52574
-0.61519
-0.72827
-0.7654
-0.7097
-0.48523
-0.10042
0.26751
0.57637
0.75696
0.80422
0.77215
0.69114
0.57975
0.43122
0.27764
0.1308
-0.012658
-0.14262
-0.24219
-0.30802
-0.36371
-0.40084
-0.41772
-0.43122
-0.45316
-0.48523
-0.49705
-0.50042
-0.49705
-0.41435
-0.26751
-0.034599
0.22532
0.43966
0.57975
0.65738
0.67257
0.62363
0.53586
0.44135
0.34515
0.24388
0.15612
0.070042
-0.017722
-0.11224
-0.19156
-0.26076
-0.32321
-0.38228
-0.46835
-0.58987
-0.71139
-0.77046
-0.76034
-0.7384
-0.5865
-0.39072
-0.12068
0.15105
0.36878
0.53755
0.63544
0.66076
0.65738
0.60169
0.52068
0.41941
0.30127
0.17806
0.078481
0.0059072
-0.049789
-0.10211
-0.13755
-0.18143
-0.23882
-0.30127
-0.35696
-0.41772
-0.48354
-0.54768
-0.65401
-0.75865
-0.78059
-0.66751
-0.38059
-0.019409
0.32489
0.55105
0.627
0.60844
0.54768
0.45148
0.36371
0.29114
0.21688
0.1308
0.037975
-0.054852
-0.15274
-0.21857
-0.26076
-0.29789
-0.32321
-0.3519
-0.38059
-0.44641
-0.51055
-0.58143
-0.64726
-0.6557
-0.53586
-0.28608
0.00084388
0.28776
0.51899
0.68101
0.74515
0.73502
0.68101
0.62025
0.56624
0.5038
0.41941
0.3097
0.20675
0.1038
0.024473
-0.022785
-0.066667
-0.15781
-0.31646
-0.4903
-0.70295
-0.80759
-0.80591
-0.68608
-0.49367
-0.26245
0.01097
0.29451
0.51055
0.65232
0.72996
0.74008
0.71308
0.65232
0.54768
0.41603
0.29114
0.1865
0.08692
0.0059072
-0.051477
-0.10886
-0.16456
-0.23376
-0.29283
-0.35865
-0.4211
-0.49873
-0.59156
-0.72321
-0.88354
-0.92405
-0.82954
-0.54093
-0.19494
0.12236
0.33165
0.49705
0.58143
0.59494
0.58987
0.55781
0.50211
0.40759
0.31308
0.20844
0.10211
0.019409
-0.046414
-0.10717
-0.17637
-0.227
-0.27595
-0.31477
-0.3384
-0.35527
-0.37722
-0.41772
-0.46835
-0.55105
-0.65232
-0.74008
-0.67932
-0.43291
-0.073418
0.32152
0.56624
0.68439
0.70295
0.64051
0.52236
0.40253
0.30295
0.20506
0.1038
0.024473
-0.034599
-0.078481
-0.12068
-0.14599
-0.1865
-0.23207
-0.28439
-0.34177
-0.41772
-0.49705
-0.55274
-0.627
-0.68101
-0.66076
-0.52574
-0.27089
0.031224
0.31646
0.5173
0.62363
0.64895
0.60506
0.49367
0.36034
0.22532
0.085232
-0.017722
-0.085232
-0.13586
-0.19494
-0.27257
-0.35359
-0.40591
-0.4211
-0.39072
-0.3519
-0.30802
-0.23207
-0.12236
-0.022785
0.059916
0.11899
0.15105
0.16624
0.16287
0.15781
0.13418
0.1038
0.068354
0.016034
-0.048101
-0.093671
-0.12236
-0.15443
-0.19156
-0.22025
-0.26245
-0.31646
-0.36878
-0.44304
-0.5443
-0.55274
-0.39747
-0.1308
0.173
0.40928
0.56456
0.66582
0.69958
0.69789
0.64557
0.5443
0.41941
0.30127
0.21181
0.15949
0.11561
0.051477
-0.032911
-0.11899
-0.19325
-0.27089
-0.32996
-0.38397
-0.45316
-0.53249
-0.61181
-0.64726
-0.62194
-0.47342
-0.25907
-0.0075949
0.18987
0.33333
0.40591
0.41435
0.40422
0.38903
0.37722
0.34177
0.29451
0.2
0.051477
-0.10042
-0.23544
-0.34346
-0.4211
-0.46498
-0.46498
-0.40422
-0.3097
-0.18987
-0.10886
-0.049789
-0.00084388
0.017722
0.027848
0.051477
0.088608
0.11561
0.15274
0.19156
0.2135
0.20844
0.16793
0.098734
-0.0059072
-0.080169
-0.11392
-0.13755
-0.17131
-0.24895
-0.35021
-0.41603
-0.38228
-0.22025
-0.063291
0.091983
0.2
0.28945
0.33165
0.33333
0.32658
0.30633
0.27764
0.24557
0.20338
0.13924
0.080169
0.022785
-0.048101
-0.13249
-0.20675
-0.27764
-0.35021
-0.41772
-0.48186
-0.53249
-0.51055
-0.37215
-0.17975
0.012658
0.15612
0.2557
0.29114
0.27257
0.22363
0.14599
0.051477
-0.034599
-0.10886
-0.17806
-0.23207
-0.27257
-0.31308
-0.36203
-0.40591
-0.42616
-0.45316
-0.47342
-0.45316
-0.38397
-0.25401
-0.068354
0.16118
0.36034
0.52236
0.61857
0.62194
0.56624
0.48017
0.37046
0.24388
0.12911
0.054852
0.0059072
-0.043038
-0.13249
-0.26582
-0.42785
-0.56624
-0.65401
-0.64388
-0.58481
-0.40928
-0.20169
0.0059072
0.20506
0.35527
0.44979
0.50717
0.53249
0.53586
0.50549
0.4616
0.39916
0.32658
0.23882
0.16962
0.098734
0.032911
-0.014346
-0.066667
-0.14262
-0.24895
-0.34346
-0.44473
-0.5443
-0.68776
-0.74346
-0.71477
-0.50886
-0.23544
0.01097
0.19325
0.31308
0.40422
0.44641
0.43629
0.41435
0.37046
0.32321
0.2962
0.27764
0.24726
0.20169
0.14599
0.064979
-0.019409
-0.091983
-0.14262
-0.20675
-0.29114
-0.37215
-0.47173
-0.573
-0.7519
-0.82785
-0.75865
-0.46667
-0.080169
0.26582
0.48692
0.63882
0.66414
0.573
0.44979
0.33671
0.24895
0.17131
0.11055
0.049789
-0.00084388
-0.024473
-0.04135
-0.070042
-0.14262
-0.21013
-0.2962
-0.38059
-0.4481
-0.48354
-0.50549
-0.55949
-0.64051
-0.70633
-0.62532
-0.39578
-0.070042
0.227
0.46667
0.63882
0.72658
0.69958
0.61181
0.48861
0.34684
0.22363
0.14599
0.091983
0.037975
-0.0059072
-0.048101
-0.083544
-0.13249
-0.15274
-0.20169
-0.27257
-0.34515
-0.40591
-0.43122
-0.43629
-0.43291
-0.43966
-0.35696
-0.20338
0.0025316
0.18312
0.33333
0.49705
0.60844
0.64726
0.63544
0.58143
0.48523
0.36034
0.21181
0.063291
-0.091983
-0.21181
-0.31308
-0.39916
-0.45148
-0.47511
-0.46498
-0.42447
-0.37046
-0.34852
-0.32152
-0.25232
-0.12911
0.016034
0.14093
0.24726
0.31983
0.34008
0.33671
0.32321
0.27932
0.22194
0.16456
0.095359
0.017722
-0.059916
-0.13586
-0.21857
-0.31983
-0.42278
-0.48017
-0.51899
-0.46498
-0.40253
-0.25907
-0.10549
0.083544
0.21857
0.29451
0.34008
0.35021
0.32827
0.2962
0.27426
0.24388
0.19494
0.13924
0.080169
0.02616
-0.01097
-0.039662
-0.075105
-0.12574
-0.19156
-0.25907
-0.36878
-0.49367
-0.65232
-0.77215
-0.78397
-0.64557
-0.36203
-0.11055
0.1038
0.24051
0.2962
0.29451
0.27257
0.24219
0.22869
0.23544
0.23882
0.23207
0.20675
0.17468
0.12574
0.054852
-0.0025316
-0.061603
-0.12236
-0.19831
-0.2557
-0.31139
-0.37215
-0.45316
-0.54937
-0.69283
-0.7789
-0.64557
-0.40759
-0.080169
0.21181
0.42616
0.56118
0.59831
0.54093
0.43966
0.3097
0.17975
0.075105
-0.0075949
-0.058228
-0.08692
-0.1173
-0.14093
-0.16456
-0.1865
-0.21857
-0.25232
-0.2827
-0.34008
-0.38565
-0.37722
-0.30127
-0.20844
-0.098734
0.022785
0.15612
0.28101
0.37722
0.43797
0.43966
0.40253
0.33333
0.2557
0.17637
0.12236
0.07173
0.017722
-0.058228
-0.15949
-0.29114
-0.42785
-0.53755
-0.63207
-0.6962
-0.627
-0.46835
-0.24557
-0.07173
0.068354
0.17806
0.26582
0.31477
0.31139
0.26076
0.20844
0.17637
0.16287
0.14937
0.13249
0.10886
0.066667
0.017722
-0.012658
-0.07173
-0.15274
-0.24219
-0.3097
-0.34852
-0.35865
-0.28608
-0.19662
-0.10549
-0.044726
-0.0075949
-0.0042194
-0.014346
-0.048101
-0.10042
-0.13924
-0.16456
-0.18481
-0.22532
-0.28101
-0.30633
-0.31646
-0.31139
-0.28608
-0.24895
-0.18819
-0.08692
0.043038
0.15781
0.22194
0.24051
0.22194
0.17131
0.13418
0.10211
0.064979
0.012658
-0.037975
-0.1038
-0.2
-0.29114
-0.37215
-0.45823
-0.54262
-0.62869
-0.75527
-0.8211
-0.76203
-0.52068
-0.18987
0.11899
0.39747
0.59662
0.71308
0.75021
0.72152
0.66582
0.59831
0.52743
0.44473
0.34008
0.23376
0.13924
0.051477
-0.034599
-0.097046
-0.17637
-0.26414
-0.35865
-0.49367
-0.65907
-0.8211
-0.83291
-0.68608
-0.4211
-0.11561
0.14093
0.34177
0.47848
0.57131
0.60675
0.5865
0.54262
0.48523
0.41097
0.32658
0.24051
0.14768
0.05654
-0.024473
-0.080169
-0.14093
-0.18143
-0.20844
-0.23376
-0.27089
-0.31646
-0.37722
-0.45485
-0.52068
-0.56287
-0.56118
-0.49536
-0.29789
-0.012658
0.25401
0.42954
0.47004
0.41772
0.32658
0.23207
0.1308
0.031224
-0.036287
-0.054852
-0.036287
0.012658
0.070042
0.08692
0.068354
0.0042194
-0.07173
-0.15949
-0.23038
-0.25401
-0.26582
-0.27595
-0.29283
-0.28439
-0.23207
-0.173
-0.10886
-0.081857
-0.064979
-0.044726
-0.034599
-0.036287
-0.044726
-0.00084388
0.04135
0.076793
0.10042
0.098734
0.05654
0.0042194
-0.022785
-0.049789
-0.078481
-0.1308
-0.20506
-0.27426
-0.31308
-0.30633
-0.28945
-0.2692
-0.25738
-0.24895
-0.24726
-0.24051
-0.227
-0.23376
-0.23713
-0.2557
-0.28608
-0.34346
-0.33333
-0.21857
-0.0075949
0.23376
0.45316
0.59494
0.65907
0.65232
0.59494
0.5173
0.42954
0.34852
0.2557
0.15612
0.07173
0.016034
-0.032911
-0.095359
-0.12743
-0.17131
-0.22025
-0.27426
-0.29958
-0.33333
-0.36878
-0.39747
-0.44979
-0.54768
-0.59494
-0.60338
-0.51561
-0.32827
-0.021097
0.32658
0.61181
0.74684
0.73671
0.64219
0.51899
0.39916
0.30127
0.22363
0.16793
0.11224
0.037975
-0.043038
-0.11224
-0.18481
-0.25063
-0.2962
-0.31139
-0.32996
-0.34177
-0.37046
-0.42616
-0.50211
-0.55781
-0.573
-0.51899
-0.31477
-0.031224
0.27089
0.47511
0.59494
0.64051
0.62194
0.57131
0.48861
0.38734
0.27089
0.17975
0.090295
-0.0092827
-0.10717
-0.19325
-0.25907
-0.30127
-0.30295
-0.32489
-0.35865
-0.40253
-0.43966
-0.44641
-0.38565
-0.25063
-0.081857
0.095359
0.25907
0.38565
0.45148
0.4481
0.43291
0.39578
0.34684
0.29789
0.24726
0.18819
0.13586
0.078481
-0.019409
-0.14599
-0.29451
-0.43966
-0.58481
-0.67257
-0.68945
-0.58143
-0.39072
-0.15781
0.091983
0.25232
0.3789
0.45992
0.50211
0.51392
0.52236
0.50886
0.47004
0.41772
0.34684
0.26245
0.173
0.10211
0.029536
-0.051477
-0.13755
-0.2135
-0.28776
-0.41772
-0.48017
-0.47848
-0.3519
-0.15781
0.048101
0.20844
0.31814
0.35527
0.31983
0.27257
0.22025
0.17468
0.12236
0.081857
0.075105
0.063291
0.043038
0.029536
0.01097
-0.02616
-0.081857
-0.13924
-0.21688
-0.29114
-0.36709
-0.4346
-0.52911
-0.59325
-0.59831
-0.55443
-0.4346
-0.26076
-0.039662
0.16287
0.32996
0.4481
0.5173
0.51392
0.43966
0.34852
0.23882
0.15443
0.093671
0.029536
-0.027848
-0.080169
-0.13418
-0.19494
-0.24219
-0.27257
-0.29451
-0.32152
-0.34515
-0.37553
-0.40422
-0.4211
-0.41097
-0.34684
-0.27426
-0.14599
0.0042194
0.12743
0.25738
0.3654
0.43629
0.46498
0.44641
0.38903
0.30295
0.21857
0.12405
0.01097
-0.11392
-0.20675
-0.29789
-0.37722
-0.43291
-0.47679
-0.53249
-0.627
-0.6692
-0.65232
-0.53586
-0.34852
-0.173
-0.051477
0.024473
0.085232
0.12574
0.14768
0.1443
0.14093
0.1173
0.085232
0.046414
-0.0059072
-0.046414
-0.059916
-0.058228
-0.075105
-0.10549
-0.11224
-0.12743
-0.13755
-0.13924
-0.14768
-0.16287
-0.18143
-0.21013
-0.23713
-0.25063
-0.25232
-0.24557
-0.25063
-0.25738
-0.27257
-0.31308
-0.35359
-0.3789
-0.38059
-0.38734
-0.41097
-0.48523
-0.55274
-0.53586
-0.33671
-0.046414
0.27426
0.55274
0.7654
0.87173
0.86329
0.80591
0.73165
0.64219
0.5308
0.39241
0.227
0.078481
-0.034599
-0.10886
-0.17637
-0.20338
-0.2135
-0.227
-0.25232
-0.28776
-0.35359
-0.44473
-0.47848
-0.42616
-0.30127
-0.14937
0.0059072
0.14262
0.2827
0.39916
0.50042
0.54262
0.5443
0.52068
0.45485
0.37046
0.28439
0.20844
0.13586
0.075105
0.027848
-0.039662
-0.14262
-0.27257
-0.39916
-0.52405
-0.60675
-0.64219
-0.58481
-0.45823
-0.24388
-0.027848
0.13249
0.25232
0.33165
0.36709
0.37722
0.38397
0.38397
0.3654
0.34177
0.31139
0.28439
0.24388
0.19325
0.12405
0.04135
-0.044726
-0.11561
-0.19494
-0.27089
-0.34346
-0.38734
-0.44304
-0.47173
-0.47511
-0.44641
-0.37553
-0.28101
-0.20506
-0.15612
-0.12236
-0.10211
-0.12068
-0.15105
-0.15612
-0.16287
-0.16287
-0.15949
-0.14937
-0.1308
-0.059916
0.046414
0.173
0.26751
0.32996
0.39072
0.43797
0.48354
0.50042
0.45485
0.36034
0.26245
0.16624
0.070042
-0.024473
-0.10042
-0.14937
-0.17637
-0.2
-0.24219
-0.34346
-0.47342
-0.58987
-0.69789
-0.76878
-0.7789
-0.63882
-0.40928
-0.095359
0.22363
0.51055
0.72152
0.8616
0.89198
0.84304
0.74852
0.63376
0.50042
0.35865
0.22532
0.1038
-0.016034
-0.10549
-0.16287
-0.20169
-0.23544
-0.2557
-0.2827
-0.35527
-0.45823
-0.57468
-0.627
-0.59325
-0.49705
-0.38397
-0.23713
-0.081857
0.066667
0.18481
0.26751
0.36371
0.40759
0.40422
0.3789
0.32996
0.26751
0.19494
0.14937
0.073418
0.0025316
-0.068354
-0.11899
-0.16793
-0.20338
-0.23038
-0.2557
-0.29789
-0.33502
-0.36203
-0.40084
-0.43966
-0.56118
-0.66582
-0.69789
-0.48861
-0.16118
0.17468
0.42278
0.61688
0.72321
0.7654
0.71814
0.62194
0.48523
0.36203
0.27257
0.19831
0.12743
0.073418
0.014346
-0.044726
-0.11392
-0.17975
-0.24895
-0.31477
-0.36709
-0.42278
-0.49198
-0.60169
-0.69451
-0.68776
-0.55443
-0.30633
-0.061603
0.1173
0.26245
0.3519
0.37046
0.35865
0.32996
0.30464
0.27764
0.25232
0.21181
0.12743
0.016034
-0.090295
-0.18143
-0.24051
-0.26076
-0.26582
-0.28439
-0.31139
-0.34177
-0.40422
-0.45316
-0.43629
-0.30127
-0.12068
0.066667
0.22194
0.33333
0.43291
0.49198
0.51055
0.47511
0.42616
0.3654
0.3097
0.23882
0.1865
0.12574
0.046414
-0.01097
-0.058228
-0.10549
-0.17637
-0.25907
-0.33671
-0.40759
-0.43629
-0.42616
-0.38397
-0.25232
-0.1173
0.049789
0.16962
0.28101
0.36878
0.39409
0.36878
0.32152
0.25063
0.1865
0.13249
0.097046
0.049789
0.0025316
-0.043038
-0.11224
-0.18987
-0.26245
-0.32658
-0.40084
-0.46498
-0.47511
-0.43797
-0.38734
-0.35021
-0.32658
-0.28439
-0.2
-0.075105
0.01097
0.083544
0.14937
0.2135
0.22532
0.23544
0.23882
0.22363
0.17806
0.12743
0.075105
0.00084388
-0.054852
-0.10886
-0.16287
-0.21857
-0.27257
-0.32827
-0.39409
-0.42616
-0.46329
-0.48861
-0.52405
-0.55612
-0.49705
-0.39578
-0.16118
0.070042
0.29451
0.43797
0.53586
0.56962
0.54768
0.49873
0.42447
0.31646
0.20506
0.095359
-0.0092827
-0.095359
-0.1865
-0.24895
-0.31646
-0.35359
-0.37384
-0.38228
-0.3789
-0.3789
-0.38059
-0.36034
-0.30295
-0.18143
-0.063291
0.049789
0.14937
0.23713
0.28101
0.28439
0.26751
0.23544
0.173
0.12068
0.07173
0.016034
-0.0075949
-0.024473
-0.032911
-0.05654
-0.10886
-0.17468
-0.25401
-0.31646
-0.4211
-0.51224
-0.53924
-0.45823
-0.26245
-0.068354
0.1173
0.26751
0.34177
0.3654
0.35527
0.35527
0.32489
0.29451
0.26245
0.23882
0.18481
0.13755
0.078481
0.017722
-0.031224
-0.075105
-0.12236
-0.18143
-0.227
-0.27932
-0.33671
-0.39241
-0.4616
-0.50042
-0.51561
-0.42954
-0.28608
-0.10886
0.075105
0.22363
0.3384
0.39578
0.41772
0.40591
0.37046
0.33165
0.29451
0.23376
0.15443
0.080169
0.00084388
-0.070042
-0.13418
-0.18819
-0.25738
-0.31646
-0.34515
-0.35527
-0.35359
-0.30802
-0.22025
-0.13755
-0.049789
0.014346
0.053165
0.07173
0.081857
0.098734
0.097046
0.11055
0.12911
0.13755
0.12236
0.07173
-0.017722
-0.12743
-0.22194
-0.29789
-0.37046
-0.44135
-0.49873
-0.53418
-0.54599
-0.51561
-0.45485
-0.32321
-0.19156
-0.0075949
0.15949
0.29283
0.40084
0.45992
0.4616
0.42278
0.38565
0.34684
0.31814
0.29451
0.26582
0.21688
0.15949
0.10211
0.036287
-0.039662
-0.11392
-0.19325
-0.29789
-0.41435
-0.48354
-0.51561
-0.48354
-0.38565
-0.24557
-0.085232
0.054852
0.173
0.24219
0.27426
0.27764
0.2557
0.20844
0.173
0.1443
0.11055
0.061603
0.012658
-0.031224
-0.083544
-0.11224
-0.14599
-0.17131
-0.20169
-0.20675
-0.21013
-0.24051
-0.27257
-0.30127
-0.35696
-0.43966
-0.55949
-0.56456
-0.44135
-0.17975
0.12911
0.36034
0.50211
0.56793
0.54093
0.45316
0.36203
0.27764
0.20844
0.13755
0.073418
0.0059072
-0.068354
-0.12743
-0.17468
-0.22025
-0.26751
-0.29114
-0.32321
-0.34684
-0.36878
-0.40759
-0.46329
-0.52068
-0.51561
-0.49705
-0.42616
-0.32152
-0.13755
0.048101
0.21013
0.29958
0.31477
0.29789
0.29789
0.32827
0.34346
0.34177
0.29283
0.1865
0.053165
-0.061603
-0.14262
-0.21519
-0.2557
-0.28945
-0.32996
-0.35865
-0.36371
-0.32489
-0.27764
-0.22025
-0.15612
-0.1038
-0.039662
0.058228
0.16456
0.24219
0.28101
0.2962
0.28101
0.24557
0.19325
0.12236
0.046414
-0.0092827
-0.044726
-0.078481
-0.11392
-0.12574
-0.13924
-0.15274
-0.18143
-0.23038
-0.28945
-0.35021
-0.34852
-0.25907
-0.10042
0.12743
0.34346
0.47511
0.51055
0.49873
0.44641
0.37384
0.30127
0.23207
0.15105
0.090295
0.04135
-0.021097
-0.085232
-0.14262
-0.17806
-0.21688
-0.23882
-0.23882
-0.22869
-0.22532
-0.26245
-0.32489
-0.40591
-0.44473
-0.4211
-0.38228
-0.31477
-0.18481
0.053165
0.29114
0.50211
0.5865
0.56118
0.47004
0.37215
0.2962
0.227
0.16456
0.083544
-0.0059072
-0.10211
-0.17975
-0.24726
-0.31477
-0.35696
-0.38228
-0.40084
-0.40759
-0.38397
-0.35527
-0.33165
-0.30633
-0.2692
-0.20675
-0.083544
0.091983
0.25401
0.34684
0.34684
0.28439
0.22025
0.15274
0.11392
0.037975
-0.021097
-0.054852
-0.073418
-0.11055
-0.17131
-0.23544
-0.31477
-0.37722
-0.39072
-0.35359
-0.29451
-0.23038
-0.16287
-0.095359
0.014346
0.15105
0.29114
0.35359
0.3519
0.32658
0.27426
0.20844
0.14599
0.097046
0.027848
-0.039662
-0.11224
-0.18312
-0.24219
-0.27764
-0.3097
-0.35527
-0.39747
-0.42954
-0.46835
-0.48186
-0.47848
-0.43966
-0.35865
-0.16456
0.095359
0.3654
0.54599
0.63207
0.65401
0.62532
0.56456
0.48186
0.38228
0.28101
0.19325
0.1173
0.04135
-0.014346
-0.051477
-0.083544
-0.13924
-0.18312
-0.24388
-0.30633
-0.33671
-0.3519
-0.38228
-0.47511
-0.51392
-0.54768
-0.45485
-0.2827
-0.037975
0.23544
0.50549
0.71983
0.83291
0.84135
0.77384
0.65738
0.51392
0.3654
0.23713
0.10549
-0.0059072
-0.10886
-0.20169
-0.30802
-0.39916
-0.4616
-0.50549
-0.5308
-0.5443
-0.55949
-0.57637
-0.52574
-0.41435
-0.24557
-0.075105
0.076793
0.20506
0.2962
0.35696
0.39241
0.38734
0.35527
0.32658
0.29283
0.24726
0.19325
0.11561
0.019409
-0.078481
-0.13924
-0.16118
-0.16793
-0.16118
-0.17637
-0.21857
-0.30295
-0.42616
-0.57131
-0.72996
-0.76371
-0.63038
-0.38734
-0.083544
0.17131
0.34346
0.4481
0.49536
0.51561
0.51561
0.49536
0.47342
0.41266
0.34515
0.26751
0.19662
0.12405
0.061603
0.014346
-0.043038
-0.10211
-0.15443
-0.21181
-0.28776
-0.3654
-0.43629
-0.46835
-0.47004
-0.40084
-0.27089
-0.11899
0.029536
0.16456
0.23376
0.25232
0.24051
0.20169
0.14262
0.081857
0.037975
0.01097
-0.0075949
-0.0092827
-0.021097
-0.031224
-0.044726
-0.063291
-0.10042
-0.14937
-0.19494
-0.23544
-0.27764
-0.29958
-0.3097
-0.32489
-0.34684
-0.36203
-0.37722
-0.38228
-0.34684
-0.26245
-0.18819
-0.18819
-0.2135
-0.21013
-0.14768
-0.017722
0.095359
0.19494
0.2692
0.3384
0.38059
0.38903
0.3789
0.33502
0.23713
0.10042
-0.054852
-0.21181
-0.34852
-0.43291
-0.46498
-0.45148
-0.39409
-0.31646
-0.26076
-0.23544
-0.23713
-0.25738
-0.29789
-0.32152
-0.30127
-0.27764
-0.23713
-0.18143
-0.11392
-0.037975
0.083544
0.2
0.28608
0.30295
0.29451
0.27764
0.25738
0.24051
0.21688
0.18819
0.16287
0.15105
0.14768
0.12068
0.076793
0.037975
-0.014346
-0.048101
-0.081857
-0.10042
-0.13924
-0.14768
-0.14768
-0.13418
-0.11055
-0.054852
0.00084388
0.051477
0.080169
0.090295
0.083544
0.07173
0.073418
0.036287
-0.014346
-0.081857
-0.14093
-0.1865
-0.21181
-0.21688
-0.24388
-0.26414
-0.24219
-0.14768
-0.034599
0.1038
0.26414
0.4346
0.59662
0.68945
0.70802
0.64726
0.52574
0.38565
0.23038
0.091983
0.00084388
-0.073418
-0.14937
-0.21857
-0.26751
-0.30295
-0.32996
-0.34008
-0.35696
-0.39578
-0.43966
-0.48692
-0.52911
-0.56624
-0.5865
-0.63713
-0.65401
-0.57637
-0.37384
-0.091983
0.2135
0.5038
0.72996
0.85654
0.88861
0.85654
0.76878
0.63882
0.51055
0.37553
0.23544
0.11561
0.022785
-0.053165
-0.10211
-0.14768
-0.23207
-0.34008
-0.4481
-0.51224
-0.5443
-0.55274
-0.54262
-0.55105
-0.58481
-0.64051
-0.66414
-0.64726
-0.54937
-0.34177
-0.061603
0.23376
0.48523
0.63713
0.69283
0.71139
0.69958
0.64557
0.56962
0.47511
0.37046
0.24388
0.12068
0.022785
-0.043038
-0.10549
-0.15274
-0.19662
-0.24895
-0.29283
-0.34008
-0.40591
-0.47173
-0.52574
-0.53755
-0.55443
-0.57468
-0.65907
-0.66245
-0.66582
-0.55274
-0.37046
-0.081857
0.29451
0.65907
0.88186
0.96118
0.96287
0.90717
0.80084
0.6692
0.52068
0.36878
0.24051
0.15949
0.10042
0.049789
0.0025316
-0.043038
-0.10886
-0.17806
-0.22363
-0.25401
-0.26582
-0.27257
-0.31477
-0.4211
-0.49705
-0.55949
-0.53586
-0.40422
-0.16456
0.13586
0.36034
0.47848
0.52405
0.5173
0.4616
0.38903
0.30464
0.21181
0.14093
0.085232
0.027848
-0.017722
-0.049789
-0.078481
-0.13418
-0.18987
-0.23713
-0.26751
-0.29114
-0.29283
-0.28945
-0.32489
-0.37215
-0.42447
-0.47342
-0.51561
-0.5038
-0.3789
-0.15274
0.11055
0.32827
0.43122
0.46835
0.49198
0.4903
0.44979
0.39747
0.32658
0.25063
0.16793
0.073418
-0.036287
-0.15781
-0.25738
-0.31308
-0.34008
-0.34008
-0.32489
-0.34684
-0.39578
-0.47342
-0.54768
-0.65232
-0.79409
-0.87173
-0.7384
-0.47004
-0.066667
0.25063
0.48692
0.65907
0.76371
0.77215
0.73333
0.67257
0.60169
0.50717
0.40928
0.29958
0.1865
0.075105
-0.0075949
-0.061603
-0.12743
-0.18987
-0.2557
-0.33671
-0.40928
-0.44979
-0.47342
-0.52574
-0.63207
-0.75021
-0.84304
-0.7519
-0.49873
-0.13249
0.20169
0.45148
0.60844
0.67595
0.67764
0.64557
0.59494
0.5173
0.44304
0.36034
0.26245
0.15949
0.085232
0.016034
-0.032911
-0.08692
-0.12911
-0.18819
-0.26076
-0.27932
-0.3097
-0.36878
-0.45992
-0.6135
-0.75696
-0.7384
-0.54262
-0.20506
0.098734
0.33502
0.49367
0.54599
0.52236
0.45823
0.3789
0.2962
0.21181
0.12743
0.037975
-0.031224
-0.098734
-0.16456
-0.24557
-0.32152
-0.38059
-0.43291
-0.45823
-0.45485
-0.43797
-0.43966
-0.45316
-0.49705
-0.52911
-0.47173
-0.30633
-0.083544
0.14093
0.33333
0.49198
0.58987
0.62869
0.59831
0.52574
0.43797
0.37046
0.30802
0.21519
0.12743
0.063291
0.029536
-0.00084388
-0.043038
-0.11055
-0.23038
-0.34346
-0.44641
-0.53249
-0.58143
-0.57806
-0.54093
-0.43966
-0.28101
-0.085232
0.10717
0.25063
0.3789
0.44135
0.46329
0.45148
0.43291
0.39409
0.35865
0.32489
0.27932
0.22025
0.15949
0.091983
0.0025316
-0.1038
-0.20506
-0.29958
-0.3789
-0.4211
-0.41435
-0.4211
-0.43966
-0.45823
-0.51392
-0.51224
-0.47342
-0.37553
-0.25232
-0.10042
0.051477
0.173
0.24051
0.27764
0.29283
0.2827
0.2692
0.25232
0.21857
0.173
0.12911
0.068354
-0.021097
-0.11561
-0.20169
-0.2557
-0.28101
-0.26582
-0.24219
-0.23882
-0.23713
-0.22869
-0.25232
-0.26582
-0.27257
-0.26414
-0.22363
-0.1865
-0.08692
0.02616
0.1308
0.21181
0.22869
0.21519
0.18987
0.15949
0.10886
0.054852
0.017722
-0.037975
-0.1173
-0.20169
-0.2827
-0.35021
-0.38565
-0.40253
-0.42616
-0.44135
-0.4616
-0.41097
-0.34684
-0.23713
-0.10886
0.0075949
0.14093
0.2557
0.34852
0.38059
0.39747
0.42278
0.44135
0.4211
0.35359
0.2557
0.15443
0.095359
0.046414
-0.029536
-0.13586
-0.23376
-0.30295
-0.35359
-0.36371
-0.35527
-0.34684
-0.3789
-0.44979
-0.52236
-0.61519
-0.56962
-0.37553
-0.088608
0.23038
0.47511
0.62363
0.68439
0.68101
0.64726
0.59831
0.52743
0.45485
0.37553
0.29958
-0.42447
