0.49285
0.4885
0.42697
0.34058
0.26103
0.20323
0.13984
0.12181
0.11436
0.11622
0.13176
0.15103
0.18148
0.21255
0.23369
0.24487
0.25544
0.27346
0.29521
0.31883
0.33934
0.36047
0.37663
0.38409
0.38471
0.38471
0.38471
0.38595
0.3872
0.39093
0.39093
0.3903
0.38347
0.37477
0.36917
0.37104
0.37601
0.3872
0.39403
0.3903
0.37477
0.34618
0.32691
0.32567
0.36358
0.45308
0.578
0.69733
0.70044
0.41392
-0.18459
-0.66936
-0.82287
-0.54692
-0.10006
0.20572
0.33002
0.33002
0.37912
0.36234
0.29708
0.19267
0.078931
-0.006215
0.0006215
0.077688
0.20261
0.31075
0.39776
0.46737
0.51274
0.53139
0.51958
0.53387
0.56557
0.57241
0.52206
0.36296
0.1069
-0.19267
-0.50218
-0.71846
-0.72778
-0.48912
-0.078931
0.30267
0.57489
0.64823
0.53263
0.24798
-0.17464
-0.56184
-0.67993
-0.56557
-0.26414
0.029211
0.2169
0.33126
0.41019
0.43754
0.43754
0.42946
0.41268
0.38471
0.35364
0.32318
0.29335
0.26414
0.24114
0.22871
0.22685
0.22623
0.22871
0.23058
0.23182
0.23493
0.24052
0.24674
0.24922
0.25233
0.25109
0.25047
0.24612
0.23741
0.2225
0.21628
0.22063
0.25482
0.36855
0.49845
0.58048
0.51274
0.22871
-0.25357
-0.75078
-0.94531
-0.79615
-0.32318
0.10752
0.39901
0.51523
0.52704
0.44002
0.29646
0.11809
-0.047856
-0.1243
-0.061529
0.13362
0.35612
0.55749
0.70789
0.79553
0.82411
0.77067
0.63518
0.46675
0.27098
0.050963
-0.15351
-0.31821
-0.40211
-0.43878
-0.54692
-0.56805
-0.50155
-0.29459
-0.064015
0.076445
0.088254
0.011809
-0.09509
-0.14419
-0.11001
-0.014916
0.096333
0.19702
0.27595
0.35053
0.43257
0.46675
0.4798
0.43381
0.32815
0.19515
0.054692
-0.04537
-0.090118
-0.11374
-0.10193
-0.047234
0.052206
0.12181
0.15848
0.14605
0.094469
-0.026725
-0.20261
-0.40273
-0.58608
-0.66998
-0.578
-0.24177
0.15103
0.50342
0.65258
0.53884
0.24114
-0.18894
-0.5115
-0.4798
-0.22871
0.11498
0.35923
0.47856
0.54133
0.5606
0.53076
0.4885
0.43816
0.40211
0.38533
0.38471
0.39714
0.40771
0.40709
0.38409
0.34556
0.31075
0.29459
0.30205
0.32132
0.34431
0.36109
0.3729
0.37601
0.38036
0.3959
0.422
0.45432
0.47607
0.49161
0.50963
0.48042
0.40211
0.20199
-0.12368
-0.61467
-0.96333
-0.98757
-0.68987
-0.10503
0.37477
0.67806
0.7427
0.61467
0.29646
-0.10193
-0.45308
-0.56743
-0.47359
-0.21815
0.041641
0.26973
0.44686
0.56495
0.58856
0.50963
0.32878
0.11498
-0.061529
-0.11187
-0.02051
0.14481
0.32815
0.45991
0.51709
0.53014
0.53076
0.54319
0.53511
0.49658
0.44065
0.38595
0.34618
0.33437
0.33686
0.35239
0.36793
0.37352
0.37415
0.37166
0.3729
0.38533
0.40025
0.41579
0.42759
0.42697
0.41516
0.38782
0.34493
0.30516
0.27346
0.2573
0.24798
0.23741
0.22436
0.21255
0.20945
0.22126
0.25606
0.33002
0.45245
0.57986
0.66004
0.53325
0.16221
-0.42759
-0.89932
-0.96768
-0.66563
-0.13424
0.30329
0.53076
0.59229
0.54319
0.41392
0.2312
0.023617
-0.16346
-0.22436
-0.18707
-0.091361
-0.029211
0.016159
0.07023
0.17154
0.23804
0.29086
0.27222
0.18832
0.026725
-0.13549
-0.25357
-0.26227
-0.21753
-0.16221
-0.11063
-0.047234
0.068987
0.19764
0.30516
0.32194
0.24736
0.12492
0.007458
0.004972
0.03729
0.16035
0.24798
0.33126
0.36607
0.35364
0.312
0.27843
0.26911
0.26103
0.24487
0.22498
0.1995
0.17961
0.15724
0.14543
0.14232
0.1473
0.15475
0.16718
0.18769
0.21753
0.25917
0.30702
0.3468
0.36731
0.3555
0.3325
0.30454
0.28776
0.27843
0.2747
0.2747
0.28465
0.31075
0.36855
0.47607
0.57303
0.63704
0.4885
0.072716
-0.56122
-0.97079
-0.98135
-0.62585
-0.083903
0.29646
0.43878
0.4711
0.42324
0.3238
0.19142
0.036047
-0.10628
-0.17091
-0.12306
0.031075
0.18645
0.30827
0.40336
0.46302
0.53201
0.53201
0.46986
0.36047
0.22312
0.067122
-0.017402
-0.077067
-0.077067
-0.087011
-0.10566
-0.12741
-0.17961
-0.18521
-0.14978
-0.073959
-0.058421
-0.17713
-0.41703
-0.67371
-0.74767
-0.63269
-0.34058
-0.062772
0.19142
0.35799
0.42697
0.42697
0.35301
0.22996
0.080174
-0.057178
-0.10379
-0.059043
0.029211
0.12927
0.22561
0.30702
0.36793
0.40087
0.41579
0.40771
0.3872
0.35985
0.33934
0.32505
0.31572
0.3151
0.32132
0.32753
0.33686
0.34307
0.34991
0.3555
0.36047
0.36296
0.36482
0.36607
0.36793
0.36917
0.3729
0.38222
0.3959
0.41641
0.43692
0.44748
0.44251
0.41889
0.38285
0.3468
0.32753
0.3238
0.34618
0.39776
0.48291
0.65817
0.86389
0.99192
0.87011
0.34866
-0.23493
-0.49782
-0.34991
0.021753
0.28154
0.32194
0.27533
0.20199
0.1417
0.10441
0.080796
0.047234
0.0093226
-0.049099
-0.11933
-0.16967
-0.18521
-0.16781
-0.13424
-0.1243
-0.13922
-0.15227
-0.13362
-0.070851
0.036047
0.133
0.20385
0.21566
0.16718
0.091983
0.01243
-0.022374
-0.016159
0.015538
0.062772
0.15724
0.25792
0.3729
0.43257
0.44375
0.36917
0.11436
-0.33623
-0.78185
-0.98011
-0.82598
-0.4046
0.040398
0.35861
0.48229
0.48167
0.34742
0.14605
-0.086389
-0.25109
-0.32815
-0.25668
-0.14605
0.01243
0.16718
0.31945
0.41392
0.44686
0.45121
0.43878
0.422
0.39528
0.38222
0.38036
0.38658
0.40957
0.41019
0.39341
0.3468
0.24301
0.11436
-0.028589
-0.14605
-0.24549
-0.30951
-0.36358
-0.40087
-0.44997
-0.54382
-0.68365
-0.79677
-0.84214
-0.71162
-0.4363
-0.094469
0.17154
0.33623
0.35923
0.29956
0.22188
0.17029
0.16346
0.20323
0.27595
0.36855
0.48415
0.54506
0.56743
0.48602
0.29584
0.011809
-0.3325
-0.60162
-0.73462
-0.58421
-0.28278
0.066501
0.3468
0.44375
0.37601
0.14667
-0.18769
-0.42946
-0.45059
-0.25668
0.017402
0.2629
0.38658
0.45494
0.48415
0.4885
0.49782
0.49596
0.5028
0.47234
0.44438
0.41516
0.39776
0.38471
0.37042
0.36109
0.35861
0.35923
0.35736
0.35799
0.35301
0.34618
0.34058
0.33437
0.33188
0.3325
0.33002
0.33748
0.34929
0.37104
0.40025
0.44002
0.4798
0.51088
0.52082
0.49596
0.44438
0.3872
0.34556
0.34618
0.40336
0.53014
0.688
0.82598
0.80112
0.47483
-0.14543
-0.63891
-0.73275
-0.4046
0.02486
0.27098
0.28713
0.26352
0.22374
0.19764
0.17091
0.13797
0.099441
0.082039
0.098819
0.13549
0.18521
0.25233
0.36482
0.4394
0.49347
0.44065
0.25295
-0.026103
-0.38036
-0.73213
-0.87321
-0.70292
-0.27533
0.21131
0.61156
0.78496
0.72281
0.45245
0.042262
-0.36172
-0.55314
-0.49596
-0.25233
0.013052
0.20323
0.29521
0.36731
0.41703
0.43816
0.43816
0.41454
0.36669
0.3207
0.29646
0.29646
0.30951
0.32443
0.34183
0.35674
0.3729
0.38906
0.39838
0.39652
0.38098
0.35674
0.33126
0.30702
0.289
0.27284
0.2629
0.25855
0.25792
0.25917
0.266
0.27719
0.29397
0.31448
0.33686
0.35736
0.3729
0.38285
0.37539
0.36172
0.35488
0.36731
0.40646
0.49534
0.60348
0.7197
0.77688
0.60099
0.14605
-0.48167
-0.83033
-0.73959
-0.33002
0.075202
0.29956
0.37725
0.40709
0.3785
0.32194
0.23182
0.13238
0.073337
0.07831
0.17464
0.2399
0.29024
0.23493
0.09074
-0.11622
-0.3325
-0.49845
-0.57241
-0.54506
-0.44935
-0.25917
-0.090118
0.091983
0.19453
0.18459
0.063393
-0.15538
-0.35923
-0.41144
-0.31386
-0.072094
0.16283
0.31945
0.38471
0.39776
0.38844
0.34804
0.30702
0.3151
0.30764
0.28341
0.23741
0.17651
0.11871
0.072716
0.060286
0.082039
0.11809
0.15103
0.1908
0.23182
0.27408
0.30764
0.3381
0.35239
0.35488
0.33499
0.29708
0.24736
0.20012
0.17091
0.16283
0.16967
0.17464
0.17837
0.18148
0.18024
0.18086
0.18148
0.18334
0.18956
0.19888
0.21007
0.22126
0.22498
0.22374
0.21939
0.2169
0.21753
0.22436
0.23306
0.24177
0.24549
0.24301
0.22996
0.21193
0.19577
0.18397
0.17961
0.1995
0.25792
0.35053
0.48291
0.6215
0.7775
0.93785
1
0.70665
-0.019267
-0.69733
-0.98633
-0.84587
-0.41144
-0.050963
0.11622
0.10566
-0.07458
-0.42822
-0.60783
-0.6532
-0.4537
-0.17091
0.058421
0.22498
0.3381
0.35861
0.32132
0.26165
0.18459
0.11809
0.087632
0.094469
0.13984
0.19018
0.21815
0.2225
0.18459
0.12119
0.067122
0.031697
0.023617
0.022374
-0.0043505
-0.054692
-0.098198
-0.11746
-0.088875
-0.026725
0.049099
0.12803
0.18707
0.23306
0.26663
0.29273
0.31448
0.33126
0.34307
0.34431
0.3381
0.32007
0.30764
0.30578
0.32194
0.35861
0.4133
0.54195
0.6358
0.68303
0.54195
0.17961
-0.40025
-0.78185
-0.89062
-0.58546
-0.19204
0.075823
0.16346
0.16905
0.094469
-0.019267
-0.14357
-0.22001
-0.25233
-0.20696
-0.099441
0.02486
0.13797
0.18459
0.20447
0.21566
0.23369
0.266
0.31759
0.40522
0.44375
0.46178
0.3816
0.17775
-0.12244
-0.50528
-0.86203
-0.99068
-0.91983
-0.6041
-0.19204
0.18148
0.34866
0.32194
0.068365
-0.34929
-0.67433
-0.69484
-0.48229
-0.14792
0.1386
0.29832
0.40522
0.44873
0.43692
0.4133
0.37663
0.34245
0.32318
0.33313
0.36544
0.40149
0.43319
0.45308
0.46551
0.46861
0.46737
0.46489
0.45867
0.45308
0.44935
0.44313
0.43567
0.42262
0.41081
0.39403
0.38222
0.37415
0.37042
0.36979
0.36917
0.36855
0.36544
0.35985
0.34991
0.34121
0.34058
0.3785
0.4481
0.52268
0.57427
0.55065
0.36793
0.037912
-0.48229
-0.95152
-0.99751
-0.93474
-0.35674
0.29273
0.69111
0.7427
0.54817
0.084525
-0.42324
-0.57365
-0.43132
-0.071473
0.24363
0.44313
0.60597
0.70541
0.70479
0.60162
0.4307
0.21318
0.019267
-0.078931
-0.052206
0.082039
0.21877
0.33934
0.45183
0.54444
0.61591
0.61032
0.53822
0.4481
0.36669
0.31635
0.29521
0.31137
0.35177
0.39714
0.43816
0.46489
0.46924
0.44935
0.41889
0.39279
0.38222
0.38347
0.39901
0.42573
0.45743
0.48912
0.51709
0.52517
0.41765
0.15413
-0.33126
-0.80796
-0.99627
-0.99441
-0.89807
-0.44065
-0.086389
0.10876
0.18459
0.23431
0.20385
0.076445
-0.11249
-0.31324
-0.48042
-0.56308
-0.53884
-0.40025
-0.2225
-0.058421
0.086389
0.25047
0.34804
0.40522
0.33748
0.19142
0.017402
-0.13797
-0.22374
-0.23431
-0.20696
-0.13673
-0.06215
0.031075
0.068987
0.096955
0.11746
0.13487
0.12741
0.097576
0.081417
0.10876
0.1734
0.24984
0.33126
0.38658
0.41765
0.42324
0.41144
0.4133
0.42449
0.42822
0.42324
0.4133
0.39714
0.39341
0.41081
0.4537
0.51025
0.54444
0.5028
0.3468
0.042884
-0.40273
-0.89062
-0.99441
-0.91423
-0.42014
0.15786
0.54692
0.72219
0.6619
0.39528
-0.04972
-0.54755
-0.7458
-0.67371
-0.31386
0.059664
0.3642
0.53263
0.62896
0.57862
0.45059
0.27408
0.10441
-0.0099441
-0.027968
0.034804
0.18583
0.32753
0.46364
0.57054
0.65382
0.71473
0.72343
0.67371
0.59727
0.49223
0.37912
0.28651
0.24177
0.2399
0.26973
0.30081
0.34307
0.41516
0.46302
0.46551
0.40273
0.23493
-0.0080796
-0.30889
-0.61902
-0.84462
-0.89807
-0.70976
-0.32132
0.086389
0.41392
0.54692
0.51833
0.31572
-0.007458
-0.34307
-0.52517
-0.45743
-0.2138
0.07458
0.27533
0.39403
0.45245
0.48104
0.46861
0.45991
0.45743
0.49907
0.50093
0.49223
0.45743
0.40336
0.35985
0.33313
0.34058
0.37352
0.41144
0.43567
0.44935
0.45743
0.46116
0.46737
0.46551
0.45432
0.42884
0.41392
0.40957
0.41641
0.41516
0.41641
0.42324
0.43567
0.45681
0.4363
0.42014
0.38222
0.2312
-0.054071
-0.53387
-0.93971
-0.98757
-0.74145
-0.22312
0.25917
0.55252
0.65631
0.56184
0.28465
-0.16346
-0.67495
-0.9074
-0.84338
-0.50839
-0.133
0.18956
0.37663
0.47607
0.39341
0.18645
-0.066501
-0.28776
-0.41703
-0.42884
-0.36917
-0.27222
-0.17402
-0.059043
0.047234
0.14295
0.20696
0.24798
0.27595
0.30764
0.33437
0.36047
0.38595
0.41392
0.44065
0.46053
0.47483
0.4798
0.47918
0.47794
0.46924
0.45432
0.43816
0.422
0.41144
0.40522
0.40149
0.39776
0.39714
0.3959
0.39403
0.38906
0.38222
0.37415
0.36979
0.36731
0.36979
0.37477
0.38036
0.3872
0.39093
0.39155
0.39155
0.39155
0.39714
0.40522
0.4133
0.43132
0.46986
0.54817
0.65569
0.77564
0.83841
0.70168
0.30827
-0.35674
-0.83779
-0.90864
-0.51088
0.022374
0.37974
0.50715
0.52331
0.47732
0.38844
0.29646
0.21318
0.096955
-0.023617
-0.16781
-0.27035
-0.29397
-0.27968
-0.22063
-0.16656
-0.10752
-0.044127
-0.002486
0.023617
0.028589
0.031075
0.030454
0.035426
0.044127
0.059043
0.10068
0.14605
0.27284
0.36172
0.43443
0.32629
0.006215
-0.51461
-0.97452
-0.99814
-0.99254
-0.69608
-0.058421
0.30827
0.42262
0.41827
0.32629
0.18894
0.07458
-0.0080796
-0.034183
-0.011187
0.060286
0.16035
0.2573
0.35364
0.41765
0.46613
0.48664
0.48726
0.47048
0.4481
0.44997
0.47359
0.53947
0.59043
0.59851
0.50963
0.312
0.03294
-0.29086
-0.57303
-0.70851
-0.63766
-0.34058
0.036047
0.44624
0.71784
0.79801
0.66501
0.3555
0.013673
-0.21193
-0.28776
-0.26538
-0.19515
-0.11001
0.0031075
0.12679
0.19329
0.21628
0.2051
0.17154
0.13735
0.11001
0.10938
0.13611
0.18148
0.22871
0.26973
0.29584
0.30702
0.30143
0.28838
0.266
0.24922
0.24052
0.24177
0.25544
0.2747
0.29894
0.31945
0.33748
0.34991
0.35985
0.36544
0.37166
0.38036
0.39528
0.41703
0.445
0.46116
0.47172
0.48042
0.50777
0.56992
0.61964
0.6041
0.45183
0.12617
-0.39714
-0.89186
-0.98322
-0.7023
-0.10628
0.37539
0.55935
0.53947
0.42573
0.20572
-0.038533
-0.18459
-0.19577
-0.08266
0.076445
0.23431
0.34369
0.39714
0.38098
0.34618
0.33126
0.38595
0.39714
0.38533
0.33002
0.22126
0.089497
-0.03294
-0.092604
-0.073337
-0.026103
0.044748
0.12119
0.2051
0.266
0.29894
0.30827
0.25482
0.12057
-0.09074
-0.32007
-0.44065
-0.48415
-0.44686
-0.36109
-0.34742
-0.36731
-0.41081
-0.36793
-0.21193
-0.056557
0.072094
0.15413
0.20447
0.24363
0.27595
0.30329
0.32753
0.34493
0.35674
0.36917
0.38285
0.3959
0.40398
0.41019
0.41392
0.42324
0.44127
0.46426
0.48664
0.49161
0.47048
0.42635
0.36979
0.3294
0.31386
0.32567
0.3555
0.39403
0.44375
0.50218
0.57986
0.70603
0.75699
0.69981
0.32194
-0.27346
-0.83592
-0.98943
-0.81044
-0.32753
0.045991
0.23741
0.22871
0.18645
0.098819
-0.035426
-0.18583
-0.33126
-0.42076
-0.4133
-0.33934
-0.23493
-0.11746
0.0080796
0.17154
0.28216
0.35674
0.35177
0.28092
0.17091
0.042262
-0.059043
-0.12492
-0.14916
-0.096333
0.006215
0.11684
0.17961
0.16532
0.095712
-0.0055935
-0.18024
-0.43692
-0.69298
-0.76818
-0.57116
-0.11063
0.34058
0.6793
0.77564
0.66066
0.40833
0.11622
-0.08266
-0.10317
-0.024239
0.068365
0.12368
0.15538
0.20137
0.28092
0.32256
0.35053
0.35426
0.33748
0.31262
0.28092
0.26476
0.26041
0.26725
0.28838
0.3151
0.34929
0.38471
0.43008
0.50218
0.56246
0.57303
0.50404
0.30578
0.0080796
-0.36731
-0.73835
-0.91858
-0.82287
-0.51398
-0.080174
0.28341
0.50777
0.58359
0.5376
0.38906
0.22374
0.091983
0.016781
0.051585
0.19702
0.40771
0.58297
0.71659
0.78434
0.8036
0.77812
0.66439
0.53201
0.41889
0.35923
0.34991
0.38285
0.43816
0.50715
0.56868
0.65134
0.68925
0.68428
0.59105
0.35799
0.0055935
-0.44748
-0.87819
-0.98508
-0.81231
-0.3959
0.004972
0.30205
0.39528
0.36234
0.23431
0.098819
0.027968
-0.0006215
0.0093226
0.0578
0.12679
0.19391
0.24549
0.28589
0.3207
0.35799
0.38285
0.40771
0.42884
0.44748
0.47234
0.49037
0.52206
0.55811
0.61156
0.62088
0.57862
0.44562
0.2082
-0.13673
-0.55749
-0.87073
-0.89248
-0.57613
-0.041019
0.43878
0.79677
0.88875
0.77191
0.41392
-0.077688
-0.4624
-0.53698
-0.35674
-0.026725
0.22623
0.38347
0.43754
0.41081
0.32505
0.22188
0.14419
0.085768
0.045991
0.025482
0.040398
0.072716
0.11436
0.13922
0.16035
0.17091
0.19702
0.23244
0.26973
0.31013
0.34183
0.36979
0.39466
0.41765
0.44127
0.46053
0.46737
0.45556
0.43008
0.39155
0.35177
0.31386
0.28962
0.2747
0.26973
0.26725
0.27284
0.30143
0.34866
0.40771
0.48726
0.54382
0.52082
0.39466
0.077067
-0.43008
-0.90491
-0.99192
-0.82101
-0.30578
0.11187
0.30516
0.3325
0.29832
0.22063
0.098198
-0.043505
-0.18334
-0.26103
-0.25233
-0.18521
-0.097576
-0.010566
0.062772
0.12679
0.1734
0.20323
0.22188
0.22996
0.23058
0.23369
0.23555
0.25047
0.26973
0.30205
0.32815
0.35115
0.35799
0.35426
0.34991
0.35488
0.37228
0.41019
0.44251
0.49161
0.58608
0.64264
0.68925
0.53263
0.14667
-0.4972
-0.90988
-0.97328
-0.67557
-0.16346
0.17775
0.41019
0.49534
0.40895
0.20696
-0.066501
-0.33064
-0.4624
-0.49658
-0.40584
-0.28776
-0.1243
0.07458
0.26352
0.40646
0.45059
0.41579
0.31075
0.18956
0.092604
0.060907
0.087011
0.16594
0.27408
0.38409
0.45929
0.49037
0.5202
0.57178
0.61591
0.6215
0.57489
0.51212
0.45805
0.41081
0.36109
0.31075
0.25792
0.21939
0.19204
0.18645
0.21193
0.25606
0.32691
0.36544
0.37601
0.33313
0.24177
0.096955
-0.14419
-0.44127
-0.7427
-0.93847
-0.97887
-0.75202
-0.37228
0.10193
0.44624
0.58297
0.56805
0.41144
0.2169
0.03729
-0.075202
-0.10317
-0.067122
0.019888
0.10938
0.17961
0.21753
0.23182
0.2486
0.27098
0.28713
0.29397
0.29459
0.2977
0.30827
0.32691
0.35239
0.39093
0.43443
0.48353
0.52704
0.54444
0.56681
0.62585
0.64077
0.60721
0.37974
-0.052828
-0.62772
-0.94717
-0.95152
-0.59105
-0.11374
0.22996
0.44873
0.50093
0.38098
0.095712
-0.30267
-0.65817
-0.78185
-0.64201
-0.33126
-0.010566
0.21131
0.34556
0.39838
0.3785
0.33872
0.29149
0.25171
0.22498
0.22685
0.25233
0.28838
0.33375
0.38098
0.41641
0.44251
0.4481
0.44748
0.44002
0.41889
0.40149
0.37725
0.3555
0.3207
0.27657
0.22188
0.17713
0.15103
0.14978
0.1821
0.23306
0.2977
0.36047
0.39279
0.40522
0.36607
0.26165
0.041019
-0.32815
-0.77626
-0.91361
-0.7831
-0.29832
0.16532
0.42014
0.44313
0.31572
0.11995
-0.036047
-0.12306
-0.14605
-0.16781
-0.16594
-0.10503
-0.023617
0.073337
0.14481
0.18272
0.2138
0.23182
0.24549
0.25544
0.266
0.2803
0.29273
0.30392
0.3064
0.30516
0.30205
0.30019
0.30516
0.30827
0.312
0.31386
0.312
0.30889
0.30578
0.30392
0.31386
0.34183
0.38347
0.43195
0.46302
0.46861
0.44624
0.41454
0.39279
0.3959
0.43878
0.53325
0.65631
0.77502
0.81479
0.62585
0.097576
-0.53014
-0.86513
-0.74643
-0.28713
0.14232
0.3294
0.3959
0.38222
0.33934
0.28838
0.2138
0.14792
0.099441
0.09074
0.085146
0.087011
0.11125
0.15538
0.21628
0.2747
0.2977
0.29211
0.24052
0.17278
0.11374
0.073959
0.047856
0.024239
-0.016781
-0.070851
-0.11249
-0.12057
-0.079553
0.001243
0.10068
0.18272
0.21069
0.1908
0.14419
0.10752
0.073959
0.035426
-0.014916
-0.068987
-0.10938
-0.12617
-0.1156
-0.08266
-0.042262
-0.0043505
0.016781
0.0031075
-0.034804
-0.093847
-0.156
-0.21193
-0.27346
-0.32443
-0.32629
-0.23058
0
0.22809
0.41268
0.38906
0.12989
-0.22623
-0.45059
-0.41827
-0.16035
0.12368
0.28465
0.37042
0.39341
0.38968
0.35426
0.28589
0.20447
0.13114
0.083903
0.073337
0.12119
0.19826
0.27781
0.32878
0.34369
0.29459
0.2051
0.10255
0.027968
0.018645
0.049099
0.085146
0.13238
0.17837
0.25357
0.2977
0.3325
0.33499
0.30454
0.23306
0.15538
0.080174
0.047856
0.04972
0.07831
0.13922
0.20634
0.28527
0.33686
0.38036
0.38222
0.37787
0.36109
0.3294
0.2977
0.28092
0.29335
0.33872
0.38533
0.40895
0.40336
0.39217
0.3785
0.37539
0.37974
0.40584
0.46053
0.6128
0.75823
0.86451
0.734
0.16035
-0.46613
-0.84897
-0.77315
-0.33934
0.096955
0.37352
0.52268
0.52766
0.45059
0.32256
0.14357
-0.058421
-0.24922
-0.30827
-0.26227
-0.19391
-0.133
-0.13797
-0.13487
-0.14543
-0.2169
-0.30329
-0.36979
-0.3785
-0.31137
-0.22809
-0.12306
-0.036669
0.034804
0.083903
0.11436
0.14481
0.19204
0.25482
0.3238
0.38347
0.43008
0.46551
0.49472
0.51088
0.51398
0.51088
0.50093
0.48912
0.46799
0.44127
0.42635
0.422
0.43257
0.43878
0.43878
0.42884
0.42822
0.42324
0.42014
0.38409
0.34369
0.29024
0.13673
-0.14419
-0.60721
-0.97514
-0.99565
-0.86576
-0.31945
0.22312
0.55252
0.7253
0.73835
0.60907
0.35364
0.044748
-0.24114
-0.32505
-0.2486
-0.077688
0.036047
0.09509
0.16035
0.2082
0.22809
0.18521
0.086389
-0.021131
-0.12741
-0.16656
-0.156
-0.095712
-0.019267
0.026725
0.047856
0.006215
-0.032318
-0.022996
0.065879
0.14792
0.19577
0.1734
0.075202
-0.085768
-0.30019
-0.50653
-0.58297
-0.51274
-0.34183
-0.1504
0.0080796
0.16905
0.289
0.36544
0.37974
0.37539
0.3729
0.38285
0.40087
0.42324
0.44562
0.46861
0.49037
0.50653
0.51958
0.52952
0.53636
0.54195
0.54755
0.54941
0.54755
0.54568
0.55127
0.56433
0.57924
0.58608
0.56743
0.54444
0.51398
0.48975
0.46551
0.43878
0.43692
0.46364
0.50839
0.59789
0.60099
0.49472
0.10876
-0.45245
-0.93847
-0.99441
-0.84587
-0.32815
0.04537
0.21442
0.24674
0.25357
0.22126
0.17278
0.12989
0.10876
0.11063
0.12741
0.15103
0.17091
0.18956
0.20696
0.22126
0.23741
0.25792
0.28216
0.30392
0.31572
0.31883
0.32505
0.33748
0.35861
0.38471
0.40833
0.43132
0.45121
0.46116
0.46302
0.45805
0.47669
0.49969
0.53511
0.54692
0.52517
0.46302
0.31759
0.04972
-0.37415
-0.81417
-0.9161
-0.65071
-0.12554
0.312
0.48539
0.45929
0.31572
0.09509
-0.1647
-0.36172
-0.44748
-0.40336
-0.2486
-0.077067
0.098819
0.19204
0.21442
0.18272
0.13114
0.08266
0.055935
0.055935
0.078931
0.097576
0.11187
0.12803
0.14854
0.17154
0.19453
0.22747
0.25979
0.29024
0.31448
0.32878
0.33623
0.33934
0.34058
0.34058
0.34183
0.33996
0.33623
0.32878
0.32256
0.31697
0.32256
0.36109
0.41952
0.4798
0.50839
0.46924
0.36917
0.17837
-0.13487
-0.59229
-0.97949
-0.99814
-0.94655
-0.44189
0.26911
0.58981
0.60597
0.40273
-0.075202
-0.43195
-0.54257
-0.31137
0.017402
0.24114
0.36979
0.445
0.43443
0.35985
0.26663
0.19577
0.16346
0.14667
0.14357
0.12679
0.10379
0.078931
0.063393
0.060907
0.073337
0.10131
0.14046
0.17713
0.20323
0.21566
0.21504
0.21007
0.20385
0.20323
0.2082
0.21877
0.23431
0.24798
0.2629
0.27408
0.28527
0.29149
0.29273
0.29211
0.28776
0.28403
0.27968
0.27222
0.26725
0.26103
0.2573
0.2542
0.24984
0.24736
0.24239
0.23866
0.23741
0.23741
0.24612
0.25792
0.27222
0.28465
0.29086
0.29956
0.30702
0.32132
0.34058
0.36731
0.39963
0.4307
0.45059
0.445
0.422
0.38906
0.37415
0.39155
0.46737
0.61653
0.75016
0.80174
0.51771
-0.11187
-0.65817
-0.83406
-0.5693
-0.11063
0.12492
0.1908
0.17216
0.10131
0.021753
-0.042884
-0.1156
-0.22188
-0.39963
-0.55749
-0.66563
-0.68863
-0.65196
-0.57924
-0.45805
-0.30764
-0.16594
-0.010566
0.10193
0.17464
0.18583
0.14916
0.098198
0.067122
0.068365
0.092604
0.10628
0.096333
0.065879
0.03294
0.024239
0.063393
0.14667
0.24177
0.31386
0.33623
0.32194
0.28962
0.25792
0.23679
0.2312
0.23866
0.26165
0.28341
0.31137
0.32505
0.34866
0.36482
0.38471
0.39279
0.40087
0.40149
0.38906
0.34742
0.19702
-0.077688
-0.4941
-0.92915
-0.99689
-0.96457
-0.52517
0.0043505
0.37725
0.53822
0.5463
0.35301
-0.013673
-0.44935
-0.77191
-0.85333
-0.6706
-0.36296
-0.02051
0.23617
0.41454
0.49658
0.49347
0.45867
0.43443
0.39155
0.35799
0.32318
0.29708
0.28278
0.27035
0.26725
0.26849
0.2747
0.27968
0.28776
0.30329
0.32753
0.36731
0.42138
0.47794
0.50839
0.51212
0.48788
0.45245
0.40522
0.37601
0.3872
0.36917
0.35301
0.27533
0.10193
-0.17216
-0.55625
-0.89994
-0.98198
-0.76321
-0.33437
0.16594
0.52206
0.72592
0.74767
0.58981
0.25979
-0.12181
-0.38409
-0.44251
-0.28216
-0.050963
0.17402
0.34183
0.42262
0.37601
0.26165
0.10814
0.0087011
-0.051585
-0.013052
0.03729
0.14357
0.21877
0.26041
0.27781
0.27346
0.26663
0.27346
0.28092
0.27719
0.25792
0.25233
0.2629
0.28589
0.31324
0.33561
0.35985
0.38533
0.40957
0.4307
0.44438
0.45556
0.46178
0.46737
0.46986
0.47296
0.47545
0.47607
0.47918
0.48167
0.49285
0.50528
0.5202
0.54071
0.55687
0.55998
0.54568
0.50839
0.46178
0.41952
0.38782
0.37415
0.37601
0.39466
0.45245
0.51336
0.58546
0.59291
0.48477
0.17216
-0.35177
-0.86389
-0.98881
-0.77439
-0.21939
0.25668
0.44065
0.41827
0.25606
0.052828
-0.15103
-0.27968
-0.3064
-0.26663
-0.15911
-0.042262
0.060907
0.10628
0.12989
0.16346
0.21007
0.24736
0.2542
0.26414
0.32567
0.37166
0.41081
0.36917
0.24922
0.084525
-0.091361
-0.20323
-0.25295
-0.24674
-0.21628
-0.18583
-0.14543
-0.14792
-0.2051
-0.30578
-0.44562
-0.59043
-0.68676
-0.66439
-0.50528
-0.28278
0.003729
0.23058
0.3959
0.46551
0.4394
0.37912
0.31324
0.2803
0.28713
0.30392
0.32567
0.3468
0.36607
0.38285
0.39466
0.39838
0.39714
0.39403
0.3872
0.38533
0.38347
0.37912
0.37974
0.37539
0.37166
0.36917
0.36793
0.36544
0.36482
0.36669
0.36607
0.36793
0.37042
0.37166
0.3872
0.41268
0.4481
0.48415
0.5202
0.53014
0.51461
0.47359
0.42822
0.40087
0.3903
0.40833
0.45867
0.54692
0.65755
0.72654
0.6793
0.32815
-0.25295
-0.70541
-0.75326
-0.4133
0.067122
0.35239
0.43443
0.34183
0.12306
-0.10255
-0.28838
-0.41703
-0.47359
-0.44873
-0.37042
-0.2716
-0.21504
-0.17402
-0.11622
-0.055314
-0.014295
-0.0055935
-0.031075
-0.068365
-0.088875
-0.077067
-0.027346
0.040398
0.11125
0.17713
0.24052
0.30578
0.36482
0.40957
0.43692
0.45183
0.4537
0.45308
0.44935
0.43319
0.42573
0.41019
0.39279
0.36793
0.34431
0.33064
0.33748
0.36234
0.3872
0.40087
0.39776
0.36607
0.31262
0.1964
0.0080796
-0.27906
-0.57613
-0.84027
-0.9509
-0.85395
-0.57303
-0.19329
0.15103
0.38658
0.53139
0.58484
0.57303
0.49534
0.4046
0.32753
0.28341
0.26787
0.2716
0.28527
0.30019
0.31448
0.32567
0.33313
0.33437
0.33313
0.3325
0.33748
0.35177
0.36669
0.38471
0.40273
0.41641
0.42014
0.40709
0.38844
0.36731
0.3555
0.33561
0.3151
0.30267
0.3238
0.3785
0.43505
0.48477
0.41454
0.15413
-0.32318
-0.81106
-0.98508
-0.8266
-0.41703
-0.013052
0.20634
0.21566
0.088875
-0.12057
-0.31821
-0.43692
-0.46924
-0.42884
-0.33002
-0.2051
-0.082039
0.026103
0.12803
0.22063
0.31697
0.35799
0.36482
0.31013
0.2225
0.11871
0.022374
-0.011187
-0.0018645
0.03729
0.084525
0.12989
0.17464
0.2225
0.25482
0.28092
0.28962
0.28403
0.27284
0.27533
0.29584
0.33126
0.3729
0.41952
0.45867
0.4798
0.47856
0.46053
0.43443
0.40771
0.38222
0.3642
0.36855
0.3903
0.42014
0.42822
0.44438
0.42262
0.32256
0.079553
-0.35426
-0.7688
-0.98571
-0.89497
-0.5376
-0.097576
0.18024
0.31759
0.36917
0.37539
0.3207
0.2169
0.10317
-0.006215
-0.10068
-0.16097
-0.14419
-0.070851
0.026103
0.12679
0.20199
0.27284
0.29832
0.28092
0.21131
0.12554
0.028589
-0.050963
-0.10628
-0.14232
-0.17837
-0.20137
-0.18521
-0.13176
-0.050963
0.014295
0.039155
0.031697
0.0031075
-0.016781
-0.026103
-0.016781
0.0087011
0.054071
0.12679
0.21318
0.30081
0.36109
0.4046
0.44002
0.4885
0.50528
0.50715
0.4711
0.44935
0.43754
0.4046
0.35861
0.27284
0.11187
-0.13238
-0.3555
-0.4307
-0.32505
-0.1243
0.023617
0.16967
0.25171
0.27595
0.17837
-0.02051
-0.28962
-0.59229
-0.63393
-0.44562
-0.050342
0.35674
0.63021
0.78123
0.84525
0.77129
0.60659
0.44997
0.3325
0.26849
0.24674
0.24363
0.26165
0.28465
0.32629
0.36731
0.39963
0.42138
0.43381
0.44686
0.46551
0.49099
0.50466
0.51336
0.51461
0.51523
0.53822
0.56743
0.57054
0.55438
0.50777
0.41952
0.29273
0.13549
0.015538
-0.027346
-0.0099441
0.030454
0.053449
0.053449
0.045991
0.029211
0.0087011
-0.026103
-0.11622
-0.289
-0.52828
-0.7918
-0.94282
-0.90491
-0.64636
-0.27719
0.09074
0.37477
0.55873
0.68055
0.63393
0.38347
-0.045991
-0.4481
-0.61715
-0.57986
-0.42697
-0.26663
-0.10131
0.062772
0.17589
0.22809
0.24798
0.26165
0.27098
0.29024
0.32194
0.35799
0.3959
0.42884
0.45494
0.47421
0.48912
0.4972
0.5028
0.50342
0.50155
0.49782
0.49285
0.48602
0.48104
0.47732
0.47607
0.47421
0.47296
0.46924
0.46613
0.46053
0.45618
0.4537
0.45556
0.46613
0.48104
0.49658
0.51088
0.51025
0.52206
0.5463
0.5693
0.57489
0.51336
0.41206
0.23306
-0.053449
-0.51274
-0.95836
-0.99751
-0.90553
-0.29086
0.35923
0.73648
0.8757
0.77812
0.3872
-0.15848
-0.42759
-0.40957
-0.091361
0.24363
0.46861
0.60907
0.66998
0.6184
0.52393
0.4394
0.37415
0.33064
0.30516
0.28713
0.26911
0.23804
0.20945
0.18272
0.15973
0.14108
0.11995
0.10876
0.11622
0.13114
0.15538
0.16283
0.17402
0.18832
0.24612
0.34369
0.40833
0.44002
0.37974
0.23866
0.01243
-0.28776
-0.59105
-0.77874
-0.81168
-0.63393
-0.34431
0.011187
0.34121
0.53947
0.60162
0.48664
0.27781
0.068987
-0.07458
-0.07831
0.034804
0.19018
0.33002
0.45929
0.56433
0.63518
0.62585
0.56557
0.50653
0.47732
0.46737
0.46924
0.48664
0.50466
0.51709
0.51274
0.49347
0.46302
0.43008
0.39776
0.36979
0.34369
0.32753
0.3207
0.33126
0.34493
0.35115
0.33996
0.29708
0.23244
0.16221
0.12741
0.15911
0.2573
0.37539
0.46986
0.50031
0.46799
0.29956
-0.052828
-0.60348
-0.97949
-0.99254
-0.77253
-0.23866
0.19204
0.44686
0.54692
0.54817
0.40833
0.20012
-0.0080796
-0.16408
-0.25233
-0.2573
-0.17154
-0.043505
0.09509
0.17651
0.18832
0.16035
0.13238
0.10255
0.075823
0.050963
0.028589
0.03729
0.072094
0.12306
0.17899
0.24674
0.31013
0.36482
0.40646
0.43319
0.44686
0.45245
0.45308
0.45432
0.45743
0.46489
0.47483
0.48788
0.49969
0.50777
0.50777
0.49223
0.45991
0.40646
0.34556
0.29956
0.2716
0.26911
0.27657
0.28651
0.30267
0.33872
0.36979
0.37477
0.32505
0.15538
-0.12803
-0.49845
-0.83841
-0.98695
-0.98011
-0.75948
-0.35985
0.046613
0.29211
0.35239
0.25979
0.031075
-0.21318
-0.40957
-0.44748
-0.36917
-0.18583
0.027346
0.21939
0.34369
0.38471
0.38098
0.37477
0.37228
0.37415
0.37228
0.3642
0.34991
0.31075
0.26973
0.22001
0.19453
0.17899
0.16097
0.12741
0.10317
0.10193
0.12803
0.15165
0.15538
0.14108
0.12492
0.13922
0.1386
0.13176
0.067122
-0.13176
-0.45929
-0.87259
-0.99627
-0.977
-0.64015
-0.097576
0.30392
0.54692
0.6762
0.69671
0.59975
0.45991
0.33561
0.26476
0.25917
0.29584
0.35364
0.41081
0.46489
0.50653
0.52766
0.52393
0.49347
0.445
0.39714
0.36109
0.34058
0.33188
0.3325
0.34369
0.37663
0.41641
0.44873
0.45494
0.42884
0.3468
0.19826
-0.02051
-0.29894
-0.53822
-0.67185
-0.63953
-0.52517
-0.35364
-0.17589
-0.046613
0.024239
0.024239
-0.084525
-0.25357
-0.36544
-0.39466
-0.28216
-0.12554
0.019267
0.13984
0.22126
0.266
0.26725
0.25233
0.22747
0.19204
0.14792
0.10193
0.063393
0.03729
0.026725
0.03294
0.055314
0.096333
0.15786
0.24052
0.32256
0.38409
0.40149
0.3785
0.33064
0.28589
0.26352
0.21442
0.1504
0.044127
-0.15227
-0.41889
-0.77067
-0.97887
-0.93226
-0.57489
-0.09509
0.30889
0.59105
0.7514
0.81666
0.75699
0.57862
0.34307
0.12741
-0.004972
0.04972
0.23369
0.43195
0.55998
0.6532
0.72219
0.78496
0.77999
0.69546
0.59727
0.53076
0.46737
0.40273
0.32007
0.22374
0.12554
0.053449
0.021753
0.030454
0.056557
0.058421
0.019888
-0.044748
-0.11125
-0.15724
-0.17775
-0.20323
-0.23804
-0.26476
-0.27657
-0.21131
-0.10938
0.04972
0.20758
0.34742
0.44873
0.53076
0.56122
0.5606
0.47607
0.1964
-0.24798
-0.82101
-0.99876
-0.99441
-0.76818
-0.12554
0.37228
0.61467
0.71535
0.65942
0.40273
0.027346
-0.34618
-0.55935
-0.48602
-0.2312
0.089497
0.34307
0.4885
0.55935
0.55314
0.48539
0.40336
0.35053
0.31075
0.30578
0.31572
0.34245
0.37042
0.4133
0.45743
0.49596
0.51212
0.52517
0.53076
0.53139
0.51958
0.48539
0.45618
0.42946
0.41516
0.41703
0.42511
0.43008
0.42822
0.42449
0.42014
0.41889
0.41889
0.41703
0.40957
0.39217
0.36234
0.32318
0.28651
0.25917
0.2542
0.25668
0.25171
0.23866
0.24114
0.25295
0.26973
0.27533
0.22933
0.10006
-0.12244
-0.45867
-0.76942
-0.98073
-0.99192
-0.96022
-0.67993
-0.34121
-0.060907
0.11809
0.1908
0.1647
0.024239
-0.17775
-0.3151
-0.33686
-0.22933
-0.067122
0.096955
0.2312
0.32194
0.37042
0.39217
0.40273
0.40957
0.41392
0.41765
0.41889
0.42076
0.42262
0.42511
0.43381
0.44375
0.46426
0.48477
0.47732
0.44686
0.38844
0.34556
0.312
0.28962
0.25917
0.20323
0.11311
0.007458
-0.11125
-0.1995
-0.30889
-0.42324
-0.52206
-0.61405
-0.68303
-0.65755
-0.5028
-0.19888
0.1156
0.35736
0.47669
0.50093
0.46551
0.3903
0.30951
0.26103
0.24425
0.26103
0.29708
0.33934
0.37104
0.38471
0.37912
0.34991
0.30392
0.25855
0.22747
0.21007
0.19702
0.18086
0.13984
0.098198
0.031075
-0.133
-0.3903
-0.7197
-0.89745
-0.77937
-0.40025
0.063393
0.40709
0.62523
0.72157
0.77191
0.74518
0.64388
0.50715
0.38222
0.30827
0.29459
0.3151
0.35301
0.39403
0.43381
0.45867
0.47234
0.47794
0.48167
0.49472
0.51523
0.53325
0.54195
0.52766
0.49285
0.44935
0.40522
0.38098
0.37228
0.37725
0.40398
0.45556
0.50218
0.52393
0.48975
0.41952
0.23741
-0.17278
-0.70479
-0.99378
-0.99503
-0.88378
-0.41081
-0.091361
0.030454
0.059664
0.042262
-0.082039
-0.26787
-0.41206
-0.47732
-0.4394
-0.34369
-0.23244
-0.11125
0.0055935
0.11374
0.20634
0.27781
0.33686
0.38285
0.41765
0.44624
0.46799
0.48477
0.49472
0.49347
0.47172
0.43505
0.38844
0.34742
0.32256
0.3151
0.31697
0.32629
0.34369
0.36296
0.37725
0.37974
0.37912
0.37601
0.3555
0.3207
0.24674
0.14978
0.025482
-0.10379
-0.23928
-0.3959
-0.54692
-0.70541
-0.76072
-0.6532
-0.41516
-0.1243
0.13673
0.31759
0.4537
0.53511
0.55003
0.51585
0.44935
0.38533
0.32753
0.28092
0.25171
0.24612
0.26849
0.31262
0.36172
0.39714
0.40522
0.39341
0.36917
0.34431
0.32691
0.31759
0.30827
0.30764
0.29894
0.31448
0.35861
0.37415
0.36047
0.25668
-0.018024
-0.45556
-0.94842
-1
-0.99627
-0.80236
-0.10131
0.38036
0.58546
0.68738
0.67122
0.53574
0.32443
0.11063
-0.052206
-0.11374
-0.039155
0.133
0.31821
0.44624
0.48353
0.53014
0.56681
0.59416
0.53574
0.44002
0.37352
0.35177
0.35861
0.37104
0.3903
0.43195
0.4711
0.47732
0.44375
0.33623
0.13487
-0.14543
-0.48104
-0.80858
-0.98322
-0.94966
-0.67122
-0.27657
0.047856
0.2716
0.41952
0.51523
0.54009
0.49596
0.43195
0.35301
0.28403
0.22871
0.19764
0.1908
0.20572
0.23058
0.26103
0.29024
0.31572
0.33126
0.33996
0.33623
0.32443
0.30329
0.29273
0.29335
0.30702
0.3294
0.35426
0.37912
0.40336
0.41392
0.39901
0.36172
0.31137
0.26973
0.23928
0.22996
0.24177
0.27098
0.3325
0.40273
0.44935
0.44686
0.31945
0.031697
-0.37228
-0.75016
-0.94096
-0.8092
-0.4307
-0.0099441
0.30516
0.40522
0.37166
0.18024
-0.038533
-0.23431
-0.35053
-0.37601
-0.35674
-0.26725
-0.15289
-0.029832
0.047234
0.093847
0.14046
0.18397
0.2169
0.24363
0.26538
0.29024
0.31572
0.34307
0.37104
0.39776
0.41952
0.44002
0.44686
0.43567
0.41268
0.37725
0.34556
0.31821
0.30019
0.29646
0.30019
0.31572
0.33748
0.36917
0.39714
0.41703
0.41144
0.35177
0.23804
0.062772
-0.17775
-0.4537
-0.70479
-0.81106
-0.75575
-0.53636
-0.25295
-0.013052
0.1504
0.23244
0.29024
0.34058
0.35177
0.33686
0.29397
0.24487
0.2082
0.17837
0.15662
0.14108
0.14046
0.1647
0.20012
0.2399
0.28403
0.32443
0.36482
0.40211
0.43381
0.46053
0.48539
0.51025
0.53139
0.54195
0.53139
0.4941
0.44127
0.39093
0.35115
0.32629
0.31635
0.32318
0.35364
0.40522
0.43443
0.41889
0.32318
0.11187
-0.21131
-0.5637
-0.81231
-0.88005
-0.75699
-0.52393
-0.26227
-0.0087011
0.11125
0.094469
-0.065879
-0.26414
-0.32815
-0.24487
-0.053449
0.10628
0.20447
0.27968
0.3064
0.30578
0.26663
0.23679
0.22498
0.22374
0.22436
0.22063
0.21442
0.20634
0.20261
0.20945
0.23306
0.26476
0.29956
0.32443
0.34431
0.35177
0.34804
0.33748
0.31386
0.28962
0.266
0.24612
0.23804
0.24612
0.26663
0.29521
0.32505
0.33748
0.3294
0.29397
0.23058
0.14605
0.034804
-0.13176
-0.34058
-0.58546
-0.78185
-0.90305
-0.82225
-0.57862
-0.29646
-0.050963
0.12057
0.25295
0.34804
0.36544
0.32318
0.26725
0.23617
0.22436
0.22436
0.24549
0.28216
0.32505
0.35861
0.37912
0.38906
0.3959
0.40895
0.42697
0.4481
0.46613
0.47856
0.48291
0.4711
0.44313
0.3959
0.34991
0.3064
0.27098
0.25233
0.26352
0.29149
0.35239
0.38098
0.37166
0.27533
0.083282
-0.20945
-0.51088
-0.72219
-0.78558
-0.68055
-0.50093
-0.28341
-0.064636
0.082039
0.12492
0.10068
0.016781
-0.085768
-0.22436
-0.33064
-0.36047
-0.30143
-0.2082
-0.11436
-0.007458
0.11995
0.23306
0.30578
0.34307
0.36917
0.39217
0.41392
0.43754
0.45991
0.47794
0.49161
0.4941
0.48726
0.47296
0.4537
0.4307
0.40149
0.37352
0.35923
0.36607
0.39093
0.42946
0.45432
0.46675
0.46861
0.45681
0.42387
0.35612
0.2542
0.12492
-0.030454
-0.21939
-0.43505
-0.60037
-0.69422
-0.69298
-0.58235
-0.41268
-0.23369
-0.064636
0.064636
0.14978
0.21753
0.2542
0.26911
0.26663
0.25171
0.24612
0.24798
0.25544
0.26911
0.28465
0.30516
0.32567
0.33623
0.33748
0.32815
0.3294
0.3468
0.38285
0.4307
0.48726
0.54319
0.58856
0.61032
0.60224
0.56743
0.51958
0.47856
0.44438
0.42635
0.42324
0.44002
0.48104
0.52268
0.5376
0.49845
0.38409
0.12679
-0.24922
-0.61778
-0.8353
-0.82039
-0.59727
-0.27098
0.036047
0.23431
0.3325
0.35426
0.36669
0.34058
-0.41144
