0.20917
0.12512
-0.067813
-0.26266
-0.42502
-0.6084
-0.55492
-0.48424
-0.1958
0.11175
0.39446
0.60076
0.69436
0.67908
0.59885
0.52627
0.47469
0.45559
0.47087
0.51098
0.53964
0.57211
0.5893
0.59885
0.59885
0.59121
0.55492
0.49952
0.40974
0.34097
0.26648
0.23018
0.23591
0.2703
0.31996
0.37345
0.40592
0.41929
0.41547
0.40592
0.39064
0.38109
0.36963
0.36581
0.36199
0.37345
0.36963
0.35626
0.32378
0.28176
0.24737
0.21108
0.19389
0.18434
0.16523
0.15186
0.13658
0.14804
0.1595
0.13085
0.073543
-0.071633
-0.27985
-0.44222
-0.53009
-0.55683
-0.48615
-0.41738
-0.2894
-0.14231
0.023878
0.19389
0.3276
0.3639
0.30086
0.1958
0.11366
0.052531
0.035339
0.062082
0.14613
0.14613
0.23209
0.2703
0.23973
0.21299
0.19007
0.15568
0.10411
0.058262
0.050621
0.086915
0.15186
0.22636
0.27985
0.32951
0.36199
0.37536
0.37918
0.37536
0.37345
0.37345
0.37536
0.383
0.383
0.38873
0.39064
0.38682
0.37345
0.34862
0.31996
0.2894
0.2703
0.25883
0.23591
0.22254
0.21108
0.22636
0.23973
0.22827
0.16714
0.056351
-0.13849
-0.32951
-0.43649
-0.50143
-0.4766
-0.4384
-0.36772
-0.23782
-0.10984
0.0066858
0.083095
0.13085
0.17479
0.20726
0.24546
0.28367
0.32378
0.36008
0.38682
0.40974
0.43649
0.45177
0.44413
0.41356
0.35053
0.23209
0.10793
-0.037249
-0.11366
-0.086915
0.012416
0.11557
0.18052
0.22254
0.24546
0.27412
0.30659
0.32569
0.35435
0.38109
0.39828
0.40974
0.41165
0.42311
0.43266
0.43649
0.42884
0.42693
0.40783
0.39637
0.37918
0.36008
0.33906
0.32378
0.30468
0.29131
0.28176
0.28176
0.27794
0.27221
0.25692
0.2531
0.23782
0.23018
0.23782
0.23973
0.24928
0.25501
0.26648
0.27221
0.27221
0.2703
0.27603
0.27603
0.29322
0.31232
0.32378
0.32378
0.31041
0.30086
0.30277
0.31996
0.34097
0.35435
0.31041
0.19771
0.010506
-0.16523
-0.29704
-0.32569
-0.26266
-0.17479
-0.025788
0.075454
0.19007
0.27221
0.27985
0.21872
0.11557
0.04107
-0.0066858
-0.031519
-0.020057
0.012416
0.0468
0.048711
0.035339
0.023878
0.035339
0.063992
0.085005
0.12703
0.16141
0.21872
0.22827
0.23973
0.21681
0.15759
0.090735
0.063992
0.090735
0.16141
0.24737
0.31996
0.37536
0.40592
0.43075
0.45559
0.47469
0.49761
0.49952
0.45941
0.37154
0.24355
0.10984
0.031519
0.0468
0.11366
0.18243
0.20535
0.21872
0.24355
0.27794
0.30086
0.30468
0.26074
0.20726
0.14995
0.11939
0.1213
0.15568
0.20726
0.25501
0.27794
0.30086
0.30659
0.31614
0.31996
0.32378
0.33715
0.35626
0.37536
0.39064
0.39064
0.38682
0.37918
0.36199
0.33333
0.30277
0.25692
0.21872
0.19771
0.18052
0.17479
0.17096
0.17861
0.17861
0.16905
0.1213
0.012416
-0.18816
-0.41738
-0.55874
-0.63324
-0.57211
-0.45941
-0.28176
-0.035339
0.18625
0.39446
0.54346
0.63706
0.68099
0.68672
0.67526
0.63897
0.61032
0.58739
0.55874
0.54155
0.53582
0.53391
0.52627
0.50334
0.42693
0.28749
0.13658
-0.010506
-0.075454
-0.058262
0.0047755
0.071633
0.10029
0.1213
0.13849
0.16523
0.1958
0.21681
0.19962
0.16714
0.14613
0.13085
0.13276
0.1404
0.18243
0.234
0.28367
0.32187
0.34479
0.36772
0.36581
0.38109
0.37727
0.36581
0.28558
0.10984
-0.083095
-0.23018
-0.22063
-0.10984
0.0066858
0.067813
0.058262
0.063992
0.094556
0.14422
0.16332
0.13849
0.048711
-0.086915
-0.21681
-0.29322
-0.29513
-0.22254
-0.11557
-0.0028653
0.065903
0.092646
0.1022
0.11939
0.13467
0.13849
0.14422
0.16141
0.19389
0.22827
0.27221
0.3085
0.33524
0.35244
0.36008
0.36008
0.37345
0.383
0.38682
0.37918
0.3639
0.36199
0.36008
0.37345
0.36581
0.32951
0.24355
0.075454
-0.092646
-0.19771
-0.19389
-0.13467
-0.079274
-0.037249
0.023878
0.092646
0.16523
0.23209
0.29704
0.35244
0.41165
0.47469
0.54728
0.63133
0.69628
0.73257
0.72111
0.6829
0.6447
0.57402
0.46705
0.32569
0.13849
-0.050621
-0.15759
-0.13849
-0.062082
0.021968
0.050621
0.077364
0.11939
0.18625
0.25119
0.32378
0.37536
0.41929
0.45368
0.4766
0.49188
0.50334
0.51098
0.51098
0.51098
0.50525
0.48615
0.47087
0.44604
0.41929
0.39637
0.38109
0.36581
0.35817
0.3467
0.33524
0.31996
0.30277
0.29131
0.28176
0.27221
0.27412
0.27412
0.28558
0.2894
0.29895
0.29704
0.29513
0.28749
0.28749
0.28367
0.29131
0.30277
0.3085
0.32187
0.3276
0.31041
0.29322
0.2703
0.2894
0.3276
0.36199
0.35626
0.26839
0.085005
-0.13849
-0.33715
-0.50907
-0.49761
-0.42502
-0.25501
-0.056351
0.11939
0.31996
0.4212
0.45368
0.40019
0.35244
0.33524
0.37536
0.44222
0.51289
0.54919
0.54537
0.47469
0.40974
0.3639
0.35817
0.36199
0.35435
0.35053
0.35817
0.38873
0.39446
0.36199
0.26839
0.19007
0.13276
0.12512
0.15186
0.19007
0.234
0.2703
0.30086
0.33333
0.36199
0.39064
0.40783
0.4212
0.41356
0.40401
0.39637
0.37536
0.36008
0.33524
0.31996
0.29513
0.23782
0.12703
-0.0468
-0.24737
-0.40974
-0.46705
-0.43075
-0.37918
-0.29895
-0.24928
-0.18625
-0.15186
-0.13658
-0.1595
-0.19198
-0.21872
-0.20344
-0.13085
-0.029608
0.04298
0.079274
0.098376
0.12321
0.12321
0.094556
0.067813
0.052531
0.04489
0.067813
0.088825
0.12512
0.1595
0.19389
0.20726
0.20917
0.20344
0.1958
0.20344
0.21681
0.23782
0.25883
0.27985
0.30468
0.33715
0.35053
0.36963
0.37727
0.37536
0.37154
0.36581
0.36199
0.35435
0.33524
0.31614
0.29513
0.2894
0.29322
0.29513
0.3085
0.3085
0.31232
0.29704
0.2894
0.2894
0.28558
0.2894
0.28558
0.2894
0.27794
0.2703
0.26074
0.26839
0.26457
0.2531
0.25883
0.26074
0.27985
0.30086
0.31041
0.31423
0.32378
0.3276
0.32378
0.3085
0.31232
0.2894
0.27412
0.26839
0.28176
0.28558
0.29704
0.29322
0.30086
0.30086
0.30277
0.29895
0.28367
0.27412
0.26839
0.26074
0.23973
0.23209
0.21681
0.23782
0.26457
0.30659
0.3276
0.26648
0.071633
-0.20535
-0.48424
-0.61605
-0.56256
-0.39064
-0.1404
0.081184
0.24737
0.35626
0.39637
0.41165
0.38873
0.37536
0.37345
0.36963
0.35244
0.32951
0.30086
0.27794
0.25119
0.234
0.234
0.23782
0.24546
0.26266
0.22827
0.18816
0.15377
0.16141
0.1958
0.24928
0.30277
0.35053
0.383
0.41547
0.44222
0.45941
0.46514
0.41929
0.36199
0.2703
0.1958
0.16141
0.17287
0.23591
0.30659
0.36581
0.41165
0.44413
0.4575
0.46132
0.47087
0.45177
0.36008
0.22445
0.090735
0.029608
0.054441
0.11557
0.15759
0.14231
0.13658
0.14995
0.18625
0.22445
0.22827
0.1958
0.14804
0.11748
0.13658
0.16714
0.19771
0.23209
0.26457
0.30086
0.33906
0.37727
0.4021
0.43075
0.45177
0.47087
0.46705
0.45941
0.44413
0.42502
0.41356
0.40401
0.39446
0.3639
0.33142
0.3085
0.28367
0.26457
0.21681
0.086915
-0.13276
-0.34288
-0.44986
-0.44031
-0.3467
-0.21299
-0.071633
0.11939
0.31041
0.47851
0.56829
0.532
0.39637
0.22636
0.081184
0.0066858
-0.021968
0.0047755
0.058262
0.10602
0.13085
0.13658
0.16905
0.1767
0.12894
0.054441
-0.031519
-0.065903
-0.0468
0.008596
0.081184
0.16141
0.21299
0.26648
0.29704
0.31423
0.31805
0.31423
0.31805
0.32569
0.34097
0.3467
0.35053
0.34288
0.33142
0.30659
0.28176
0.28749
0.28367
0.28558
0.28367
0.27603
0.26648
0.26074
0.23591
0.15568
0.010506
-0.19007
-0.3276
-0.43075
-0.45177
-0.43649
-0.38682
-0.27221
-0.14613
-0.021968
0.086915
0.16905
0.22445
0.24546
0.26839
0.31232
0.34862
0.38109
0.4021
0.4021
0.38873
0.39064
0.39637
0.42311
0.4212
0.3639
0.19007
-0.010506
-0.13467
-0.10029
-0.00095511
0.073543
0.086915
0.085005
0.11175
0.14613
0.18434
0.20917
0.23973
0.25692
0.26266
0.24164
0.22827
0.23018
0.23973
0.2531
0.2531
0.23782
0.2149
0.20153
0.21299
0.2149
0.21299
0.20344
0.20153
0.21108
0.21681
0.18816
0.056351
-0.14804
-0.36772
-0.54728
-0.54728
-0.46132
-0.24928
-0.0028653
0.21872
0.42502
0.57784
0.64852
0.67717
0.66762
0.64852
0.62369
0.6084
0.60458
0.60649
0.61605
0.61032
0.59121
0.58166
0.56256
0.53773
0.48997
0.45559
0.43266
0.4212
0.41356
0.39446
0.35817
0.31232
0.28367
0.26457
0.20344
0.054441
-0.16905
-0.38682
-0.61796
-0.6447
-0.61223
-0.45368
-0.27985
-0.10984
0.035339
0.10411
0.088825
-0.0047755
-0.085005
-0.12321
-0.11175
-0.071633
0.00095511
0.063992
0.11748
0.14231
0.14804
0.14995
0.14231
0.13467
0.13085
0.13276
0.1404
0.15568
0.17479
0.17861
0.15568
0.13467
0.11175
0.098376
0.098376
0.094556
0.073543
0.052531
0.03916
0.079274
0.12703
0.12894
0.00095511
-0.19007
-0.38682
-0.4957
-0.47278
-0.43075
-0.32951
-0.23591
-0.12894
-0.021968
0.086915
0.1767
0.26266
0.34288
0.4212
0.48424
0.54155
0.5893
0.62751
0.64852
0.6638
0.67144
0.66762
0.65425
0.64852
0.6447
0.6447
0.63324
0.61796
0.59121
0.56256
0.53964
0.5148
0.50334
0.49952
0.50716
0.49952
0.46323
0.42884
0.39255
0.38873
0.38109
0.37345
0.34288
0.32569
0.32187
0.30468
0.22827
0.03916
-0.24737
-0.56065
-0.63515
-0.58357
-0.32378
-0.050621
0.17861
0.38873
0.50907
0.57402
0.56447
0.53582
0.52053
0.52245
0.51862
0.49188
0.47469
0.4575
0.45177
0.4766
0.51098
0.5511
0.57975
0.59121
0.57593
0.55683
0.532
0.52436
0.53582
0.54155
0.50143
0.39064
0.21681
0.098376
0.058262
0.094556
0.14804
0.17861
0.22445
0.26839
0.29895
0.32951
0.35053
0.37918
0.4212
0.44031
0.38873
0.26074
0.033429
-0.15186
-0.20726
-0.15186
-0.025788
0.067813
0.13467
0.20153
0.22636
0.24355
0.23018
0.2149
0.1958
0.16523
0.048711
-0.075454
-0.19198
-0.20917
-0.19198
-0.1595
-0.12703
-0.090735
-0.025788
0.025788
0.090735
0.15186
0.21681
0.30277
0.37727
0.37727
0.31996
0.19771
0.048711
-0.014327
-0.0028653
0.058262
0.13849
0.17096
0.21681
0.24928
0.28749
0.33142
0.36008
0.37727
0.38682
0.40401
0.41165
0.42693
0.42311
0.41356
0.39446
0.37727
0.35817
0.33142
0.3085
0.28176
0.26266
0.23973
0.21108
0.21299
0.20917
0.20344
0.20153
0.19962
0.20535
0.2149
0.22063
0.234
0.23209
0.23782
0.24737
0.24164
0.23973
0.234
0.23973
0.23782
0.25883
0.25501
0.25501
0.26266
0.26266
0.26648
0.22827
0.19198
0.1595
0.13849
0.11175
0.060172
-0.086915
-0.29513
-0.55492
-0.68863
-0.63515
-0.47278
-0.24355
-0.062082
0.10411
0.25119
0.32187
0.33906
0.2894
0.22254
0.14613
0.081184
0.037249
0.016237
0.025788
0.050621
0.083095
0.10411
0.11939
0.13658
0.1595
0.18625
0.21681
0.23591
0.25119
0.24546
0.25501
0.24737
0.22445
0.20153
0.18052
0.15377
0.14422
0.14231
0.13849
0.14804
0.14804
0.16141
0.16714
0.17096
0.17096
0.17287
0.17479
0.17287
0.16905
0.15568
0.1595
0.16905
0.1958
0.22063
0.24928
0.2703
0.29322
0.30468
0.30277
0.27603
0.23973
0.2149
0.20917
0.19962
0.16523
0.063992
-0.14231
-0.37727
-0.55301
-0.54919
-0.45559
-0.27221
-0.10793
0.069723
0.25692
0.40401
0.51289
0.58357
0.6447
0.65998
0.66762
0.65234
0.6447
0.63515
0.62369
0.60649
0.58357
0.5511
0.53582
0.52818
0.49379
0.39446
0.22445
0.054441
-0.0468
-0.031519
0.033429
0.11557
0.15186
0.19198
0.21681
0.24546
0.29895
0.33333
0.31423
0.27985
0.22827
0.20726
0.20535
0.23973
0.27794
0.32951
0.36963
0.40974
0.42311
0.42502
0.42311
0.39637
0.3085
0.17287
0.012416
-0.052531
-0.04107
0.04489
0.10602
0.14613
0.17287
0.16714
0.1595
0.12512
0.11366
0.092646
0.081184
0.071633
0.092646
0.12703
0.17479
0.23591
0.2703
0.29322
0.31041
0.33333
0.35053
0.37345
0.39446
0.4212
0.44986
0.47278
0.48233
0.48042
0.4766
0.47469
0.46896
0.46132
0.44795
0.43075
0.40401
0.38682
0.38682
0.39828
0.40592
0.41929
0.43457
0.44604
0.45941
0.45941
0.46323
0.43649
0.39064
0.33142
0.29704
0.27603
0.26457
0.24164
0.14995
-0.012416
-0.24737
-0.43649
-0.45177
-0.35053
-0.16905
0.010506
0.16523
0.30277
0.4021
0.44031
0.44413
0.42502
0.38873
0.34288
0.2703
0.19389
0.12703
0.094556
0.056351
0.031519
0.029608
0.04489
0.092646
0.14804
0.16141
0.086915
-0.014327
-0.092646
-0.090735
-0.04298
0.0047755
0.058262
0.11748
0.17479
0.22445
0.25692
0.27794
0.29131
0.30277
0.31041
0.32378
0.32569
0.32378
0.30659
0.29131
0.29895
0.29704
0.30659
0.30277
0.2894
0.26074
0.22827
0.20153
0.17479
0.16523
0.15186
0.13276
0.1022
0.085005
0.077364
0.075454
0.073543
0.073543
0.073543
0.065903
0.071633
0.071633
0.085005
0.11939
0.15186
0.18434
0.19771
0.20344
0.18243
0.13467
0.086915
0.056351
0.065903
0.1022
0.11366
0.016237
-0.16714
-0.37345
-0.4384
-0.39255
-0.2703
-0.13085
0.020057
0.18052
0.33333
0.44795
0.51862
0.56065
0.5893
0.62942
0.67526
0.71538
0.74594
0.77077
0.7765
0.7574
0.73066
0.68481
0.65043
0.6256
0.56829
0.46705
0.27985
0.10793
-0.04107
-0.073543
-0.025788
0.037249
0.10984
0.1767
0.23973
0.30086
0.33524
0.37345
0.40401
0.44031
0.47469
0.49952
0.532
0.55874
0.59503
0.6084
0.62369
0.62369
0.61605
0.5893
0.55874
0.52436
0.48997
0.46705
0.45368
0.43266
0.40974
0.37727
0.35053
0.31996
0.29322
0.2703
0.25119
0.24164
0.2531
0.2703
0.27985
0.28176
0.29322
0.29895
0.31614
0.3276
0.34097
0.34862
0.3467
0.34862
0.31614
0.26839
0.21681
0.16905
0.13085
0.081184
-0.021968
-0.24737
-0.54537
-0.71538
-0.68481
-0.52436
-0.31614
-0.18052
-0.058262
0.060172
0.088825
0.048711
-0.052531
-0.11557
-0.11939
-0.083095
-0.029608
0.027698
0.065903
0.10029
0.13658
0.18625
0.2531
0.29322
0.29513
0.20917
0.096466
-0.014327
-0.071633
-0.067813
-0.04107
0.027698
0.10029
0.1595
0.20917
0.22636
0.234
0.23973
0.25501
0.25501
0.25501
0.25692
0.26839
0.26074
0.26266
0.25119
0.22827
0.2149
0.1958
0.16141
0.13467
0.10984
0.1022
0.096466
0.077364
0.058262
0.023878
-0.0047755
-0.03916
-0.0468
-0.052531
-0.04489
-0.037249
-0.023878
-0.021968
-0.020057
-0.016237
-0.012416
0.0066858
0.014327
0.025788
0.033429
0.033429
0.050621
0.048711
0.048711
0.0468
0.031519
-0.012416
-0.054441
-0.069723
-0.033429
-0.016237
-0.086915
-0.27221
-0.48997
-0.58357
-0.52436
-0.37727
-0.18434
-0.0066858
0.16332
0.27985
0.35626
0.39828
0.43649
0.47851
0.5148
0.54155
0.56638
0.56829
0.56638
0.53391
0.50525
0.48424
0.49952
0.5511
0.57402
0.50525
0.32187
0.12894
-0.0066858
-0.031519
0.023878
0.10602
0.1767
0.22063
0.2531
0.29322
0.33715
0.37536
0.36199
0.30086
0.20726
0.11939
0.098376
0.12321
0.1958
0.26839
0.30086
0.3085
0.28558
0.26457
0.2703
0.28367
0.25119
0.1404
0.020057
-0.031519
-0.00095511
0.079274
0.12703
0.17861
0.23782
0.30468
0.36581
0.43075
0.4766
0.51671
0.56065
0.5893
0.6084
0.61605
0.62942
0.6256
0.63706
0.63324
0.63133
0.6084
0.58357
0.54537
0.5148
0.4766
0.45368
0.43649
0.43266
0.44031
0.44222
0.43075
0.41165
0.39446
0.37345
0.35053
0.34288
0.3467
0.35244
0.36772
0.37536
0.39446
0.40783
0.4212
0.42311
0.44222
0.4575
0.48233
0.49952
0.51289
0.53009
0.4957
0.42502
0.33524
0.26839
0.21681
0.17287
0.062082
-0.16332
-0.42884
-0.54919
-0.48233
-0.31232
-0.14422
-0.025788
0.065903
0.10793
0.071633
0.014327
-0.023878
-0.016237
0.029608
0.083095
0.12703
0.1595
0.1767
0.20153
0.19198
0.2149
0.22445
0.26266
0.34479
0.39637
0.36772
0.21872
0.04298
-0.085005
-0.11557
-0.088825
-0.0468
-0.012416
0.010506
0.037249
0.073543
0.12512
0.18052
0.17096
0.11939
0.063992
0.010506
0.021968
0.04298
0.094556
0.14995
0.16905
0.16714
0.1595
0.15377
0.18434
0.22063
0.18052
0.10029
0.00095511
-0.056351
-0.035339
0.012416
0.077364
0.13849
0.19198
0.22827
0.25501
0.2703
0.28367
0.29704
0.31232
0.31041
0.30659
0.31614
0.32569
0.33142
0.3276
0.31996
0.31041
0.31041
0.31423
0.31423
0.32378
0.32951
0.3276
0.3085
0.29322
0.2703
0.26648
0.27794
0.30659
0.33333
0.35626
0.36963
0.37154
0.36581
0.36199
0.3639
0.36581
0.35053
0.34862
0.3467
0.35626
0.37536
0.41738
0.45941
0.49952
0.53964
0.57402
0.60076
0.61223
0.6256
0.6084
0.60076
0.56638
0.51862
0.44222
0.36772
0.33142
0.29895
0.1595
-0.029608
-0.2531
-0.34288
-0.29322
-0.17479
-0.031519
0.10602
0.24355
0.36772
0.46323
0.54155
0.60267
0.63706
0.67144
0.7001
0.71156
0.69819
0.64279
0.57402
0.50525
0.4575
0.4384
0.4021
0.2894
0.060172
-0.12703
-0.28749
-0.29513
-0.24164
-0.17287
-0.086915
-0.018147
0.012416
0.0468
0.088825
0.16714
0.26457
0.31041
0.30468
0.24737
0.18625
0.19007
0.20344
0.23018
0.24737
0.26074
0.26648
0.25119
0.24928
0.25692
0.26839
0.21681
0.10602
0.0066858
-0.065903
-0.04107
0.023878
0.085005
0.16141
0.22063
0.25883
0.28367
0.29895
0.3085
0.30277
0.29513
0.29704
0.30086
0.3085
0.30659
0.31041
0.30086
0.30086
0.30086
0.30086
0.27603
0.24928
0.20726
0.17479
0.15568
0.16141
0.17096
0.1958
0.20344
0.22063
0.22445
0.23018
0.25119
0.2703
0.2703
0.2703
0.25883
0.25501
0.26074
0.2894
0.32378
0.35817
0.38873
0.40401
0.41165
0.41165
0.41929
0.42311
0.42502
0.42693
0.42502
0.42693
0.45368
0.46705
0.4957
0.50716
0.51098
0.4957
0.44986
0.36772
0.27794
0.22636
0.19198
0.1022
-0.088825
-0.36008
-0.52053
-0.51098
-0.41165
-0.26457
-0.14231
-0.012416
0.11366
0.21108
0.28367
0.31805
0.32569
0.30468
0.24546
0.15377
0.056351
0.010506
0.027698
0.098376
0.1767
0.14995
0.071633
-0.012416
-0.035339
0.0047755
0.077364
0.15568
0.23591
0.29322
0.34288
0.37918
0.40783
0.4212
0.42502
0.42693
0.40974
0.41356
0.41165
0.41738
0.42884
0.43457
0.42884
0.40783
0.37918
0.33524
0.29513
0.2703
0.2531
0.23782
0.17861
0.098376
0.00095511
-0.10411
-0.11175
-0.092646
-0.14422
-0.28367
-0.51862
-0.6829
-0.71729
-0.69436
-0.59885
-0.49188
-0.36199
-0.21299
-0.088825
0.031519
0.12703
0.22063
0.29131
0.33715
0.35626
0.35244
0.34862
0.35053
0.383
0.42693
0.47469
0.51289
0.52436
0.50525
0.45941
0.40019
0.33906
0.29895
0.23782
0.03916
-0.15759
-0.28176
-0.26074
-0.12321
0.0047755
0.11366
0.2149
0.24928
0.26266
0.26074
0.26648
0.26839
0.22063
0.13658
0.03916
-0.0047755
0.00095511
0.04107
0.11557
0.20535
0.2894
0.36008
0.40974
0.44413
0.45941
0.47087
0.46514
0.45368
0.43649
0.41547
0.38491
0.35817
0.32569
0.32378
0.33142
0.35626
0.37345
0.37536
0.35435
0.32378
0.30086
0.2703
0.234
0.18816
0.13085
0.081184
0.048711
0.063992
0.090735
0.14231
0.17861
0.20344
0.20153
0.19389
0.1767
0.1595
0.12703
0.096466
0.052531
0.021968
0.014327
0.04107
0.081184
0.1404
0.19389
0.22636
0.24164
0.23973
0.21108
0.18434
0.16332
0.14231
0.13467
0.13276
0.1595
0.20726
0.26266
0.31805
0.37154
0.37536
0.31614
0.1958
0.12512
0.10602
0.073543
-0.073543
-0.29895
-0.42884
-0.383
-0.22636
-0.054441
0.085005
0.21299
0.31805
0.39446
0.46132
0.48424
0.46896
0.40783
0.3467
0.30659
0.33142
0.37918
0.37918
0.32187
0.24164
0.19007
0.19771
0.234
0.30086
0.36199
0.39255
0.36963
0.3085
0.24164
0.22445
0.30659
0.37345
0.37536
0.22827
0.083095
0.010506
0.029608
0.11939
0.19962
0.25883
0.27794
0.27412
0.27412
0.28176
0.2894
0.30277
0.33906
0.44986
0.48424
0.36963
0.15759
-0.018147
-0.054441
0.0028653
0.083095
0.14804
0.23782
0.3085
0.37154
0.40401
0.38491
0.35626
0.36772
0.39446
0.35626
0.19198
0.008596
-0.085005
-0.03916
0.083095
0.19389
0.29513
0.39064
0.48042
0.5511
0.60267
0.6256
0.63133
0.61987
0.6084
0.55874
0.5148
0.46132
0.43457
0.4212
0.43457
0.46705
0.50525
0.52818
0.52436
0.50143
0.45941
0.41738
0.37536
0.3085
0.22636
0.15186
0.10984
0.11557
0.15568
0.21299
0.2703
0.31041
0.33142
0.31614
0.29131
0.26266
0.23209
0.18816
0.12894
0.077364
0.056351
0.069723
0.11175
0.16523
0.21108
0.24164
0.25883
0.24546
0.23018
0.21299
0.18625
0.14613
0.092646
0.063992
0.073543
0.11939
0.18816
0.24164
0.28749
0.31041
0.31614
0.30277
0.29322
0.30277
0.29704
0.27603
0.21108
0.14995
0.10029
0.04298
-0.016237
-0.031519
0.0066858
0.021968
-0.10793
-0.31805
-0.51671
-0.50716
-0.383
-0.21299
-0.090735
-0.010506
0.033429
0.081184
0.14231
0.2149
0.29322
0.36772
0.41356
0.42693
0.43075
0.41356
0.39255
0.33906
0.28749
0.234
0.21681
0.21681
0.24546
0.34479
0.43457
0.44604
0.27221
0.063992
-0.094556
-0.11557
-0.056351
-0.014327
0.033429
0.085005
0.11939
0.17096
0.22636
0.27794
0.29513
0.28176
0.26839
0.31805
0.35053
0.30468
0.071633
-0.13849
-0.27412
-0.23973
-0.14422
-0.058262
0.03916
0.1213
0.17479
0.21299
0.26457
0.35817
0.4384
0.4212
0.234
0.063992
0.0066858
0.063992
0.14613
0.18816
0.21299
0.25883
0.32951
0.40401
0.47278
0.53009
0.5702
0.60458
0.61605
0.62369
0.61796
0.59312
0.55683
0.49379
0.41547
0.31805
0.23018
0.1767
0.15759
0.17861
0.22445
0.27794
0.3085
0.32951
0.32569
0.31996
0.3085
0.2894
0.25692
0.23018
0.1958
0.14995
0.085005
0.012416
-0.021968
-0.023878
0.012416
0.069723
0.14231
0.21681
0.27794
0.31423
0.33142
0.3276
0.31614
0.32951
0.34097
0.34097
0.32378
0.27221
0.20344
0.11557
0.033429
-0.023878
-0.037249
-0.012416
0.029608
0.054441
0.048711
0.031519
-0.00095511
0.012416
0.10984
0.29322
0.43457
0.36772
0.092646
-0.22445
-0.42502
-0.39255
-0.23782
-0.03916
0.090735
0.17096
0.20153
0.23018
0.27603
0.32951
0.37727
0.40401
0.41356
0.40974
0.42311
0.4212
0.42693
0.42693
0.45559
0.50907
0.51862
0.49952
0.48615
0.5148
0.52053
0.45177
0.19198
-0.018147
-0.17287
-0.15186
-0.060172
0.0468
0.1958
0.32378
0.42502
0.5148
0.59312
0.65234
0.68481
0.69628
0.70201
0.70392
0.71156
0.71729
0.71347
0.69054
0.64661
0.58548
0.50334
0.40401
0.29322
0.18243
0.092646
0.04489
0.014327
-0.025788
-0.0468
0.021968
0.16714
0.24164
0.14804
-0.11175
-0.39064
-0.55301
-0.57211
-0.4957
-0.3639
-0.23209
-0.13658
-0.037249
0.062082
0.19771
0.33906
0.48424
0.61223
0.68672
0.72875
0.73257
0.72111
0.69436
0.65998
0.61032
0.5702
0.5702
0.63515
0.63324
0.40592
0.10984
-0.19198
-0.20726
-0.10984
0.04298
0.13658
0.19389
0.24737
0.31232
0.33906
0.32951
0.27221
0.20344
0.15568
0.11557
0.10984
0.20535
0.38491
0.54346
0.47851
0.23209
-0.016237
-0.11366
-0.077364
0.012416
0.090735
0.14804
0.18243
0.17096
0.15377
0.14804
0.19771
0.28749
0.26648
0.20726
0.086915
0.10602
0.1958
0.31041
0.38682
0.42502
0.44795
0.43075
0.40401
0.36008
0.34097
0.35244
0.40974
0.46896
0.51671
0.53391
0.53009
0.52245
0.52053
0.50907
0.49188
0.47469
0.4575
0.43457
0.41738
0.40401
0.39637
0.38491
0.37154
0.35817
0.33906
0.33333
0.33142
0.33142
0.33142
0.33715
0.33333
0.32569
0.30659
0.29895
0.29513
0.2894
0.29895
0.30659
0.31805
0.33142
0.3467
0.35626
0.35626
0.35435
0.34479
0.34479
0.33524
0.32378
0.30468
0.28367
0.25883
0.24928
0.24355
0.25883
0.29131
0.32187
0.34097
0.35817
0.35626
0.35626
0.34862
0.34288
0.32569
0.3085
0.2894
0.28558
0.27603
0.26648
0.26074
0.2531
0.24928
0.24164
0.24355
0.22827
0.2149
0.19198
0.16332
0.13467
0.12321
0.11557
0.13276
0.14804
0.15568
0.15759
0.15759
0.13849
0.12321
0.075454
0.063992
0.048711
0.025788
-0.11748
-0.42693
-0.71156
-0.85673
-0.74976
-0.59121
-0.45177
-0.41356
-0.38682
-0.32951
-0.24355
-0.1404
-0.058262
-0.008596
0.0028653
0.010506
-0.010506
0.0047755
0.063992
0.16523
0.24928
0.28558
0.25501
0.24164
0.22827
0.24164
0.23973
0.21681
0.17287
0.10793
0.04107
0.021968
0.081184
0.15759
0.15377
0.027698
-0.13276
-0.27221
-0.29322
-0.2531
-0.17861
-0.085005
-0.012416
0.063992
0.11557
0.1595
0.1958
0.22063
0.21299
0.22254
0.23018
0.24355
0.2531
0.26074
0.25883
0.26266
0.2531
0.23973
0.20917
0.16714
0.1213
0.088825
0.058262
0.025788
-0.04489
-0.13658
-0.20344
-0.15759
-0.060172
-0.096466
-0.22063
-0.49761
-0.65807
-0.7001
-0.64088
-0.51671
-0.38491
-0.26074
-0.1595
-0.050621
0.062082
0.1958
0.31232
0.42311
0.51098
0.56256
0.56638
0.52818
0.44222
0.34097
0.27794
0.30086
0.2703
0.11175
-0.065903
-0.18052
-0.12321
0.020057
0.15186
0.26648
0.33524
0.37727
0.40592
0.43266
0.47087
0.4957
0.51289
0.48806
0.4384
0.35626
0.28176
0.234
0.19962
0.19962
0.19007
0.19198
0.18625
0.18434
0.1958
0.22445
0.25501
0.27794
0.30659
0.31805
0.31805
0.30468
0.29513
0.27603
0.24737
0.21299
0.18243
0.14995
0.11939
0.11366
0.11175
0.13658
0.18243
0.21681
0.24355
0.27221
0.3085
0.34288
0.383
0.41547
0.4384
0.4384
0.40974
0.3467
0.26074
0.14613
0.03916
-0.033429
-0.031519
-0.0066858
-0.094556
-0.27603
-0.48806
-0.58166
-0.54919
-0.42884
-0.27412
-0.10793
0.03916
0.17479
0.29322
0.36581
0.38682
0.38109
0.34479
0.30086
0.25692
0.21299
0.19007
0.20344
0.23973
0.27412
0.30086
0.28176
0.3276
0.33906
0.36963
0.38491
0.38109
0.4021
0.40401
0.39828
0.38682
0.36963
0.36772
0.3639
0.35626
0.33524
0.29131
0.22063
0.18052
0.19198
0.18434
0.094556
-0.069723
-0.16141
-0.1767
-0.13467
-0.077364
-0.03916
0.021968
0.023878
0.010506
0.00095511
0.083095
0.1958
0.29513
0.32951
0.31614
0.33524
0.36199
0.41738
0.47278
0.53964
0.57402
0.56638
0.54155
0.49379
0.44795
0.39828
0.36772
0.36963
0.39637
0.44222
0.48424
0.51098
0.50907
0.44986
0.32951
0.19962
0.1595
0.14422
0.096466
-0.010506
-0.11939
-0.16714
-0.13658
-0.10029
-0.056351
0.016237
0.079274
0.10602
0.077364
0.056351
0.096466
0.16905
0.23018
0.26457
0.26648
0.27985
0.31996
0.36199
0.40783
0.4575
0.49952
0.53582
0.55492
0.55683
0.52053
0.43457
0.30659
0.1595
0.10984
0.069723
-0.0047755
-0.060172
-0.13849
-0.081184
0.027698
0.14231
0.23018
0.31805
0.35626
0.38109
0.41547
0.46514
0.50907
0.54155
0.5511
0.54346
0.50525
0.46705
0.41929
0.36963
0.3276
0.2894
0.27985
0.28558
0.31805
0.36008
0.39828
0.40974
0.40019
0.35626
0.28367
0.1958
0.096466
0.012416
-0.035339
-0.03916
-0.00095511
0.037249
0.092646
0.12512
0.14613
0.1595
0.18243
0.19007
0.1958
0.1958
0.18243
0.16905
0.16905
0.16714
0.18243
0.1958
0.23018
0.25119
0.27603
0.30277
0.35244
0.40019
0.42693
0.43075
0.41356
0.383
0.33715
0.28749
0.23973
0.21108
0.19771
0.20535
0.22827
0.25501
0.2894
0.29513
0.28176
0.25883
0.24737
0.22063
0.20535
0.19198
0.19962
0.23018
0.28367
0.34097
0.37918
0.38682
0.3639
0.32951
0.27794
0.24355
0.20344
0.15759
0.12894
0.096466
0.092646
0.098376
0.098376
0.098376
0.023878
-0.03916
-0.058262
0.027698
0.13849
0.12321
-0.04298
-0.23591
-0.25883
-0.15759
0.00095511
0.13276
0.23018
0.30468
0.33906
0.31996
0.26074
0.18243
0.15377
0.19962
0.25501
0.33142
0.3639
0.40019
0.44413
0.45177
0.41738
0.30468
0.17479
0.15568
0.25692
0.4021
0.46896
0.39446
0.27985
0.19771
0.19771
0.25692
0.32378
0.35626
0.33715
0.24546
0.086915
0.035339
0.10793
0.2703
0.41738
0.39255
0.29322
0.17096
0.083095
0.077364
0.10411
0.18052
0.26839
0.35053
0.4384
0.51098
0.57593
0.61987
0.67717
0.72111
0.75358
0.77459
0.77268
0.75167
0.69436
0.62751
0.55301
0.48615
0.43457
0.40019
0.383
0.3639
0.36199
0.36008
0.37727
0.40019
0.44604
0.46323
0.47087
0.4212
0.2894
0.096466
-0.077364
-0.096466
0.018147
0.11175
0.10602
-0.050621
-0.15186
-0.1958
-0.1404
-0.067813
0.0066858
0.060172
0.092646
0.10602
0.092646
0.048711
-0.027698
-0.03916
0.073543
0.3085
0.56447
0.70201
0.66571
0.53773
0.41165
0.34479
0.34097
0.35626
0.38682
0.41356
0.43266
0.45368
0.48233
0.53009
0.55301
0.57211
0.5702
0.54155
0.50334
0.44604
0.383
0.32187
0.28558
0.27985
0.29322
0.32569
0.35817
0.40783
0.43075
0.44604
0.42693
0.38491
0.32378
0.24164
0.16332
0.071633
-0.0047755
-0.081184
-0.1213
-0.1404
-0.12321
-0.10029
-0.069723
-0.027698
0.010506
0.060172
0.092646
0.11366
0.11175
0.088825
0.04489
-0.012416
-0.063992
-0.10029
-0.090735
-0.086915
-0.086915
-0.13467
-0.21299
-0.35626
-0.45177
-0.4212
-0.27985
-0.18816
-0.32187
-0.6084
-0.91977
-1
-0.9255
-0.72302
-0.50716
-0.3276
-0.19389
-0.090735
-0.033429
-0.014327
-0.031519
-0.014327
0.04298
0.11557
0.16714
0.18625
0.19198
0.21108
0.25501
0.32378
0.37918
0.37536
0.31805
0.1958
-0.012416
-0.2149
-0.27221
-0.21872
-0.10411
-0.075454
-0.14804
-0.20153
-0.21299
-0.1595
-0.079274
-0.0066858
0.04489
0.071633
0.090735
0.11939
0.14995
0.17287
0.19007
0.1958
0.18625
0.18243
0.16141
0.1767
0.1958
0.23591
0.27412
0.31614
0.33906
0.3467
0.33524
0.30468
0.25119
0.18816
0.11366
0.021968
-0.052531
-0.10411
-0.12894
-0.13276
-0.10984
-0.088825
-0.060172
-0.0468
-0.04298
-0.04298
-0.037249
-0.020057
-0.0028653
-0.0028653
-0.012416
-0.03916
-0.062082
-0.081184
-0.083095
-0.073543
-0.056351
-0.016237
0.016237
0.048711
0.065903
0.077364
0.067813
0.03916
0.00095511
-0.052531
-0.10793
-0.15377
-0.18243
-0.18243
-0.1767
-0.13085
-0.077364
-0.008596
0.0468
0.088825
0.12512
0.16523
0.20344
0.21108
0.20535
0.18816
0.16905
0.12512
0.069723
0.023878
0.0047755
0.0066858
0.031519
0.065903
0.092646
0.11175
0.11939
0.12894
0.13849
0.14804
0.16523
0.14422
0.04107
-0.18434
-0.44222
-0.53773
-0.38873
-0.094556
0.067813
-0.035339
-0.26074
-0.48615
-0.4957
-0.41738
-0.29131
-0.20153
-0.14231
-0.1022
-0.090735
-0.10984
-0.10793
-0.096466
-0.0468
-0.008596
0.048711
0.14231
0.26648
0.38491
0.44795
0.42884
0.35817
0.20726
0.03916
-0.027698
0.020057
0.17287
0.28176
0.31232
0.29513
0.2703
0.26457
0.26266
0.28367
0.2894
0.26457
0.17861
0.029608
-0.048711
0.033429
0.18243
0.32378
0.29704
0.22254
0.14613
0.12703
0.13658
0.16141
0.18243
0.20726
0.25119
0.27794
0.30659
0.32569
0.34862
0.36963
0.40974
0.43266
0.44222
0.44413
0.44222
0.44986
0.44795
0.4575
0.46705
0.46132
0.45368
0.43075
0.39446
0.34097
0.28558
0.22254
0.18625
0.17287
0.17861
0.17096
0.17861
0.19962
0.23973
0.24164
0.16141
-0.04489
-0.25119
-0.33524
-0.26457
-0.1767
-0.1958
-0.30277
-0.40592
-0.40401
-0.31996
-0.1958
-0.086915
-0.027698
-0.016237
-0.077364
-0.22445
-0.29131
-0.22636
0.048711
0.35053
0.52627
0.532
0.44795
0.37345
0.36772
0.36963
0.39064
0.44031
0.52627
0.59694
0.65998
0.70201
0.73257
0.74212
0.73448
0.72111
0.68672
0.65043
0.57975
0.48806
0.38109
0.29322
0.25119
0.23782
0.25692
0.29704
0.3276
0.36581
0.39064
0.40783
0.42693
0.44031
0.46323
0.47851
0.47851
0.46705
0.44986
0.43075
0.4021
0.36008
0.31423
0.27412
0.26839
0.27794
0.31423
0.35626
0.37536
0.36581
0.33715
0.33715
0.36199
0.39828
0.4212
0.42884
0.41356
0.37536
0.34479
0.32187
0.3276
0.35244
0.39255
0.42884
0.45368
0.45559
0.44413
0.42311
0.40019
0.38109
0.3639
0.35053
0.35053
0.35626
0.36199
0.35626
0.34862
0.35053
0.37536
0.42311
0.48042
0.52245
0.55492
0.57593
0.57784
0.56829
0.53964
0.50143
0.45177
0.39828
0.34097
0.2703
0.22636
0.2149
0.25119
0.30277
0.36008
0.39828
0.41165
0.40592
0.38109
0.3467
0.32187
0.31232
0.32378
0.3276
0.29131
0.21108
0.052531
-0.14231
-0.24928
-0.19962
-0.023878
0.077364
-0.014327
-0.18434
-0.34097
-0.31614
-0.23782
-0.15186
-0.094556
-0.037249
0.014327
0.067813
0.073543
0.075454
0.10602
0.19389
0.33333
0.44795
0.51862
0.50525
0.383
0.23018
0.18625
0.27794
0.48615
0.62369
0.61032
0.55301
0.45368
0.37727
0.29131
0.13085
-0.065903
-0.13085
-0.021968
0.31423
0.64852
0.78606
0.71347
0.52053
0.35817
0.28558
0.28176
0.32569
0.37727
0.43649
0.51671
0.60076
0.6638
0.6829
0.66762
0.64088
0.6084
0.58357
0.54919
0.51289
0.47087
0.44413
0.40019
0.36199
0.31614
0.30086
0.31805
0.37345
0.44795
0.51671
0.55683
0.57593
0.57211
0.56065
0.53964
0.51098
0.45941
0.37918
0.29131
0.234
0.18243
0.085005
-0.094556
-0.3467
-0.49761
-0.47278
-0.31805
-0.23973
-0.29895
-0.41356
-0.46705
-0.4021
-0.27794
-0.12321
-0.021968
0.016237
-0.060172
-0.24355
-0.31996
-0.25692
0.048711
0.36581
0.5702
0.60649
0.54537
0.4766
0.45368
0.47851
0.50907
0.54728
0.57211
0.57784
0.57593
0.57211
0.56447
0.54728
0.52627
0.52436
0.5511
0.57211
0.60649
0.61987
0.61796
0.60267
0.58548
0.56638
0.54346
0.50907
0.45368
0.37727
0.30659
0.23782
0.19007
0.14231
0.13276
0.13658
0.16332
0.1958
0.25501
0.32187
0.39446
0.4575
0.49188
0.50525
0.49379
0.47278
0.43649
0.39446
0.3467
0.2894
0.23591
0.20344
0.20917
0.24355
0.29704
0.36008
0.41738
0.43649
0.4384
0.41165
0.38109
0.36199
0.34479
0.35626
0.35435
0.34097
0.31805
0.29322
0.29704
0.32569
0.3639
0.39446
0.41929
0.42311
0.41929
0.41547
0.40974
0.40019
0.37727
0.36581
0.33906
0.30086
0.2531
0.21872
0.20344
0.22445
0.27221
0.33333
0.40019
0.46514
0.50907
0.52245
0.50334
0.47278
0.43075
0.36581
0.23591
-0.014327
-0.383
-0.64661
-0.70392
-0.48615
-0.23973
-0.16905
-0.26839
-0.42693
-0.5148
-0.47469
-0.41929
-0.33524
-0.22636
-0.058262
0.094556
0.16141
0.11748
-0.04489
-0.1213
-0.067813
0.17479
0.45368
0.63324
0.65234
0.54537
0.42311
0.2703
0.052531
-0.18434
-0.22636
-0.071633
0.31232
0.58739
0.64852
0.56829
0.40019
0.31805
0.31232
0.29513
0.27412
0.14995
-0.058262
-0.15186
-0.021968
0.24355
0.50143
0.52818
0.42693
0.31232
0.23782
0.2149
0.22827
0.27985
0.33333
0.37345
0.38682
0.38109
0.383
0.38109
0.38109
0.37536
0.39255
0.42884
0.48233
0.53964
0.58357
0.61223
0.61796
0.60649
0.57784
0.52818
0.46705
0.4021
0.33142
0.2703
0.22445
0.20726
0.20153
0.19962
0.22636
0.2531
0.29704
0.3467
0.39637
0.41738
0.41738
0.39828
0.35626
0.32951
0.28367
0.24928
0.23973
0.25501
0.30659
0.35244
0.39637
0.41165
0.41547
0.38109
0.3467
0.30277
0.25692
0.20917
0.1595
0.13276
0.12703
0.17287
0.24737
0.32378
0.40019
0.45368
0.48615
0.49188
0.48424
0.44031
0.39637
0.34479
0.29895
0.25883
0.21299
0.20535
0.21681
0.22636
0.24546
0.26648
0.28367
0.2894
0.29704
0.29704
0.29895
0.29322
0.27794
0.25883
0.24928
0.25119
0.26457
0.29895
0.32951
0.37154
0.39255
0.40592
0.39446
0.36581
0.31614
0.23973
0.11175
-0.12894
-0.48424
-0.79752
-0.93314
-0.78606
-0.51098
-0.34288
-0.40974
-0.54728
-0.64852
-0.58166
-0.51098
-0.41356
-0.31996
-0.20917
-0.086915
-0.04489
-0.063992
-0.17287
-0.20535
-0.11366
0.11175
0.36199
0.48806
0.48615
0.35817
0.21108
0.0028653
-0.27603
-0.41547
-0.32569
0.023878
0.44413
0.66571
0.68672
0.56829
0.43457
0.36772
0.33333
0.30468
0.22254
0.096466
-0.15186
-0.33906
-0.29322
-0.008596
0.39828
0.64088
0.63133
0.48615
0.33333
0.24355
0.21872
0.23209
0.2531
0.27603
0.28749
0.29704
0.32951
0.36199
0.39828
0.43649
0.46132
0.47469
0.48424
0.48615
0.46705
0.44413
0.39255
0.33524
0.26648
0.21299
0.16905
0.13276
0.12512
0.14804
0.19198
0.23018
0.28367
0.31614
0.35435
0.38873
0.40592
0.40783
0.36772
0.32569
0.27412
0.22254
0.19007
0.19389
0.22063
0.25692
0.30086
0.33333
0.36008
0.3639
0.36963
0.35626
0.33142
0.31041
0.26839
0.22445
0.17861
0.1595
0.18243
0.23973
0.33524
0.42884
0.50525
0.55683
0.59121
0.61796
0.61605
0.60649
0.58357
0.53391
0.49188
0.4575
0.4575
0.49379
0.55683
0.63133
0.69054
0.74021
0.78797
0.82617
0.8128
0.70201
0.43266
0.031519
-0.24164
-0.2531
0.04107
0.39637
0.49761
0.39064
0.17479
0.03916
0.012416
0.050621
0.13085
0.21872
0.29322
0.30086
0.27985
0.25119
0.23209
0.22063
0.22063
0.24164
0.31232
0.46514
0.6256
0.7383
0.77268
0.78032
0.73257
0.60458
0.51289
0.48233
0.59503
0.71156
0.75358
0.71156
0.68863
0.71729
0.78032
0.85482
0.91022
0.95224
0.96944
0.97326
0.97517
0.97517
0.98281
0.99045
1
0.97326
0.92168
0.83572
0.74403
0.65234
0.59312
0.5702
0.57975
0.60649
0.63515
0.63897
0.61223
0.55492
0.49379
0.43266
0.383
0.35435
0.35817
0.39828
0.46323
0.52818
0.5702
0.59885
0.61796
0.63515
0.62942
0.62178
0.60649
0.5893
0.57593
0.55874
0.54155
0.52245
0.50143
0.4766
0.45368
0.44604
0.44031
0.41738
0.36581
0.32569
0.29704
0.29131
0.31232
0.35817
0.42311
0.48997
0.54346
0.5702
0.57975
0.55683
0.54537
0.52436
0.5148
0.4957
0.46323
0.42502
0.37727
0.34862
0.31805
0.29704
0.28558
0.27221
0.25501
0.23973
0.22254
0.19962
0.18625
0.19389
0.20726
0.24164
0.2703
0.29895
0.31041
0.31614
0.31614
0.30468
0.28367
0.25692
0.23209
0.20153
0.18052
0.1595
0.12894
0.10029
0.063992
0.048711
0.023878
-0.04107
-0.17479
-0.40783
-0.66189
-0.82044
-0.76886
-0.58166
-0.45368
-0.55683
-0.69628
-0.87584
-0.84718
-0.7937
-0.69054
-0.57784
-0.44413
-0.30086
-0.20726
-0.18434
-0.23591
-0.35435
-0.4212
-0.3639
-0.14995
0.079274
0.22063
0.17479
0.031519
-0.12703
-0.27794
-0.42693
-0.38109
-0.18625
0.19389
0.45559
0.47278
0.34288
0.16905
0.0468
-0.027698
-0.17287
-0.37154
-0.61605
-0.65807
-0.4957
-0.11748
0.26839
0.43649
0.41356
0.25883
0.383
