-0.68546
-0.70987
-0.7149
-0.71562
-0.68977
-0.6237
-0.48582
-0.3307
-0.21724
-0.17127
-0.19497
-0.23375
-0.26607
-0.30413
-0.33214
-0.31706
-0.25961
-0.20503
-0.17343
-0.20072
-0.25889
-0.33142
-0.40826
-0.45853
-0.50162
-0.55045
-0.60862
-0.66176
-0.69408
-0.70916
-0.71059
-0.70844
-0.70126
-0.69551
-0.6912
-0.69479
-0.70772
-0.71993
-0.72424
-0.71706
-0.69982
-0.68618
-0.6754
-0.66966
-0.66535
-0.6632
-0.66391
-0.66463
-0.6632
-0.65817
-0.65601
-0.64811
-0.64452
-0.64022
-0.63806
-0.63734
-0.63806
-0.64093
-0.64093
-0.63734
-0.63662
-0.63375
-0.63375
-0.63303
-0.63447
-0.63232
-0.63088
-0.62801
-0.61652
-0.59066
-0.53752
-0.45925
-0.31059
-0.066427
0.19282
0.38959
0.48725
0.49803
0.45996
0.38743
0.27038
0.17343
0.10449
0.050628
-0.0039497
-0.03842
-0.04991
-0.032675
-0.014004
-0.021903
-0.071454
-0.15404
-0.24955
-0.35009
-0.44704
-0.52819
-0.58779
-0.61867
-0.62873
-0.64022
-0.65458
-0.67828
-0.70269
-0.72855
-0.76732
-0.81041
-0.87576
-0.9246
-0.96266
-0.9763
-0.94111
-0.87648
-0.76302
-0.59354
-0.32567
-0.085099
0.019031
-0.067864
-0.27612
-0.45637
-0.56122
-0.60072
-0.58779
-0.47648
-0.35224
-0.2474
-0.22154
-0.25817
-0.32855
-0.40539
-0.49372
-0.58276
-0.65889
-0.71203
-0.72926
-0.71706
-0.6991
-0.68115
-0.67325
-0.67828
-0.69048
-0.707
-0.72352
-0.73932
-0.7465
-0.73788
-0.71418
-0.66966
-0.61364
-0.52747
-0.39605
-0.25099
-0.16122
-0.1605
-0.23303
-0.30054
-0.32926
-0.33429
-0.32855
-0.32065
-0.31921
-0.34506
-0.38671
-0.45278
-0.52316
-0.52316
-0.58923
-0.64165
-0.6833
-0.70844
-0.7228
-0.73142
-0.73645
-0.73645
-0.73285
-0.72926
-0.72855
-0.72639
-0.72639
-0.72855
-0.72855
-0.72424
-0.72065
-0.71993
-0.71993
-0.72136
-0.72208
-0.7228
-0.72208
-0.72352
-0.72208
-0.71849
-0.71418
-0.70916
-0.70341
-0.69336
-0.67756
-0.64955
-0.60646
-0.53824
-0.44345
-0.24165
-0.010413
0.17702
0.26391
0.25171
0.22083
0.17487
0.097307
-0.012567
-0.10521
-0.15476
-0.17774
-0.1842
-0.17846
-0.15117
-0.13106
-0.14183
-0.18995
-0.26679
-0.34291
-0.40969
-0.45637
-0.49515
-0.53034
-0.57774
-0.6237
-0.66104
-0.67469
-0.66679
-0.65889
-0.6632
-0.67612
-0.69264
-0.70197
-0.7228
-0.75368
-0.79964
-0.8614
-0.9167
-0.95404
-0.95548
-0.92172
-0.86212
-0.78169
-0.6991
-0.58707
-0.40323
-0.22513
-0.12029
-0.13752
-0.23519
-0.32208
-0.32855
-0.27469
-0.19425
-0.14183
-0.15476
-0.21221
-0.28546
-0.34794
-0.4018
-0.45709
-0.51382
-0.56409
-0.60718
-0.61724
-0.58851
-0.50449
-0.3781
-0.24596
-0.15619
-0.14542
-0.20862
-0.32208
-0.44129
-0.55691
-0.64524
-0.70557
-0.73357
-0.73645
-0.72926
-0.7149
-0.69767
-0.67756
-0.65386
-0.63806
-0.62657
-0.62513
-0.62585
-0.6316
-0.63662
-0.64237
-0.64668
-0.64811
-0.63088
-0.55763
-0.40108
-0.19282
-0.044165
0.0046679
-0.057092
-0.13609
-0.19066
-0.22442
-0.24668
-0.26104
-0.26176
-0.2553
-0.2474
-0.25817
-0.29838
-0.36517
-0.43842
-0.50664
-0.52747
-0.51598
-0.49587
-0.47504
-0.46715
-0.47289
-0.48366
-0.4851
-0.46715
-0.45063
-0.44632
-0.46715
-0.50952
-0.55978
-0.60718
-0.63591
-0.64668
-0.65242
-0.65817
-0.6632
-0.66894
-0.66966
-0.67397
-0.68187
-0.69048
-0.6991
-0.70269
-0.70628
-0.70772
-0.70916
-0.70987
-0.70916
-0.707
-0.70341
-0.69623
-0.68259
-0.65386
-0.60503
-0.54255
-0.45063
-0.27612
-0.071454
0.1009
0.18348
0.18133
0.17558
0.17989
0.14973
0.042011
-0.087971
-0.19138
-0.25458
-0.28689
-0.29264
-0.27828
-0.25817
-0.21867
-0.20287
-0.21077
-0.27325
-0.38169
-0.49228
-0.58205
-0.63447
-0.65961
-0.67828
-0.69623
-0.70916
-0.71418
-0.70269
-0.68833
-0.68546
-0.69408
-0.70916
-0.7228
-0.73429
-0.76086
-0.79749
-0.84776
-0.90449
-0.94829
-0.98276
-0.98133
-0.94973
-0.89515
-0.81759
-0.7386
-0.64596
-0.47074
-0.28043
-0.13609
-0.098025
-0.17989
-0.27397
-0.31275
-0.29264
-0.22729
-0.1447
-0.093716
-0.10449
-0.18851
-0.29479
-0.39246
-0.45637
-0.49874
-0.52244
-0.53824
-0.54542
-0.54399
-0.51526
-0.46212
-0.40467
-0.35871
-0.34865
-0.35799
-0.37953
-0.40682
-0.43124
-0.4535
-0.47504
-0.49659
-0.51526
-0.52029
-0.5088
-0.48366
-0.45278
-0.39964
-0.33932
-0.28187
-0.2675
-0.30197
-0.37163
-0.42549
-0.45278
-0.46499
-0.49084
-0.5368
-0.58779
-0.63878
-0.67612
-0.6991
-0.70341
-0.6991
-0.6912
-0.68043
-0.6711
-0.66463
-0.66032
-0.66391
-0.67397
-0.68689
-0.69767
-0.70628
-0.71203
-0.7149
-0.72065
-0.72711
-0.73142
-0.73429
-0.73214
-0.72855
-0.72065
-0.71346
-0.70844
-0.70269
-0.69767
-0.69479
-0.68833
-0.68187
-0.67684
-0.67397
-0.6675
-0.66032
-0.65171
-0.64309
-0.62801
-0.60575
-0.56194
-0.493
-0.39031
-0.18995
0.039138
0.2237
0.31706
0.33285
0.3149
0.27756
0.19354
0.071454
-0.026212
-0.094434
-0.12747
-0.13752
-0.14039
-0.12388
-0.099461
-0.087253
-0.095871
-0.14542
-0.21436
-0.28043
-0.33501
-0.36876
-0.37594
-0.36589
-0.32926
-0.28618
-0.25889
-0.28618
-0.36661
-0.47433
-0.56912
-0.63016
-0.67899
-0.72424
-0.7781
-0.84991
-0.90521
-0.94255
-0.93465
-0.89013
-0.82908
-0.77163
-0.73573
-0.7149
-0.68833
-0.58564
-0.44345
-0.34075
-0.31634
-0.36517
-0.4219
-0.45494
-0.46284
-0.44488
-0.39677
-0.34219
-0.30628
-0.30269
-0.31921
-0.32567
-0.30197
-0.30485
-0.33932
-0.42621
-0.53968
-0.63519
-0.69767
-0.73645
-0.74506
-0.73788
-0.72567
-0.69623
-0.67899
-0.67397
-0.68043
-0.69695
-0.69695
-0.66032
-0.56194
-0.40251
-0.22154
-0.11813
-0.11382
-0.19856
-0.29264
-0.37307
-0.43627
-0.47935
-0.49731
-0.50521
-0.49515
-0.45494
-0.39246
-0.32496
-0.28761
-0.27612
-0.29479
-0.33357
-0.40323
-0.49443
-0.58995
-0.65386
-0.68905
-0.70844
-0.71418
-0.71275
-0.71562
-0.72208
-0.74434
-0.77379
-0.80826
-0.83627
-0.86858
-0.91382
-0.94686
-0.96481
-0.92316
-0.86499
-0.79461
-0.71131
-0.55978
-0.37379
-0.21724
-0.15763
-0.19713
-0.28115
-0.33142
-0.33716
-0.33645
-0.31993
-0.30054
-0.26248
-0.21652
-0.16409
-0.14829
-0.2
-0.29982
-0.42837
-0.52388
-0.57846
-0.60718
-0.62944
-0.63662
-0.62801
-0.61436
-0.59856
-0.58492
-0.57917
-0.58779
-0.61436
-0.64668
-0.66679
-0.66607
-0.65961
-0.62944
-0.53321
-0.36302
-0.1605
-0.036984
-0.020467
-0.1088
-0.20503
-0.2912
-0.34722
-0.37953
-0.39031
-0.3781
-0.34147
-0.29408
-0.25171
-0.23734
-0.23016
-0.23734
-0.27469
-0.34937
-0.45494
-0.56912
-0.65458
-0.73788
-0.80395
-0.85566
-0.88582
-0.89515
-0.88941
-0.87145
-0.8456
-0.81759
-0.79174
-0.76661
-0.74578
-0.72926
-0.72352
-0.72065
-0.72783
-0.72926
-0.72711
-0.72998
-0.72208
-0.71562
-0.69479
-0.66894
-0.64022
-0.60934
-0.57774
-0.54399
-0.51311
-0.48223
-0.46571
-0.42837
-0.30341
-0.13609
0.0010772
0.052065
0.030521
0.012567
0.023339
0.031957
-0.014722
-0.085099
-0.15117
-0.19354
-0.21436
-0.21508
-0.21149
-0.20575
-0.19785
-0.20575
-0.24022
-0.30772
-0.3982
-0.47217
-0.53106
-0.56768
-0.58061
-0.57846
-0.56481
-0.55189
-0.51526
-0.44201
-0.3702
-0.307
-0.27253
-0.26822
-0.30126
-0.36948
-0.45996
-0.5289
-0.56553
-0.58492
-0.59641
-0.60359
-0.61077
-0.61724
-0.6237
-0.62657
-0.6237
-0.62011
-0.61221
-0.6
-0.58205
-0.56697
-0.55332
-0.54399
-0.53752
-0.52388
-0.4535
-0.33214
-0.19928
-0.13609
-0.16122
-0.24237
-0.30987
-0.33214
-0.34004
-0.3465
-0.35727
-0.37594
-0.39246
-0.41616
-0.45278
-0.50449
-0.55907
-0.60359
-0.62944
-0.62801
-0.60575
-0.57487
-0.54829
-0.52316
-0.50162
-0.48151
-0.414
-0.31993
-0.21724
-0.18636
-0.23519
-0.30413
-0.34506
-0.36158
-0.36804
-0.38887
-0.41544
-0.45494
-0.49874
-0.53321
-0.56409
-0.57917
-0.59066
-0.61795
-0.65601
-0.6912
-0.72136
-0.74722
-0.74937
-0.7307
-0.65889
-0.51382
-0.36589
-0.2632
-0.25817
-0.32711
-0.40251
-0.43914
-0.44488
-0.44488
-0.46212
-0.47792
-0.49228
-0.48941
-0.44273
-0.33429
-0.20359
-0.11095
-0.13465
-0.25099
-0.39605
-0.50377
-0.57127
-0.61149
-0.63662
-0.6395
-0.63232
-0.61436
-0.60072
-0.59856
-0.61867
-0.64955
-0.68474
-0.70341
-0.70772
-0.71203
-0.71203
-0.70413
-0.69336
-0.68474
-0.67971
-0.6754
-0.66822
-0.65601
-0.64093
-0.63016
-0.62154
-0.61436
-0.61005
-0.60503
-0.59066
-0.57127
-0.54327
-0.51382
-0.48654
-0.45135
-0.39246
-0.27899
-0.12244
0.02693
0.088689
0.0693
0.0010772
-0.034829
-0.044883
-0.056373
-0.098025
-0.15978
-0.23519
-0.29838
-0.32783
-0.32424
-0.30485
-0.29264
-0.27684
-0.25314
-0.22944
-0.24309
-0.29264
-0.36517
-0.42406
-0.45925
-0.49228
-0.53896
-0.59641
-0.65601
-0.69479
-0.70772
-0.70987
-0.70485
-0.70197
-0.69767
-0.69192
-0.68977
-0.69264
-0.70269
-0.71131
-0.71275
-0.70413
-0.67828
-0.65242
-0.63088
-0.62801
-0.64524
-0.6754
-0.70054
-0.70054
-0.73357
-0.72711
-0.68402
-0.45853
-0.11023
0.089408
0.11454
-0.053501
-0.18636
-0.17415
-0.11023
-0.05781
-0.070018
-0.15835
-0.29623
-0.43842
-0.54111
-0.60575
-0.63375
-0.65099
-0.65961
-0.65745
-0.6553
-0.66679
-0.70413
-0.75296
-0.78743
-0.79102
-0.77379
-0.7544
-0.72855
-0.71275
-0.69838
-0.68905
-0.68833
-0.69695
-0.70628
-0.7149
-0.71777
-0.70341
-0.67899
-0.63447
-0.59138
-0.55691
-0.52029
-0.42549
-0.26104
-0.08079
0.026212
0.023339
-0.039856
-0.082226
-0.095153
-0.089408
-0.10018
-0.12101
-0.16194
-0.20503
-0.24022
-0.28187
-0.33429
-0.39031
-0.45135
-0.493
-0.50808
-0.51167
-0.51382
-0.51526
-0.5246
-0.54399
-0.56553
-0.58564
-0.5526
-0.45709
-0.31562
-0.2158
-0.19785
-0.24237
-0.30772
-0.36014
-0.40826
-0.45278
-0.49946
-0.53106
-0.55548
-0.57056
-0.58133
-0.59497
-0.60503
-0.60862
-0.61149
-0.61364
-0.61724
-0.61077
-0.5842
-0.55476
-0.52029
-0.50018
-0.48725
-0.46284
-0.37882
-0.28977
-0.22801
-0.23734
-0.33357
-0.43627
-0.50449
-0.52603
-0.49084
-0.43483
-0.39174
-0.39461
-0.42334
-0.44991
-0.45566
-0.45063
-0.4614
-0.493
-0.52244
-0.54039
-0.52819
-0.49874
-0.49443
-0.51813
-0.54901
-0.57846
-0.58923
-0.58779
-0.60215
-0.63734
-0.67828
-0.71993
-0.73716
-0.73645
-0.72926
-0.7149
-0.69838
-0.68905
-0.68259
-0.68402
-0.67828
-0.66104
-0.64668
-0.64668
-0.65817
-0.67828
-0.67971
-0.66391
-0.63734
-0.60359
-0.58061
-0.54758
-0.46427
-0.31346
-0.1246
0.00035907
0.020467
-0.054219
-0.11598
-0.14758
-0.14542
-0.13178
-0.1368
-0.16984
-0.22513
-0.28618
-0.34291
-0.386
-0.4219
-0.45422
-0.48366
-0.51454
-0.54686
-0.58348
-0.62083
-0.65242
-0.67469
-0.68043
-0.67756
-0.66391
-0.63303
-0.5921
-0.55045
-0.51885
-0.49156
-0.43842
-0.31059
-0.16697
-0.075045
-0.082226
-0.16409
-0.25458
-0.31131
-0.34004
-0.35296
-0.36086
-0.35871
-0.33285
-0.26104
-0.14327
-0.057092
-0.077199
-0.19282
-0.35943
-0.48941
-0.57127
-0.62154
-0.65314
-0.67899
-0.69551
-0.70772
-0.71131
-0.71131
-0.70341
-0.67971
-0.65314
-0.57271
-0.57917
-0.54111
-0.42549
-0.26966
-0.14399
-0.1088
-0.15117
-0.23591
-0.3149
-0.37594
-0.42765
-0.4614
-0.47648
-0.4693
-0.4377
-0.40036
-0.37451
-0.36589
-0.36661
-0.36876
-0.38456
-0.41975
-0.47864
-0.53968
-0.58348
-0.61005
-0.62729
-0.64452
-0.66463
-0.68115
-0.68474
-0.67038
-0.65314
-0.63591
-0.62944
-0.62585
-0.6237
-0.63519
-0.65027
-0.65817
-0.6316
-0.53752
-0.38815
-0.23232
-0.16338
-0.18707
-0.29479
-0.41113
-0.49156
-0.53824
-0.55476
-0.53968
-0.49946
-0.45206
-0.40108
-0.36517
-0.3544
-0.35871
-0.37666
-0.40539
-0.46499
-0.53537
-0.60359
-0.65171
-0.69192
-0.72639
-0.74722
-0.76014
-0.76445
-0.76086
-0.74794
-0.73501
-0.71921
-0.71131
-0.70628
-0.70341
-0.69479
-0.68043
-0.66679
-0.66104
-0.66176
-0.65386
-0.63878
-0.59569
-0.53321
-0.41975
-0.26463
-0.10592
-0.031239
-0.044165
-0.12962
-0.19856
-0.22873
-0.22298
-0.19425
-0.14399
-0.099461
-0.090844
-0.15835
-0.27684
-0.40826
-0.51023
-0.57989
-0.62944
-0.65889
-0.67469
-0.67899
-0.67828
-0.6711
-0.65099
-0.61293
-0.57989
-0.5605
-0.56625
-0.57487
-0.57487
-0.55835
-0.48366
-0.36517
-0.23016
-0.16768
-0.19713
-0.28402
-0.36948
-0.42837
-0.46643
-0.49515
-0.51095
-0.52531
-0.53393
-0.53465
-0.50162
-0.43196
-0.34722
-0.28402
-0.26032
-0.25386
-0.27971
-0.31777
-0.39318
-0.48869
-0.58636
-0.66966
-0.72352
-0.8018
-0.84417
-0.87074
-0.86643
-0.81903
-0.7702
-0.707
-0.63878
-0.53321
-0.40754
-0.29264
-0.25961
-0.2991
-0.37451
-0.43411
-0.47361
-0.51454
-0.54542
-0.56768
-0.57056
-0.57127
-0.56481
-0.55978
-0.55332
-0.55404
-0.56194
-0.5684
-0.57415
-0.56697
-0.5368
-0.47074
-0.37882
-0.2632
-0.16122
-0.10592
-0.12819
-0.21652
-0.34434
-0.45781
-0.54111
-0.5921
-0.6237
-0.64093
-0.64596
-0.63734
-0.62513
-0.60862
-0.59713
-0.59785
-0.61724
-0.64668
-0.67397
-0.68905
-0.69192
-0.69336
-0.6912
-0.6912
-0.68905
-0.69048
-0.6912
-0.68689
-0.67756
-0.66535
-0.65386
-0.64381
-0.63878
-0.63375
-0.63016
-0.62729
-0.62298
-0.62083
-0.61508
-0.61221
-0.61364
-0.61149
-0.61149
-0.60862
-0.61077
-0.61077
-0.61508
-0.62011
-0.6237
-0.62298
-0.61939
-0.61724
-0.61364
-0.61221
-0.61149
-0.61005
-0.6079
-0.60718
-0.60718
-0.60575
-0.60359
-0.60359
-0.60215
-0.59928
-0.5921
-0.58564
-0.57702
-0.57199
-0.5684
-0.56912
-0.5684
-0.56984
-0.57199
-0.57415
-0.57415
-0.57343
-0.57199
-0.5684
-0.56984
-0.57056
-0.57199
-0.57702
-0.58133
-0.58851
-0.58707
-0.58276
-0.57487
-0.56768
-0.56409
-0.56338
-0.56481
-0.56625
-0.56768
-0.56912
-0.56768
-0.56625
-0.56697
-0.56338
-0.56122
-0.56122
-0.55978
-0.5605
-0.56194
-0.56266
-0.56409
-0.56194
-0.5605
-0.55404
-0.54686
-0.54039
-0.53752
-0.53537
-0.53465
-0.53465
-0.53178
-0.52962
-0.52819
-0.52603
-0.52316
-0.52244
-0.52029
-0.51885
-0.51311
-0.51167
-0.5088
-0.50592
-0.50592
-0.50808
-0.5088
-0.51095
-0.51382
-0.51526
-0.51813
-0.52244
-0.52603
-0.52819
-0.52747
-0.52675
-0.5289
-0.53034
-0.53106
-0.52172
-0.50233
-0.47864
-0.4693
-0.46643
-0.45206
-0.4298
-0.43052
-0.44776
-0.49372
-0.55548
-0.56122
-0.43052
-0.16984
0.10162
0.35583
0.58779
0.85566
1
1
1
1
1
0.98133
0.88725
0.8061
0.73214
0.67181
0.62657
0.58205
0.53609
0.49013
0.45278
0.41257
0.36373
0.29479
0.22442
0.1526
0.087253
0.019031
-0.050628
-0.12029
-0.18205
-0.22801
-0.26104
-0.26822
-0.25027
-0.21077
-0.16266
-0.13896
-0.13968
-0.15548
-0.18564
-0.22657
-0.28761
-0.36158
-0.41329
-0.4298
-0.40108
-0.31993
-0.21005
-0.16194
-0.18564
-0.27828
-0.36804
-0.41975
-0.42908
-0.41472
-0.38528
-0.386
-0.43698
-0.53824
-0.65961
-0.7623
-0.82406
-0.84488
-0.84201
-0.82478
-0.8018
-0.77522
-0.74937
-0.7307
-0.72424
-0.74578
-0.77092
-0.7623
-0.66966
-0.50736
-0.37522
-0.32352
-0.36302
-0.42262
-0.44991
-0.46499
-0.48438
-0.52244
-0.57774
-0.62226
-0.64452
-0.60503
-0.48582
-0.33645
-0.25099
-0.27325
-0.40682
-0.55045
-0.63591
-0.68546
-0.72208
-0.75655
-0.80682
-0.85996
-0.90449
-0.93034
-0.92747
-0.91598
-0.91167
-0.92316
-0.94829
-0.96409
-0.97774
-0.9921
-0.99785
-1
-0.97343
-0.93393
-0.85566
-0.70197
-0.49874
-0.34363
-0.29048
-0.3465
-0.42334
-0.46068
-0.45278
-0.43914
-0.41616
-0.40467
-0.40108
-0.41257
-0.44704
-0.50521
-0.58061
-0.65314
-0.71418
-0.75655
-0.77953
-0.78169
-0.78025
-0.77379
-0.76948
-0.75153
-0.7149
-0.6833
-0.65745
-0.66104
-0.67899
-0.6912
-0.67397
-0.57774
-0.41113
-0.23232
-0.14039
-0.14829
-0.22298
-0.28761
-0.32136
-0.32136
-0.30413
-0.29048
-0.27181
-0.26894
-0.29695
-0.35583
-0.43555
-0.48366
-0.47433
-0.43411
-0.41831
-0.43196
-0.47217
-0.52172
-0.5763
-0.64022
-0.68761
-0.69408
-0.68546
-0.68474
-0.6912
-0.71059
-0.73501
-0.75655
-0.77594
-0.77738
-0.76876
-0.75009
-0.73142
-0.71346
-0.70126
-0.69767
-0.69695
-0.69695
-0.68402
-0.65889
-0.64309
-0.63591
-0.64452
-0.65171
-0.64811
-0.62083
-0.51454
-0.33645
-0.13896
-0.019749
-0.012567
-0.091562
-0.17127
-0.21867
-0.25242
-0.27325
-0.27684
-0.27397
-0.27971
-0.31777
-0.38241
-0.46571
-0.53896
-0.61149
-0.66607
-0.71777
-0.7544
-0.79318
-0.82837
-0.84632
-0.88941
-0.91167
-0.93393
-0.92531
-0.8772
-0.8219
-0.76804
-0.71706
-0.68259
-0.64022
-0.54901
-0.39174
-0.19713
-0.04991
-0.012567
-0.10521
-0.22873
-0.33357
-0.40754
-0.47576
-0.5526
-0.62298
-0.66679
-0.68618
-0.69264
-0.69479
-0.69048
-0.68115
-0.66176
-0.64022
-0.61939
-0.59497
-0.58276
-0.57989
-0.5763
-0.5605
-0.47935
-0.34004
-0.1763
-0.077199
-0.077917
-0.16481
-0.27038
-0.3544
-0.41041
-0.43268
-0.42549
-0.39677
-0.34506
-0.27756
-0.22873
-0.20862
-0.21077
-0.24165
-0.2991
-0.38169
-0.46715
-0.52101
-0.55619
-0.58707
-0.61652
-0.64955
-0.67253
-0.69838
-0.72352
-0.73645
-0.73214
-0.71706
-0.70126
-0.68689
-0.67612
-0.6711
-0.66679
-0.65673
-0.64165
-0.62083
-0.58779
-0.56338
-0.55476
-0.55619
-0.56338
-0.55835
-0.54183
-0.48869
-0.3544
-0.1605
0.0061041
0.082226
0.0614
-0.0061041
-0.075045
-0.14686
-0.22442
-0.28187
-0.30485
-0.30126
-0.2833
-0.27612
-0.2711
-0.26679
-0.25961
-0.25601
-0.28546
-0.35009
-0.43268
-0.51239
-0.57199
-0.60862
-0.62801
-0.63591
-0.64022
-0.64165
-0.6395
-0.63447
-0.62873
-0.62801
-0.62801
-0.61436
-0.59138
-0.56912
-0.55835
-0.57558
-0.59497
-0.6079
-0.61795
-0.60072
-0.53106
-0.39533
-0.24596
-0.17917
-0.20718
-0.30341
-0.35009
-0.35655
-0.35224
-0.35655
-0.37092
-0.38384
-0.3982
-0.41903
-0.47145
-0.52603
-0.5842
-0.62873
-0.66176
-0.68043
-0.68474
-0.68546
-0.69767
-0.71849
-0.74363
-0.75583
-0.7465
-0.72926
-0.70916
-0.69838
-0.68761
-0.6711
-0.65745
-0.65314
-0.66176
-0.67828
-0.68618
-0.66966
-0.64237
-0.61652
-0.6
-0.58061
-0.54901
-0.48007
-0.3307
-0.1289
0.036984
0.11526
0.1009
0.039856
-0.034111
-0.11311
-0.19856
-0.25889
-0.28689
-0.28546
-0.26104
-0.22729
-0.20503
-0.18205
-0.18348
-0.22154
-0.29623
-0.38959
-0.46715
-0.52029
-0.57127
-0.61795
-0.65027
-0.66032
-0.65817
-0.65961
-0.66679
-0.68689
-0.70126
-0.70485
-0.69408
-0.67828
-0.66607
-0.65673
-0.65242
-0.64811
-0.64381
-0.63662
-0.63375
-0.63016
-0.62442
-0.60862
-0.5842
-0.56625
-0.55907
-0.55691
-0.52962
-0.45206
-0.29551
-0.10305
0.045601
0.095871
0.036984
-0.075763
-0.17846
-0.25673
-0.307
-0.32783
-0.32711
-0.32711
-0.33142
-0.34722
-0.36373
-0.38384
-0.40754
-0.43986
-0.46715
-0.45925
-0.39246
-0.27181
-0.17415
-0.15763
-0.24237
-0.38169
-0.50664
-0.58564
-0.63303
-0.65314
-0.66679
-0.68043
-0.70844
-0.7544
-0.79533
-0.85566
-0.893
-0.90736
-0.90377
-0.89084
-0.88294
-0.87145
-0.84632
-0.80826
-0.76804
-0.72926
-0.69767
-0.67325
-0.65027
-0.62585
-0.56984
-0.4614
-0.31921
-0.19713
-0.10592
-0.062837
-0.031239
-0.014722
-0.032675
-0.093716
-0.17199
-0.27397
-0.38384
-0.48725
-0.55189
-0.57199
-0.58492
-0.60215
-0.63591
-0.66607
-0.68761
-0.70197
-0.71346
-0.72424
-0.72998
-0.72855
-0.71346
-0.68905
-0.65601
-0.60934
-0.57846
-0.55763
-0.5447
-0.52388
-0.48582
-0.39749
-0.25386
-0.076481
0.047038
0.067145
-0.013285
-0.1368
-0.2474
-0.31706
-0.34004
-0.32639
-0.29767
-0.26822
-0.2553
-0.27181
-0.28905
-0.29982
-0.29623
-0.30557
-0.36014
-0.43914
-0.51023
-0.5526
-0.56912
-0.57056
-0.56122
-0.56194
-0.57127
-0.59569
-0.61508
-0.6316
-0.64524
-0.65961
-0.67325
-0.6754
-0.66535
-0.64093
-0.63591
-0.65458
-0.69695
-0.73501
-0.74219
-0.72998
-0.71131
-0.70557
-0.70126
-0.68546
-0.6711
-0.65817
-0.6553
-0.65889
-0.67899
-0.71706
-0.74865
-0.81544
-0.84919
-0.85063
-0.76876
-0.55404
-0.30916
-0.093716
0.044165
0.10162
0.14901
0.19713
0.20144
0.13034
-0.0061041
-0.17056
-0.32208
-0.44632
-0.5526
-0.62729
-0.67038
-0.67325
-0.66176
-0.65601
-0.65242
-0.65099
-0.64381
-0.64309
-0.63734
-0.64452
-0.64165
-0.62083
-0.59425
-0.56768
-0.56553
-0.56768
-0.57127
-0.55835
-0.52316
-0.43411
-0.28043
-0.08079
0.065709
0.12388
0.098743
0.052783
0.0046679
-0.059964
-0.14183
-0.22226
-0.2912
-0.33573
-0.35655
-0.34578
-0.32496
-0.30987
-0.30844
-0.32496
-0.36302
-0.41472
-0.48007
-0.53393
-0.56768
-0.58205
-0.58779
-0.58851
-0.58205
-0.5684
-0.54542
-0.53393
-0.53537
-0.54758
-0.54614
-0.53106
-0.51382
-0.49228
-0.42406
-0.30557
-0.18348
-0.14183
-0.18707
-0.27756
-0.34147
-0.35583
-0.35799
-0.36445
-0.3781
-0.39102
-0.3982
-0.3939
-0.37666
-0.34937
-0.3228
-0.31346
-0.31777
-0.32783
-0.34291
-0.37666
-0.4377
-0.51023
-0.56768
-0.60431
-0.62513
-0.63734
-0.64668
-0.65673
-0.66607
-0.6711
-0.67325
-0.67469
-0.6754
-0.67684
-0.67971
-0.67971
-0.67899
-0.67612
-0.67684
-0.67756
-0.67828
-0.68043
-0.68043
-0.66966
-0.65961
-0.65027
-0.66535
-0.69479
-0.74363
-0.79749
-0.84417
-0.89587
-0.89731
-0.8219
-0.60718
-0.35943
-0.13537
0.014004
0.1009
0.19425
0.29048
0.32998
0.28761
0.1447
-0.044883
-0.22585
-0.37738
-0.48223
-0.55045
-0.5842
-0.59785
-0.60431
-0.60359
-0.60287
-0.61005
-0.61221
-0.62154
-0.62513
-0.61436
-0.61149
-0.61724
-0.64022
-0.66894
-0.68402
-0.69551
-0.69192
-0.67828
-0.66679
-0.65601
-0.6632
-0.67469
-0.66894
-0.62873
-0.51167
-0.32926
-0.12172
0.0061041
0.033393
-0.010413
-0.05781
-0.10521
-0.1763
-0.26894
-0.34578
-0.39318
-0.39749
-0.37092
-0.33788
-0.31203
-0.29767
-0.30197
-0.3307
-0.38169
-0.44345
-0.50449
-0.55189
-0.58779
-0.62801
-0.66966
-0.71275
-0.74434
-0.75655
-0.75296
-0.73573
-0.71562
-0.69767
-0.6833
-0.66966
-0.66032
-0.65171
-0.63519
-0.61293
-0.59785
-0.59282
-0.59713
-0.60862
-0.61508
-0.61221
-0.57415
-0.45709
-0.2711
-0.09228
0.0017953
-0.0025135
-0.066427
-0.12962
-0.18779
-0.24381
-0.29551
-0.32926
-0.3307
-0.31706
-0.31562
-0.33142
-0.36014
-0.40898
-0.46858
-0.52029
-0.53752
-0.50233
-0.4377
-0.38959
-0.39677
-0.46212
-0.5447
-0.61795
-0.66248
-0.6833
-0.68689
-0.67971
-0.66894
-0.65817
-0.64237
-0.62154
-0.59569
-0.58851
-0.59138
-0.60862
-0.61508
-0.60575
-0.59066
-0.54829
-0.44847
-0.29048
-0.11454
-0.027648
-0.056373
-0.17989
-0.32065
-0.40826
-0.44488
-0.4456
-0.42837
-0.40036
-0.36302
-0.32711
-0.30341
-0.31059
-0.32567
-0.34937
-0.38097
-0.43052
-0.5009
-0.56338
-0.61149
-0.63878
-0.65745
-0.66679
-0.67469
-0.68043
-0.6833
-0.69048
-0.70054
-0.70916
-0.70269
-0.69408
-0.67469
-0.67971
-0.68115
-0.66679
-0.65817
-0.66463
-0.69695
-0.75153
-0.80036
-0.85135
-0.89372
-0.90808
-0.89228
-0.86858
-0.83914
-0.80754
-0.77379
-0.74578
-0.72783
-0.70341
-0.65458
-0.54039
-0.37594
-0.2316
-0.11311
-0.035548
0.062837
0.15404
0.22298
0.20934
0.14829
0.068582
-0.027648
-0.13537
-0.25601
-0.37092
-0.46068
-0.52962
-0.5763
-0.6079
-0.62657
-0.64165
-0.65242
-0.66607
-0.67469
-0.68259
-0.6754
-0.65817
-0.64811
-0.64237
-0.64381
-0.64452
-0.64022
-0.63806
-0.63662
-0.64237
-0.64883
-0.64883
-0.63662
-0.59928
-0.50664
-0.3386
-0.1167
0.054937
0.13537
0.11598
0.056373
-0.01544
-0.10377
-0.19713
-0.26966
-0.30126
-0.30269
-0.27971
-0.2632
-0.25889
-0.26535
-0.2632
-0.25817
-0.28259
-0.34722
-0.4298
-0.50521
-0.56122
-0.60862
-0.6395
-0.66104
-0.66391
-0.65817
-0.65027
-0.64381
-0.6395
-0.63878
-0.6395
-0.62873
-0.61508
-0.61077
-0.61221
-0.62801
-0.64309
-0.65673
-0.66104
-0.64093
-0.55835
-0.41185
-0.20431
-0.049192
0.012567
-0.016876
-0.085099
-0.13609
-0.17487
-0.20144
-0.22226
-0.25673
-0.29264
-0.32567
-0.35943
-0.39677
-0.43698
-0.48151
-0.51741
-0.53465
-0.51813
-0.47504
-0.41329
-0.36589
-0.36732
-0.41975
-0.5009
-0.57127
-0.61149
-0.61867
-0.60144
-0.60144
-0.61364
-0.64165
-0.66463
-0.68402
-0.6991
-0.71346
-0.72424
-0.72567
-0.72065
-0.71346
-0.71131
-0.71203
-0.7149
-0.71634
-0.71131
-0.70054
-0.68618
-0.67899
-0.6754
-0.67253
-0.6711
-0.67038
-0.6675
-0.66463
-0.6632
-0.6632
-0.6632
-0.66248
-0.66104
-0.65745
-0.65745
-0.65745
-0.65601
-0.65099
-0.64524
-0.64237
-0.63878
-0.63591
-0.63519
-0.63303
-0.63016
-0.62585
-0.62442
-0.62154
-0.62154
-0.6237
-0.62513
-0.62801
-0.62801
-0.62729
-0.62083
-0.61364
-0.60718
-0.6
-0.59282
-0.59066
-0.59066
-0.59497
-0.59641
-0.59928
-0.59928
-0.59713
-0.59785
-0.59641
-0.59641
-0.59928
-0.60287
-0.6079
-0.61149
-0.61652
-0.62011
-0.62298
-0.62298
-0.62154
-0.61939
-0.61364
-0.61221
-0.60646
-0.60287
-0.60359
-0.6079
-0.60934
-0.60862
-0.60575
-0.60215
-0.59856
-0.59856
-0.59856
-0.59928
-0.60144
-0.60215
-0.60215
-0.60072
-0.60287
-0.60646
-0.60934
-0.61077
-0.60718
-0.6
-0.59354
-0.58851
-0.58636
-0.58133
-0.57846
-0.57558
-0.57415
-0.56984
-0.56194
-0.55835
-0.55404
-0.55548
-0.55978
-0.55332
-0.55045
-0.53465
-0.54111
-0.52531
-0.50808
-0.493
-0.49587
-0.51813
-0.56266
-0.61221
-0.66822
-0.70844
-0.71849
-0.69838
-0.65314
-0.55189
-0.30126
0.035548
0.44201
0.80036
1
1
1
1
1
1
0.93034
0.8018
0.69192
0.59497
0.52316
0.44847
0.37953
0.31275
0.26104
0.22226
0.1684
0.10664
0.039856
-0.016876
-0.060682
-0.093716
-0.11957
-0.13321
-0.13824
-0.14327
-0.16481
-0.18564
-0.20718
-0.19282
-0.14327
-0.078636
-0.054937
-0.095153
-0.18636
-0.27899
-0.34937
-0.39892
-0.43914
-0.47864
-0.52819
-0.58636
-0.64381
-0.69551
-0.72998
-0.74219
-0.73357
-0.71203
-0.6474
-0.5088
-0.31562
-0.18348
-0.15691
-0.23806
-0.33788
-0.38169
-0.37594
-0.3702
-0.36876
-0.35799
-0.34219
-0.35081
-0.41616
-0.5289
-0.64955
-0.73214
-0.78169
-0.79461
-0.79892
-0.79031
-0.77666
-0.7544
-0.73142
-0.71706
-0.70987
-0.72352
-0.74147
-0.75296
-0.72352
-0.61293
-0.43555
-0.27253
-0.19856
-0.21867
-0.27899
-0.32208
-0.34004
-0.36158
-0.414
-0.4851
-0.56194
-0.62298
-0.66894
-0.70054
-0.72567
-0.74722
-0.76302
-0.77594
-0.78241
-0.78169
-0.77666
-0.7702
-0.7781
-0.79318
-0.79964
-0.79605
-0.79102
-0.79102
-0.79246
-0.78169
-0.72855
-0.60215
-0.4061
-0.19425
-0.059964
-0.037702
-0.088689
-0.13465
-0.17343
-0.2237
-0.31777
-0.42908
-0.51813
-0.57702
-0.61364
-0.64237
-0.66535
-0.68402
-0.68977
-0.68905
-0.68761
-0.70269
-0.71777
-0.72855
-0.72639
-0.71059
-0.68618
-0.62226
-0.49946
-0.33214
-0.20646
-0.18061
-0.23088
-0.30772
-0.3544
-0.38097
-0.41688
-0.47504
-0.55045
-0.61436
-0.6474
-0.66463
-0.67828
-0.6912
-0.6912
-0.69264
-0.68761
-0.68977
-0.69336
-0.68833
-0.66248
-0.59138
-0.46355
-0.2991
-0.18564
-0.16481
-0.21293
-0.28115
-0.32496
-0.35943
-0.40969
-0.47145
-0.54399
-0.60718
-0.65027
-0.67397
-0.69767
-0.71346
-0.73142
-0.75009
-0.76086
-0.75943
-0.75583
-0.75009
-0.74291
-0.73716
-0.73573
-0.72567
-0.69408
-0.65889
-0.64237
-0.65027
-0.65889
-0.64955
-0.63088
-0.62083
-0.60934
-0.53178
-0.40036
-0.26248
-0.19785
-0.20215
-0.25817
-0.30916
-0.36661
-0.42765
-0.48654
-0.52603
-0.54399
-0.55045
-0.55763
-0.58061
-0.60431
-0.62944
-0.64093
-0.6474
-0.65099
-0.65673
-0.65314
-0.6395
-0.63662
-0.64381
-0.66822
-0.69336
-0.71131
-0.72783
-0.73788
-0.74578
-0.75655
-0.75871
-0.75871
-0.73788
-0.70341
-0.67612
-0.65458
-0.65171
-0.64596
-0.62873
-0.59856
-0.53824
-0.42478
-0.24883
-0.050628
0.091562
0.14183
0.090844
-0.0089767
-0.12029
-0.22729
-0.30126
-0.32567
-0.30772
-0.25889
-0.21149
-0.17702
-0.16122
-0.16481
-0.19354
-0.25386
-0.35512
-0.4535
-0.5289
-0.57846
-0.61652
-0.6474
-0.66248
-0.66535
-0.65314
-0.63734
-0.62298
-0.61652
-0.61436
-0.61652
-0.61508
-0.60646
-0.59138
-0.58133
-0.58348
-0.59785
-0.60934
-0.62011
-0.62729
-0.64165
-0.66032
-0.67397
-0.67397
-0.6675
-0.66032
-0.65027
-0.64022
-0.63232
-0.62729
-0.61652
-0.59856
-0.57917
-0.57056
-0.58636
-0.62011
-0.67181
-0.70844
-0.70916
-0.65314
-0.48223
-0.21867
0.016158
0.13321
0.087253
-0.028366
-0.1289
-0.17774
-0.20215
-0.21364
-0.22442
-0.2316
-0.25171
-0.28833
-0.34147
-0.40539
-0.47792
-0.53321
-0.58276
-0.61508
-0.63016
-0.61795
-0.60503
-0.60431
-0.62226
-0.64883
-0.6632
-0.6711
-0.6754
-0.67684
-0.68187
-0.68043
-0.66679
-0.65027
-0.62226
-0.54542
-0.40539
-0.18061
0.0046679
0.088689
0.054219
-0.055655
-0.14542
-0.2237
-0.29479
-0.36445
-0.41975
-0.45494
-0.4693
-0.45709
-0.41688
-0.35224
-0.307
-0.27971
-0.28618
-0.31418
-0.36517
-0.44201
-0.52101
-0.57989
-0.60718
-0.63232
-0.64883
-0.66894
-0.68833
-0.70197
-0.7149
-0.71921
-0.71634
-0.70197
-0.6833
-0.6711
-0.65745
-0.64955
-0.63662
-0.62298
-0.60646
-0.58636
-0.56409
-0.54399
-0.53968
-0.54183
-0.56122
-0.56912
-0.57702
-0.57056
-0.5325
-0.42047
-0.23734
-0.029084
0.11095
0.15691
0.12172
0.048474
-0.039138
-0.12962
-0.20072
-0.22873
-0.23303
-0.24381
-0.26894
-0.30341
-0.33645
-0.37738
-0.43411
-0.50162
-0.55476
-0.57199
-0.52962
-0.43986
-0.32065
-0.2395
-0.2237
-0.2675
-0.32424
-0.34075
-0.31418
-0.27612
-0.27253
-0.31634
-0.39318
-0.47002
-0.52029
-0.55189
-0.57558
-0.58995
-0.59856
-0.60575
-0.60934
-0.61508
-0.63016
-0.65099
-0.66679
-0.66822
-0.65889
-0.63519
-0.62226
-0.62298
-0.64955
-0.69048
-0.73501
-0.76445
-0.75655
-0.68618
-0.5289
-0.3386
-0.1921
-0.11239
-0.11741
-0.15835
-0.20431
-0.27397
-0.33573
-0.38671
-0.43052
-0.46786
-0.493
-0.51454
-0.52531
-0.52603
-0.49587
-0.44632
-0.37235
-0.32424
-0.31562
-0.37594
-0.47074
-0.56768
-0.63878
-0.67181
-0.67756
-0.67181
-0.67253
-0.68187
-0.69336
-0.6912
-0.68618
-0.68546
-0.69695
-0.71418
-0.72496
-0.72496
-0.72208
-0.71777
-0.71275
-0.70126
-0.68833
-0.67612
-0.66535
-0.65601
-0.64093
-0.63088
-0.62154
-0.61364
-0.6
-0.56768
-0.50952
-0.3939
-0.22083
-0.017594
0.11741
0.16768
0.12747
0.054219
-0.034829
-0.1246
-0.19425
-0.23662
-0.24883
-0.24811
-0.23447
-0.20431
-0.17989
-0.17056
-0.19569
-0.2474
-0.32424
-0.41113
-0.50162
-0.57774
-0.6316
-0.66391
-0.6754
-0.67684
-0.68187
-0.69479
-0.70341
-0.69623
-0.68259
-0.66535
-0.65314
-0.64452
-0.6395
-0.63447
-0.63447
-0.63519
-0.63591
-0.63447
-0.63662
-0.64165
-0.64452
-0.65027
-0.65745
-0.66104
-0.65601
-0.65314
-0.64811
-0.66104
-0.68689
-0.74219
-0.79964
-0.83842
-0.87074
-0.85278
-0.79749
-0.66535
-0.43555
-0.23734
-0.057092
0.062118
0.16697
0.2754
0.33429
0.31849
0.22657
0.064273
-0.11741
-0.28402
-0.41185
-0.49084
-0.54758
-0.57343
-0.57989
-0.56266
-0.54399
-0.53752
-0.55476
-0.58133
-0.60503
-0.62729
-0.65242
-0.67181
-0.67971
-0.67971
-0.67325
-0.67325
-0.66894
-0.6553
-0.62011
-0.58636
-0.56553
-0.57199
-0.59282
-0.6158
-0.62083
-0.60431
-0.51741
-0.36517
-0.1763
-0.037702
0.034111
0.031239
-0.014004
-0.085817
-0.17558
-0.25027
-0.28833
-0.30197
-0.31418
-0.31059
-0.30197
-0.29551
-0.27828
-0.25027
-0.21508
-0.20862
-0.25817
-0.35368
-0.45637
-0.53537
-0.57558
-0.58995
-0.6079
-0.62513
-0.65458
-0.68402
-0.70844
-0.72136
-0.72639
-0.71993
-0.71059
-0.69623
-0.68689
-0.67684
-0.66535
-0.6553
-0.64309
-0.6316
-0.61077
-0.58779
-0.57127
-0.5684
-0.57989
-0.59354
-0.60072
-0.59282
-0.56194
-0.45925
-0.29623
-0.096589
0.03842
0.085817
0.051346
-0.031957
-0.1325
-0.23878
-0.31921
-0.36732
-0.38169
-0.38959
-0.38097
-0.35799
-0.33645
-0.31346
-0.30413
-0.28977
-0.30126
-0.35727
-0.45063
-0.54327
-0.60646
-0.63806
-0.64955
-0.65601
-0.6632
-0.67038
-0.67038
-0.66822
-0.65961
-0.64811
-0.62729
-0.61436
-0.60287
-0.5842
-0.55476
-0.50808
-0.44345
-0.33501
-0.21005
-0.11382
-0.10162
-0.17774
-0.27325
-0.33716
-0.3623
-0.39031
-0.42693
-0.46858
-0.50377
-0.52101
-0.52531
-0.52675
-0.52962
-0.53752
-0.55117
-0.56912
-0.5842
-0.59928
-0.6237
-0.6553
-0.68115
-0.6912
-0.68043
-0.62801
-0.50664
-0.34147
-0.19282
-0.11382
-0.12101
-0.16266
-0.19928
-0.20431
-0.21652
-0.25817
-0.34004
-0.44345
-0.53752
-0.60144
-0.64165
-0.66894
-0.69336
-0.70772
-0.71562
-0.71921
-0.72208
-0.72567
-0.73501
-0.74363
-0.74363
-0.73429
-0.71562
-0.69479
-0.66894
-0.6474
-0.63734
-0.63878
-0.64811
-0.65099
-0.64165
-0.61149
-0.53537
-0.39461
-0.19713
-0.042011
0.029803
0.020467
-0.031239
-0.097307
-0.17846
-0.26607
-0.34291
-0.40036
-0.44201
-0.47361
-0.51454
-0.55763
-0.59928
-0.63734
-0.66822
-0.69551
-0.7149
-0.72496
-0.73285
-0.72783
-0.74219
-0.73285
-0.71849
-0.70269
-0.70126
-0.72352
-0.75583
-0.79749
-0.84201
-0.87145
-0.87217
-0.84919
-0.79318
-0.73429
-0.67469
-0.60072
-0.48366
-0.2912
-0.081508
0.054219
0.07289
0.013285
-0.040575
-0.055655
-0.080072
-0.13178
-0.20215
-0.25745
-0.29048
-0.30772
-0.31562
-0.31921
-0.31634
-0.3228
-0.33429
-0.36086
-0.39892
-0.45278
-0.52819
-0.60503
-0.6632
-0.69192
-0.69767
-0.68977
-0.67397
-0.65745
-0.65027
-0.66391
-0.68259
-0.68977
-0.67325
-0.64883
-0.6395
-0.6553
-0.67756
-0.70269
-0.72567
-0.74937
-0.76373
-0.76732
-0.75512
-0.73142
-0.71562
-0.70126
-0.69767
-0.69479
-0.68618
-0.66607
-0.6079
-0.47433
-0.27684
-0.067145
0.070736
0.11885
0.089408
0.033393
-0.043447
-0.12675
-0.20215
-0.24596
-0.25961
-0.25099
-0.2237
-0.20575
-0.19785
-0.20359
-0.22298
-0.26607
-0.34219
-0.43483
-0.51454
-0.56625
-0.59569
-0.61077
-0.62154
-0.63232
-0.64309
-0.6553
-0.66104
-0.65961
-0.64596
-0.62729
-0.59569
-0.5684
-0.54901
-0.52747
-0.49946
-0.45566
-0.39318
-0.28546
-0.15691
-0.067864
-0.068582
-0.14039
-0.23447
-0.28761
-0.30341
-0.32926
-0.37451
-0.42334
-0.45853
-0.47504
-0.49084
-0.52747
-0.58205
-0.65027
-0.70054
-0.74794
-0.78456
-0.79533
-0.80251
-0.79174
-0.78671
-0.78169
-0.74865
-0.6833
-0.55189
-0.38384
-0.2316
-0.14614
-0.15907
-0.21005
-0.26607
-0.2912
-0.3149
-0.35727
-0.41831
-0.48654
-0.52388
-0.54111
-0.55189
-0.57271
-0.61005
-0.64452
-0.67325
-0.69551
-0.707
-0.7149
-0.71634
-0.70844
-0.6912
-0.65817
-0.62944
-0.60503
-0.59713
-0.57917
-0.55332
-0.50449
-0.40467
-0.26032
-0.13034
-0.08079
-0.13537
-0.23806
-0.32065
-0.34865
-0.35655
-0.36661
-0.38743
-0.41831
-0.44057
-0.46643
-0.49228
-0.52388
-0.55332
-0.58133
-0.60287
-0.62298
-0.64022
-0.65027
-0.65817
-0.66463
-0.6711
-0.67612
-0.67469
-0.66535
-0.65027
-0.63303
-0.62011
-0.61005
-0.60072
-0.59138
-0.5842
-0.5763
-0.57056
-0.56697
-0.56409
-0.56122
-0.56338
-0.56338
-0.56481
-0.56553
-0.56912
-0.5763
-0.58133
-0.58923
-0.60072
-0.61293
-0.62226
-0.62944
-0.63447
-0.63519
-0.63734
-0.63447
-0.62944
-0.61939
-0.61364
-0.61005
-0.60862
-0.60575
-0.60431
-0.60144
-0.59569
-0.59425
-0.59425
-0.59785
-0.60359
-0.61149
-0.61724
-0.61939
-0.62226
-0.62298
-0.62657
-0.63016
-0.63662
-0.64381
-0.64883
-0.65458
-0.6553
-0.65027
-0.6395
-0.62873
-0.61867
-0.60359
-0.59138
-0.57917
-0.57127
-0.56553
-0.56697
-0.56553
-0.56625
-0.56697
-0.57056
-0.57343
-0.5763
-0.57917
-0.57774
-0.5763
-0.5763
-0.5763
-0.57702
-0.58061
-0.58564
-0.58564
-0.5842
-0.57917
-0.57415
-0.56768
-0.56194
-0.55619
-0.54901
-0.54399
-0.53968
-0.53393
-0.52962
-0.5289
-0.53034
-0.53106
-0.5325
-0.53106
-0.5289
-0.52819
-0.52819
-0.52747
-0.52531
-0.5246
-0.52316
-0.52172
-0.51813
-0.51885
-0.51382
-0.50664
-0.49874
-0.493
-0.49084
-0.48582
-0.48582
-0.48438
-0.48366
-0.48582
-0.48797
-0.49013
-0.48797
-0.48869
-0.48941
-0.48941
-0.4851
-0.48654
-0.48654
-0.48941
-0.49372
-0.50162
-0.50305
-0.5088
-0.51095
-0.51095
-0.50808
-0.50521
-0.49874
-0.49013
-0.48294
-0.4772
-0.46786
-0.46284
-0.45996
-0.45422
-0.44991
-0.44847
-0.44632
-0.44488
-0.44632
-0.44847
-0.45063
-0.45422
-0.46212
-0.45996
-0.45063
-0.43914
-0.42621
-0.43411
-0.44201
-0.47504
-0.52531
-0.56266
-0.54039
-0.37953
-0.11167
0.15978
0.41041
0.62011
0.83411
1
1
1
1
1
1
1
0.84345
0.6991
0.62513
0.56481
0.5009
0.44632
0.37522
0.29982
0.22944
0.15763
0.10952
0.077917
0.058528
0.032675
-0.005386
-0.042729
-0.060682
-0.039138
-0.012567
0.005386
0.013285
0.033393
0.036266
0.013285
-0.074327
-0.18133
-0.28259
-0.3702
-0.45206
-0.52388
-0.57558
-0.61508
-0.64668
-0.6754
-0.70054
-0.72424
-0.73501
-0.69336
-0.56768
-0.38959
-0.25242
-0.20575
-0.22801
-0.26248
-0.2754
-0.29264
-0.33788
-0.39318
-0.45853
-0.51741
-0.54973
-0.55045
-0.493
-0.40036
-0.31777
-0.30844
-0.37235
-0.45278
-0.5009
-0.49946
-0.46643
-0.40682
-0.3544
-0.32424
-0.35296
-0.4377
-0.55404
-0.67612
-0.7623
-0.80251
-0.81759
-0.81903
-0.81759
-0.81759
-0.81903
-0.82262
-0.82693
-0.83268
-0.83698
-0.83411
-0.82478
-0.81329
-0.7982
-0.78743
-0.77738
-0.75943
-0.72998
-0.71131
-0.70485
-0.70054
-0.67899
-0.58923
-0.44201
-0.27038
-0.1684
-0.16122
-0.20934
-0.24883
-0.24309
-0.23016
-0.24093
-0.28259
-0.37092
-0.4693
-0.55835
-0.64093
-0.71059
-0.77594
-0.83124
-0.86499
-0.87648
-0.87145
-0.86284
-0.85135
-0.83698
-0.82406
-0.81041
-0.79605
-0.77666
-0.75081
-0.72998
-0.72424
-0.72926
-0.7307
-0.71777
-0.68115
-0.58707
-0.43124
-0.2395
-0.12029
-0.10018
-0.15548
-0.21005
-0.23734
-0.25601
-0.28761
-0.32998
-0.36517
-0.39964
-0.44417
-0.50305
-0.5684
-0.62513
-0.67038
-0.71777
-0.75727
-0.78384
-0.79461
-0.79318
-0.78959
-0.78887
-0.78815
-0.786
-0.78241
-0.77307
-0.75009
-0.72711
-0.68905
-0.69336
-0.68187
-0.66822
-0.64093
-0.60503
-0.56912
-0.48223
-0.34004
-0.22226
-0.18779
-0.22729
-0.29192
-0.33573
-0.36804
-0.41329
-0.46212
-0.50018
-0.52747
-0.55691
-0.59497
-0.63591
-0.67325
-0.68905
-0.70557
-0.71849
-0.74147
-0.75512
-0.75943
-0.75727
-0.75153
-0.75153
-0.74794
-0.73716
-0.72424
-0.71346
-0.70628
-0.70341
-0.70628
-0.69623
-0.69192
-0.69192
-0.70341
-0.71059
-0.69408
-0.64596
-0.51095
-0.32208
-0.15404
-0.073609
-0.082944
-0.14399
-0.20287
-0.26607
-0.33788
-0.3982
-0.43842
-0.45494
-0.46427
-0.45996
-0.43986
-0.4298
-0.41903
-0.41041
-0.386
-0.3623
-0.36804
-0.41113
-0.47361
-0.52388
-0.56409
-0.58636
-0.6079
-0.61939
-0.62585
-0.63447
-0.65745
-0.67899
-0.69264
-0.70269
-0.71921
-0.74506
-0.76876
-0.77379
-0.75655
-0.72639
-0.69408
-0.66894
-0.65171
-0.64093
-0.63734
-0.63375
-0.63016
-0.62657
-0.6237
-0.62226
-0.62154
-0.62657
-0.63016
-0.63375
-0.63375
-0.63519
-0.63591
-0.63662
-0.64022
-0.64093
-0.64093
-0.63734
-0.63447
-0.62944
-0.6237
-0.61939
-0.61652
-0.61508
-0.61436
-0.61652
-0.6158
-0.61795
-0.62226
-0.6237
-0.6237
-0.62154
-0.62226
-0.62154
-0.62513
-0.63016
-0.63591
-0.6395
-0.64093
-0.64022
-0.63662
-0.63447
-0.62729
-0.62083
-0.61005
-0.59928
-0.58851
-0.58205
-0.58061
-0.58276
-0.5921
-0.59928
-0.60862
-0.61508
-0.61652
-0.6158
-0.61436
-0.6079
-0.59928
-0.59713
-0.59497
-0.59282
-0.58995
-0.58348
-0.57774
-0.57199
-0.57415
-0.57702
-0.57846
-0.57415
-0.56768
-0.56338
-0.56122
-0.56194
-0.56194
-0.56194
-0.56266
-0.56338
-0.56409
-0.56481
-0.56481
-0.56338
-0.55907
-0.55404
-0.54973
-0.5447
-0.54327
-0.54183
-0.54327
-0.5447
-0.54829
-0.55548
-0.55763
-0.56194
-0.56553
-0.56984
-0.57199
-0.57199
-0.60215
