0.30957
-0.026087
-0.41217
-0.67536
-0.65565
-0.32522
0.10087
0.43246
0.62087
0.62261
0.58145
0.52058
0.4313
0.21101
-0.096232
-0.33623
-0.32348
-0.074783
0.29971
0.5629
0.64232
0.56
0.40232
0.28522
0.22667
0.22493
0.23188
0.22435
0.20174
0.1542
0.093913
0.030725
-0.023768
-0.048116
-0.037681
-0.012174
0.0086957
0.00057971
-0.011594
-0.0023188
0.045217
0.10841
0.22087
0.25739
0.30435
0.10667
-0.30203
-0.81507
-1
-0.98435
-0.57449
0.02087
0.5229
0.74551
0.86551
0.58899
0.1229
-0.26319
-0.35594
-0.11362
0.19478
0.3658
0.37101
0.31768
0.22377
0.15304
0.086957
0.044638
0.0046377
-0.018551
-0.024348
-0.014493
0.0052174
0.037101
0.053333
0.063188
0.063188
0.052754
0.04058
0.030145
0.030725
0.041739
0.05913
0.081739
0.11072
0.14783
0.18783
0.20754
0.18783
0.14087
0.084058
0.042899
0.027246
0.027246
0.04058
0.065507
0.074783
0.085797
0.078261
0.084638
0.12928
0.21565
0.35072
0.50493
0.62899
0.42493
0.035362
-0.37507
-0.49391
-0.32986
-0.08058
0.10841
0.17507
0.20058
0.17855
0.10203
-0.035362
-0.16116
-0.23362
-0.18899
-0.097391
-0.034203
-0.0046377
0.0081159
0.02087
0.038841
0.063768
0.089855
0.12
0.14261
0.15362
0.16348
0.16638
0.18029
0.22087
0.30957
0.44812
0.55014
0.50029
0.075362
-0.46667
-0.82667
-0.81101
-0.45159
-0.057971
0.30087
0.53159
0.62899
0.57217
0.22841
-0.18667
-0.49391
-0.49681
-0.20696
0.15246
0.42203
0.5629
0.56406
0.49739
0.41449
0.26261
0.037681
-0.22029
-0.37391
-0.32058
-0.057391
0.25159
0.48986
0.5913
0.56348
0.48
0.41333
0.32116
0.17159
0.0023188
-0.13159
-0.1542
-0.053913
0.15884
0.32406
0.42319
0.39942
0.29913
0.22029
0.16696
0.14261
0.13217
0.12174
0.12058
0.13971
0.15942
0.14899
0.11188
0.05971
0.027826
0.00057971
-0.012754
-0.02029
-0.024928
-0.0098551
0.0069565
0.024928
0.052754
0.082899
0.11014
0.13449
0.16232
0.19884
0.24464
0.28232
0.30145
0.28754
0.23652
0.16406
0.095652
0.041739
0.038841
0.11884
0.20522
0.31652
0.087536
-0.32348
-0.71768
-0.84232
-0.60754
-0.26319
-0.0017391
0.14377
0.1571
-0.014493
-0.27536
-0.48928
-0.53855
-0.39246
-0.18319
-0.013913
0.091594
0.11246
0.088116
0.048696
0.023768
0.048116
0.093333
0.14435
0.17739
0.19304
0.18899
0.1658
0.13333
0.1142
0.10725
0.11246
0.15768
0.24174
0.31652
0.38029
0.26667
-0.15884
-0.62435
-0.91768
-0.81739
-0.34493
0.10783
0.48928
0.65565
0.67768
0.49971
0.072464
-0.39246
-0.68116
-0.59594
-0.21913
0.19304
0.4742
0.61043
0.58609
0.49913
0.3971
0.30725
0.18783
0.062609
-0.056812
-0.090435
-0.038841
0.093913
0.32116
0.52812
0.68522
0.73275
0.68232
0.59362
0.45101
0.29797
0.15826
0.033623
-0.092174
-0.18841
-0.29333
-0.4029
-0.39536
-0.33913
-0.22203
-0.15884
-0.13217
-0.038261
0.074203
0.12058
0.10435
0.034203
-0.073623
-0.2
-0.28638
-0.30551
-0.2487
-0.17855
-0.12406
-0.064348
-0.0023188
0.048696
0.086377
0.11304
0.14493
0.17913
0.21739
0.2713
0.33449
0.38029
0.39362
0.34377
0.25449
0.15478
0.083478
0.13623
0.25507
0.41333
0.44522
0.10841
-0.30261
-0.63246
-0.6087
-0.30957
0.029565
0.29565
0.45797
0.4829
0.28116
-0.057391
-0.36348
-0.49797
-0.38783
-0.16058
0.048116
0.20174
0.25855
0.25855
0.20696
0.17101
0.16174
0.12696
0.0098551
-0.14957
-0.27884
-0.25507
-0.07942
0.21333
0.48986
0.65043
0.66145
0.51478
0.084058
-0.44812
-0.83362
-0.8887
-0.6058
-0.22029
0.057971
0.21971
0.26841
0.26319
0.23652
0.21217
0.19246
0.17623
0.15188
0.12232
0.095652
0.078841
0.069565
0.070725
0.08
0.091594
0.10435
0.10667
0.10087
0.10029
0.11826
0.15652
0.22377
0.29797
0.38203
0.50087
0.55362
0.54667
0.1687
-0.35826
-0.82435
-0.95826
-0.67536
-0.24522
0.13739
0.41333
0.54029
0.53681
0.22203
-0.15652
-0.43188
-0.42203
-0.13333
0.20754
0.44406
0.55594
0.54319
0.42145
0.29565
0.18551
0.1113
0.044638
-0.028986
-0.082899
-0.082899
-0.053913
-0.012174
0.018551
0.035942
0.046957
0.050435
0.052174
0.05971
0.085797
0.1229
0.1687
0.19362
0.19362
0.17217
0.14493
0.12986
0.1229
0.11826
0.11246
0.12522
0.19072
0.33739
0.45159
0.47942
0.10899
-0.40464
-0.7658
-0.74667
-0.31014
0.095652
0.42203
0.51768
0.53971
0.30029
-0.069565
-0.3913
-0.49913
-0.27652
0.064928
0.33275
0.51246
0.54319
0.51188
0.42609
0.36348
0.31304
0.27942
0.21739
0.14899
0.077681
-0.0011594
-0.055072
-0.091594
-0.10667
-0.11536
-0.11304
-0.085797
-0.026087
0.043478
0.11536
0.14667
0.14551
0.12522
0.096812
0.07942
0.075362
0.084638
0.09913
0.1287
0.16522
0.19594
0.20348
0.18203
0.14087
0.10087
0.073043
0.06029
0.057971
0.057391
0.055652
0.052174
0.050435
0.052754
0.068406
0.10029
0.15304
0.22957
0.32754
0.42435
0.49101
0.48928
0.52116
0.53913
0.60464
0.49043
0.047536
-0.35188
-0.5542
-0.40638
-0.10203
0.14899
0.3287
0.41101
0.30145
0.042899
-0.2371
-0.3542
-0.21565
0.038841
0.28348
0.44348
0.45913
0.38667
0.24116
0.090435
-0.021449
-0.075942
-0.073623
-0.038261
-0.0052174
-0.017971
-0.070145
-0.12174
-0.15768
-0.15362
-0.12174
-0.04
0.077681
0.14725
0.2087
0.13681
-0.2029
-0.58203
-0.92986
-0.91768
-0.59362
-0.11652
0.29855
0.59536
0.69913
0.67072
0.36
-0.10725
-0.48058
-0.56116
-0.27826
0.15304
0.46145
0.61391
0.61159
0.55362
0.48406
0.39768
0.25101
0.037681
-0.18029
-0.30377
-0.30029
-0.1258
0.086957
0.27362
0.34029
0.28
0.19304
0.15188
0.15478
0.18899
0.22841
0.24812
0.24986
0.25217
0.24522
0.23768
0.22957
0.21971
0.20986
0.20464
0.20058
0.19884
0.20232
0.22261
0.25391
0.2713
0.27884
0.29623
0.38319
0.44116
0.49449
0.21449
-0.27478
-0.7913
-0.98319
-0.80348
-0.31188
0.11826
0.38725
0.48522
0.42261
0.12522
-0.2342
-0.51536
-0.50725
-0.26551
-0.0086957
0.15478
0.2058
0.20348
0.16464
0.11536
0.10609
0.12348
0.14725
0.14841
0.13971
0.13971
0.14145
0.15246
0.1629
0.17391
0.18261
0.18551
0.18899
0.19304
0.1942
0.18783
0.17391
0.15362
0.13275
0.1113
0.091594
0.071884
0.06087
0.048696
0.051594
0.074783
0.12116
0.19246
0.25797
0.29101
0.26667
0.18783
0.13275
0.18667
0.37913
0.61391
0.66319
0.29565
-0.1629
-0.49565
-0.46203
-0.1942
0.068986
0.25333
0.35304
0.31072
0.073043
-0.21855
-0.44
-0.42377
-0.17217
0.1229
0.37971
0.5171
0.53913
0.47014
0.35652
0.2458
0.11072
-0.049275
-0.21217
-0.29043
-0.2458
-0.066667
0.20754
0.45333
0.63942
0.67652
0.66261
0.66899
0.6
0.35478
-0.062609
-0.47478
-0.62029
-0.48812
-0.16522
0.10899
0.28696
0.30551
0.24174
0.15246
0.031884
-0.12348
-0.29043
-0.38841
-0.36638
-0.23942
-0.064348
0.092174
0.2029
0.2458
0.23072
0.19072
0.16174
0.15536
0.17623
0.15768
0.14203
0.09913
0.045797
-0.024928
-0.08
-0.096232
-0.042319
0.013333
0.081739
0.15536
0.22551
0.27942
0.28638
0.27072
0.25797
0.24116
0.22841
0.22145
0.2087
0.18725
0.14725
0.096812
0.058551
0.055072
0.081739
0.15072
0.22957
0.27246
0.28986
-0.036522
-0.51362
-0.86087
-0.93333
-0.61565
-0.21739
0.12058
0.31942
0.44348
0.31188
-0.06029
-0.43884
-0.62203
-0.4313
-0.069565
0.24232
0.38087
0.39826
0.34319
0.2713
0.23884
0.21681
0.2029
0.17217
0.14783
0.12464
0.1142
0.11188
0.12
0.14319
0.16348
0.19942
0.22377
0.26029
0.28928
0.28928
0.25275
0.19594
0.14029
0.13043
0.22725
0.35768
0.54783
0.49739
0.13275
-0.3171
-0.64928
-0.59826
-0.24986
0.11652
0.40116
0.55768
0.57565
0.33159
-0.044638
-0.38841
-0.54609
-0.40058
-0.16348
0.04
0.16522
0.20232
0.17565
0.11884
0.055072
-0.0017391
-0.044638
-0.093913
-0.13797
-0.16522
-0.17101
-0.13159
-0.045797
0.082899
0.21391
0.29681
0.31072
0.26029
0.20522
0.16754
0.14899
0.13507
0.12232
0.11884
0.1229
0.13275
0.14203
0.15014
0.15014
0.14203
0.13043
0.1113
0.093333
0.075362
0.063768
0.057971
0.061449
0.078261
0.10319
0.13449
0.16696
0.21333
0.33739
0.46841
0.62319
0.43884
-0.031884
-0.53855
-0.71536
-0.48174
-0.090435
0.25101
0.38087
0.44
0.30783
-0.064348
-0.45507
-0.6771
-0.52464
-0.17217
0.22087
0.44986
0.53623
0.50377
0.3971
0.25333
0.083478
-0.10493
-0.23246
-0.25391
-0.13681
0.10493
0.33217
0.49159
0.50203
0.41507
0.31304
0.21855
0.15942
0.12174
0.088696
0.046957
0.0046377
-0.027246
-0.048116
-0.05971
-0.056232
-0.035942
0.0011594
0.041159
0.075942
0.096232
0.10493
0.10319
0.086377
0.062029
0.04
0.022029
0.028406
0.038261
0.049275
0.049855
0.041159
0.028406
0.0081159
-0.0086957
-0.017391
-0.0046377
0.025507
0.066087
0.10783
0.14377
0.17333
0.20406
0.22957
0.25739
0.28986
0.4458
0.58899
0.72232
0.44522
-0.082319
-0.52116
-0.68348
-0.46783
-0.17101
0.045217
0.21565
0.28348
0.15652
-0.096812
-0.32812
-0.41507
-0.24928
0.031884
0.30261
0.50145
0.53391
0.44174
0.26957
0.13507
0.063768
0.016232
-0.043478
-0.1287
-0.18899
-0.21217
-0.1942
-0.15246
-0.10029
-0.046377
0.012174
0.068986
0.11652
0.15246
0.18377
0.21623
0.25739
0.29681
0.3113
0.28696
0.23478
0.1942
0.24928
0.38783
0.56522
0.62319
0.29333
-0.16812
-0.59768
-0.65913
-0.3913
-0.037101
0.26145
0.43478
0.45565
0.28406
-0.093913
-0.44812
-0.64928
-0.5287
-0.18203
0.16696
0.39594
0.47362
0.41449
0.30725
0.20812
0.14551
0.10377
0.073043
0.057391
0.061449
0.083478
0.11768
0.14609
0.17159
0.20522
0.26029
0.29739
0.31942
0.32116
0.30435
0.2771
0.22551
0.16754
0.12638
0.15072
0.21507
0.30319
0.34377
0.081739
-0.30145
-0.74841
-0.89159
-0.7171
-0.32
0.02029
0.31246
0.45797
0.45391
0.11362
-0.36348
-0.71072
-0.74725
-0.42029
-0.0086957
0.28
0.41855
0.41333
0.3513
0.2742
0.23188
0.18435
0.10551
0.0011594
-0.070145
-0.089855
-0.05913
0.015652
0.12638
0.22551
0.30087
0.31594
0.32058
0.33391
0.35768
0.35594
0.32522
0.30377
0.3258
0.34783
0.35594
0.20638
-0.19942
-0.70203
-0.98899
-0.97333
-0.57681
-0.043478
0.37681
0.62203
0.71362
0.63072
0.22957
-0.21681
-0.56464
-0.60406
-0.34145
-0.024348
0.19362
0.27652
0.24638
0.14667
0.057971
0.0057971
-0.0011594
0.0023188
0.012174
0.015652
0.027826
0.044638
0.063188
0.088116
0.11884
0.15362
0.19072
0.22029
0.2313
0.22261
0.19652
0.1542
0.11246
0.073623
0.044058
0.023188
0.0075362
-0.004058
-0.0081159
0.00057971
0.010435
0.023768
0.024928
0.026087
0.025507
0.037101
0.045217
0.05971
0.055652
0.052754
0.046957
0.046957
0.052174
0.057391
0.062029
0.066667
0.082319
0.098551
0.15188
0.32464
0.48928
0.64696
0.36696
-0.14783
-0.67652
-0.77739
-0.46203
0.071884
0.44174
0.60928
0.55826
0.27304
-0.06029
-0.30319
-0.25913
-0.0081159
0.28406
0.48464
0.58551
0.60638
0.5913
0.54725
0.44522
0.35884
0.21681
-0.0075362
-0.25101
-0.43478
-0.46087
-0.30087
-0.037101
0.19942
0.33855
0.33391
0.25449
0.17275
0.11884
0.074203
0.01971
-0.031884
-0.071884
-0.064928
-0.026087
0.030145
0.10435
0.1687
0.2087
0.21623
0.2
0.19362
0.19478
0.20232
0.20986
0.21507
0.21101
0.20406
0.18493
0.17275
0.16174
0.15942
0.16464
0.17333
0.18261
0.20058
0.22609
0.23536
0.22261
0.1658
0.089855
0.032464
0.033043
0.15652
0.41275
0.70667
0.84174
0.48812
-0.015652
-0.44406
-0.4742
-0.19536
0.064928
0.2342
0.30783
0.25217
0.030145
-0.22377
-0.3971
-0.3229
-0.093913
0.14551
0.30667
0.33333
0.26377
0.12464
-0.024348
-0.095072
-0.096812
-0.050435
-0.0069565
0.024928
0.052174
0.077101
0.10551
0.14261
0.19014
0.25217
0.28464
0.2742
0.21333
0.12754
0.067246
0.037101
0.010435
-0.023188
-0.070145
-0.095072
-0.095652
-0.071884
-0.037101
0.0028986
0.045217
0.077101
0.089275
0.084638
0.071884
0.06029
0.06087
0.069565
0.084058
0.092174
0.095072
0.089275
0.088696
0.092174
0.09913
0.10783
0.10841
0.10841
0.11362
0.11594
0.15826
0.30725
0.52464
0.78841
0.81275
0.42493
-0.063768
-0.42841
-0.42725
-0.19826
-0.012754
0.1113
0.15768
0.14667
0.075942
-0.071884
-0.25101
-0.37101
-0.3513
-0.15768
0.090435
0.29217
0.3913
0.40986
0.4058
0.40754
0.3971
0.34725
0.25159
0.13739
0.042319
-0.031304
-0.037681
-0.01971
0.013333
0.01971
0.026087
0.04
0.075942
0.10377
0.11188
0.11188
0.085217
0.06029
0.034203
0.01913
0.02087
0.033043
0.044058
0.055652
0.070725
0.085217
0.09971
0.10377
0.11014
0.10377
0.09971
0.090435
0.084058
0.081159
0.081739
0.081159
0.075362
0.071304
0.066667
0.062609
0.063188
0.062609
0.071884
0.088116
0.11942
0.15942
0.20174
0.23536
0.2371
0.20928
0.15536
0.092174
0.066087
0.18029
0.3913
0.67478
0.68928
0.29101
-0.18609
-0.47536
-0.40812
-0.13565
0.048696
0.14725
0.1571
0.031304
-0.17217
-0.35594
-0.36986
-0.2487
-0.070725
0.068406
0.10841
0.1113
0.10957
0.081159
0.064348
0.051014
0.052174
0.069565
0.14319
0.19536
0.2313
0.2458
0.21507
-0.00057971
-0.30725
-0.61913
-0.7687
-0.65565
-0.34145
0.046957
0.42957
0.60986
0.64
0.40754
-0.04
-0.47188
-0.71304
-0.56754
-0.21043
0.09913
0.25565
0.31826
0.30783
0.26319
0.21797
0.19304
0.18725
0.18551
0.18667
0.18551
0.18841
0.18435
0.17855
0.16406
0.14493
0.13333
0.12986
0.13623
0.16174
0.1942
0.22435
0.29043
0.34725
0.3658
0.3658
0.26725
0.0028986
-0.32058
-0.61913
-0.64058
-0.38609
0.052754
0.50261
0.78319
0.87826
0.5287
0.00057971
-0.47014
-0.57855
-0.2887
0.14783
0.45449
0.57623
0.54261
0.46725
0.36928
0.2713
0.12812
-0.06029
-0.25913
-0.37449
-0.37507
-0.22667
-0.00057971
0.22551
0.39478
0.4429
0.39652
0.32696
0.25159
0.16522
0.071884
-0.050435
-0.14203
-0.16174
-0.12174
-0.0069565
0.12812
0.23768
0.29623
0.29159
0.26957
0.25971
0.24928
0.24116
0.23536
0.23478
0.23826
0.23942
0.23536
0.22841
0.22203
0.22319
0.28638
0.41565
0.48928
0.52
0.13101
-0.35884
-0.90667
-0.99942
-0.90319
-0.33391
0.27768
0.69507
0.87072
0.70029
0.21565
-0.31478
-0.65971
-0.56058
-0.26203
0.075942
0.25971
0.33971
0.33043
0.21043
0.083478
-0.070145
-0.26145
-0.41275
-0.47652
-0.4
-0.20986
0.0023188
0.15768
0.21391
0.17623
0.11826
0.077681
0.077681
0.098551
0.12348
0.13275
0.12696
0.12058
0.11362
0.11826
0.1258
0.13333
0.13797
0.14029
0.13275
0.12406
0.11478
0.11014
0.11072
0.1171
0.13449
0.16812
0.20754
0.24464
0.26493
0.25449
0.22087
0.18261
0.14667
0.13391
0.19362
0.38551
0.62261
0.81913
0.58841
0.092174
-0.40986
-0.56986
-0.34667
0.031304
0.30377
0.43942
0.43014
0.23768
-0.11304
-0.44812
-0.6029
-0.46783
-0.20406
0.053913
0.21971
0.26435
0.22667
0.17217
0.11478
0.088116
0.089275
0.076522
-0.0063768
-0.068406
-0.12754
-0.22087
-0.35072
-0.42725
-0.41855
-0.26667
-0.094493
0.050435
0.16812
0.25217
0.28812
0.2829
0.27304
0.2487
0.19594
0.095072
-0.0023188
-0.061449
-0.075362
-0.085217
-0.093913
-0.074203
-0.033623
0.028986
0.10261
0.17623
0.25797
0.32464
0.30899
0.26783
0.14841
-0.13159
-0.47188
-0.80464
-0.89159
-0.69043
-0.28812
0.14725
0.53333
0.70841
0.69449
0.32696
-0.21043
-0.60754
-0.70145
-0.41855
-0.030145
0.26435
0.42493
0.4487
0.44
0.41507
0.41333
0.43652
0.46203
0.46087
0.45043
0.41333
0.36058
0.28928
0.19768
0.10203
0.015072
-0.038261
-0.067826
-0.082899
-0.087536
-0.085797
-0.08058
-0.077101
-0.074783
-0.064928
-0.03942
-0.00057971
0.044058
0.08
0.096232
0.097391
0.085217
0.077101
0.078261
0.086377
0.10319
0.11014
0.11536
0.11188
0.11246
0.1142
0.12116
0.1258
0.13101
0.13275
0.13333
0.12928
0.12406
0.1229
0.11826
0.11826
0.1142
0.11188
0.10783
0.11246
0.12464
0.15072
0.18957
0.24116
0.29739
0.34087
0.34609
0.31884
0.38841
0.51942
0.70899
0.70377
0.29391
-0.14087
-0.44986
-0.40116
-0.14551
-0.011014
0.047536
0.0011594
-0.15536
-0.38087
-0.54435
-0.53681
-0.33565
-0.085797
0.14841
0.27884
0.29739
0.24522
0.17159
0.12638
0.11942
0.12348
0.15188
0.15362
0.17159
0.18203
0.18957
0.17681
0.10203
0.0069565
-0.075942
-0.078261
-0.033043
0.077681
0.21449
0.38029
0.53275
0.68058
0.82435
0.88174
0.68232
0.18319
-0.36986
-0.6429
-0.57623
-0.23536
0.04
0.19942
0.21913
0.17565
0.12406
-0.015652
-0.23072
-0.43768
-0.48464
-0.33217
-0.073043
0.16406
0.2829
0.30203
0.22783
0.15536
0.11826
0.10667
0.1171
0.085797
0.062609
0.01971
-0.058551
-0.15942
-0.25275
-0.25391
-0.17797
-0.041739
0.13971
0.32696
0.54493
0.63188
0.61449
0.34667
-0.13217
-0.58145
-0.84406
-0.73043
-0.36116
0.051014
0.37797
0.5942
0.66145
0.62029
0.45449
0.093913
-0.30957
-0.56638
-0.50145
-0.18957
0.18609
0.42319
0.51362
0.43942
0.25623
0.062029
-0.086377
-0.15652
-0.1571
-0.10203
-0.022609
0.053913
0.10667
0.13217
0.13971
0.13043
0.13101
0.13913
0.15768
0.17971
0.2058
0.22145
0.2342
0.22957
0.22609
0.22319
0.20928
0.1971
0.19072
0.19652
0.2058
0.20986
0.20348
0.19478
0.18783
0.18435
0.18841
0.19362
0.2058
0.21217
0.21913
0.23188
0.25449
0.28116
0.29217
0.27768
0.23942
0.25913
0.38029
0.55826
0.70667
0.48928
-0.022029
-0.47188
-0.66145
-0.46551
-0.13217
0.10725
0.25739
0.28812
0.11304
-0.19246
-0.49855
-0.62145
-0.46145
-0.19304
0.092174
0.2829
0.3658
0.38261
0.35594
0.31014
0.28812
0.25913
0.22377
0.18377
0.073043
0.0011594
-0.055072
-0.12
-0.20464
-0.25275
-0.25391
-0.20232
-0.1229
-0.074783
-0.022609
0.021449
0.028986
-0.056232
-0.2
-0.34029
-0.39652
-0.31884
-0.10493
0.20696
0.49797
0.70841
0.75594
0.67188
0.52522
0.21101
-0.16058
-0.44696
-0.54145
-0.36986
-0.011014
0.21739
0.21217
0.076522
-0.15536
-0.30551
-0.35884
-0.36232
-0.30667
-0.18841
-0.024928
0.12058
0.21333
0.24522
0.24812
0.24638
0.22493
0.20174
0.17855
0.16116
0.14609
0.13275
0.12812
0.13565
0.14435
0.15478
0.16058
0.17507
0.18783
0.21739
0.2487
0.29101
0.32928
0.36754
0.39362
0.41623
0.50261
0.58493
0.69217
0.63652
0.21217
-0.33043
-0.7287
-0.75942
-0.40986
0.030145
0.32986
0.51942
0.49855
0.22899
-0.13507
-0.46203
-0.5629
-0.38609
-0.12174
0.11246
0.25507
0.29101
0.26087
0.19942
0.14319
0.11536
0.10435
0.10725
0.11362
0.13159
0.17507
0.21913
0.25391
0.26783
0.26899
0.26841
0.27826
0.29623
0.32464
0.34203
0.33507
0.29449
0.23478
0.18203
0.14841
0.12638
0.14667
0.19478
0.28464
0.36174
0.31304
0.066087
-0.35014
-0.62783
-0.59594
-0.28696
0.14029
0.48
0.60348
0.57043
0.27478
-0.1629
-0.52406
-0.65565
-0.42609
-0.063188
0.26551
0.47942
0.50261
0.4313
0.35536
0.19884
0.033043
-0.1513
-0.27246
-0.26377
-0.12
0.13623
0.34841
0.50261
0.51246
0.46203
0.41449
0.37797
0.3687
0.36406
0.34783
0.33623
0.33449
0.27246
0.18899
-0.014493
-0.40174
-0.78435
-0.99826
-0.99942
-0.90783
-0.34957
0.18667
0.56406
0.72754
0.71536
0.38783
-0.038261
-0.42203
-0.57739
-0.39072
-0.094493
0.12696
0.24638
0.25275
0.19652
0.13855
0.1142
0.11652
0.14203
0.16638
0.17739
0.18145
0.18203
0.18667
0.19246
0.20174
0.19072
0.17391
0.14725
0.13507
0.14029
0.17159
0.26551
0.36
0.43362
0.39884
0.16754
-0.25565
-0.70899
-0.99536
-1
-0.92928
-0.35188
0.3171
0.72696
0.93043
0.70435
0.25797
-0.21333
-0.46203
-0.33043
-0.015652
0.21565
0.29855
0.27188
0.18725
0.096812
0.038841
0.018551
0.01971
0.034783
0.055072
0.078841
0.10435
0.13391
0.15594
0.17391
0.18957
0.19652
0.2029
0.2087
0.21913
0.23362
0.25101
0.27246
0.29449
0.32522
0.3542
0.37275
0.35362
0.29797
0.21623
0.13101
0.055652
0.0057971
-0.013333
0.018551
0.13565
0.34261
0.54667
0.68058
0.36058
-0.052174
-0.44638
-0.46087
-0.18145
0.12116
0.29449
0.35594
0.34261
0.28
0.18203
0.072464
-0.013333
-0.064928
-0.026667
-0.0081159
0.017391
0.011014
-0.042899
-0.13275
-0.23246
-0.27304
-0.24812
-0.16696
-0.02087
0.13855
0.30551
0.43362
0.53739
0.62493
0.6313
0.48232
0.17623
-0.14551
-0.3258
-0.27826
0.0011594
0.24754
0.28116
0.16464
-0.12232
-0.29391
-0.39072
-0.45449
-0.42203
-0.25855
-0.015652
0.19478
0.31826
0.34029
0.32464
0.28696
0.2371
0.18725
0.14319
0.10261
0.064928
0.038261
0.017971
0.004058
0.0017391
0.0075362
0.02087
0.036522
0.048696
0.06029
0.071884
0.085797
0.10493
0.12058
0.14145
0.16
0.17739
0.19246
0.20406
0.2029
0.18551
0.14087
0.11246
0.16116
0.3258
0.51594
0.67014
0.42261
-0.08058
-0.5687
-0.73507
-0.48174
-0.016232
0.28928
0.44058
0.45043
0.24754
-0.075942
-0.38435
-0.50145
-0.30435
0.0023188
0.28812
0.4742
0.50319
0.42551
0.26435
0.10087
0.0052174
0.0011594
0.064928
0.13855
0.21913
0.21971
0.14493
0.01971
-0.23478
-0.50493
-0.72754
-0.74667
-0.64348
-0.41101
-0.14783
0.12
0.31594
0.37333
0.32638
0.26087
0.14029
-0.018551
-0.22029
-0.33159
-0.3258
-0.14841
0.095072
0.29971
0.41275
0.4058
0.3229
0.2429
0.18377
0.15768
0.15188
0.1542
0.18203
0.25101
0.26087
0.2858
0.19594
-0.073623
-0.36174
-0.7113
-0.83362
-0.71768
-0.36348
0.15594
0.66667
0.97043
1
0.5513
-0.05913
-0.55768
-0.76348
-0.5687
-0.2458
0.0075362
0.16406
0.21449
0.21275
0.20116
0.18261
0.15826
0.13101
0.11536
0.11884
0.13391
0.15072
0.17275
0.18435
0.18957
0.18145
0.16464
0.14377
0.11304
0.081739
0.048696
0.027246
0.02029
0.035362
0.05971
0.082899
0.11014
0.14087
0.18029
0.33101
0.45449
0.59304
0.47884
0.053333
-0.53275
-0.95536
-0.9542
-0.60638
-0.02087
0.47942
0.76
0.7971
0.52464
0.086957
-0.33971
-0.53333
-0.36638
-0.06087
0.22725
0.36058
0.43826
0.40812
0.37623
0.29043
0.04058
-0.30435
-0.58145
-0.65217
-0.43478
-0.11362
0.16
0.33739
0.38609
0.34029
0.26493
0.19826
0.1687
0.15536
0.13797
0.11362
0.088696
0.08058
0.08058
0.092754
0.10725
0.13101
0.15884
0.1913
0.20986
0.21855
0.21043
0.20058
0.19072
0.18319
0.17971
0.18551
0.20638
0.2342
0.27246
0.34319
0.48928
0.60696
0.73159
0.46783
-0.02029
-0.66957
-0.98551
-0.95014
-0.50609
0.028406
0.3942
0.57797
0.48174
0.067246
-0.36986
-0.67478
-0.59362
-0.29913
0.0034783
0.1913
0.23652
0.22203
0.18261
0.14899
0.12812
0.1113
0.091594
0.077681
0.074783
0.090435
0.11536
0.14145
0.16058
0.17971
0.18841
0.1942
0.19652
0.19594
0.20232
0.20928
0.23188
0.26377
0.28928
0.29159
0.26029
0.19942
0.12348
0.062029
0.024348
0.021449
0.049855
0.094493
0.17101
0.34783
0.54725
0.76
0.6742
0.25391
-0.26319
-0.49913
-0.37217
-0.057391
0.16464
0.24522
0.25913
0.24348
0.21101
0.20116
0.16696
0.12232
0.044638
-0.013913
-0.038841
-0.038261
-0.023768
-0.0034783
0.028406
0.057971
0.066667
0.054493
0.025507
-0.0011594
-0.0092754
-0.0057971
0.02029
0.055652
0.098551
0.15072
0.28522
0.41913
0.54957
0.51652
0.1229
-0.39942
-0.89681
-0.97681
-0.70957
-0.12464
0.40174
0.72058
0.81797
0.60464
0.16812
-0.27884
-0.52464
-0.37333
-0.048116
0.31014
0.5171
0.5513
0.50029
0.40464
0.13681
-0.21739
-0.52464
-0.65913
-0.49739
-0.21159
0.085217
0.28406
0.3542
0.3229
0.24812
0.17275
0.12754
0.10957
0.10435
0.10319
0.10377
0.10319
0.10899
0.10725
0.10899
0.096812
0.078841
0.054493
0.035942
0.042319
0.05971
0.081159
0.096812
0.10725
0.11768
0.12986
0.1571
0.21217
0.28058
0.34493
0.46899
0.57565
0.67942
0.63826
0.23942
-0.30087
-0.80928
-0.88464
-0.57565
-0.10957
0.17913
0.26551
0.27652
0.14261
-0.13681
-0.4058
-0.55942
-0.50493
-0.30029
-0.085797
0.10783
0.29043
0.35246
0.30435
0.14319
-0.16522
-0.45217
-0.62261
-0.58377
-0.39768
-0.092754
0.20928
0.4313
0.55884
0.49913
0.31072
0.064348
-0.14203
-0.22667
-0.15652
0.056812
0.28754
0.48116
0.59826
0.60232
0.55188
0.44638
0.31362
0.20928
0.14029
0.090435
0.042899
0.011014
0.0057971
0.025507
0.055652
0.092174
0.11942
0.14377
0.17217
0.19768
0.21681
0.21159
0.18667
0.15478
0.12812
0.11304
0.10551
0.14783
0.32696
0.46957
0.63884
0.44058
-0.017971
-0.61275
-0.96174
-0.88522
-0.45855
0.051594
0.42087
0.57913
0.47304
0.038261
-0.4313
-0.73623
-0.65913
-0.29739
0.13043
0.42319
0.53449
0.55536
0.44812
0.18667
-0.097971
-0.29623
-0.32928
-0.22145
-0.063768
0.10377
0.23072
0.31304
0.30667
0.26145
0.20406
0.16464
0.13101
0.1258
0.12986
0.12696
0.12406
0.11826
0.14029
0.21913
0.26551
0.28696
0.20522
-0.091594
-0.39826
-0.76812
-0.83536
-0.64812
-0.19768
0.30667
0.66667
0.82377
0.6429
0.22493
-0.23014
-0.52812
-0.43768
-0.13681
0.17101
0.37855
0.44116
0.41681
0.32464
0.20464
0.094493
0.011014
-0.043478
-0.064348
-0.052174
-0.014493
0.034203
0.078841
0.10957
0.1258
0.12232
0.11014
0.093913
0.09971
0.11362
0.13623
0.20464
0.32174
0.41681
0.49913
0.2458
-0.11478
-0.59652
-0.83536
-0.7229
-0.36232
0.12232
0.5542
0.79942
0.79652
0.4342
-0.051014
-0.50435
-0.69391
-0.49913
-0.16928
0.17681
0.39478
0.44696
0.41913
0.32986
0.12522
-0.14087
-0.36696
-0.44812
-0.33217
-0.11362
0.10319
0.2742
0.37043
0.37681
0.33217
0.27188
0.22261
0.19478
0.19072
0.20116
0.20638
0.20058
0.17913
0.15246
0.12406
0.10319
0.09971
0.11304
0.14667
0.18203
0.22145
0.24638
0.27072
0.30319
0.3229
0.3229
0.28928
0.21913
0.14261
0.083478
0.063768
0.084638
0.16348
0.40116
0.62145
0.86841
0.8029
0.38725
-0.15594
-0.50493
-0.47652
-0.16232
0.17217
0.37391
0.45681
0.3513
0.091594
-0.22551
-0.48464
-0.53971
-0.36
-0.088116
0.19594
0.42725
0.53101
0.55362
0.42493
0.05971
-0.32116
-0.58725
-0.59246
-0.34203
-0.024348
0.26667
0.49043
0.57043
0.53275
0.4087
0.26551
0.1542
0.064928
-0.0057971
-0.0017391
0.06029
0.13739
0.22203
0.19362
-0.037101
-0.31478
-0.57739
-0.64
-0.50435
-0.24406
0.056812
0.30493
0.4487
0.45971
0.38377
0.23826
0.0057971
-0.25449
-0.45101
-0.47826
-0.34087
-0.10609
0.091014
0.24522
0.28058
0.25855
0.18319
0.11652
0.092754
0.11362
0.15826
0.2371
0.33565
0.3513
0.38087
0.33855
0.2029
0.030145
-0.18435
-0.29159
-0.30145
-0.25623
-0.12058
0.043478
0.21565
0.38261
0.44638
0.2313
-0.077101
-0.35362
-0.3542
-0.11072
0.14783
0.29739
0.33043
0.28174
0.20812
0.12522
0.066667
0.028406
-0.012174
-0.035362
-0.041159
-0.0081159
0.041739
0.091014
0.13333
0.16754
0.19826
0.21971
0.23536
0.24406
0.25449
0.26551
0.28696
0.31942
0.3629
0.40812
0.42899
0.41159
0.35362
0.27304
0.19362
0.14609
0.18783
0.37739
0.58319
0.80928
0.65275
0.23594
-0.28058
-0.55362
-0.43188
-0.073043
0.23594
0.43188
0.4887
0.37739
0.097391
-0.24116
-0.52812
-0.59188
-0.40406
-0.14029
0.13217
0.3658
0.46551
0.48058
0.30609
-0.042319
-0.37507
-0.55652
-0.45043
-0.17333
0.11884
0.3287
0.46783
0.45507
0.36348
0.2371
0.092174
-0.031884
-0.11594
-0.13797
-0.076522
-0.0028986
0.056812
0.086957
0.094493
0.084638
0.052754
-0.0069565
-0.049855
-0.035362
-0.00057971
0.026667
0.037681
0.042319
0.051014
0.061449
0.071884
0.086957
0.095652
0.10435
0.10725
0.11768
0.13333
0.15246
0.16754
0.18145
0.17971
0.16522
0.13797
0.10435
0.076522
0.055652
0.042319
0.045217
0.056232
0.063768
0.075942
0.087536
0.12174
0.22957
0.39362
0.57449
0.71362
0.59826
0.15826
-0.4887
-0.83188
-0.7971
-0.42087
-0.044058
0.20522
0.32232
0.26435
0.0092754
-0.27884
-0.48174
-0.39884
-0.13101
0.15188
0.35072
0.42261
0.41333
0.36348
0.29623
0.2429
0.19304
0.14145
0.084638
0.067246
0.052754
0.11942
0.15652
0.17275
0.14493
0.013333
-0.13101
-0.26493
-0.29797
-0.22783
-0.13275
-0.024348
0.092754
0.21623
0.30609
0.31188
0.2887
0.16812
-0.071304
-0.40754
-0.76232
-0.87072
-0.6887
-0.26841
0.16928
0.48754
0.65101
0.53855
0.18957
-0.20696
-0.47362
-0.41101
-0.15304
0.10029
0.28406
0.33333
0.33043
0.29681
0.26203
0.25797
0.25971
0.26609
0.28754
0.36
0.38841
0.38957
0.29623
0.04058
-0.21681
-0.45449
-0.48812
-0.36812
-0.076522
0.25855
0.57391
0.72812
0.56464
0.21333
-0.17275
-0.4
-0.33043
-0.12522
0.082899
0.20232
0.23362
0.17333
0.10319
0.012174
-0.091594
-0.19942
-0.25391
-0.19014
-0.06087
0.063768
0.16754
0.24116
0.29159
0.33681
0.29159
0.2487
0.16232
0.0011594
-0.21333
-0.43246
-0.5287
-0.44464
-0.19188
0.16174
0.4771
0.69623
0.77565
0.67304
0.39072
-0.0063768
-0.39884
-0.61623
-0.51072
-0.22957
0.091594
0.28058
0.28986
0.20696
0.023768
-0.16812
-0.26261
-0.20406
-0.055652
0.088116
0.20406
0.28058
0.29971
0.26145
0.21681
0.17797
0.15652
0.14029
0.1258
0.13333
0.16116
0.18261
0.20638
0.21971
0.24754
0.27014
0.29565
0.31536
0.32174
0.31362
0.30261
0.26957
0.20232
0.13913
0.092174
0.11536
0.17449
0.27188
0.36754
0.4371
0.34087
0.013333
-0.39652
-0.70319
-0.64348
-0.33101
0.097971
0.40638
0.54609
0.53217
0.33797
-0.026087
-0.42667
-0.70899
-0.72116
-0.43826
-0.089855
0.21507
0.44116
0.56522
0.56986
0.56232
0.48986
0.35014
0.14841
-0.066087
-0.12348
-0.10841
0.037681
0.22435
0.33565
0.29333
0.10609
-0.073043
-0.17971
-0.1287
-0.077101
-0.047536
-0.046377
-0.044638
-0.026087
0.014493
0.062029
0.11594
0.17275
0.21797
0.24522
0.2371
0.20928
0.17507
0.14899
0.13159
0.11826
0.11478
0.11536
0.1258
0.14899
0.17623
0.20928
0.23188
0.24058
0.23014
0.2029
0.17565
0.14725
0.13217
0.11826
0.1287
0.23884
0.4313
0.63826
0.72464
0.36174
-0.14957
-0.60696
-0.65681
-0.34029
0.10203
0.33739
0.45333
0.44638
0.30783
0.035362
-0.28522
-0.53855
-0.57623
-0.37681
-0.097391
0.16812
0.37565
0.49855
0.53275
0.57275
0.5287
0.28986
-0.089855
-0.44232
-0.59594
-0.44464
-0.20116
0.046957
0.22435
0.32058
0.28348
0.21391
0.10899
-0.010435
-0.15536
-0.30145
-0.26725
-0.13797
0.055652
0.25507
0.32406
0.23072
0.06029
-0.096812
-0.13855
-0.091014
-0.02087
0.058551
0.1258
0.18319
0.23188
0.26725
0.29217
0.30957
0.31362
0.30725
0.28406
0.23304
0.17159
0.10319
0.044638
0.0063768
-0.0052174
-0.00057971
0.022029
0.11188
0.23768
0.35768
0.42609
0.20986
-0.15942
-0.65043
-0.86609
-0.69971
-0.27014
0.19188
0.51246
0.59594
0.56464
0.33855
-0.048696
-0.42377
-0.6342
-0.52754
-0.21043
0.1258
0.37971
0.51884
0.54957
0.4771
0.42087
0.33971
0.24
0.084638
0.011594
-0.011594
0.034783
0.11072
0.11246
0.033623
-0.08058
-0.17913
-0.14493
-0.044058
0.018551
0.036522
0.05971
0.10435
0.1542
0.16522
0.1629
0.1658
0.15768
0.15072
0.13275
0.11478
0.09971
0.083478
0.066087
0.044638
0.023188
0.012174
0.012174
0.027826
0.061449
0.10029
0.13159
0.14841
0.15188
0.14203
0.11826
0.088696
0.12348
0.19652
0.29623
0.39652
0.37913
0.17913
-0.14841
-0.53507
-0.73391
-0.63362
-0.31594
0.12232
0.42957
0.60348
0.60406
0.4458
0.15188
-0.22609
-0.51826
-0.56
-0.35246
-0.05913
0.16348
0.28986
0.34319
0.3258
0.33159
0.29681
0.21159
0.013913
-0.2
-0.33565
-0.36522
-0.32522
-0.20812
-0.091594
0.06029
0.18899
0.28232
0.29855
0.30493
0.26725
0.19652
0.10783
0.041159
0.041739
0.082319
0.13159
0.18667
0.23072
0.26551
0.29217
0.29391
0.26899
0.22377
0.16638
0.1142
0.088116
0.084058
0.095072
0.10261
0.10899
0.10435
0.091014
0.091014
0.11304
0.15246
0.19478
0.26493
0.36696
0.46551
0.56058
0.44754
0.074783
-0.43362
-0.80812
-0.75884
-0.42087
0.13101
0.54377
0.76058
0.80348
0.53913
0.056232
-0.40522
-0.65043
-0.49623
-0.15362
0.19884
0.44116
0.54029
0.54319
0.44812
0.34725
0.22493
0.070725
-0.091594
-0.20928
-0.15652
-0.070725
0.090435
0.23014
0.28
0.18029
-0.012754
-0.19072
-0.19942
-0.14203
-0.06029
0.004058
0.0023188
-0.035362
-0.10493
-0.14667
-0.11884
-0.052174
0.0081159
0.051594
0.083478
0.096812
0.09913
0.081739
0.046377
0.022609
0.0017391
-0.010435
-0.0011594
0.011594
0.029565
0.050435
0.074203
0.093913
0.10667
0.10899
0.1113
0.13855
0.18667
0.27304
0.33565
0.3971
0.45449
0.46725
0.40754
0.19768
-0.17101
-0.51826
-0.68638
-0.53913
-0.12696
0.32116
0.67304
0.82435
0.73739
0.41159
-0.024928
-0.37159
-0.45043
-0.25043
0.016812
0.19594
0.26957
0.27478
0.28058
0.22087
0.19014
0.12812
0.0011594
-0.17159
-0.31072
-0.34261
-0.24
-0.055072
0.15652
0.32638
0.43188
0.45101
0.41101
0.36986
0.33855
0.33101
0.33449
0.32928
0.32
0.31246
0.30261
0.2858
0.25797
0.22841
0.19884
0.17043
0.14841
0.1287
0.11536
0.10319
0.098551
0.098551
0.085217
0.070725
0.078841
0.1258
0.18493
0.23536
0.28986
0.27014
0.20232
-0.025507
-0.30783
-0.55942
-0.6058
-0.38783
0.028986
0.41275
0.66841
0.67246
0.49565
0.18725
-0.1942
-0.50319
-0.59536
-0.41913
-0.13159
0.17681
0.34435
0.45275
0.4713
0.44522
0.38087
0.12464
-0.21855
-0.53565
-0.64058
-0.48812
-0.23246
0.017391
0.18841
0.28174
0.2713
0.23362
0.17507
0.14203
0.10899
0.068406
0.0098551
-0.042899
-0.082899
-0.10493
-0.10841
-0.088116
-0.044058
0.0063768
0.062029
0.10725
0.14029
0.15478
0.1513
0.17275
0.24464
0.3542
0.46899
0.49971
0.23536
-0.14319
-0.63942
-0.87884
-0.76058
-0.41333
0.078261
0.44464
0.61565
0.63884
0.47768
0.10087
-0.2887
-0.56986
-0.56638
-0.31362
-0.023188
0.21971
0.35942
0.41391
0.37681
0.33681
0.28638
0.16348
-0.057391
-0.31072
-0.47884
-0.42145
-0.23362
0.0063768
0.19594
0.30029
0.33391
0.32928
0.32464
0.33217
0.34725
0.33333
0.29043
0.23594
0.18377
0.14667
0.1287
0.13623
0.16174
0.1913
0.2087
0.21913
0.21797
0.22145
0.22899
0.25217
0.28638
0.32754
0.3658
0.38609
0.37507
0.33101
0.26725
0.30203
0.37101
0.46783
0.49101
0.14145
-0.3171
-0.77565
-0.8342
-0.55826
-0.10783
0.18319
0.35652
0.36696
0.29333
0.11188
-0.13623
-0.37797
-0.50145
-0.46957
-0.33855
-0.19304
-0.025507
0.096812
0.17217
0.19768
0.19942
0.21565
0.24232
0.26899
0.28928
0.29797
0.31826
0.32928
0.33275
0.31188
0.27536
0.2313
0.18029
0.13623
0.10377
0.087536
0.087536
0.16522
0.34087
0.50609
0.63014
0.37971
-0.031884
-0.5258
-0.74203
-0.55942
-0.12638
0.33043
0.60696
0.66203
0.61449
0.43188
0.1142
-0.22899
-0.49681
-0.56
-0.41739
-0.18435
0.041159
0.23362
0.28812
0.26145
0.20348
0.13043
0.07942
0.013913
-0.062029
-0.096232
-0.044638
0.088116
0.25623
0.38087
0.42551
0.33681
0.068406
-0.22145
-0.46145
-0.43942
-0.33275
-0.20754
-0.044058
0.10261
0.1287
0.074203
-0.041159
-0.068986
-0.035362
-0.017391
-0.034203
-0.045217
-0.041739
-0.0011594
0.052174
0.1171
0.14493
0.14435
0.1229
0.10435
0.096232
0.093913
0.092754
0.092174
0.093913
0.10087
0.11362
0.13391
0.16
0.18551
0.20812
0.22899
0.25159
0.28
0.31188
0.33565
0.33623
0.30609
0.24232
0.15826
0.10435
0.074203
0.17623
0.38203
0.60986
0.79594
0.64116
0.27362
-0.24464
-0.49333
-0.3971
-0.089275
0.2371
0.43594
0.47826
0.42957
0.21855
-0.097971
-0.40464
-0.5513
-0.44986
-0.22319
0.014493
0.18145
0.26957
0.2887
0.31768
0.27536
0.26435
0.21101
0.13101
0.045797
-0.013913
-0.011014
0.034783
0.12464
0.24232
0.32928
0.40348
0.39014
0.27478
0.070145
-0.13333
-0.27826
-0.30029
-0.27884
-0.25217
-0.15768
-0.068986
0.046377
0.15246
0.070725
-0.13159
-0.43942
-0.73971
-0.83478
-0.62493
-0.25739
0.24754
0.63594
0.7913
0.71594
0.41333
-0.023188
-0.38551
-0.54667
-0.40058
-0.12058
0.13449
0.31942
0.40696
0.43594
0.4087
0.38377
0.34667
0.31594
0.25913
0.20754
0.16986
0.1542
0.13971
0.11536
0.082319
0.056812
0.044638
0.044638
0.068986
0.11536
0.19014
0.30261
0.38957
0.46667
0.43246
0.30493
-0.028406
-0.37971
-0.72638
-0.85681
-0.75362
-0.45507
-0.052754
0.29739
0.45565
0.41739
0.14203
-0.26551
-0.62029
-0.74319
-0.46145
-0.068406
0.28638
0.45159
0.48522
0.42203
0.34435
0.2713
0.24174
0.23826
0.28986
0.27826
0.24406
0.20058
0.065507
-0.095072
-0.22957
-0.32348
-0.2887
-0.18435
0.016812
0.20464
0.34319
0.41913
0.33681
0.11188
-0.16696
-0.33565
-0.34319
-0.23362
-0.078261
0.093913
0.23768
0.31072
0.30087
0.25855
0.21217
0.16348
0.12812
0.11362
0.10899
0.12522
0.15826
0.19304
0.22783
0.25043
0.25333
0.23826
0.20464
0.16928
0.14377
0.12986
0.13507
0.14551
0.15362
0.16232
0.2029
0.28696
0.45565
0.63536
0.78957
0.73623
0.38087
-0.15246
-0.56986
-0.67304
-0.48116
-0.10145
0.11304
0.25971
0.27246
0.11188
-0.14145
-0.39072
-0.52986
-0.47594
-0.22899
0.0063768
0.2342
0.34377
0.38029
0.33275
0.24174
0.16348
0.12522
0.13449
0.13855
0.10319
0.11304
0.10783
0.08058
0.081159
-0.024348
-0.23014
-0.43188
-0.60232
-0.58493
-0.42319
-0.19246
0.10899
0.32754
0.47594
0.50493
0.44058
0.30957
0.11884
-0.097391
-0.2342
-0.22841
-0.088116
0.09913
0.26783
0.37043
0.39304
0.35536
0.30145
0.24638
0.20986
0.2
0.20812
0.27594
0.28174
0.30493
0.20232
-0.11014
-0.42145
-0.74377
-0.85275
-0.65565
-0.33565
0.1171
0.42261
0.58435
0.6087
0.48
0.20174
-0.11594
-0.37681
-0.46493
-0.31942
-0.089275
0.18261
0.34609
0.46203
0.45971
0.38493
0.23478
0.0092754
-0.18667
-0.29855
-0.24232
-0.11594
0.01913
0.20754
0.32696
0.34609
0.29855
0.14087
-0.06087
-0.25391
-0.36232
-0.33913
-0.24464
-0.074783
0.16638
0.40058
0.59826
0.59362
0.39014
0.071884
-0.2313
-0.33855
-0.24696
-0.067246
0.10203
0.27826
0.37275
0.38029
0.29739
0.20638
0.12812
0.045217
-0.029565
-0.066087
-0.016232
0.10435
0.21275
0.31536
0.37333
0.39652
0.38725
0.34841
0.30841
0.28754
0.26261
0.30609
0.36812
0.38725
0.32348
0.048696
-0.31884
-0.7258
-0.95768
-0.88406
-0.58899
-0.095072
0.33681
0.61855
0.73333
0.54725
0.11884
-0.30203
-0.56116
-0.48
-0.18783
0.1142
0.33275
0.44348
0.50493
0.49739
0.45971
0.38435
0.55826
