0.54986
0.51298
0.42418
0.31352
0.20287
0.097678
0.01571
-0.053279
-0.10383
-0.13251
-0.16325
-0.2056
-0.24795
-0.26503
-0.24249
-0.22268
-0.32172
-0.50342
-0.48292
-0.31284
0.034836
0.26708
0.38456
0.48429
0.5847
0.59563
0.53484
0.42896
0.30191
0.17623
0.062842
-0.032787
-0.10587
-0.15232
-0.17213
-0.18648
-0.17964
-0.18443
-0.17896
-0.22883
-0.38115
-0.60587
-0.63183
-0.38866
0.054645
0.4276
0.60314
0.64686
0.65574
0.62637
0.52664
0.39549
0.26298
0.14686
0.046448
-0.034836
-0.096311
-0.14003
-0.1653
-0.19536
-0.19945
-0.20628
-0.19604
-0.19945
-0.30669
-0.51434
-0.6373
-0.55328
-0.18648
0.21448
0.48156
0.60792
0.67008
0.70765
0.66803
0.57309
0.44809
0.32309
0.20492
0.10451
0.023224
-0.040301
-0.092213
-0.11954
-0.14071
-0.14413
-0.14071
-0.1694
-0.31831
-0.5847
-0.71516
-0.54986
-0.16667
0.23634
0.4474
0.53415
0.60246
0.64139
0.60246
0.49795
0.36475
0.22609
0.098361
-0.0020492
-0.080601
-0.12295
-0.13661
-0.14481
-0.15027
-0.17008
-0.24249
-0.39754
-0.62637
-0.69604
-0.53074
-0.14276
0.25273
0.4679
0.57377
0.6291
0.6653
0.63388
0.5403
0.39139
0.24385
0.10997
0.010246
-0.058743
-0.11475
-0.14139
-0.15574
-0.15574
-0.16325
-0.20287
-0.32582
-0.56284
-0.73702
-0.67964
-0.34699
0.084016
0.38183
0.5362
0.6168
0.66667
0.63251
0.51844
0.36954
0.21653
0.094945
0.0027322
-0.071721
-0.11749
-0.14481
-0.16393
-0.18511
-0.19126
-0.20492
-0.22746
-0.3265
-0.51434
-0.69536
-0.63798
-0.33333
0.10109
0.42828
0.58948
0.64208
0.61339
0.52664
0.41393
0.30123
0.30123
0.19604
0.097678
0.012978
-0.054645
-0.11475
-0.16325
-0.20423
-0.23361
-0.2459
-0.24454
-0.25956
-0.38798
-0.58675
-0.71038
-0.60383
-0.2377
0.14822
0.40574
0.52391
0.56967
0.57582
0.52801
0.43443
0.32582
0.22063
0.12158
0.040984
-0.03347
-0.092213
-0.13798
-0.1776
-0.18784
-0.20355
-0.23224
-0.31626
-0.39139
-0.40847
-0.48429
-0.46038
-0.32582
-0.085383
0.20219
0.38798
0.46448
0.52801
0.54645
0.49863
0.40574
0.2985
0.19467
0.099727
0.020492
-0.048497
-0.10041
-0.12773
-0.13661
-0.14481
-0.20697
-0.35997
-0.56421
-0.6209
-0.44945
-0.13661
0.17077
0.34426
0.43921
0.50956
0.53893
0.50546
0.42077
0.31421
0.20423
0.10451
0.023907
-0.032787
-0.07377
-0.099727
-0.12158
-0.14754
-0.18921
-0.29713
-0.42213
-0.52322
-0.5403
-0.41735
-0.18306
0.084016
0.30396
0.44809
0.51708
0.54235
0.51366
0.43784
0.33402
0.22678
0.125
0.046448
-0.016393
-0.060109
-0.079918
-0.079235
-0.073087
-0.099044
-0.19604
-0.37363
-0.59016
-0.62295
-0.52869
-0.22883
0.067623
0.29508
0.45833
0.55396
0.59563
0.56626
0.48224
0.37295
0.26025
0.15164
0.064208
-0.0027322
-0.047814
-0.075137
-0.085383
-0.079918
-0.088798
-0.1168
-0.17623
-0.2582
-0.35041
-0.5041
-0.67281
-0.58333
-0.31148
0.099044
0.42896
0.56216
0.64208
0.66052
0.60041
0.49522
0.38115
0.27254
0.17418
0.096311
0.037568
0.0020492
-0.022541
-0.034836
-0.034836
-0.041667
-0.10314
-0.24385
-0.43238
-0.66257
-0.74454
-0.59904
-0.27801
0.11202
0.38866
0.54577
0.64344
0.68169
0.62568
0.51981
0.39686
0.27459
0.1694
0.093579
0.040301
-0.0034153
-0.037568
-0.053962
-0.068306
-0.094945
-0.14276
-0.21448
-0.29235
-0.36544
-0.53825
-0.69399
-0.63456
-0.3429
0.094262
0.42964
0.59085
0.67145
0.70355
0.65232
0.54372
0.42077
0.29645
0.18238
0.088798
0.017077
-0.030055
-0.057377
-0.084016
-0.10929
-0.13866
-0.1694
-0.20697
-0.30191
-0.46858
-0.70697
-0.79713
-0.65984
-0.26844
0.16257
0.48224
0.6694
0.75888
0.78279
0.72473
0.61202
0.48019
0.34631
0.22199
0.11134
0.016393
-0.062158
-0.11749
-0.15164
-0.16872
-0.19331
-0.22609
-0.27732
-0.36202
-0.42486
-0.48839
-0.62432
-0.625
-0.44467
-0.095628
0.29098
0.5321
0.63251
0.68989
0.68989
0.62158
0.50888
0.38183
0.25
0.12773
0.030055
-0.043716
-0.09153
-0.12363
-0.14003
-0.15232
-0.15642
-0.15915
-0.18921
-0.30396
-0.56216
-0.76708
-0.70355
-0.375
0.11134
0.46858
0.69604
0.83128
0.89754
0.84426
0.69809
0.50683
0.32104
0.15642
0.023224
-0.071721
-0.1373
-0.17555
-0.2015
-0.2179
-0.2377
-0.2582
-0.29577
-0.35383
-0.41052
-0.41325
-0.38593
-0.47131
-0.43579
-0.28962
0.040301
0.39549
0.58128
0.63251
0.63593
0.59153
0.50478
0.39413
0.27391
0.1571
0.062842
-0.012295
-0.05806
-0.087432
-0.10041
-0.11202
-0.11954
-0.14139
-0.16393
-0.19194
-0.31831
-0.52869
-0.6735
-0.53893
-0.17281
0.28484
0.54508
0.66667
0.69331
0.67077
0.59973
0.4877
0.36612
0.24658
0.13661
0.040301
-0.041667
-0.094945
-0.1291
-0.15437
-0.17555
-0.20833
-0.25
-0.30874
-0.36954
-0.46038
-0.52869
-0.48975
-0.36749
-0.11817
0.15984
0.36885
0.50956
0.52869
0.4877
0.42418
0.32992
0.20765
0.087432
-0.016393
-0.092896
-0.14413
-0.16462
-0.17077
-0.17623
-0.18989
-0.20492
-0.23429
-0.28005
-0.32923
-0.39754
-0.41189
-0.42623
-0.48497
-0.31079
-0.10383
0.23975
0.48292
0.57719
0.625
0.63456
0.57377
0.47678
0.35314
0.22951
0.1127
0.019126
-0.039617
-0.07582
-0.092896
-0.10314
-0.1168
-0.1291
-0.13934
-0.18511
-0.28142
-0.45014
-0.57514
-0.5082
-0.28962
0.071721
0.33675
0.52937
0.62773
0.65847
0.64549
0.57104
0.45902
0.33333
0.20765
0.092213
0.0061475
-0.068306
-0.1168
-0.13525
-0.14276
-0.15301
-0.17145
-0.19399
-0.23156
-0.32036
-0.46038
-0.60109
-0.53005
-0.30464
0.047814
0.32787
0.4959
0.57787
0.60861
0.57787
0.49727
0.38456
0.26366
0.15505
0.062842
-0.01571
-0.075137
-0.11202
-0.13183
-0.13934
-0.13661
-0.13388
-0.14891
-0.17213
-0.2015
-0.29645
-0.46585
-0.61817
-0.60041
-0.34153
0.016393
0.34085
0.54918
0.66189
0.70082
0.66872
0.58128
0.45697
0.32923
0.20492
0.088798
0.0013661
-0.072404
-0.10997
-0.13183
-0.13934
-0.13115
-0.11954
-0.1291
-0.18033
-0.29986
-0.47746
-0.62295
-0.59563
-0.37637
-0.032787
0.27254
0.48361
0.61339
0.67691
0.66667
0.58675
0.46448
0.32923
0.20628
0.10792
0.017077
-0.040301
-0.084016
-0.11202
-0.1168
-0.12022
-0.11885
-0.11612
-0.13593
-0.15984
-0.20423
-0.2903
-0.47063
-0.73566
-0.78005
-0.6332
-0.21721
0.19262
0.46585
0.62773
0.7138
0.71107
0.63388
0.52459
0.39686
0.26434
0.14344
0.034836
-0.039617
-0.096995
-0.12842
-0.13388
-0.13183
-0.11749
-0.094945
-0.087432
-0.071038
-0.14754
-0.36407
-0.69672
-0.76025
-0.57377
-0.14822
0.2138
0.43648
0.57036
0.65984
0.65505
0.57855
0.47268
0.34563
0.22336
0.10861
0.015027
-0.059426
-0.10314
-0.13115
-0.14617
-0.13593
-0.099727
-0.067623
-0.084699
-0.19467
-0.41462
-0.6974
-0.81148
-0.69945
-0.31489
0.11066
0.43716
0.62158
0.70628
0.71858
0.66393
0.56079
0.43101
0.3026
0.17623
0.077869
0.0081967
-0.045082
-0.086749
-0.11475
-0.12022
-0.12158
-0.12842
-0.1571
-0.2056
-0.26639
-0.34973
-0.54235
-0.78005
-0.80464
-0.6612
-0.19945
0.18784
0.47814
0.61749
0.6612
0.64071
0.57923
0.48087
0.35929
0.24044
0.12363
0.032104
-0.043033
-0.09153
-0.12842
-0.15437
-0.17213
-0.18306
-0.18238
-0.18169
-0.18033
-0.20219
-0.26093
-0.40369
-0.63456
-0.89139
-0.83948
-0.55669
-0.064891
0.3668
0.63525
0.79645
0.87978
0.87432
0.79098
0.6694
0.51503
0.34631
0.18579
0.040984
-0.060792
-0.13593
-0.17623
-0.20287
-0.20902
-0.19399
-0.17008
-0.21243
-0.31284
-0.50478
-0.75615
-0.79167
-0.62637
-0.21926
0.22063
0.55396
0.77801
0.90301
0.93511
0.87637
0.74522
0.57582
0.38456
0.20014
0.028005
-0.095628
-0.17896
-0.21926
-0.25137
-0.28962
-0.34699
-0.41393
-0.48087
-0.55396
-0.63593
-0.65437
-0.56694
-0.37158
-0.060109
0.23156
0.47746
0.61612
0.64208
0.60861
0.53142
0.42964
0.30328
0.17555
0.043716
-0.05806
-0.12842
-0.18921
-0.2418
-0.27732
-0.29781
-0.2944
-0.29986
-0.29713
-0.32172
-0.34836
-0.37637
-0.36749
-0.40164
-0.50137
-0.50615
-0.40096
-0.043716
0.31011
0.57445
0.67828
0.68784
0.6571
0.58265
0.48019
0.35519
0.22541
0.096995
-0.011612
-0.10383
-0.17828
-0.23429
-0.27801
-0.32309
-0.36885
-0.41735
-0.45697
-0.43852
-0.39276
-0.42828
-0.47404
-0.41189
-0.24044
0.069672
0.29713
0.4638
0.59904
0.67213
0.66735
0.58197
0.4515
0.30874
0.1735
0.052596
-0.038934
-0.12363
-0.20014
-0.28689
-0.37022
-0.43921
-0.43852
-0.39003
-0.36407
-0.4153
-0.34768
-0.23634
0.021175
0.27322
0.43443
0.57582
0.65437
0.63798
0.56489
0.45082
0.31626
0.19604
0.07377
-0.018443
-0.10109
-0.1653
-0.2179
-0.26913
-0.33811
-0.41667
-0.49658
-0.55464
-0.61134
-0.65301
-0.46995
-0.22404
0.16598
0.44809
0.62432
0.71516
0.72678
0.65984
0.53893
0.39208
0.25273
0.13183
0.032104
-0.046448
-0.099044
-0.13251
-0.14822
-0.15301
-0.15096
-0.12432
-0.083333
-0.094262
-0.21585
-0.45492
-0.69194
-0.81967
-0.5765
-0.20219
0.27322
0.59426
0.75615
0.7903
0.74385
0.63388
0.5
0.36066
0.22131
0.089481
-0.0081967
-0.085383
-0.12432
-0.14071
-0.13798
-0.12295
-0.11544
-0.13661
-0.18921
-0.26708
-0.31421
-0.3668
-0.39754
-0.44262
-0.45082
-0.32992
-0.083333
0.22063
0.45765
0.5765
0.5888
0.57036
0.5041
0.40574
0.2862
0.16735
0.060792
-0.02459
-0.09153
-0.13866
-0.16667
-0.18238
-0.18511
-0.18101
-0.15984
-0.13661
-0.11134
-0.080601
-0.048497
-0.01776
-0.010929
-0.048497
-0.2138
-0.56489
-0.79645
-0.73292
-0.39549
0.064208
0.37637
0.56899
0.7015
0.72473
0.64686
0.52801
0.40779
0.29235
0.17555
0.074454
-0.012978
-0.078552
-0.12568
-0.15505
-0.17077
-0.17486
-0.17486
-0.16872
-0.15779
-0.13115
-0.094262
-0.061475
-0.03347
0.010929
0.0054645
-0.14822
-0.4918
-0.95492
-1
-0.73702
-0.16393
0.3347
0.62432
0.76913
0.82309
0.78962
0.69399
0.57582
0.4597
0.34495
0.23361
0.1291
0.036885
-0.032787
-0.080601
-0.094945
-0.08265
-0.064891
-0.095628
-0.18238
-0.30533
-0.42418
-0.51913
-0.57855
-0.51708
-0.4071
-0.1209
0.1776
0.4597
0.65574
0.70902
0.67828
0.59495
0.48702
0.37568
0.27801
0.19672
0.12227
0.049863
-0.021175
-0.084699
-0.13866
-0.17896
-0.21311
-0.24317
-0.25478
-0.24932
-0.22131
-0.20833
-0.20697
-0.22609
-0.27527
-0.41325
-0.62773
-0.69604
-0.66872
-0.32855
0.059426
0.41393
0.6735
0.75342
0.74727
0.68443
0.57855
0.44399
0.29713
0.1612
0.04235
-0.04918
-0.125
-0.17691
-0.21243
-0.22746
-0.22814
-0.23156
-0.22746
-0.2459
-0.26025
-0.30943
-0.38866
-0.46448
-0.57445
-0.68306
-0.54372
-0.31967
0.13251
0.48975
0.73019
0.85383
0.87295
0.80738
0.68579
0.5321
0.3832
0.24249
0.13046
0.039617
-0.034153
-0.088798
-0.12568
-0.14959
-0.1612
-0.1612
-0.14959
-0.13115
-0.12773
-0.15164
-0.26366
-0.40369
-0.56352
-0.64413
-0.50615
-0.22678
0.2582
0.66189
0.94262
1
0.91052
0.73087
0.53279
0.36339
0.20355
0.081284
-0.031421
-0.11544
-0.17896
-0.20492
-0.19604
-0.18238
-0.1735
-0.18033
-0.18374
-0.17896
-0.17486
-0.17623
-0.2097
-0.26161
-0.34085
-0.43443
-0.43648
-0.39413
-0.2821
-0.068989
0.15915
0.41393
0.56762
0.59085
0.54167
0.4597
0.3627
0.26913
0.18921
0.10178
0.027322
-0.038251
-0.07377
-0.097678
-0.10383
-0.10724
-0.10587
-0.10383
-0.10109
-0.093579
-0.090847
-0.088798
-0.086749
-0.088115
-0.062842
-0.019126
0.057377
0.11544
0.049863
-0.18648
-0.6168
-0.66667
-0.60587
-0.20219
0.13251
0.36544
0.57582
0.7097
0.74317
0.70628
0.625
0.52596
0.40915
0.29235
0.18921
0.098361
0.040984
-0.0068306
-0.036885
-0.060792
-0.07582
-0.079235
-0.071721
-0.045765
-0.016393
0.040301
0.14686
0.19536
0.040301
-0.3873
-0.88046
-0.90437
-0.6291
-0.083333
0.30191
0.55738
0.72199
0.81011
0.78893
0.7097
0.60587
0.47678
0.34563
0.22404
0.11749
0.040301
-0.021175
-0.060109
-0.075137
-0.058743
-0.032787
-0.011612
-0.037568
-0.10383
-0.18579
-0.29508
-0.42964
-0.53757
-0.51571
-0.37227
-0.075137
0.18989
0.40096
0.52459
0.56421
0.55738
0.4877
0.3791
0.25683
0.13934
0.029372
-0.047814
-0.10587
-0.13593
-0.15301
-0.15437
-0.14481
-0.13046
-0.12842
-0.12295
-0.12705
-0.14071
-0.17691
-0.23907
-0.31352
-0.39071
-0.54918
-0.72404
-0.68101
-0.46448
-0.023907
0.32514
0.56216
0.67828
0.72814
0.70697
0.62978
0.51571
0.38934
0.26093
0.14617
0.048497
-0.019126
-0.065574
-0.094262
-0.10997
-0.11066
-0.11544
-0.12022
-0.14003
-0.17145
-0.18443
-0.18238
-0.19331
-0.25
-0.42145
-0.66872
-0.6332
-0.4679
-0.053279
0.28825
0.51844
0.64686
0.69877
0.68169
0.59699
0.49932
0.37842
0.25751
0.14549
0.051913
-0.014344
-0.066257
-0.095628
-0.11475
-0.11954
-0.12773
-0.12773
-0.1291
-0.083333
-0.015027
0.070355
0.094262
0.028689
-0.16872
-0.50888
-0.7015
-0.72746
-0.41257
-0.048497
0.26366
0.45492
0.58128
0.64003
0.63388
0.56694
0.47268
0.35861
0.2418
0.13593
0.047131
-0.022541
-0.062842
-0.086066
-0.099044
-0.10041
-0.097678
-0.086066
-0.067623
-0.0095628
0.04918
0.036885
-0.090164
-0.34495
-0.71311
-0.87637
-0.81284
-0.44945
-0.013661
0.3429
0.56762
0.69945
0.7418
0.7138
0.62978
0.51298
0.38661
0.26776
0.16189
0.079235
0.021858
-0.025273
-0.058743
-0.084699
-0.093579
-0.076503
-0.040301
-0.01571
-0.060792
-0.14822
-0.26844
-0.40437
-0.53552
-0.61202
-0.56762
-0.3306
-0.022541
0.28005
0.50273
0.62637
0.68511
0.67486
0.60314
0.48224
0.34973
0.2179
0.11066
0.030055
-0.022541
-0.051913
-0.073087
-0.081284
-0.10246
-0.1332
-0.16872
-0.19536
-0.20902
-0.20902
-0.19945
-0.2138
-0.26571
-0.40232
-0.62705
-0.66257
-0.60451
-0.28074
0.055328
0.34563
0.56011
0.66667
0.70219
0.67008
0.58811
0.46585
0.32514
0.18921
0.069672
-0.017077
-0.079918
-0.12363
-0.15847
-0.18511
-0.19877
-0.20287
-0.19536
-0.17896
-0.14754
-0.15505
-0.1974
-0.35997
-0.68852
-0.8709
-0.84699
-0.52049
-0.0047814
0.36475
0.68306
0.84699
0.89344
0.84221
0.72404
0.56967
0.41189
0.2623
0.13661
0.032787
-0.039617
-0.088798
-0.12158
-0.13593
-0.13866
-0.12295
-0.1168
-0.10178
-0.088798
-0.078552
-0.068989
-0.062842
-0.081967
-0.21107
-0.43443
-0.7179
-0.74112
-0.52186
-0.10656
0.30806
0.57787
0.74658
0.80601
0.7582
0.63866
0.49932
0.35929
0.22131
0.10246
0.0013661
-0.072404
-0.12842
-0.16257
-0.18648
-0.19331
-0.19672
-0.17964
-0.16325
-0.12432
-0.066257
-0.019126
-0.064208
-0.18989
-0.38661
-0.61066
-0.68989
-0.53005
-0.24112
0.18989
0.46243
0.64617
0.7179
0.70765
0.64822
0.54918
0.43716
0.31421
0.18852
0.07377
-0.022541
-0.088115
-0.1209
-0.13251
-0.13046
-0.12432
-0.12568
-0.12637
-0.12978
-0.125
-0.11749
-0.10041
-0.069672
-0.031421
0.0061475
-0.04235
-0.18238
-0.41462
-0.60656
-0.52186
-0.26025
0.14891
0.43716
0.58538
0.64344
0.65232
0.6168
0.52869
0.41667
0.27801
0.15642
0.050546
-0.023907
-0.088798
-0.12158
-0.13934
-0.14959
-0.15164
-0.16052
-0.15847
-0.15096
-0.13456
-0.11885
-0.125
-0.15027
-0.20355
-0.23429
-0.24385
-0.22473
-0.21175
-0.2541
-0.3429
-0.33811
-0.2821
-0.067623
0.17213
0.35792
0.48292
0.49795
0.47678
0.44057
0.37705
0.28893
0.1776
0.081967
-0.0081967
-0.076503
-0.13046
-0.16325
-0.20082
-0.20355
-0.20355
-0.19945
-0.18306
-0.16598
-0.14822
-0.11885
-0.083333
-0.054645
-0.071038
-0.12637
-0.24863
-0.40027
-0.51981
-0.55738
-0.39413
-0.17828
0.12432
0.32309
0.48292
0.56694
0.57855
0.53757
0.44467
0.34153
0.2418
0.14344
0.067623
0.0075137
-0.038934
-0.062158
-0.090164
-0.10519
-0.12295
-0.13251
-0.11954
-0.096995
-0.069672
-0.07582
-0.12432
-0.21175
-0.31284
-0.4235
-0.48839
-0.44809
-0.30943
-0.047814
0.20697
0.43443
0.57445
0.6373
0.63456
0.57309
0.47678
0.36475
0.25683
0.15232
0.06694
-0.0040984
-0.055328
-0.086749
-0.10383
-0.10861
-0.098361
-0.088798
-0.069672
-0.067623
-0.073087
-0.088798
-0.10792
-0.11407
-0.10519
-0.12363
-0.22404
-0.39481
-0.47473
-0.43169
-0.17691
0.088115
0.32445
0.46926
0.53347
0.55191
0.51298
0.43852
0.3429
0.23839
0.14071
0.062158
-0.0068306
-0.044399
-0.072404
-0.08265
-0.088115
-0.08265
-0.074454
-0.069672
-0.050546
-0.048497
-0.038251
-0.045082
-0.045765
-0.048497
-0.056011
-0.067623
-0.056011
0.013661
0.064891
0.0075137
-0.24249
-0.63046
-0.80396
-0.72541
-0.33675
0.069672
0.39071
0.59495
0.72131
0.75546
0.71858
0.63183
0.51981
0.40164
0.2821
0.18238
0.095628
0.045765
0.00068306
-0.020492
-0.047814
-0.064208
-0.085383
-0.10178
-0.095628
-0.080601
-0.032787
0.021858
0.013661
-0.086066
-0.28279
-0.61544
-0.82172
-0.79986
-0.50888
-0.036202
0.35861
0.61407
0.71995
0.74112
0.70287
0.62432
0.51503
0.39481
0.27322
0.15984
0.062842
-0.0013661
-0.031421
-0.038934
-0.019126
-0.010246
-0.0088798
-0.012295
-0.018443
-0.048497
-0.084016
-0.14822
-0.24795
-0.41257
-0.58538
-0.65164
-0.56967
-0.31557
-0.016393
0.23975
0.43033
0.51776
0.54508
0.50273
0.42418
0.31626
0.2097
0.1209
0.036885
-0.022541
-0.062158
-0.083333
-0.094945
-0.097678
-0.092896
-0.086749
-0.061475
-0.055328
-0.047814
-0.060109
-0.047814
-0.028689
-0.015027
-0.074454
-0.22951
-0.51913
-0.8265
-0.85997
-0.7097
-0.30055
0.1127
0.4112
0.62978
0.72268
0.72814
0.66598
0.56694
0.43784
0.30669
0.18648
0.099727
0.049863
0.013661
-0.011612
-0.028689
-0.036202
-0.034153
-0.027322
-0.025956
-0.029372
-0.063525
-0.10314
-0.1735
-0.25068
-0.34836
-0.50956
-0.64208
-0.7541
-0.77937
-0.52664
-0.24795
0.20628
0.49658
0.68579
0.75615
0.74658
0.67828
0.57923
0.4515
0.31557
0.17623
0.077869
0.0034153
-0.032104
-0.053962
-0.056694
-0.062158
-0.068306
-0.08265
-0.10929
-0.1291
-0.14754
-0.15027
-0.14481
-0.15027
-0.15847
-0.18374
-0.21175
-0.28279
-0.44262
-0.64139
-0.78689
-0.62568
-0.35656
0.067623
0.36817
0.59973
0.71995
0.73975
0.67281
0.5765
0.44877
0.32582
0.21175
0.11475
0.03347
-0.026639
-0.077869
-0.11202
-0.14139
-0.16735
-0.18989
-0.19126
-0.16872
-0.14481
-0.11954
-0.13183
-0.15505
-0.19672
-0.26639
-0.43784
-0.62842
-0.80191
-0.6127
-0.34563
0.13046
0.45697
0.70287
0.82719
0.84153
0.7862
0.67828
0.5485
0.40164
0.27322
0.1571
0.060792
-0.012295
-0.062842
-0.095628
-0.11202
-0.11954
-0.12295
-0.14139
-0.13525
-0.14003
-0.14003
-0.20628
-0.38798
-0.59973
-0.82377
-0.77801
-0.53347
-0.13388
0.30464
0.60451
0.79372
0.85178
0.80874
0.71448
0.58675
0.43511
0.28757
0.14208
0.035519
-0.039617
-0.078552
-0.10314
-0.10383
-0.096311
-0.11612
-0.14822
-0.21448
-0.31694
-0.42896
-0.53893
-0.57172
-0.61954
-0.53962
-0.39344
-0.18306
0.12295
0.36954
0.55669
0.6653
0.6653
0.60929
0.51503
0.4071
0.29508
0.21038
0.14413
0.099727
0.093579
0.077869
0.056011
0.018443
-0.031421
-0.10314
-0.19331
-0.30123
-0.42691
-0.54235
-0.58948
-0.58538
-0.58743
-0.47883
-0.30533
-0.048497
0.26298
0.46995
0.63046
0.67623
0.62842
0.50751
0.38866
0.25751
0.16257
0.07377
0.018443
-0.041667
-0.064891
-0.058743
-0.040984
-0.022541
-0.01776
-0.030738
-0.060109
-0.10041
-0.18033
-0.29713
-0.44467
-0.54713
-0.66052
-0.63183
-0.4474
-0.17008
0.23292
0.51366
0.70219
0.78484
0.75751
0.68716
0.5724
0.43716
0.30464
0.17896
0.070355
-0.00068306
-0.028689
-0.057377
-0.056694
-0.048497
-0.0095628
0.031421
0.080601
0.10656
0.11339
0.05806
-0.075137
-0.2821
-0.53074
-0.74863
-0.89071
-0.77801
-0.56489
-0.19877
0.13661
0.39481
0.57719
0.64071
0.625
0.56831
0.48292
0.38183
0.27254
0.1694
0.07582
0.015027
-0.019809
-0.028005
-0.036202
-0.019809
0.0081967
0.035519
0.056694
0.031421
-0.018443
-0.099044
-0.1974
-0.31557
-0.46858
-0.65027
-0.67828
-0.59221
-0.31557
0.018443
0.30055
0.53005
0.63934
0.67145
0.64344
0.56831
0.45628
0.34426
0.23702
0.15232
0.081967
0.035519
0.0034153
-0.013661
-0.028005
-0.039617
-0.052596
-0.080601
-0.095628
-0.10724
-0.11749
-0.10519
-0.10451
-0.099044
-0.086066
-0.086066
-0.14208
-0.29986
-0.52869
-0.72678
-0.6571
-0.45014
-0.026639
0.29918
0.55328
0.69672
0.72883
0.67555
0.57923
0.46585
0.35861
0.2541
0.15369
0.060109
-0.0020492
-0.050546
-0.087432
-0.11475
-0.1291
-0.125
-0.11544
-0.1127
-0.10314
-0.10861
-0.11749
-0.16189
-0.24658
-0.41872
-0.5765
-0.7418
-0.6373
-0.42281
-0.028005
0.35587
0.61954
0.7623
0.78689
0.70697
0.57172
0.4194
0.27801
0.16325
0.07582
-0.0047814
-0.051913
-0.10314
-0.10861
-0.12022
-0.1168
-0.11134
-0.11612
-0.10587
-0.10519
-0.11749
-0.15915
-0.27049
-0.41393
-0.53347
-0.66052
-0.59904
-0.42418
-0.13046
0.27664
0.5403
0.7418
0.80874
0.76434
0.66462
0.51844
0.38251
0.25546
0.15505
0.087432
0.028005
-0.011612
-0.040984
-0.07377
-0.085383
-0.08265
-0.10792
-0.10861
-0.1209
-0.13593
-0.14549
-0.24112
-0.42145
-0.58265
-0.72951
-0.60997
-0.39071
-0.049863
0.28552
0.51366
0.67486
0.74112
0.69467
0.55874
0.3668
0.19331
0.080601
0.028689
-0.0088798
-0.0095628
-0.014344
-0.018443
-0.025956
-0.040301
-0.050546
-0.061475
-0.056011
-0.04918
-0.049863
-0.067623
-0.12432
-0.27732
-0.47199
-0.69877
-0.75546
-0.57992
-0.2821
0.12705
0.41667
0.59904
0.67896
0.66325
0.59836
0.50683
0.40437
0.31011
0.21858
0.15232
0.10178
0.060792
0.017077
-0.032787
-0.063525
-0.07582
-0.079235
-0.085383
-0.075137
-0.056694
-0.03347
-0.055328
-0.12978
-0.29098
-0.5
-0.74863
-0.74044
-0.56489
-0.21038
0.15096
0.40164
0.57923
0.66872
0.67418
0.63183
0.55055
0.43784
0.33538
0.24385
0.16189
0.10792
0.068306
0.054645
0.026639
-0.01571
-0.052596
-0.080601
-0.065574
-0.054645
-0.0054645
0.0040984
0.0034153
-0.060109
-0.19604
-0.37022
-0.56899
-0.66735
-0.59358
-0.37773
-0.0013661
0.27801
0.50546
0.62773
0.6653
0.6291
0.55191
0.44877
0.3306
0.22404
0.13525
0.057377
0.019809
-0.027322
-0.034836
-0.05806
-0.053962
-0.06694
-0.086749
-0.10724
-0.095628
-0.065574
0.0013661
0.039617
0.053279
-0.012295
-0.13866
-0.33265
-0.54167
-0.73429
-0.66803
-0.53757
-0.19262
0.10861
0.36475
0.55191
0.63115
0.63934
0.59085
0.49795
0.37158
0.2623
0.1653
0.10587
0.057377
0.031421
0.0047814
-0.012295
-0.015027
-0.031421
-0.016393
-0.015027
-0.018443
-0.025956
-0.020492
-0.035519
-0.088115
-0.16052
-0.2623
-0.34358
-0.46995
-0.61202
-0.68238
-0.58675
-0.375
-0.0013661
0.32036
0.5806
0.71858
0.74112
0.68306
0.5888
0.47609
0.35519
0.25615
0.1735
0.12158
0.079918
0.047131
0.019126
0.0040984
-0.0081967
-0.02459
-0.045082
-0.065574
-0.09153
-0.10587
-0.10792
-0.11202
-0.092213
-0.080601
-0.14003
-0.29167
-0.54577
-0.7459
-0.7056
-0.48497
-0.06694
0.29781
0.57514
0.75068
0.78552
0.7582
0.67486
0.56557
0.43033
0.31421
0.20219
0.12978
0.076503
0.019809
-0.022541
-0.080601
-0.11475
-0.13866
-0.15574
-0.16872
-0.1571
-0.13388
-0.10246
-0.077186
-0.088115
-0.2015
-0.4153
-0.64617
-0.77459
-0.62295
-0.31831
0.11134
0.43033
0.63115
0.72404
0.72063
0.66052
0.55533
0.4153
0.28962
0.17623
0.10314
0.048497
0.012978
-0.0047814
-0.028005
-0.05123
-0.079235
-0.10656
-0.11134
-0.12158
-0.10246
-0.090164
-0.060109
-0.035519
-0.019809
-0.037568
-0.17691
-0.4235
-0.70697
-0.76161
-0.60314
-0.21858
0.17486
0.48087
0.68374
0.74727
0.71858
0.62227
0.51639
0.39481
0.28005
0.17623
0.086066
0.032104
-0.0034153
-0.021175
-0.040301
-0.05806
-0.077869
-0.090847
-0.11339
-0.14208
-0.15301
-0.14959
-0.11407
-0.071038
-0.031421
-0.053962
-0.1694
-0.43443
-0.75615
-0.82514
-0.72951
-0.32855
0.06694
0.41189
0.65027
0.75
0.75137
0.68306
0.57787
0.43784
0.30738
0.18648
0.084699
0.023224
-0.023224
-0.059426
-0.075137
-0.11544
-0.13183
-0.16667
-0.16735
-0.17077
-0.14139
-0.093579
-0.046448
0.010246
-0.0034153
-0.097678
-0.34358
-0.63456
-0.8026
-0.69877
-0.41735
0.0061475
0.34495
0.59085
0.70082
0.70355
0.61202
0.4918
0.35997
0.24249
0.13593
0.059426
0.010246
-0.022541
-0.048497
-0.064208
-0.071038
-0.06694
-0.076503
-0.068306
-0.059426
-0.048497
-0.032104
-0.047814
-0.07377
-0.092213
-0.14822
-0.24727
-0.45765
-0.7056
-0.82992
-0.72814
-0.41803
0.021175
0.37432
0.63183
0.75478
0.77937
0.73702
0.65096
0.52049
0.3832
0.22609
0.11066
0.019809
-0.032104
-0.069672
-0.087432
-0.12842
-0.14208
-0.15779
-0.15437
-0.1612
-0.12022
-0.065574
-0.017077
0.0054645
-0.073087
-0.20492
-0.39822
-0.63661
-0.71107
-0.6291
-0.31557
0.05806
0.38388
0.6168
0.71995
0.73497
0.65369
0.52801
0.3832
0.22609
0.1168
0.053962
0.035519
0.0075137
-0.019809
-0.056011
-0.086749
-0.10861
-0.125
-0.10519
-0.085383
-0.037568
0.0081967
0.034836
0.00068306
-0.095628
-0.28893
-0.62022
-0.77527
-0.77596
-0.49454
-0.10724
0.21585
0.46926
0.61954
0.6653
0.63934
0.54508
0.42691
0.27664
0.14686
0.037568
-0.037568
-0.077186
-0.093579
-0.089481
-0.08265
-0.071721
-0.083333
-0.096995
-0.1209
-0.13251
-0.13866
-0.1373
-0.11202
-0.087432
-0.062158
-0.075137
-0.13934
-0.35792
-0.59495
-0.72883
-0.64276
-0.35041
0.030738
0.33197
0.54098
0.64413
0.66257
0.60656
0.53552
0.42281
0.29577
0.19194
0.10041
0.036202
0.0047814
-0.032787
-0.05123
-0.065574
-0.095628
-0.10861
-0.11885
-0.11202
-0.086066
-0.066257
-0.051913
-0.057377
-0.093579
-0.14003
-0.26503
-0.43101
-0.57036
-0.59836
-0.45697
-0.22336
0.092896
0.35178
0.55055
0.65027
0.66735
0.60041
0.5123
0.37022
0.25273
0.13115
0.059426
0.02459
0.0047814
-0.018443
-0.021858
-0.01571
-0.020492
-0.035519
-0.068989
-0.10314
-0.1291
-0.13251
-0.15369
-0.14003
-0.17623
-0.24249
-0.42691
-0.60587
-0.74863
-0.67213
-0.43443
-0.031421
0.34016
0.62363
0.78074
0.82036
0.73361
0.64208
0.50751
0.3791
0.24863
0.13866
0.058743
-0.0054645
-0.049863
-0.085383
-0.12432
-0.1332
-0.14208
-0.14071
-0.15847
-0.18306
-0.19399
-0.18579
-0.17964
-0.17623
-0.21311
-0.33333
-0.47063
-0.61954
-0.5485
-0.35997
-0.00068306
0.33333
0.58402
0.74932
0.78005
0.71516
0.59904
0.44262
0.29303
0.16598
0.071038
-0.0027322
-0.064891
-0.10656
-0.14276
-0.16325
-0.17418
-0.1653
-0.13934
-0.099727
-0.076503
-0.070355
-0.051913
-0.055328
-0.072404
-0.21243
-0.39413
-0.59699
-0.69604
-0.52186
-0.27664
0.1694
0.47814
0.71243
0.79508
0.78757
0.68443
0.54713
0.37158
0.20287
0.073087
-0.0075137
-0.041667
-0.027322
-0.02459
-0.022541
-0.040984
-0.076503
-0.10041
-0.10178
-0.12773
-0.11407
-0.12363
-0.11475
-0.14891
-0.24932
-0.42213
-0.59426
-0.75342
-0.62773
-0.4153
-0.025956
0.3388
0.58948
0.74932
0.76503
0.7097
0.6127
0.4959
0.36612
0.24249
0.13525
0.040984
-0.02459
-0.085383
-0.11612
-0.10861
-0.096311
-0.079918
-0.065574
-0.084699
-0.085383
-0.13183
-0.15369
-0.23702
-0.37022
-0.49317
-0.61885
-0.60861
-0.4638
-0.24932
0.13661
0.41803
0.64617
0.73839
0.72883
0.66872
0.55738
0.43033
0.28962
0.17418
0.068306
0.0061475
-0.045082
-0.056011
-0.070355
-0.079235
-0.092213
-0.10314
-0.10929
-0.1168
-0.1373
-0.18921
-0.30943
-0.4556
-0.55328
-0.66735
-0.56284
-0.40301
-0.10451
0.2418
0.52391
0.70355
0.76639
0.73497
0.62773
0.51844
0.36954
0.22746
0.10383
0.0061475
-0.05123
-0.084699
-0.092896
-0.089481
-0.05123
-0.027322
-0.021858
-0.043033
-0.03347
-0.054645
-0.10109
-0.21038
-0.39822
-0.55669
-0.70355
-0.62773
-0.44057
-0.1168
0.22814
0.50546
0.67486
0.73839
0.70423
0.61066
0.48224
0.35178
0.22883
0.10792
0.022541
-0.044399
-0.078552
-0.10246
-0.10041
-0.086066
-0.062842
-0.054645
-0.043716
-0.036885
-0.037568
-0.040984
-0.088798
-0.15437
-0.31011
-0.44194
-0.5123
-0.53142
-0.39003
-0.21038
0
0.27459
0.46243
0.60724
0.67691
0.64891
0.56148
0.44672
0.29781
0.17896
0.092213
0.038251
0.014344
-0.016393
-0.030738
-0.071038
-0.060792
-0.074454
-0.053279
-0.01776
-0.0013661
0.025273
0.060792
0.095628
0.12568
0.077869
0.00068306
-0.15027
-0.38251
-0.59358
-0.68852
-0.58197
-0.30396
0.023224
0.31352
0.51025
0.60041
0.54508
0.45014
0.34358
0.24932
0.19672
0.16257
0.13251
0.10724
0.092896
0.04235
0.035519
0.016393
0.025273
0.026639
0.02459
0.01571
0.015027
0.018443
0.037568
0.035519
0.019126
-0.013661
-0.088798
-0.14208
-0.25342
-0.42213
-0.59016
-0.66598
-0.54713
-0.27049
0.081284
0.37637
0.58538
0.68989
0.68306
0.6209
0.49863
0.37705
0.27459
0.18716
0.1127
0.072404
0.03347
0.016393
0.0075137
-0.012978
-0.036202
-0.076503
-0.086066
-0.10041
-0.090847
-0.092213
-0.087432
-0.064891
-0.051913
-0.044399
-0.038251
-0.058743
-0.12022
-0.34563
-0.58128
-0.67828
-0.59358
-0.26298
0.12978
0.4515
0.66257
0.75205
0.73702
0.67281
0.56011
0.43648
0.27664
0.17555
0.081284
0.041667
0.00068306
0.0047814
-0.0054645
-0.021175
-0.036885
-0.047814
-0.071038
-0.068306
-0.088798
-0.10792
-0.11612
-0.125
-0.125
-0.13046
-0.20423
-0.34836
-0.48975
-0.62637
-0.53142
-0.36202
-0.028689
0.28484
0.5444
0.71858
0.76776
0.73156
0.64003
0.50205
0.36612
0.23907
0.12227
0.062842
0.039617
0.012978
0.015027
-0.014344
-0.038251
-0.076503
-0.10246
-0.13183
-0.15301
-0.15369
-0.15915
-0.16667
-0.22404
-0.3026
-0.39481
-0.44672
-0.53074
-0.43511
-0.26981
0.035519
0.36885
0.61954
0.76639
0.79167
0.71107
0.57787
0.42486
0.26844
0.15027
0.059426
-0.0034153
-0.035519
-0.056694
-0.05123
-0.063525
-0.062158
-0.079918
-0.094945
-0.09153
-0.10451
-0.10792
-0.10724
-0.13183
-0.15027
-0.19604
-0.3026
-0.43511
-0.54577
-0.61066
-0.47199
-0.28484
0.036202
0.32036
0.54713
0.68443
0.69331
0.62705
0.53142
0.41735
0.31421
0.22473
0.11475
0.051913
-0.019126
-0.056694
-0.074454
-0.080601
-0.060792
-0.05123
-0.036885
-0.054645
-0.036202
-0.028005
-0.038934
-0.076503
-0.12842
-0.18989
-0.29986
-0.43033
-0.53415
-0.60656
-0.4679
-0.27117
0.081284
0.3709
0.59836
0.67623
0.65369
0.54986
0.40096
0.27322
0.16325
0.093579
0.043033
0.025273
0.0075137
0.0061475
0.026639
0.028005
0.0013661
-0.032787
-0.090164
-0.1209
-0.13388
-0.13115
-0.13456
-0.125
-0.10656
-0.099044
-0.095628
-0.13388
-0.2541
-0.42828
-0.57992
-0.5765
-0.40779
-0.092213
0.2541
0.53279
0.69536
0.73156
0.64959
0.51434
0.36885
0.22883
0.097678
0.012978
-0.053962
-0.077869
-0.070355
-0.040301
-0.023224
-0.0047814
-0.012295
-0.027322
-0.019126
-0.049863
-0.077869
-0.068306
-0.083333
-0.070355
-0.094262
-0.10861
-0.16325
-0.35041
-0.51161
-0.65574
-0.60861
-0.43511
-0.15847
0.15915
0.43101
0.62295
0.6735
0.62363
0.51503
0.38183
0.26025
0.15915
0.10587
0.066257
0.078552
0.079918
0.050546
0.025273
-0.030055
-0.053962
-0.068306
-0.052596
-0.020492
-0.030738
-0.047814
-0.11339
-0.14549
-0.19672
-0.24385
-0.35109
-0.48019
-0.57172
-0.62978
-0.55396
-0.39959
-0.15301
0.2179
0.46926
0.6653
0.75342
0.73019
0.6332
0.50888
0.35724
0.22951
0.12227
0.065574
0.035519
0.010929
0.025956
0.032787
0.03347
0.028005
-0.0040984
-0.045765
-0.088798
-0.14139
-0.17691
-0.20082
-0.18374
-0.18852
-0.22404
-0.27732
-0.36202
-0.4235
-0.5082
-0.4474
-0.31557
-0.07377
0.27596
0.52322
0.70833
0.76161
0.68511
0.54713
0.38866
0.24385
0.1612
0.08265
0.01776
-0.021175
-0.027322
-0.028005
-0.012978
-0.039617
-0.051913
-0.047814
-0.079918
-0.073087
-0.093579
-0.10451
-0.13115
-0.16325
-0.24863
-0.34631
-0.43033
-0.49863
-0.54645
-0.4235
-0.24932
0.092896
0.36066
0.5485
0.6332
0.60792
0.52254
0.4112
0.30055
0.2377
0.18648
0.16462
0.12842
0.088115
0.068989
0.060109
0.030738
0.0088798
-0.025273
-0.065574
-0.094945
-0.13525
-0.15984
-0.15505
-0.1776
-0.21038
-0.29645
-0.40027
-0.49522
-0.53142
-0.57787
-0.40164
-0.23907
0.087432
0.33197
0.5362
0.63866
0.66667
0.62568
0.5526
0.4515
0.3429
0.21243
0.096995
0.00068306
-0.071038
-0.090164
-0.094945
-0.080601
-0.064208
-0.048497
-0.034836
-0.029372
-0.014344
-0.01776
-0.0068306
-0.032787
-0.063525
-0.14344
-0.24454
-0.36475
-0.47541
-0.50137
-0.54781
-0.40984
-0.21585
0.071038
0.38934
0.54303
0.64208
0.65984
0.60997
0.53484
0.41667
0.3224
0.22814
0.16872
0.12022
0.085383
0.053279
0.039617
0.027322
0.0061475
-0.036202
-0.094262
-0.11475
-0.11612
-0.10656
-0.15505
-0.21653
-0.28074
-0.36817
-0.43852
-0.47609
-0.43579
-0.44672
-0.36817
-0.21038
-0.0075137
0.3224
0.5
0.67691
0.75615
0.75205
0.67555
0.56557
0.41189
0.26981
0.16735
0.11475
0.086749
0.055328
0.019126
-0.010246
-0.020492
-0.064208
-0.092213
-0.094262
-0.1127
-0.11339
-0.14617
-0.18238
-0.23087
-0.33333
-0.42623
-0.49932
-0.50956
-0.47883
-0.43169
-0.25683
-0.063525
0.25
0.43374
0.57309
0.60383
0.57855
0.51571
0.42555
0.33743
0.2377
0.18238
0.14139
0.10451
0.060792
-0.012295
-0.061475
-0.088798
-0.07377
-0.05806
-0.031421
-0.025273
-0.025273
-0.01571
-0.0068306
-0.021175
-0.039617
-0.087432
-0.15369
-0.29167
-0.42555
-0.50888
-0.59631
-0.46038
-0.32036
-0.031421
0.24932
0.44399
0.55874
0.56626
0.53415
0.48839
0.3791
0.29167
0.19536
0.14139
0.099044
0.046448
0.0081967
-0.010246
-0.032104
-0.041667
-0.035519
-0.036885
-0.02459
0.0095628
0.029372
0.021175
0.0013661
-0.05806
-0.1127
-0.19126
-0.2862
-0.42008
-0.51981
-0.59699
-0.60246
-0.46243
-0.23224
0.14686
0.43101
0.64959
0.71243
0.6653
0.5724
0.42691
0.31557
0.18784
0.13525
0.090164
0.060109
0.036885
0.013661
0.0061475
0.010246
-0.0081967
-0.011612
-0.03347
-0.026639
-0.01571
0.0061475
0.012295
0.010929
-0.011612
-0.028689
-0.080601
-0.14959
-0.26981
-0.42145
-0.51981
-0.59085
-0.4679
-0.26366
0.021858
0.28074
0.47199
0.56284
0.56011
0.50137
0.40096
0.27391
0.17077
0.092896
0.064208
0.077186
0.10246
0.13388
0.12637
0.089481
0.064208
0.044399
0.016393
-0.0095628
-0.062158
-0.073087
-0.074454
-0.090164
-0.097678
-0.12158
-0.15369
-0.22678
-0.35997
-0.49932
-0.56216
-0.60861
-0.4276
-0.23702
0.085383
0.35587
0.54372
0.63115
0.62432
0.58197
0.50205
0.44262
0.33607
0.27254
0.20287
0.14891
0.14686
0.12158
0.093579
0.05123
0.0075137
-0.043716
-0.080601
-0.11749
-0.13866
-0.14139
-0.14822
-0.14686
-0.1653
-0.2015
-0.31626
-0.42964
-0.51708
-0.5041
-0.47063
-0.27596
-0.075137
0.22746
0.45082
0.59563
0.66598
0.63593
0.54372
0.45014
0.36134
0.30396
0.24454
0.1612
0.064208
-0.040984
-0.095628
-0.12022
-0.11612
-0.087432
-0.062842
-0.059426
-0.057377
-0.058743
-0.061475
-0.074454
-0.10041
-0.16872
-0.29372
-0.41325
-0.48839
-0.47814
-0.33197
-0.15164
0.062158
0.29372
0.46175
0.55669
0.59358
0.56079
0.49522
0.38593
0.26298
0.1373
0.038251
-0.018443
-0.064891
-0.081967
-0.079918
-0.059426
0.00068306
0.040301
0.054645
0.062158
0.045082
0.077869
0.013661
-0.00068306
-0.055328
-0.076503
-0.10314
-0.12568
-0.17896
-0.31762
-0.47814
-0.63388
-0.56489
-0.37773
-0.056694
0.23975
0.46858
0.59426
0.62432
0.60041
0.49112
0.4194
0.28142
0.2097
0.13934
0.096311
0.086749
0.084699
0.064208
0.039617
0.0047814
-0.023907
-0.037568
-0.036202
-0.013661
0.00068306
0.014344
0.0095628
-0.0034153
-0.030055
-0.079918
-0.18784
-0.33402
-0.46448
-0.52049
-0.53142
-0.37978
-0.19399
0.088115
0.35451
0.51844
0.59563
0.60792
0.56557
0.4918
0.39891
0.29986
0.22473
0.15915
0.097678
0.053279
0.023907
0.027322
0.019809
0.013661
0.0013661
0
-0.0068306
-0.012295
-0.013661
-0.0088798
-0.01776
-0.044399
-0.098361
-0.15642
-0.19672
-0.22814
-0.29508
-0.40915
-0.53552
-0.59358
-0.4918
-0.2541
0.072404
0.35861
0.54167
0.62705
0.61954
0.57787
0.47199
0.38593
0.27937
0.19877
0.14139
0.10587
0.064891
0.014344
-0.052596
-0.099044
-0.12158
-0.14139
-0.1291
-0.10929
-0.076503
-0.070355
-0.064891
-0.092896
-0.11475
-0.12363
-0.17555
-0.26776
-0.36544
-0.4235
-0.49795
-0.41462
-0.30123
-0.047131
0.21448
0.40847
0.51776
0.50751
0.47063
0.4071
0.31899
0.26913
0.19194
0.15301
0.12978
0.099044
0.10792
0.10929
0.11817
0.11749
0.076503
0.02459
-0.048497
-0.096995
-0.12842
-0.11954
-0.094945
-0.10656
-0.13866
-0.20423
-0.27322
-0.37842
-0.49863
-0.55533
-0.64003
-0.53142
-0.36202
-0.064208
0.29986
0.55464
0.67828
0.71448
0.67418
0.61885
0.53074
0.41667
0.32309
0.20833
0.10861
0
-0.085383
-0.13934
-0.15847
-0.15096
-0.13183
-0.11475
-0.10861
-0.096995
-0.096995
-0.086749
-0.067623
-0.036885
-0.01776
-0.035519
-0.094945
-0.19672
-0.33948
-0.45628
-0.57992
-0.4679
-0.2903
0.025956
0.31421
0.50956
0.63934
0.65027
0.59426
0.50068
0.33948
0.21653
0.088115
0.0054645
0.011612
-0.0095628
-0.021175
-0.045082
-0.040301
-0.030738
-0.020492
-0.046448
-0.023907
0.0040984
0.017077
0.029372
0.0081967
0.022541
0.031421
0.044399
0.035519
-0.0040984
-0.079235
-0.18989
-0.36339
-0.55396
-0.69126
-0.76776
-0.59836
-0.3709
-0.013661
0.26366
0.47336
0.58743
0.60724
0.5485
0.46243
0.32582
0.22268
0.14208
0.056694
0.034836
0.01776
0.0047814
-0.0040984
-0.027322
-0.062842
-0.076503
-0.12432
-0.10997
-0.12295
-0.089481
-0.060792
-0.039617
-0.01571
-0.015027
-0.052596
-0.11544
-0.19945
-0.32309
-0.47609
-0.6209
-0.72131
-0.60451
-0.39413
-0.0075137
0.29235
0.54986
0.69057
0.68648
0.62295
0.47063
0.32104
0.20014
0.13046
0.10656
0.10246
0.07582
0.060109
0.036885
0.051913
0.060109
0.060792
0.054645
0.050546
0.0095628
0.0013661
-0.040301
-0.056694
-0.068306
-0.073087
-0.088115
-0.13046
-0.17555
-0.22336
-0.30464
-0.39276
-0.48361
-0.56626
-0.45219
-0.31967
-0.026639
0.22746
0.44399
0.5847
0.6291
0.63115
0.57309
0.51708
0.41393
0.32377
0.25068
0.16872
0.081284
0.0027322
-0.07377
-0.14071
-0.18511
-0.2056
-0.19467
-0.16325
-0.12432
-0.10314
-0.11134
-0.10861
-0.085383
-0.05123
0.0081967
0.056694
0.069672
0.035519
-0.10246
-0.32377
-0.52937
-0.65915
-0.5847
-0.36134
-0.0061475
0.28415
0.4877
0.57036
0.55601
0.50546
0.41393
0.31079
0.20082
0.10656
0.01571
-0.050546
-0.084699
-0.096995
-0.071038
-0.036202
0.032104
0.060792
0.084016
0.079235
0.050546
0.045765
0.056694
0.071038
0.094262
0.10383
0.11134
0.097678
0.028005
-0.031421
-0.14617
-0.2377
-0.37705
-0.51093
-0.60314
-0.67964
-0.49795
-0.31831
0.06694
0.32787
0.51503
0.59358
0.55464
0.47541
0.4071
0.30874
0.2377
0.17145
0.125
0.092213
0.072404
0.078552
0.092213
0.092213
0.081284
0.043033
0.019126
-0.0095628
-0.032787
-0.064208
-0.10861
-0.16052
-0.21516
-0.23907
-0.20014
-0.14549
-0.079235
-0.027322
-0.032787
-0.15232
-0.28552
-0.52801
-0.50205
-0.48907
-0.21038
0.078552
0.34836
0.55874
0.65574
0.65437
0.59563
0.48634
0.35246
0.22063
0.070355
-0.011612
-0.10041
-0.1653
-0.17964
-0.15915
-0.12295
-0.080601
-0.051913
-0.045082
-0.043033
-0.041667
-0.051913
-0.038934
-0.037568
-0.0034153
0.031421
0.059426
0.068306
0.047814
-0.014344
-0.13115
-0.30533
-0.48975
-0.63525
-0.54235
-0.36475
-0.020492
0.25205
0.42623
0.50273
0.047814
