0.58475
0.54487
0.50264
0.48152
0.46745
0.45924
0.46041
0.46041
0.46276
0.44633
0.42405
0.34428
0.16129
-0.14956
-0.43695
-0.57419
-0.52727
-0.40528
-0.31144
-0.27742
-0.22581
-0.17654
-0.12141
-0.076833
-0.031085
0.0052786
0.066276
0.14487
0.23402
0.32669
0.41584
0.48622
0.54956
0.60235
0.64106
0.67507
0.7044
0.72786
0.74076
0.74663
0.74194
0.73255
0.71848
0.70205
0.68328
0.66452
0.60821
0.51789
0.39824
0.28563
0.22229
0.21642
0.2129
0.17419
0.10968
0.045161
0.029912
0.04868
0.073314
0.095601
0.1261
0.18006
0.23871
0.30088
0.37126
0.42757
0.46158
0.4522
0.39238
0.30792
0.22111
0.17889
0.17889
0.20821
0.24106
0.25982
0.261
0.25982
0.28915
0.34194
0.41701
0.48622
0.52727
0.53079
0.49912
0.45572
0.41584
0.37126
0.32551
0.28094
0.23871
0.20352
0.16833
0.13196
0.07566
0.0017595
-0.086217
-0.15308
-0.19648
-0.22933
-0.29736
-0.38768
-0.42405
-0.39472
-0.31965
-0.21642
-0.089736
0.035777
0.16246
0.27625
0.38182
0.4827
0.57537
0.65865
0.7173
0.7478
0.75836
0.76422
0.76188
0.76657
0.76188
0.76188
0.75367
0.7478
0.73959
0.73138
0.71261
0.69384
0.66686
0.6434
0.60587
0.54487
0.45924
0.45924
0.34897
0.19648
-0.0099707
-0.22111
-0.37713
-0.4217
-0.38299
-0.32317
-0.27742
-0.23754
-0.20587
-0.17067
-0.14135
-0.11437
-0.093255
-0.068622
-0.034604
0.034604
0.13196
0.23636
0.32434
0.38299
0.42874
0.46862
0.50147
0.53548
0.54721
0.53548
0.5132
0.48504
0.46628
0.44164
0.39355
0.33021
0.2434
0.19765
0.16129
0.16012
0.12845
0.1085
0.088563
0.11202
0.16716
0.21994
0.25513
0.2305
0.19648
0.1566
0.095601
0.055718
0.041642
0.097947
0.21642
0.34897
0.46158
0.54604
0.60821
0.63871
0.63284
0.60587
0.56833
0.539
0.51202
0.48387
0.45337
0.39824
0.3349
0.29853
0.30323
0.33959
0.38416
0.40293
0.39941
0.35484
0.30792
0.2739
0.27742
0.3173
0.35249
0.37126
0.37243
0.36891
0.36188
0.34663
0.32903
0.29736
0.23284
0.13431
-0.014663
-0.15191
-0.27977
-0.34545
-0.35718
-0.31496
-0.22581
-0.11437
0.027566
0.18006
0.35718
0.53548
0.69853
0.80528
0.84985
0.84868
0.83343
0.81701
0.79824
0.77361
0.7173
0.66804
0.60235
0.52727
0.46276
0.38299
0.3349
0.32551
0.39472
0.51202
0.60938
0.63988
0.6
0.52727
0.4346
0.29619
0.12375
-0.028739
-0.10616
-0.12258
-0.076833
-0.015836
0.066276
0.14018
0.17067
0.16012
0.11789
0.082698
0.090909
0.12375
0.1824
0.24927
0.30674
0.35484
0.37478
0.40411
0.44047
0.50264
0.56598
0.62581
0.66921
0.69853
0.71144
0.68328
0.63754
0.59413
0.5871
0.64575
0.72903
0.79589
0.82991
0.82522
0.7783
0.68563
0.55777
0.3912
0.19883
0.024047
-0.11672
-0.1824
-0.20704
-0.21408
-0.23754
-0.23871
-0.22581
-0.19765
-0.18123
-0.16481
-0.13314
-0.060411
0.03695
0.10147
0.13196
0.14956
0.20587
0.29619
0.41818
0.52845
0.62933
0.70088
0.75015
0.78534
0.80293
0.81584
0.81114
0.77947
0.71378
0.61525
0.50968
0.38768
0.28328
0.20587
0.17654
0.19648
0.22229
0.22463
0.19765
0.13783
0.08739
0.056891
0.095601
0.18475
0.31613
0.43343
0.53196
0.6176
0.69501
0.75718
0.80762
0.83343
0.85103
0.8522
0.84751
0.83578
0.81232
0.78416
0.74428
0.70205
0.67038
0.6563
0.6434
0.61408
0.54956
0.46041
0.35836
0.27038
0.20352
0.13314
0.024047
-0.17302
-0.45806
-0.66334
-0.7783
-0.67742
-0.50733
-0.33255
-0.2
-0.08739
0.012317
0.089736
0.16716
0.24809
0.34545
0.43695
0.51906
0.58475
0.63284
0.66921
0.68211
0.6868
0.68915
0.68798
0.68328
0.67038
0.64575
0.61173
0.56481
0.5085
0.41935
0.27625
0.12493
-0.019355
-0.13196
-0.19648
-0.22463
-0.20938
-0.15894
-0.090909
-0.027566
0.022874
0.065103
0.1085
0.15777
0.23871
0.34194
0.45455
0.55777
0.63871
0.67742
0.69619
0.68563
0.68094
0.67977
0.67507
0.66921
0.66217
0.65748
0.63988
0.61173
0.57537
0.52493
0.4827
0.44751
0.43812
0.44399
0.46862
0.49091
0.48622
0.42757
0.31026
0.11789
-0.070968
-0.25396
-0.33021
-0.36305
-0.32786
-0.28446
-0.23871
-0.17302
-0.072141
0.034604
0.15308
0.25513
0.35484
0.42991
0.48152
0.51554
0.52258
0.52493
0.53196
0.54604
0.57419
0.60469
0.64223
0.68211
0.71378
0.72434
0.72786
0.71144
0.70909
0.66921
0.57771
0.39824
0.18944
-0.0087977
-0.1261
-0.16481
-0.15425
-0.1695
-0.18475
-0.20469
-0.16364
-0.089736
0.018182
0.13783
0.25044
0.35484
0.44164
0.52727
0.59883
0.661
0.70205
0.72669
0.7349
0.72551
0.71848
0.70323
0.69267
0.68915
0.69032
0.6868
0.6868
0.68211
0.66569
0.63988
0.60235
0.56129
0.52141
0.4956
0.46628
0.4346
0.37478
0.28328
0.13548
-0.0087977
-0.13079
-0.26334
-0.37361
-0.46276
-0.49208
-0.4522
-0.42874
-0.38299
-0.29971
-0.17889
-0.054545
0.043988
0.12023
0.18475
0.26217
0.35367
0.44633
0.53548
0.60821
0.66452
0.6868
0.67859
0.63402
0.55543
0.46745
0.37595
0.25044
0.12727
-0.00058651
-0.054545
-0.042815
0.031085
0.11202
0.18358
0.26452
0.31965
0.36891
0.41466
0.4651
0.51202
0.54487
0.56129
0.57302
0.59062
0.59531
0.58592
0.57889
0.57537
0.5824
0.60117
0.61525
0.61642
0.59062
0.52493
0.40762
0.23284
0.035777
-0.16246
-0.29971
-0.35953
-0.36188
-0.32669
-0.28328
-0.22229
-0.14135
-0.035777
0.10499
0.25044
0.37478
0.47331
0.53431
0.58358
0.62229
0.65513
0.6868
0.70909
0.72317
0.72903
0.72903
0.73255
0.72903
0.72786
0.71261
0.69971
0.68798
0.67859
0.66921
0.65982
0.65748
0.64457
0.62933
0.60821
0.58475
0.56481
0.54721
0.53079
0.5261
0.52258
0.52962
0.53079
0.51906
0.47801
0.41232
0.25748
0.02522
-0.25748
-0.52493
-0.65513
-0.68563
-0.61525
-0.53431
-0.46393
-0.39824
-0.33959
-0.27038
-0.17302
-0.07566
0.038123
0.15308
0.25982
0.34311
0.39824
0.43578
0.46158
0.48622
0.49795
0.49208
0.46628
0.4088
0.32786
0.261
0.18592
0.16012
0.11202
0.10733
0.12023
0.17537
0.25396
0.31965
0.38416
0.4346
0.4827
0.51672
0.54487
0.56833
0.59765
0.62933
0.66921
0.69853
0.72199
0.73138
0.72082
0.69736
0.64692
0.58358
0.48387
0.32669
0.10029
-0.18475
-0.3912
-0.47214
-0.42874
-0.34663
-0.2868
-0.22581
-0.18006
-0.13314
-0.089736
-0.067449
-0.045161
-0.028739
0.017009
0.090909
0.20704
0.32199
0.41818
0.49326
0.54018
0.58006
0.60821
0.63402
0.65865
0.6915
0.72786
0.73138
0.7173
0.68563
0.66334
0.64809
0.60587
0.52845
0.3912
0.19296
-0.11085
-0.40997
-0.6434
-0.69032
-0.60704
-0.49912
-0.3783
-0.26217
-0.13196
0.00058651
0.11906
0.22346
0.31261
0.39355
0.4522
0.50264
0.55543
0.62111
0.68446
0.73724
0.7654
0.78299
0.80176
0.81349
0.80176
0.77361
0.72903
0.68328
0.63754
0.5871
0.50616
0.38416
0.21642
-0.032258
-0.27859
-0.46979
-0.55777
-0.53431
-0.48739
-0.43812
-0.38651
-0.30674
-0.20704
-0.11554
-0.035777
0.012317
0.04868
0.066276
0.10381
0.18123
0.29032
0.41232
0.50968
0.56833
0.59883
0.62111
0.64809
0.68915
0.73138
0.76774
0.79355
0.7912
0.76188
0.71026
0.67155
0.66921
0.68563
0.69971
0.68446
0.63519
0.51085
0.31144
-0.00058651
-0.32317
-0.59648
-0.71613
-0.6563
-0.46628
-0.22581
-0.015836
0.16598
0.3173
0.4522
0.55308
0.62229
0.66217
0.68798
0.71261
0.73138
0.74897
0.7607
0.75601
0.73959
0.72317
0.70323
0.68211
0.67038
0.66569
0.6868
0.67742
0.61525
0.52375
0.36774
0.20704
0.0087977
-0.16481
-0.28211
-0.33959
-0.34076
-0.30323
-0.26217
-0.1871
-0.08739
0.043988
0.18592
0.31026
0.41584
0.5085
0.58358
0.65279
0.70323
0.74897
0.75484
0.75132
0.74194
0.73842
0.74428
0.75249
0.76188
0.7654
0.77243
0.77713
0.78065
0.78065
0.77595
0.76657
0.75015
0.74897
0.74194
0.72082
0.68915
0.62815
0.4827
0.26334
0.0064516
-0.2305
-0.3654
-0.44868
-0.44868
-0.4088
-0.34897
-0.27977
-0.20938
-0.139
-0.062757
0.027566
0.11202
0.18827
0.26569
0.33959
0.41349
0.46745
0.5085
0.53431
0.55894
0.58006
0.60235
0.59765
0.57537
0.5261
0.43109
0.32317
0.17771
0.031085
-0.11202
-0.19179
-0.17419
-0.097947
0.0052786
0.09912
0.19531
0.28798
0.35836
0.41818
0.46393
0.5132
0.56716
0.60587
0.63167
0.62815
0.62815
0.62698
0.64809
0.67155
0.69384
0.71378
0.73021
0.7478
0.74663
0.72551
0.7044
0.69032
0.67507
0.64106
0.50029
0.28328
-0.052199
-0.4088
-0.67742
-0.79472
-0.74311
-0.58827
-0.41349
-0.26686
-0.13548
-0.027566
0.067449
0.14839
0.23284
0.32434
0.43109
0.52727
0.61408
0.67038
0.70205
0.72082
0.72317
0.73372
0.75836
0.78182
0.78416
0.75601
0.70792
0.64457
0.51672
0.32199
0.066276
-0.2
-0.42053
-0.52258
-0.50616
-0.37126
-0.18123
0.0017595
0.14135
0.23167
0.28446
0.33959
0.39589
0.45572
0.51202
0.56129
0.59648
0.61877
0.64106
0.65748
0.68563
0.70792
0.72434
0.71378
0.69971
0.68563
0.69032
0.68446
0.64927
0.55191
0.39472
0.19883
-0.035777
-0.24692
-0.43109
-0.52845
-0.54135
-0.50264
-0.42287
-0.31496
-0.17419
-0.033431
0.09912
0.20704
0.29384
0.37478
0.4393
0.50499
0.56833
0.63167
0.67625
0.7173
0.72903
0.74194
0.75367
0.77947
0.79355
0.79355
0.78182
0.7349
0.6563
0.51789
0.34311
0.14487
-0.083871
-0.261
-0.37126
-0.37361
-0.31965
-0.23871
-0.16246
-0.074487
0.020528
0.1132
0.19296
0.26217
0.33372
0.40645
0.49091
0.5566
0.6176
0.66452
0.69736
0.72082
0.73372
0.74311
0.76422
0.7783
0.79003
0.78416
0.79003
0.78534
0.7783
0.76657
0.74076
0.661
0.51085
0.31261
0.078006
-0.15425
-0.31144
-0.44047
-0.4522
-0.41466
-0.35249
-0.28094
-0.19179
-0.095601
-0.0076246
0.081525
0.16833
0.25161
0.31965
0.37361
0.41935
0.45924
0.49795
0.52962
0.55191
0.57419
0.5824
0.59883
0.60938
0.6129
0.60821
0.60821
0.61994
0.64223
0.66334
0.67507
0.67977
0.68211
0.68094
0.68211
0.67155
0.65396
0.62581
0.5261
0.35718
0.14135
-0.065103
-0.26334
-0.38416
-0.4827
-0.51202
-0.49677
-0.4651
-0.40293
-0.31144
-0.21994
-0.1261
-0.041642
0.041642
0.12845
0.21056
0.29501
0.38416
0.46745
0.55425
0.63519
0.6915
0.70088
0.67038
0.60235
0.52141
0.47801
0.40411
0.32199
0.13314
-0.049853
-0.19765
-0.24927
-0.21994
-0.14839
-0.029912
0.12258
0.28446
0.43695
0.56598
0.66569
0.73255
0.76774
0.76774
0.74194
0.69736
0.63284
0.57185
0.52493
0.5132
0.52258
0.54604
0.56716
0.58475
0.60352
0.61642
0.6305
0.64809
0.66686
0.68446
0.70909
0.73021
0.74663
0.75718
0.77009
0.77361
0.75953
0.70088
0.57302
0.34897
-0.0076246
-0.41701
-0.6868
-0.78886
-0.71261
-0.57302
-0.41935
-0.2868
-0.16481
-0.083871
-0.017009
0.059238
0.14721
0.23754
0.29384
0.31965
0.34194
0.37478
0.42639
0.47683
0.51554
0.53196
0.52727
0.51085
0.47918
0.42874
0.33138
0.17771
-0.039296
-0.23402
-0.35249
-0.35132
-0.23988
-0.073314
0.10264
0.25748
0.38182
0.47449
0.55308
0.61642
0.66452
0.67625
0.66217
0.61877
0.56246
0.51554
0.4651
0.43109
0.41701
0.43109
0.46745
0.50968
0.53783
0.56012
0.59648
0.63871
0.67507
0.68446
0.63402
0.51085
0.3173
0.062757
-0.22815
-0.42405
-0.54604
-0.54018
-0.47097
-0.38065
-0.28915
-0.1695
-0.052199
0.058065
0.14252
0.20235
0.27155
0.33842
0.41935
0.50029
0.55777
0.59413
0.61408
0.64809
0.68798
0.72317
0.70674
0.64927
0.55777
0.42287
0.22581
-0.0052786
-0.24106
-0.39589
-0.43226
-0.36774
-0.23636
-0.083871
0.089736
0.25279
0.40293
0.52845
0.61877
0.68328
0.71026
0.73607
0.71613
0.66569
0.60235
0.55894
0.54956
0.55425
0.54135
0.53431
0.53783
0.56129
0.59062
0.60938
0.63402
0.6563
0.66921
0.68328
0.69267
0.70557
0.70792
0.70792
0.72317
0.75015
0.7783
0.76188
0.67155
0.47918
0.2
-0.14135
-0.48856
-0.6739
-0.71378
-0.61056
-0.46745
-0.33842
-0.21877
-0.11085
-0.024047
0.027566
0.095601
0.15894
0.24575
0.32199
0.36422
0.40762
0.45924
0.51554
0.57067
0.6
0.60587
0.59765
0.56833
0.54487
0.48974
0.3912
0.23284
0.029912
-0.16833
-0.28563
-0.29384
-0.20469
-0.060411
0.10029
0.24106
0.35953
0.46393
0.55425
0.63871
0.69971
0.74194
0.73842
0.69267
0.62581
0.57537
0.53666
0.50381
0.44985
0.39824
0.33255
0.21642
0.041642
-0.19296
-0.41349
-0.60235
-0.6739
-0.62815
-0.48739
-0.28798
-0.09912
0.083871
0.261
0.42757
0.5695
0.69384
0.78299
0.84516
0.86862
0.87097
0.84516
0.79824
0.73607
0.67859
0.62698
0.58827
0.56129
0.53196
0.51672
0.51554
0.53314
0.56129
0.5824
0.6
0.62229
0.64457
0.67507
0.66804
0.58475
0.40176
0.18358
-0.053372
-0.29267
-0.46041
-0.57771
-0.57654
-0.51085
-0.41349
-0.30792
-0.18123
-0.060411
0.062757
0.14956
0.20938
0.26452
0.31965
0.39472
0.47214
0.53783
0.57654
0.60117
0.61642
0.63519
0.661
0.68446
0.71496
0.74897
0.78886
0.80176
0.79472
0.72903
0.62463
0.44868
0.22111
-0.055718
-0.30088
-0.44751
-0.48387
-0.3912
-0.26217
-0.13314
-0.028739
0.070968
0.1566
0.23871
0.30323
0.34194
0.37243
0.3912
0.42991
0.48152
0.54135
0.58944
0.61408
0.63167
0.65396
0.68915
0.71261
0.7349
0.74194
0.74545
0.74545
0.74311
0.74194
0.73255
0.71965
0.71026
0.71613
0.72082
0.69971
0.63988
0.58358
0.55777
0.51789
0.36774
0.089736
-0.29971
-0.60235
-0.80059
-0.81466
-0.71848
-0.57419
-0.42522
-0.28446
-0.16246
-0.038123
0.046334
0.097947
0.14721
0.18475
0.27977
0.37595
0.45103
0.50616
0.53314
0.5824
0.63988
0.68798
0.70792
0.68328
0.61525
0.50381
0.35367
0.17537
-0.020528
-0.16481
-0.25396
-0.25161
-0.17654
-0.051026
0.094428
0.23871
0.3607
0.4651
0.55308
0.63284
0.71144
0.7783
0.83109
0.8522
0.8393
0.80411
0.73724
0.67507
0.61408
0.52962
0.40997
0.25161
0.045161
-0.19413
-0.47683
-0.69853
-0.7912
-0.7349
-0.60938
-0.42991
-0.22815
-0.0099707
0.18944
0.35953
0.49443
0.60352
0.69501
0.77478
0.8346
0.87918
0.90733
0.91202
0.88739
0.84047
0.77361
0.6915
0.62698
0.56012
0.51672
0.48387
0.46393
0.46276
0.46979
0.49677
0.52727
0.55073
0.58592
0.61173
0.63519
0.62346
0.59296
0.57067
0.51789
0.38534
0.072141
-0.35367
-0.77361
-1
-0.98475
-0.82053
-0.59179
-0.39472
-0.22463
-0.072141
0.065103
0.17889
0.28094
0.35953
0.41701
0.43812
0.44868
0.46276
0.49795
0.55073
0.57771
0.59179
0.6
0.62581
0.66217
0.6868
0.68563
0.62815
0.54135
0.3783
0.18944
-0.047507
-0.24575
-0.37713
-0.40645
-0.33607
-0.21877
-0.079179
0.058065
0.19413
0.32786
0.44868
0.56012
0.65161
0.71496
0.74311
0.74311
0.71965
0.67507
0.61173
0.5695
0.54252
0.54135
0.52962
0.52727
0.53314
0.56246
0.58592
0.55894
0.48974
0.34428
0.17185
-0.060411
-0.32903
-0.52493
-0.59883
-0.55425
-0.45103
-0.32669
-0.17889
-0.015836
0.13079
0.2563
0.35249
0.42991
0.48504
0.51554
0.53079
0.53666
0.53431
0.53666
0.5566
0.58944
0.63402
0.66334
0.69032
0.71965
0.75836
0.78299
0.79707
0.80997
0.81935
0.82405
0.81232
0.81232
0.80176
0.77947
0.73607
0.69267
0.66452
0.58358
0.38534
0.088563
-0.25044
-0.54135
-0.70088
-0.71378
-0.59883
-0.42991
-0.24575
-0.094428
0.058065
0.18006
0.2739
0.33255
0.34428
0.33959
0.33724
0.34194
0.39472
0.43226
0.49091
0.54018
0.60469
0.66804
0.72669
0.74428
0.73607
0.69853
0.62698
0.50147
0.31613
0.089736
-0.1437
-0.30205
-0.38299
-0.36657
-0.27625
-0.15894
-0.026393
0.10733
0.23871
0.36422
0.48856
0.60352
0.6868
0.74194
0.76422
0.75015
0.70909
0.63636
0.57654
0.53431
0.51906
0.50029
0.48387
0.48739
0.52023
0.55777
0.59413
0.61408
0.65279
0.67859
0.69736
0.67859
0.64692
0.61994
0.54604
0.39589
0.067449
-0.35132
-0.75484
-0.96246
-0.96246
-0.81818
-0.62229
-0.41935
-0.22463
-0.040469
0.12258
0.26686
0.37243
0.45806
0.51202
0.52493
0.52493
0.5085
0.51202
0.52845
0.539
0.55191
0.56012
0.5824
0.62111
0.661
0.6868
0.69267
0.65865
0.57889
0.44164
0.25748
0.035777
-0.1871
-0.33138
-0.39238
-0.34311
-0.23988
-0.11906
0.0099707
0.13079
0.24106
0.33255
0.41232
0.46862
0.53196
0.56246
0.56598
0.56012
0.55894
0.59883
0.66217
0.70674
0.72199
0.74076
0.75601
0.78182
0.79941
0.81818
0.8393
0.85924
0.87449
0.85572
0.78651
0.62111
0.41935
0.23167
0.066276
-0.083871
-0.24106
-0.39824
-0.46979
-0.47449
-0.42287
-0.32317
-0.17889
-0.051026
0.060411
0.14956
0.21994
0.24809
0.2915
0.28446
0.3173
0.35836
0.42874
0.48622
0.54956
0.59531
0.64692
0.71378
0.78534
0.85924
0.92375
0.93666
0.90147
0.80059
0.64809
0.41935
0.15191
-0.12962
-0.33959
-0.4346
-0.44633
-0.36188
-0.2434
-0.093255
0.066276
0.21408
0.34428
0.44633
0.52727
0.57537
0.61173
0.61173
0.59648
0.57654
0.53783
0.5261
0.52375
0.54487
0.57419
0.59413
0.62815
0.65748
0.68798
0.7044
0.72082
0.73607
0.74545
0.75484
0.76891
0.77713
0.7654
0.73255
0.69736
0.66217
0.63988
0.58475
0.49326
0.33959
0.1566
-0.034604
-0.26686
-0.45572
-0.60352
-0.62815
-0.54604
-0.45689
-0.3478
-0.25161
-0.15191
-0.059238
0.011144
0.03695
0.051026
0.055718
0.10381
0.18358
0.27273
0.34663
0.40411
0.43578
0.46276
0.4651
0.45924
0.41466
0.33842
0.20587
0.058065
-0.056891
-0.097947
-0.056891
0.024047
0.1132
0.21408
0.31496
0.4217
0.52962
0.6305
0.71378
0.77243
0.81584
0.84868
0.87097
0.89091
0.89912
0.89677
0.86979
0.8217
0.75132
0.64809
0.5437
0.46745
0.39472
0.37595
0.38299
0.42053
0.46041
0.48504
0.50029
0.49091
0.44164
0.30557
0.041642
-0.29736
-0.59296
-0.75132
-0.74311
-0.64106
-0.48974
-0.33607
-0.17067
-0.018182
0.12141
0.2305
0.31613
0.39355
0.44985
0.49208
0.52375
0.5261
0.49795
0.47918
0.48974
0.54839
0.61173
0.65044
0.68328
0.7173
0.76891
0.81114
0.83109
0.82757
0.79941
0.76891
0.6915
0.58358
0.43695
0.26452
0.070968
-0.1437
-0.30674
-0.41935
-0.4346
-0.38886
-0.29267
-0.16012
-0.026393
0.089736
0.1824
0.25748
0.33138
0.38182
0.42522
0.44399
0.43578
0.44868
0.47918
0.53196
0.57185
0.59648
0.61877
0.65748
0.70088
0.7349
0.76657
0.78299
0.79003
0.78651
0.78182
0.78416
0.78065
0.76657
0.7349
0.65982
0.51672
0.35484
0.21525
0.076833
-0.065103
-0.24223
-0.3912
-0.47683
-0.47449
-0.42991
-0.33607
-0.23636
-0.13666
-0.053372
0.022874
0.074487
0.097947
0.093255
0.088563
0.11554
0.17654
0.23988
0.29032
0.33842
0.38886
0.44516
0.5085
0.57185
0.65982
0.72786
0.75601
0.70674
0.60117
0.42874
0.23402
0.039296
-0.15543
-0.29853
-0.39589
-0.40997
-0.34076
-0.21642
-0.059238
0.11672
0.27859
0.42522
0.53548
0.60704
0.65865
0.66804
0.66569
0.62346
0.5566
0.49795
0.46979
0.48504
0.51672
0.53431
0.54604
0.57302
0.61525
0.64927
0.67273
0.6868
0.70088
0.71378
0.72551
0.73842
0.73724
0.73138
0.71965
0.70792
0.69619
0.68094
0.67273
0.65513
0.60352
0.45924
0.27625
0.088563
-0.055718
-0.22815
-0.41818
-0.5695
-0.6305
-0.59062
-0.51202
-0.41701
-0.31848
-0.23402
-0.16481
-0.088563
-0.032258
0.0017595
0.027566
0.041642
0.062757
0.080352
0.095601
0.12141
0.17067
0.24106
0.30909
0.35836
0.3912
0.40762
0.42522
0.42991
0.39589
0.33372
0.20587
0.10616
0.051026
0.088563
0.18006
0.28328
0.36774
0.43812
0.50029
0.5695
0.62463
0.68094
0.71613
0.74076
0.74194
0.73372
0.72551
0.70323
0.65748
0.539
0.35367
0.12962
-0.083871
-0.20235
-0.26686
-0.28798
-0.31613
-0.36657
-0.42522
-0.45103
-0.44282
-0.37009
-0.2305
-0.060411
0.12375
0.30557
0.46979
0.61994
0.74076
0.84047
0.91085
0.96129
0.98475
0.99883
1
0.99883
0.98475
0.97067
0.95425
0.94252
0.92845
0.9132
0.89091
0.86276
0.82522
0.77243
0.71496
0.68211
0.68328
0.68798
0.66334
0.58006
0.39472
0.13666
-0.11906
-0.2739
-0.3607
-0.42287
-0.51554
-0.6129
-0.66452
-0.6434
-0.59062
-0.50264
-0.39589
-0.27507
-0.13783
0.012317
0.16012
0.29736
0.40645
0.49091
0.54839
0.5824
0.62933
0.6915
0.75249
0.79824
0.79589
0.76422
0.67273
0.52141
0.35601
0.17537
0.042815
-0.078006
-0.16364
-0.261
-0.32434
-0.35484
-0.33021
-0.24692
-0.11554
0.038123
0.20352
0.36422
0.51085
0.63284
0.72903
0.80411
0.85806
0.89795
0.92493
0.93783
0.93314
0.92375
0.90499
0.87918
0.83343
0.77009
0.69267
0.64575
0.60821
0.58592
0.5566
0.54956
0.55894
0.52962
0.43695
0.25044
-0.041642
-0.38768
-0.67742
-0.81701
-0.7607
-0.61525
-0.50616
-0.41584
-0.33021
-0.20235
-0.073314
0.043988
0.1437
0.23636
0.31378
0.39824
0.48504
0.5871
0.68211
0.76188
0.81818
0.82522
0.80176
0.74076
0.67155
0.61173
0.5824
0.60352
0.62933
0.64692
0.62111
0.54018
0.44047
0.33138
0.22581
0.088563
-0.10499
-0.30323
-0.49912
-0.60821
-0.64927
-0.61408
-0.50968
-0.36891
-0.22815
-0.069795
0.093255
0.24223
0.37947
0.49795
0.60117
0.67155
0.70674
0.71965
0.72434
0.72903
0.72082
0.68328
0.6434
0.56716
0.51202
0.4522
0.44985
0.46628
0.50499
0.5437
0.58358
0.62933
0.66686
0.66334
0.60938
0.4827
0.34428
0.23871
0.17889
0.12845
0.051026
-0.058065
-0.14721
-0.21642
-0.2434
-0.23988
-0.19883
-0.12258
-0.020528
0.09912
0.22229
0.33842
0.41701
0.48035
0.51554
0.52962
0.52727
0.48152
0.45806
0.44516
0.47331
0.5132
0.54487
0.56598
0.59765
0.63284
0.66452
0.69384
0.72669
0.76422
0.79707
0.82639
0.83109
0.81701
0.77361
0.72082
0.65161
0.54252
0.41818
0.2868
0.12141
-0.067449
-0.24575
-0.37126
-0.40176
-0.37595
-0.31378
-0.23519
-0.13783
-0.033431
0.072141
0.17654
0.27273
0.34428
0.35484
0.33255
0.30557
0.31144
0.35249
0.40528
0.45103
0.49443
0.54487
0.59296
0.63871
0.69267
0.74545
0.80645
0.84868
0.87097
0.87918
0.87449
0.84399
0.77243
0.64575
0.43695
0.21408
-0.042815
-0.24809
-0.39707
-0.47683
-0.48974
-0.45689
-0.38768
-0.27625
-0.14487
0.0029326
0.14252
0.26686
0.34076
0.39824
0.39355
0.31965
0.21994
0.12962
0.12962
0.16481
0.20938
0.23988
0.29032
0.37009
0.4651
0.5566
0.62229
0.661
0.6739
0.67038
0.66921
0.68211
0.70205
0.72082
0.72786
0.72669
0.71613
0.69619
0.67742
0.65161
0.64223
0.63871
0.65279
0.6434
0.58827
0.47214
0.31613
0.14604
0.024047
-0.10968
-0.26217
-0.45455
-0.59765
-0.6563
-0.61877
-0.54135
-0.44164
-0.33372
-0.19883
-0.047507
0.096774
0.20117
0.2305
0.21408
0.19179
0.19883
0.24223
0.2915
0.33138
0.37713
0.42287
0.47683
0.53079
0.54487
0.48739
0.38651
0.24809
0.12962
0.019355
-0.047507
-0.065103
-0.022874
0.074487
0.18123
0.28094
0.35718
0.41935
0.47801
0.53431
0.60117
0.66569
0.71144
0.72317
0.72317
0.73607
0.73372
0.73372
0.71026
0.64692
0.57654
0.49912
0.42639
0.35132
0.24223
0.10029
-0.088563
-0.24692
-0.32669
-0.3478
-0.31496
-0.29619
-0.27155
-0.22111
-0.14135
-0.038123
0.094428
0.25513
0.41114
0.54721
0.64809
0.72199
0.77947
0.82287
0.85806
0.87214
0.87683
0.86628
0.84047
0.80645
0.75249
0.68915
0.63871
0.60938
0.60938
0.61408
0.6563
0.70909
0.7478
0.77009
0.75367
0.72317
0.64575
0.52258
0.29384
0.011144
-0.33255
-0.539
-0.62463
-0.57302
-0.48387
-0.40645
-0.32903
-0.22933
-0.10616
0.033431
0.18475
0.31613
0.4346
0.52375
0.58944
0.63636
0.661
0.68563
0.70792
0.68563
0.61642
0.51672
0.44282
0.42757
0.44282
0.47449
0.50499
0.54487
0.61056
0.68094
0.71848
0.71496
0.66334
0.58592
0.49208
0.36422
0.22346
0.04868
-0.089736
-0.19648
-0.28446
-0.3349
-0.3478
-0.33372
-0.2868
-0.22346
-0.12258
0.0087977
0.15308
0.29501
0.41349
0.50968
0.57302
0.60821
0.62933
0.62581
0.59765
0.53431
0.46393
0.42405
0.43226
0.46158
0.48739
0.51085
0.53196
0.55777
0.58592
0.6176
0.65865
0.69853
0.72786
0.75132
0.76774
0.78182
0.80293
0.79941
0.77713
0.73724
0.68446
0.57302
0.41114
0.23167
0.10147
-0.028739
-0.15073
-0.30205
-0.41584
-0.46158
-0.46979
-0.44164
-0.38299
-0.30674
-0.22463
-0.13548
-0.034604
0.068622
0.13783
0.16364
0.15308
0.139
0.1566
0.1871
0.22229
0.27742
0.3607
0.4522
0.51202
0.5261
0.49677
0.45337
0.39941
0.33724
0.25982
0.17771
0.097947
0.027566
-0.081525
-0.18827
-0.27038
-0.28211
-0.23636
-0.14721
-0.031085
0.11202
0.2434
0.3607
0.45806
0.54721
0.63754
0.71144
0.76657
0.80997
0.83109
0.82757
0.79355
0.73724
0.65161
0.56364
0.49326
0.47214
0.47214
0.47918
0.47214
0.44868
0.42053
0.34897
0.22346
0.1085
0.038123
0.094428
0.24223
0.40411
0.53196
0.59883
0.6176
0.60938
0.5695
0.54135
0.52493
0.55073
0.60117
0.6434
0.64223
0.59883
0.52023
0.38416
0.16833
-0.20352
-0.55425
-0.78651
-0.76422
-0.55425
-0.35601
-0.26334
-0.27038
-0.29736
-0.30909
-0.25982
-0.16716
-0.028739
0.11202
0.19179
0.21994
0.21877
0.26921
0.37126
0.49443
0.61408
0.70557
0.7607
0.78768
0.79824
0.80176
0.79003
0.73842
0.62933
0.46276
0.21173
-0.088563
-0.33372
-0.42991
-0.35132
-0.18358
-0.0099707
0.14018
0.29736
0.43812
0.55894
0.65865
0.72903
0.78299
0.82522
0.85572
0.89208
0.90381
0.89443
0.84399
0.78651
0.72199
0.68563
0.66804
0.67507
0.72551
0.7783
0.82287
0.82287
0.77713
0.72669
0.6868
0.66686
0.66334
0.64927
0.59531
0.48856
0.3654
0.22463
0.054545
-0.13196
-0.26217
-0.32669
-0.31261
-0.30674
-0.32903
-0.33724
-0.30909
-0.22581
-0.11202
0.021701
0.15191
0.27625
0.3607
0.40528
0.38651
0.34663
0.33138
0.34428
0.38299
0.43343
0.48856
0.54487
0.60821
0.67155
0.7349
0.7912
0.84751
0.89326
0.91554
0.89677
0.84751
0.80411
0.75249
0.65396
0.46862
0.18827
-0.17654
-0.4651
-0.67273
-0.72434
-0.64809
-0.54839
-0.4346
-0.3173
-0.20235
-0.068622
0.061584
0.18358
0.27742
0.35718
0.42522
0.48974
0.54604
0.57537
0.56598
0.52845
0.46041
0.39472
0.34076
0.33372
0.35249
0.39589
0.40997
0.40645
0.39472
0.38416
0.38886
0.41584
0.45455
0.50147
0.539
0.57537
0.6
0.61525
0.61994
0.62581
0.62346
0.62111
0.6129
0.60469
0.58827
0.57067
0.55308
0.53431
0.51202
0.49795
0.49677
0.51085
0.52727
0.55073
0.57302
0.56129
0.4651
0.28094
0.041642
-0.18358
-0.3654
-0.49912
-0.55073
-0.5261
-0.46158
-0.44985
-0.48387
-0.50616
-0.48387
-0.42874
-0.36657
-0.28798
-0.17889
-0.024047
0.15308
0.33255
0.47566
0.57654
0.63167
0.66217
0.67273
0.66686
0.661
0.64575
0.63988
0.60938
0.57185
0.51085
0.42287
0.32317
0.21408
0.11437
0.011144
-0.10381
-0.20235
-0.22346
-0.16833
-0.073314
0.047507
0.15777
0.24575
0.28563
0.30088
0.33255
0.38416
0.46628
0.53314
0.59883
0.65513
0.66921
0.661
0.60117
0.55425
0.52141
0.48856
0.46628
0.44868
0.42639
0.42405
0.43578
0.50381
0.58475
0.661
0.66569
0.55191
0.34663
0.07566
-0.20821
-0.41935
-0.50968
-0.46393
-0.33724
-0.2
-0.070968
0.066276
0.19883
0.33842
0.46158
0.5695
0.64223
0.68094
0.68798
0.67742
0.65748
0.64106
0.62463
0.6176
0.63167
0.66452
0.69971
0.73607
0.7607
0.77478
0.77595
0.77478
0.77478
0.76774
0.76657
0.75953
0.75953
0.74663
0.74076
0.72434
0.70557
0.69501
0.6868
0.67859
0.67742
0.65513
0.60469
0.49443
0.33842
0.15543
-0.035777
-0.261
-0.44985
-0.55191
-0.54839
-0.49443
-0.48856
-0.50147
-0.49443
-0.42287
-0.31613
-0.21408
-0.11085
-0.02522
0.020528
0.040469
0.045161
0.067449
0.12141
0.20704
0.29267
0.37009
0.43109
0.48152
0.52845
0.56481
0.6
0.61877
0.62229
0.60117
0.54956
0.46979
0.39003
0.32199
0.26452
0.16833
-0.0076246
-0.22463
-0.40762
-0.51906
-0.53079
-0.47683
-0.37713
-0.23988
-0.086217
0.069795
0.20938
0.32903
0.43695
0.52493
0.60117
0.661
0.70792
0.72903
0.73138
0.6915
0.6305
0.55425
0.49677
0.47449
0.48739
0.51554
0.54018
0.54721
0.53548
0.52727
0.5261
0.54487
0.56598
0.59531
0.62346
0.65396
0.67625
0.69384
0.70909
0.72434
0.73724
0.72551
0.70205
0.67742
0.65513
0.6563
0.63167
0.56716
0.43695
0.27507
0.090909
-0.083871
-0.20704
-0.2739
-0.28563
-0.35484
-0.46745
-0.5871
-0.62698
-0.55894
-0.42287
-0.27155
-0.12493
0.015836
0.15073
0.27273
0.3783
0.45924
0.52023
0.57302
0.61642
0.65748
0.6915
0.70792
0.7349
0.7607
0.80293
0.83812
0.84399
0.80411
0.69267
0.53079
0.28094
-0.015836
-0.32551
-0.5437
-0.63871
-0.61994
-0.539
-0.42639
-0.28211
-0.12023
0.040469
0.17419
0.29384
0.40059
0.50264
0.58475
0.63871
0.65982
0.66569
0.6563
0.63167
0.60235
0.56012
0.55894
0.58475
0.61642
0.6176
0.58827
0.55308
0.52375
0.5261
0.5437
0.56481
0.59179
0.62229
0.65982
0.6915
0.71496
0.71378
0.6868
0.64692
0.61173
0.60704
0.63988
0.69736
0.75132
0.79238
0.81818
0.83109
0.80059
0.70674
0.4956
0.2
-0.19648
-0.54721
-0.7349
-0.74194
-0.66921
-0.66686
-0.69619
-0.67977
-0.56716
-0.42287
-0.28563
-0.15894
-0.041642
0.085044
0.19179
0.27273
0.33138
0.38534
0.44047
0.4956
0.53079
0.52258
0.50264
0.46745
0.47918
0.52845
0.58592
0.6176
0.61994
0.5871
0.53314
0.4346
0.35367
0.27038
0.18944
0.074487
-0.10029
-0.28446
-0.46158
-0.57185
-0.59648
-0.57185
-0.50616
-0.38651
-0.23519
-0.045161
0.12141
0.2434
0.33021
0.40293
0.47918
0.54135
0.59765
0.61994
0.62581
0.59883
0.56129
0.52845
0.52023
0.52727
0.55543
0.59062
0.6176
0.64223
0.66334
0.6868
0.70088
0.72199
0.73842
0.74545
0.74897
0.74194
0.73959
0.73842
0.74194
0.7349
0.72317
0.68915
0.6434
0.58475
0.53314
0.50616
0.53783
0.60117
0.66452
0.71613
0.71613
0.65982
0.5261
0.27625
-0.045161
-0.44282
-0.6868
-0.81232
-0.75249
-0.6739
-0.63988
-0.61525
-0.52493
-0.38416
-0.2176
-0.080352
0.045161
0.15308
0.25161
0.33372
0.39355
0.4393
0.47566
0.4956
0.51554
0.53196
0.54604
0.55543
0.54487
0.48974
0.41701
0.34311
0.34076
0.38768
0.44868
0.48622
0.48974
0.49443
0.4827
0.43226
0.34897
0.23988
0.095601
-0.082698
-0.31965
-0.5085
-0.59062
-0.52845
-0.40528
-0.27977
-0.18475
-0.083871
0.019355
0.1261
0.21642
0.29267
0.37009
0.45924
0.55191
0.63519
0.70205
0.75484
0.79238
0.81935
0.84164
0.8522
0.85689
0.8522
0.84282
0.82991
0.81584
0.79589
0.78065
0.75249
0.71965
0.6915
0.67038
0.64692
0.63167
0.61525
0.58944
0.55073
0.51554
0.47801
0.46862
0.43109
0.3607
0.24106
0.070968
-0.10147
-0.22815
-0.27742
-0.23167
-0.16246
-0.14956
-0.22933
-0.32199
-0.37361
-0.37595
-0.31965
-0.22698
-0.11906
-0.018182
0.068622
0.13314
0.20704
0.29032
0.35953
0.42757
0.48856
0.54135
0.58358
0.60235
0.59765
0.5871
0.57771
0.58827
0.61525
0.63871
0.64692
0.63167
0.60352
0.58006
0.56833
0.539
0.44751
0.29853
0.089736
-0.14487
-0.3654
-0.48739
-0.4651
-0.33255
-0.16364
0.0087977
0.1695
0.31496
0.40528
0.45572
0.47566
0.48504
0.50616
0.50733
0.51906
0.54604
0.59413
0.62111
0.60352
0.54487
0.47097
0.41818
0.40645
0.42874
0.47097
0.50733
0.51789
0.50381
0.49795
0.53548
0.59765
0.64927
0.66569
0.60587
0.48035
0.24809
-0.055718
-0.31144
-0.42405
-0.38534
-0.25279
-0.17419
-0.1566
-0.16364
-0.16598
-0.13666
-0.074487
0.018182
0.14135
0.26217
0.37713
0.43695
0.45103
0.42874
0.40997
0.42874
0.48622
0.5695
0.66452
0.73842
0.80997
0.84868
0.87801
0.8827
0.87566
0.87331
0.86862
0.86276
0.83343
0.79355
0.74545
0.70792
0.68798
0.68446
0.69384
0.70557
0.71613
0.71613
0.71144
0.69267
0.661
0.63167
0.61173
0.61173
0.62463
0.63871
0.64223
0.63519
0.63519
0.64457
0.61642
0.54839
0.41818
0.21173
-0.076833
-0.32551
-0.49091
-0.51554
-0.48622
-0.47683
-0.46862
-0.43109
-0.38651
-0.33724
-0.27977
-0.19765
-0.089736
0.021701
0.12845
0.22933
0.31026
0.37126
0.41935
0.45924
0.49091
0.51437
0.52493
0.52727
0.51789
0.50029
0.48504
0.4827
0.48152
0.47801
0.44399
0.39238
0.33959
0.30088
0.26217
0.20587
0.14839
0.11906
0.12141
0.15073
0.18358
0.20587
0.19531
0.12493
-0.055718
-0.2915
-0.49208
-0.59296
-0.56833
-0.45924
-0.33021
-0.19531
-0.078006
0.047507
0.16246
0.25982
0.33372
0.37713
0.41114
0.43578
0.4651
0.50264
0.53548
0.55777
0.58358
0.62111
0.6739
0.72669
0.75836
0.75953
0.73959
0.72434
0.7173
0.73138
0.75367
0.7783
0.79707
0.80762
0.79824
0.7783
0.73021
0.65279
0.50264
0.24575
-0.11085
-0.42874
-0.61994
-0.60821
-0.44985
-0.25279
-0.089736
0.039296
0.14135
0.22229
0.2868
0.33959
0.38065
0.39238
0.41701
0.4393
0.48856
0.54721
0.61173
0.67742
0.75132
0.78534
0.80645
0.77713
0.75836
0.7478
0.73959
0.73372
0.72669
0.70557
0.6915
0.68328
0.67742
0.67625
0.66569
0.66334
0.67625
0.71261
0.75249
0.77009
0.74428
0.68446
0.61056
0.55308
0.51085
0.47097
0.45924
0.46158
0.44399
0.37478
0.261
0.1085
-0.0017595
-0.13431
-0.24457
-0.38065
-0.46745
-0.50147
-0.46041
-0.41114
-0.35836
-0.31965
-0.2563
-0.15777
-0.03695
0.092082
0.21877
0.32434
0.42053
0.48035
0.5261
0.54839
0.56481
0.5695
0.57185
0.57302
0.56364
0.55894
0.55073
0.54135
0.53431
0.53314
0.5261
0.51672
0.51085
0.50147
0.48504
0.46628
0.44868
0.44282
0.4393
0.42874
0.40997
0.3783
0.34897
0.29853
0.22346
0.09912
-0.029912
-0.13431
-0.18827
-0.22581
-0.30792
-0.41466
-0.50147
-0.53079
-0.49677
-0.45103
-0.3912
-0.33724
-0.30909
-0.28094
-0.23284
-0.14721
-0.019355
0.10147
0.17654
0.22111
0.25865
0.30792
0.37243
0.44751
0.51906
0.57889
0.63871
0.68563
0.71144
0.72551
0.72786
0.74663
0.76774
0.75484
0.70205
0.60352
0.50733
0.41818
0.36657
0.33255
0.29736
0.25279
0.16129
0.024047
-0.13314
-0.23636
-0.2563
-0.21877
-0.14956
-0.092082
-0.015836
0.078006
0.19062
0.31144
0.42874
0.53196
0.59296
0.63167
0.65748
0.66686
0.6563
0.62581
0.59531
0.56833
0.54252
0.53548
0.56129
0.62346
0.70557
0.78299
0.85103
0.89795
0.92141
0.92258
0.90381
0.86276
0.81701
0.76774
0.70792
0.63636
0.53079
0.42405
0.33372
0.28094
0.26452
0.29032
0.35015
0.43109
0.49677
0.51202
0.46628
0.38416
0.24457
0.092082
-0.072141
-0.20235
-0.33255
-0.43812
-0.52023
-0.53431
-0.54721
-0.54135
-0.50147
-0.39824
-0.23988
-0.073314
0.056891
0.15191
0.23284
0.30792
0.36891
0.40645
0.40997
0.40645
0.41466
0.45103
0.5085
0.57889
0.64809
0.71026
0.74663
0.77009
0.77947
0.7654
0.74663
0.72551
0.71848
0.72317
0.74194
0.76891
0.77947
0.76891
0.71026
0.60821
0.43695
0.19883
-0.039296
-0.2176
-0.29853
-0.28563
-0.19648
-0.086217
0.035777
0.12845
0.19062
0.24692
0.30909
0.36188
0.41701
0.46745
0.50147
0.52023
0.50733
0.46041
0.38299
0.31144
0.28328
0.31261
0.38182
0.46158
0.54135
0.61173
0.66686
0.70909
0.72434
0.71613
0.70792
0.70088
0.70557
0.72082
0.73959
0.74663
0.72551
0.6739
0.60117
0.53431
0.48739
0.45455
0.41584
0.37478
0.34663
0.33842
0.35484
0.3783
0.39238
0.39355
0.37947
0.3607
0.33959
0.32669
0.3044
0.28211
0.20352
0.045161
-0.27155
-0.58123
-0.75953
-0.73724
-0.5824
-0.46276
-0.44868
-0.5085
-0.55308
-0.52845
-0.44633
-0.33138
-0.24809
-0.18944
-0.14018
-0.095601
-0.026393
0.059238
0.17185
0.29267
0.40762
0.5132
0.59413
0.67273
0.73607
0.78768
0.82757
0.85924
0.87918
0.90381
0.91672
0.91789
0.89795
0.84282
0.77243
0.70323
0.61408
0.49677
0.3607
0.24927
0.18358
0.16716
0.18123
0.18358
0.13548
0.0076246
-0.10499
-0.18592
-0.20235
-0.20117
-0.1871
-0.15777
-0.086217
-0.00058651
0.080352
0.17889
0.26921
0.34311
0.37947
0.37478
0.32903
0.24927
0.17185
0.1261
0.16364
0.25982
0.39707
0.53783
0.6563
0.75015
0.81584
0.8651
0.9085
0.94135
0.96012
0.96012
0.94721
0.92845
0.90733
0.87918
0.85103
0.81701
0.78416
0.7478
0.71144
0.67742
0.6434
0.61056
0.5871
0.55894
0.53196
0.5085
0.48504
0.46276
0.44399
0.42757
0.40762
0.39003
0.37713
0.3607
0.35132
0.34076
0.33138
0.32551
0.31613
0.31378
0.30557
0.30323
0.29384
0.28446
0.27742
0.27859
0.28798
0.30323
0.32551
0.32786
0.28563
0.17537
0.039296
-0.053372
-0.080352
-0.10616
-0.1695
-0.22815
-0.22815
-0.18358
-0.17654
-0.22698
-0.31848
-0.37009
-0.3912
-0.35015
-0.26217
-0.14839
-0.031085
0.056891
0.1437
0.22346
0.29853
0.35953
0.40411
0.43109
0.45103
0.46041
0.46393
0.45572
0.41935
0.37243
0.31261
0.23636
0.16716
0.11202
0.065103
0.039296
0.017009
0.015836
0.052199
0.11906
0.19648
0.27273
0.34897
0.43109
0.48152
0.49443
0.45806
0.36305
0.21408
-0.022874
-0.27859
-0.50147
-0.67038
-0.76305
-0.80293
-0.77713
-0.66686
-0.52258
-0.37009
-0.23871
-0.14135
-0.051026
0.053372
0.19062
0.34076
0.46745
0.56364
0.63636
0.68094
0.71261
0.72786
0.73607
0.73842
0.72903
0.71496
0.69736
0.67155
0.64106
0.60587
0.57889
0.5695
0.55425
0.54721
0.53196
0.52258
0.51672
0.51202
0.48504
0.43578
0.34076
0.21408
0.068622
-0.070968
-0.18827
-0.2739
-0.3478
-0.41466
-0.44985
-0.45455
-0.44164
-0.51202
-0.6305
-0.73842
-0.73724
-0.62815
-0.51085
-0.41818
-0.34428
-0.25865
-0.17302
-0.093255
-0.0099707
0.07566
0.17771
0.23402
0.23167
0.15894
0.07566
0.055718
0.093255
0.16598
0.24223
0.31848
0.37595
0.44164
0.52845
0.64692
0.75836
0.83109
0.85806
0.85455
0.8393
0.82287
0.80059
0.76774
0.74897
0.75367
0.79589
0.84047
0.85103
0.83578
0.81232
0.81466
0.80293
0.7478
0.5871
0.79003
