0.016477
-0.029151
-0.072243
-0.1052
-0.10773
-0.087452
-0.051965
-0.013942
0.046895
0.15336
0.28771
0.40684
0.49303
0.51838
0.52598
0.49049
0.41952
0.29024
0.13815
0.011407
-0.082383
-0.15082
-0.14575
-0.13054
-0.11787
-0.11787
-0.15589
-0.20152
-0.24208
-0.24461
-0.20406
-0.13308
-0.057034
0.016477
0.054499
0.067174
0.074778
0.057034
0.024081
-0.016477
-0.051965
-0.067174
-0.054499
-0.021546
0.0063371
-0.0038023
-0.0012674
0.024081
0.089987
0.16857
0.24715
0.29024
0.29785
0.27757
0.2294
0.14068
0.019011
-0.10266
-0.20152
-0.24715
-0.24968
-0.23447
-0.24208
-0.26743
-0.27757
-0.2801
-0.26996
-0.23194
-0.17871
-0.10773
-0.059569
-0.046895
-0.10266
-0.20659
-0.28264
-0.34094
-0.29531
-0.27503
-0.27757
-0.3384
-0.43219
-0.43726
-0.3891
-0.31812
-0.24715
-0.17617
-0.13561
-0.10013
-0.077313
-0.054499
-0.04943
-0.011407
0.03929
0.095057
0.13561
0.1711
0.18631
0.19645
0.19899
0.19138
0.16603
0.1128
0.04436
-0.036755
-0.13308
-0.19138
-0.23954
-0.21673
-0.20659
-0.1711
-0.11027
-0.059569
0.04436
0.12294
0.15336
0.14068
0.10773
0.041825
-0.036755
-0.10773
-0.10773
-0.15336
-0.1711
-0.14322
-0.072243
0.008872
0.079848
0.12801
0.15843
0.18378
0.20913
0.25982
0.29278
0.32066
0.3308
0.31559
0.25222
0.10773
-0.041825
-0.19138
-0.27503
-0.2801
-0.32319
-0.41191
-0.50317
-0.57668
-0.5564
-0.4981
-0.43219
-0.3815
-0.38657
-0.42459
-0.46008
-0.49049
-0.46768
-0.39924
-0.2801
-0.16096
-0.059569
0.036755
0.095057
0.12041
0.12294
0.10013
0.077313
0.069708
0.089987
0.13561
0.1711
0.19645
0.16603
0.1128
0.03929
0.0038023
0.041825
0.074778
0.097592
0.059569
0.016477
-0.011407
-0.0063371
0.031686
0.064639
0.092522
0.082383
0.064639
0.054499
0.069708
0.084918
0.11787
0.19138
0.25222
0.29278
0.28771
0.26743
0.24968
0.23194
0.23954
0.25982
0.30292
0.35868
0.40938
0.43219
0.3967
0.31052
0.22687
0.23194
0.27757
0.31052
0.25729
0.14829
0.084918
0.062104
0.084918
0.1128
0.14575
0.16603
0.18378
0.20659
0.2142
0.23194
0.25982
0.28264
0.26743
0.21673
0.13561
0.041825
-0.04943
-0.12548
-0.1635
-0.12801
-0.019011
0.10013
0.20406
0.25982
0.29531
0.27757
0.18631
0.072243
-0.016477
-0.059569
-0.064639
-0.031686
-0.0012674
-0.008872
-0.026616
-0.067174
-0.10773
-0.15336
-0.17871
-0.20406
-0.20406
-0.18124
-0.15082
-0.13054
-0.11027
-0.089987
-0.057034
-0.051965
-0.054499
-0.059569
-0.089987
-0.1635
-0.20659
-0.21166
-0.11534
0.0038023
0.062104
0.057034
-0.029151
-0.04943
-0.089987
-0.072243
-0.057034
-0.046895
-0.046895
-0.064639
-0.064639
-0.051965
-0.046895
-0.041825
-0.041825
-0.062104
-0.074778
-0.082383
-0.084918
-0.077313
-0.079848
-0.026616
0.041825
0.13308
0.21166
0.24208
0.2142
0.14829
0.021546
-0.13308
-0.26236
-0.38657
-0.47275
-0.52852
-0.54626
-0.54373
-0.52598
-0.48289
-0.42459
-0.34347
-0.26996
-0.17871
-0.11787
-0.069708
-0.0063371
0.054499
0.11027
0.13054
0.14068
0.12801
0.11534
0.089987
0.036755
0.008872
0.054499
0.19392
0.35361
0.45501
0.41952
0.32319
0.18631
0.084918
0.008872
-0.051965
-0.077313
-0.077313
-0.059569
-0.046895
-0.031686
-0.0012674
0.029151
0.03929
0.036755
0.034221
0.021546
0.046895
0.095057
0.1635
0.22687
0.27503
0.31052
0.34601
0.41445
0.44233
0.40431
0.30798
0.19899
0.097592
-0.0012674
-0.041825
-0.059569
-0.034221
0.013942
0.069708
0.12548
0.1711
0.19392
0.20152
0.19138
0.17871
0.17617
0.16096
0.14575
0.13054
0.12548
0.11787
0.097592
0.092522
0.072243
0.021546
-0.084918
-0.069708
0.069708
0.30798
0.55387
0.58935
0.48542
0.28517
0.054499
-0.11787
-0.24461
-0.30545
-0.32319
-0.31305
-0.29024
-0.26236
-0.23447
-0.20659
-0.17871
-0.15589
-0.12041
-0.072243
-0.031686
-0.04436
-0.062104
-0.04943
-0.031686
-0.024081
-0.04436
-0.036755
-0.008872
0.057034
0.11534
0.13561
0.089987
-0.019011
-0.13308
-0.24208
-0.29278
-0.30038
-0.31559
-0.32066
-0.33587
-0.34601
-0.36122
-0.35108
-0.34094
-0.31052
-0.2725
-0.22687
-0.18631
-0.1635
-0.13561
-0.10266
-0.054499
-0.0012674
0.021546
-0.019011
-0.051965
0.029151
0.23447
0.5057
0.67047
0.71103
0.59696
0.41698
0.23447
0.11534
0.0063371
-0.034221
-0.064639
-0.082383
-0.11534
-0.18631
-0.25475
-0.32826
-0.37643
-0.37643
-0.32826
-0.23701
-0.13815
-0.059569
0.04943
0.16096
0.27503
0.37643
0.48289
0.6071
0.71356
0.73131
0.64512
0.49049
0.29278
0.11534
-0.008872
-0.057034
-0.087452
-0.11027
-0.13815
-0.18378
-0.24208
-0.28517
-0.29785
-0.30545
-0.26996
-0.20659
-0.12294
-0.04943
0.0038023
0.024081
-0.011407
-0.051965
-0.1128
-0.16603
-0.18124
-0.04943
0.19645
0.48796
0.66793
0.65779
0.4981
0.25982
0.054499
-0.11787
-0.21926
-0.26743
-0.29531
-0.32066
-0.36882
-0.41952
-0.47529
-0.4981
-0.50824
-0.49556
-0.47022
-0.42966
-0.3891
-0.35108
-0.28264
-0.16857
-0.04943
0.087452
0.2142
0.35868
0.47782
0.55387
0.56147
0.4981
0.34854
0.18378
0.04943
-0.016477
-0.036755
-0.069708
-0.084918
-0.13561
-0.18124
-0.22433
-0.25222
-0.25982
-0.23701
-0.18631
-0.11787
-0.04436
0.03929
0.11787
0.19392
0.24968
0.26996
0.23447
0.24715
0.33333
0.52598
0.75919
0.90621
0.92902
0.79214
0.55894
0.30038
0.067174
-0.14322
-0.26489
-0.33333
-0.37896
-0.40177
-0.42712
-0.46515
-0.46261
-0.4474
-0.41191
-0.36882
-0.31812
-0.24968
-0.15843
-0.051965
0.062104
0.12801
0.15336
0.17871
0.21166
0.23954
0.2294
0.17617
0.069708
-0.095057
-0.26236
-0.37389
-0.44233
-0.42205
-0.38403
-0.32573
-0.25475
-0.16857
-0.089987
-0.034221
-0.011407
-0.013942
-0.0063371
0.016477
0.041825
0.079848
0.1052
0.11534
0.11534
0.082383
0.016477
-0.013942
0.04436
0.17364
0.41698
0.6071
0.71103
0.67807
0.52852
0.32826
0.11027
-0.095057
-0.24208
-0.28264
-0.28771
-0.26236
-0.28517
-0.34094
-0.38657
-0.41445
-0.4398
-0.44994
-0.43473
-0.38657
-0.2725
-0.084918
0.10773
0.26996
0.39163
0.50824
0.60456
0.67047
0.65779
0.57161
0.38657
0.15589
-0.051965
-0.22433
-0.33333
-0.40684
-0.4398
-0.43726
-0.41191
-0.35108
-0.28771
-0.21673
-0.16857
-0.11787
-0.067174
0.008872
0.084918
0.14575
0.19392
0.2294
0.24715
0.21673
0.14322
0.051965
0.057034
0.15843
0.32319
0.44487
0.41445
0.27503
0.041825
-0.16857
-0.33333
-0.40431
-0.40431
-0.33587
-0.21166
-0.1052
-0.029151
0.0038023
0.034221
0.046895
0.034221
0.041825
0.029151
0.021546
0.0038023
0.021546
0.054499
0.089987
0.095057
0.057034
0.016477
-0.026616
-0.046895
-0.10773
-0.2142
-0.35361
-0.48289
-0.56147
-0.56401
-0.53105
-0.47782
-0.40684
-0.33333
-0.25982
-0.18378
-0.12801
-0.072243
-0.041825
-0.011407
0.016477
0.046895
0.051965
0.059569
0.072243
0.079848
0.082383
0.072243
0.034221
0.019011
0.10013
0.2801
0.52598
0.68821
0.74905
0.68314
0.49556
0.25729
0.036755
-0.1128
-0.15843
-0.12294
-0.064639
-0.034221
-0.019011
-0.021546
-0.019011
-0.011407
0.019011
0.04943
0.092522
0.13054
0.15843
0.18885
0.23954
0.32826
0.40684
0.46261
0.48796
0.54119
0.57161
0.56147
0.44233
0.2142
-0.021546
-0.21166
-0.28264
-0.2725
-0.23701
-0.17617
-0.13561
-0.11534
-0.10013
-0.082383
-0.074778
-0.046895
-0.019011
-0.024081
-0.041825
-0.069708
-0.10266
-0.17617
-0.26743
-0.30798
-0.26236
-0.13054
-0.0012674
0.11787
0.20659
0.25222
0.22433
0.1052
-0.082383
-0.25982
-0.39163
-0.47782
-0.48796
-0.46515
-0.41698
-0.37389
-0.31812
-0.25982
-0.19392
-0.12801
-0.062104
0.019011
0.11534
0.2294
0.29785
0.31305
0.28771
0.24461
0.22687
0.2142
0.20152
0.1635
0.077313
-0.016477
-0.12294
-0.21926
-0.28517
-0.30798
-0.28264
-0.23447
-0.16603
-0.082383
-0.0063371
0.062104
0.14575
0.19899
0.23447
0.23701
0.25222
0.26996
0.27757
0.29278
0.27757
0.26236
0.24461
0.20659
0.11534
-0.011407
-0.12801
-0.22433
-0.26996
-0.28517
-0.2801
-0.28517
-0.29024
-0.30545
-0.32573
-0.34347
-0.3384
-0.32066
-0.30798
-0.28517
-0.24461
-0.17364
-0.077313
0.04943
0.1711
0.19899
0.16603
0.054499
-0.087452
-0.20659
-0.28264
-0.28517
-0.24208
-0.18631
-0.15589
-0.14322
-0.16096
-0.16603
-0.17364
-0.18378
-0.16857
-0.14068
-0.089987
-0.024081
0.051965
0.12294
0.19899
0.28771
0.34854
0.38657
0.3891
0.40177
0.42205
0.44994
0.45501
0.3891
0.19899
-0.069708
-0.25982
-0.30545
-0.22687
-0.13054
-0.14575
-0.20659
-0.2801
-0.24461
-0.16603
-0.067174
0.0038023
0.036755
0.029151
0.034221
0.059569
0.1128
0.19645
0.25475
0.30292
0.29024
0.2801
0.26743
0.23194
0.18885
0.14575
0.17871
0.23701
0.2725
0.15589
0.0012674
-0.12548
-0.18885
-0.2218
-0.36375
-0.51077
-0.62738
-0.66286
-0.60456
-0.48289
-0.38657
-0.30798
-0.25475
-0.22687
-0.19645
-0.17617
-0.13054
-0.082383
-0.029151
0.011407
0.03929
0.021546
-0.0063371
-0.031686
-0.072243
-0.092522
-0.10773
-0.1052
-0.008872
0.097592
0.19899
0.24715
0.25475
0.23194
0.20913
0.095057
-0.019011
-0.054499
-0.051965
0.031686
0.11534
0.19645
0.23954
0.24208
0.23447
0.20152
0.17617
0.14575
0.11787
0.092522
0.059569
0.034221
0.0038023
-0.024081
-0.057034
-0.082383
-0.12294
-0.1635
-0.2142
-0.22433
-0.13308
0.04436
0.13815
0.14322
0.041825
-0.084918
-0.14068
-0.21926
-0.28264
-0.32573
-0.34601
-0.23954
-0.11027
-0.0012674
0.054499
0.04436
0.021546
-0.0038023
-0.013942
-0.0038023
0.008872
0.029151
0.059569
0.092522
0.15843
0.24208
0.34094
0.38657
0.40431
0.41445
0.41952
0.40938
0.35108
0.24715
0.077313
-0.10013
-0.21673
-0.26996
-0.19392
-0.04436
0.11027
0.2142
0.21926
0.15336
0.074778
0.011407
-0.031686
-0.04436
-0.051965
-0.034221
-0.021546
-0.011407
-0.036755
-0.074778
-0.11787
-0.14068
-0.057034
0.13815
0.37643
0.54626
0.57921
0.48796
0.32573
0.12548
-0.054499
-0.23194
-0.33333
-0.35361
-0.29278
-0.18631
-0.072243
-0.021546
-0.024081
-0.077313
-0.13815
-0.18885
-0.21166
-0.16096
-0.074778
0.03929
0.19392
0.32319
0.42459
0.46008
0.47022
0.46768
0.44233
0.35108
0.21166
0.016477
-0.20152
-0.39924
-0.53866
-0.59696
-0.56147
-0.47275
-0.40684
-0.35868
-0.37389
-0.41191
-0.43473
-0.44233
-0.3891
-0.3384
-0.28264
-0.21673
-0.097592
0.036755
0.13561
0.22687
0.29278
0.37136
0.42205
0.39417
0.23194
0.059569
-0.12294
-0.2218
-0.24461
-0.2294
-0.18124
-0.14829
-0.097592
-0.041825
0.031686
0.10773
0.1711
0.20152
0.20406
0.18631
0.1711
0.1635
0.15843
0.15589
0.15589
0.13308
0.12801
0.10773
0.092522
0.062104
0.041825
-0.008872
-0.072243
-0.064639
-0.019011
0.087452
0.14829
0.18885
0.16857
0.13054
0.095057
0.084918
0.12801
0.19392
0.26996
0.29785
0.2801
0.23194
0.1635
0.097592
0.03929
0.029151
0.057034
0.10266
0.15589
0.20659
0.24208
0.25982
0.26996
0.25729
0.23954
0.19899
0.15843
0.16603
0.21673
0.32826
0.36629
0.33333
0.22687
0.087452
-0.04436
-0.13308
-0.1711
-0.19899
-0.2142
-0.23194
-0.25729
-0.2801
-0.28517
-0.2801
-0.24208
-0.19392
-0.14575
-0.12294
-0.13561
-0.11027
-0.072243
0.031686
0.1711
0.32066
0.46768
0.55133
0.56401
0.48542
0.35361
0.17617
-0.019011
-0.20406
-0.36122
-0.42459
-0.3815
-0.28517
-0.17617
-0.089987
-0.064639
-0.057034
-0.046895
-0.026616
0.008872
0.072243
0.15843
0.2294
0.28264
0.29278
0.28517
0.30038
0.3384
0.44994
0.51077
0.55894
0.53612
0.48542
0.37136
0.18885
-0.0063371
-0.18124
-0.29278
-0.32826
-0.32826
-0.32826
-0.3308
-0.34601
-0.37643
-0.37896
-0.35615
-0.30545
-0.23447
-0.13815
-0.064639
-0.019011
-0.013942
-0.034221
-0.054499
-0.089987
-0.084918
-0.031686
0.087452
0.23954
0.40431
0.45754
0.40431
0.26489
0.03929
-0.15589
-0.32826
-0.42459
-0.43473
-0.42459
-0.3815
-0.37136
-0.36629
-0.38403
-0.38657
-0.37896
-0.34601
-0.28264
-0.21926
-0.15082
-0.11787
-0.082383
-0.072243
-0.057034
-0.041825
-0.0063371
0.082383
0.2142
0.35615
0.46008
0.4474
0.37896
0.25475
0.11027
-0.04436
-0.18631
-0.28264
-0.31305
-0.26236
-0.19899
-0.15082
-0.1052
-0.069708
-0.04436
-0.016477
0.008872
0.059569
0.11534
0.16603
0.20406
0.2142
0.18631
0.18378
0.20913
0.26743
0.35108
0.41445
0.44487
0.46768
0.46261
0.41191
0.29531
0.11787
-0.089987
-0.26743
-0.39417
-0.42205
-0.39417
-0.35108
-0.28771
-0.25475
-0.2294
-0.2142
-0.18885
-0.14829
-0.10266
-0.026616
0.059569
0.12041
0.15082
0.15843
0.15082
0.15589
0.22433
0.35108
0.49049
0.55133
0.55387
0.48289
0.3967
0.29785
0.15589
-0.011407
-0.15082
-0.23447
-0.24461
-0.20406
-0.16603
-0.14068
-0.11787
-0.084918
-0.008872
0.072243
0.14068
0.18885
0.21673
0.24461
0.26489
0.26489
0.25982
0.24461
0.24715
0.29531
0.36375
0.43473
0.47782
0.41191
0.27757
0.092522
-0.082383
-0.28517
-0.46768
-0.60963
-0.67807
-0.65019
-0.59442
-0.52852
-0.49556
-0.47529
-0.4398
-0.40684
-0.34601
-0.29024
-0.2218
-0.16096
-0.11787
-0.064639
-0.031686
-0.013942
0.029151
0.13815
0.31559
0.52345
0.61217
0.62738
0.55387
0.46008
0.33587
0.15843
-0.04943
-0.23954
-0.38657
-0.43219
-0.35615
-0.25729
-0.15589
-0.1052
-0.092522
-0.097592
-0.079848
-0.046895
0.0038023
0.072243
0.12801
0.17871
0.2218
0.25982
0.32319
0.3967
0.53866
0.71863
0.87579
0.98733
1
0.91381
0.75158
0.45754
0.1635
-0.13054
-0.36882
-0.51077
-0.57668
-0.60456
-0.59696
-0.57921
-0.54373
-0.49049
-0.42459
-0.36629
-0.30545
-0.25982
-0.21926
-0.18124
-0.14575
-0.089987
-0.0038023
0.15336
0.36375
0.59189
0.76172
0.87072
0.90368
0.83777
0.65019
0.36629
0.062104
-0.2142
-0.40431
-0.51838
-0.57921
-0.59949
-0.58935
-0.53866
-0.46768
-0.37136
-0.26996
-0.16857
-0.079848
-0.0063371
0.059569
0.1128
0.15589
0.19899
0.21926
0.19645
0.19899
0.30038
0.46008
0.62991
0.69328
0.65526
0.50824
0.30038
0.051965
-0.18378
-0.37389
-0.45247
-0.48289
-0.47529
-0.4474
-0.42966
-0.39924
-0.35615
-0.28264
-0.18378
-0.079848
0.036755
0.13815
0.24715
0.3384
0.40177
0.43473
0.43726
0.42205
0.38403
0.34601
0.32319
0.39924
0.5488
0.65272
0.61724
0.4398
0.1635
-0.064639
-0.26489
-0.46768
-0.59189
-0.68314
-0.68061
-0.64259
-0.6147
-0.6071
-0.60456
-0.58935
-0.5488
-0.47782
-0.39417
-0.29024
-0.18124
-0.084918
0.008872
0.087452
0.19899
0.29024
0.35868
0.38657
0.35868
0.28517
0.17871
0.057034
-0.054499
-0.11027
-0.16857
-0.2218
-0.27757
-0.29278
-0.2218
-0.12801
-0.019011
0.074778
0.12041
0.14322
0.15082
0.1635
0.1711
0.21166
0.25982
0.30038
0.30545
0.29278
0.26489
0.23447
0.22687
0.20406
0.17364
0.092522
0.0012674
-0.064639
-0.077313
-0.082383
-0.10013
-0.12041
-0.12801
-0.12041
-0.16857
-0.29785
-0.41445
-0.48289
-0.44487
-0.33587
-0.2218
-0.15082
-0.13308
-0.14068
-0.14829
-0.1635
-0.1711
-0.15336
-0.13308
-0.10266
-0.089987
-0.072243
-0.069708
-0.067174
-0.059569
-0.054499
-0.041825
-0.041825
-0.12801
-0.27757
-0.44487
-0.5057
-0.45754
-0.33333
-0.23447
-0.20913
-0.25729
-0.32066
-0.36122
-0.32573
-0.25475
-0.1635
-0.10013
-0.072243
-0.051965
-0.04943
-0.04436
-0.021546
0.011407
0.067174
0.1052
0.14068
0.14829
0.15336
0.13054
0.12041
0.095057
0.067174
0.041825
0.024081
0.021546
0.072243
0.11534
0.11027
0.11027
0.1052
0.13815
0.10266
0.0038023
-0.095057
-0.16096
-0.14322
-0.062104
0.013942
0.04436
0.024081
-0.036755
-0.1052
-0.1711
-0.2142
-0.22687
-0.2142
-0.17617
-0.097592
0.0012674
0.12548
0.24461
0.36629
0.44487
0.47782
0.43219
0.31559
0.17617
0.054499
-0.059569
-0.18124
-0.29531
-0.36629
-0.38657
-0.35868
-0.32066
-0.26489
-0.23701
-0.2218
-0.21926
-0.20913
-0.17871
-0.11534
-0.011407
0.12294
0.30798
0.49303
0.62991
0.73131
0.79214
0.83523
0.81749
0.73384
0.5488
0.34094
0.13815
-0.016477
-0.11534
-0.19645
-0.23954
-0.25222
-0.25475
-0.23954
-0.2142
-0.18124
-0.14575
-0.079848
-0.011407
0.082383
0.1711
0.2725
0.32826
0.3308
0.28517
0.22433
0.16096
0.097592
0.034221
-0.021546
-0.084918
-0.16603
-0.2801
-0.39924
-0.47782
-0.49556
-0.44994
-0.36882
-0.21166
-0.03929
0.11534
0.2142
0.2801
0.32573
0.36882
0.39924
0.41698
0.39417
0.37389
0.3308
0.2725
0.18885
0.095057
-0.0038023
-0.11787
-0.20913
-0.28264
-0.32066
-0.34601
-0.34854
-0.33333
-0.26743
-0.13561
0.029151
0.18124
0.31559
0.40938
0.44233
0.42712
0.37896
0.32066
0.22687
0.12041
0.0038023
-0.11027
-0.23447
-0.35361
-0.43726
-0.48289
-0.47782
-0.42459
-0.34854
-0.24461
-0.11534
0.008872
0.10773
0.21673
0.32573
0.41952
0.47275
0.47022
0.4398
0.38403
0.32319
0.26236
0.17364
0.079848
-0.031686
-0.13815
-0.25729
-0.36122
-0.41952
-0.41445
-0.39163
-0.37136
-0.35868
-0.36122
-0.30798
-0.23701
-0.13308
-0.019011
0.087452
0.1635
0.20406
0.22687
0.21673
0.17364
0.11027
0.04436
-0.036755
-0.14322
-0.23701
-0.30798
-0.30545
-0.26996
-0.18631
-0.084918
-0.011407
0.051965
0.069708
0.034221
0.019011
0.0038023
0.013942
0.0038023
-0.008872
-0.031686
-0.036755
-0.031686
-0.0038023
0.019011
0.041825
0.04943
0.036755
-0.0038023
-0.059569
-0.095057
-0.10013
-0.067174
0.034221
0.12294
0.2142
0.29785
0.36122
0.40431
0.40684
0.32573
0.21926
0.067174
-0.04436
-0.14322
-0.2218
-0.26489
-0.26743
-0.26489
-0.25475
-0.23701
-0.18631
-0.10773
-0.0063371
0.087452
0.1635
0.20913
0.23954
0.25982
0.28264
0.31052
0.36882
0.41698
0.41952
0.37389
0.28264
0.2142
0.17364
0.19392
0.23954
0.26743
0.23447
0.13561
0.016477
-0.095057
-0.12548
-0.1052
-0.029151
0.074778
0.16096
0.21673
0.24461
0.26743
0.28264
0.30292
0.32066
0.31559
0.30545
0.2801
0.2725
0.24461
0.19138
0.10773
0.0038023
-0.10773
-0.21926
-0.29278
-0.34601
-0.34347
-0.33587
-0.3815
-0.48542
-0.59442
-0.64259
-0.5564
-0.38657
-0.20152
-0.077313
-0.092522
-0.13308
-0.18885
-0.20152
-0.16096
-0.10266
-0.057034
-0.067174
-0.11027
-0.12801
-0.12548
-0.1052
-0.079848
-0.084918
-0.1128
-0.14068
-0.18378
-0.20152
-0.18124
-0.12548
-0.067174
-0.026616
0.021546
0.0063371
-0.019011
-0.1128
-0.24461
-0.3384
-0.30545
-0.12801
0.13054
0.31305
0.35361
0.31052
0.23954
0.19899
0.23194
0.26996
0.30292
0.30292
0.2801
0.22687
0.15589
0.10013
0.034221
-0.013942
-0.04436
-0.046895
-0.029151
-0.008872
0.013942
0.054499
0.11027
0.21926
0.35615
0.48035
0.56401
0.59442
0.57161
0.4981
0.38403
0.25729
0.064639
-0.12548
-0.32066
-0.45501
-0.52852
-0.53359
-0.51331
-0.48289
-0.45754
-0.4398
-0.41698
-0.39163
-0.35615
-0.27503
-0.16603
-0.011407
0.18885
0.40431
0.59189
0.72877
0.78961
0.81496
0.79721
0.74144
0.6147
0.43219
0.20406
-0.029151
-0.25475
-0.41952
-0.50063
-0.5057
-0.47529
-0.42205
-0.38657
-0.35615
-0.31812
-0.24968
-0.1711
-0.084918
0.019011
0.12294
0.26236
0.41191
0.58935
0.72117
0.8251
0.88593
0.95691
0.97212
0.91128
0.7237
0.48796
0.21166
-0.0012674
-0.16096
-0.23194
-0.23701
-0.20152
-0.18631
-0.17364
-0.16603
-0.13561
-0.12294
-0.10773
-0.11787
-0.12801
-0.13561
-0.14068
-0.13308
-0.12548
-0.084918
-0.013942
0.04436
0.092522
0.13815
0.1711
0.17617
0.16603
0.1052
0.021546
-0.084918
-0.20659
-0.30038
-0.39163
-0.41952
-0.39417
-0.34347
-0.26996
-0.18885
-0.14068
-0.10266
-0.087452
-0.072243
-0.059569
-0.03929
-0.03929
-0.054499
-0.059569
-0.04943
-0.034221
-0.029151
-0.0063371
0.046895
0.12041
0.21166
0.30798
0.36629
0.3815
0.34601
0.28264
0.18631
0.082383
-0.062104
-0.19645
-0.31812
-0.39163
-0.36375
-0.30798
-0.2294
-0.16603
-0.12294
-0.10266
-0.082383
-0.057034
-0.024081
0.024081
0.084918
0.14322
0.17871
0.19645
0.20406
0.19138
0.18378
0.15843
0.11534
0.041825
-0.087452
-0.23194
-0.41445
-0.6071
-0.79468
-0.9417
-1
-0.91381
-0.70596
-0.49303
-0.34094
-0.28264
-0.27757
-0.28517
-0.24715
-0.17871
-0.10013
-0.021546
0.034221
0.067174
0.089987
0.12548
0.16096
0.18124
0.17871
0.18885
0.19392
0.19899
0.19392
0.18378
0.1711
0.13054
0.089987
0.031686
-0.019011
-0.04436
-0.10266
-0.1711
-0.19392
-0.15082
-0.046895
-0.016477
-0.013942
-0.077313
-0.1052
-0.059569
0.03929
0.15082
0.26236
0.34601
0.40431
0.42459
0.42459
0.40938
0.3891
0.36629
0.32826
0.26996
0.18631
0.12041
0.082383
0.062104
0.04943
0.019011
-0.036755
-0.13561
-0.25475
-0.42712
-0.60456
-0.77186
-0.79721
-0.69835
-0.47275
-0.24715
-0.11027
-0.024081
0.034221
0.1128
0.14575
0.13815
0.095057
0.046895
-0.0012674
-0.03929
-0.04943
-0.04943
-0.029151
-0.041825
-0.059569
-0.069708
-0.057034
-0.011407
0.016477
0.046895
0.062104
0.074778
0.11027
0.14322
0.19138
0.18378
0.12041
-0.019011
-0.19392
-0.32826
-0.35108
-0.2218
-0.095057
-0.019011
-0.04436
-0.084918
-0.067174
-0.021546
0.059569
0.1052
0.11534
0.079848
0.057034
0.019011
0.016477
0.029151
0.054499
0.084918
0.12801
0.15336
0.14829
0.11534
0.062104
-0.016477
-0.097592
-0.15336
-0.10013
0.041825
0.19138
0.27503
0.29785
0.26743
0.25222
0.17617
0.079848
0.0012674
-0.04943
-0.041825
-0.04436
-0.031686
-0.064639
-0.12041
-0.1635
-0.18631
-0.18378
-0.15843
-0.1128
-0.067174
-0.067174
-0.057034
-0.046895
-0.021546
0.054499
0.1635
0.31559
0.46261
0.56907
0.61977
0.61217
0.58175
0.52345
0.43219
0.31559
0.16096
0.0012674
-0.17871
-0.29785
-0.33587
-0.32066
-0.24968
-0.17871
-0.1128
-0.069708
-0.029151
0.011407
0.072243
0.14322
0.18631
0.20152
0.18124
0.15843
0.14575
0.14829
0.13815
0.12041
0.082383
0.019011
-0.041825
-0.10773
-0.13561
-0.12294
-0.097592
-0.059569
-0.057034
0.0038023
0.054499
0.077313
-0.024081
-0.19645
-0.33587
-0.40684
-0.32573
-0.18631
-0.057034
0.019011
0.041825
0.0038023
-0.034221
-0.062104
-0.062104
-0.04943
-0.019011
0.026616
0.051965
0.059569
0.067174
0.072243
0.074778
0.084918
0.097592
0.087452
0.024081
-0.1052
-0.27503
-0.43726
-0.54373
-0.51331
-0.40177
-0.2218
-0.069708
0.036755
0.097592
0.14575
0.21166
0.24715
0.26996
0.24968
0.19138
0.11027
0.051965
0.016477
0.013942
0.041825
0.077313
0.10013
0.10266
0.087452
0.069708
0.067174
0.069708
0.064639
0.059569
0.0012674
-0.059569
-0.12801
-0.17364
-0.14575
-0.026616
0.084918
0.17871
0.24208
0.26996
0.30292
0.17871
0.021546
-0.15843
-0.26743
-0.29278
-0.27503
-0.24715
-0.22687
-0.2218
-0.22687
-0.23447
-0.2218
-0.18124
-0.12801
-0.072243
-0.029151
-0.0012674
0.034221
0.095057
0.17871
0.2725
0.34094
0.3891
0.3815
0.32066
0.21166
0.062104
-0.10266
-0.24968
-0.36629
-0.37389
-0.27757
-0.14829
-0.041825
-0.029151
-0.029151
0.008872
0.077313
0.16096
0.23194
0.2725
0.2801
0.28771
0.29531
0.31052
0.32066
0.3308
0.32066
0.28517
0.25982
0.23194
0.20659
0.16857
0.10773
0.034221
-0.082383
-0.20152
-0.30798
-0.42205
-0.54626
-0.67807
-0.82763
-0.90368
-0.85298
-0.65779
-0.40938
-0.17871
0.019011
0.16096
0.24968
0.28264
0.24715
0.18378
0.13054
0.12294
0.11787
0.13054
0.13561
0.11534
0.092522
0.04943
0.03929
0.013942
-0.0038023
-0.016477
-0.024081
-0.024081
-0.041825
-0.064639
-0.13815
-0.20152
-0.24461
-0.25729
-0.25729
-0.23701
-0.18631
-0.1711
-0.17871
-0.21673
-0.23194
-0.2142
-0.16603
-0.097592
-0.041825
-0.0012674
0.03929
0.082383
0.13815
0.2218
0.29278
0.34094
0.35108
0.32319
0.2801
0.2218
0.17364
0.11787
0.072243
0.031686
-0.026616
-0.1711
-0.38403
-0.59442
-0.68821
-0.62738
-0.48035
-0.31559
-0.21926
-0.16603
-0.12801
-0.10266
-0.051965
-0.024081
0.011407
0.04436
0.074778
0.11027
0.15082
0.17617
0.18631
0.18378
0.14575
0.097592
0.041825
0.008872
-0.0063371
-0.021546
-0.036755
-0.069708
-0.10773
-0.15843
-0.19899
-0.2218
-0.21926
-0.16603
-0.12041
-0.087452
-0.095057
-0.16096
-0.27757
-0.40431
-0.53359
-0.62231
-0.58428
-0.40938
-0.16603
0.021546
0.12294
0.17617
0.24208
0.32066
0.39417
0.46515
0.48796
0.46008
0.39163
0.31812
0.25475
0.23954
0.2218
0.19645
0.17364
0.16603
0.17871
0.15082
0.10013
0.0012674
-0.11787
-0.23447
-0.40177
-0.55133
-0.61724
-0.54373
-0.35615
-0.17364
0.019011
0.14829
0.24461
0.28264
0.29024
0.25222
0.18885
0.12041
0.069708
0.041825
0.008872
-0.0012674
-0.026616
-0.041825
-0.034221
-0.024081
-0.019011
-0.046895
-0.082383
-0.12548
-0.16096
-0.18124
-0.18885
-0.18124
-0.13308
-0.077313
0.024081
0.13815
0.21673
0.26996
0.24208
0.20406
0.18631
0.19138
0.19645
0.20406
0.19138
0.17364
0.18124
0.19392
0.20406
0.21926
0.24208
0.26743
0.24968
0.2218
0.17364
0.13308
0.11534
0.11787
0.12294
0.092522
0.10013
0.084918
0.059569
-0.04436
-0.17617
-0.32066
-0.38657
-0.34854
-0.23194
-0.095057
-0.036755
-0.0012674
-0.011407
0.0063371
0.026616
0.054499
0.077313
0.095057
0.089987
0.067174
0.0038023
-0.041825
-0.04436
-0.013942
0.03929
0.072243
0.054499
0.011407
-0.03929
-0.031686
-0.013942
0.024081
0.041825
0.0012674
-0.082383
-0.23954
-0.39924
-0.49303
-0.48542
-0.34854
-0.14829
0.026616
0.16857
0.2294
0.22687
0.21673
0.21673
0.23194
0.25982
0.28517
0.30038
0.29278
0.28264
0.26996
0.27757
0.2725
0.25982
0.24461
0.21166
0.2142
0.19899
0.19138
0.18631
0.19138
0.20659
0.18885
0.15336
0.019011
-0.13815
-0.2801
-0.31052
-0.25982
-0.17617
-0.11787
-0.10013
-0.10266
-0.12294
-0.10013
-0.064639
-0.019011
0.013942
0.041825
0.064639
0.082383
0.10773
0.1052
0.092522
0.064639
0.031686
-0.008872
-0.03929
-0.034221
-0.031686
-0.026616
-0.029151
-0.024081
-0.036755
-0.04436
-0.034221
-0.019011
-0.019011
-0.04943
-0.087452
-0.14068
-0.17617
-0.16096
-0.089987
0.034221
0.19138
0.3815
0.57161
0.72117
0.77693
0.74398
0.62231
0.46768
0.2725
0.064639
-0.04436
-0.12041
-0.15843
-0.20913
-0.25222
-0.27503
-0.28264
-0.25982
-0.24715
-0.23954
-0.24715
-0.25475
-0.25729
-0.26743
-0.26996
-0.25475
-0.16857
0.008872
0.25729
0.46008
0.53105
0.50317
0.41445
0.32319
0.20913
0.067174
-0.062104
-0.18378
-0.24208
-0.24968
-0.22687
-0.2294
-0.24968
-0.32066
-0.3891
-0.4398
-0.4398
-0.43726
-0.39163
-0.31812
-0.23954
-0.14829
-0.067174
0.013942
0.064639
0.12548
0.1711
0.21673
0.24715
0.23194
0.14829
0.008872
-0.069708
-0.087452
-0.0012674
0.079848
0.10266
0.072243
-0.019011
-0.087452
-0.12294
-0.13308
-0.15082
-0.15082
-0.13308
-0.092522
-0.016477
0.04436
0.092522
0.13308
0.16603
0.18631
0.16603
0.15082
0.11787
0.10013
0.077313
0.059569
0.0063371
-0.069708
-0.1711
-0.28264
-0.41698
-0.56654
-0.67807
-0.72877
-0.68314
-0.5564
-0.43726
-0.35361
-0.30545
-0.25475
-0.20406
-0.14829
-0.11787
-0.10013
-0.10013
-0.092522
-0.064639
-0.046895
-0.031686
-0.031686
-0.029151
-0.016477
-0.0012674
0.019011
0.036755
0.04943
0.051965
0.04943
-0.013942
-0.10773
-0.20913
-0.31559
-0.36375
-0.2801
-0.12294
0.057034
0.21926
0.32573
0.41952
0.46515
0.47022
0.43473
0.35868
0.28771
0.2294
0.20406
0.20913
0.23447
0.25222
0.24715
0.24461
0.2294
0.23194
0.25982
0.31305
0.37389
0.40684
0.41445
0.40684
0.3891
0.35108
0.29278
0.17364
0.0038023
-0.20406
-0.40177
-0.55133
-0.62991
-0.58935
-0.47275
-0.29531
-0.12294
0.008872
0.1128
0.17871
0.22433
0.19138
0.14322
0.089987
0.084918
0.089987
0.11027
0.13308
0.15082
0.16603
0.18631
0.20406
0.22687
0.24208
0.25729
0.26743
0.25729
0.21673
0.14829
0.051965
-0.064639
-0.20913
-0.36375
-0.51077
-0.6147
-0.59696
-0.50063
-0.31812
-0.1128
0.054499
0.1711
0.24715
0.25982
0.22687
0.1635
0.097592
0.067174
0.074778
0.10773
0.14829
0.15843
0.18631
0.19392
0.20659
0.21166
0.22687
0.24208
0.24208
0.24208
0.23954
0.22687
0.20406
0.1635
0.11027
0.04943
-0.0063371
-0.046895
-0.089987
-0.15082
-0.24208
-0.37136
-0.48542
-0.50824
-0.41952
-0.24968
-0.024081
0.17617
0.34854
0.46261
0.46515
0.40431
0.27503
0.12801
0.016477
-0.13815
-0.25222
-0.31812
-0.33587
-0.3384
-0.3308
-0.31305
-0.29531
-0.25982
-0.21673
-0.16857
-0.15082
-0.13561
-0.12801
-0.12041
-0.13308
-0.13561
-0.12548
-0.10773
-0.051965
-0.008872
0.013942
-0.0063371
-0.079848
-0.16096
-0.25222
-0.30292
-0.25729
-0.19645
-0.097592
-0.04436
-0.036755
-0.03929
-0.029151
-0.008872
0.019011
0.034221
0.029151
-0.0063371
-0.069708
-0.12548
-0.16096
-0.16603
-0.14068
-0.1052
-0.097592
-0.10266
-0.089987
-0.077313
-0.036755
0.0063371
0.067174
0.11534
0.16096
0.19392
0.2142
0.19899
0.10773
-0.024081
-0.21926
-0.35361
-0.41698
-0.39163
-0.21926
-0.036755
0.18631
0.35108
0.46261
0.51331
0.52852
0.4981
0.46008
0.39924
0.34094
0.29024
0.25222
0.22687
0.19138
0.15082
0.11534
0.084918
0.057034
0.04436
0.016477
-0.021546
-0.062104
-0.089987
-0.10266
-0.1052
-0.079848
-0.016477
0.12041
0.28517
0.45501
0.56907
0.62738
0.63752
0.58175
0.44994
0.26236
0.084918
-0.089987
-0.21926
-0.29278
-0.34854
-0.33333
-0.32319
-0.28517
-0.23701
-0.17364
-0.095057
-0.024081
0.057034
0.13815
0.21166
0.26489
0.29278
0.2801
0.23447
0.17617
0.11027
0.072243
0.059569
0.064639
0.092522
0.1128
0.072243
-0.046895
-0.19645
-0.32826
-0.34347
-0.25729
-0.11787
-0.011407
0.041825
0.04943
0.054499
0.097592
0.15589
0.21673
0.26743
0.28771
0.2801
0.22687
0.18124
0.12548
0.079848
0.04943
0.016477
-0.026616
-0.082383
-0.14575
-0.21166
-0.27503
-0.32826
-0.3384
-0.32319
-0.28517
-0.20913
-0.16096
-0.13815
-0.13054
-0.095057
-0.019011
0.062104
0.077313
0.062104
-0.0012674
-0.034221
-0.029151
-0.011407
0.029151
0.059569
0.097592
0.087452
0.054499
0.021546
-0.013942
-0.026616
-0.016477
0.0063371
0.019011
0.024081
0.046895
0.064639
0.087452
0.10266
0.10013
0.089987
0.10013
0.12548
0.12041
0.059569
-0.077313
-0.23701
-0.33587
-0.31305
-0.20913
-0.084918
-0.0012674
0.021546
0.0012674
-0.051965
-0.067174
-0.072243
-0.051965
-0.04943
-0.041825
-0.034221
-0.026616
-0.0038023
0.0063371
0.016477
0.0063371
0.008872
0.021546
0.024081
0.046895
0.04436
0.051965
0.03929
0.026616
0.0063371
-0.026616
-0.054499
-0.092522
-0.11787
-0.13308
-0.13054
-0.12548
-0.13054
-0.13308
-0.14068
-0.17364
-0.19392
-0.19392
-0.17617
-0.14322
-0.14322
-0.19392
-0.24208
-0.23447
-0.13054
0.057034
0.28771
0.53105
0.71863
0.80228
0.76426
0.68061
0.54119
0.38403
0.19392
0.036755
-0.10773
-0.18631
-0.19899
-0.23954
-0.25729
-0.27503
-0.27503
-0.29024
-0.30545
-0.3308
-0.32826
-0.29531
-0.23701
-0.1711
-0.11027
-0.041825
0.057034
0.18885
0.34347
0.39924
0.38403
0.28771
0.20913
0.15589
0.087452
0.0038023
-0.04943
-0.067174
-0.054499
-0.029151
-0.013942
0.0063371
-0.008872
-0.019011
-0.046895
-0.082383
-0.079848
-0.054499
-0.013942
0.013942
0.029151
0.03929
0.046895
0.069708
0.1052
0.14322
0.20659
0.28517
0.31812
0.24461
0.10013
-0.024081
-0.062104
-0.036755
0.0012674
0.024081
0.04436
0.10013
0.12801
0.10266
0.041825
-0.04436
-0.11787
-0.16603
-0.15336
-0.11534
-0.069708
-0.031686
-0.013942
-0.026616
-0.04943
-0.064639
-0.069708
-0.10013
-0.11027
-0.1128
-0.11027
-0.082383
-0.054499
-0.034221
-0.046895
-0.10013
-0.20913
-0.37136
-0.56147
-0.66033
-0.68568
-0.59696
-0.44233
-0.26996
-0.089987
0.064639
0.1711
0.25222
0.2725
0.30545
0.30545
0.29531
0.26743
0.23447
0.2218
0.20659
0.2142
0.20406
0.18378
0.16096
0.13815
0.12294
0.11027
0.092522
0.072243
0.031686
0.008872
0.024081
0.064639
0.11534
0.13054
0.11787
0.051965
-0.062104
-0.19645
-0.37643
-0.5488
-0.65019
-0.62738
-0.45247
-0.2142
0.021546
0.17364
0.23954
0.26743
0.26489
0.23954
0.21166
0.17364
0.14068
0.10266
0.082383
0.059569
0.031686
0.0012674
-0.041825
-0.062104
-0.072243
-0.051965
-0.046895
-0.019011
0.019011
0.041825
0.04943
0.024081
0.0012674
-0.03929
-0.095057
-0.14322
-0.13054
-0.029151
0.12294
0.2801
0.37643
0.43726
0.43219
0.41698
0.34854
0.26996
0.17871
0.054499
-0.082383
-0.20913
-0.31052
-0.36629
-0.39163
-0.40177
-0.40431
-0.38403
-0.3815
-0.35868
-0.33333
-0.2801
-0.2142
-0.16096
-0.11787
-0.074778
-0.019011
0.013942
0.057034
0.077313
0.11787
0.16603
0.2142
0.25982
0.24968
0.18378
0.10013
0.082383
0.14829
0.28517
0.3891
0.3967
0.34094
0.24461
0.17871
0.16603
0.20152
0.22433
0.21926
0.20406
0.18885
0.18124
0.17364
0.17617
0.19138
0.19645
0.19899
0.16857
0.12041
0.079848
0.054499
0.041825
0.016477
-0.0012674
-0.034221
-0.069708
-0.072243
-0.077313
-0.15843
-0.30798
-0.49049
-0.64766
-0.70849
-0.6654
-0.50317
-0.2801
-0.054499
0.12548
0.28264
0.36882
0.41191
0.3891
0.30292
0.20152
0.089987
0.0012674
-0.072243
-0.11027
-0.11027
-0.089987
-0.054499
-0.013942
0.031686
0.084918
0.14575
0.18378
0.18631
0.16096
0.11534
0.077313
0.029151
-0.013942
-0.072243
-0.15843
-0.24968
-0.33587
-0.42712
-0.50824
-0.54119
-0.5057
-0.36375
-0.14322
0.092522
0.29785
0.42966
0.53612
0.60203
0.62484
0.61217
0.57668
0.54373
0.50824
0.47275
0.43726
0.39417
0.35615
0.32066
0.25729
0.1711
0.062104
-0.059569
-0.19645
-0.31305
-0.40938
-0.51077
-0.60203
-0.69328
-0.74144
-0.76172
-0.73384
-0.61217
-0.42966
-0.16096
0.14829
0.42459
0.60456
0.7237
0.75665
0.74651
0.68061
0.58682
0.48796
0.37896
0.26743
0.13308
0.021546
-0.069708
-0.12041
-0.16096
-0.22433
-0.2725
-0.31559
-0.33333
-0.33587
-0.31812
-0.29278
-0.28517
-0.26996
-0.23954
-0.18124
-0.10266
-0.013942
0.04943
0.04436
0.024081
-0.029151
-0.054499
-0.0063371
0.13308
0.36122
0.59949
0.83777
0.96451
0.96705
0.82256
0.60456
0.37136
0.14829
-0.031686
-0.19392
-0.29024
-0.3308
-0.30798
-0.25982
-0.20406
-0.16096
-0.16096
-0.19392
-0.23954
-0.25729
-0.25982
-0.23447
-0.20152
-0.15843
-0.11534
-0.079848
-0.024081
0.021546
0.059569
0.095057
0.1128
0.11534
0.10773
0.079848
0.04943
0.011407
-0.029151
-0.064639
-0.087452
-0.095057
-0.077313
-0.089987
-0.16857
-0.2801
-0.40431
-0.41698
-0.37136
-0.31812
-0.32826
-0.3384
-0.33587
-0.31559
-0.28771
-0.21926
-0.16096
-0.079848
-0.051965
-0.051965
-0.067174
-0.079848
-0.077313
-0.074778
-0.057034
-0.041825
-0.008872
0.0012674
0.0038023
-0.011407
-0.041825
-0.062104
-0.082383
-0.074778
-0.072243
-0.082383
-0.11027
-0.15336
-0.14575
-0.13815
-0.062104
0.019011
0.12548
0.21166
0.25222
0.2294
0.18885
0.17871
0.18124
0.2142
0.24715
0.2801
0.28771
0.30545
0.30292
0.27503
0.22433
0.15336
0.095057
0.034221
0.0012674
-0.026616
-0.046895
-0.057034
-0.057034
-0.057034
-0.072243
-0.084918
-0.095057
-0.11534
-0.13561
-0.14829
-0.16096
-0.18631
-0.20152
-0.21926
-0.2294
-0.24715
-0.25475
-0.23954
-0.19138
-0.057034
0.074778
0.23194
0.35615
0.43726
0.45501
0.40431
0.26996
0.097592
-0.14829
-0.35615
-0.47782
-0.52852
-0.52852
-0.51584
-0.49049
-0.45501
-0.39163
-0.30798
-0.21673
-0.11787
-0.026616
0.04436
0.095057
0.13561
0.16603
0.18631
0.20913
0.23447
0.25729
0.25982
0.26489
0.24968
0.19645
0.11027
-0.026616
-0.19138
-0.32066
-0.36375
-0.27503
-0.11534
0.087452
0.27757
0.40938
0.47782
0.5057
0.52091
0.54119
0.55133
0.55894
0.53359
0.47022
0.40431
0.34854
0.28771
0.24208
0.19645
0.16857
0.15589
0.14829
0.13054
0.10013
0.059569
0.019011
0.008872
0.008872
0.041825
0.064639
0.089987
0.097592
0.12294
0.12801
0.17871
0.24968
0.40684
0.57414
0.69835
0.75412
0.71356
0.64512
0.54626
0.41698
0.23701
0.029151
-0.15336
-0.29531
-0.3967
-0.47529
-0.53359
-0.58175
-0.58935
-0.55894
-0.4981
-0.41445
-0.32573
-0.23194
-0.14068
-0.054499
0.013942
0.054499
0.087452
0.11787
0.14068
0.12041
0.077313
0.008872
-0.064639
-0.15336
-0.23194
-0.30038
-0.35868
-0.38403
-0.42966
-0.46515
-0.53612
-0.56147
-0.52598
-0.43219
-0.28517
-0.16603
-0.10013
-0.095057
-0.1711
-0.24461
-0.32573
-0.32319
-0.29024
-0.21926
-0.14322
-0.057034
0.0038023
0.041825
0.064639
0.046895
0.0038023
-0.077313
-0.13054
-0.15589
-0.13815
-0.1128
-0.077313
-0.067174
-0.072243
-0.072243
-0.087452
-0.095057
-0.1052
-0.079848
-0.024081
0.087452
0.23194
0.36882
0.48542
0.5564
0.51331
0.3815
0.21673
0.074778
-0.059569
-0.16096
-0.25475
-0.30038
-0.3308
-0.3308
-0.28517
-0.2294
-0.16096
-0.11027
-0.092522
-0.092522
-0.082383
-0.046895
0.024081
0.089987
0.13815
0.16603
0.1711
0.1635
0.15082
0.14322
0.13561
0.13561
0.13815
0.15336
0.20152
0.26236
0.33587
0.38403
0.39924
0.36882
0.2294
0.031686
-0.23701
-0.45754
-0.51584
-0.41698
-0.23447
-0.084918
-0.008872
0.029151
0.062104
0.1128
0.19899
0.30038
0.42205
0.49049
0.4981
0.43473
0.34347
0.26996
0.20913
0.17364
0.14829
0.12801
0.095057
0.057034
0.013942
-0.036755
-0.097592
-0.12801
-0.12801
-0.1128
-0.089987
-0.059569
-0.04436
-0.046895
-0.082383
-0.16096
-0.28264
-0.4474
-0.5488
-0.59442
-0.50824
-0.32066
-0.13308
-0.013942
0.026616
0.016477
0.036755
0.051965
0.097592
0.13815
0.15336
0.13815
0.087452
0.029151
-0.0063371
0.019011
0.054499
0.089987
0.12294
0.13561
0.13054
0.11534
0.11027
0.089987
0.074778
0.069708
0.069708
0.057034
0.04943
0.054499
0.036755
-0.0063371
-0.072243
-0.18124
-0.26489
-0.31305
-0.28771
-0.26489
-0.20152
-0.15336
-0.095057
-0.031686
0.024081
0.087452
0.11534
0.15843
0.17871
0.20659
0.21926
0.23701
0.27757
0.31812
0.35361
0.37643
0.41191
0.44994
0.48289
0.50317
0.48796
0.4398
0.36629
0.26489
0.1711
0.077313
0.008872
-0.062104
-0.12041
-0.15336
-0.18124
-0.21673
-0.23701
-0.24208
-0.23701
-0.25475
-0.27503
-0.34347
-0.41952
-0.3815
-0.22687
0.057034
0.39163
0.64512
0.72877
0.62231
0.3967
0.14322
-0.074778
-0.23194
-0.33587
-0.3815
-0.39924
-0.37643
-0.3308
-0.30038
-0.29531
-0.26743
-0.25475
-0.21166
-0.18378
-0.15843
-0.14829
-0.12294
-0.077313
-0.0012674
0.097592
0.20659
0.32319
0.40938
0.47022
0.49303
0.45501
0.40177
0.32066
0.2294
0.12041
0.008872
-0.069708
-0.1711
-0.2142
-0.16096
-0.036755
0.13054
0.26996
0.34347
0.37389
0.37136
0.34347
0.32319
0.30545
0.30038
0.31052
0.32066
0.31812
0.31052
0.30798
0.32319
0.35868
0.39163
0.40684
0.39924
0.35615
0.30545
0.24208
0.19645
0.15336
0.12294
0.095057
0.046895
-0.021546
-0.14068
-0.28264
-0.44233
-0.53612
-0.56147
-0.44233
-0.26236
-0.04943
0.13308
0.2801
0.35868
0.3967
0.42459
0.41445
0.38403
0.32319
0.25982
0.17617
0.1128
0.054499
-0.008872
-0.04436
-0.074778
-0.077313
-0.10266
-0.13815
-0.18378
-0.25222
-0.31305
-0.37136
-0.40431
-0.41191
-0.39163
-0.35108
-0.31052
-0.29785
-0.27503
-0.24715
-0.2218
-0.22433
-0.27503
-0.35108
-0.4398
-0.44233
-0.34094
-0.17364
0.008872
0.13815
0.19899
0.19899
0.19899
0.1635
0.13308
0.11027
0.092522
0.084918
0.077313
-0.26489
