0.081967
0.09389
0.09687
0.099851
0.11773
0.11773
0.10581
0.040238
-0.14456
-0.37705
-0.50224
-0.3234
0.1237
0.49329
0.6304
0.52608
0.36215
0.26677
0.21311
0.11773
0.043219
-0.058122
-0.1237
-0.231
-0.3234
-0.39493
-0.42176
-0.38897
-0.30849
-0.20715
-0.16542
-0.12966
-0.09389
-0.084948
-0.13562
-0.29657
-0.44858
-0.47243
-0.3532
-0.18629
-0.055142
-0.028316
-0.040238
-0.04918
-0.04918
-0.031297
-0.019374
-0.016393
0.016393
0.037258
0.076006
0.067064
0.09389
0.11475
0.12668
0.13562
0.15052
0.12966
0.13562
0.12072
0.099851
0.10283
0.11773
0.16542
0.18033
0.18331
0.1386
0.013413
-0.17139
-0.29955
-0.21311
0.043219
0.35618
0.49627
0.45753
0.33234
0.23994
0.18629
0.11773
0.037258
-0.052161
-0.14754
-0.25186
-0.30551
-0.34128
-0.29955
-0.24292
-0.18331
-0.17437
-0.1535
-0.1535
-0.13264
-0.10879
-0.11177
-0.19821
-0.32638
-0.43666
-0.46647
-0.37109
-0.21013
-0.11475
-0.067064
-0.076006
-0.058122
-0.040238
-0.019374
-0.010432
-0.0044709
0.0044709
0.037258
0.0462
0.067064
0.10581
0.12966
0.13562
0.15648
0.17437
0.17735
0.17735
0.17139
0.15648
0.15946
0.16841
0.2161
0.2608
0.27571
0.25484
0.13562
-0.10283
-0.28465
-0.28167
-0.052161
0.30253
0.49627
0.47839
0.32042
0.16244
0.070045
0.0044709
-0.061103
-0.14158
-0.21908
-0.29359
-0.31148
-0.28763
-0.25186
-0.18629
-0.15946
-0.10581
-0.070045
-0.028316
0.0014903
0.0044709
-0.09389
-0.28167
-0.46945
-0.57079
-0.46945
-0.25782
-0.081967
0.010432
0.010432
-0.016393
-0.025335
-0.0014903
0.010432
0.028316
0.019374
0.016393
0.031297
0.061103
0.076006
0.090909
0.099851
0.1386
0.18629
0.23398
0.2608
0.27869
0.28167
0.28465
0.27869
0.28167
0.28763
0.29657
0.29657
0.29359
0.29061
0.30253
0.31446
0.31446
0.32936
0.32638
0.33234
0.31744
0.31148
0.32042
0.30253
0.29955
0.29359
0.29359
0.28465
0.26379
0.2459
0.22802
0.25186
0.25782
0.25186
0.2459
0.27869
0.3234
0.36811
0.36811
0.27571
0.064083
-0.2608
-0.43964
-0.28167
0.10879
0.50522
0.63636
0.54694
0.37109
0.23994
0.1237
0.016393
-0.061103
-0.099851
-0.13264
-0.18927
-0.23398
-0.31446
-0.40686
-0.52012
-0.58569
-0.60358
-0.538
-0.42176
-0.32042
-0.2459
-0.2161
-0.19225
-0.18331
-0.15648
-0.19225
-0.29955
-0.4456
-0.52608
-0.48733
-0.3532
-0.23696
-0.18927
-0.19523
-0.20119
-0.17735
-0.13264
-0.11177
-0.081967
-0.076006
-0.070045
-0.15052
-0.27869
-0.43666
-0.54694
-0.54098
-0.4158
-0.27273
-0.15648
-0.073025
-0.043219
-0.022355
-0.0074516
0.010432
-0.028316
-0.11475
-0.22504
-0.28465
-0.30849
-0.27273
-0.21908
-0.16244
-0.12668
-0.076006
-0.028316
0.0014903
0.055142
0.09389
0.10879
0.12668
0.12072
0.11773
0.11475
0.13264
0.17735
0.21908
0.2459
0.29061
0.30253
0.29955
0.26975
0.22802
0.20417
0.18033
0.17437
0.18629
0.19523
0.19523
0.11773
-0.034277
-0.20119
-0.231
-0.037258
0.28167
0.52608
0.63338
0.55589
0.45753
0.37109
0.29061
0.17735
0.067064
-0.025335
-0.081967
-0.090909
-0.055142
-0.028316
-0.0074516
-0.0074516
0.019374
0.010432
0.028316
0.016393
-0.0044709
-0.09389
-0.30253
-0.45455
-0.47243
-0.2608
0.016393
0.17735
0.18331
0.11475
0.064083
0.055142
0.067064
0.076006
0.025335
-0.073025
-0.17139
-0.26379
-0.29359
-0.28763
-0.24888
-0.21013
-0.16542
-0.1237
-0.073025
-0.0462
0.0044709
0.055142
0.09687
0.11475
0.084948
-0.0462
-0.231
-0.37705
-0.37109
-0.26975
-0.09389
0.031297
0.090909
0.09389
0.078987
0.081967
0.073025
0.084948
0.10581
0.084948
-0.010432
-0.16244
-0.2608
-0.29061
-0.2608
-0.2161
-0.16841
-0.11177
-0.04918
0.0014903
0.034277
0.0462
0.070045
0.081967
0.10283
0.12072
0.13562
0.13264
0.15052
0.18033
0.231
0.26677
0.29359
0.28763
0.2608
0.25484
0.26975
0.31446
0.3532
0.37109
0.37109
0.31446
0.16841
-0.010432
-0.1535
-0.11177
0.1237
0.41878
0.59463
0.58569
0.45156
0.27571
0.1535
0.076006
0.0014903
-0.073025
-0.12966
-0.1535
-0.16244
-0.1535
-0.14158
-0.1237
-0.09687
-0.055142
0.0044709
0.037258
0.031297
-0.084948
-0.29657
-0.48137
-0.52906
-0.37705
-0.10283
0.10581
0.18331
0.14158
0.084948
0.064083
0.081967
0.073025
0.087928
0.11177
0.1386
0.14754
0.15648
0.15648
0.1535
0.17735
0.20417
0.23994
0.25782
0.26379
0.26975
0.26379
0.27571
0.29359
0.31148
0.32042
0.32042
0.32638
0.33532
0.35618
0.38897
0.39791
0.39791
0.38897
0.36513
0.34128
0.32638
0.32936
0.33532
0.34426
0.34724
0.3532
0.34128
0.30849
0.28763
0.2608
0.231
0.23398
0.2161
0.19225
0.17139
0.18629
0.2161
0.26677
0.29061
0.24888
0.12072
-0.1535
-0.45455
-0.54993
-0.33234
0.16542
0.55589
0.67511
0.58867
0.43666
0.31744
0.24292
0.1535
0.087928
0.010432
-0.070045
-0.14456
-0.21908
-0.31744
-0.36811
-0.49031
-0.55291
-0.60358
-0.58867
-0.53502
-0.46051
-0.40089
-0.35618
-0.31148
-0.29657
-0.29359
-0.41282
-0.54694
-0.66021
-0.64232
-0.51714
-0.35618
-0.25484
-0.23398
-0.22802
-0.20715
-0.17437
-0.14754
-0.12668
-0.11177
-0.10879
-0.10581
-0.09389
-0.099851
-0.10283
-0.081967
-0.067064
-0.028316
-0.025335
-0.055142
-0.18629
-0.38897
-0.53502
-0.54098
-0.41282
-0.16841
0.064083
0.18629
0.25186
0.20715
0.16244
0.10879
0.043219
-0.016393
-0.081967
-0.11475
-0.1237
-0.11773
-0.11773
-0.09687
-0.070045
-0.031297
0.019374
0.055142
0.078987
0.073025
0.070045
0.0462
0.031297
0.034277
0.055142
0.073025
0.099851
0.12966
0.17437
0.19523
0.20119
0.18629
0.17735
0.1386
0.1237
0.12668
0.14456
0.18629
0.22802
0.23398
0.2459
0.24292
0.231
0.2161
0.19523
0.18629
0.19225
0.18033
0.15946
0.14158
0.10581
0.070045
0.084948
0.10283
0.10283
0.11475
0.09389
0.073025
0.070045
0.09389
0.084948
0.084948
0.09687
0.076006
0.04918
0.037258
0.031297
0.019374
0.022355
0.0044709
-0.010432
-0.016393
-0.010432
0.0014903
0.0044709
0.025335
0.037258
0.022355
-0.0044709
-0.010432
-0.019374
-0.019374
-0.022355
-0.025335
-0.025335
-0.0044709
0.0014903
0.022355
0.0044709
-0.016393
-0.037258
-0.04918
-0.076006
-0.067064
-0.058122
-0.052161
0.0074516
0.078987
0.1386
0.15946
0.099851
-0.1237
-0.4307
-0.538
-0.28167
0.21908
0.57377
0.65723
0.53502
0.38897
0.28167
0.15946
0.013413
-0.11475
-0.22504
-0.31446
-0.38301
-0.45753
-0.52906
-0.60358
-0.63338
-0.65127
-0.60656
-0.58569
-0.52012
-0.46051
-0.43368
-0.49627
-0.6155
-0.7079
-0.69598
-0.57973
-0.4307
-0.35618
-0.29061
-0.25782
-0.231
-0.2161
-0.19821
-0.19225
-0.25782
-0.37109
-0.49031
-0.56185
-0.52906
-0.46945
-0.38003
-0.33234
-0.25782
-0.19225
-0.11177
-0.061103
-0.0044709
-0.0074516
-0.043219
-0.19225
-0.35618
-0.48733
-0.5082
-0.39493
-0.2608
-0.12668
-0.0462
-0.0014903
0.013413
-0.0074516
-0.025335
-0.081967
-0.18927
-0.29955
-0.34724
-0.34426
-0.29955
-0.24292
-0.18629
-0.11773
-0.070045
-0.0044709
0.019374
0.067064
0.12072
0.15946
0.18927
0.231
0.25484
0.26379
0.25484
0.24292
0.23994
0.27273
0.30849
0.3383
0.35618
0.35917
0.31744
0.21013
-0.0074516
-0.16244
-0.21013
-0.070045
0.18629
0.37109
0.45455
0.42176
0.37705
0.34128
0.31148
0.27273
0.20715
0.11475
-0.0044709
-0.11773
-0.19523
-0.2459
-0.23398
-0.17735
-0.099851
-0.034277
0.04918
0.084948
0.043219
-0.070045
-0.22504
-0.30849
-0.26975
-0.12966
-0.043219
-0.031297
-0.04918
-0.043219
0.0074516
0.052161
0.12072
0.14754
0.16542
0.16841
0.18033
0.16542
0.20119
0.22802
0.26379
0.28763
0.30253
0.32638
0.3234
0.31446
0.3234
0.3532
0.40089
0.4456
0.42474
0.30253
0.070045
-0.15648
-0.19821
0.0014903
0.36811
0.63636
0.71088
0.61252
0.47243
0.38599
0.31744
0.27273
0.20715
0.13264
0.070045
-0.0014903
-0.061103
-0.14456
-0.15946
-0.15946
-0.11773
-0.073025
-0.025335
0.013413
0.013413
-0.052161
-0.2161
-0.36513
-0.40984
-0.28167
-0.078987
0.031297
0.067064
0.034277
0.034277
0.055142
0.064083
0.081967
0.10879
0.12966
0.13562
0.13264
0.12966
0.12966
0.13562
0.13264
0.14754
0.15946
0.18927
0.20715
0.22206
0.22206
0.22802
0.2608
0.27273
0.29061
0.26975
0.21311
0.055142
-0.20715
-0.39493
-0.35022
-0.037258
0.37705
0.6155
0.60954
0.46051
0.33532
0.27571
0.22802
0.18629
0.1386
0.081967
0.031297
-0.0014903
-0.0074516
-0.028316
-0.037258
-0.043219
-0.031297
0.0014903
0.037258
0.076006
0.076006
0.084948
0.081967
0.067064
0.043219
0.061103
0.09389
0.14158
0.19523
0.16841
0.078987
-0.15648
-0.38003
-0.45753
-0.25186
0.2161
0.54396
0.6304
0.49329
0.31744
0.23696
0.21013
0.17437
0.13264
0.070045
0.0074516
-0.052161
-0.14158
-0.19225
-0.231
-0.23398
-0.21013
-0.16542
-0.11475
-0.073025
-0.052161
-0.031297
-0.022355
-0.016393
-0.010432
0.013413
0.022355
0.052161
0.090909
0.12072
0.12072
0.10879
0.10879
0.13264
0.15946
0.18033
0.17437
0.099851
-0.04918
-0.30849
-0.538
-0.54694
-0.24292
0.31148
0.65425
0.74963
0.54694
0.31446
0.19225
0.15052
0.081967
0.031297
-0.016393
-0.052161
-0.09687
-0.12966
-0.16244
-0.18629
-0.21013
-0.21311
-0.22206
-0.20119
-0.17437
-0.11475
-0.073025
-0.022355
0.013413
0.055142
0.084948
0.10879
0.12072
0.12668
0.14456
0.1535
0.15946
0.14754
0.15052
0.16542
0.16542
0.18033
0.16244
0.15052
0.14158
0.15052
0.13562
0.055142
-0.1535
-0.43666
-0.6304
-0.53204
-0.058122
0.52906
0.77347
0.7228
0.43666
0.25484
0.17139
0.11773
0.0462
-0.031297
-0.073025
-0.09389
-0.15052
-0.20119
-0.2459
-0.30849
-0.36215
-0.43368
-0.48137
-0.50224
-0.50224
-0.46647
-0.42474
-0.38599
-0.32638
-0.25484
-0.17139
-0.12966
-0.1237
-0.21908
-0.36215
-0.49329
-0.51416
-0.45753
-0.35022
-0.27869
-0.25782
-0.26379
-0.25782
-0.22504
-0.18033
-0.1535
-0.12072
-0.10879
-0.1535
-0.31148
-0.49925
-0.60656
-0.57377
-0.39195
-0.2161
-0.14754
-0.14456
-0.14158
-0.11475
-0.052161
-0.043219
-0.0044709
0.010432
0.022355
-0.040238
-0.17139
-0.30551
-0.40089
-0.44262
-0.40984
-0.32638
-0.23398
-0.17437
-0.1386
-0.11475
-0.078987
-0.037258
0.0044709
0.0462
0.025335
-0.073025
-0.21311
-0.32638
-0.36513
-0.29657
-0.17437
-0.10581
-0.061103
-0.0462
-0.028316
0.0044709
0.016393
0.016393
0.022355
0.052161
0.11773
0.14754
0.16244
0.18331
0.22206
0.23398
0.24292
0.24292
0.22802
0.22802
0.23994
0.25782
0.27869
0.27571
0.27869
0.25782
0.2608
0.27273
0.28167
0.29955
0.30551
0.30849
0.29955
0.31148
0.33532
0.33532
0.3234
0.3234
0.32042
0.31148
0.30849
0.29955
0.28763
0.28465
0.28465
0.29061
0.29657
0.30849
0.3234
0.34128
0.31744
0.25484
0.11773
-0.14754
-0.43368
-0.50522
-0.18927
0.40089
0.83607
0.98212
0.84203
0.63934
0.52906
0.39791
0.26975
0.16841
0.076006
-0.022355
-0.10283
-0.17437
-0.24888
-0.29061
-0.31148
-0.29955
-0.26379
-0.20417
-0.12668
-0.055142
-0.016393
-0.0014903
0.0044709
0.025335
0.070045
0.12966
0.15946
0.19225
0.2161
0.22802
0.19523
0.19523
0.18331
0.17139
0.18033
0.18629
0.20715
0.19523
0.18331
0.18331
0.18927
0.20119
0.20417
0.20715
0.19821
0.19225
0.17437
0.13562
0.1237
0.11475
0.12668
0.12668
0.15946
0.18927
0.23398
0.27273
0.29061
0.28167
0.21013
0.10283
-0.15648
-0.50224
-0.68703
-0.53204
0.010432
0.52906
0.74069
0.64232
0.40686
0.2608
0.16542
0.055142
-0.052161
-0.15052
-0.23398
-0.3234
-0.40686
-0.4456
-0.49031
-0.49627
-0.48733
-0.45753
-0.4456
-0.44262
-0.43368
-0.45455
-0.52012
-0.70194
-0.89568
-1
-0.91356
-0.66915
-0.46051
-0.31446
-0.25186
-0.21908
-0.14158
-0.090909
-0.084948
-0.13264
-0.23398
-0.35022
-0.46945
-0.55589
-0.6155
-0.6155
-0.58569
-0.51416
-0.4307
-0.3383
-0.27571
-0.21013
-0.20119
-0.28763
-0.42176
-0.54694
-0.57973
-0.538
-0.43964
-0.3383
-0.26975
-0.19225
-0.14456
-0.10581
-0.067064
-0.04918
-0.0462
-0.061103
-0.067064
-0.067064
-0.067064
-0.052161
-0.028316
0.016393
0.058122
0.10581
0.14754
0.1535
0.1535
0.17735
0.18927
0.22206
0.23994
0.28167
0.31148
0.32638
0.33532
0.31744
0.31148
0.30849
0.30253
0.31148
0.29955
0.29061
0.28465
0.25782
0.24888
0.2459
0.26379
0.26379
0.29061
0.29657
0.3234
0.36215
0.38301
0.40686
0.38897
0.32936
0.21908
-0.0014903
-0.29359
-0.48435
-0.38897
0.09687
0.62146
0.88077
0.83308
0.60954
0.43964
0.31446
0.19523
0.087928
-0.013413
-0.090909
-0.15052
-0.20715
-0.26975
-0.32936
-0.36811
-0.39493
-0.39195
-0.34724
-0.28465
-0.22802
-0.22802
-0.28763
-0.46349
-0.64829
-0.7079
-0.59463
-0.36513
-0.16542
-0.043219
-0.019374
-0.019374
-0.013413
-0.013413
-0.019374
-0.040238
-0.058122
-0.076006
-0.09389
-0.12072
-0.12966
-0.13562
-0.12668
-0.11773
-0.099851
-0.076006
-0.031297
0.022355
0.064083
0.10879
0.15946
0.18033
0.18927
0.19821
0.21311
0.2459
0.27273
0.29657
0.26975
0.26677
0.25782
0.26677
0.25782
0.24292
0.23696
0.23398
0.2161
0.231
0.23696
0.2608
0.28167
0.30551
0.33234
0.35917
0.37109
0.35022
0.2608
0.1237
-0.13562
-0.44858
-0.58569
-0.34724
0.2459
0.76155
0.96125
0.79136
0.53204
0.36513
0.26975
0.16542
0.064083
-0.010432
-0.10581
-0.19225
-0.29657
-0.36513
-0.44262
-0.45455
-0.43368
-0.41282
-0.36215
-0.32936
-0.27571
-0.28465
-0.36811
-0.56483
-0.72578
-0.78838
-0.62444
-0.39195
-0.22802
-0.13264
-0.12668
-0.10581
-0.099851
-0.11475
-0.1237
-0.1386
-0.14158
-0.12966
-0.11475
-0.10581
-0.11773
-0.1386
-0.16244
-0.13264
-0.081967
-0.022355
0.034277
0.099851
0.15052
0.19821
0.19821
0.21013
0.21908
0.22504
0.25782
0.26379
0.26975
0.28465
0.29061
0.29061
0.27571
0.2608
0.23994
0.231
0.23398
0.26975
0.28465
0.28763
0.27273
0.26379
0.24888
0.26677
0.29657
0.3383
0.3383
0.38301
0.39493
0.39195
0.31446
0.064083
-0.29657
-0.56483
-0.52608
-0.081967
0.48435
0.79434
0.8003
0.59463
0.42772
0.31446
0.20715
0.09389
-0.037258
-0.14456
-0.29657
-0.39791
-0.46647
-0.5082
-0.51118
-0.50522
-0.45753
-0.42474
-0.37705
-0.40089
-0.50224
-0.68107
-0.76453
-0.75857
-0.61252
-0.4307
-0.27869
-0.16542
-0.14456
-0.14158
-0.15052
-0.12072
-0.09687
-0.087928
-0.09389
-0.099851
-0.09389
-0.09389
-0.081967
-0.087928
-0.061103
-0.034277
-0.016393
0.037258
0.0462
0.061103
0.087928
0.11475
0.11773
0.1237
0.17139
0.19225
0.21311
0.21311
0.21311
0.19821
0.20715
0.20119
0.21013
0.2161
0.21908
0.23398
0.22802
0.25484
0.29359
0.29061
0.28167
0.25186
0.24888
0.2459
0.26975
0.30551
0.31744
0.33532
0.34128
0.3532
0.29657
0.19225
-0.028316
-0.34426
-0.54694
-0.45455
-0.013413
0.49627
0.74963
0.7079
0.47541
0.29657
0.18927
0.10879
0.0074516
-0.10283
-0.20417
-0.29955
-0.38301
-0.42772
-0.45455
-0.46051
-0.44262
-0.42176
-0.40089
-0.41878
-0.44262
-0.51118
-0.66617
-0.81818
-0.86289
-0.77049
-0.54098
-0.34128
-0.17735
-0.076006
-0.016393
0.034277
0.037258
0.016393
-0.022355
-0.11475
-0.24888
-0.40984
-0.52608
-0.60656
-0.62146
-0.56185
-0.47839
-0.35618
-0.25782
-0.18629
-0.17735
-0.21311
-0.29657
-0.43666
-0.55887
-0.6006
-0.54396
-0.43666
-0.34128
-0.25186
-0.18629
-0.18927
-0.17139
-0.16542
-0.12966
-0.052161
-0.010432
0.031297
0.04918
0.081967
0.12072
0.15052
0.19225
0.22504
0.25484
0.28167
0.31744
0.35618
0.38003
0.38301
0.38301
0.38599
0.36215
0.36215
0.3532
0.35022
0.36215
0.37407
0.38599
0.38003
0.38897
0.37407
0.35618
0.33234
0.31744
0.30849
0.29061
0.28763
0.28465
0.28465
0.27273
0.27869
0.29061
0.32638
0.38301
0.42772
0.46051
0.49031
0.49031
0.44262
0.30849
0.081967
-0.27571
-0.49329
-0.38599
0.12966
0.67809
0.95529
0.89568
0.63636
0.42474
0.25782
0.12668
-0.0044709
-0.11475
-0.22206
-0.28763
-0.33234
-0.36513
-0.38301
-0.40089
-0.38301
-0.32936
-0.26975
-0.20417
-0.1535
-0.14158
-0.2608
-0.50224
-0.71684
-0.78241
-0.6155
-0.29359
-0.073025
0.081967
0.11475
0.14456
0.14754
0.13264
0.10581
0.052161
-0.013413
-0.15946
-0.30253
-0.43666
-0.51416
-0.49925
-0.44262
-0.37407
-0.30849
-0.23398
-0.19523
-0.19821
-0.20715
-0.27869
-0.39493
-0.51714
-0.58271
-0.56483
-0.43666
-0.29061
-0.16244
-0.12966
-0.10879
-0.084948
-0.064083
-0.028316
0.0014903
0.019374
0.010432
0.025335
0.04918
0.0462
0.070045
0.078987
0.087928
0.10879
0.13562
0.17139
0.20715
0.25186
0.29359
0.31446
0.32042
0.31744
0.32042
0.30849
0.27571
0.27869
0.31148
0.36811
0.40387
0.42474
0.40686
0.4307
0.41878
0.40984
0.38003
0.38301
0.37407
0.35022
0.3383
0.34128
0.3383
0.33234
0.32042
0.32638
0.33234
0.34724
0.36811
0.38897
0.4158
0.44262
0.45156
0.45455
0.41878
0.34426
0.18331
-0.11773
-0.45455
-0.57973
-0.34426
0.21311
0.65723
0.78539
0.6304
0.39791
0.22504
0.09687
0.010432
-0.09687
-0.20119
-0.28167
-0.32638
-0.37109
-0.40089
-0.42176
-0.40984
-0.37705
-0.34128
-0.30253
-0.28465
-0.29061
-0.42176
-0.62444
-0.77049
-0.75261
-0.52012
-0.26677
-0.12966
-0.037258
0.022355
0.10283
0.15946
0.17437
0.13562
0.037258
-0.070045
-0.23994
-0.4158
-0.53502
-0.56185
-0.48137
-0.35618
-0.231
-0.1535
-0.1237
-0.11773
-0.12966
-0.18629
-0.22206
-0.31446
-0.4307
-0.54694
-0.61848
-0.54993
-0.42176
-0.29955
-0.20417
-0.15648
-0.1535
-0.13562
-0.11475
-0.099851
-0.084948
-0.067064
-0.055142
-0.040238
-0.031297
0.0014903
0.034277
0.073025
0.11177
0.16244
0.19225
0.231
0.27869
0.30849
0.32638
0.31446
0.30849
0.29657
0.29061
0.29359
0.28465
0.27273
0.28465
0.27273
0.26975
0.27273
0.29955
0.30849
0.31446
0.29955
0.28465
0.26677
0.26379
0.26975
0.28763
0.29359
0.30849
0.30551
0.29359
0.28763
0.28167
0.27571
0.26677
0.25186
0.24292
0.23398
0.26677
0.30551
0.35022
0.38301
0.41878
0.37705
0.28167
0.04918
-0.33234
-0.63934
-0.60954
-0.17735
0.43666
0.77347
0.76155
0.50224
0.26379
0.10283
0.0044709
-0.09389
-0.1535
-0.21908
-0.27571
-0.3383
-0.37705
-0.37407
-0.36513
-0.3383
-0.32638
-0.37705
-0.54993
-0.74367
-0.84203
-0.80328
-0.6006
-0.41282
-0.25484
-0.16244
-0.11177
-0.073025
-0.087928
-0.10581
-0.11773
-0.10879
-0.11177
-0.11177
-0.12966
-0.15648
-0.15946
-0.1535
-0.1386
-0.099851
-0.037258
-0.0014903
0.037258
0.055142
0.076006
0.10283
0.13562
0.15946
0.19523
0.18629
0.14456
0.031297
-0.20715
-0.48733
-0.68703
-0.66319
-0.34128
0.076006
0.40089
0.50522
0.46051
0.37407
0.29359
0.19821
0.078987
-0.031297
-0.13562
-0.21013
-0.26975
-0.30849
-0.36215
-0.37705
-0.37705
-0.36215
-0.3234
-0.26677
-0.18927
-0.1237
-0.087928
-0.028316
-0.0014903
0.0074516
-0.084948
-0.2459
-0.41878
-0.5231
-0.51118
-0.38599
-0.22504
-0.04918
0.037258
0.055142
0.037258
0.034277
0.0074516
-0.034277
-0.11475
-0.231
-0.3532
-0.42474
-0.45156
-0.39195
-0.29955
-0.19821
-0.15946
-0.15946
-0.15946
-0.16841
-0.17139
-0.17735
-0.15946
-0.12966
-0.09389
-0.037258
0.013413
0.061103
0.099851
0.1386
0.17735
0.21013
0.24888
0.28167
0.30551
0.30849
0.31744
0.31148
0.31744
0.34128
0.3532
0.38301
0.39493
0.41282
0.42176
0.43666
0.47541
0.48137
0.46349
0.43666
0.40387
0.38003
0.3532
0.34724
0.34724
0.33234
0.31446
0.30551
0.28167
0.28465
0.28763
0.28763
0.26975
0.25484
0.24888
0.231
0.21311
0.18927
0.15648
0.14456
0.1535
0.18033
0.21908
0.26975
0.33532
0.39493
0.4158
0.43964
0.42474
0.35917
0.1535
-0.21908
-0.59165
-0.71982
-0.38301
0.23398
0.69896
0.8003
0.56781
0.30253
0.11177
0.016393
-0.081967
-0.18629
-0.25782
-0.29657
-0.3234
-0.36811
-0.40984
-0.49329
-0.62146
-0.79136
-0.89568
-0.92846
-0.82712
-0.7079
-0.59463
-0.48733
-0.40387
-0.29359
-0.231
-0.17735
-0.12966
-0.12966
-0.16841
-0.31446
-0.50522
-0.69896
-0.73174
-0.62742
-0.46945
-0.32936
-0.21908
-0.099851
-0.0074516
0.04918
0.070045
0.067064
0.052161
0.040238
-0.031297
-0.15946
-0.31148
-0.43964
-0.51416
-0.52012
-0.42772
-0.34128
-0.23696
-0.17139
-0.12072
-0.058122
-0.019374
-0.013413
-0.0044709
0.010432
-0.052161
-0.16841
-0.37407
-0.52608
-0.53204
-0.40686
-0.2459
-0.084948
0.022355
0.055142
0.064083
0.099851
0.09389
0.087928
0.087928
0.09687
0.10879
0.13562
0.17139
0.18629
0.19523
0.21908
0.2608
0.30849
0.3532
0.37407
0.38003
0.36513
0.34128
0.35022
0.34128
0.36811
0.40387
0.40984
0.40387
0.37109
0.3532
0.32936
0.33532
0.3532
0.36811
0.35917
0.36811
0.36811
0.3532
0.34724
0.37109
0.40686
0.42772
0.4158
0.40686
0.37705
0.37407
0.36811
0.35618
0.34426
0.31148
0.28167
0.25782
0.24292
0.2608
0.26975
0.28167
0.31744
0.34128
0.34128
0.34128
0.31744
0.29061
0.2608
0.23398
0.2161
0.19523
0.21013
0.26379
0.33234
0.38599
0.43964
0.46945
0.43666
0.30253
-0.025335
-0.46647
-0.71982
-0.5231
0.058122
0.64829
0.86289
0.71088
0.39493
0.21013
0.10879
0.034277
-0.073025
-0.16244
-0.23398
-0.32042
-0.43666
-0.58271
-0.69896
-0.79136
-0.8152
-0.77347
-0.71088
-0.59762
-0.50224
-0.42772
-0.40089
-0.38301
-0.43368
-0.56483
-0.68703
-0.7228
-0.59463
-0.42474
-0.29955
-0.24888
-0.27273
-0.26677
-0.231
-0.18629
-0.15052
-0.13264
-0.11773
-0.11475
-0.14754
-0.24292
-0.39791
-0.57973
-0.69896
-0.71088
-0.60358
-0.43964
-0.26379
-0.1535
-0.076006
-0.037258
-0.0074516
-0.013413
-0.0462
-0.10879
-0.2161
-0.32936
-0.38003
-0.38599
-0.3234
-0.23696
-0.16244
-0.11177
-0.09687
-0.055142
-0.013413
0.028316
0.034277
0.04918
0.04918
0.070045
0.09687
0.11773
0.11773
0.15052
0.18033
0.2161
0.24888
0.27273
0.28465
0.29657
0.32042
0.3383
0.34724
0.36513
0.38301
0.39493
0.38003
0.36811
0.35022
0.34426
0.34426
0.35618
0.36513
0.36513
0.38003
0.38301
0.36215
0.36513
0.36513
0.36513
0.34724
0.33532
0.33532
0.34426
0.3532
0.35022
0.3234
0.28465
0.26975
0.27571
0.29359
0.32638
0.33532
0.32638
0.29955
0.29061
0.27571
0.2608
0.2608
0.2608
0.25186
0.2608
0.32638
0.41282
0.49329
0.52012
0.47541
0.26379
-0.15052
-0.49031
-0.43964
0.058122
0.68703
0.95529
0.8152
0.538
0.34128
0.22504
0.10581
-0.058122
-0.18629
-0.32042
-0.40984
-0.49925
-0.56483
-0.61252
-0.6304
-0.62146
-0.60954
-0.56185
-0.48435
-0.40686
-0.35917
-0.36215
-0.47541
-0.67511
-0.84501
-0.85991
-0.67213
-0.45156
-0.28465
-0.23696
-0.21013
-0.17437
-0.13264
-0.11177
-0.11475
-0.09389
-0.090909
-0.10581
-0.12966
-0.15648
-0.15946
-0.14754
-0.10581
-0.073025
-0.061103
-0.037258
0.0074516
0.052161
0.073025
0.09687
0.11177
0.12966
0.14158
0.18629
0.17139
0.09389
-0.11177
-0.39791
-0.59165
-0.53502
-0.20715
0.16542
0.44262
0.51714
0.4456
0.3532
0.26975
0.19523
0.12072
0.028316
-0.055142
-0.11475
-0.17437
-0.19523
-0.19523
-0.21013
-0.19821
-0.17437
-0.11177
-0.058122
-0.013413
-0.019374
-0.12966
-0.3383
-0.538
-0.61252
-0.49329
-0.21908
-0.0044709
0.087928
0.11475
0.12072
0.15052
0.15648
0.1386
0.087928
0.028316
-0.019374
-0.0462
-0.025335
-0.019374
-0.016393
-0.076006
-0.22802
-0.42474
-0.55589
-0.57973
-0.4456
-0.20715
-0.019374
0.087928
0.09687
0.084948
0.078987
0.070045
0.031297
-0.064083
-0.20119
-0.33234
-0.39493
-0.36513
-0.25484
-0.12668
-0.061103
-0.0462
-0.061103
-0.073025
-0.076006
-0.058122
-0.043219
-0.022355
-0.0074516
0.019374
0.067064
0.11177
0.14754
0.15946
0.16542
0.14456
0.16542
0.18033
0.20417
0.23398
0.27273
0.31148
0.31446
0.33234
0.32936
0.33234
0.35022
0.37407
0.38897
0.39493
0.4158
0.41282
0.41282
0.40984
0.40686
0.40387
0.39195
0.37109
0.35618
0.3383
0.32936
0.31744
0.31744
0.32042
0.34128
0.35022
0.3383
0.33234
0.32638
0.32638
0.32936
0.32042
0.30551
0.29657
0.27869
0.28465
0.26677
0.25484
0.25484
0.23398
0.23398
0.22504
0.2161
0.19225
0.18629
0.19225
0.18629
0.16244
0.13264
0.13264
0.12668
0.14158
0.14754
0.15052
0.1386
0.1237
0.10581
0.099851
0.10581
0.11177
0.11177
0.10879
0.081967
0.081967
0.064083
0.070045
0.073025
0.058122
0.081967
0.15052
0.23994
0.32042
0.28465
0.078987
-0.34128
-0.693
-0.59463
-0.099851
0.48137
0.64232
0.49031
0.23398
0.11773
0.040238
-0.084948
-0.22504
-0.35618
-0.4456
-0.538
-0.62146
-0.66915
-0.69598
-0.71088
-0.71386
-0.73472
-0.77943
-0.80328
-0.78838
-0.76453
-0.74963
-0.75261
-0.7228
-0.65723
-0.54993
-0.46051
-0.41878
-0.40984
-0.47541
-0.6006
-0.74665
-0.80328
-0.69896
-0.48137
-0.32638
-0.26379
-0.26677
-0.28763
-0.27273
-0.24888
-0.21311
-0.20715
-0.19523
-0.17437
-0.17437
-0.13264
-0.09389
-0.040238
-0.0014903
0.04918
0.09687
0.11773
0.15648
0.18629
0.2161
0.21311
0.20119
0.21013
0.21908
0.2459
0.26677
0.21311
0.067064
-0.2161
-0.5082
-0.59762
-0.36811
0.10283
0.50224
0.66021
0.60358
0.44858
0.32638
0.2608
0.18629
0.11475
0.04918
-0.013413
-0.067064
-0.11177
-0.12966
-0.084948
-0.055142
-0.0044709
0.019374
-0.0014903
-0.13562
-0.35917
-0.52608
-0.57675
-0.43368
-0.18331
-0.0014903
0.078987
0.067064
0.037258
0.010432
-0.037258
-0.040238
-0.067064
-0.052161
-0.019374
0.028316
0.076006
0.09389
0.10879
0.11177
0.10283
0.11177
0.1237
0.14158
0.15648
0.18927
0.20715
0.21311
0.22206
0.21908
0.20715
0.2161
0.24888
0.27273
0.28167
0.28465
0.29359
0.27273
0.28167
0.28763
0.31148
0.32638
0.32638
0.30551
0.29359
0.28465
0.28167
0.27869
0.23994
0.23398
0.23696
0.26379
0.31148
0.34426
0.36215
0.37407
0.40089
0.4307
0.45156
0.44858
0.40686
0.24888
-0.087928
-0.5231
-0.63934
-0.30551
0.34128
0.73174
0.70492
0.47839
0.30253
0.25484
0.18927
0.070045
-0.043219
-0.15052
-0.231
-0.30849
-0.3532
-0.37705
-0.35917
-0.3383
-0.36215
-0.41878
-0.49329
-0.55887
-0.59762
-0.60954
-0.60656
-0.55291
-0.48733
-0.41282
-0.36215
-0.3532
-0.29955
-0.25782
-0.21013
-0.15946
-0.09687
-0.028316
0.016393
0.037258
-0.04918
-0.22206
-0.40984
-0.57973
-0.66021
-0.60954
-0.4158
-0.18331
-0.0044709
0.04918
0.058122
0.058122
0.0462
-0.022355
-0.10581
-0.22206
-0.29657
-0.32936
-0.31148
-0.21908
-0.11475
-0.067064
-0.064083
-0.090909
-0.076006
-0.058122
-0.052161
-0.04918
-0.043219
-0.052161
-0.043219
-0.019374
0.019374
0.076006
0.13562
0.18629
0.22802
0.23994
0.18629
0.0074516
-0.17139
-0.31148
-0.33234
-0.22504
-0.028316
0.17735
0.32638
0.35917
0.33234
0.26975
0.19523
0.13264
0.067064
-0.0074516
-0.10581
-0.20417
-0.29955
-0.34128
-0.31148
-0.23398
-0.11773
-0.028316
0.016393
0.034277
0.052161
0.084948
0.099851
0.10283
0.10581
0.084948
0.0074516
-0.14754
-0.26677
-0.36215
-0.35917
-0.30849
-0.19225
-0.067064
0.073025
0.1535
0.15648
0.15052
0.11475
0.099851
0.0462
0.019374
0.016393
0.061103
0.11177
0.14158
0.16841
0.18331
0.2161
0.24292
0.26677
0.2608
0.23398
0.19523
0.16841
0.16841
0.21908
0.26975
0.33234
0.38301
0.4307
0.4456
0.4307
0.39493
0.34724
0.33234
0.3234
0.34426
0.37407
0.41282
0.4456
0.46349
0.47243
0.47839
0.46051
0.4307
0.40387
0.36513
0.35022
0.32638
0.32042
0.30253
0.29955
0.31446
0.36513
0.39791
0.41878
0.4456
0.46051
0.45455
0.43964
0.41878
0.38897
0.36513
0.35618
0.3383
0.3234
0.29955
0.26677
0.23398
0.20417
0.20119
0.19821
0.18331
0.14754
0.13562
0.12072
0.13562
0.16542
0.18033
0.20715
0.231
0.2608
0.25782
0.25186
0.231
0.21013
0.17437
0.15052
0.15052
0.12072
0.12072
0.11177
0.090909
0.070045
0.070045
0.1535
0.22802
0.30253
0.28465
0.1237
-0.29359
-0.66319
-0.63636
-0.21311
0.46051
0.73472
0.63338
0.40686
0.23696
0.14754
0.043219
-0.081967
-0.20715
-0.31446
-0.4456
-0.56483
-0.67809
-0.80626
-0.86587
-0.89568
-0.85395
-0.8152
-0.7228
-0.66319
-0.65723
-0.65127
-0.71684
-0.79434
-0.85097
-0.83607
-0.74665
-0.68107
-0.65425
-0.61252
-0.56781
-0.45753
-0.34724
-0.29061
-0.28167
-0.32936
-0.40387
-0.55291
-0.693
-0.78838
-0.76453
-0.6304
-0.5231
-0.46945
-0.45753
-0.41878
-0.34128
-0.25186
-0.16542
-0.090909
-0.043219
-0.016393
0.0014903
0.013413
0.016393
0.0074516
0.040238
0.055142
0.064083
0.058122
0.040238
0.058122
0.081967
0.15052
0.21311
0.23994
0.2459
0.21908
0.18331
0.1535
0.17735
0.19523
0.27273
0.33234
0.36811
0.29061
0.058122
-0.25484
-0.50522
-0.49329
-0.1535
0.40387
0.80328
0.93443
0.82414
0.63636
0.5082
0.40089
0.28167
0.11773
0.010432
-0.070045
-0.09687
-0.11177
-0.15052
-0.18033
-0.2608
-0.32936
-0.41282
-0.46945
-0.50522
-0.47243
-0.39791
-0.32638
-0.29061
-0.23696
-0.21013
-0.16841
-0.12966
-0.09389
-0.070045
-0.037258
-0.010432
-0.0074516
-0.010432
-0.028316
-0.031297
-0.040238
-0.016393
0.031297
0.10879
0.16244
0.18033
0.26677
0.26677
0.30253
0.31148
0.29359
0.30551
0.31446
0.29359
0.25782
0.23398
0.2459
0.24292
0.27273
0.28167
0.28763
0.28167
0.28167
0.3234
0.38599
0.43666
0.46349
0.44262
0.40387
0.3532
0.3234
0.27571
0.24888
0.23994
0.23398
0.2459
0.28763
0.34724
0.38301
0.38599
0.31148
0.11177
-0.29657
-0.66319
-0.59762
-0.14456
0.48137
0.66915
0.62444
0.40686
0.30551
0.23398
0.10283
-0.013413
-0.09389
-0.18033
-0.27869
-0.35022
-0.40089
-0.41878
-0.4307
-0.4456
-0.47839
-0.52012
-0.56483
-0.57973
-0.58867
-0.52012
-0.42474
-0.34426
-0.32638
-0.3532
-0.46945
-0.6155
-0.69598
-0.6155
-0.40686
-0.25484
-0.16542
-0.17735
-0.15946
-0.15648
-0.15648
-0.20119
-0.2161
-0.22504
-0.2161
-0.20417
-0.17735
-0.15052
-0.12668
-0.10879
-0.076006
-0.043219
-0.0014903
0.061103
0.11773
0.18331
0.23696
0.26677
0.27869
0.27869
0.27869
0.27869
0.27869
0.28465
0.28763
0.27869
0.24888
0.23696
0.23994
0.25186
0.27571
0.27571
0.26677
0.26379
0.26975
0.29657
0.31148
0.32042
0.33532
0.32638
0.33532
0.35022
0.36811
0.35917
0.34426
0.32638
0.31148
0.29657
0.27571
0.2459
0.21908
0.17735
0.14158
0.090909
0.073025
0.070045
0.073025
0.064083
0.084948
0.09687
0.14158
0.1535
0.17437
0.16841
0.18629
0.2161
0.25484
0.26677
0.27571
0.27869
0.26677
0.24292
0.20417
0.17735
0.15052
0.11475
0.087928
0.064083
0.031297
0.013413
0.010432
0.0074516
0.040238
0.061103
0.11177
0.19523
0.26975
0.3383
0.34426
0.27869
0.073025
-0.33234
-0.54396
-0.38003
0.17139
0.63636
0.67213
0.44262
0.16244
0.028316
-0.078987
-0.19821
-0.3234
-0.4158
-0.48137
-0.53204
-0.59463
-0.65425
-0.71982
-0.79136
-0.79434
-0.77347
-0.71982
-0.69001
-0.66915
-0.66319
-0.69001
-0.7228
-0.73472
-0.74665
-0.7228
-0.67213
-0.62146
-0.58569
-0.56483
-0.5231
-0.44262
-0.38003
-0.34128
-0.33532
-0.38301
-0.47839
-0.63636
-0.76751
-0.7228
-0.43964
-0.12966
0.055142
0.055142
-0.037258
-0.090909
-0.10879
-0.076006
-0.04918
-0.061103
-0.087928
-0.12668
-0.1535
-0.12668
-0.10879
-0.070045
-0.061103
-0.043219
0.010432
0.0462
0.10283
0.14158
0.18629
0.2161
0.2608
0.28465
0.31148
0.32936
0.34724
0.36513
0.36215
0.35022
0.31446
0.26975
0.24888
0.25186
0.27571
0.27869
0.2161
0.040238
-0.27273
-0.50224
-0.51416
-0.21311
0.26975
0.74963
0.91356
0.86587
0.64531
0.49925
0.38897
0.27571
0.1386
-0.0074516
-0.15946
-0.30253
-0.41282
-0.52012
-0.58271
-0.6006
-0.56781
-0.51714
-0.46349
-0.43666
-0.42176
-0.37705
-0.28465
-0.17437
-0.10581
-0.076006
-0.0462
-0.037258
-0.028316
-0.019374
-0.022355
-0.022355
-0.043219
-0.061103
-0.12072
-0.15052
-0.12668
-0.058122
0.031297
0.11177
0.16841
0.17735
0.19821
0.21311
0.25484
0.28167
0.30551
0.31744
0.33234
0.34724
0.36811
0.39791
0.4158
0.43666
0.40984
0.37109
0.31446
0.27273
0.24888
0.23696
0.2608
0.25186
0.20417
0.17735
0.17437
0.20715
0.25484
0.30253
0.31148
0.32936
0.34724
0.34426
0.35917
0.3383
0.36513
0.33532
0.30849
0.26677
0.21013
0.18927
0.15648
0.14754
0.12668
0.10581
0.10581
0.1237
0.16841
0.20715
0.22206
0.19821
0.17735
0.16244
0.17735
0.17735
0.17139
0.17735
0.15052
0.1237
0.10879
0.09687
0.10581
0.11773
0.11475
0.10879
0.04918
-0.0014903
-0.04918
-0.061103
-0.0462
-0.016393
0.010432
0.019374
0.019374
0.0014903
-0.0074516
-0.025335
-0.0044709
0.016393
0.067064
0.17139
0.26379
0.32042
0.31148
0.22504
-0.087928
-0.48137
-0.55291
-0.21013
0.38301
0.66617
0.54993
0.26975
0.052161
-0.0044709
-0.058122
-0.14754
-0.2608
-0.37705
-0.51118
-0.63636
-0.7079
-0.7377
-0.73472
-0.693
-0.64829
-0.64232
-0.65723
-0.69896
-0.74367
-0.74069
-0.69896
-0.59463
-0.52012
-0.49031
-0.48733
-0.48435
-0.50224
-0.49031
-0.49031
-0.54396
-0.59463
-0.66617
-0.69896
-0.65723
-0.58271
-0.47243
-0.37705
-0.29359
-0.21908
-0.17735
-0.14456
-0.12072
-0.10581
-0.10879
-0.12072
-0.13264
-0.1386
-0.15946
-0.15946
-0.17139
-0.16244
-0.11475
-0.061103
-0.013413
0.025335
0.031297
0.078987
0.14754
0.21311
0.28763
0.35022
0.37407
0.40089
0.40686
0.40089
0.38599
0.38003
0.36513
0.32936
0.31148
0.28167
0.2608
0.22504
0.09687
-0.14456
-0.3532
-0.40089
-0.15648
0.31446
0.77943
1
0.96125
0.75857
0.59762
0.48137
0.35917
0.23696
0.11177
-0.010432
-0.11475
-0.21013
-0.29359
-0.38599
-0.44262
-0.44262
-0.44262
-0.41878
-0.40089
-0.37705
-0.32936
-0.26975
-0.20417
-0.16542
-0.10879
-0.0462
0.013413
0.061103
0.10283
0.14456
0.16841
0.19523
0.20417
0.19821
0.19523
0.18331
0.18629
0.18629
0.18033
0.16841
0.1535
0.12966
0.13264
0.14158
0.16542
0.18927
0.21311
0.21311
0.21013
0.21908
0.23696
0.29657
0.35022
0.39791
0.43368
0.4158
0.40686
0.37407
0.34128
0.29061
0.26677
0.21908
0.20417
0.20119
0.19821
0.18629
0.17437
0.19821
0.21311
0.23398
0.22802
0.18629
0.16542
0.15648
0.18331
0.22504
0.2608
0.29061
0.30551
0.30849
0.29061
0.28465
0.2459
0.23994
0.21908
0.19225
0.15946
0.1535
0.14754
0.1535
0.16542
0.18629
0.2161
0.22206
0.23398
0.2161
0.18033
0.1535
0.12966
0.11773
0.12072
0.1386
0.16244
0.14456
0.14754
0.14158
0.15946
0.19523
0.26677
0.29657
0.27869
0.20417
0.04918
-0.28763
-0.55589
-0.45156
-0.0044709
0.57377
0.71982
0.55589
0.29061
0.12668
0.040238
-0.061103
-0.1535
-0.21013
-0.23696
-0.31744
-0.41878
-0.52608
-0.63338
-0.7228
-0.76751
-0.75857
-0.74069
-0.68405
-0.62742
-0.57675
-0.54993
-0.52906
-0.52906
-0.56483
-0.63636
-0.70492
-0.70492
-0.66021
-0.57079
-0.46349
-0.36215
-0.26975
-0.22206
-0.23994
-0.31148
-0.4158
-0.54694
-0.64531
-0.64232
-0.52906
-0.40387
-0.34724
-0.33532
-0.34724
-0.30253
-0.2608
-0.20715
-0.16542
-0.12668
-0.081967
-0.04918
-0.031297
-0.0014903
0.025335
0.076006
0.11177
0.16542
0.20417
0.23398
0.2459
0.25484
0.25484
0.2608
0.26379
0.25484
0.24292
0.2459
0.26975
0.26379
0.25782
0.24292
0.2459
0.27273
0.31446
0.37407
0.38897
0.4307
0.44262
0.4456
0.45156
0.42772
0.40984
0.39493
0.38003
0.39493
0.39791
0.39493
0.37407
0.34724
0.29061
0.25484
0.23696
0.23398
0.21311
0.20119
0.16841
0.15052
0.1535
0.20119
0.2459
0.27869
0.29955
0.29657
0.29359
0.29359
0.28465
0.2608
0.23696
0.231
0.2161
0.21908
0.20417
0.21013
0.17735
0.14158
0.11177
0.09389
0.076006
0.070045
0.10283
0.12072
0.1535
0.16841
0.19225
0.20715
0.22802
0.2459
0.22802
0.22206
0.21013
0.18033
0.1535
0.1237
0.09687
0.058122
0.025335
0.061103
0.13562
0.17139
0.20119
0.17735
0.052161
-0.23994
-0.59762
-0.61252
-0.25186
0.39195
0.68703
0.6006
0.33234
0.11475
0.013413
-0.11773
-0.23398
-0.3234
-0.39195
-0.44262
-0.51118
-0.56781
-0.65127
-0.7377
-0.82414
-0.88674
-0.88972
-0.82712
-0.76453
-0.7377
-0.69896
-0.66915
-0.66617
-0.66915
-0.73472
-0.75857
-0.70492
-0.59165
-0.48435
-0.40984
-0.36513
-0.31148
-0.2608
-0.24888
-0.26677
-0.31744
-0.4158
-0.53204
-0.59762
-0.58271
-0.44262
-0.31446
-0.20715
-0.19225
-0.18629
-0.20119
-0.25484
-0.20119
-0.1535
-0.037258
-0.0044709
0.0074516
0.0074516
0.019374
0.016393
0.013413
0.022355
0.040238
0.058122
0.061103
0.040238
0.040238
0.067064
0.099851
0.11177
0.14456
0.17735
0.19821
0.21908
0.25782
0.28167
0.31148
0.34724
0.36811
0.39791
0.40089
0.38897
0.37109
0.34724
0.34128
0.34426
0.3234
0.31446
0.29955
0.28465
0.26975
0.26975
0.2608
0.24888
0.27869
0.27869
0.30253
0.29657
0.29359
0.27273
0.24888
0.26379
0.33532
0.36215
0.37705
0.37109
0.36811
0.36513
0.35618
0.3383
0.31744
0.27273
0.25782
0.2459
0.19821
0.22206
0.2161
0.21908
0.21311
0.22206
0.21311
0.22504
0.23696
0.29359
0.34128
0.38897
0.39791
0.32936
0.15648
-0.14754
-0.31148
-0.19225
0.23398
0.68703
0.81818
0.69001
0.42772
0.18331
-0.016393
-0.20417
-0.34128
-0.43368
-0.48137
-0.48137
-0.49925
-0.51118
-0.5231
-0.52906
-0.51416
-0.53204
-0.53502
-0.57079
-0.62742
-0.66319
-0.67809
-0.65723
-0.62146
-0.55589
-0.50522
-0.45455
-0.42772
-0.40686
-0.39791
-0.39195
-0.3532
-0.32042
-0.29359
-0.29955
-0.30551
-0.29955
-0.27571
-0.20715
-0.1535
-0.076006
-0.031297
0.0074516
0.022355
0.0462
0.061103
0.070045
0.081967
0.081967
0.087928
0.090909
0.09687
0.11177
0.11177
0.11177
0.10879
0.11475
0.11773
0.14456
0.19225
0.21311
0.23696
0.24888
0.27571
0.28167
0.27571
0.26677
0.2608
0.24292
0.231
0.22206
0.18629
0.14456
0.1237
0.11475
0.12966
0.13562
0.12966
0.081967
0.028316
-0.0074516
-0.019374
-0.0044709
0.043219
0.090909
0.1535
0.22504
0.28465
0.29359
0.26677
0.24292
0.22802
0.22802
0.21311
0.20417
0.17139
0.13264
0.10879
0.073025
0.04918
0.028316
0.010432
0.0074516
-0.0014903
0.010432
-0.0044709
-0.022355
-0.040238
-0.0462
-0.043219
-0.016393
-0.010432
0.019374
0.025335
0.040238
0.064083
0.037258
0.034277
-0.0014903
-0.016393
-0.040238
-0.052161
-0.034277
-0.052161
-0.058122
-0.084948
-0.081967
-0.052161
-0.0014903
0.067064
0.087928
0.10879
0.043219
-0.15946
-0.42474
-0.40984
-0.070045
0.49329
0.78838
0.75261
0.52608
0.30849
0.16542
-0.016393
-0.20715
-0.36811
-0.46051
-0.50522
-0.54694
-0.57079
-0.64232
-0.72876
-0.78838
-0.80924
-0.77645
-0.69896
-0.56781
-0.44262
-0.36215
-0.32042
-0.3234
-0.40089
-0.5231
-0.63636
-0.67809
-0.61848
-0.54098
-0.47243
0.04918
