0.55556
0.48509
0.30623
0.14363
0.084011
0.14905
0.32249
0.58266
0.69648
0.729
0.66938
0.55014
0.38753
0.23577
0.17073
0.12195
0.15447
0.15447
0.16531
0.18157
0.18157
0.33333
0.36585
0.36043
0.19783
0.067751
-0.13821
-0.23035
-0.16531
-0.04065
0.084011
0.24661
0.27913
0.24661
0.12195
-0.03523
-0.12737
-0.11653
0.00271
0.13279
0.16531
0.18157
0.17073
0.15989
0.073171
0.01355
-0.04607
-0.084011
-0.089431
-0.10027
-0.17073
-0.28455
-0.26287
-0.14905
-0.078591
-0.073171
-0.11653
-0.18157
-0.26829
-0.25203
-0.21409
-0.13821
-0.04607
-0.0081301
-0.04065
-0.067751
-0.067751
-0.056911
-0.01355
0.02439
0.073171
0.067751
-0.078591
-0.10027
-0.13821
-0.15447
-0.12737
-0.11653
-0.12737
-0.15447
-0.20325
-0.23035
-0.24119
-0.12195
0.056911
0.16531
0.26287
0.21951
0.18157
0.073171
0.01355
-0.04065
-0.073171
0.03523
0.13821
0.18157
0.10569
0.02439
-0.094851
-0.13279
-0.13821
-0.11653
-0.056911
-0.02981
0.04607
0.10569
0.14905
0.20867
0.26287
0.25745
0.13279
0.04065
0.04065
0.051491
0.14905
0.22493
0.24119
0.19783
0.067751
-0.04065
-0.14363
-0.078591
-0.01355
0.056911
0.056911
0.02439
0.0081301
-0.10027
-0.10027
-0.12737
-0.19241
-0.28997
-0.32791
-0.36043
-0.32249
-0.36585
-0.31707
-0.24661
-0.24661
-0.20325
-0.21409
-0.37127
-0.46883
-0.46341
-0.32791
-0.14363
0.056911
0.28455
0.40379
0.33875
0.18157
-0.04607
-0.20867
-0.33875
-0.40921
-0.39837
-0.33875
-0.15447
0.02981
0.12195
0.19241
0.15447
0.10027
-0.04065
-0.10027
-0.10569
-0.084011
-0.067751
-0.067751
-0.17615
-0.30081
-0.39295
-0.39837
-0.38211
-0.25745
-0.12737
0.056911
0.078591
0.067751
-0.051491
-0.20325
-0.26287
-0.28997
-0.27371
-0.17073
-0.051491
0.11111
0.24661
0.43631
0.60434
0.68564
0.66396
0.6477
0.5393
0.43631
0.30623
0.30081
0.32249
0.32249
0.42005
0.38753
0.33875
0.20867
0.17615
0.10569
0.14905
0.17615
0.27371
0.43089
0.59892
0.7561
0.65312
0.47425
0.30081
0.21409
0.21951
0.29539
0.39837
0.39295
0.41463
0.32791
0.29539
0.13279
0.078591
0.10569
0.15989
0.26287
0.32249
0.37669
0.31165
0.21951
0.15447
0.10569
0.10027
0.12195
0.18157
0.15447
0.14905
0.16531
0.14905
0.16531
0.14905
0.11111
0.13821
0.22493
0.28455
0.27371
0.33875
0.37127
0.38753
0.29539
0.19783
0.12737
0.10027
0.078591
0.062331
0.11111
0.12737
0.24119
0.32249
0.36043
0.38753
0.45257
0.50136
0.57182
0.63144
0.57182
0.44173
0.31707
0.19783
0.17615
0.15447
0.16531
0.11111
0.051491
0.062331
0.15989
0.23577
0.34417
0.42547
0.46341
0.44715
0.33333
0.23035
0.067751
0.01355
0.01355
0.0081301
-0.056911
-0.073171
0.01897
0.089431
0.15989
0.11111
-0.04607
-0.15447
-0.24661
-0.14363
-0.02439
0.13279
0.29539
0.37669
0.39295
0.38211
0.30081
0.19783
0.21951
0.29539
0.37669
0.37669
0.39295
0.45257
0.56098
0.65312
0.59892
0.41463
0.17615
0.04065
-0.073171
-0.12737
-0.01897
0.15989
0.34417
0.45257
0.52846
0.56098
0.51762
0.39837
0.25203
0.094851
0.01897
0.084011
0.20867
0.34417
0.38753
0.42005
0.29539
0.17073
0.01355
-0.17073
-0.26829
-0.26287
-0.14905
-0.0081301
0.15989
0.36043
0.54472
0.61518
0.60434
0.46341
0.23577
-0.04065
-0.17615
-0.23577
-0.21409
-0.02981
0.14905
0.35501
0.44173
0.44173
0.40379
0.33333
0.37669
0.27371
0.14905
0.02439
-0.089431
-0.14905
-0.20325
-0.19783
-0.13821
-0.04065
0.056911
0.16531
0.24119
0.21951
0.13821
-0.0081301
-0.094851
-0.11653
-0.00271
-0.00271
0.0081301
-0.02981
-0.01355
0.051491
0.078591
0.12737
0.11111
0.094851
0.078591
0.01897
-0.03523
-0.051491
0.051491
0.14905
0.18699
0.094851
-0.03523
-0.14363
-0.15989
-0.10569
-0.14363
-0.02439
0.12195
0.26287
0.34417
0.30623
0.21951
0.16531
0.12737
0.21409
0.20325
0.13821
0.12195
0.073171
0.078591
0.18157
0.28997
0.44173
0.57182
0.729
0.80488
0.7561
0.52304
0.29539
0.073171
0.01355
0.04607
0.078591
0.051491
0.02439
0.12737
0.18699
0.29539
0.30081
0.25745
0.18699
0.11653
0.073171
-0.02981
-0.089431
-0.03523
0.062331
0.15447
0.22493
0.30081
0.34959
0.39295
0.39295
0.42547
0.42547
0.43089
0.41463
0.37127
0.30623
0.35501
0.32249
0.32249
0.37127
0.43089
0.42547
0.34959
0.28455
0.28997
0.32249
0.38211
0.36585
0.33875
0.32249
0.28997
0.18699
-0.00271
-0.056911
0.04065
0.24119
0.38753
0.45257
0.39295
0.30623
0.17615
0.062331
-0.02981
-0.051491
-0.02981
0.0081301
0.073171
0.12195
0.12195
0.094851
0.13279
0.26829
0.33333
0.27913
0.15989
0.094851
0.15447
0.31707
0.46883
0.52304
0.50136
0.46883
0.42547
0.36585
0.28455
0.19241
0.094851
0.03523
-0.051491
-0.13821
-0.28997
-0.31165
-0.33333
-0.32249
-0.23035
-0.12737
0.11653
0.25745
0.37127
0.38211
0.20867
0.02439
-0.16531
-0.20867
-0.17615
-0.056911
0.062331
0.14363
0.25745
0.31165
0.27371
0.20325
0.12737
0.084011
0.0081301
-0.067751
-0.073171
-0.067751
-0.11111
-0.12737
-0.11111
-0.02981
0.051491
0.18699
0.23035
0.23035
0.18699
0.062331
-0.0081301
-0.062331
0.0081301
0.067751
0.13279
0.20325
0.23577
0.22493
0.20867
0.22493
0.21951
0.22493
0.20325
0.14905
0.12737
0.14363
0.23035
0.15447
0.01355
-0.15447
-0.25745
-0.28455
-0.25203
-0.11111
-0.084011
-0.01355
0.04607
-0.00271
-0.10569
-0.13821
-0.13279
-0.14363
-0.14363
-0.26829
-0.40379
-0.53388
-0.46341
-0.31707
-0.21951
-0.21409
-0.14905
0.0081301
0.15447
0.31707
0.36585
0.34417
0.30623
0.24661
0.12737
-0.056911
-0.12737
-0.20867
-0.16531
-0.11653
-0.02981
0.056911
0.12195
0.24661
0.33333
0.36043
0.22493
0.10569
-0.084011
-0.16531
-0.17615
-0.14905
-0.12195
-0.11111
-0.04065
-0.01355
0.04065
0.067751
0.01897
0.02439
0.04065
0.056911
-0.01897
0.00271
-0.0081301
0.03523
0.01355
-0.02981
0.04065
-0.01355
0.00271
0.01355
-0.02981
0.00271
-0.01897
-0.10569
-0.24661
-0.33333
-0.27371
-0.23035
-0.18157
-0.17073
-0.16531
-0.21409
-0.17615
-0.14905
-0.094851
-0.051491
0.04065
0.04065
0.02981
0.051491
0.11653
0.20325
0.21951
0.18157
0.084011
-0.04607
-0.13821
-0.11653
-0.062331
0.01355
0.067751
-0.00271
-0.10569
-0.17073
-0.073171
0.14363
0.38753
0.58808
0.68564
0.63144
0.51762
0.33333
0.073171
-0.089431
-0.13821
-0.14905
-0.13821
-0.084011
0.078591
0.27371
0.43631
0.43631
0.30081
0.084011
-0.02439
-0.051491
-0.10569
-0.067751
0.01897
0.11653
0.15989
0.15447
0.12195
0.11111
0.16531
0.17073
0.10027
-0.051491
-0.094851
-0.073171
-0.067751
-0.078591
-0.11653
-0.094851
-0.062331
0.078591
0.14905
0.22493
0.23035
0.27913
0.26829
0.21951
0.15989
0.10027
-0.02981
-0.084011
-0.067751
-0.00271
0.067751
0.02981
-0.02439
-0.11111
-0.17073
-0.16531
-0.25203
-0.28997
-0.25203
-0.27371
-0.32249
-0.39295
-0.31707
-0.26829
-0.12195
-0.02981
-0.051491
-0.10027
-0.089431
-0.01355
0.084011
0.10027
0.11111
0.04065
-0.062331
-0.12195
-0.12737
-0.062331
0.03523
0.15447
0.23577
0.23577
0.20867
0.23035
0.18699
0.14905
0.12737
0.19783
0.29539
0.45257
0.55014
0.49051
0.36585
0.20325
0.12195
0.062331
0.051491
0.02981
0.04065
0.15447
0.33333
0.49051
0.57182
0.59892
0.53388
0.38211
0.25745
0.23577
0.19241
0.20325
0.14905
0.11111
0.067751
0.11653
0.21951
0.23035
0.27371
0.36043
0.39295
0.33875
0.18699
0.084011
0.051491
0.14905
0.22493
0.27913
0.13821
0.15989
0.16531
0.21951
0.24119
0.20867
0.17615
0.12195
0.062331
0.12737
0.084011
0.15447
0.24119
0.34417
0.41463
0.50136
0.50136
0.37127
0.32791
0.25203
0.30623
0.31707
0.36585
0.39295
0.37669
0.38211
0.36585
0.32791
0.31707
0.33333
0.36043
0.43089
0.50678
0.63686
0.73442
0.74526
0.63686
0.47425
0.28455
0.21951
0.23577
0.30081
0.39295
0.51762
0.63686
0.71816
0.75068
0.73442
0.59892
0.40921
0.25203
0.15989
0.094851
0.084011
0.089431
0.051491
0.02439
-0.02439
-0.078591
-0.12195
-0.11111
-0.062331
-0.02439
0.02439
0.10027
0.17615
0.24661
0.19241
0.03523
-0.13821
-0.18699
-0.084011
0.094851
0.23577
0.30623
0.34417
0.30623
0.31707
0.22493
0.12737
0.00271
0.051491
0.16531
0.21409
0.26287
0.23035
0.25745
0.25203
0.26829
0.26829
0.24661
0.24119
0.17073
0.067751
-0.073171
-0.13821
-0.23035
-0.19241
-0.04607
0.13279
0.19241
0.12195
0.051491
-0.01355
-0.10027
-0.094851
-0.0081301
0.10027
0.14363
0.10027
-0.02439
-0.073171
0.00271
0.12195
0.28455
0.39837
0.49051
0.38211
0.28455
0.15447
0.10569
0.084011
0.03523
0.073171
0.14363
0.21951
0.37127
0.57724
0.77778
0.90244
0.9187
0.71274
0.54472
0.39837
0.32791
0.26287
0.32791
0.49051
0.65854
0.68564
0.58266
0.47967
0.40921
0.45799
0.51762
0.52304
0.47967
0.40921
0.32791
0.22493
0.15447
0.13821
0.16531
0.17615
0.21951
0.17073
0.20867
0.23577
0.36585
0.31165
0.15447
0.078591
0.01355
0.04065
0.089431
0.18157
0.29539
0.38753
0.46883
0.5122
0.47967
0.45799
0.34417
0.24119
0.18157
0.18157
0.21409
0.16531
0.094851
0.04065
0.0081301
0.04065
0.14363
0.22493
0.26287
0.29539
0.32249
0.33333
0.35501
0.42005
0.40379
0.30081
0.17073
0.067751
-0.04607
-0.0081301
0.0081301
0.16531
0.32249
0.46883
0.54472
0.45799
0.45257
0.46883
0.48509
0.37127
0.23577
0.10569
0.078591
0.11653
0.20867
0.26287
0.21409
0.11111
-0.0081301
-0.089431
-0.12195
-0.04065
-0.02981
0.00271
0.03523
0.11653
0.11653
0.089431
0.078591
0.078591
0.17615
0.31165
0.28997
0.20867
0.12737
0.084011
-0.04065
-0.14363
-0.12737
0.0081301
0.16531
0.21409
0.25203
0.20325
0.28455
0.39295
0.5122
0.5664
0.53388
0.50678
0.46883
0.5122
0.55014
0.50136
0.41463
0.38211
0.39295
0.38211
0.36043
0.33875
0.33333
0.29539
0.30623
0.31165
0.31165
0.35501
0.44715
0.5122
0.52304
0.49593
0.36043
0.16531
-0.02439
-0.10027
-0.12195
-0.11111
-0.04065
-0.01355
0.01897
0.11653
0.17073
0.16531
0.067751
-0.01355
-0.13821
-0.18157
-0.13821
-0.0081301
0.10027
0.11111
0.11111
0.051491
0.00271
-0.04065
-0.0081301
0.04607
0.10569
0.062331
0.04065
-0.02439
-0.01897
-0.056911
-0.094851
-0.11653
-0.16531
-0.22493
-0.27371
-0.21951
-0.13821
-0.13279
-0.056911
0.01897
0.12195
0.15989
0.15989
0.16531
0.20325
0.23577
0.21409
0.11653
-0.051491
-0.078591
-0.02981
0.11111
0.20867
0.28455
0.23577
0.15989
0.13821
0.14363
0.14905
0.078591
-0.00271
-0.11111
-0.20867
-0.27371
-0.32791
-0.27913
-0.24119
-0.10027
-0.056911
-0.067751
-0.01897
0.02981
0.062331
0.067751
0.02981
0.01897
0.02981
0.089431
0.03523
-0.01355
-0.056911
-0.10569
-0.20325
-0.28997
-0.38211
-0.31707
-0.23035
-0.062331
0.04607
0.078591
0.24661
0.34417
0.46883
0.40921
0.28455
0.14363
0.02439
0.02439
0.067751
0.18699
0.21409
0.26287
0.29539
0.36043
0.42547
0.46883
0.47967
0.44173
0.40921
0.34417
0.24119
0.19241
0.16531
0.18699
0.15989
0.15447
0.14363
0.13279
0.17073
0.20325
0.20325
0.10027
0.03523
-0.04065
-0.067751
-0.01355
0.084011
0.19241
0.26829
0.33875
0.29539
0.25203
0.21409
0.29539
0.37669
0.42547
0.44173
0.43089
0.28455
0.15447
0.01897
-0.11111
-0.14363
-0.094851
-0.02981
-0.02439
-0.084011
-0.04607
0.056911
0.18157
0.32249
0.39837
0.45257
0.44715
0.38753
0.26829
0.18157
0.19241
0.23577
0.28997
0.35501
0.37127
0.32249
0.34417
0.35501
0.32791
0.20325
0.04065
-0.084011
-0.13821
-0.11111
-0.02439
0.04607
0.11653
0.18157
0.14363
0.04065
-0.14363
-0.25745
-0.27371
-0.16531
0.01897
0.13279
0.14363
0.15447
0.22493
0.32249
0.39295
0.48509
0.47425
0.36043
0.18157
0.01355
-0.051491
0.03523
0.26829
0.44715
0.45799
0.39295
0.30081
0.20867
0.17615
0.084011
0.073171
0.00271
-0.00271
0.0081301
0.062331
0.20325
0.36585
0.39837
0.31707
0.24119
0.23577
0.28997
0.42005
0.51762
0.54472
0.49051
0.41463
0.36585
0.22493
0.10569
-0.04065
-0.11653
-0.11111
-0.062331
0.04607
0.13821
0.22493
0.31165
0.33333
0.31165
0.30623
0.20325
0.067751
-0.12737
-0.21951
-0.25745
-0.19241
-0.04607
0.10569
0.24661
0.34959
0.42005
0.46341
0.46883
0.44715
0.30081
0.12195
-0.04065
-0.089431
-0.089431
-0.084011
-0.01355
0.01897
0.10027
0.15989
0.26287
0.26829
0.25745
0.26287
0.23035
0.13821
-0.084011
-0.24661
-0.36585
-0.39295
-0.35501
-0.32791
-0.31165
-0.23577
-0.15989
-0.067751
-0.04065
0.062331
0.13821
0.17073
0.14905
-0.01897
-0.26287
-0.46341
-0.5122
-0.47967
-0.40379
-0.30623
-0.26829
-0.24661
-0.21951
-0.21409
-0.18699
-0.18699
-0.094851
-0.051491
0.03523
0.02439
-0.02439
-0.094851
-0.15989
-0.089431
-0.00271
0.02439
0.078591
0.10569
0.11111
0.11111
0.14363
0.20867
0.19783
0.20325
0.078591
-0.051491
-0.19783
-0.16531
-0.11653
-0.056911
-0.062331
0.03523
0.056911
0.056911
-0.01897
-0.15447
-0.26829
-0.33333
-0.32249
-0.30081
-0.26829
-0.20867
-0.14363
-0.02439
0.13821
0.32249
0.32249
0.24661
0.094851
-0.14905
-0.26287
-0.30081
-0.25203
-0.26829
-0.30081
-0.36043
-0.36585
-0.37669
-0.26829
-0.11111
0.01355
0.056911
0.0081301
-0.078591
-0.12737
-0.084011
0.01355
0.089431
0.13279
0.23035
0.31707
0.41463
0.54472
0.58266
0.60976
0.56098
0.51762
0.45257
0.26829
0.15989
0.051491
-0.02981
-0.01355
0.0081301
0.01897
-0.02439
0.02981
0.084011
0.21409
0.27913
0.35501
0.24661
0.15447
0.084011
0.01897
-0.02981
-0.094851
-0.17615
-0.23577
-0.18699
-0.056911
0.056911
0.084011
0.067751
0.15447
0.26287
0.37127
0.38211
0.33875
0.15989
0.051491
-0.084011
-0.21409
-0.22493
-0.15989
-0.04607
0.078591
0.20325
0.24661
0.24119
0.17615
0.10027
-0.02981
-0.19783
-0.30623
-0.33333
-0.33875
-0.27371
-0.21409
-0.067751
0.094851
0.32249
0.52304
0.66396
0.76152
0.84824
0.88618
0.83198
0.73442
0.5122
0.30623
0.20325
0.17073
0.17073
0.14905
0.11111
-0.0081301
-0.00271
0.10569
0.33875
0.45257
0.5122
0.5393
0.61518
0.61518
0.71274
0.72358
0.68564
0.64228
0.49593
0.37669
0.25203
0.30081
0.39837
0.48509
0.5393
0.5393
0.5122
0.47967
0.52846
0.71816
0.82114
0.92412
0.85366
0.729
0.5664
0.44715
0.35501
0.25203
0.18157
0.15989
0.18699
0.24119
0.30623
0.32791
0.33875
0.38753
0.52304
0.64228
0.61518
0.52304
0.27913
0.13279
0.067751
0.15989
0.26287
0.32249
0.38753
0.44173
0.49593
0.52846
0.52304
0.46883
0.40921
0.34959
0.23035
0.01355
-0.16531
-0.17073
-0.094851
0.089431
0.18699
0.17073
0.12737
0.11111
0.11653
0.02439
0.062331
0.11111
0.19783
0.18699
0.15989
0.17615
0.18157
0.24661
0.31165
0.38211
0.43089
0.52846
0.60434
0.57182
0.54472
0.48509
0.51762
0.50136
0.42005
0.35501
0.29539
0.37669
0.53388
0.65854
0.68564
0.69106
0.64228
0.60434
0.56098
0.51762
0.42005
0.25745
0.17073
0.17615
0.21951
0.34417
0.49051
0.59892
0.6748
0.66938
0.6206
0.54472
0.52846
0.53388
0.42547
0.22493
0.089431
0.051491
0.14905
0.30081
0.44715
0.47967
0.43089
0.25745
0.051491
-0.14905
-0.21951
-0.23035
-0.33875
-0.46341
-0.55014
-0.50136
-0.35501
-0.094851
0.15989
0.24661
0.23577
0.15989
0.16531
0.23035
0.31707
0.38753
0.34959
0.34959
0.33875
0.25203
0.14363
0.078591
0.04607
0.03523
0.02439
0.01355
-0.04065
-0.084011
-0.11111
-0.089431
-0.12195
-0.14905
-0.19241
-0.18699
-0.18699
-0.11111
-0.03523
0.073171
0.15989
0.22493
0.17073
0.094851
0.04065
-0.00271
-0.056911
-0.089431
0.01355
0.11653
0.17615
0.18699
0.18157
0.18699
0.20867
0.19241
0.12737
0.073171
0.067751
0.056911
0.089431
0.084011
0.084011
-0.03523
-0.14905
-0.21951
-0.20325
-0.18699
-0.13279
-0.084011
-0.073171
-0.02981
0.04065
0.067751
0.10569
0.13821
0.19783
0.14363
0.094851
0.02439
-0.01355
0.0081301
0.094851
0.15447
0.13279
0.0081301
-0.062331
-0.094851
-0.00271
0.04065
0.00271
-0.12195
-0.23035
-0.38211
-0.43631
-0.52304
-0.52304
-0.46883
-0.39295
-0.30623
-0.27913
-0.30623
-0.38753
-0.33875
-0.25745
-0.089431
0.12737
0.30623
0.32791
0.21409
0.01355
-0.20325
-0.36585
-0.31707
-0.084011
0.16531
0.29539
0.32791
0.23577
0.18699
0.13279
0.13279
0.078591
0.11653
0.19783
0.26829
0.28997
0.15989
-0.00271
-0.13821
-0.15989
-0.02981
0.084011
0.23035
0.30081
0.30081
0.14363
-0.073171
-0.34959
-0.5935
-0.70732
-0.68022
-0.54472
-0.32249
-0.089431
0.13821
0.31707
0.36043
0.35501
0.24661
0.078591
-0.02439
-0.051491
-0.04607
-0.11653
-0.18157
-0.22493
-0.21409
-0.14905
-0.078591
-0.00271
0.084011
0.17615
0.22493
0.13279
-0.0081301
-0.17615
-0.32791
-0.29539
-0.25745
-0.18699
-0.17615
-0.11111
-0.0081301
0.11653
0.23577
0.27371
0.18699
0.02439
-0.12737
-0.23035
-0.32791
-0.32249
-0.26829
-0.17073
-0.14363
-0.10569
-0.04065
0.051491
0.12195
0.21951
0.21951
0.15447
0.01355
-0.0081301
-0.03523
0.062331
0.18699
0.36585
0.43089
0.52846
0.45799
0.40921
0.32249
0.27371
0.27371
0.18699
0.19241
0.18157
0.17615
0.16531
0.17615
0.19783
0.25203
0.39295
0.50136
0.58808
0.62602
0.54472
0.34959
0.10569
-0.02981
-0.11111
-0.078591
-0.02981
0.067751
0.13821
0.25203
0.42005
0.52846
0.54472
0.41463
0.28997
0.12737
0.04607
0.056911
0.03523
-0.00271
-0.04065
-0.089431
-0.094851
-0.13279
-0.089431
-0.01897
0.01355
0.02439
-0.02439
-0.094851
-0.10569
-0.10569
-0.067751
-0.14363
-0.20325
-0.22493
-0.26829
-0.26829
-0.26287
-0.23577
-0.19241
-0.10027
-0.04607
-0.051491
-0.094851
-0.078591
-0.067751
-0.12195
-0.12195
-0.084011
0.084011
0.26829
0.43089
0.48509
0.47425
0.47425
0.37127
0.27371
0.18157
0.12737
0.15989
0.14363
0.19241
0.13279
0.03523
-0.04607
-0.073171
-0.01897
0.13279
0.28455
0.36585
0.38211
0.33875
0.34959
0.24119
0.20325
0.17073
0.14363
0.12195
0.11111
0.22493
0.32791
0.28997
0.18699
0.067751
-0.02981
-0.051491
-0.089431
-0.23577
-0.27913
-0.30081
-0.28997
-0.14363
0.04065
0.33875
0.53388
0.68564
0.7019
0.71274
0.61518
0.45257
0.37127
0.24661
0.26287
0.29539
0.31165
0.27913
0.23577
0.12737
0.10569
0.10569
0.29539
0.43089
0.52304
0.5122
0.45799
0.39837
0.42005
0.38211
0.43089
0.34417
0.33333
0.25745
0.24119
0.36043
0.5664
0.73442
0.7832
0.76694
0.59892
0.39837
0.30081
0.30623
0.32791
0.33875
0.36585
0.43089
0.49593
0.56098
0.60434
0.60976
0.58808
0.57724
0.55556
0.57182
0.5664
0.58266
0.5393
0.52304
0.56098
0.5664
0.49051
0.34417
0.21409
0.15447
0.28455
0.46883
0.65854
0.69648
0.66938
0.5393
0.35501
0.24119
0.20867
0.21951
0.21409
0.13821
0.089431
0.15447
0.26829
0.46883
0.63144
0.6748
0.729
0.71816
0.63144
0.52304
0.44715
0.43631
0.40921
0.42547
0.41463
0.42547
0.44715
0.49051
0.52304
0.55014
0.66938
0.76694
0.76694
0.65854
0.54472
0.37127
0.18699
0.062331
-0.00271
0.02439
0.10569
0.26829
0.40379
0.52846
0.58808
0.5664
0.55014
0.5664
0.60976
0.5122
0.41463
0.31165
0.34417
0.32249
0.32249
0.25745
0.21409
0.23577
0.37127
0.49593
0.57182
0.58808
0.63686
0.57182
0.47425
0.28997
0.10027
-0.00271
-0.04607
-0.02439
-0.062331
-0.084011
-0.19241
-0.15447
-0.13279
-0.078591
-0.051491
-0.03523
0.02981
0.067751
0.01897
-0.01355
0.01897
0.051491
0.03523
-0.02439
-0.073171
-0.10027
-0.10027
-0.0081301
0.02981
0.03523
0.02981
-0.01897
-0.089431
-0.18699
-0.21951
-0.19783
-0.22493
-0.24661
-0.21951
-0.19783
-0.078591
0.03523
0.089431
0.084011
-0.0081301
-0.067751
-0.14905
-0.15989
-0.12737
-0.15447
-0.15447
-0.14905
-0.04065
0.094851
0.26287
0.38753
0.44715
0.39295
0.32249
0.26287
0.15447
0.14905
0.14363
0.17073
0.15447
0.13279
0.13821
0.12737
0.18699
0.23035
0.23577
0.23577
0.36043
0.49593
0.60434
0.68022
0.71816
0.72358
0.6748
0.69106
0.60976
0.50678
0.37669
0.21951
0.21951
0.14363
0.24661
0.23577
0.21409
0.18699
0.23035
0.29539
0.31165
0.35501
0.32791
0.25203
0.22493
0.18157
0.17073
0.17073
0.24119
0.37127
0.45799
0.50136
0.5393
0.48509
0.51762
0.54472
0.54472
0.47967
0.41463
0.41463
0.39837
0.45257
0.40921
0.26829
0.078591
-0.03523
-0.0081301
0.084011
0.15447
0.13279
0.10027
0.0081301
-0.056911
-0.14363
-0.25745
-0.21951
-0.089431
0.03523
0.084011
0.10027
0.04065
0.00271
-0.056911
-0.051491
0.00271
0.10569
0.18699
0.19783
0.18157
0.19783
0.19241
0.11653
-0.02981
-0.084011
-0.10569
-0.15447
-0.15447
-0.14363
-0.056911
-0.056911
-0.0081301
-0.01355
0.01897
0.02439
0.062331
0.01355
0.0081301
-0.062331
-0.13279
-0.17073
-0.15989
-0.051491
0.067751
0.16531
0.14363
-0.04607
-0.31707
-0.52304
-0.59892
-0.6748
-0.6477
-0.54472
-0.37669
-0.19783
-0.03523
0.062331
-0.01355
-0.089431
-0.094851
-0.051491
0.02981
0.051491
0.00271
-0.17073
-0.30623
-0.38753
-0.32249
-0.27371
-0.18157
-0.13279
-0.11653
-0.10569
-0.094851
-0.073171
-0.084011
-0.01355
-0.0081301
-0.094851
-0.20325
-0.33875
-0.36043
-0.43089
-0.37127
-0.32249
-0.26829
-0.15989
-0.03523
0.04607
0.084011
0.056911
0.01355
-0.02981
-0.10569
-0.19783
-0.34417
-0.43631
-0.35501
-0.13821
0.11111
0.25203
0.39837
0.37127
0.34959
0.28455
0.20867
0.19783
0.15447
0.12195
0.11111
0.12737
0.18157
0.26287
0.27371
0.31707
0.35501
0.34959
0.40921
0.46883
0.51762
0.52846
0.54472
0.59892
0.60976
0.57182
0.46883
0.30081
0.078591
-0.02981
-0.01897
-0.00271
0.056911
0.10027
0.18157
0.20325
0.23577
0.17073
0.084011
-0.067751
-0.13279
-0.22493
-0.30081
-0.36043
-0.41463
-0.43089
-0.36585
-0.28455
-0.11653
0.01897
0.20867
0.28997
0.25203
0.23577
0.29539
0.26287
0.27371
0.31165
0.38211
0.45799
0.46883
0.46341
0.40379
0.35501
0.30081
0.17615
0.03523
0.00271
0.073171
0.15447
0.25203
0.30081
0.31165
0.31707
0.29539
0.29539
0.24119
0.23035
0.24661
0.27371
0.25203
0.16531
0.12195
-0.03523
-0.01355
0.00271
0.14905
0.30623
0.42547
0.48509
0.50136
0.46883
0.49593
0.47967
0.46883
0.47425
0.43089
0.35501
0.21951
0.11111
0.02981
-0.0081301
0.056911
0.078591
0.10027
0.14905
0.23577
0.32249
0.32791
0.30623
0.20325
0.10569
0.00271
-0.073171
-0.17073
-0.20867
-0.23577
-0.23577
-0.24661
-0.17073
-0.04065
0.0081301
-0.03523
-0.084011
-0.11111
-0.04065
0.056911
0.17615
0.12737
0.10027
0.01355
-0.0081301
-0.01897
-0.02981
0.01355
-0.02981
0.00271
0.02981
0.14905
0.21951
0.30081
0.40379
0.42005
0.45799
0.46883
0.50678
0.49051
0.42005
0.29539
0.23577
0.31165
0.43631
0.5664
0.60976
0.71274
0.7019
0.57182
0.38753
0.21409
0.13279
0.04065
0.03523
-0.01355
0.0081301
0.04065
0.10569
0.19783
0.28997
0.43089
0.5122
0.52304
0.50678
0.42005
0.25203
0.14363
0.11111
0.15447
0.23577
0.27371
0.32791
0.25745
0.24661
0.28455
0.39295
0.50136
0.5393
0.52304
0.48509
0.42547
0.37669
0.34417
0.27371
0.20867
0.16531
0.094851
0.084011
0.15447
0.26829
0.33333
0.37127
0.36585
0.26287
0.18699
0.089431
-0.0081301
-0.084011
-0.11653
-0.15447
-0.12737
-0.11111
-0.056911
0.078591
0.23035
0.43089
0.49051
0.46341
0.39295
0.30081
0.19783
0.01897
-0.067751
-0.051491
0.03523
0.19241
0.41463
0.5393
0.54472
0.43631
0.25203
0.14363
0.089431
0.19783
0.27371
0.32791
0.36043
0.27913
0.21409
0.12195
0.078591
-0.051491
-0.20325
-0.21951
-0.17073
-0.056911
0.11653
0.28455
0.32249
0.21951
-0.067751
-0.39837
-0.69106
-0.82114
-0.74526
-0.5664
-0.26287
0.02439
0.25745
0.34959
0.34417
0.30623
0.17073
0.073171
-0.02981
-0.056911
-0.13279
-0.10569
-0.062331
0.02981
0.14363
0.26287
0.33875
0.38753
0.33875
0.26829
0.14363
0.03523
-0.02439
-0.084011
-0.051491
-0.01355
-0.01897
-0.067751
-0.10569
0.00271
0.11111
0.19783
0.29539
0.33875
0.38211
0.36585
0.38211
0.31707
0.20867
0.089431
-0.089431
-0.15447
-0.13821
0.01355
0.21951
0.36043
0.46883
0.5122
0.50136
0.52304
0.5122
0.41463
0.30081
0.17073
-0.00271
-0.14905
-0.25203
-0.17073
-0.04065
0.11111
0.14363
0.067751
-0.12195
-0.26287
-0.31707
-0.30623
-0.19241
-0.051491
0.02439
0.051491
0.0081301
-0.01897
0.0081301
0.084011
0.13821
0.17073
0.17615
0.25745
0.37127
0.44715
0.40379
0.31165
0.15447
0.03523
0.0081301
0.051491
0.056911
0.051491
0.11653
0.18699
0.14363
0.19783
0.19241
0.21409
0.24661
0.21951
0.18699
0.11653
0.11111
0.12737
0.13821
0.11111
0.078591
0.00271
-0.02439
-0.04607
-0.04607
-0.084011
0.0081301
0.15447
0.18699
0.16531
0.078591
-0.03523
-0.10569
-0.15989
-0.10569
-0.056911
0.084011
0.17073
0.17073
0.051491
-0.02439
-0.03523
0.094851
0.19783
0.26287
0.24119
0.12737
0.089431
0.04607
0.056911
0.056911
0.16531
0.22493
0.20325
0.13821
0.084011
0.084011
0.13279
0.18699
0.25745
0.25203
0.24661
0.16531
0.089431
-0.00271
-0.067751
-0.14363
-0.19783
-0.21409
-0.18699
-0.11653
0.0081301
0.073171
0.078591
-0.02981
-0.13279
-0.28997
-0.46883
-0.54472
-0.48509
-0.34959
-0.18699
-0.03523
0.12737
0.30081
0.44173
0.57724
0.65312
0.71816
0.76152
0.68564
0.54472
0.36585
0.30623
0.21951
0.19241
0.20867
0.18699
0.23035
0.30081
0.38753
0.38753
0.30623
0.20325
0.084011
0.056911
0.11111
0.25745
0.39837
0.49593
0.60976
0.69106
0.76152
0.729
0.61518
0.45799
0.36043
0.40379
0.49593
0.51762
0.5664
0.5393
0.41463
0.21951
0.078591
-0.11111
-0.17615
-0.21951
-0.24119
-0.23035
-0.14363
0.01897
0.15447
0.30623
0.42005
0.45799
0.42005
0.36043
0.32249
0.32249
0.30623
0.33875
0.33875
0.32791
0.31707
0.34417
0.33875
0.32249
0.27913
0.25203
0.15447
0.11111
0.10027
0.094851
0.12195
0.11111
0.13279
0.10027
0.14905
0.23035
0.23035
0.24661
0.21409
0.28455
0.33875
0.36043
0.36043
0.27371
0.19783
0.12737
0.0081301
-0.13821
-0.18699
-0.094851
0.02439
0.14905
0.16531
0.16531
0.12195
0.14905
0.13279
0.04607
-0.00271
-0.03523
-0.056911
-0.062331
-0.03523
0.051491
0.15989
0.21409
0.36585
0.43631
0.43631
0.46883
0.38211
0.29539
0.20867
0.20325
0.18699
0.15447
0.15989
0.15447
0.18157
0.30623
0.43089
0.55014
0.58266
0.49051
0.27371
0.04065
-0.094851
-0.089431
-0.067751
-0.02439
0.0081301
0.01355
0.02981
0.094851
0.30623
0.47425
0.60434
0.66396
0.5935
0.43089
0.21951
0.056911
-0.089431
-0.089431
-0.073171
-0.062331
-0.13279
-0.13821
-0.10027
-0.01355
0.073171
0.089431
0.056911
-0.04065
-0.02981
0.0081301
0.02439
-0.02439
-0.067751
-0.17073
-0.29539
-0.35501
-0.38753
-0.34417
-0.24661
-0.15989
-0.19241
-0.36043
-0.55556
-0.75068
-0.83198
-0.71274
-0.53388
-0.39295
-0.22493
-0.094851
0.00271
-0.02439
-0.11653
-0.17073
-0.14363
-0.11111
-0.01897
0.02981
0.04065
-0.03523
-0.12195
-0.14905
-0.01897
0.056911
0.03523
-0.089431
-0.28455
-0.38211
-0.50678
-0.53388
-0.39837
-0.21951
-0.01355
0.056911
0.01897
-0.20325
-0.33875
-0.33875
-0.21409
-0.073171
-0.02439
-0.01897
-0.051491
-0.073171
0.00271
0.02981
0.14905
0.23035
0.29539
0.26829
0.16531
0.17615
0.25203
0.38211
0.46883
0.39295
0.25203
0.11111
0.11653
0.11111
0.062331
0.062331
0.094851
0.10027
0.15447
0.17615
0.26829
0.33875
0.46883
0.5122
0.45799
0.35501
0.29539
0.23577
0.21409
0.26287
0.27913
0.30623
0.28997
0.24661
0.20325
0.20867
0.27371
0.27371
0.23035
0.21409
0.31165
0.42547
0.51762
0.59892
0.58266
0.53388
0.46341
0.43631
0.41463
0.40379
0.38211
0.36585
0.33333
0.29539
0.30081
0.29539
0.35501
0.45799
0.5393
0.51762
0.52304
0.48509
0.49593
0.47967
0.43631
0.41463
0.33333
0.40921
0.45257
0.38753
0.30623
0.19783
0.18699
0.14905
0.14905
0.12195
0.10569
-0.04607
-0.067751
-0.10027
-0.11111
-0.04607
-0.094851
-0.094851
-0.03523
0.062331
0.16531
0.21409
0.33333
0.34959
0.31165
0.16531
0.078591
-0.01897
-0.073171
-0.02981
-0.0081301
0.04607
0.01897
0.02439
0.04607
0.10027
0.11111
0.01355
-0.073171
-0.15447
-0.067751
-0.01355
0.084011
0.12195
0.14363
0.14363
0.13821
0.14363
0.073171
0.089431
0.073171
0.067751
0.0081301
0.0081301
0.04607
0.04065
0.056911
0.03523
0.084011
0.067751
0.13821
0.17073
0.18699
0.17073
0.15447
0.13821
0.02981
-0.056911
-0.26287
-0.39295
-0.45257
-0.37127
-0.27371
-0.15989
-0.00271
0.094851
0.15989
0.13821
0.13279
0.14363
0.15989
0.13821
0.11653
0.03523
-0.01355
-0.04065
-0.16531
-0.18157
-0.18699
-0.12737
-0.078591
-0.10027
-0.13821
-0.27371
-0.38211
-0.38753
-0.38211
-0.43089
-0.45257
-0.5393
-0.58808
-0.54472
-0.45799
-0.38753
-0.43631
-0.47425
-0.40921
-0.36043
-0.35501
-0.36043
-0.39295
-0.37127
-0.32249
-0.25203
-0.19783
-0.15989
-0.10569
-0.13821
-0.17615
-0.18157
-0.18699
-0.15989
-0.12195
-0.12195
-0.14905
-0.19783
-0.17073
-0.094851
-0.11111
-0.16531
-0.27371
-0.36585
-0.41463
-0.24661
-0.084011
0.12195
0.22493
0.29539
0.31707
0.29539
0.24119
0.14905
-0.0081301
-0.11111
-0.094851
0.02981
0.21409
0.38211
0.45257
0.50136
0.47425
0.47425
0.31707
0.18157
0.073171
-0.00271
-0.04065
-0.11111
-0.10569
-0.17073
-0.067751
0.13821
0.42005
0.63144
0.68022
0.62602
0.43631
0.21409
-0.0081301
-0.15447
-0.21409
-0.24661
-0.14363
-0.073171
0.073171
0.23577
0.35501
0.42005
0.47967
0.6206
0.71274
0.75068
0.76694
0.68564
0.59892
0.63144
0.69106
0.77236
0.7561
0.71274
0.62602
0.58808
0.5393
0.49051
0.43089
0.37127
0.37127
0.37669
0.34417
0.38753
0.38753
0.40921
0.50136
0.61518
0.69648
0.72358
0.66938
0.50136
0.38211
0.34959
0.39837
0.37669
0.36585
0.31165
0.27913
0.31707
0.39837
0.48509
0.63686
0.72358
0.7832
0.76694
0.68022
0.60434
0.6748
0.68564
0.69648
0.68564
0.64228
0.61518
0.56098
0.54472
0.5393
0.55556
0.65312
0.70732
0.70732
0.6748
0.57724
0.43631
0.47967
0.5664
0.77778
0.84282
0.9729
0.9729
0.98916
0.94038
0.85366
0.82114
0.73442
0.73984
0.62602
0.45799
0.38211
0.37127
0.45799
0.46341
0.45799
0.40379
0.39837
0.42547
0.55014
0.5935
0.59892
0.59892
0.51762
0.44715
0.39837
0.38753
0.40379
0.54472
0.75068
0.94038
1
0.95664
0.9187
0.85366
0.8645
0.82656
0.78862
0.66396
0.62602
0.58808
0.57724
0.52846
0.49051
0.45257
0.39837
0.38753
0.40379
0.28997
0.32249
0.29539
0.37127
0.34417
0.33333
0.37127
0.37127
0.33875
0.24661
0.14905
0.13821
0.22493
0.23035
0.21951
0.17615
0.12195
0.062331
-0.00271
0.0081301
-0.00271
-0.03523
-0.04607
-0.067751
-0.089431
-0.15447
-0.19783
-0.26829
-0.29539
-0.35501
-0.30623
-0.26287
-0.25203
-0.18157
-0.17615
-0.21951
-0.26287
-0.25745
-0.17615
-0.051491
0.062331
0.089431
0.11653
0.073171
0.094851
-0.01355
-0.10027
-0.17615
-0.24661
-0.30081
-0.33875
-0.32791
-0.22493
-0.078591
0.13279
0.26829
0.33333
0.31165
0.24119
0.056911
-0.12195
-0.25203
-0.26287
-0.23577
-0.084011
0.067751
0.15447
0.23035
0.30623
0.34959
0.40921
0.43631
0.42005
0.37669
0.28997
0.14363
-0.01355
-0.12195
-0.11111
-0.13279
-0.20325
-0.31165
-0.27913
-0.19241
-0.00271
0.15989
0.24119
0.21951
0.14363
0.12195
0.11653
0.089431
0.062331
-0.02981
-0.13279
-0.10569
-0.00271
0.11111
0.15989
0.21951
0.25203
0.25203
0.28455
0.15989
-0.03523
-0.19783
-0.21409
-0.19241
-0.19241
-0.21951
-0.21951
-0.18157
-0.04065
0.13279
0.27371
0.30623
0.33333
0.30623
0.15989
0.084011
-0.01897
-0.12195
-0.25745
-0.36043
-0.35501
-0.32791
-0.28455
-0.19783
-0.067751
0.10569
0.28997
0.32249
0.27913
0.15447
0.062331
0.051491
-0.03523
-0.051491
-0.12195
-0.10027
0.00271
0.094851
0.12737
0.12737
0.18699
0.28997
0.36585
0.32249
0.17073
-0.051491
-0.19783
-0.19783
-0.073171
0.11111
0.33333
0.54472
0.62602
0.57724
0.42547
0.22493
0.12737
0.094851
0.18157
0.21409
0.19241
0.25745
0.27913
0.34959
0.39295
0.44715
0.43631
0.39295
0.36585
0.26829
0.15989
0.051491
-0.01355
-0.02981
0.084011
0.20867
0.28997
0.31165
0.31707
0.26287
0.19783
0.23035
0.32791
0.41463
0.38211
0.40921
0.40921
0.44173
0.47967
0.55014
0.62602
0.6477
0.61518
0.41463
0.18157
-0.067751
-0.20325
-0.26829
-0.30081
-0.29539
-0.27913
-0.25745
-0.19783
-0.094851
-0.056911
-0.0081301
-0.0081301
-0.067751
-0.12737
-0.19241
-0.21409
-0.23577
-0.11653
0.056911
0.23035
0.33875
0.26287
0.15447
-0.02439
-0.094851
-0.084011
-0.01355
0.084011
0.17073
0.38211
0.46341
0.5122
0.53388
0.46883
0.42547
0.31707
0.21951
0.15447
0.14363
0.15989
0.13279
0.078591
0.10027
0.13821
0.16531
0.13821
0.14363
0.15989
0.16531
0.25745
0.29539
0.27371
0.17073
0.11111
0.03523
-0.04065
-0.00271
0.089431
0.18157
0.26287
0.37127
0.49051
0.5393
0.55014
0.47425
0.36043
0.20867
0.20325
0.24661
0.32249
0.38211
0.30081
0.24119
0.23577
0.38753
0.5122
0.49051
0.40379
0.20325
0.04607
-0.078591
-0.11111
-0.056911
0.062331
0.15989
0.19783
0.14905
0.13279
0.16531
0.10027
0.04065
-0.062331
-0.15447
-0.23035
-0.24661
-0.19241
-0.17615
-0.16531
-0.21409
-0.25203
-0.24661
-0.11111
-0.0081301
0.084011
0.078591
-0.0081301
-0.04065
-0.15447
-0.13279
-0.12195
-0.094851
-0.04607
0.056911
0.19783
0.30081
0.38211
0.23577
0.073171
-0.11111
-0.12737
-0.02439
-0.0081301
0.04065
-0.01897
-0.062331
-0.094851
-0.051491
-0.01355
0.03523
0.10027
0.11653
0.12737
0.11111
0.04065
-0.01897
-0.13279
-0.15447
-0.078591
0.084011
0.20325
0.25203
0.056911
-0.12737
-0.27913
-0.20325
0.03523
0.29539
0.46883
0.36043
0.23577
0.15989
0.12195
0.13821
0.12737
0.20867
0.13821
0.078591
-0.089431
-0.21951
-0.36043
-0.34959
-0.30081
-0.27371
-0.19783
-0.04607
0.15447
0.31165
0.45257
0.47425
0.50678
0.5122
0.50136
0.38211
0.15447
-0.10569
-0.42005
-0.71274
-0.92954
-1
-0.97832
-0.92412
-0.7832
-0.54472
-0.23035
0.16531
0.50136
0.69106
0.73442
0.6748
0.48509
0.25203
0.078591
0.067751
0.067751
0.13279
0.17615
0.17615
0.067751
-0.094851
-0.26287
-0.27371
-0.17615
-0.02439
0.12737
0.18157
0.23577
0.27913
0.21409
0.15989
0.17073
0.24119
0.31707
0.33875
0.43631
0.49051
0.57724
0.53388
0.38753
0.20867
0.084011
0.01897
-0.051491
-0.02981
0.01897
0.18699
0.31707
0.47967
0.55014
0.5393
0.46883
0.38753
0.35501
0.32249
0.34417
0.34417
0.33875
0.39295
0.45257
0.47967
0.38753
0.34959
0.30623
0.25745
0.30081
0.36043
0.40921
0.42547
0.38753
0.32791
0.22493
0.12737
0.062331
0.051491
0.10569
0.20867
0.25203
0.21951
0.19241
0.20867
0.21951
0.23035
0.28997
0.38211
0.40379
0.37127
0.37669
0.33333
0.28455
0.18157
-0.0081301
-0.01897
0.02981
0.22493
0.24119
0.23577
0.20867
0.26287
0.34417
0.38753
0.37669
0.30081
0.31165
0.32249
0.36043
0.36043
0.37669
0.41463
0.39837
0.39295
0.38211
0.34417
0.34959
0.40921
0.44715
0.42547
0.35501
0.34959
0.33333
0.25745
0.23035
0.15989
0.13279
0.14905
0.19783
0.22493
0.28455
0.36585
0.42547
0.43089
0.36585
0.25745
0.10027
-0.11653
-0.15989
-0.15989
-0.078591
-0.04065
-0.01355
0.02439
0.02439
0.19783
0.29539
0.44715
0.44715
0.34959
0.18699
0.089431
0.084011
0.10027
0.16531
0.20325
0.28997
0.30081
0.30623
0.28997
0.24661
0.23577
0.21951
0.32249
0.33333
0.33333
0.32791
0.32249
0.24661
0.24119
0.20325
0.19783
0.25745
0.38211
0.52304
0.63686
0.57182
0.49593
0.33875
0.28455
0.27913
0.31165
0.31707
0.50678
0.59892
0.66938
0.66396
0.63144
0.52846
0.44173
0.42005
0.43089
0.45799
0.46341
0.41463
0.39837
0.34417
0.39295
0.36043
0.40921
0.39295
0.41463
0.34417
0.28455
0.15989
0.02439
-0.12737
-0.23035
-0.15447
-0.11111
-0.00271
0.062331
0.04065
-0.073171
-0.28997
-0.42005
-0.44715
-0.38753
-0.25745
-0.19241
-0.14363
-0.19783
-0.27371
-0.36585
-0.30081
-0.21409
-0.067751
-0.02439
-0.02981
-0.10027
-0.19241
-0.20325
-0.16531
-0.13821
-0.20867
-0.23035
-0.18157
-0.11111
-0.04065
0.056911
0.12737
0.078591
0.051491
-0.01355
0.04065
0.19241
0.39295
0.57724
0.62602
0.66938
0.55014
0.43089
0.23035
0.067751
-0.12195
-0.25745
-0.20325
-0.16531
-0.10569
-0.089431
-0.084011
0.01897
0.15989
0.31707
0.32791
0.24661
0.10027
0.051491
-0.094851
-0.15989
-0.15447
-0.03523
0.12737
0.27371
0.32791
0.33333
0.19783
0.12195
0.051491
0.0081301
0.02439
0.056911
0.0081301
0.056911
0.04607
0.01355
-0.04607
-0.10027
-0.18157
-0.15447
-0.067751
0.02439
0.04065
0.02981
0.00271
-0.0081301
-0.12737
-0.27913
-0.36043
-0.31707
-0.18699
-0.04065
0.089431
0.13821
0.12195
0.094851
0.01897
-0.03523
0.062331
0.10569
0.12195
0.11653
0.056911
0.14905
0.15447
0.26829
0.26829
0.18157
0.04607
-0.14363
-0.26829
-0.32791
-0.24661
-0.18699
-0.10027
-0.13279
-0.17073
-0.23577
-0.30081
-0.35501
-0.28997
-0.26287
-0.15447
-0.089431
-0.19241
-0.27371
-0.27371
-0.24119
-0.20867
-0.14363
-0.094851
-0.14363
-0.19241
-0.20867
-0.25745
-0.28997
-0.30081
-0.27371
-0.20867
-0.10569
-0.073171
-0.01355
-0.12737
-0.15447
-0.089431
-0.056911
0.078591
0.14905
0.20325
0.20325
0.10569
-0.00271
-0.14363
-0.30081
-0.42547
-0.56098
-0.69648
-0.71274
-0.72358
-0.68022
-0.58808
-0.45257
-0.38211
-0.33333
-0.33333
-0.21951
-0.062331
0.18699
0.38211
0.44715
0.42005
0.31707
0.16531
0.10027
0.094851
0.17073
0.18699
0.16531
0.14905
0.16531
0.16531
0.15989
0.12195
0.078591
0.11653
0.27913
0.5122
0.60434
0.60976
0.49593
0.30081
0.17073
0.073171
-0.03523
-0.14905
-0.19241
-0.062331
0.01355
0.02981
-0.02439
-0.13821
-0.21409
-0.27913
-0.32249
-0.42547
-0.46341
-0.38211
-0.18699
0.078591
0.28997
0.39295
0.35501
0.26287
0.30623
0.34417
0.38753
0.44173
0.44173
0.34959
0.28997
0.18157
0.13279
0.11111
0.17073
0.24119
0.33875
0.39295
0.36043
0.32249
0.25745
0.23035
0.24119
0.20325
0.25203
0.35501
0.32249
0.29539
0.27371
0.24119
0.22493
0.18157
0.19783
0.17073
0.20867
