-0.62791
-0.64535
-0.70349
-0.65116
-0.48256
-0.22674
-0.098837
-0.075581
-0.2093
-0.42442
-0.49419
-0.41279
-0.069767
0.040698
-0.011628
-0.21512
-0.36047
-0.38372
-0.36628
-0.13953
-0.14535
-0.22674
-0.40698
-0.52907
-0.47674
-0.23837
-0.23837
-0.30233
-0.36628
-0.30814
-0.10465
0.011628
0.005814
-0.023256
-0.052326
-0.069767
-0.052326
0.093023
0.11628
0.098837
0.023256
-0.098837
-0.10465
-0.034884
-0.087209
0
-0.18605
-0.16279
-0.087209
0.2093
0.3314
0.2093
-0.087209
-0.23837
-0.18023
-0.19767
-0.087209
-0.011628
0.017442
-0.017442
0.005814
0.14535
0.2093
0.21512
0.14535
0.15116
0.098837
0.32558
0.19767
0.081395
-0.1686
-0.20349
-0.15116
-0.15698
-0.17442
-0.23256
-0.18605
-0.075581
0.36628
0.46512
0.47093
0.23837
0.040698
0.011628
-0.02907
-0.05814
-0.081395
-0.040698
0.1686
0.19767
0.098837
-0.11047
-0.18023
-0.13372
-0.11047
-0.087209
-0.075581
0.069767
0.21512
0.21512
0.081395
-0.063953
0.005814
0.11047
0.11047
0.087209
0.098837
0.11047
0.23256
0.30814
0.22093
-0.02907
-0.36047
-0.4593
-0.40698
-0.35465
-0.17442
-0.25581
-0.31977
-0.31395
-0.36047
-0.36628
-0.44186
-0.40698
-0.30233
-0.18023
-0.11047
-0.075581
-0.093023
-0.011628
0.05814
0.063953
0.14535
0.063953
-0.02907
-0.23837
-0.41279
-0.2907
-0.28488
-0.017442
0.093023
0.075581
-0.11047
-0.36628
-0.27326
-0.27326
-0.02907
0.081395
0.069767
-0.11628
-0.28488
-0.37791
-0.28488
-0.38953
-0.32558
-0.3314
-0.37791
-0.22674
-0.15116
-0.075581
-0.075581
-0.22674
-0.31395
-0.44186
-0.5
-0.46512
-0.3314
-0.22674
-0.2093
-0.25581
-0.17442
-0.21512
-0.23837
-0.27326
-0.36047
-0.31977
-0.2093
-0.093023
0.075581
0.16279
0.15698
-0.011628
-0.10465
0.063953
0.11628
0.18023
0.14535
0.087209
0.081395
0.046512
0.017442
0.02907
0.069767
0.15116
0.27326
0.40698
0.38953
0.31395
0.11628
-0.040698
0.41279
0.40116
0.34884
-0.02907
-0.21512
-0.11628
0.005814
0.05814
0.075581
0.069767
-0.005814
-0.017442
0
0.12209
0.32558
0.32558
0.11047
-0.20349
-0.22093
-0.11628
-0.18023
-0.25
-0.47093
-0.17442
-0.1686
-0.10465
-0.30814
-0.44767
-0.36047
-0.31395
-0.26744
-0.25
-0.11628
0
0.16279
0.45349
0.31395
0.15698
-0.18605
-0.3314
-0.19186
-0.011628
-0.023256
-0.14535
-0.30814
-0.35465
-0.23837
-0.15698
-0.05814
0.12791
0.27907
0.49419
0.33721
0.16279
-0.14535
-0.27326
-0.28488
-0.11628
0.13953
0.29651
0.29651
-0.075581
-0.38372
-0.5407
-0.58721
-0.57558
-0.59884
-0.61047
-0.68023
-0.66279
-0.38953
-0.31977
-0.2907
-0.4186
-0.59884
-0.65698
-0.59302
-0.55814
-0.28488
-0.26744
-0.23256
-0.30814
-0.25581
-0.16279
0.017442
-0.12209
-0.29651
-0.20349
-0.13372
0.005814
-0.14535
-0.25581
-0.24419
-0.21512
-0.098837
-0.034884
-0.093023
-0.1686
-0.30233
-0.59884
-0.5407
-0.38953
-0.23256
-0.12791
-0.30233
-0.37791
-0.36628
-0.35465
-0.26163
-0.25581
-0.30233
-0.34302
-0.39535
-0.5
-0.3314
-0.30233
-0.36628
-0.47674
-0.47093
-0.36628
-0.45349
-0.52907
-0.41279
-0.14535
-0.093023
0.017442
-0.1686
0.02907
0.046512
0.12791
0.017442
-0.017442
0.017442
0.093023
0.23256
0.33721
0.34884
0.27907
0.10465
0.046512
0.18023
0.19186
0.28488
0.11628
-0.023256
-0.13372
-0.098837
-0.069767
-0.18023
-0.31395
-0.2093
-0.26744
-0.37209
-0.44767
-0.45349
-0.37791
-0.087209
0.023256
0.26163
0.21512
0.017442
-0.15698
-0.21512
-0.43605
-0.5814
-0.86628
-0.90698
-0.54651
-0.56977
-0.57558
-0.72674
-0.61628
-0.34884
-0.087209
0.069767
0.16279
0.27907
0.30233
0.44186
0.23256
0.005814
-0.25
-0.19186
-0.25
-0.15116
-0.29651
-0.22093
-0.081395
0.02907
0.15116
0.18023
0.24419
0.49419
0.4186
0.18605
-0.19186
-0.43605
-0.35465
0.046512
0.15116
0.12209
-0.063953
-0.22093
-0.21512
-0.093023
0.052326
0.28488
0.15698
-0.05814
-0.22093
-0.34884
-0.42442
-0.27326
-0.15698
-0.12791
-0.26163
-0.4593
-0.52326
-0.26163
-0.24419
-0.28488
-0.38372
-0.59302
-0.60465
-0.68605
-0.78488
-0.6686
-0.65698
-0.41279
-0.41279
-0.37791
-0.36628
-0.11628
0.093023
0.040698
-0.18023
-0.39535
-0.34302
-0.35465
-0.3314
-0.34884
-0.2907
-0.19767
-0.16279
0.005814
0.23837
0.14535
-0.063953
-0.38372
-0.5814
-0.55233
-0.5407
-0.65698
-0.56977
-0.50581
-0.4593
-0.44186
-0.36628
-0.34884
-0.30233
-0.27326
-0.23256
-0.31977
-0.40116
-0.37791
-0.34884
-0.24419
-0.26163
-0.32558
-0.37209
-0.44767
-0.31977
-0.16279
0.13372
0.13372
0.087209
-0.02907
-0.1686
-0.13372
0.15116
0.02907
0.040698
-0.18605
-0.36047
-0.39535
-0.31977
-0.087209
0.034884
0.14535
0.10465
-0.017442
0.02907
0.075581
0
-0.13953
-0.13372
-0.17442
-0.1686
-0.26744
-0.081395
0.10465
0.11047
-0.075581
-0.20349
-0.23837
-0.11047
-0.13953
-0.22674
-0.22674
-0.13372
-0.15116
-0.10465
0.069767
0.040698
0.13372
-0.23837
-0.37209
-0.3314
-0.28488
-0.18605
-0.069767
-0.075581
-0.087209
-0.15116
-0.17442
0
0.16279
0.27907
0.16279
-0.05814
0.017442
-0.13372
-0.18023
-0.25581
-0.22093
-0.05814
-0.011628
0.040698
0.081395
0.023256
0.18023
0.30233
0.17442
-0.046512
-0.3314
-0.37791
-0.093023
-0.040698
-0.040698
-0.19186
-0.32558
-0.2907
-0.19186
-0.1686
-0.18023
-0.10465
-0.05814
-0.023256
0.046512
0.052326
0.19186
0.11047
0.15698
-0.13953
-0.23837
-0.31395
-0.32558
-0.34302
-0.33721
-0.36047
-0.33721
-0.10465
-0.005814
0.10465
0.19767
0.16279
0.05814
-0.098837
-0.27326
-0.30233
-0.2093
-0.22093
-0.13372
-0.034884
0.10465
0.12209
0.18605
0.10465
-0.034884
-0.075581
0.17442
0.14535
0.15698
0.13372
0.1686
0.17442
0.052326
-0.25
-0.30814
-0.31395
-0.29651
-0.16279
-0.13372
0.011628
0.10465
-0.017442
-0.040698
-0.19767
-0.25581
-0.069767
0.18023
0.18605
0.063953
-0.26163
-0.3314
-0.26163
-0.25581
-0.2907
-0.40116
-0.46512
-0.5407
-0.32558
-0.2907
-0.26744
-0.30814
-0.4186
-0.38953
-0.25
-0.13372
-0.046512
-0.05814
-0.093023
-0.16279
-0.15116
-0.14535
-0.11628
-0.22093
-0.35465
-0.30233
-0.19767
-0.005814
0.063953
0.052326
0.05814
-0.011628
-0.017442
-0.098837
-0.12791
-0.034884
0.005814
-0.15698
-0.40116
-0.52326
-0.5407
-0.5
-0.43023
-0.2907
-0.19186
-0.087209
-0.10465
-0.19767
-0.31395
-0.31977
-0.14535
-0.040698
-0.017442
-0.23837
-0.43605
-0.62791
-0.65116
-0.5407
-0.44767
-0.41279
-0.34884
-0.31977
-0.34884
-0.27326
-0.34884
-0.2907
-0.34884
-0.098837
-0.12209
-0.15698
-0.31395
-0.5
-0.60465
-0.51744
-0.052326
0.063953
0.093023
-0.12791
-0.43605
-0.46512
-0.42442
-0.34302
-0.19767
-0.14535
0.005814
-0.10465
-0.27326
-0.44767
-0.39535
-0.34302
-0.22674
-0.14535
0
0.093023
0.18605
0.11628
-0.052326
-0.14535
-0.081395
0.034884
0.098837
0.05814
0.19186
0.43023
0.39535
0.20349
-0.26163
-0.45349
-0.20349
0.005814
0.052326
-0.046512
-0.046512
-0.1686
-0.26163
-0.38953
-0.40698
-0.19186
-0.081395
-0.15116
-0.34884
-0.46512
-0.37791
-0.27326
-0.18023
-0.16279
-0.13953
-0.25581
-0.48837
-0.59884
-0.46512
-0.30233
-0.26744
-0.28488
-0.27907
-0.1686
-0.023256
-0.017442
-0.069767
0.005814
-0.005814
-0.16279
-0.30814
-0.38953
-0.36628
-0.31977
-0.4186
-0.44767
-0.50581
-0.20349
-0.081395
-0.011628
-0.27326
-0.50581
-0.5407
-0.48256
-0.36628
-0.23256
-0.12791
-0.093023
0.046512
0.17442
0.25
0.26163
0.24419
0.11628
-0.046512
-0.19186
0
0.18023
0.46512
0.37209
0.12209
-0.2093
-0.43023
-0.4593
-0.31977
-0.18605
0.02907
0.2907
0.36047
0.35465
0.10465
-0.14535
-0.22674
0.005814
0.12209
0.36628
0.30233
0.14535
0.040698
-0.02907
0.011628
-0.023256
-0.087209
0.069767
0.02907
0.046512
-0.069767
-0.093023
-0.081395
0.24419
0.18605
0.017442
-0.40698
-0.57558
-0.52907
-0.37209
-0.15698
-0.075581
-0.023256
-0.14535
-0.24419
-0.26163
-0.098837
-0.2093
-0.2907
-0.40698
-0.45349
-0.2907
-0.15116
-0.33721
-0.40698
-0.5
-0.43605
-0.34884
-0.28488
-0.23256
-0.30814
-0.16279
-0.23256
-0.2093
-0.30233
-0.26163
0.12791
0.2907
0.23256
-0.017442
-0.40116
-0.48837
-0.40116
-0.2907
-0.30814
-0.31395
-0.081395
-0.098837
-0.075581
-0.005814
-0.12209
-0.11628
-0.023256
-0.023256
0.093023
-0.040698
-0.18023
-0.005814
0.15698
0.2907
0.27326
0.34884
0.28488
0.18605
0.034884
-0.34884
-0.42442
-0.48256
-0.5
-0.43023
-0.25581
-0.11047
0.069767
0.098837
0.11047
-0.034884
-0.16279
-0.19186
-0.18023
-0.25581
-0.093023
-0.10465
-0.11047
-0.19186
-0.19186
-0.10465
-0.052326
-0.040698
-0.069767
-0.081395
-0.10465
-0.046512
-0.13953
-0.25
-0.39535
-0.47674
-0.37209
0.17442
0.33721
0.34884
-0.034884
-0.26163
-0.23256
-0.14535
-0.13372
-0.11047
0.081395
0.23256
0.40698
0.48837
0.31395
0.02907
-0.23837
-0.15116
0.05814
0.011628
-0.15698
-0.43605
-0.51163
-0.3314
-0.13372
0.069767
0.25581
0.36628
0.43605
0.50581
0.55814
0.52326
0.42442
0.22674
0.087209
-0.011628
0.034884
0.24419
0.23256
0.1686
0.023256
-0.063953
-0.098837
-0.075581
-0.05814
-0.11628
-0.075581
0.15116
0.2093
-0.034884
-0.48837
-0.74419
-0.76163
-0.63953
-0.45349
-0.22093
-0.11628
-0.13372
-0.25581
-0.46512
-0.55233
-0.24419
-0.40116
-0.53488
-0.86047
-0.94186
-0.73256
-0.38372
-0.14535
0
-0.081395
-0.27326
-0.48256
-0.5407
-0.45349
-0.5407
-0.71512
-0.98837
-1
-0.85465
-0.66279
-0.5
-0.19767
0.005814
0.040698
-0.11047
-0.36628
-0.56395
-0.70349
-0.67442
-0.55814
-0.30233
-0.15698
0.011628
-0.02907
-0.052326
-0.087209
-0.075581
0.046512
0.063953
-0.034884
-0.20349
-0.23837
-0.27907
-0.3314
-0.15698
0.11628
0.36628
0.25
0.017442
-0.20349
-0.19767
-0.19767
-0.21512
-0.25581
-0.22674
-0.2093
-0.23256
-0.26744
-0.25581
-0.32558
-0.39535
-0.36047
-0.35465
-0.28488
-0.41279
-0.48256
-0.31395
-0.34302
-0.48837
-0.71512
-0.69186
-0.40116
-0.29651
-0.31395
-0.48837
-0.49419
-0.30814
-0.20349
-0.15698
-0.18605
-0.27907
0.081395
-0.081395
-0.052326
-0.21512
-0.36628
-0.3314
-0.33721
-0.38953
-0.40698
-0.33721
-0.3314
0.38953
0.18023
-0.13953
-0.11047
-0.093023
-0.011628
-0.069767
-0.19186
-0.098837
-0.093023
-0.05814
-0.052326
-0.034884
-0.005814
0
-0.063953
0.011628
-0.23256
-0.38372
-0.53488
-0.65116
-0.63372
-0.69767
-0.75
-0.6686
-0.52326
-0.36628
-0.38953
-0.41279
-0.31977
-0.37791
-0.38953
-0.38953
-0.52326
-0.62791
-0.78488
-0.82558
-0.69767
-0.59884
-0.36047
-0.41279
-0.37791
-0.47674
-0.55814
-0.43023
-0.45349
-0.35465
-0.36628
-0.25
0.046512
0.10465
0.052326
-0.17442
-0.2093
-0.10465
0.052326
0.13953
0.21512
0.23837
0.27326
0.33721
0.21512
0.11628
-0.011628
0.05814
0.17442
0.19767
0.25581
0.3314
0.30814
0.16279
0.005814
-0.052326
0.046512
0.093023
0.19767
0.075581
0.02907
-0.081395
-0.11047
-0.023256
0.098837
0.15698
0.12791
0.005814
-0.069767
-0.14535
-0.14535
-0.13372
-0.034884
-0.034884
0.2093
0.063953
-0.19767
-0.46512
-0.50581
-0.42442
-0.40698
-0.40698
-0.34884
-0.25581
0.19767
0.26163
0.21512
-0.14535
-0.33721
-0.16279
-0.11628
-0.05814
-0.05814
-0.14535
-0.22674
-0.34884
-0.47674
-0.43023
-0.31977
-0.20349
-0.16279
-0.20349
-0.18023
-0.2093
-0.26163
-0.19767
-0.093023
0.15116
0.13372
0.18023
-0.040698
-0.25
-0.50581
-0.59884
-0.60465
-0.4593
-0.33721
-0.3314
-0.40698
-0.5407
-0.50581
-0.36047
-0.27326
-0.17442
-0.18023
-0.20349
-0.24419
-0.21512
-0.26163
-0.29651
-0.18605
-0.26744
-0.27326
-0.31977
-0.17442
0.02907
0.087209
0.011628
-0.13953
-0.30814
-0.27907
-0.31977
-0.37209
-0.37791
-0.32558
-0.23837
-0.18023
-0.15698
-0.040698
0.093023
0.20349
0.33721
0.13372
-0.093023
-0.23256
-0.23837
-0.20349
-0.20349
-0.15116
-0.005814
-0.02907
-0.10465
-0.23837
-0.25581
-0.14535
-0.087209
-0.075581
-0.063953
0.075581
0.21512
0.33721
0.20349
0.18605
-0.052326
-0.25581
-0.37791
-0.47674
-0.4593
-0.47093
-0.38372
-0.36628
-0.29651
-0.34884
-0.41279
-0.2907
-0.24419
-0.17442
-0.28488
-0.38372
-0.29651
-0.15698
0.19186
0.15698
0.046512
-0.35465
-0.62791
-0.62209
-0.49419
-0.42442
-0.29651
-0.31395
-0.27907
-0.51163
-0.61628
-0.55814
-0.48256
-0.27326
-0.25
-0.23837
-0.13372
0.052326
0.24419
0.12209
-0.046512
-0.2907
-0.31977
-0.17442
0.005814
0.05814
0.046512
0.1686
0.075581
0.011628
-0.22674
-0.30814
-0.21512
-0.12209
-0.052326
0
-0.011628
-0.034884
-0.063953
0.05814
0.16279
0.31395
0.26744
0.069767
-0.017442
-0.081395
0.12209
0.15698
0.15698
0.02907
-0.10465
-0.10465
0.011628
0.13372
0.28488
0.4593
0.34884
0.17442
-0.023256
-0.087209
-0.023256
0.11047
0.19186
0.30814
0.21512
0.02907
-0.069767
-0.16279
-0.017442
0.22093
0.40116
0.4593
0.34884
0.37791
0.20349
0.063953
-0.075581
-0.081395
0
0.011628
-0.098837
-0.28488
-0.24419
-0.063953
0.14535
0.15698
0.18605
0.040698
-0.046512
-0.02907
0.14535
0.25
0.24419
0.2093
0.18605
0.26163
0.25581
0.12791
0.023256
-0.011628
0.040698
0.081395
0.098837
0.046512
0.005814
-0.046512
-0.13372
-0.18023
-0.22674
-0.18023
-0.011628
0.20349
0.15698
0.040698
-0.069767
-0.034884
0.023256
0.040698
0.18605
0.081395
-0.011628
-0.12791
-0.15698
0.063953
0.27326
0.40698
0.27907
0.22093
-0.005814
-0.087209
-0.034884
-0.023256
0.005814
-0.16279
-0.22674
-0.19186
-0.12791
-0.15698
0.023256
0.05814
0.017442
-0.12791
-0.063953
-0.16279
-0.20349
-0.24419
-0.1686
-0.10465
-0.052326
-0.05814
-0.11047
-0.2093
-0.25
-0.34302
-0.30814
-0.13372
0.02907
0.38372
0.27907
0.13372
-0.21512
-0.27326
-0.28488
-0.22093
-0.29651
-0.29651
-0.18605
-0.11047
-0.17442
-0.28488
-0.34302
-0.19767
-0.24419
0.034884
-0.13953
-0.23256
-0.28488
-0.31395
-0.18605
-0.046512
0.14535
0.2093
0.16279
-0.069767
-0.28488
-0.41279
-0.18605
-0.14535
-0.05814
-0.1686
-0.25
-0.24419
-0.27907
-0.36628
-0.34884
-0.2093
-0.17442
-0.21512
-0.21512
-0.22093
-0.13953
0.040698
0.22674
0.26163
0.23256
0.087209
0.14535
0.081395
0.005814
-0.22093
-0.3314
-0.30814
-0.22093
-0.13372
-0.034884
0.05814
0.27907
0.19767
0.098837
-0.18605
-0.40698
-0.4186
-0.30233
-0.13372
0.017442
0.063953
0.13953
0.087209
0.27907
0.28488
0.18605
0.046512
-0.098837
-0.19186
-0.27326
-0.1686
-0.063953
-0.052326
-0.15116
-0.12209
0.005814
0.19767
0.23256
0.26744
0.21512
0.18605
0.21512
0.069767
-0.12209
-0.27326
-0.30233
-0.098837
-0.05814
0.011628
0.005814
0.040698
0.12209
0.14535
0.052326
-0.1686
-0.28488
-0.34884
-0.27907
0.087209
0.15698
0.11628
-0.15116
-0.3314
-0.32558
-0.36047
-0.39535
-0.31977
-0.20349
-0.16279
-0.11628
-0.17442
-0.12209
0.11047
0.13953
-0.02907
-0.22093
-0.48837
-0.61628
-0.70349
-0.56977
-0.43023
-0.43605
-0.52907
-0.48837
-0.30814
-0.15116
-0.034884
-0.087209
-0.27326
-0.48837
-0.55814
-0.52326
-0.25581
-0.13953
-0.005814
-0.05814
-0.046512
0.023256
-0.011628
-0.046512
-0.023256
-0.023256
-0.098837
0
-0.098837
-0.093023
-0.046512
-0.05814
0.22674
0.17442
0.093023
-0.098837
-0.36047
-0.35465
-0.27326
-0.23256
-0.17442
-0.087209
0.046512
0.1686
0.15698
0.11628
-0.05814
-0.20349
-0.25
-0.18023
-0.12791
-0.069767
0.17442
0.33721
0.36047
0.23256
0.052326
-0.10465
-0.23256
-0.30233
-0.36047
-0.24419
-0.093023
0.005814
0.034884
0.063953
0.034884
-0.069767
-0.22093
-0.2907
-0.098837
-0.15698
-0.1686
-0.3314
-0.45349
-0.43605
-0.37209
-0.35465
-0.13953
-0.081395
0.081395
0.075581
0.1686
0.19186
0.18605
0.18605
0.075581
0.20349
-0.046512
-0.25581
-0.43605
-0.48256
-0.44186
-0.40116
-0.3314
-0.2907
-0.23837
-0.11628
0.046512
-0.075581
-0.30814
-0.56977
-0.69186
-0.61628
-0.48837
-0.4186
-0.38953
-0.36628
-0.31395
-0.22674
-0.052326
0.046512
0.040698
-0.15116
-0.1686
-0.27326
-0.31977
-0.38953
-0.4186
-0.35465
-0.22674
-0.093023
-0.098837
-0.26163
-0.5
-0.60465
-0.41279
-0.19186
-0.017442
-0.052326
-0.16279
-0.33721
-0.27907
-0.19767
-0.14535
-0.15116
-0.2907
-0.38372
-0.47674
-0.48837
-0.38953
-0.40116
-0.27907
-0.26744
-0.23256
-0.25581
-0.18605
-0.12209
-0.023256
-0.13372
-0.4593
-0.6686
-0.59884
-0.44767
-0.39535
-0.35465
-0.12791
-0.02907
0.005814
-0.15116
-0.1686
-0.19186
-0.12209
0.011628
0.20349
0.1686
-0.011628
-0.24419
-0.31977
-0.14535
-0.052326
0.034884
-0.046512
-0.15698
-0.081395
-0.23256
-0.23837
-0.34884
-0.40698
-0.36628
-0.27326
-0.13372
0.15116
0.4186
0.33721
0.023256
-0.39535
-0.47674
-0.35465
-0.21512
-0.098837
-0.011628
-0.093023
-0.28488
-0.27907
-0.40698
-0.43605
-0.5407
-0.48256
-0.48256
-0.49419
-0.31977
-0.2907
-0.22093
-0.34302
-0.43023
-0.29651
-0.15698
-0.10465
-0.15116
-0.18023
-0.10465
0.034884
0.12791
0.24419
0.24419
0.21512
0.23837
0.063953
0.02907
-0.18605
-0.25
-0.19186
-0.18023
-0.22093
-0.31977
-0.40698
-0.43023
-0.35465
-0.1686
0.093023
0.47674
0.62791
0.76744
0.55814
0.59884
0.53488
0.59884
0.5
0.2907
0.098837
-0.13953
-0.20349
-0.12209
-0.12209
-0.15698
-0.11628
0.11628
0.13372
0.12209
-0.14535
-0.39535
-0.53488
-0.56977
-0.61628
-0.63372
-0.54651
-0.4186
-0.22093
-0.38372
-0.35465
-0.57558
-0.71512
-0.84302
-0.81977
-0.86047
-0.75
-0.79651
-0.84302
-0.73256
-0.6686
-0.68605
-0.76163
-0.93605
-0.76163
-0.63953
-0.48837
-0.51744
-0.55233
-0.5407
-0.47093
-0.33721
-0.25
-0.34302
-0.45349
-0.5
-0.50581
-0.35465
-0.25
-0.017442
-0.081395
-0.19186
-0.38372
-0.48837
-0.40116
-0.27326
-0.29651
-0.12791
-0.18023
-0.12209
-0.36628
-0.48256
-0.4186
-0.15698
-0.017442
0.02907
0.05814
-0.040698
-0.087209
-0.15698
0.098837
0.017442
0.034884
-0.05814
-0.33721
-0.36047
-0.37209
-0.28488
-0.19767
-0.1686
-0.23837
-0.31977
-0.26163
-0.19767
-0.2093
-0.13953
-0.1686
-0.19767
-0.31977
-0.47093
-0.43023
-0.25581
-0.23837
-0.093023
-0.23256
-0.27326
-0.35465
-0.2907
-0.22093
-0.081395
0.023256
-0.023256
-0.11047
-0.18605
-0.017442
0.046512
0.13953
0.040698
-0.10465
-0.20349
-0.18605
-0.16279
-0.15698
-0.15698
-0.093023
-0.075581
0.034884
-0.052326
0.16279
0.18023
0.20349
0.052326
-0.063953
-0.052326
0.11628
0.26163
0.18023
-0.040698
-0.17442
-0.22093
-0.36628
-0.28488
-0.36047
-0.28488
-0.16279
-0.069767
0
0.11047
0.040698
0.2093
0.081395
0.034884
0.11628
0.005814
0.05814
0.11047
0.13372
0.15116
0.069767
0.05814
0.034884
-0.034884
-0.05814
-0.040698
0.052326
0
-0.069767
-0.18023
-0.11628
0.12791
0.11047
-0.02907
-0.23837
-0.31395
-0.30233
-0.18023
0.052326
0.15116
0.33721
0.25
0.19767
0.023256
-0.16279
-0.17442
-0.087209
-0.12791
-0.31395
-0.40698
-0.54651
-0.49419
-0.35465
-0.15116
-0.081395
0.023256
-0.21512
-0.35465
-0.44186
-0.44186
-0.2907
-0.052326
0.32558
0.44767
0.34302
0.093023
-0.081395
-0.12791
-0.063953
0.040698
0.040698
0.017442
-0.13372
-0.22674
-0.27326
-0.37791
-0.34302
-0.13953
-0.15116
0.063953
-0.12209
-0.25
-0.47674
-0.35465
-0.18023
-0.14535
-0.25581
-0.38953
-0.23837
-0.046512
0.10465
0.063953
0.005814
0.13372
0.25
0.19767
-0.081395
-0.25
-0.25
-0.011628
0.23256
0.27326
0.13372
0.034884
0.081395
0.12209
0.093023
0.23837
0.10465
-0.011628
-0.27907
-0.22093
-0.005814
0.15698
0
-0.13953
-0.32558
-0.32558
-0.20349
-0.075581
0.011628
-0.02907
-0.11047
-0.26163
-0.2093
-0.2907
-0.3314
-0.37791
-0.25
0.098837
0.11047
-0.040698
-0.23256
-0.27326
-0.2093
-0.023256
0.24419
0.25
0.23837
0.011628
-0.005814
-0.1686
-0.19186
-0.17442
-0.093023
-0.15698
-0.43023
-0.73256
-0.73256
-0.56395
-0.29651
-0.30814
-0.35465
-0.4186
-0.37209
-0.25
-0.040698
0.30233
0.56977
0.5
0.20349
-0.31977
-0.49419
-0.2093
-0.081395
0.034884
-0.075581
-0.017442
-0.069767
-0.011628
-0.087209
-0.081395
0.15698
0.12791
0.19186
-0.10465
-0.23256
-0.27326
-0.2093
-0.22093
-0.11628
-0.075581
-0.16279
-0.18023
-0.22093
-0.25
-0.1686
-0.13372
-0.19767
-0.18023
-0.35465
-0.4186
-0.53488
-0.4593
-0.48837
-0.52326
-0.65698
-0.56977
-0.46512
-0.4593
-0.63953
-0.66279
-0.48837
-0.33721
-0.24419
-0.26744
-0.19767
-0.24419
-0.20349
-0.26744
-0.33721
-0.15116
-0.19767
-0.27326
-0.41279
-0.42442
-0.31395
-0.32558
-0.19767
-0.098837
0.11628
0.046512
-0.02907
-0.12791
-0.20349
-0.15698
-0.05814
0.093023
0.10465
0.29651
0.20349
0.023256
-0.11628
-0.1686
-0.12209
0.046512
0.10465
0.087209
-0.040698
-0.19186
-0.11628
-0.15116
0.005814
-0.12791
-0.22093
-0.40116
-0.31395
-0.28488
-0.22093
-0.22674
-0.18023
-0.098837
-0.034884
-0.063953
-0.098837
-0.22674
-0.34884
-0.3314
-0.15116
-0.034884
0.25581
0.27326
0.4186
0.44186
0.33721
0.22093
0.046512
0.11047
0.15698
0.052326
-0.046512
-0.12791
-0.11628
-0.13953
-0.18023
-0.23256
-0.1686
-0.098837
0.12791
0.12209
-0.046512
-0.22674
0.011628
0.023256
0.087209
-0.11628
-0.35465
-0.37791
-0.26744
-0.25581
-0.25581
-0.22093
-0.24419
-0.25581
-0.22093
-0.19186
-0.18605
-0.14535
-0.21512
-0.32558
-0.53488
-0.47093
-0.45349
-0.19186
-0.31977
-0.4186
-0.47093
-0.46512
-0.32558
-0.25
-0.29651
-0.40116
-0.19767
-0.11628
-0.02907
-0.1686
-0.22674
-0.24419
-0.15698
-0.16279
-0.19186
-0.22674
-0.25
-0.05814
-0.087209
-0.10465
-0.15116
-0.15698
-0.13372
-0.005814
0.02907
0.081395
-0.02907
-0.011628
-0.11628
-0.14535
-0.31395
-0.42442
-0.34302
-0.11047
0.1686
0.18023
0.046512
-0.22093
-0.38372
-0.25
-0.25581
-0.19767
-0.18023
-0.1686
-0.098837
-0.034884
-0.005814
0.052326
0.16279
0.046512
-0.14535
-0.15698
-0.017442
0.011628
0.005814
-0.02907
0.005814
0.046512
0.034884
0.069767
0.034884
0.011628
-0.05814
0.063953
-0.075581
-0.011628
-0.34884
-0.56977
-0.59884
-0.4593
-0.21512
-0.11628
-0.13372
-0.17442
-0.33721
-0.38372
-0.38953
-0.36628
-0.24419
-0.11047
0.063953
0.2093
0.43023
0.57558
0.48837
0.16279
-0.046512
-0.24419
-0.34884
-0.52326
-0.62791
-0.52907
-0.38953
-0.25
-0.2093
-0.23837
-0.22093
-0.11047
-0.046512
-0.12791
-0.2093
-0.011628
0.23256
0.18605
-0.052326
-0.48837
-0.61047
-0.34884
-0.18605
-0.17442
-0.27907
-0.31977
-0.30233
-0.22674
-0.05814
-0.05814
-0.11047
-0.27907
-0.44767
-0.59302
-0.47674
-0.44767
-0.37209
-0.31977
-0.18605
0.087209
0.23837
0.16279
0.15116
0.011628
-0.063953
-0.28488
-0.46512
-0.56395
-0.51163
-0.37209
-0.25581
-0.24419
-0.36047
-0.41279
-0.26163
-0.011628
0.33721
0.42442
0.25581
0.15116
0.05814
0.046512
0.087209
0.093023
0.023256
-0.017442
0.081395
0.023256
0.02907
-0.040698
0.34302
0.60465
0.97674
0.86047
0.62791
0.37791
0.12209
-0.069767
-0.26163
-0.41279
-0.38953
-0.33721
-0.26744
-0.24419
-0.087209
0.081395
0.081395
-0.040698
-0.25581
-0.41279
-0.38953
-0.30233
0.046512
0.12791
0.046512
-0.30814
-0.69767
-0.65116
-0.47093
-0.38953
-0.30814
-0.24419
-0.093023
-0.11628
-0.22674
-0.18023
-0.27326
-0.10465
-0.2093
-0.34884
-0.52326
-0.54651
-0.4593
-0.44186
-0.42442
-0.2907
-0.34884
-0.36628
-0.4593
-0.47674
-0.3314
-0.15698
0.25581
0.55233
0.35465
0.046512
-0.41279
-0.34884
-0.10465
0.081395
0.15698
0.27326
0.19767
0.12209
-0.075581
-0.24419
-0.034884
0.12791
-0.034884
-0.25581
-0.73256
-0.88953
-0.78488
-0.43605
-0.15698
-0.069767
0.05814
-0.052326
-0.063953
-0.11047
-0.02907
0.12209
0.023256
0.046512
-0.25
-0.37209
-0.48256
-0.51744
-0.49419
-0.23837
0.27907
0.34884
0.21512
-0.22093
-0.27907
0.063953
0.24419
0.31977
0.10465
-0.093023
-0.18605
-0.18023
-0.15698
0.11047
0.13372
-0.023256
-0.43023
-0.5814
-0.55814
-0.51744
-0.50581
-0.47093
-0.35465
-0.2907
-0.34884
-0.48837
-0.5
-0.40116
-0.15116
-0.13953
0.017442
0.12791
0.046512
-0.05814
-0.33721
-0.44186
-0.26744
-0.098837
0.19186
0.30814
0.36047
0.22674
0.11047
-0.017442
-0.098837
0.13953
0.29651
0.39535
0.23837
0.005814
-0.11047
-0.18605
-0.098837
-0.081395
-0.063953
-0.093023
0
0.017442
0.081395
0.023256
-0.081395
-0.02907
-0.052326
-0.023256
-0.14535
0.16279
0.10465
0.10465
-0.33721
-0.71512
-0.72674
-0.56977
-0.46512
-0.42442
-0.34302
-0.44767
-0.45349
-0.43605
-0.39535
-0.31977
-0.31395
-0.42442
-0.43023
-0.24419
-0.12209
-0.15116
-0.14535
-0.23256
-0.22674
-0.29651
-0.38372
-0.27907
-0.10465
-0.075581
-0.15116
-0.36628
-0.56977
-0.63953
-0.64535
-0.45349
-0.34884
-0.15698
0.19767
0.011628
-0.14535
-0.62791
-0.93605
-0.77907
-0.47674
-0.22674
-0.063953
-0.034884
-0.023256
-0.098837
-0.23837
-0.26744
-0.081395
-0.05814
0.05814
0.052326
-0.1686
-0.23837
-0.27907
-0.30233
-0.075581
-0.017442
0.023256
-0.11628
-0.29651
-0.38953
-0.47674
-0.37209
-0.20349
-0.10465
-0.093023
-0.05814
0.23256
0.18605
0.21512
0.13953
0.063953
0.034884
-0.19186
-0.43605
-0.70349
-0.69186
-0.60465
-0.49419
-0.45349
-0.40698
-0.36628
-0.24419
-0.25581
-0.18023
-0.093023
-0.02907
-0.02907
-0.21512
-0.44767
-0.52326
-0.44186
-0.37791
-0.31395
-0.087209
-0.02907
-0.011628
-0.1686
-0.26744
-0.27326
-0.20349
0.02907
0.063953
-0.017442
-0.19186
-0.31977
-0.13953
-0.069767
0.005814
0.069767
-0.02907
0.011628
-0.14535
-0.36047
-0.50581
-0.43023
-0.40116
-0.34884
-0.37791
-0.15698
-0.023256
0.069767
-0.034884
-0.18605
-0.22093
-0.1686
-0.087209
-0.040698
0.02907
0.31395
0.34884
0.46512
0.15116
-0.093023
-0.27326
-0.27907
-0.18023
-0.040698
0.12209
0.28488
0.26163
0.093023
-0.034884
-0.063953
-0.063953
-0.16279
-0.023256
-0.02907
-0.063953
-0.11047
-0.22674
-0.19186
-0.098837
-0.2093
-0.087209
-0.2093
-0.2093
-0.23256
-0.31977
-0.34884
-0.1686
-0.081395
-0.040698
-0.12791
-0.22093
-0.2907
-0.37791
-0.38953
-0.39535
-0.34884
-0.22093
0.10465
0.11047
-0.023256
-0.35465
-0.59302
-0.56977
-0.38953
0.034884
0.29651
0.25
0.098837
-0.05814
-0.017442
0.087209
0.14535
0.093023
0.052326
-0.075581
-0.2093
-0.28488
-0.31395
-0.24419
-0.098837
0.13953
0.18023
0.087209
-0.22093
-0.37791
-0.37791
-0.38953
-0.3314
-0.13372
0.26744
0.32558
0.14535
-0.19767
-0.51744
-0.5407
-0.42442
-0.38953
-0.4186
-0.43023
-0.4186
-0.40116
-0.31395
-0.21512
-0.18605
-0.27907
-0.44767
-0.55233
-0.62209
-0.56977
-0.25
-0.087209
-0.052326
-0.052326
-0.17442
-0.18023
-0.19186
-0.19186
-0.2093
-0.098837
-0.11047
-0.12209
-0.21512
-0.36047
-0.41279
-0.47093
-0.47093
-0.59884
-0.73837
-0.79651
-0.68605
-0.43605
-0.4186
-0.53488
-0.64535
-0.66279
-0.53488
-0.30233
0
0.16279
0.28488
0.063953
-0.27907
-0.68023
-0.90698
-0.84884
-0.70349
-0.48256
-0.28488
-0.1686
0.046512
-0.052326
-0.13372
-0.4593
-0.68023
-0.6686
-0.42442
-0.41279
-0.38372
-0.51744
-0.64535
-0.56977
-0.32558
-0.10465
-0.034884
-0.052326
-0.093023
-0.046512
0.023256
0.017442
-0.046512
-0.11628
0.081395
0.14535
0.081395
-0.13953
-0.3314
-0.19767
-0.1686
-0.081395
-0.11047
-0.12209
0.11628
0.069767
0.081395
-0.046512
-0.19767
-0.31977
-0.4186
-0.38372
-0.26163
-0.15698
-0.12791
-0.075581
-0.052326
0.02907
0.063953
0.19767
0.20349
0.12209
0
-0.14535
-0.23837
-0.075581
-0.040698
0.10465
0.034884
-0.081395
-0.24419
-0.30233
-0.23837
-0.02907
0.034884
0.15698
0.34302
0.34302
0.2093
-0.063953
-0.23837
-0.27326
-0.069767
0.13372
0.24419
0.20349
0.05814
-0.093023
-0.24419
-0.37791
-0.40116
-0.11047
-0.19767
-0.23837
-0.41279
-0.38953
-0.18023
-0.069767
0.023256
-0.075581
-0.13953
-0.28488
-0.40116
-0.4186
-0.38953
-0.40698
-0.36628
-0.26163
-0.17442
-0.16279
-0.16279
-0.12209
-0.13372
-0.15116
-0.15698
-0.15698
-0.11628
-0.087209
-0.10465
-0.19767
-0.33721
-0.19767
-0.16279
-0.12791
-0.21512
-0.3314
-0.16279
-0.052326
0.17442
0.23837
0.13372
-0.017442
-0.19767
-0.40116
-0.33721
-0.26744
-0.19767
-0.13372
-0.10465
0.034884
0.063953
0.087209
0.087209
0.12209
0.15698
0.10465
0.052326
-0.063953
-0.040698
0.05814
0.2907
0.26163
0.14535
-0.052326
0.098837
0.13372
0.23256
-0.017442
-0.30814
-0.34302
-0.28488
-0.22093
-0.19186
-0.052326
0.011628
0.098837
0.12791
0.052326
-0.02907
-0.087209
-0.023256
0.046512
0.052326
0.05814
-0.087209
-0.18023
-0.14535
-0.1686
-0.20349
-0.24419
-0.40116
-0.40698
-0.53488
-0.61628
-0.51744
-0.18023
-0.034884
0.15116
0.017442
-0.22093
-0.40116
-0.43023
-0.40116
-0.32558
-0.31395
-0.36628
-0.43023
-0.44186
-0.093023
-0.12791
-0.20349
-0.43605
-0.57558
-0.48837
-0.23256
-0.05814
-0.005814
-0.046512
-0.22674
-0.37209
-0.45349
-0.47674
-0.44767
-0.41279
-0.41279
-0.24419
0.017442
0.18023
0.13372
-0.081395
-0.30814
-0.27326
-0.087209
0.017442
0.017442
0.13953
0.11628
0.10465
0.040698
-0.046512
-0.093023
-0.17442
-0.22674
0.040698
0.040698
0.26744
0.24419
0.16279
0.081395
-0.023256
0.02907
0.087209
0.040698
-0.075581
-0.26163
-0.27907
-0.18605
0.011628
0.081395
0.063953
0.052326
0.02907
0.15116
0.26163
0.40698
0.32558
0.16279
-0.052326
-0.18605
-0.12791
0.052326
0.15116
0.15116
-0.023256
-0.18605
-0.25
-0.14535
-0.052326
-0.040698
-0.14535
-0.15116
-0.13953
-0.19767
-0.13953
-0.26163
-0.12791
-0.40116
-0.57558
-0.82558
-0.89535
-0.78488
-0.60465
-0.47093
-0.37791
-0.37209
-0.44767
-0.56977
-0.55233
-0.36047
-0.15116
-0.18023
-0.27326
-0.37791
-0.36628
-0.25
-0.21512
-0.26744
-0.4186
-0.46512
-0.43023
-0.36047
-0.26744
-0.26163
-0.32558
-0.39535
-0.21512
-0.11047
-0.15698
-0.27907
-0.23837
-0.18023
-0.13953
-0.13953
-0.034884
-0.087209
-0.1686
-0.31395
-0.48256
-0.43605
-0.4186
-0.48837
-0.61047
-0.76163
-0.76744
-0.75581
-0.70349
-0.43605
-0.15698
-0.10465
-0.23256
-0.38372
-0.44767
-0.35465
-0.37209
-0.28488
-0.24419
-0.10465
-0.19767
-0.27907
-0.30814
-0.19767
-0.12209
-0.1686
-0.20349
-0.12791
0.023256
-0.011628
-0.075581
-0.2093
-0.32558
-0.30814
-0.37209
-0.44186
-0.44186
-0.2093
-0.023256
-0.02907
-0.075581
-0.20349
-0.2093
-0.18023
-0.18023
-0.14535
-0.18023
-0.081395
-0.011628
-0.023256
-0.063953
-0.19186
-0.28488
-0.13372
0.063953
-0.011628
-0.13372
-0.35465
-0.26744
-0.18605
-0.15698
-0.21512
-0.25581
-0.30814
-0.31977
-0.3314
-0.20349
-0.25
-0.25
-0.34302
-0.40116
-0.31395
-0.14535
-0.081395
-0.023256
0.11047
0.13372
0.13372
0.15116
-0.05814
-0.10465
-0.22093
-0.21512
-0.14535
-0.13953
-0.10465
-0.093023
-0.040698
-0.13372
-0.17442
-0.27326
-0.25581
-0.093023
0.093023
0.19767
0.13372
0.05814
0.081395
0.16279
0.45349
0.47093
0.40116
0.32558
0.22093
0.14535
-0.011628
-0.02907
0.063953
0.29651
0.29651
0.32558
0.16279
-0.011628
-0.05814
-0.081395
-0.046512
0.023256
0.13372
0.20349
0.36628
0.68023
0.70349
0.55814
0.37209
0.15116
0.14535
0.040698
-0.081395
-0.17442
-0.075581
0.11047
0.22093
0.23256
0.13372
0.093023
0.063953
0
-0.098837
-0.15698
-0.27326
-0.33721
-0.28488
-0.17442
-0.25581
-0.28488
-0.36047
-0.38953
-0.35465
-0.44767
-0.40698
-0.36047
-0.29651
-0.19767
-0.23837
-0.25
-0.22674
-0.17442
-0.1686
-0.16279
-0.17442
-0.098837
0.069767
0.20349
0.26163
0.44767
0.53488
0.54651
0.25581
-0.15116
-0.34884
-0.37209
-0.4186
-0.36628
-0.32558
-0.22674
0.081395
0.081395
0.10465
-0.1686
-0.31977
-0.34302
-0.32558
-0.25581
-0.040698
0.12209
0.26163
0.19767
-0.046512
-0.36047
-0.48256
-0.43023
-0.37209
-0.23837
-0.12209
0
-0.011628
-0.081395
-0.16279
-0.28488
-0.34884
-0.4186
-0.38953
-0.22093
-0.12209
0.14535
0.23256
0.10465
-0.075581
-0.40698
-0.47674
-0.40698
-0.32558
-0.23256
-0.16279
-0.11047
-0.087209
-0.16279
-0.087209
-0.011628
-0.005814
0.023256
0.081395
0.25
0.33721
0.5407
0.40116
0.23837
0.13372
0.069767
0.19186
0.22674
0.15116
0.017442
-0.05814
-0.052326
0.063953
0.093023
0.02907
0.023256
0.12209
0.12791
0.093023
0.005814
0.05814
0.023256
0.34884
0.62209
0.39535
0.15698
-0.36047
-0.63953
-0.54651
-0.35465
-0.19767
-0.11628
-0.18605
-0.16279
-0.20349
-0.24419
-0.24419
-0.069767
-0.017442
-0.12209
-0.35465
-0.56395
-0.36047
-0.23256
-0.2093
-0.24419
-0.30814
-0.2907
-0.4186
-0.48837
-0.46512
-0.3314
-0.38372
-0.44186
-0.35465
-0.48256
-0.41279
-0.42442
-0.38372
-0.2907
-0.19186
-0.005814
-0.069767
-0.093023
-0.2093
-0.23837
-0.23256
-0.18605
-0.38372
-0.55814
-0.68605
-0.65116
-0.41279
-0.41279
-0.40116
-0.45349
-0.4186
-0.36628
-0.40116
-0.43605
-0.34302
-0.12209
0.14535
0.069767
-0.11628
-0.40116
-0.47674
-0.43023
-0.1686
-0.21512
-0.29651
-0.33721
-0.13953
-0.02907
-0.034884
-0.24419
-0.31395
-0.33721
-0.37791
-0.3314
-0.3314
-0.34884
-0.30814
-0.34884
-0.18023
-0.023256
0.3314
0.05814
-0.18023
-0.48256
-0.65698
-0.61047
-0.66279
-0.69767
-0.5814
-0.12791
0.19767
0.39535
0.41279
0.36047
0.32558
0.093023
-0.17442
-0.13372
-0.1686
-0.19767
-0.34302
-0.26744
0.087209
0.38372
0.49419
0.3314
0.005814
-0.069767
-0.075581
-0.30233
-0.54651
-0.75
-0.61047
-0.34302
-0.023256
0.15698
0.5407
0.65116
0.69186
0.34884
0.087209
-0.040698
-0.011628
-0.13372
-0.21512
-0.22674
-0.034884
-0.075581
-0.069767
-0.26744
-0.3314
-0.33721
-0.29651
-0.31395
-0.39535
-0.48256
-0.60465
-0.48256
-0.37209
-0.15698
-0.13372
-0.087209
0.18605
0.22674
0.052326
-0.25
-0.42442
-0.45349
-0.27907
-0.22674
-0.19767
-0.22093
-0.26744
-0.23256
-0.011628
-0.063953
0.011628
0.034884
0.13953
0.21512
0.063953
-0.25581
-0.37791
-0.21512
0.02907
0.069767
0.052326
-0.13372
-0.16279
-0.14535
0.005814
-0.1686
-0.37209
-0.5407
-0.56395
-0.42442
-0.19186
-0.034884
0.18023
0.069767
-0.005814
-0.098837
-0.30814
-0.34884
-0.40698
-0.34884
-0.20349
0.19767
0.24419
0.17442
-0.063953
-0.18023
-0.14535
-0.13953
-0.12209
-0.040698
0.063953
0.23256
0.21512
0.22093
0.23256
0.075581
-0.16279
-0.5407
-0.63953
-0.51744
-0.40698
-0.18023
-0.093023
-0.046512
-0.16279
-0.26163
-0.16279
-0.093023
0.18605
0.20349
0.22674
-0.023256
-0.21512
-0.30233
-0.30814
-0.14535
-0.14535
-0.16279
-0.27326
-0.22093
-0.18605
-0.25
-0.31395
-0.33721
-0.3314
-0.25581
-0.034884
0.20349
-0.011628
-0.29651
-0.45349
-0.23837
0.069767
0.20349
0.1686
0.36047
0.31977
0.27326
0.034884
-0.12791
0.02907
0.087209
0.02907
-0.12791
-0.19767
-0.11047
0
0.034884
-0.081395
-0.26744
-0.19186
-0.16279
-0.15698
-0.25581
-0.3314
-0.19186
0.040698
0.10465
0.017442
-0.26163
-0.3314
-0.12209
0.005814
0.046512
-0.046512
0.034884
0.069767
0.040698
-0.075581
-0.20349
-0.10465
0.017442
0.046512
-0.05814
-0.23256
-0.18605
-0.15116
-0.23256
-0.39535
-0.48256
-0.44186
-0.29651
-0.16279
-0.05814
-0.063953
-0.069767
-0.12791
-0.15698
-0.10465
0.11628
0.38953
0.43605
0.51744
0.18023
-0.011628
-0.23256
-0.2907
-0.23256
-0.23256
-0.1686
-0.093023
0.075581
0.10465
0.093023
-0.087209
-0.30814
-0.41279
-0.37791
-0.26163
0.075581
0.034884
-0.075581
-0.30814
-0.34884
-0.31395
-0.36628
-0.38372
-0.38953
-0.35465
-0.26163
-0.063953
0.005814
-0.087209
-0.27907
-0.21512
-0.26744
-0.18023
-0.19767
-0.23837
-0.12791
-0.011628
-0.034884
-0.19186
-0.36628
-0.22674
-0.052326
0.10465
0.02907
-0.05814
-0.1686
-0.10465
0.069767
0.005814
-0.15116
-0.41279
-0.48256
-0.51163
-0.44767
-0.33721
-0.18023
-0.011628
0.15698
0.44186
0.42442
0.2093
-0.15698
-0.4593
-0.47674
-0.25
-0.05814
0.011628
0.17442
0.017442
-0.063953
-0.12791
-0.093023
0.046512
0.18023
0.25
0.24419
0.31395
0.10465
-0.21512
-0.56977
-0.87209
-0.93605
-0.78488
-0.65698
-0.5
-0.2907
-0.2907
-0.38372
-0.55233
-0.55233
-0.52326
-0.50581
-0.46512
-0.40698
-0.49419
-0.50581
-0.44767
-0.44767
-0.20349
-0.22093
-0.11628
0.063953
0.10465
0.25
0.13372
0.005814
-0.063953
-0.098837
0.069767
0.063953
0.093023
-0.087209
-0.098837
-0.15116
-0.1686
-0.17442
-0.052326
0.19767
0.38953
0.48256
0.5407
0.3314
-0.052326
-0.47093
-0.59884
-0.60465
-0.59884
-0.59884
-0.56977
-0.18605
0.20349
0.41279
0.36047
0.18023
0.10465
0.034884
-0.2093
-0.4593
-0.7093
-0.7907
-0.55814
-0.34884
-0.12791
-0.005814
0.19767
0.43023
0.56977
0.5814
0.60465
0.70349
0.7907
1
0.86047
0.60465
0.22674
0.02907
-0.011628
0.052326
0.19186
0.2093
0.27907
0.063953
0.011628
-0.023256
0.16279
0.36047
0.36047
0.18023
0.011628
0.011628
-0.098837
-0.20349
-0.36628
-0.39535
-0.32558
-0.063953
0.017442
0.25
0.24419
0.26163
0.2093
0.046512
-0.023256
-0.13372
-0.28488
-0.34884
-0.30814
-0.27326
-0.23837
-0.16279
-0.18605
-0.23256
-0.28488
-0.19767
-0.10465
0.093023
0.23256
0.29651
-0.046512
-0.38372
-0.61047
-0.61047
-0.63372
-0.61628
-0.63953
-0.62791
-0.61047
-0.5814
-0.49419
-0.51744
-0.47674
-0.54651
-0.55233
-0.46512
-0.43605
-0.44767
-0.57558
-0.51163
-0.20349
-0.20349
-0.30814
-0.51163
-0.70349
-0.64535
-0.58721
-0.61628
-0.63372
-0.45349
-0.26163
-0.017442
-0.11047
-0.24419
-0.42442
-0.52326
-0.4593
-0.37209
-0.4186
-0.47093
-0.46512
-0.37791
-0.26163
-0.18023
-0.14535
-0.22093
-0.25581
-0.26744
-0.24419
-0.15698
0.005814
0.052326
-0.02907
-0.13953
0.034884
-0.005814
-0.034884
-0.075581
-0.02907
0.075581
0.12209
0.011628
-0.046512
-0.13372
-0.19186
-0.26744
-0.30814
-0.36628
-0.32558
-0.19767
-0.017442
0.37209
0.48837
0.28488
-0.093023
-0.37791
-0.34302
-0.18605
0.12209
0.25581
0.25581
0.046512
-0.23256
-0.36628
-0.36047
-0.30814
-0.10465
-0.11047
-0.040698
-0.22674
-0.47674
-0.63372
-0.52907
-0.32558
-0.21512
-0.19186
-0.11628
-0.11628
-0.075581
0.16279
0.19767
0.18605
-0.023256
-0.27326
-0.40698
-0.39535
-0.2093
-0.24419
-0.28488
-0.37209
-0.38372
-0.20349
-0.26744
-0.36628
-0.55814
-0.63953
-0.43605
-0.17442
-0.12791
-0.18023
-0.30233
-0.18605
-0.12209
-0.05814
-0.17442
-0.26163
-0.25581
-0.25581
-0.22674
-0.069767
-0.05814
-0.081395
-0.2907
-0.37791
-0.30814
-0.052326
-0.011628
0.034884
0.11047
-0.05814
-0.22093
-0.5
-0.67442
-0.62791
-0.48256
-0.4593
-0.37791
-0.38953
-0.2907
-0.25
-0.12791
-0.11047
-0.11047
-0.18605
-0.22093
0.063953
0.12209
0.081395
-0.13372
-0.30814
-0.2093
-0.046512
0.05814
0.052326
0.017442
0.075581
0.05814
0.10465
0.19186
0.21512
0.087209
-0.075581
-0.11047
-0.052326
-0.05814
-0.12791
-0.16279
-0.19186
-0.05814
0.23837
0.45349
0.47093
0.52907
0.29651
0.19186
0.31977
0.26163
0.32558
0.10465
-0.069767
-0.081395
-0.063953
-0.069767
-0.13372
-0.098837
-0.005814
0.093023
0.22093
0.14535
0.052326
-0.040698
-0.13953
-0.063953
-0.02907
0.069767
0.2093
0.22093
0.3314
0.31395
0.24419
0.19186
0.063953
-0.052326
-0.011628
0.17442
0.32558
0.40116
0.27907
0.081395
-0.023256
-0.011628
0.034884
-0.023256
-0.20349
-0.25581
-0.36628
-0.31395
-0.38953
-0.34302
-0.44186
-0.39535
-0.20349
-0.11628
-0.12791
-0.26163
-0.26163
0.052326
0.2093
0.23256
-0.052326
-0.38372
-0.15698
