-0.28736
-0.33793
-0.1954
-0.016092
0.13563
0.13563
0.043678
-0.085057
-0.16782
-0.2046
-0.17701
-0.15402
-0.18161
-0.11724
-0.11724
-0.08046
-0.08046
-0.071264
-0.13563
-0.18161
-0.13103
-0.043678
0.03908
0.085057
0.062069
0.016092
-0.094253
-0.10345
-0.085057
-0.016092
0.085057
0.2046
0.27816
0.31034
0.44368
0.42989
0.36092
0.23678
0.15862
0.13103
0.14483
0.17701
0.14483
0.08046
0.0068966
0.02069
0.066667
0.17701
0.26437
0.36552
0.46207
0.51264
0.52644
0.45287
0.38851
0.32874
0.26437
0.2092
0.18161
0.13103
0.034483
-0.057471
-0.048276
0.0068966
0.048276
0.13103
0.16782
0.2
0.22299
0.24138
0.25517
0.26437
0.27816
0.28736
0.26437
0.27356
0.29195
0.25977
0.17701
0.14483
0.10345
0.071264
0.12644
0.23218
0.36092
0.47586
0.51724
0.45287
0.33793
0.27356
0.23678
0.14023
0.066667
-0.011494
-0.03908
-0.011494
0.10345
0.25517
0.32414
0.31494
0.25977
0.21839
0.23218
0.27816
0.31954
0.26437
0.22759
0.2
0.2046
0.21839
0.18621
0.1908
0.14943
0.22299
0.41609
0.5954
0.66897
0.6092
0.46207
0.28736
0.24138
0.26437
0.36092
0.44368
0.51264
0.50345
0.42529
0.33793
0.30115
0.26437
0.17701
0.085057
0.048276
-0.0068966
-0.0022989
0.029885
0.062069
0.13563
0.2046
0.1908
0.10345
-0.0022989
-0.062069
-0.066667
-0.066667
-0.0022989
0.066667
0.071264
-0.016092
-0.08046
-0.11724
-0.11724
-0.13103
-0.10345
-0.15862
-0.18161
-0.1954
-0.14023
-0.089655
-0.089655
-0.085057
-0.11264
-0.23218
-0.31954
-0.37471
-0.33333
-0.23218
-0.094253
-0.03908
-0.048276
-0.075862
-0.12184
-0.2
-0.24138
-0.2092
-0.15862
-0.14023
-0.11264
-0.029885
0.029885
0.098851
0.075862
-0.0022989
-0.10805
-0.14023
-0.12644
-0.14943
-0.16782
-0.1954
-0.21839
-0.2
-0.16782
-0.098851
-0.075862
0.02069
0.1954
0.34713
0.38851
0.35632
0.28276
0.23678
0.2046
0.2092
0.13563
0.03908
0.057471
0.13563
0.25517
0.37011
0.43908
0.35632
0.14023
-0.052874
-0.2092
-0.22299
-0.098851
0.025287
0.08046
0.025287
-0.02069
-0.094253
-0.14483
-0.1908
-0.17241
-0.13563
-0.085057
-0.02069
-0.098851
-0.15862
-0.18621
-0.048276
0.14943
0.36552
0.51724
0.53103
0.43448
0.26437
0.16322
0.14943
0.15402
0.2046
0.2046
0.1908
0.15862
0.089655
-0.029885
-0.057471
-0.043678
0.0068966
0.02069
-0.0022989
-0.0022989
-0.016092
0.034483
0.08046
0.13563
0.15402
0.2
0.22759
0.1954
0.075862
-0.085057
-0.21839
-0.26897
-0.16322
-0.071264
0.016092
0.016092
0.0022989
-0.0022989
0.011494
0.066667
0.066667
0.052874
-0.029885
-0.03908
-0.052874
-0.011494
0.062069
0.10805
0.13563
0.13103
0.13563
0.11724
0.085057
0.08046
0.075862
0.089655
0.098851
0.10345
-0.02069
-0.12184
-0.14023
-0.043678
0.13563
0.27356
0.26897
0.12644
-0.048276
-0.10805
-0.085057
-0.011494
0.08046
0.18161
0.25977
0.31954
0.31954
0.27356
0.14023
0.0068966
-0.048276
-0.052874
0.043678
0.13103
0.17241
0.11264
0.02069
-0.066667
-0.10805
-0.052874
0.016092
0.052874
0.016092
0.011494
0.034483
0.062069
0.057471
0.057471
0.016092
-0.029885
-0.052874
-0.10345
-0.094253
-0.048276
0.02069
0.062069
0.025287
0.0068966
-0.13103
-0.22299
-0.17701
-0.0022989
0.21379
0.34713
0.4069
0.31034
0.10345
-0.14483
-0.35632
-0.44368
-0.34713
-0.12644
0.057471
0.15402
0.16782
0.16782
0.14023
0.048276
-0.043678
-0.16782
-0.2092
-0.16322
-0.0068966
0.14483
0.26897
0.37931
0.43908
0.37011
0.29195
0.15402
-0.016092
-0.10805
-0.12184
-0.057471
0.025287
0.08046
0.14483
0.10345
0.089655
0.062069
0.071264
0.052874
0.066667
0.02069
-0.048276
-0.085057
-0.052874
-0.034483
-0.029885
-0.052874
-0.043678
0.029885
0.18161
0.31034
0.31494
0.21379
0.13563
0.13103
0.16782
0.18621
0.22299
0.2
0.14483
0.08046
-0.011494
-0.089655
-0.12184
-0.034483
0.048276
0.15862
0.27816
0.38391
0.52184
0.66437
0.72874
0.62299
0.45287
0.25977
0.12184
0.03908
0.011494
-0.0022989
-0.085057
-0.1908
-0.23218
-0.18161
-0.071264
0.11264
0.21839
0.23678
0.21379
0.18161
0.13563
0.048276
0.0022989
-0.048276
-0.13103
-0.08046
0.029885
0.21379
0.34253
0.42989
0.3931
0.27816
0.14023
0.03908
-0.075862
-0.29195
-0.49425
-0.73793
-0.93563
-1
-0.89885
-0.63218
-0.36552
-0.12644
-0.011494
0.048276
0.089655
0.13563
0.18621
0.23218
0.22759
0.10805
-0.12184
-0.33333
-0.3931
-0.32874
-0.18621
-0.029885
0.02069
0.0022989
0.011494
0.11264
0.2
0.30115
0.28736
0.21379
0.11724
-0.016092
-0.13103
-0.28736
-0.37471
-0.43448
-0.46667
-0.43448
-0.31954
-0.13103
-0.029885
0.066667
0.11724
0.16782
0.17701
0.17701
0.15402
0.14023
0.098851
0.18161
0.2046
0.22759
0.2046
0.21379
0.24138
0.31494
0.42989
0.48046
0.42069
0.34253
0.24138
0.14023
0.11724
0.089655
0.062069
0.03908
0.016092
0.0022989
-0.016092
-0.02069
0.029885
0.12184
0.1954
0.25517
0.24598
0.17701
0.12644
0.15402
0.27356
0.38391
0.48046
0.42529
0.25517
0.094253
0.0068966
0.029885
0.12184
0.25057
0.29655
0.31494
0.33793
0.3977
0.42989
0.41149
0.37931
0.35172
0.31034
0.25057
0.2
0.085057
0.03908
0.011494
0.034483
0.13563
0.31494
0.54023
0.65057
0.67356
0.58161
0.44828
0.31034
0.26437
0.26437
0.23218
0.21379
0.1954
0.23218
0.27816
0.37011
0.42529
0.41609
0.36092
0.28276
0.25517
0.25517
0.32414
0.33333
0.31954
0.21839
0.15862
0.071264
-0.0022989
0.0022989
0.043678
0.15862
0.27816
0.4069
0.44368
0.36552
0.24598
0.075862
-0.085057
-0.24138
-0.29655
-0.31494
-0.24598
-0.08046
0.075862
0.2046
0.18621
0.12184
-0.016092
-0.066667
0.016092
0.11724
0.18161
0.22299
0.21839
0.12644
-0.02069
-0.17241
-0.27356
-0.30575
-0.23678
-0.098851
-0.0022989
0.034483
-0.025287
-0.11264
-0.17241
-0.17701
-0.15862
-0.21839
-0.25517
-0.24138
-0.17701
-0.12644
-0.11724
-0.15862
-0.2092
-0.22759
-0.14483
-0.025287
0.052874
0.098851
0.11264
0.098851
0.12644
0.2046
0.25517
0.27816
0.31494
0.31954
0.31034
0.28276
0.22759
0.2046
0.22759
0.32874
0.36552
0.36092
0.31034
0.30575
0.34253
0.47126
0.61379
0.65057
0.57701
0.42529
0.28736
0.15862
0.13103
0.16782
0.22759
0.31494
0.42529
0.57241
0.62759
0.5908
0.47586
0.26437
0.066667
-0.034483
-0.029885
0.011494
0.14023
0.24138
0.36092
0.42989
0.44368
0.44828
0.4069
0.3931
0.37471
0.28736
0.15862
0.094253
0.10345
0.21839
0.30115
0.33793
0.25517
0.098851
-0.011494
-0.071264
-0.062069
0.011494
0.14943
0.26897
0.32414
0.36092
0.34713
0.29655
0.24138
0.18621
0.085057
0.089655
0.12184
0.10805
0.057471
0.029885
0.011494
-0.0022989
-0.034483
-0.025287
-0.025287
-0.029885
-0.057471
-0.043678
-0.057471
-0.011494
0.03908
0.0022989
-0.12184
-0.25517
-0.36092
-0.43908
-0.45287
-0.42529
-0.34713
-0.25517
-0.13563
-0.029885
-0.0068966
-0.011494
-0.025287
-0.025287
-0.048276
-0.03908
0.016092
0.034483
0.034483
-0.0022989
-0.062069
-0.066667
-0.043678
-0.0068966
0.025287
0.048276
0.075862
0.066667
0.011494
0.02069
-0.0068966
-0.062069
-0.17701
-0.23678
-0.24138
-0.18621
-0.094253
-0.048276
-0.034483
-0.0022989
0.085057
0.12184
0.089655
0.0068966
-0.089655
-0.11264
-0.052874
0.0068966
0.029885
0.043678
0.10345
0.13563
0.1954
0.22299
0.23678
0.2046
0.17241
0.15402
0.085057
-0.011494
-0.062069
-0.02069
0.048276
0.2
0.30115
0.28736
0.16782
-0.02069
-0.094253
-0.14943
-0.13103
-0.13103
-0.15402
-0.18621
-0.18161
-0.08046
-0.011494
0.025287
0.011494
-0.048276
-0.085057
-0.062069
0.025287
0.094253
0.12644
0.13563
0.085057
0.02069
-0.016092
0.0022989
0.02069
0.034483
0.034483
-0.029885
-0.089655
-0.10345
-0.071264
-0.025287
0.052874
0.17241
0.24598
0.25977
0.25057
0.13563
0.062069
-0.066667
-0.2046
-0.34713
-0.4069
-0.29195
-0.11264
0.098851
0.1954
0.30575
0.34713
0.36092
0.34713
0.25057
0.11264
0.0022989
-0.0068966
0.016092
0.066667
0.085057
0.02069
-0.089655
-0.15402
-0.10345
-0.02069
0.11264
0.2046
0.18621
0.12184
0.052874
0.03908
-0.048276
-0.08046
-0.12644
-0.13563
-0.15402
-0.24598
-0.28736
-0.36092
-0.32874
-0.22299
-0.062069
0.12184
0.26437
0.41149
0.46207
0.43908
0.35632
0.26897
0.12644
0.062069
0.011494
-0.057471
-0.02069
-0.011494
-0.03908
-0.08046
-0.062069
-0.0022989
0.043678
0.071264
0.085057
0.057471
0.10345
0.18161
0.22759
0.22759
0.11724
-0.016092
-0.12184
-0.14943
-0.062069
0.052874
0.15862
0.25517
0.36552
0.42069
0.45287
0.48046
0.45287
0.42989
0.38851
0.28736
0.14483
0.066667
0.011494
0.0068966
0.02069
0.025287
0.13103
0.16322
0.23678
0.30115
0.37471
0.4069
0.3931
0.36092
0.26897
0.22759
0.1954
0.14483
0.057471
-0.025287
-0.048276
-0.066667
-0.011494
0.048276
0.14023
0.14483
0.1908
0.14483
0.10345
0.034483
0.052874
0.08046
0.10805
0.14943
0.14023
0.13563
0.14483
0.17701
0.22759
0.27356
0.31494
0.27356
0.21379
0.15862
0.21379
0.24598
0.21839
0.2092
0.15402
0.12644
0.11264
0.11264
0.057471
-0.0022989
-0.02069
0.011494
0.02069
0.02069
-0.025287
-0.066667
-0.043678
0.02069
0.089655
0.13563
0.2
0.28276
0.31954
0.37931
0.36552
0.25057
0.066667
-0.066667
-0.066667
-0.0022989
0.089655
0.14023
0.12644
0.075862
0.03908
0.025287
0.0022989
0.016092
0.029885
0.10805
0.16782
0.22299
0.21379
0.10805
0.048276
0.034483
0.048276
0.094253
0.11724
0.057471
0.071264
0.11264
0.2046
0.28736
0.27356
0.22299
0.18621
0.085057
0.029885
-0.016092
-0.057471
-0.094253
-0.16322
-0.28736
-0.35632
-0.35632
-0.28276
-0.24598
-0.25057
-0.25977
-0.28276
-0.31954
-0.34253
-0.25977
-0.1908
-0.052874
0.0068966
-0.0022989
-0.048276
-0.048276
-0.0022989
0.057471
0.15402
0.2092
0.2
0.10805
0.0022989
-0.02069
-0.057471
-0.043678
0.0068966
0.057471
0.14023
0.21839
0.21839
0.15402
0.071264
0.016092
-0.052874
-0.085057
-0.11724
-0.052874
0.094253
0.27356
0.37471
0.38851
0.25057
0.15862
0.13103
0.10345
0.12644
0.15402
0.11724
0.075862
0.13563
0.16782
0.15862
0.14943
0.043678
-0.085057
-0.25977
-0.32414
-0.31954
-0.35172
-0.28736
-0.24138
-0.15862
-0.057471
0.043678
0.11724
0.15862
0.15862
0.21839
0.24138
0.21839
0.18621
0.043678
-0.062069
-0.11724
-0.10805
-0.03908
0.043678
0.12644
0.098851
0.011494
-0.085057
-0.15402
-0.26437
-0.31494
-0.28276
-0.14023
0.011494
0.18621
0.29655
0.28276
0.26437
0.23218
0.2092
0.12184
0.016092
-0.11724
-0.24598
-0.26437
-0.16782
-0.034483
0.03908
0.075862
0.08046
0.075862
0.075862
0.025287
-0.057471
-0.10805
-0.057471
-0.029885
0.048276
0.11264
0.1908
0.26437
0.29655
0.32414
0.2
-0.0068966
-0.16782
-0.17241
-0.12184
-0.034483
0.043678
0.066667
0.085057
0.11724
0.17701
0.1908
0.094253
0.0022989
-0.098851
-0.14483
-0.15862
-0.085057
-0.075862
-0.089655
-0.11264
-0.17701
-0.1908
-0.15402
-0.052874
0.043678
0.13103
0.21839
0.22299
0.14023
0.052874
0.052874
0.098851
0.2092
0.35172
0.4023
0.3931
0.37011
0.30115
0.22299
0.17241
0.14943
0.2046
0.17241
0.2092
0.16782
0.15402
0.16322
0.21379
0.27356
0.26897
0.26897
0.23218
0.2092
0.18161
0.15862
0.14943
0.08046
0.03908
0.0022989
0.0068966
0.057471
0.14023
0.14943
0.11264
0.12644
0.11724
0.16782
0.2046
0.22299
0.27356
0.29655
0.38391
0.38851
0.33793
0.28276
0.25977
0.25977
0.35632
0.44828
0.50805
0.47586
0.35172
0.23218
0.17241
0.16782
0.24598
0.32874
0.34253
0.26897
0.15402
-0.0022989
-0.14483
-0.2092
-0.18621
-0.066667
0.08046
0.14483
0.048276
-0.12184
-0.29195
-0.37471
-0.34713
-0.18621
-0.025287
0.062069
0.062069
0.0068966
-0.025287
-0.025287
0.075862
0.17241
0.2092
0.21379
0.21379
0.1954
0.066667
0.016092
-0.071264
-0.11724
-0.2
-0.25517
-0.30115
-0.30115
-0.23678
-0.12644
-0.034483
0.048276
0.11264
0.11724
0.17701
0.22759
0.26897
0.18621
0.029885
-0.10345
-0.2
-0.1908
-0.12184
-0.025287
0.057471
0.10805
0.17701
0.17701
0.13563
0.08046
0.016092
0.016092
0.052874
0.13103
0.13103
0.13563
0.17241
0.12184
0.10345
0.043678
0.098851
0.057471
0.085057
0.16782
0.24138
0.33333
0.36092
0.34713
0.27356
0.21839
0.17241
0.17701
0.14023
0.14483
0.12184
0.10805
0.14023
0.2
0.22299
0.24138
0.31954
0.36092
0.37931
0.29655
0.15402
0.043678
-0.0068966
0.08046
0.12644
0.15862
0.18161
0.22299
0.21839
0.1954
0.18621
0.18621
0.21379
0.25517
0.28736
0.28736
0.25517
0.25517
0.25517
0.26437
0.29195
0.31954
0.29195
0.26897
0.28276
0.31954
0.37011
0.38391
0.3977
0.38391
0.34713
0.31954
0.25977
0.22759
0.22759
0.25057
0.2
0.13563
0.085057
-0.0068966
-0.098851
-0.10345
-0.062069
-0.034483
-0.02069
0.025287
0.052874
0.12644
0.21379
0.23678
0.21379
0.11264
0.075862
0.052874
0.071264
0.13563
0.22299
0.26897
0.27356
0.25517
0.2046
0.14943
0.17241
0.11264
0.062069
-0.029885
-0.08046
-0.10805
-0.08046
0.0022989
0.057471
0.10345
0.14943
0.22759
0.28736
0.26897
0.21379
0.15402
0.13563
0.17701
0.2092
0.13103
-0.0022989
-0.071264
-0.075862
-0.052874
-0.043678
0.0022989
0.066667
0.1908
0.31954
0.4023
0.44368
0.42989
0.46207
0.42529
0.4023
0.37931
0.35172
0.30575
0.30115
0.29195
0.25057
0.24138
0.23218
0.24138
0.27816
0.31954
0.31494
0.27356
0.23218
0.23678
0.25977
0.27356
0.30575
0.25977
0.1908
0.11724
0.11264
0.15402
0.2092
0.30575
0.32414
0.27356
0.2092
0.22759
0.25517
0.29195
0.37471
0.37011
0.28276
0.13103
0.075862
0.062069
0.13563
0.21379
0.23218
0.2046
0.2
0.2092
0.23678
0.24598
0.27816
0.22759
0.2046
0.2
0.21839
0.21379
0.22759
0.22299
0.22299
0.2046
0.16322
0.16322
0.016092
-0.10345
-0.24598
-0.35632
-0.37931
-0.27816
-0.071264
0.075862
0.16322
0.13563
0.12184
0.10805
0.14943
0.17701
0.14943
0.12644
0.011494
-0.062069
-0.10805
-0.08046
-0.094253
-0.11264
-0.13563
-0.071264
-0.011494
0.0022989
0.03908
-0.0022989
-0.043678
-0.062069
-0.048276
-0.052874
-0.011494
0.03908
0.0068966
-0.062069
-0.16782
-0.1908
-0.14483
-0.029885
0.11264
0.17241
0.052874
-0.12184
-0.24598
-0.30575
-0.25057
-0.11724
0.034483
0.085057
0.11264
0.13103
0.12644
0.15402
0.2
0.23218
0.22299
0.16322
0.11724
0.048276
0.052874
0.094253
0.089655
0.062069
0.052874
0.11724
0.12644
0.14943
0.10805
0.08046
0.034483
-0.02069
-0.052874
-0.10345
-0.08046
-0.02069
0.029885
0.066667
0.12184
0.14023
0.14483
0.14943
0.11724
0.13103
0.13563
0.17701
0.22759
0.25977
0.28276
0.25977
0.21839
0.17701
0.2092
0.22299
0.23218
0.2
0.2
0.085057
-0.043678
-0.2046
-0.34713
-0.3931
-0.33793
-0.14483
-0.0022989
0.12644
0.17241
0.14023
0.12644
0.11264
0.16322
0.18161
0.18161
0.14943
0.11264
0.13103
0.22759
0.30115
0.29655
0.1954
-0.011494
-0.15402
-0.32874
-0.37931
-0.34713
-0.29655
-0.17701
-0.048276
0.11264
0.23678
0.30575
0.31034
0.16782
0.048276
-0.0068966
-0.011494
0.025287
0.066667
0.11724
0.22299
0.30575
0.4069
0.44368
0.41149
0.3977
0.27816
0.098851
-0.10345
-0.21839
-0.21379
-0.14023
0.016092
0.052874
-0.0068966
-0.098851
-0.13103
-0.094253
-0.02069
0.034483
-0.0022989
-0.08046
-0.18161
-0.1954
-0.16322
-0.085057
0.011494
0.052874
0.048276
0.03908
0.075862
0.0022989
-0.048276
-0.066667
-0.02069
0.043678
0.14943
0.25517
0.26437
0.25057
0.2092
0.21379
0.2046
0.17701
0.10805
0.029885
0.052874
0.17701
0.26437
0.24598
0.16782
0.057471
-0.016092
-0.043678
-0.029885
0.016092
0.016092
0.10805
0.21839
0.29195
0.31494
0.23218
0.14023
0.094253
0.16782
0.22299
0.30115
0.33793
0.36092
0.33793
0.29195
0.25977
0.18161
0.10805
0.057471
0.034483
0.17241
0.22299
0.32874
0.30575
0.2046
0.089655
0.016092
-0.057471
-0.14023
-0.2092
-0.27356
-0.26897
-0.17701
-0.02069
0.12644
0.25977
0.31954
0.28276
0.18621
0.062069
-0.025287
-0.12184
-0.21379
-0.32414
-0.44368
-0.57701
-0.64138
-0.62299
-0.54483
-0.38391
-0.18161
-0.034483
0.052874
0.034483
0.0068966
-0.034483
-0.062069
-0.066667
-0.10345
-0.18161
-0.22759
-0.22299
-0.25977
-0.22299
-0.17241
-0.089655
-0.034483
0.057471
0.10345
0.098851
0.089655
0.057471
0.034483
0.071264
0.12184
0.12184
0.071264
-0.011494
-0.075862
-0.075862
-0.029885
0.098851
0.15862
0.17241
0.15862
0.12644
0.071264
-0.034483
-0.066667
-0.062069
0.0022989
0.12184
0.24138
0.27356
0.29195
0.32874
0.38391
0.42989
0.42069
0.3931
0.31494
0.24598
0.21839
0.1908
0.2046
0.26437
0.34253
0.37931
0.41149
0.38851
0.31494
0.21839
0.10805
0.10345
0.057471
0.057471
0.085057
0.11724
0.14943
0.15862
0.17701
0.13563
0.094253
-0.0022989
-0.08046
-0.15862
-0.14943
-0.062069
0.03908
0.22299
0.36092
0.43908
0.35172
0.2046
0.0022989
-0.17701
-0.21839
-0.14483
-0.057471
-0.011494
0.011494
-0.011494
-0.03908
0.0068966
0.043678
0.071264
0.0068966
-0.016092
-0.062069
-0.10345
-0.094253
-0.0022989
0.15402
0.27356
0.32414
0.25977
0.17701
0.089655
0.16782
0.25057
0.3931
0.46667
0.33333
-0.0022989
-0.43908
-0.72414
-0.77471
-0.53103
-0.10345
0.32874
0.64138
0.83908
0.85747
0.72414
0.53103
0.30575
0.098851
-0.085057
-0.14023
-0.071264
0.048276
0.22759
0.4069
0.53563
0.56782
0.5954
0.64138
0.78851
0.95402
1
0.82069
0.42529
0.11264
-0.085057
-0.14943
-0.12184
-0.057471
0.025287
0.057471
0.2046
0.28736
0.37011
0.42529
0.44368
0.38851
0.27816
0.15402
0.029885
-0.13103
-0.24138
-0.31494
-0.31494
-0.27356
-0.15862
-0.098851
-0.057471
0.016092
0.11264
0.089655
0.066667
0.0022989
0.029885
0.052874
0.10345
0.15402
0.13103
0.11264
0.13103
0.17701
0.16782
0.11264
0.10805
-0.016092
-0.066667
-0.08046
-0.025287
0.08046
0.2092
0.31954
0.3977
0.42529
0.4069
0.28276
0.12184
-0.085057
-0.21839
-0.26897
-0.25517
-0.14023
-0.011494
0.15402
0.31494
0.37931
0.33793
0.25977
0.22299
0.23678
0.25057
0.23678
0.12644
0.0022989
-0.12644
-0.21839
-0.27356
-0.30575
-0.2092
-0.13103
0.025287
0.075862
0.15862
0.13563
0.043678
-0.075862
-0.21379
-0.28736
-0.27356
-0.16322
-0.016092
0.08046
0.1908
0.2092
0.16322
0.12184
0.011494
-0.12644
-0.22759
-0.22759
-0.15862
-0.043678
0.03908
0.08046
0.075862
0.094253
0.12644
0.085057
0.02069
-0.011494
0.0068966
0.034483
0.062069
0.071264
0.052874
-0.03908
-0.13103
-0.2046
-0.24598
-0.22759
-0.18621
-0.14483
-0.098851
0.0022989
0.13103
0.1908
0.24138
0.25517
0.1954
0.062069
-0.016092
-0.085057
-0.062069
-0.029885
0.016092
0.0022989
-0.066667
-0.10805
-0.098851
-0.057471
0.029885
0.062069
0.048276
-0.0022989
0.03908
0.089655
0.12184
0.15862
0.11724
0.03908
-0.052874
-0.094253
-0.11264
-0.13103
-0.085057
0.048276
0.21379
0.35632
0.45747
0.45287
0.31954
0.14023
0.043678
-0.02069
0.029885
0.13563
0.21379
0.24598
0.24138
0.29655
0.26437
0.25977
0.28276
0.25517
0.2
0.098851
0.0068966
-0.085057
-0.10345
-0.085057
-0.075862
-0.062069
-0.016092
0.08046
0.17241
0.2
0.16782
0.089655
0.0068966
0.016092
0.066667
0.11724
0.13563
0.13103
0.089655
0.0022989
-0.02069
-0.011494
0.016092
0.052874
0.098851
0.17241
0.16782
0.24138
0.21839
0.1954
0.12184
0.085057
0.029885
-0.025287
-0.0022989
-0.016092
0.016092
-0.0068966
-0.089655
-0.28736
-0.44368
-0.44828
-0.36092
-0.1908
-0.066667
0.075862
0.10345
0.10345
0.062069
0.029885
0.025287
0.03908
0.043678
-0.057471
-0.14023
-0.1908
-0.17701
-0.1908
-0.16782
-0.12644
-0.14943
-0.11264
-0.025287
0.089655
0.2
0.24598
0.22299
0.16782
0.062069
-0.025287
-0.15402
-0.26897
-0.26897
-0.2
-0.14943
-0.13563
-0.11724
-0.062069
0.094253
0.27356
0.37931
0.37931
0.27356
0.18621
0.14483
0.18621
0.25517
0.25057
0.1908
0.14483
0.14943
0.2
0.21379
0.24138
0.16322
0.085057
-0.0022989
0.043678
0.12184
0.1954
0.21839
0.17241
0.14943
0.12184
0.12184
0.071264
-0.029885
-0.098851
-0.16782
-0.25977
-0.26437
-0.1908
-0.10345
0.062069
0.12184
0.15402
0.098851
0.066667
0.066667
0.052874
0.071264
0.10345
0.16782
0.13563
0.13563
0.12644
0.11264
0.16322
0.13563
0.14943
0.15402
0.17701
0.1908
0.14023
0.08046
0.085057
0.075862
0.066667
0.11724
0.048276
-0.0022989
-0.034483
0.0022989
-0.0068966
-0.062069
-0.13103
-0.2046
-0.2
-0.11724
0.016092
0.12184
0.17241
0.13563
0.08046
-0.0068966
-0.11264
-0.1908
-0.27356
-0.25977
-0.13103
0.066667
0.2
0.28276
0.30115
0.24138
0.17241
0.13563
0.057471
-0.011494
-0.066667
-0.098851
-0.089655
0.011494
0.15862
0.28736
0.31954
0.25977
0.17701
0.052874
-0.011494
-0.0068966
0.011494
-0.02069
-0.034483
0.016092
0.066667
0.1954
0.36552
0.43448
0.37931
0.28736
0.1908
0.057471
-0.029885
-0.10805
-0.12184
-0.052874
0.075862
0.17241
0.2092
0.21839
0.22759
0.23218
0.2092
0.17701
0.10805
0.0022989
-0.062069
-0.048276
0.011494
0.057471
0.14023
0.1908
0.2092
0.21839
0.2046
0.13563
0.12644
0.18161
0.28276
0.35172
0.36092
0.31034
0.18621
0.08046
0.11264
0.18161
0.26437
0.29655
0.28276
0.16782
0.057471
-0.016092
0.011494
0.048276
0.13563
0.16782
0.14483
0.11724
0.089655
0.085057
0.089655
0.13103
0.14943
0.17701
0.14023
0.15862
0.2046
0.27816
0.31034
0.25517
0.085057
-0.052874
-0.08046
-0.029885
-0.011494
0.043678
0.062069
0.11264
0.2046
0.29195
0.32874
0.25977
0.18161
0.071264
-0.011494
-0.016092
0.071264
0.21379
0.28276
0.31494
0.24598
0.085057
-0.066667
-0.1908
-0.24138
-0.17241
0.02069
0.2
0.31034
0.33333
0.25517
0.098851
-0.071264
-0.18161
-0.21379
-0.18621
-0.057471
0.11264
0.22299
0.30115
0.33333
0.35172
0.34253
0.25517
0.14483
-0.052874
-0.17701
-0.1908
-0.12644
-0.0022989
0.11264
0.18621
0.14023
0.048276
-0.034483
-0.089655
-0.08046
0.025287
0.17241
0.27816
0.34253
0.3977
0.37471
0.31954
0.27356
0.23218
0.17241
0.15862
0.13563
0.12184
0.085057
0.14483
0.16322
0.17701
0.25517
0.31494
0.31954
0.2046
0.02069
-0.13103
-0.17241
-0.10345
0.057471
0.11724
0.15402
0.15402
0.10805
0.052874
0.10345
0.2
0.31954
0.33333
0.34713
0.24598
0.12644
0.057471
0.094253
0.14483
0.2
0.24598
0.22299
0.2092
0.21839
0.32414
0.36092
0.37011
0.31034
0.1908
0.075862
-0.02069
-0.0022989
-0.025287
-0.043678
-0.094253
-0.11724
-0.089655
-0.03908
0.011494
-0.0068966
-0.02069
-0.048276
-0.025287
0.011494
0.12184
0.23218
0.31954
0.34713
0.31954
0.27356
0.1908
0.21379
0.22759
0.31034
0.37931
0.43448
0.43448
0.35632
0.29655
0.1908
0.13103
0.10345
0.094253
0.066667
-0.0068966
-0.094253
-0.16782
-0.18161
-0.071264
0.089655
0.18621
0.18621
0.14023
0.057471
0.02069
0.03908
0.048276
0.052874
0.025287
0.03908
0.13103
0.16322
0.14943
0.098851
0.02069
0.034483
0.10345
0.17701
0.24138
0.22759
0.24138
0.1908
0.11724
0.011494
-0.13563
-0.26437
-0.27816
-0.1908
-0.10345
-0.052874
-0.052874
-0.057471
-0.029885
0.062069
0.11724
0.11724
0.075862
0.03908
0.0022989
0.011494
0.025287
0.034483
0.011494
-0.02069
-0.016092
0.043678
0.10345
0.15862
0.14023
0.057471
-0.066667
-0.13563
-0.14023
-0.10805
-0.011494
0.048276
0.071264
0.057471
0.029885
-0.011494
0.034483
0.13563
0.1954
0.13103
0.016092
-0.075862
-0.14023
-0.10345
0.0022989
0.075862
0.11264
0.12644
0.2092
0.29195
0.37011
0.4069
0.31494
0.14483
-0.0022989
-0.0022989
0.048276
0.2
0.29655
0.31034
0.25517
0.1954
0.2046
0.18161
0.23678
0.28276
0.29195
0.25977
0.21839
0.14943
0.12184
0.14023
0.13103
0.071264
-0.025287
-0.03908
-0.029885
0.02069
0.14483
0.29655
0.37471
0.23218
-0.0022989
-0.24138
-0.34713
-0.29195
-0.10345
0.12184
0.32414
0.44368
0.42069
0.37931
0.33793
0.37931
0.3977
0.37471
0.32874
0.21379
0.057471
-0.10345
-0.2092
-0.24598
-0.21839
-0.16322
-0.11264
-0.034483
0.11724
0.32874
0.48506
0.54023
0.48966
0.35632
0.18161
0.075862
0.029885
0.02069
0.10805
0.23678
0.33333
0.35632
0.32874
0.31494
0.27816
0.22759
0.10345
-0.062069
-0.25517
-0.36092
-0.37931
-0.30115
-0.10345
0.13103
0.37011
0.47126
0.53103
0.48506
0.4069
0.32874
0.25517
0.16322
0.066667
0.08046
0.094253
0.071264
0.025287
-0.016092
0.0022989
0.075862
0.16782
0.24598
0.27816
0.26897
0.1908
0.08046
0.029885
0.075862
0.21379
0.26437
0.23218
0.12644
0.016092
-0.098851
-0.15862
-0.17701
-0.12644
-0.011494
0.062069
0.066667
0.029885
0.052874
0.011494
-0.011494
-0.057471
-0.08046
-0.089655
-0.08046
-0.03908
-0.016092
0.03908
0.11724
0.17241
0.085057
-0.048276
-0.18621
-0.28736
-0.31034
-0.27816
-0.18161
-0.03908
0.08046
0.18161
0.2
0.14023
0.08046
0.048276
0.02069
0.025287
-0.0068966
-0.011494
-0.043678
-0.043678
-0.071264
-0.13563
-0.17701
-0.15862
-0.062069
0.08046
0.31034
0.38391
0.38851
0.27356
0.1908
0.066667
-0.011494
-0.011494
0.034483
0.13563
0.24138
0.37471
0.47586
0.54023
0.55862
0.48046
0.36092
0.23218
0.13103
-0.011494
-0.11264
-0.18621
-0.2092
-0.18161
-0.085057
0.066667
0.22299
0.37011
0.43908
0.37471
0.35632
0.26437
0.24598
0.16782
0.16322
0.1954
0.21379
0.13563
0.075862
0.016092
-0.011494
-0.025287
0.10345
0.14483
0.18621
0.17701
0.14483
0.15862
0.22299
0.28736
0.28736
0.16322
0.016092
-0.10345
-0.15862
-0.18621
-0.1908
-0.2046
-0.23218
-0.1954
-0.17701
-0.13563
-0.085057
-0.057471
-0.02069
-0.03908
-0.011494
-0.0022989
0.0022989
-0.0068966
0.034483
0.034483
0.016092
0.043678
0.11724
0.16322
0.17241
0.17241
0.12184
0.071264
0.048276
0.025287
-0.0022989
-0.034483
-0.062069
-0.14483
-0.18621
-0.23678
-0.27356
-0.30575
-0.33793
-0.28736
-0.25517
-0.18161
-0.11264
-0.011494
0.057471
0.094253
0.08046
-0.057471
-0.11724
-0.12184
-0.10345
-0.10805
-0.075862
-0.02069
0.011494
0.094253
0.16782
0.23678
0.2046
0.15862
0.071264
0.02069
-0.016092
0.016092
0.089655
0.14483
0.22299
0.22759
0.2046
0.14483
0.17701
0.25517
0.28276
0.29655
0.12644
-0.094253
-0.28736
-0.29655
-0.14023
0.043678
0.2
0.25517
0.26437
0.27356
0.32874
0.34713
0.36552
0.37931
0.27356
0.2
0.071264
0.03908
-0.066667
-0.14483
-0.18621
-0.2046
-0.14943
-0.02069
0.13563
0.22299
0.2046
0.13103
0.057471
-0.02069
-0.066667
-0.048276
-0.016092
0.085057
0.17701
0.2
0.12644
0.048276
0.025287
0.034483
0.11724
0.1908
0.23678
0.2092
0.16322
0.085057
0.0068966
-0.048276
-0.057471
0.0068966
0.075862
0.094253
0.066667
-0.029885
-0.098851
-0.066667
0.062069
0.18161
0.31494
0.33793
0.28736
0.23218
0.22299
0.22759
0.24598
0.34713
0.3931
0.42069
0.37011
0.24598
0.085057
0.011494
0.011494
0.12184
0.25977
0.37931
0.41149
0.31494
0.23678
0.23218
0.29195
0.30575
0.25517
0.13103
-0.052874
-0.1954
-0.26897
-0.26437
-0.24598
-0.2
-0.12184
-0.094253
-0.052874
-0.011494
-0.011494
-0.057471
-0.089655
-0.15402
-0.14943
-0.075862
-0.0022989
0.029885
-0.03908
-0.094253
-0.075862
-0.052874
0.029885
0.062069
0.11264
0.11264
0.14943
0.18161
0.22299
0.21379
0.17701
0.098851
-0.029885
-0.075862
-0.13103
-0.089655
0.052874
0.26897
0.48046
0.58621
0.5954
0.46207
0.30115
0.2046
0.14943
0.17701
0.21379
0.24598
0.25057
0.27356
0.27816
0.31494
0.17701
0.02069
-0.048276
0.016092
0.1954
0.35172
0.44368
0.4069
0.29655
0.15862
0.025287
-0.011494
0.0068966
0.18161
0.31954
0.45287
0.45287
0.35632
0.25057
0.17241
0.16322
0.13103
0.12184
0.098851
0.034483
-0.043678
-0.075862
-0.066667
-0.0068966
0.094253
0.1908
0.25977
0.24138
0.26437
0.24138
0.15402
0.071264
0.03908
0.02069
0.0068966
0.025287
0.02069
0.03908
0.052874
0.094253
0.12644
0.18621
0.23678
0.2092
0.14483
0.011494
-0.062069
-0.11264
-0.12644
-0.085057
-0.0068966
0.085057
0.12184
0.15402
0.17701
0.17241
0.13563
0.0022989
-0.14483
-0.27816
-0.34253
-0.38851
-0.34713
-0.24598
-0.098851
0.029885
0.089655
0.11724
0.057471
-0.025287
-0.071264
-0.062069
0.02069
0.16322
0.35632
0.41609
0.41609
0.38391
0.26437
0.089655
-0.12184
-0.31494
-0.42529
-0.46667
-0.45287
-0.3931
-0.29195
-0.14483
-0.057471
-0.03908
-0.062069
-0.02069
0.14023
0.29195
0.44828
0.52644
0.58621
0.65057
0.65057
0.53103
0.25057
-0.043678
-0.33333
-0.48966
-0.49885
-0.37011
-0.22759
-0.11724
-0.034483
0.0022989
0.071264
0.15862
0.35172
0.51264
0.64598
0.72414
0.74713
0.71954
0.65057
0.52184
0.27356
0.03908
-0.14023
-0.23678
-0.23218
-0.10805
0.12184
0.30575
0.42529
0.38391
0.26437
0.14943
0.043678
0.029885
0.0068966
0.043678
0.062069
0.071264
0.052874
0.14023
0.24598
0.27356
0.1954
0.062069
-0.085057
-0.25977
-0.30575
-0.31494
-0.24138
-0.12184
0.0022989
0.094253
0.10345
0.048276
-0.011494
-0.066667
-0.089655
-0.066667
-0.043678
-0.025287
0.025287
0.034483
0.075862
0.052874
-0.0022989
-0.075862
-0.15862
-0.10345
0.011494
0.17701
0.31954
0.37471
0.25977
0.085057
-0.071264
-0.16782
-0.15862
-0.089655
0.011494
0.08046
0.12184
0.16322
0.14483
0.052874
-0.048276
-0.08046
-0.085057
-0.0068966
0.034483
0.029885
-0.03908
-0.043678
0.029885
0.062069
0.071264
0.025287
0.029885
0.048276
0.17701
0.25057
0.21839
0.12184
0.043678
-0.025287
-0.062069
-0.02069
0.052874
0.10805
0.12184
0.094253
0.11724
0.2046
0.31494
0.34713
0.31494
0.1954
0.057471
-0.14023
-0.31494
-0.35172
-0.27816
-0.16782
-0.052874
0.016092
0.066667
0.11264
0.1908
0.23218
0.21379
0.15402
0.08046
0.02069
-0.0022989
0.03908
0.052874
0.048276
-0.0068966
-0.03908
-0.025287
0.043678
0.14023
0.22759
0.27356
0.28276
0.27816
0.2092
0.13563
0.13563
0.11264
0.02069
-0.08046
-0.17701
-0.26897
-0.27816
-0.21839
-0.11724
0.075862
0.23218
0.3931
0.3931
0.28736
0.11724
-0.075862
-0.18621
-0.12644
0.052874
0.26897
0.41149
0.44828
0.34713
0.2046
0.12644
0.052874
-0.0068966
0.0068966
0.12644
0.29655
0.46207
0.5908
0.53563
0.3931
0.17701
0.029885
-0.066667
-0.13563
-0.071264
-0.0022989
0.066667
0.08046
0.029885
-0.0068966
0.011494
0.18161
0.34713
0.43448
0.41149
0.36552
0.31034
0.29655
0.26897
0.22299
0.066667
-0.071264
-0.15862
-0.24138
-0.21839
-0.15402
-0.071264
-0.0022989
0.052874
0.13563
0.14023
0.17701
0.14023
0.13563
0.12184
0.15402
0.22299
0.22759
0.23678
0.23678
0.25977
0.25517
0.30575
0.27816
0.2046
0.14943
0.11724
0.085057
0.016092
-0.085057
-0.15862
-0.2046
-0.1908
-0.13563
-0.085057
-0.089655
-0.043678
0.0068966
0.10805
0.2
0.29195
0.29655
0.27816
0.27356
0.27356
0.27816
0.30115
0.32874
0.32874
0.28276
0.23678
0.17241
0.098851
0.043678
0.066667
0.10345
0.13563
0.13103
0.011494
-0.16782
-0.27356
-0.1954
-0.048276
0.089655
0.14483
0.029885
-0.025287
-0.03908
0.029885
0.03908
0.016092
-0.011494
0.011494
0.071264
0.13563
0.22299
0.2046
0.18621
0.12184
0.062069
0.011494
-0.029885
-0.011494
0.048276
0.16782
0.27356
0.36552
0.38851
0.4069
0.37931
0.37011
0.3931
0.44828
0.55402
0.63218
0.74713
0.76552
0.66437
0.51264
0.3977
0.37931
0.36552
0.42069
0.45287
0.48046
0.54943
0.63218
0.68736
0.68736
0.63678
0.51724
0.38851
0.28736
0.27356
0.23218
0.24138
0.22299
0.18621
0.17701
0.25517
0.36092
0.37471
0.30115
0.24598
0.1908
0.15402
0.094253
0.11264
0.098851
0.17241
0.21379
0.18621
0.085057
0.016092
0.025287
-0.0022989
-0.025287
-0.12644
-0.29195
-0.47126
-0.52184
-0.42989
-0.23678
-0.03908
0.094253
0.1954
0.2046
0.21379
0.1908
0.10805
0.11264
0.11264
0.12184
0.085057
0.052874
0.062069
0.085057
0.17701
0.23678
0.28736
0.29655
0.34253
0.31034
0.21839
0.075862
-0.025287
-0.066667
-0.071264
0.011494
0.11724
0.21379
0.27356
0.29655
0.26897
0.24598
0.26437
0.17701
0.043678
-0.12184
-0.22759
-0.30115
-0.25057
-0.14483
-0.03908
0.016092
0.016092
0.062069
0.10345
0.2046
0.25057
0.21379
0.14023
0.075862
0.08046
0.11724
0.2
0.31034
0.33333
0.27356
0.085057
-0.03908
-0.12184
-0.048276
0.085057
0.2
0.2046
0.10345
-0.052874
-0.1954
-0.26437
-0.2
-0.0022989
0.15862
0.29655
0.28736
0.22759
0.2046
0.22759
0.22759
0.18161
0.14023
0.048276
-0.048276
-0.094253
-0.03908
0.034483
0.15402
0.26897
0.32874
0.30575
0.15862
0.011494
-0.12644
-0.13563
-0.057471
0.02069
0.08046
0.098851
0.12644
0.11724
0.089655
0.085057
0.043678
0.048276
0.071264
0.11724
0.12644
0.08046
0.057471
0.085057
0.12184
0.22299
0.24598
0.1908
0.10805
0.11264
0.085057
0.03908
-0.085057
-0.25057
-0.43908
-0.52644
-0.44828
-0.27356
-0.066667
0.094253
0.18621
0.2046
0.16322
0.13103
0.10805
0.071264
0.057471
-0.02069
-0.11264
-0.14943
-0.094253
0.011494
0.11724
0.2046
0.23218
0.21839
0.18161
0.098851
0.048276
-0.025287
-0.011494
-0.052874
-0.094253
-0.11264
-0.085057
-0.048276
0.029885
0.16782
0.31954
0.45747
0.48046
0.44368
0.31954
0.2046
0.12644
0.02069
-0.085057
-0.16782
-0.21379
-0.23678
-0.2046
-0.098851
-0.011494
0.08046
0.1908
0.27356
0.32874
0.30115
0.24138
0.15862
0.048276
-0.10805
-0.1908
-0.1908
-0.085057
0.048276
0.12184
0.15402
0.18621
0.18161
0.12644
0.075862
0.057471
0.043678
-0.029885
-0.085057
-0.17241
-0.2092
-0.22299
-0.14023
-0.034483
0.043678
0.10345
0.094253
0.098851
0.13103
0.11264
0.016092
-0.13103
-0.16782
-0.16322
-0.098851
-0.011494
0.11264
0.22299
0.26897
0.30115
0.30575
0.29655
0.29655
0.25517
0.13103
0.057471
0.062069
0.08046
0.089655
0.13103
0.16782
0.15862
0.11724
0.066667
-0.034483
-0.14483
-0.2092
-0.2092
-0.17701
-0.089655
0.098851
0.28736
0.3931
0.4069
0.33333
0.18621
0.08046
-0.0068966
-0.016092
-0.043678
-0.029885
0.011494
-0.029885
-0.089655
-0.1954
-0.31494
-0.38851
-0.34713
-0.25057
-0.13103
0.0022989
0.14483
0.26897
0.28276
0.24598
0.10805
0.0022989
-0.052874
-0.034483
-0.0022989
0.0022989
0.10345
0.15862
0.28736
0.35172
0.3977
0.33793
0.23678
0.11264
-0.02069
-0.11264
-0.12184
-0.071264
0.0022989
0.02069
0.0068966
-0.062069
-0.13563
-0.16322
-0.13103
-0.14023
-0.14483
-0.15402
-0.15862
-0.17701
-0.25517
-0.31954
-0.37931
-0.28736
-0.089655
0.094253
0.18621
0.15402
0.14023
0.08046
0.062069
0.057471
0.057471
0.03908
0.043678
0.11264
0.15862
0.22299
0.27816
0.25517
0.24138
0.22299
0.23678
0.18621
0.14483
0.098851
0.062069
0.034483
0.062069
0.052874
0.025287
-0.016092
-0.029885
-0.043678
-0.03908
0.016092
0.094253
0.2092
0.31494
0.41149
0.4023
0.30575
0.31954
0.28736
0.28736
0.1954
0.13563
0.057471
0.011494
0.043678
0.085057
0.11724
0.2
0.25517
0.26437
0.22759
0.16782
0.085057
-0.03908
-0.12644
-0.17701
-0.21839
-0.1954
-0.10345
0.011494
0.10345
0.14943
0.11724
0.034483
-0.0022989
0.016092
0.089655
0.21379
0.35172
0.46207
0.43448
0.3977
0.31034
0.2
0.15402
0.15862
0.2092
0.2092
0.16782
0.057471
-0.025287
-0.085057
-0.025287
0.098851
0.17701
0.24598
0.26897
0.27356
0.26437
0.26897
0.23218
0.14483
0.043678
-0.02069
-0.029885
-0.0022989
0.034483
0.011494
-0.034483
-0.098851
-0.066667
-0.043678
-0.011494
0.066667
0.052874
-0.02069
-0.13103
-0.16782
-0.15402
-0.052874
0.098851
0.21379
0.30115
0.27356
0.16322
-0.043678
-0.2092
-0.28736
-0.28736
-0.17701
-0.071264
0.062069
0.11264
0.12644
0.052874
-0.048276
-0.14483
-0.2046
-0.16782
-0.18161
-0.16322
-0.13563
-0.085057
-0.066667
-0.052874
-0.094253
-0.16782
-0.18161
-0.052874
0.075862
0.18161
0.26897
0.29195
0.28276
0.22759
0.14943
0.089655
0.025287
0.052874
0.10805
0.12644
0.13563
0.089655
0.10345
0.071264
0.11264
0.13103
0.2
0.25057
0.27356
0.2092
0.13563
0.14023
0.18161
0.27356
0.28736
0.30575
0.28736
0.31954
0.38851
0.41609
0.34253
0.21379
0.043678
-0.085057
-0.057471
0.016092
0.052874
0.075862
0.14023
0.21839
0.23678
0.22759
0.22299
0.21839
0.2046
0.18621
0.13563
0.048276
0.0022989
-0.0068966
0.062069
0.15862
0.26437
0.34713
0.30575
0.14483
-0.062069
-0.22299
-0.31494
-0.23678
-0.13103
-0.011494
0.089655
0.13563
0.21839
0.22759
0.30575
0.30115
0.21379
0.03908
-0.089655
-0.15402
-0.17241
-0.10805
-0.066667
-0.057471
-0.085057
-0.13103
-0.21379
-0.28276
-0.23678
-0.12184
0.057471
0.17701
0.22759
0.10805
-0.13103
-0.32414
-0.43448
-0.42529
-0.36552
-0.24598
-0.18161
-0.10345
0.0022989
0.10345
0.1908
0.22299
0.2
0.071264
-0.025287
-0.13563
-0.18621
-0.2046
-0.17701
-0.071264
0.011494
0.10805
0.17241
0.23678
0.25517
0.23678
0.1954
0.11264
0.057471
0.016092
-0.0022989
-0.02069
-0.011494
-0.0068966
0.011494
0.085057
0.15402
0.2092
0.24598
0.28736
0.32414
0.32874
0.28736
0.22299
0.12644
0.016092
-0.0022989
0.029885
0.052874
0.13103
0.15402
0.14943
0.089655
0.11264
0.14943
0.15862
0.21379
0.24598
0.24138
0.16782
0.066667
-0.034483
-0.10345
-0.14483
-0.17701
-0.22759
-0.1954
-0.11264
0.025287
0.098851
0.10805
0.14943
0.15402
0.23678
0.31034
0.35632
0.34253
0.27816
0.18621
0.066667
0.034483
0.11724
0.24138
0.32414
0.30115
0.22299
0.075862
0.08046
0.13563
0.23678
0.25977
0.22299
0.10805
0.011494
0.0068966
0.08046
0.16782
0.15402
0.13103
0.085057
0.052874
0.075862
0.10345
0.048276
-0.057471
-0.098851
-0.094253
-0.0022989
0.085057
0.1908
0.21839
0.2046
0.25977
0.27816
0.26437
0.18161
0.043678
-0.034483
-0.03908
0.052874
0.14483
0.2046
0.1954
0.14023
0.11264
0.12184
0.1954
0.26437
0.29195
0.24138
0.17241
0.03908
-0.0068966
-0.016092
0.011494
0.089655
0.2092
0.3977
0.46667
0.43448
0.26897
0.098851
-0.029885
-0.066667
-0.025287
0.025287
0.029885
0.089655
0.14943
0.25977
0.41609
0.53563
0.54943
0.54023
0.50345
0.54483
0.5908
0.65977
0.66437
0.63218
0.6
0.5908
0.57241
0.54483
0.5908
0.63218
0.5908
0.52184
0.45287
0.46207
0.47126
0.49885
0.41609
0.31034
0.18161
0.17241
0.1954
0.28276
0.33333
0.29195
0.13563
0.016092
-0.011494
0.029885
0.17701
0.30575
0.37471
0.28736
0.11264
-0.089655
-0.33333
-0.44368
-0.46207
-0.43448
-0.41609
-0.43908
-0.44368
-0.48506
-0.45287
-0.37011
-0.28276
-0.2046
-0.14943
-0.08046
-0.048276
0.0022989
0.057471
0.03908
-0.0022989
-0.03908
-0.057471
-0.075862
-0.15402
