-0.57196
-0.60148
-0.68266
-0.62362
-0.5203
-0.44649
-0.36531
-0.21771
-0.17343
-0.17343
-0.26937
-0.47601
-0.69004
-0.80812
-0.88192
-0.90406
-0.85978
-0.69742
-0.60148
-0.42435
-0.23985
-0.16605
-0.20295
-0.34317
-0.47601
-0.49077
-0.54244
-0.44649
-0.42435
-0.34317
-0.22509
-0.077491
-0.092251
0.01107
0.03321
0.099631
0.10701
0.02583
-0.04797
-0.077491
-0.03321
0.055351
0.11439
0.084871
0.15129
0.14391
0.077491
-0.03321
0.062731
0.21033
0.32841
0.38007
0.26937
0.092251
-0.070111
-0.20295
-0.23247
-0.21771
-0.01845
0.12177
0.15867
0.062731
0.04059
-0.00369
0.01845
0.03321
-0.04059
-0.15867
-0.34317
-0.38745
-0.47601
-0.52768
-0.50554
-0.48339
-0.43173
-0.37269
-0.35055
-0.32841
-0.32103
-0.23985
-0.14391
-0.099631
-0.04059
0.01107
0.03321
0.04797
0.084871
0.13653
0.21771
0.26937
0.27675
0.25461
0.22509
0.31365
0.34317
0.26937
0.14391
0.13653
0.18081
0.38007
0.44649
0.44649
0.15867
-0.15129
-0.26199
-0.39483
-0.29889
-0.15867
-0.062731
0.03321
0.15867
0.23985
0.31365
0.22509
0.12915
0.12915
0.084871
0.22509
0.31365
0.45387
0.52768
0.45387
0.29889
-0.070111
-0.24723
-0.33579
-0.22509
0.01107
0.23985
0.35793
0.37269
0.36531
0.27675
0.12915
0.099631
0.14391
0.15867
0.19557
0.34317
0.41697
0.41697
0.45387
0.31365
0.17343
0.02583
-0.04797
0.04797
0.12915
0.14391
0.11439
0.12915
0.099631
0.16605
0.19557
0.25461
0.23247
0.19557
0.12915
-0.16605
-0.35055
-0.50554
-0.5203
-0.44649
-0.43173
-0.40959
-0.56458
-0.72694
-0.8155
-0.79336
-0.71218
-0.57934
-0.50554
-0.42435
-0.42435
-0.27675
-0.19557
-0.16605
-0.084871
-0.02583
0.04059
0.084871
0.17343
0.17343
0.084871
0.04059
0.00369
-0.03321
-0.12915
-0.30627
-0.52768
-0.77122
-0.71956
-0.6679
-0.631
-0.46863
-0.38007
-0.15867
-0.14391
-0.12177
-0.24723
-0.24723
-0.26199
-0.25461
-0.22509
-0.20295
-0.18081
-0.18819
-0.33579
-0.35055
-0.25461
-0.15129
-0.11439
-0.11439
-0.12177
-0.15867
-0.23985
-0.24723
-0.41697
-0.46863
-0.50554
-0.40959
-0.36531
-0.38007
-0.39483
-0.43173
-0.23247
-0.062731
0.01845
-0.070111
-0.16605
-0.11439
-0.18819
-0.12915
-0.18081
-0.10701
-0.18081
-0.092251
0.02583
0.14391
0.14391
0.01845
-0.04059
-0.21033
-0.24723
-0.35793
-0.44649
-0.43911
-0.20295
0.055351
0.15867
0.30627
0.37269
0.49815
0.5572
0.47601
0.19557
-0.04797
-0.20295
-0.12177
0.01107
0.12915
0.03321
-0.20295
-0.38745
-0.30627
-0.15867
0.092251
0.20295
0.23247
0.22509
0.25461
0.27675
0.17343
0.062731
-0.055351
-0.03321
0.01845
0.062731
0.092251
0.12915
0.04059
-0.00369
-0.077491
-0.16605
-0.14391
-0.15867
-0.18081
-0.28413
-0.34317
-0.39483
-0.35793
-0.27675
-0.19557
-0.21771
-0.24723
-0.16605
-0.070111
-0.00369
-0.092251
-0.12915
-0.12177
-0.12915
0.055351
0.055351
-0.00369
0.055351
0.12177
0.23985
0.22509
0.27675
0.25461
0.15867
0.14391
0.01107
-0.04797
-0.23247
-0.29151
-0.26937
-0.15867
-0.04797
0.04059
0.099631
0.13653
0.24723
0.22509
0.18081
0.11439
0.10701
0.12177
0.15867
0.16605
0.18819
0.099631
-0.01107
-0.01107
-0.077491
-0.12177
-0.10701
-0.18819
-0.25461
-0.20295
-0.18081
-0.04797
0.084871
0.26199
0.48339
0.50554
0.43173
0.32103
0.13653
0.077491
-0.01845
-0.14391
-0.31365
-0.38745
-0.46125
-0.58672
-0.66052
-0.5941
-0.51292
-0.52768
-0.48339
-0.45387
-0.24723
0.00369
0.23985
0.31365
0.12177
-0.16605
-0.46863
-0.65314
-0.7417
-0.69742
-0.66052
-0.58672
-0.40959
-0.29889
-0.20295
-0.16605
-0.19557
-0.17343
-0.10701
0.03321
0.092251
0.077491
0.01107
0.01107
-0.03321
0.04797
0.084871
0.12177
0.084871
0.062731
0.099631
-0.02583
-0.12177
-0.12915
-0.15867
-0.10701
-0.14391
-0.18081
-0.28413
-0.33579
-0.24723
-0.20295
-0.13653
-0.17343
-0.15867
-0.18819
-0.18081
-0.04059
-0.04797
-0.15867
-0.26199
-0.21771
-0.15867
-0.03321
-0.070111
-0.25461
-0.36531
-0.41697
-0.26937
-0.11439
0.099631
0.37269
0.62362
0.80812
0.86716
0.8155
0.64576
0.51292
0.44649
0.36531
0.21771
0.11439
0.077491
0.062731
0.077491
0.12177
0.12177
0.03321
-0.070111
-0.14391
-0.15867
-0.12915
0.077491
0.14391
0.21033
0.12177
-0.04797
-0.19557
-0.27675
-0.20295
-0.27675
-0.30627
-0.26199
-0.28413
-0.34317
-0.42435
-0.50554
-0.51292
-0.38007
-0.18081
-0.03321
-0.04797
-0.055351
-0.01107
-0.02583
-0.12177
-0.16605
-0.18081
-0.22509
-0.21033
-0.12915
-0.15867
-0.01845
0.00369
0.03321
0.02583
0.11439
0.20295
0.17343
0.14391
0.099631
0.01845
-0.15867
-0.23247
-0.31365
-0.39483
-0.31365
-0.22509
-0.12177
-0.10701
-0.070111
-0.01845
0.01845
-0.03321
-0.17343
-0.25461
-0.44649
-0.37269
-0.49077
-0.47601
-0.54982
-0.49077
-0.53506
-0.49077
-0.42435
-0.32841
-0.23247
-0.23247
-0.23985
-0.38007
-0.48339
-0.51292
-0.5941
-0.64576
-0.631
-0.61624
-0.64576
-0.5941
-0.50554
-0.5203
-0.40959
-0.38007
-0.24723
-0.32103
-0.46863
-0.58672
-0.69742
-0.77122
-0.75646
-0.64576
-0.5941
-0.61624
-0.54244
-0.47601
-0.40221
-0.21771
-0.062731
-0.03321
-0.01107
-0.10701
-0.16605
-0.25461
-0.35793
-0.37269
-0.32103
-0.23247
-0.24723
-0.41697
-0.60886
-0.69004
-0.74908
-0.83026
-0.83026
-0.7417
-0.64576
-0.64576
-0.5941
-0.52768
-0.46125
-0.38745
-0.27675
-0.23985
-0.21033
-0.16605
-0.20295
-0.26199
-0.43173
-0.46863
-0.39483
-0.27675
-0.25461
-0.26937
-0.42435
-0.56458
-0.61624
-0.69004
-0.60886
-0.38007
-0.15867
0.02583
0.062731
0.01107
-0.04797
-0.070111
-0.00369
-0.03321
-0.062731
-0.055351
-0.01107
0.04797
0.02583
-0.14391
-0.21033
-0.36531
-0.36531
-0.40221
-0.45387
-0.40959
-0.36531
-0.32841
-0.39483
-0.43173
-0.38007
-0.29151
-0.21771
-0.070111
-0.055351
-0.10701
-0.13653
-0.19557
-0.29889
-0.35793
-0.35055
-0.24723
-0.17343
-0.070111
-0.03321
-0.04797
-0.15867
-0.099631
-0.20295
-0.19557
-0.23247
-0.30627
-0.35793
-0.34317
-0.21771
-0.12177
-0.11439
-0.04797
-0.03321
-0.01845
0.00369
-0.00369
-0.092251
-0.13653
-0.25461
-0.32103
-0.54244
-0.62362
-0.68266
-0.7048
-0.60886
-0.49077
-0.30627
-0.13653
0.02583
0.055351
-0.04059
-0.12915
-0.19557
-0.25461
-0.40959
-0.54982
-0.52768
-0.52768
-0.45387
-0.36531
-0.33579
-0.20295
0.02583
0.25461
0.51292
0.63838
0.6679
0.49077
0.25461
0.13653
0.04059
-0.055351
-0.23247
-0.31365
-0.43173
-0.40221
-0.29151
-0.17343
-0.00369
0.077491
0.062731
0.084871
0.062731
0.12915
0.092251
-0.03321
-0.18819
-0.31365
-0.49077
-0.47601
-0.24723
0.00369
0.10701
0.062731
0.099631
0.12177
0.14391
0.10701
0.10701
0.062731
-0.055351
-0.12177
-0.19557
-0.20295
-0.19557
-0.20295
-0.24723
-0.15867
-0.02583
-0.04059
-0.01845
-0.18819
-0.21771
-0.18081
-0.17343
-0.16605
-0.35055
-0.49077
-0.57196
-0.64576
-0.65314
-0.49815
-0.32841
-0.21033
-0.15867
-0.11439
-0.03321
0.092251
0.14391
0.16605
0.15867
0.077491
0.02583
-0.16605
-0.33579
-0.29889
-0.13653
0.04059
0.084871
0.21771
0.28413
0.29151
0.29151
0.15867
0.12177
0.18819
0.27675
0.34317
0.26199
0.10701
0.12177
0.099631
0.23247
0.29889
0.24723
0.15129
0.092251
0.04059
0.01107
-0.11439
-0.19557
-0.38007
-0.34317
-0.29151
-0.23247
-0.32103
-0.42435
-0.45387
-0.41697
-0.27675
-0.092251
0.03321
-0.01845
-0.11439
-0.13653
-0.18819
-0.084871
0.01107
0.01107
-0.04797
-0.16605
-0.30627
-0.45387
-0.52768
-0.57196
-0.60886
-0.7048
-0.72694
-0.631
-0.57196
-0.39483
-0.23247
-0.12177
-0.12177
-0.22509
-0.35055
-0.33579
-0.23247
-0.14391
-0.14391
-0.26199
-0.31365
-0.44649
-0.60148
-0.6679
-0.56458
-0.48339
-0.40221
-0.35055
-0.38745
-0.49815
-0.54244
-0.54244
-0.45387
-0.31365
-0.15129
-0.092251
-0.11439
-0.17343
-0.092251
-0.062731
-0.062731
0.01845
-0.03321
-0.01107
-0.01845
0.04797
0.14391
0.28413
0.43173
0.43911
0.37269
0.21771
0.13653
-0.01107
0.070111
0.21033
0.18819
0.17343
0.11439
0.21771
0.22509
0.21033
0.18081
0.16605
0.092251
0.01107
-0.092251
-0.01107
0.15129
0.35055
0.34317
0.23247
0.14391
0.01107
-0.084871
-0.23985
-0.04797
0.04797
0.15867
0.10701
0.11439
0.02583
0.04059
-0.03321
-0.14391
-0.20295
-0.18081
-0.14391
-0.12915
-0.22509
-0.10701
-0.14391
-0.099631
-0.084871
-0.17343
-0.26199
-0.35793
-0.40221
-0.45387
-0.44649
-0.31365
-0.14391
-0.04797
-0.15129
-0.099631
-0.18819
-0.16605
-0.19557
-0.26937
-0.32841
-0.34317
-0.35793
-0.38745
-0.40959
-0.36531
-0.32103
-0.22509
-0.099631
0.01845
0.03321
0.16605
0.27675
0.27675
0.15129
0.092251
0.15129
0.16605
0.18819
0.18819
0.22509
0.21033
0.11439
0.04059
-0.01845
0.04059
0.11439
0.13653
0.062731
-0.04797
-0.16605
-0.19557
-0.15129
-0.070111
0.077491
0.03321
-0.03321
-0.11439
-0.22509
-0.20295
-0.22509
-0.23985
-0.24723
-0.18819
-0.04059
0.04797
0.01107
-0.02583
-0.03321
0.01107
0.02583
-0.12177
-0.21033
-0.23247
-0.062731
-0.092251
-0.12177
-0.21771
-0.21033
-0.21771
-0.099631
-0.04059
-0.15867
-0.27675
-0.38745
-0.39483
-0.44649
-0.54244
-0.54244
-0.63838
-0.66052
-0.631
-0.66052
-0.60886
-0.65314
-0.69742
-0.71956
-0.71218
-0.57196
-0.48339
-0.34317
-0.21033
-0.077491
-0.04059
-0.03321
-0.055351
-0.03321
-0.062731
-0.01845
0.04059
0.04059
0.03321
0.02583
-0.099631
-0.27675
-0.28413
-0.27675
-0.16605
-0.00369
0.01845
-0.062731
-0.23247
-0.23985
-0.17343
-0.18081
-0.25461
-0.32103
-0.43173
-0.5203
-0.44649
-0.42435
-0.19557
-0.062731
0.03321
0.00369
-0.02583
0.01845
-0.01845
-0.084871
-0.21771
-0.24723
-0.39483
-0.46125
-0.51292
-0.69004
-0.76384
-0.78598
-0.631
-0.5572
-0.48339
-0.42435
-0.38745
-0.47601
-0.46863
-0.49815
-0.54244
-0.5572
-0.61624
-0.80074
-0.88192
-0.93358
-0.8524
-0.8524
-0.91882
-0.88192
-0.74908
-0.5941
-0.47601
-0.31365
-0.26199
-0.18081
-0.11439
-0.10701
-0.14391
-0.084871
-0.13653
-0.16605
-0.22509
-0.19557
-0.18819
-0.092251
0.055351
0.092251
0.12915
0.12177
0.092251
0.04059
-0.077491
-0.13653
-0.16605
-0.17343
-0.15867
-0.17343
-0.25461
-0.25461
-0.03321
0.15129
0.26199
0.32103
0.32103
0.26937
0.12177
-0.01107
-0.12915
-0.31365
-0.40959
-0.41697
-0.49815
-0.42435
-0.36531
-0.22509
-0.11439
-0.00369
0.15129
0.19557
0.27675
0.33579
0.40221
0.33579
0.35793
0.29889
0.26937
0.16605
-0.01845
-0.19557
-0.36531
-0.33579
-0.23247
-0.077491
0.070111
0.20295
0.21033
0.18081
0.17343
-0.03321
-0.19557
-0.29151
-0.39483
-0.40959
-0.57196
-0.57934
-0.64576
-0.69004
-0.5941
-0.40221
-0.18081
-0.084871
0.04059
-0.02583
-0.084871
-0.14391
-0.16605
-0.099631
-0.20295
-0.32841
-0.54244
-0.7417
-0.77122
-0.65314
-0.54982
-0.37269
-0.16605
-0.04797
0.062731
0.00369
-0.055351
-0.26199
-0.39483
-0.45387
-0.42435
-0.53506
-0.71956
-0.86716
-0.86716
-0.69742
-0.37269
-0.01107
0.24723
0.43173
0.41697
0.26937
0.15129
0.092251
0.084871
0.070111
0.11439
0.092251
-0.055351
-0.17343
-0.24723
-0.062731
0.00369
0.03321
0.04797
0.062731
0.18081
0.21771
0.14391
-0.04059
-0.15129
-0.20295
-0.29889
-0.40959
-0.5203
-0.54982
-0.41697
-0.21771
-0.18819
-0.23985
-0.34317
-0.49815
-0.49077
-0.40221
-0.19557
-0.04797
-0.10701
-0.10701
-0.01107
0.16605
0.35055
0.46863
0.49815
0.35793
0.21033
0.12177
0.077491
0.10701
0.099631
0.15867
0.070111
0.077491
0.077491
0.070111
0.21771
0.35055
0.52768
0.52768
0.47601
0.32103
0.12177
-0.04059
-0.15129
-0.32841
-0.54982
-0.65314
-0.76384
-0.78598
-0.72694
-0.631
-0.39483
-0.25461
-0.11439
-0.14391
-0.01845
0.11439
0.38745
0.45387
0.35793
0.23985
0.01845
-0.15129
-0.24723
-0.31365
-0.28413
-0.24723
-0.13653
-0.03321
0.01845
0.062731
0.12915
0.12177
0.11439
0.21033
0.21771
0.13653
0.070111
-0.01107
-0.10701
-0.13653
-0.04797
0.084871
0.12177
0.077491
0.04059
-0.099631
-0.23247
-0.29889
-0.22509
-0.11439
-0.062731
-0.077491
-0.15867
-0.15129
-0.19557
-0.10701
-0.13653
-0.01107
0.070111
0.00369
-0.099631
-0.22509
-0.26937
-0.26199
-0.092251
0.01845
-0.01845
-0.02583
-0.062731
0.01845
0.03321
0.17343
0.23247
0.21033
0.18081
0.13653
0.084871
-0.03321
-0.11439
-0.18819
-0.19557
-0.24723
-0.31365
-0.37269
-0.41697
-0.31365
-0.22509
-0.084871
0.099631
0.30627
0.46125
0.48339
0.47601
0.32841
0.15867
0.070111
0.099631
0.15129
0.11439
0.12915
0.13653
0.21771
0.29889
0.35793
0.17343
0.062731
-0.055351
-0.24723
-0.41697
-0.56458
-0.61624
-0.71218
-0.73432
-0.72694
-0.64576
-0.68266
-0.60148
-0.54982
-0.39483
-0.25461
-0.14391
-0.10701
-0.18819
-0.29889
-0.29151
-0.23985
-0.11439
0.01107
0.00369
-0.077491
-0.11439
-0.12915
-0.099631
-0.070111
-0.15867
-0.22509
-0.27675
-0.15129
-0.04797
-0.070111
-0.15867
-0.14391
-0.28413
-0.32841
-0.48339
-0.54982
-0.56458
-0.54982
-0.48339
-0.41697
-0.38007
-0.25461
-0.084871
0.00369
0.18081
0.39483
0.50554
0.49815
0.44649
0.29151
0.21033
0.10701
0.01845
-0.14391
-0.37269
-0.33579
-0.21771
-0.01845
0.15129
0.21033
0.055351
-0.01845
-0.092251
-0.055351
0.01107
0.10701
0.055351
-0.18081
-0.40221
-0.54244
-0.45387
-0.22509
0.062731
0.28413
0.29151
0.17343
0.062731
-0.077491
-0.15867
-0.20295
-0.29889
-0.44649
-0.5941
-0.72694
-0.6679
-0.57196
-0.27675
-0.18819
-0.26199
-0.40959
-0.54244
-0.58672
-0.60886
-0.46125
-0.42435
-0.49077
-0.57934
-0.5941
-0.49077
-0.39483
-0.12915
0.01845
0.01845
-0.055351
-0.13653
-0.084871
-0.15129
-0.25461
-0.51292
-0.67528
-0.82288
-0.75646
-0.69742
-0.50554
-0.30627
-0.22509
-0.25461
-0.32841
-0.46863
-0.60886
-0.60148
-0.56458
-0.5203
-0.64576
-0.85978
-0.91882
-0.8893
-0.68266
-0.43173
-0.21033
-0.077491
-0.062731
-0.070111
-0.12915
-0.22509
-0.22509
-0.21033
-0.27675
-0.29889
-0.31365
-0.29889
-0.12177
0.092251
0.28413
0.17343
0.055351
-0.16605
-0.29151
-0.32841
-0.33579
-0.34317
-0.39483
-0.37269
-0.42435
-0.45387
-0.43173
-0.38007
-0.37269
-0.40221
-0.32841
-0.20295
-0.092251
-0.099631
-0.18081
-0.27675
-0.43911
-0.40959
-0.40221
-0.27675
-0.16605
-0.070111
-0.062731
-0.04059
-0.00369
0.02583
0.099631
0.099631
0.070111
-0.055351
-0.099631
-0.04797
-0.04797
-0.03321
-0.070111
0.03321
0.14391
0.21771
0.30627
0.21771
-0.12915
-0.29889
-0.40221
-0.40959
-0.35055
-0.51292
-0.58672
-0.61624
-0.43911
-0.13653
0.01845
0.12177
0.14391
0.077491
0.062731
0.00369
-0.070111
-0.099631
-0.12177
-0.00369
-0.062731
-0.12177
-0.13653
-0.084871
0.03321
0.099631
0.18081
0.26199
0.21771
0.17343
-0.070111
-0.24723
-0.26937
-0.17343
-0.03321
0.00369
0.062731
-0.02583
-0.092251
-0.11439
-0.01107
0.01107
0.00369
0.01845
0.02583
0.04797
-0.13653
-0.23247
-0.24723
-0.10701
-0.01107
0.084871
0.03321
0.077491
0.14391
0.12915
0.15867
0.35055
0.46125
0.60886
0.57934
0.65314
0.57934
0.51292
0.45387
0.29889
0.092251
-0.15867
-0.16605
-0.22509
-0.16605
-0.092251
-0.03321
0.03321
0.04797
0.084871
0.070111
0.099631
0.01107
-0.14391
-0.35055
-0.46863
-0.60148
-0.63838
-0.60886
-0.37269
-0.17343
0.02583
0.13653
0.21033
0.15129
0.15129
0.077491
-0.03321
-0.17343
-0.29889
-0.40221
-0.56458
-0.75646
-0.89668
-0.89668
-0.79336
-0.62362
-0.50554
-0.41697
-0.29889
-0.21771
-0.26937
-0.29889
-0.26199
-0.23247
-0.27675
-0.32841
-0.30627
-0.38007
-0.35793
-0.26937
-0.11439
0.01107
0.04059
0.04797
-0.00369
-0.070111
-0.23247
-0.39483
-0.5203
-0.50554
-0.38007
-0.42435
-0.35793
-0.24723
-0.077491
-0.02583
0.070111
0.12915
0.11439
0.099631
-0.02583
-0.099631
-0.14391
-0.13653
-0.070111
0.01107
0.04059
0.055351
0.055351
0.062731
0.18081
0.16605
0.15129
0.070111
0.077491
0.070111
0.01845
-0.00369
-0.15129
-0.37269
-0.46863
-0.54982
-0.47601
-0.50554
-0.52768
-0.60886
-0.65314
-0.56458
-0.46125
-0.50554
-0.60886
-0.60148
-0.54982
-0.60148
-0.57934
-0.58672
-0.63838
-0.6679
-0.69004
-0.631
-0.64576
-0.56458
-0.46863
-0.35055
-0.27675
-0.28413
-0.32841
-0.32841
-0.26199
-0.14391
-0.18081
-0.12915
-0.070111
-0.01107
0.077491
0.04797
0.04797
-0.077491
-0.17343
-0.18819
-0.055351
0.00369
0.12915
0.13653
0.055351
-0.062731
-0.15867
-0.17343
-0.12915
-0.15129
-0.15129
-0.17343
-0.14391
-0.070111
-0.077491
-0.23247
-0.23247
-0.26199
-0.10701
0.12177
0.24723
0.23247
0.099631
-0.00369
-0.00369
-0.070111
-0.03321
0.070111
0.20295
0.23247
0.31365
0.23247
0.10701
-0.12177
-0.30627
-0.42435
-0.49077
-0.39483
-0.41697
-0.49077
-0.5203
-0.38007
-0.23985
-0.21771
-0.23985
-0.41697
-0.61624
-0.7048
-0.67528
-0.60148
-0.58672
-0.57934
-0.51292
-0.48339
-0.33579
-0.19557
-0.099631
-0.03321
-0.03321
-0.04059
-0.12177
-0.10701
-0.062731
-0.04797
0.070111
0.13653
0.24723
0.21033
0.12177
-0.070111
-0.18081
-0.24723
-0.21771
-0.27675
-0.44649
-0.67528
-0.78598
-0.8524
-0.73432
-0.60148
-0.54982
-0.62362
-0.66052
-0.73432
-0.79336
-0.87454
-0.83026
-0.68266
-0.51292
-0.34317
-0.35055
-0.44649
-0.51292
-0.47601
-0.40221
-0.38007
-0.32841
-0.29889
-0.26937
-0.18081
-0.16605
-0.23985
-0.34317
-0.32841
-0.29889
-0.28413
-0.45387
-0.53506
-0.64576
-0.61624
-0.5203
-0.40221
-0.29889
-0.14391
0.04059
0.10701
0.15129
0.16605
0.062731
-0.092251
-0.21033
-0.35793
-0.53506
-0.60886
-0.57196
-0.48339
-0.49815
-0.49077
-0.44649
-0.38007
-0.33579
-0.41697
-0.47601
-0.5941
-0.57196
-0.63838
-0.75646
-0.85978
-0.80812
-0.53506
-0.36531
-0.21033
-0.18081
-0.12177
0.01845
0.13653
0.15129
0.11439
0.25461
0.36531
0.38745
0.12177
-0.15129
-0.34317
-0.29151
-0.01845
0.25461
0.34317
0.30627
0.10701
-0.11439
-0.17343
-0.092251
-0.01845
-0.10701
-0.21033
-0.26199
-0.29151
-0.23985
-0.12177
0.04059
0.084871
0.02583
0.00369
-0.084871
-0.077491
-0.084871
-0.12177
-0.23985
-0.24723
-0.21771
-0.22509
-0.40221
-0.43911
-0.49077
-0.46863
-0.48339
-0.60148
-0.57196
-0.53506
-0.49077
-0.48339
-0.45387
-0.38745
-0.32103
-0.26199
-0.36531
-0.50554
-0.6679
-0.7048
-0.71956
-0.73432
-0.68266
-0.57196
-0.43911
-0.37269
-0.30627
-0.24723
-0.13653
0.11439
0.21771
0.15867
-0.070111
-0.26937
-0.49815
-0.63838
-0.69004
-0.74908
-0.80812
-0.82288
-0.80074
-0.69742
-0.56458
-0.24723
-0.12915
-0.04797
-0.01107
0.099631
0.18819
0.28413
0.20295
-0.00369
-0.31365
-0.53506
-0.5941
-0.54244
-0.35793
-0.13653
0.04797
0.070111
0.077491
0.11439
0.11439
0.15129
0.10701
0.14391
0.17343
0.24723
0.16605
-0.12177
-0.32103
-0.25461
-0.04059
0.12915
0.18081
0.10701
0.00369
0.084871
0.24723
0.38007
0.44649
0.46125
0.35793
0.20295
-0.00369
-0.055351
-0.12177
-0.20295
-0.40221
-0.67528
-0.8893
-0.94834
-0.69004
-0.35793
-0.02583
0.27675
0.40221
0.46863
0.48339
0.54982
0.57934
0.45387
0.24723
-0.04059
-0.38745
-0.43911
-0.38745
-0.20295
0.11439
0.34317
0.49077
0.52768
0.48339
0.47601
0.32841
0.26199
0.15129
0.01107
-0.16605
-0.26937
-0.15867
-0.01845
0.21771
0.45387
0.61624
0.65314
0.65314
0.58672
0.49815
0.37269
0.25461
0.062731
-0.17343
-0.28413
-0.33579
-0.26937
-0.19557
-0.04797
0.02583
0.099631
0.25461
0.35055
0.43911
0.40959
0.29151
0.15129
-0.03321
-0.084871
-0.055351
-0.01107
0.04797
0.062731
0.03321
0.02583
0.20295
0.30627
0.34317
0.32841
0.32841
0.28413
0.25461
0.21033
0.15129
0.062731
-0.14391
-0.20295
-0.32841
-0.15867
0.04059
0.18819
0.29889
0.20295
0.18081
-0.062731
-0.22509
-0.38745
-0.44649
-0.44649
-0.31365
-0.22509
-0.19557
-0.20295
-0.23247
-0.27675
-0.45387
-0.62362
-0.73432
-0.83026
-0.78598
-0.65314
-0.48339
-0.34317
-0.20295
-0.15129
-0.18081
-0.17343
-0.15867
-0.084871
-0.00369
-0.00369
-0.11439
-0.29889
-0.36531
-0.22509
0.02583
0.11439
0.21771
0.18819
0.16605
0.13653
0.077491
0.077491
-0.01845
-0.04797
-0.01845
-0.01845
0.10701
0.084871
0.00369
-0.04797
-0.04059
-0.062731
-0.11439
-0.23247
-0.19557
-0.29151
-0.29151
-0.21771
-0.23247
-0.21033
-0.24723
-0.26199
-0.35793
-0.33579
-0.24723
-0.13653
-0.062731
-0.02583
0.070111
0.02583
0.055351
0.01845
-0.00369
-0.084871
-0.23247
-0.23985
-0.30627
-0.30627
-0.30627
-0.30627
-0.38007
-0.40221
-0.47601
-0.5572
-0.5941
-0.51292
-0.40959
-0.41697
-0.38007
-0.57196
-0.68266
-0.69004
-0.54244
-0.30627
-0.23985
-0.14391
-0.21771
-0.22509
-0.21033
-0.084871
0.01107
-0.00369
0.04797
0.055351
-0.02583
-0.21033
-0.33579
-0.41697
-0.33579
-0.10701
-0.01845
0.03321
0.03321
0.02583
-0.03321
-0.12915
-0.20295
-0.26199
-0.20295
0.01845
0.26199
0.33579
0.18819
-0.077491
-0.27675
-0.32841
-0.28413
0.062731
0.23985
0.40221
0.35793
0.26199
0.12915
0.04059
-0.062731
-0.17343
-0.18819
-0.04797
0.10701
0.15867
0.15867
0.18819
0.055351
0.00369
-0.16605
-0.27675
-0.32841
-0.12915
0.062731
0.26937
0.33579
0.30627
0.18819
-0.055351
-0.23247
-0.28413
-0.22509
-0.01845
0.18081
0.23985
0.18081
0.12915
0.10701
0.21033
0.31365
0.46125
0.5941
0.5572
0.50554
0.28413
0.099631
-0.04797
-0.077491
-0.18819
-0.23985
-0.14391
-0.084871
-0.099631
-0.20295
-0.27675
-0.32841
-0.12915
0.084871
0.24723
0.35793
0.35793
0.42435
0.22509
0.092251
0.055351
0.10701
0.17343
0.12915
0.15129
0.10701
0.14391
0.21771
0.35793
0.40221
0.38745
0.30627
0.01107
-0.04059
-0.13653
0.00369
-0.01845
0.00369
-0.099631
-0.14391
-0.12915
-0.03321
0.077491
0.17343
0.25461
0.32841
0.29889
0.20295
0.16605
-0.00369
-0.14391
-0.24723
-0.29889
-0.30627
-0.30627
-0.36531
-0.41697
-0.44649
-0.31365
-0.21771
-0.15867
-0.22509
-0.30627
-0.38007
-0.43911
-0.37269
-0.35055
-0.38745
-0.41697
-0.39483
-0.38745
-0.30627
-0.19557
-0.12915
-0.15129
-0.26937
-0.49815
-0.67528
-0.77122
-0.63838
-0.43173
-0.34317
-0.25461
-0.18081
-0.16605
-0.092251
-0.01845
0.00369
0.00369
-0.02583
-0.02583
-0.077491
-0.04797
0.03321
0.062731
0.077491
0.18081
0.30627
0.38007
0.23985
0.01107
-0.26937
-0.41697
-0.45387
-0.45387
-0.57196
-0.66052
-0.68266
-0.60886
-0.47601
-0.25461
-0.18819
-0.22509
-0.35055
-0.35055
-0.38007
-0.39483
-0.42435
-0.29151
-0.18081
-0.099631
-0.084871
-0.15867
-0.13653
-0.077491
-0.055351
-0.15867
-0.29889
-0.32103
-0.48339
-0.631
-0.78598
-0.97048
-0.95572
-0.83026
-0.60148
-0.42435
-0.30627
-0.33579
-0.43911
-0.61624
-0.65314
-0.58672
-0.49077
-0.31365
-0.15129
-0.01107
0.02583
0.055351
0.01845
-0.084871
-0.14391
-0.19557
-0.22509
-0.33579
-0.38745
-0.32841
-0.29151
-0.29151
-0.34317
-0.38745
-0.33579
-0.20295
-0.02583
-0.00369
-0.062731
-0.15129
-0.31365
-0.45387
-0.57934
-0.56458
-0.52768
-0.34317
-0.20295
-0.15867
-0.26199
-0.37269
-0.47601
-0.44649
-0.31365
-0.17343
-0.15867
-0.22509
-0.22509
-0.19557
-0.26937
-0.32103
-0.34317
-0.34317
-0.24723
-0.12915
-0.02583
-0.084871
-0.13653
-0.10701
-0.077491
0.00369
0.04059
-0.084871
-0.22509
-0.35793
-0.28413
-0.16605
0.055351
0.19557
0.20295
0.099631
0.01845
0.01107
0.01107
0.070111
0.12915
0.14391
0.01845
-0.04059
-0.11439
-0.11439
-0.20295
-0.18819
-0.27675
-0.41697
-0.50554
-0.52768
-0.49077
-0.49815
-0.43911
-0.50554
-0.60148
-0.68266
-0.67528
-0.54982
-0.44649
-0.23985
-0.18819
-0.01845
0.17343
0.20295
0.092251
-0.13653
-0.38745
-0.60148
-0.74908
-0.65314
-0.5572
-0.43911
-0.39483
-0.38745
-0.42435
-0.40221
-0.27675
-0.25461
-0.31365
-0.54982
-0.74908
-0.95572
-0.97048
-0.89668
-0.83764
-0.8524
-0.85978
-0.77122
-0.80812
-0.79336
-0.87454
-0.90406
-0.90406
-0.94834
-0.93358
-0.99262
-0.94096
-0.83764
-0.60886
-0.39483
-0.16605
0.00369
0.00369
0.03321
-0.01107
-0.062731
-0.21033
-0.29889
-0.36531
-0.54982
-0.71956
-0.85978
-0.94834
-0.97786
-0.88192
-0.71956
-0.57934
-0.54244
-0.48339
-0.50554
-0.49077
-0.32103
-0.26937
-0.23985
-0.29151
-0.29889
-0.21771
-0.099631
0.23985
0.46125
0.54244
0.58672
0.62362
0.65314
0.631
0.43911
0.12915
-0.23985
-0.44649
-0.51292
-0.45387
-0.35055
-0.19557
-0.15867
-0.23985
-0.31365
-0.27675
-0.17343
-0.077491
-0.03321
-0.04797
-0.062731
-0.12915
-0.15867
-0.21033
-0.15867
-0.084871
-0.04059
-0.03321
-0.084871
0.00369
-0.01107
0.00369
0.070111
0.070111
-0.01107
-0.18819
-0.35055
-0.39483
-0.26937
-0.092251
-0.077491
-0.15129
-0.070111
0.099631
0.22509
0.21033
0.055351
-0.084871
-0.19557
-0.12915
-0.13653
-0.10701
-0.02583
0.20295
0.42435
0.49077
0.45387
0.24723
0.11439
0.03321
0.062731
0.02583
0.01107
0.04059
0.10701
0.12177
0.10701
0.092251
0.02583
-0.062731
-0.20295
-0.34317
-0.48339
-0.51292
-0.42435
-0.37269
-0.25461
-0.16605
-0.11439
-0.13653
-0.20295
-0.092251
0.00369
0.19557
0.26937
0.16605
-0.00369
-0.18081
-0.23985
-0.22509
-0.15129
-0.02583
0.070111
0.03321
-0.01845
-0.092251
-0.01107
0.11439
0.32103
0.39483
0.24723
0.17343
-0.01845
-0.12915
-0.15867
-0.18819
-0.062731
0.070111
0.19557
0.26937
0.17343
0.26937
0.38007
0.46863
0.38745
0.28413
0.16605
0.062731
-0.04797
-0.077491
-0.22509
-0.32841
-0.49815
-0.631
-0.71956
-0.68266
-0.45387
-0.33579
-0.16605
-0.04059
0.01107
-0.01845
-0.13653
-0.22509
-0.45387
-0.54982
-0.63838
-0.68266
-0.7048
-0.61624
-0.35793
-0.18081
0.02583
0.055351
0.055351
-0.12177
-0.30627
-0.35793
-0.42435
-0.43173
-0.52768
-0.68266
-0.80812
-0.87454
-0.87454
-0.83026
-0.631
-0.36531
-0.092251
0.084871
0.29889
0.41697
0.32103
0.04797
-0.31365
-0.65314
-0.7786
-0.77122
-0.75646
-0.84502
-0.94834
-1
-0.8155
-0.57196
-0.26199
-0.15867
-0.22509
-0.26937
-0.33579
-0.32103
-0.35055
-0.27675
-0.22509
-0.29889
-0.37269
-0.47601
-0.60886
-0.73432
-0.7417
-0.6679
-0.54982
-0.46125
-0.40959
-0.44649
-0.40221
-0.26937
-0.17343
-0.03321
0.01845
0.02583
-0.02583
-0.11439
-0.15867
-0.18819
-0.27675
-0.27675
-0.18081
-0.070111
-0.00369
0.10701
0.055351
-0.01107
-0.13653
-0.16605
-0.15129
-0.077491
-0.04059
-0.04059
-0.092251
-0.099631
-0.070111
-0.084871
-0.10701
-0.070111
0.01107
0.11439
0.19557
0.10701
0.01845
-0.03321
0.062731
0.12915
0.17343
0.14391
0.070111
-0.11439
-0.20295
-0.18819
-0.14391
-0.055351
0.10701
0.15867
0.15129
0.12177
0.077491
0.099631
0.084871
0.10701
-0.01107
-0.12177
-0.28413
-0.29889
-0.37269
-0.39483
-0.38007
-0.32103
-0.24723
-0.16605
-0.00369
0.055351
0.11439
0.20295
0.11439
-0.01845
-0.22509
-0.27675
-0.35793
-0.24723
-0.22509
-0.15867
-0.092251
-0.070111
-0.02583
-0.12177
-0.12915
-0.070111
-0.02583
-0.070111
-0.19557
-0.28413
-0.42435
-0.44649
-0.34317
-0.20295
-0.13653
-0.077491
-0.03321
0.00369
0.02583
0.04797
0.084871
0.18081
0.21033
0.22509
0.18081
0.15867
0.22509
0.25461
0.25461
0.26199
0.13653
0.03321
0.00369
0.01845
0.084871
0.070111
0.04059
-0.062731
-0.18081
-0.20295
-0.15129
-0.15129
-0.03321
0.062731
0.03321
-0.055351
-0.24723
-0.35793
-0.46125
-0.48339
-0.33579
-0.21033
-0.11439
-0.062731
-0.04797
-0.092251
-0.15129
-0.15129
-0.01845
0.04797
0.13653
0.099631
-0.092251
-0.33579
-0.53506
-0.67528
-0.7048
-0.66052
-0.57934
-0.54244
-0.38745
-0.15867
0.070111
0.16605
0.19557
0.01107
-0.19557
-0.32103
-0.32103
-0.26199
-0.26199
-0.30627
-0.40221
-0.5572
-0.54244
-0.49077
-0.32841
-0.21771
0.04059
0.24723
0.23247
0.17343
0.00369
-0.19557
-0.26199
-0.32103
-0.38745
-0.42435
-0.53506
-0.53506
-0.57934
-0.50554
-0.31365
-0.077491
0.17343
0.35793
0.5941
0.7048
0.90406
1
0.94834
0.77122
0.57196
0.46863
0.27675
0.092251
-0.084871
-0.18081
-0.21771
-0.27675
-0.30627
-0.40221
-0.37269
-0.32103
-0.16605
-0.16605
-0.062731
-0.062731
-0.12915
-0.20295
-0.21771
-0.43911
-0.5941
-0.71218
-0.75646
-0.71218
-0.631
-0.45387
-0.26199
-0.23985
-0.13653
-0.18819
-0.12177
-0.16605
-0.16605
-0.29889
-0.49815
-0.54982
-0.63838
-0.60886
-0.49815
-0.34317
-0.23247
-0.26937
-0.14391
-0.02583
0.13653
0.19557
0.26937
0.21771
0.22509
0.22509
0.13653
-0.02583
-0.15867
-0.16605
-0.14391
-0.092251
-0.055351
-0.00369
0.14391
0.29889
0.5572
0.63838
0.66052
0.631
0.48339
0.26937
0.055351
-0.055351
-0.13653
-0.092251
-0.077491
-0.02583
-0.04797
-0.04059
-0.099631
-0.084871
0.01107
0.099631
0.01845
-0.16605
-0.23247
-0.13653
-0.062731
0.099631
0.22509
0.27675
0.12915
0.11439
0.11439
0.21033
0.23247
0.31365
0.32841
0.24723
0.22509
0.099631
-0.04797
-0.23985
-0.33579
-0.41697
-0.46125
-0.34317
-0.26937
-0.18081
-0.15867
-0.084871
-0.00369
0.04059
0.01845
-0.14391
-0.36531
-0.49815
-0.44649
-0.36531
-0.22509
-0.12915
-0.13653
-0.16605
-0.20295
-0.21771
-0.23985
-0.22509
-0.13653
-0.099631
-0.04797
0.01845
0.04797
0.12177
0.18081
0.32103
0.46125
0.52768
0.631
0.80812
0.75646
0.66052
0.45387
0.30627
0.099631
0.04059
-0.099631
-0.23247
-0.23985
-0.12915
0.055351
0.15129
0.23247
0.23985
0.15867
0.10701
-0.00369
-0.12177
-0.25461
-0.37269
-0.46863
-0.60148
-0.71218
-0.69004
-0.62362
-0.54982
-0.33579
-0.22509
-0.22509
-0.29151
-0.32841
-0.34317
-0.23985
-0.18081
-0.23247
-0.37269
-0.5203
-0.49077
-0.49077
-0.5203
-0.49815
-0.56458
-0.46125
-0.35793
-0.13653
-0.04797
-0.070111
-0.16605
-0.29151
-0.36531
-0.45387
-0.37269
-0.32841
-0.29151
-0.14391
-0.00369
0.04797
0.14391
0.15129
0.11439
0.20295
0.26937
0.28413
0.084871
-0.12915
-0.26199
-0.30627
-0.28413
-0.23247
-0.25461
-0.42435
-0.5203
-0.60886
-0.5941
-0.5572
-0.50554
-0.54244
-0.51292
-0.45387
-0.45387
-0.41697
-0.29889
-0.00369
0.31365
0.51292
0.57196
0.45387
0.24723
0.077491
-0.00369
-0.01845
-0.077491
-0.077491
-0.14391
-0.21033
-0.38745
-0.47601
-0.61624
-0.57934
-0.46863
-0.38745
-0.39483
-0.58672
-0.63838
-0.80074
-0.77122
-0.73432
-0.73432
-0.75646
-0.80074
-0.71956
-0.66052
-0.51292
-0.49077
-0.45387
-0.51292
-0.42435
-0.30627
-0.28413
-0.29151
-0.26199
-0.23247
-0.29889
-0.38007
-0.48339
-0.60886
-0.631
-0.67528
-0.69004
-0.69742
-0.5572
-0.33579
-0.23247
-0.14391
-0.21033
-0.25461
-0.31365
-0.23985
-0.26937
-0.26199
-0.23985
-0.24723
-0.20295
-0.26199
-0.16605
-0.16605
-0.28413
-0.46125
-0.53506
-0.51292
-0.40221
-0.32103
-0.34317
-0.46125
-0.51292
-0.43173
-0.40221
-0.43173
-0.48339
-0.53506
-0.46125
-0.40959
-0.29151
-0.32103
-0.35055
-0.36531
-0.35793
-0.31365
-0.20295
-0.13653
-0.16605
-0.14391
-0.13653
-0.077491
-0.14391
-0.18819
-0.21771
-0.21033
-0.15129
-0.092251
-0.14391
-0.17343
-0.21771
-0.15129
-0.18819
-0.24723
-0.30627
-0.35055
-0.36531
-0.38007
-0.38007
-0.44649
-0.5572
-0.62362
-0.7417
-0.78598
-0.80812
-0.84502
-0.9262
-0.87454
-0.69004
-0.48339
-0.43173
-0.33579
-0.38007
-0.40959
-0.40221
-0.27675
-0.15129
-0.15129
-0.15129
-0.23247
-0.31365
-0.29151
-0.24723
-0.15867
-0.11439
-0.15867
-0.19557
-0.15129
-0.084871
0.01845
0.070111
0.11439
0.18819
0.11439
0.03321
-0.01107
-0.00369
-0.00369
0.02583
0.12177
0.21771
0.29151
0.30627
0.29889
0.29151
0.26937
0.29889
0.22509
0.11439
0.084871
0.084871
0.04797
-0.00369
-0.02583
0.02583
0.15867
0.27675
0.32103
0.32103
0.20295
0.01845
-0.18819
-0.32103
-0.33579
-0.22509
-0.20295
-0.092251
0.00369
0.055351
-0.00369
-0.10701
-0.27675
-0.45387
-0.37269
-0.23985
-0.084871
-0.092251
-0.13653
-0.11439
-0.04797
0.04059
0.03321
-0.04059
-0.15129
-0.15867
-0.070111
-0.03321
-0.01107
0.099631
0.12177
0.15129
0.18081
0.084871
-0.00369
-0.11439
-0.20295
-0.38007
-0.41697
-0.44649
-0.33579
-0.31365
-0.23985
-0.055351
-0.04797
-0.02583
-0.01107
0.04059
-0.01107
-0.070111
-0.16605
-0.30627
-0.42435
-0.45387
-0.34317
-0.20295
0.01845
0.099631
0.15867
0.23985
0.35055
0.46863
0.47601
0.42435
0.26199
0.12177
0.077491
0.11439
0.099631
0.092251
0.21033
0.35793
0.48339
0.5572
0.62362
0.56458
0.40959
0.33579
0.24723
0.16605
0.15867
0.24723
0.31365
0.48339
0.64576
0.71218
0.66052
0.60886
0.62362
0.5572
0.42435
0.27675
0.099631
-0.00369
-0.18081
-0.055351
0.062731
0.26937
0.46863
0.52768
0.49815
0.43911
0.35793
0.31365
0.23247
0.18819
0.03321
-0.18819
-0.32841
-0.35055
-0.43173
-0.29151
-0.18081
-0.062731
0.092251
0.20295
0.21033
0.062731
-0.17343
-0.26199
-0.21771
-0.15867
-0.092251
-0.12915
-0.26199
-0.34317
-0.35793
-0.35055
-0.29889
-0.23247
-0.16605
-0.11439
-0.13653
-0.24723
-0.33579
-0.50554
-0.43173
-0.57196
-0.69004
-0.88192
-0.93358
-0.98524
-0.91882
-0.76384
-0.69742
-0.58672
-0.60148
-0.60148
-0.631
-0.58672
-0.5203
-0.43911
-0.43911
-0.35055
-0.29151
-0.29889
-0.30627
-0.35793
-0.32103
-0.20295
-0.03321
0.23985
0.19557
0.070111
-0.12915
-0.32841
-0.49815
-0.53506
-0.49077
-0.42435
-0.43173
-0.42435
-0.37269
-0.18819
-0.04059
0.055351
-0.03321
-0.092251
-0.12915
-0.19557
-0.26937
-0.28413
-0.30627
-0.32841
-0.31365
-0.35055
-0.23247
-0.21033
-0.14391
-0.16605
-0.29889
-0.42435
-0.40221
-0.43911
-0.36531
-0.12915
0.01107
0.11439
0.03321
-0.12177
-0.34317
-0.46125
-0.38745
-0.31365
-0.27675
-0.28413
-0.26937
-0.25461
-0.26937
-0.26937
-0.28413
-0.35793
-0.29889
-0.23985
-0.15129
-0.14391
-0.15129
-0.13653
-0.14391
-0.12915
-0.062731
-0.13653
-0.084871
-0.084871
-0.12177
-0.24723
-0.34317
-0.38007
-0.52768
-0.54982
-0.65314
-0.71218
-0.6679
-0.60148
-0.41697
-0.38745
-0.33579
-0.32841
-0.27675
-0.24723
-0.16605
-0.04797
0.04059
0.092251
0.099631
-0.04797
-0.17343
-0.21771
-0.15867
-0.12177
-0.13653
-0.04797
0.077491
0.11439
0.14391
0.15867
0.17343
0.26199
0.32841
0.26937
0.15129
0.070111
-0.03321
-0.04797
0.00369
0.02583
-0.02583
-0.099631
-0.12177
-0.084871
-0.084871
0.00369
0.055351
-0.01845
0.01845
-0.04797
-0.077491
-0.18081
-0.22509
-0.12915
0.01107
0.15129
0.18081
0.077491
-0.04059
-0.099631
-0.062731
-0.077491
0.03321
0.055351
-0.00369
-0.092251
-0.12177
-0.070111
-0.04059
-0.01107
0.02583
0.10701
0.11439
0.21771
0.11439
-0.04797
-0.32103
-0.41697
-0.44649
-0.38007
-0.23985
-0.16605
-0.15129
-0.04797
0.099631
0.28413
0.21771
0.12177
-0.077491
-0.18819
-0.24723
-0.22509
-0.27675
-0.31365
-0.30627
-0.25461
-0.22509
-0.15129
-0.055351
-0.070111
-0.14391
-0.21033
-0.27675
-0.29151
-0.32841
-0.35055
-0.34317
-0.32841
-0.30627
-0.30627
-0.33579
-0.43173
-0.5572
-0.73432
-0.82288
-0.8155
-0.80074
-0.7786
-0.63838
-0.45387
-0.38745
-0.38745
-0.44649
-0.5203
-0.52768
-0.53506
-0.36531
-0.35055
-0.32841
-0.23985
-0.15867
-0.092251
-0.03321
-0.12915
-0.19557
-0.31365
-0.30627
-0.15129
-0.01845
0.18081
0.11439
0.01107
-0.21033
-0.31365
-0.35055
-0.31365
-0.17343
-0.070111
-0.099631
-0.15129
-0.19557
-0.23985
-0.29889
-0.38007
-0.54244
-0.68266
-0.71218
-0.64576
-0.42435
-0.30627
-0.19557
-0.23247
-0.27675
-0.29889
-0.27675
-0.29889
-0.29889
-0.26199
-0.26199
-0.37269
-0.54244
-0.64576
-0.67528
-0.57196
-0.43911
-0.38007
-0.40959
-0.29151
-0.084871
0.15129
0.26199
0.26937
0.14391
0.04797
0.055351
0.10701
0.099631
0.055351
0.062731
0.04059
0.055351
0.23247
0.37269
0.43911
0.32841
0.19557
0.23247
0.29151
0.40221
0.33579
0.18081
0.10701
0.14391
0.29889
0.30627
0.41697
0.40221
0.30627
0.11439
-0.099631
-0.30627
-0.26937
-0.15867
-0.055351
-0.02583
-0.17343
-0.34317
-0.58672
-0.80812
-0.76384
-0.62362
-0.40959
-0.26199
-0.14391
-0.15867
-0.16605
-0.14391
-0.11439
-0.084871
0.00369
0.15129
0.11439
0.077491
-0.00369
-0.099631
-0.22509
-0.27675
-0.26937
-0.29889
-0.37269
-0.42435
-0.44649
-0.26937
-0.12915
-0.055351
-0.22509
-0.34317
-0.34317
-0.26199
-0.21771
-0.16605
-0.15867
-0.11439
-0.11439
-0.20295
-0.19557
-0.15867
-0.070111
-0.03321
-0.055351
-0.01845
0.099631
0.092251
0.01845
-0.00369
-0.18819
-0.24723
-0.26937
-0.099631
-0.02583
-0.00369
-0.04797
-0.092251
-0.18081
-0.21033
-0.22509
-0.32103
-0.50554
-0.48339
-0.32841
-0.092251
0.00369
-0.04059
-0.14391
-0.14391
-0.092251
-0.10701
-0.19557
-0.22509
-0.16605
-0.10701
0.04059
0.13653
0.25461
0.24723
0.11439
0.055351
-0.01107
0.099631
0.13653
0.062731
-0.17343
-0.33579
-0.31365
-0.28413
-0.15867
-0.04797
-0.02583
-0.04059
-0.02583
0.055351
0.14391
0.18819
0.18819
0.077491
-0.055351
-0.16605
-0.35793
-0.49077
-0.50554
-0.32841
-0.13653
-0.099631
-0.092251
-0.11439
-0.084871
-0.062731
-0.04797
-0.077491
-0.12177
-0.099631
-0.18081
-0.30627
-0.38745
-0.31365
-0.25461
-0.22509
-0.20295
-0.23985
-0.21771
-0.15867
-0.17343
-0.17343
-0.18081
-0.11439
0.04059
0.13653
0.24723
0.29151
0.17343
-0.01845
-0.070111
-0.070111
-0.01845
-0.055351
-0.077491
-0.14391
-0.04797
0.11439
0.14391
0.077491
0.04059
0.12177
0.26199
0.32103
0.32103
0.20295
0.11439
0.077491
0.20295
0.29889
0.36531
0.27675
0.077491
-0.15867
-0.21033
-0.23985
-0.22509
-0.15129
-0.04797
-0.01107
-0.12915
-0.26937
-0.43911
-0.51292
-0.49077
-0.34317
-0.15129
-0.01845
0.04797
-0.070111
-0.28413
-0.48339
-0.5203
-0.46863
-0.37269
-0.31365
-0.31365
-0.34317
-0.29889
-0.28413
-0.28413
-0.29889
-0.28413
-0.29151
-0.31365
-0.36531
-0.44649
-0.60886
-0.73432
-0.5941
-0.24723
0.070111
0.19557
0.099631
-0.29151
-0.60148
-0.80812
-0.9262
-0.9262
-0.8893
-0.6679
-0.49077
-0.38745
-0.26937
-0.39483
-0.46863
-0.46863
-0.43911
-0.32841
-0.26199
-0.16605
-0.077491
-0.12177
-0.16605
-0.23985
-0.36531
-0.48339
-0.49077
-0.43911
-0.35793
-0.20295
-0.19557
-0.23985
-0.21033
-0.16605
-0.099631
-0.11439
-0.055351
-0.04059
-0.04797
-0.12177
-0.23247
-0.30627
-0.26937
-0.14391
-0.03321
-0.01845
0.01107
0.12177
0.21033
0.31365
0.33579
0.33579
0.30627
0.22509
0.10701
-0.01107
-0.084871
0.055351
0.13653
0.15867
0.04797
0.04059
0.092251
0.21033
0.30627
0.34317
0.42435
0.53506
0.46863
0.37269
0.15867
0.092251
0.03321
-0.00369
0.070111
0.077491
-0.01845
-0.15129
-0.25461
-0.22509
-0.21771
-0.01845
0.03321
0.099631
0.12915
0.18081
0.23985
0.19557
0.18819
0.15129
0.12915
0.11439
0.070111
-0.02583
-0.13653
-0.21771
-0.32103
-0.36531
-0.33579
-0.27675
-0.31365
-0.35055
-0.43911
-0.46125
-0.37269
-0.29151
-0.10701
-0.13653
-0.23247
-0.32103
-0.35055
-0.27675
-0.22509
-0.18081
-0.23247
-0.33579
-0.46863
-0.46863
-0.39483
-0.32841
-0.21771
-0.24723
-0.25461
-0.15867
-0.12177
-0.12177
-0.17343
-0.23247
-0.24723
-0.30627
-0.36531
-0.53506
-0.66052
-0.68266
-0.62362
-0.62362
-0.5572
-0.40959
-0.19557
-0.070111
0.11439
0.24723
0.38007
0.26937
0.18081
0.062731
0.03321
0.04059
-0.00369
-0.12177
-0.23985
-0.24723
-0.21033
-0.29889
-0.27675
-0.34317
-0.34317
-0.27675
-0.25461
-0.21033
-0.25461
-0.28413
-0.21771
