0.22257
0.23511
0.097179
-0.0094044
0.034483
0.14734
0.22884
0.27273
0.23511
0.053292
-0.10345
-0.23511
-0.24138
-0.2163
-0.19122
-0.19749
-0.28527
-0.32288
-0.37931
-0.40439
-0.29154
-0.10345
0.059561
0.18495
0.12853
0.0721
0.065831
0.065831
0.21003
0.25392
0.22257
0.18495
0.17241
0.18495
0.27273
0.37304
0.37304
0.32915
0.22884
0.14107
0.0031348
-0.059561
-0.047022
-0.028213
0.053292
0.11599
0.22884
0.23511
0.22257
0.21003
0.26646
0.279
0.2163
0.32915
0.33542
0.49216
0.51724
0.46708
0.33542
0.279
0.24138
0.23511
0.26646
0.37931
0.47335
0.41693
0.30408
0.2163
0.07837
0.14107
0.20376
0.39812
0.44201
0.56113
0.54232
0.46708
0.4232
0.39812
0.41693
0.36677
0.31661
0.26646
0.15987
0.2163
0.19749
0.30408
0.29154
0.26646
0.16614
0.10345
0.065831
0.10345
0.15987
0.21003
0.30408
0.37931
0.38558
0.49843
0.5674
0.55486
0.44201
0.33542
0.21003
0.11599
0.065831
0.065831
0.15361
0.26646
0.36677
0.3605
0.28527
0.18495
0.21003
0.20376
0.30408
0.35423
0.35423
0.32288
0.39185
0.39185
0.52978
0.5674
0.56113
0.57367
0.61755
0.59248
0.54232
0.47335
0.32288
0.27273
0.20376
0.29154
0.32288
0.38558
0.41066
0.44828
0.49216
0.46708
0.35423
0.12853
-0.097179
-0.22884
-0.26019
-0.12853
0.040752
0.17868
0.24138
0.34796
0.34796
0.26646
0.18495
0.065831
0.0094044
0.0031348
0.11599
0.24138
0.39185
0.49843
0.53605
0.44828
0.34169
0.3605
0.44828
0.5047
0.52351
0.54232
0.54232
0.52978
0.49843
0.5674
0.57994
0.65517
0.61755
0.54232
0.47962
0.49843
0.51724
0.38558
0.26019
0.12226
0.11599
0.2163
0.29154
0.34796
0.37304
0.36677
0.39812
0.29781
0.23511
0.17868
0.31034
0.39185
0.43574
0.40439
0.31661
0.37304
0.51097
0.68652
0.73041
0.72414
0.57994
0.41066
0.24138
0.15361
0.040752
-0.10345
-0.097179
0.028213
0.26646
0.49216
0.5047
0.52978
0.39812
0.32915
0.18495
0.040752
-0.059561
-0.12853
-0.12226
-0.17868
-0.11599
-0.084639
-0.053292
0.021944
0.015674
-0.028213
-0.12226
-0.17868
-0.14734
-0.15361
-0.14107
-0.15361
-0.18495
-0.17241
-0.15361
-0.17868
-0.23511
-0.31034
-0.36677
-0.42947
-0.33542
-0.24138
-0.053292
0.040752
0.090909
0.15361
0.028213
-0.059561
-0.10972
-0.1348
-0.053292
-0.097179
-0.090909
-0.07837
0.0094044
0.22884
0.44201
0.54859
0.53605
0.45455
0.33542
0.36677
0.45455
0.53605
0.48589
0.42947
0.29154
0.17241
0.10345
0.059561
0.19749
0.23511
0.34796
0.37931
0.39185
0.49843
0.44828
0.42947
0.26646
0.24138
0.17868
0.15361
0.12853
0.065831
0.0031348
-0.034483
0.1348
0.26019
0.35423
0.29781
0.14734
-0.040752
-0.16614
-0.22884
-0.14107
-0.10972
-0.059561
-0.059561
0.0094044
0.047022
0.17241
0.26646
0.26646
0.2163
0.20376
0.097179
0.11599
0.10972
0.14107
0.07837
0.0094044
0.10345
0.15361
0.19122
0.11599
0.040752
0.015674
0.015674
0.015674
-0.11599
-0.12853
-0.15987
-0.15987
-0.053292
0.090909
0.20376
0.31034
0.31034
0.27273
0.24765
0.25392
0.30408
0.21003
0.097179
-0.07837
-0.10345
-0.097179
-0.14734
-0.065831
-0.015674
-0.021944
0.047022
0.053292
0.07837
-0.047022
-0.028213
0.040752
0.090909
0.097179
0.028213
-0.12226
-0.29781
-0.46708
-0.57994
-0.64263
-0.63009
-0.56113
-0.52978
-0.4232
-0.15361
0.053292
0.19122
0.22257
0.2163
0.25392
0.28527
0.22257
0.12853
-0.047022
-0.12226
-0.14107
-0.24138
-0.33542
-0.34169
-0.34796
-0.22257
-0.084639
0.021944
-0.015674
-0.12226
-0.19749
-0.21003
-0.20376
-0.20376
-0.26646
-0.22257
-0.20376
-0.10972
-0.11599
-0.19749
-0.22257
-0.27273
-0.29781
-0.32915
-0.26019
-0.20376
-0.040752
0.17241
0.32288
0.35423
0.23511
0.040752
-0.18495
-0.33542
-0.30408
-0.24765
-0.11599
-0.0721
-0.0031348
0.034483
0.10345
0.19749
0.16614
-0.040752
-0.22884
-0.23511
-0.22257
-0.19122
-0.19122
-0.14107
-0.10345
-0.0721
-0.097179
-0.084639
0.0094044
0.19749
0.37304
0.34169
0.15987
-0.0094044
-0.29781
-0.53605
-0.56113
-0.5674
-0.46708
-0.4232
-0.32915
-0.28527
-0.24138
-0.21003
-0.29154
-0.39812
-0.49843
-0.61129
-0.68652
-0.69906
-0.71787
-0.64263
-0.58621
-0.49843
-0.41693
-0.49216
-0.53605
-0.54859
-0.51724
-0.52351
-0.43574
-0.42947
-0.47962
-0.64263
-0.75549
-0.78683
-0.69279
-0.56113
-0.44201
-0.31034
-0.11599
0.021944
0.028213
-0.028213
-0.10345
-0.28527
-0.44201
-0.61755
-0.57367
-0.53605
-0.42947
-0.279
-0.17868
-0.015674
0.10972
0.21003
0.16614
0.040752
-0.034483
-0.17241
-0.22884
-0.26646
-0.17241
-0.17241
-0.10345
-0.084639
0.040752
0.015674
0.084639
-0.0094044
-0.14107
-0.27273
-0.33542
-0.27273
-0.22257
-0.097179
-0.14107
-0.24138
-0.279
-0.34796
-0.35423
-0.29154
-0.097179
0.0721
0.15987
0.1348
0.034483
0.0721
-0.028213
-0.0094044
-0.015674
-0.021944
0.059561
0.17241
0.20376
0.090909
-0.084639
-0.24765
-0.26019
-0.097179
0.19749
0.3605
0.39185
0.41066
0.34169
0.31661
0.29781
0.20376
0.14107
0.0031348
0.065831
0.15361
0.19122
0.2163
0.19122
0.14107
0.097179
0.0094044
-0.11599
-0.18495
-0.17868
-0.047022
0.040752
0.12226
0.20376
0.17868
0.17241
0.0721
0.015674
-0.097179
-0.22257
-0.29154
-0.22257
-0.12853
0.084639
0.17868
0.14734
0.07837
-0.034483
-0.15361
-0.24138
-0.11599
0.10345
0.28527
0.47335
0.57367
0.59248
0.47962
0.45455
0.34796
0.279
0.047022
-0.084639
-0.22884
-0.19749
-0.1348
-0.0031348
0.097179
0.15361
0.32915
0.39185
0.39812
0.5047
0.54859
0.66144
0.63009
0.46082
0.14734
-0.097179
-0.2163
-0.27273
-0.28527
-0.22257
-0.07837
-0.0031348
0.084639
0.07837
0.065831
-0.053292
-0.12226
-0.19122
-0.15361
-0.15361
-0.015674
0.07837
0.16614
0.11599
0.034483
-0.028213
0.0094044
0.084639
0.12853
0.12226
0.17241
0.34796
0.57367
0.81191
0.90596
0.86207
0.76803
0.6489
0.55486
0.39185
0.279
0.27273
0.26019
0.23511
0.26019
0.279
0.29154
0.22884
0.22884
0.22257
0.22257
0.34796
0.34169
0.35423
0.29781
0.2163
0.10972
0.0031348
-0.053292
-0.10345
-0.065831
0.028213
0.17868
0.279
0.31034
0.33542
0.26019
0.19749
0.0721
0.047022
-0.059561
0.028213
0.1348
0.21003
0.17868
0.14734
0.053292
-0.0721
-0.1348
-0.12226
-0.0031348
0.10972
0.279
0.40439
0.46708
0.40439
0.29781
0.10345
-0.028213
-0.028213
0.047022
0.2163
0.40439
0.54232
0.57994
0.42947
0.31661
0.34796
0.36677
0.46082
0.43574
0.41066
0.37931
0.42947
0.39812
0.35423
0.32915
0.37931
0.46082
0.43574
0.43574
0.37931
0.37931
0.39185
0.49216
0.51097
0.61129
0.68025
0.66144
0.6489
0.61755
0.66144
0.69279
0.73041
0.66771
0.66771
0.57367
0.5047
0.41693
0.29781
0.31661
0.42947
0.5674
0.61755
0.61755
0.68025
0.66771
0.59248
0.46708
0.39812
0.29154
0.29154
0.40439
0.48589
0.63009
0.70533
0.69279
0.68652
0.68652
0.60502
0.5047
0.38558
0.3605
0.34169
0.21003
0.10972
-0.034483
-0.065831
-0.021944
0.084639
0.10345
0.065831
0.034483
-0.07837
-0.22257
-0.37304
-0.42947
-0.34796
-0.30408
-0.10345
-0.053292
0.047022
0.0721
0.028213
0.040752
0.040752
0.20376
0.28527
0.28527
0.25392
0.18495
0.15361
0.047022
0.028213
-0.065831
-0.10345
-0.028213
0.14734
0.23511
0.279
0.31034
0.36677
0.37304
0.42947
0.5047
0.47335
0.46708
0.37931
0.39185
0.52978
0.69906
0.83699
0.83072
0.78683
0.74295
0.60502
0.41066
0.22884
0.11599
0.040752
0.015674
-0.0094044
-0.0094044
-0.090909
-0.14734
-0.059561
0.034483
0.18495
0.30408
0.36677
0.37931
0.29781
0.17241
0.090909
0.10345
0.10972
0.047022
-0.053292
-0.097179
-0.028213
0.07837
0.12853
0.15361
0.059561
-0.12853
-0.14734
-0.14107
0.034483
0.19122
0.32915
0.32288
0.2163
0.19749
0.084639
-0.065831
-0.27273
-0.26646
-0.26019
-0.065831
0.065831
0.12226
0.040752
-0.053292
-0.065831
-0.0031348
0.10972
0.16614
0.12853
-0.0094044
-0.090909
-0.17868
-0.34169
-0.34169
-0.29154
-0.12853
0.12226
0.32915
0.5674
0.61129
0.5047
0.32288
0.11599
-0.021944
-0.17241
-0.24138
-0.39812
-0.53605
-0.59248
-0.59875
-0.5674
-0.31661
-0.10345
0.097179
0.31661
0.57367
0.77429
0.78056
0.63636
0.43574
0.34796
0.29154
0.24138
0.11599
0.053292
0.12853
0.12853
0.30408
0.34796
0.54859
0.63636
0.60502
0.44201
0.24138
0.0721
0.040752
0.015674
-0.1348
-0.22884
-0.2163
-0.15987
-0.084639
-0.0094044
0.040752
0.0721
-0.015674
-0.028213
-0.10345
-0.15361
-0.22257
-0.30408
-0.42947
-0.49216
-0.44201
-0.32288
-0.14734
0.015674
0.14734
0.18495
0.14734
0.19749
0.2163
0.28527
0.34169
0.31661
0.26646
0.15361
0.0721
0.084639
0.084639
0.18495
0.26646
0.37931
0.45455
0.49843
0.43574
0.24765
0.084639
-0.059561
-0.17241
-0.12226
-0.097179
-0.084639
-0.12853
-0.11599
-0.015674
0.12853
0.18495
0.22884
0.22884
0.24138
0.19122
0.17241
0.0094044
-0.021944
-0.07837
-0.18495
-0.14107
-0.065831
0.10345
0.23511
0.22884
0.15361
0.0094044
-0.059561
-0.11599
-0.15987
-0.24765
-0.24765
-0.20376
-0.17868
-0.16614
-0.10345
-0.015674
0.1348
0.14734
0.18495
0.07837
-0.0094044
-0.07837
-0.15361
-0.14734
-0.07837
0.015674
0.0721
-0.0031348
0.0031348
-0.084639
0.0031348
0.021944
0.16614
0.24138
0.37931
0.51724
0.60502
0.48589
0.32288
0.15361
0.028213
0.059561
0.090909
0.12226
0.084639
0.22884
0.31034
0.37931
0.37304
0.279
0.21003
0.16614
0.14734
0.034483
0.047022
0.1348
0.41693
0.57367
0.61755
0.59875
0.48589
0.37304
0.25392
0.2163
0.2163
0.20376
0.19122
0.090909
0.047022
0.040752
0.097179
0.034483
-0.015674
-0.047022
-0.090909
-0.0721
-0.07837
-0.034483
-0.028213
0.047022
0.14107
0.22884
0.16614
0.16614
0.23511
0.2163
0.19749
0.053292
-0.059561
-0.18495
-0.22257
-0.28527
-0.39812
-0.43574
-0.42947
-0.36677
-0.39185
-0.38558
-0.46082
-0.43574
-0.38558
-0.19749
0.021944
0.10345
0.11599
-0.040752
-0.19749
-0.29781
-0.24138
-0.1348
-0.028213
0.059561
0.10345
0.19749
0.24765
0.26019
0.10345
-0.10972
-0.32915
-0.6489
-0.81191
-0.84326
-0.6489
-0.46082
-0.23511
0.034483
0.24138
0.39812
0.48589
0.53605
0.49843
0.45455
0.44828
0.37931
0.20376
0.047022
-0.015674
0.034483
0.11599
0.24765
0.28527
0.26019
0.2163
0.17868
0.090909
0.034483
0.034483
0.0721
0.034483
-0.0031348
-0.10972
-0.12853
-0.047022
0.1348
0.24138
0.26019
0.23511
0.015674
-0.17868
-0.32915
-0.30408
-0.19122
-0.040752
0.17868
0.32288
0.43574
0.33542
0.22884
0.047022
-0.12853
-0.14734
-0.10972
-0.10972
-0.021944
0.21003
0.53605
0.82445
0.93103
0.84953
0.59875
0.34169
0.10345
-0.10345
-0.1348
-0.065831
0.065831
0.20376
0.32288
0.41693
0.37931
0.30408
0.279
0.26019
0.30408
0.31661
0.279
0.1348
-0.040752
-0.07837
-0.090909
-0.028213
0.059561
0.279
0.4232
0.49216
0.43574
0.29781
0.2163
0.14107
0.1348
0.10345
0.12226
0.15361
0.20376
0.17868
0.18495
0.2163
0.31661
0.47335
0.58621
0.64263
0.57367
0.54859
0.48589
0.29781
0.07837
-0.040752
-0.015674
0.12853
0.24138
0.32915
0.39812
0.43574
0.51097
0.48589
0.43574
0.42947
0.39185
0.28527
0.16614
0.059561
0.084639
0.24138
0.39812
0.44201
0.39185
0.36677
0.36677
0.28527
0.279
0.27273
0.32915
0.31034
0.34169
0.3605
0.29154
0.15361
0.053292
0.028213
0.021944
0.047022
0.040752
0.021944
-0.059561
0.0031348
-0.0031348
-0.0094044
-0.021944
-0.10972
-0.15987
-0.16614
-0.097179
-0.07837
-0.16614
-0.24138
-0.28527
-0.28527
-0.23511
-0.20376
-0.15987
-0.14107
0.040752
0.21003
0.41066
0.46082
0.42947
0.25392
0.015674
-0.040752
-0.12853
-0.040752
-0.015674
0.059561
0.047022
0.0094044
-0.0031348
-0.0094044
0.015674
0.0721
0.10972
0.10972
0.0031348
-0.065831
-0.15987
-0.14107
-0.040752
0.21003
0.29781
0.19749
0.059561
-0.14734
-0.15987
-0.14107
-0.0721
-0.028213
0.028213
0.065831
0.0721
0.040752
0.047022
0.11599
0.19122
0.26019
0.23511
0.18495
0.14734
0.14734
0.22257
0.12853
0.0721
-0.053292
-0.14107
-0.17868
-0.12226
0.040752
0.17241
0.32915
0.49216
0.51097
0.41066
0.19122
-0.028213
-0.26019
-0.46708
-0.66144
-0.65517
-0.56113
-0.30408
-0.090909
0.059561
0.22884
0.25392
0.22884
0.0094044
-0.17868
-0.32915
-0.40439
-0.41066
-0.30408
-0.20376
-0.059561
0.034483
0.16614
0.22257
0.31034
0.26019
0.015674
-0.24138
-0.39185
-0.38558
-0.29154
-0.15361
0.034483
0.065831
0.047022
-0.040752
-0.12853
-0.20376
-0.25392
-0.19122
-0.034483
0.1348
0.31034
0.34169
0.3605
0.33542
0.35423
0.27273
0.16614
0.034483
-0.021944
-0.14107
-0.16614
-0.19749
-0.16614
-0.059561
0.16614
0.34796
0.45455
0.44201
0.29154
0.11599
-0.040752
-0.059561
0.0094044
0.034483
0.090909
0.19749
0.29781
0.37304
0.34796
0.33542
0.34169
0.44828
0.42947
0.43574
0.29781
0.27273
0.20376
0.16614
0.20376
0.15361
0.090909
-0.0031348
-0.047022
-0.065831
-0.021944
0.0721
0.17868
0.26646
0.29154
0.31034
0.2163
0.11599
0.028213
0.021944
-0.034483
0.028213
0.034483
0.12226
0.31034
0.5047
0.57994
0.39812
0.17868
-0.07837
-0.19749
-0.24138
-0.15361
-0.059561
0.021944
0.034483
0.065831
0.07837
0.12853
0.25392
0.38558
0.45455
0.44201
0.32915
0.16614
0.07837
0.0094044
0.015674
-0.021944
0.12853
0.2163
0.27273
0.22884
0.059561
0.034483
-0.028213
0.065831
0.0094044
0.0721
0.0031348
-0.065831
-0.17241
-0.24138
-0.084639
0.10345
0.22884
0.31034
0.35423
0.23511
0.17868
0.090909
0.0031348
-0.090909
-0.20376
-0.19749
-0.1348
-0.047022
0.065831
0.18495
0.30408
0.33542
0.29154
0.14107
0.034483
-0.17241
-0.12226
-0.097179
0.084639
0.14107
0.17241
0.10345
0.097179
0.10972
0.1348
0.19122
0.29781
0.19749
0.21003
0.22884
0.32915
0.39812
0.41066
0.41693
0.32915
0.17241
0.10972
0.034483
-0.021944
-0.0031348
-0.040752
-0.0031348
0.12226
0.279
0.41066
0.39812
0.45455
0.45455
0.34796
0.23511
0.07837
-0.0721
-0.23511
-0.24765
-0.22884
-0.10345
0.028213
0.14107
0.15361
0.17868
0.19122
0.14734
0.07837
0.021944
0.0031348
-0.040752
-0.12226
-0.26646
-0.4232
-0.51724
-0.56113
-0.39812
-0.23511
0.15987
0.52351
0.81191
0.78056
0.51097
0.19749
-0.27273
-0.53605
-0.62382
-0.60502
-0.48589
-0.45455
-0.39185
-0.36677
-0.25392
-0.14734
-0.040752
-0.0721
-0.14734
-0.3605
-0.63636
-0.80564
-0.87461
-0.7116
-0.52351
-0.26646
-0.084639
-0.015674
-0.015674
-0.0094044
0.084639
0.17241
0.24138
0.1348
-0.047022
-0.12853
-0.19749
-0.19122
-0.22257
-0.14107
-0.1348
-0.16614
-0.25392
-0.27273
-0.26019
-0.23511
-0.20376
-0.22257
-0.28527
-0.279
-0.18495
-0.0721
0.0031348
0.053292
0.07837
0.040752
0.090909
0.021944
-0.17241
-0.39185
-0.58621
-0.67398
-0.73041
-0.70533
-0.6489
-0.57367
-0.49843
-0.44201
-0.35423
-0.39812
-0.36677
-0.32915
-0.27273
-0.22257
-0.17868
-0.22257
-0.279
-0.41693
-0.52978
-0.61755
-0.58621
-0.38558
-0.19749
-0.021944
0.0094044
-0.021944
-0.15987
-0.19749
-0.20376
-0.2163
-0.26646
-0.25392
-0.23511
-0.26019
-0.24138
-0.31661
-0.36677
-0.41693
-0.29154
-0.17241
-0.090909
-0.12226
-0.15987
-0.1348
-0.053292
0.17868
0.32915
0.34796
0.22884
0.11599
0.0031348
0.021944
0.11599
0.11599
0.10345
0.034483
-0.0721
-0.17241
-0.24138
-0.26019
-0.29781
-0.29154
-0.22884
-0.20376
-0.29154
-0.44828
-0.46708
-0.48589
-0.35423
-0.19749
-0.040752
0.034483
0.021944
-0.015674
-0.1348
-0.32288
-0.47335
-0.57994
-0.65517
-0.60502
-0.51724
-0.37931
-0.27273
-0.097179
-0.034483
-0.0094044
-0.065831
-0.10972
-0.065831
0.015674
0.22884
0.34796
0.32915
0.19749
0.1348
0.084639
0.12853
0.097179
0.065831
-0.047022
-0.065831
-0.034483
0.034483
0.16614
0.34169
0.5047
0.49216
0.3605
0.20376
0.040752
-0.028213
-0.0031348
0.07837
0.25392
0.43574
0.53605
0.45455
0.41066
0.33542
0.22257
0.053292
-0.2163
-0.32915
-0.37931
-0.34169
-0.19749
-0.053292
-0.0094044
0.090909
0.10345
0.0721
0.034483
-0.034483
-0.053292
-0.015674
0.047022
0.11599
0.10345
0.11599
0.18495
0.29781
0.44201
0.6489
0.7931
0.83699
0.78683
0.76803
0.72414
0.69279
0.7116
0.6489
0.63636
0.71787
0.8558
0.88715
0.77429
0.68652
0.56113
0.5674
0.65517
0.80564
0.91223
0.86207
0.70533
0.59875
0.53605
0.56113
0.56113
0.47962
0.34796
0.26646
0.12226
0.040752
0.047022
0.17241
0.32288
0.46082
0.42947
0.39185
0.17868
-0.028213
-0.084639
-0.14734
-0.090909
-0.16614
-0.23511
-0.31034
-0.17241
0.015674
0.19749
0.25392
0.24138
0.25392
0.20376
0.17241
0.097179
-0.090909
-0.15361
-0.26646
-0.279
-0.26646
-0.090909
0.12226
0.31034
0.37931
0.31034
0.279
0.2163
0.26019
0.24138
0.10345
-0.028213
-0.040752
-0.0094044
0.053292
0.16614
0.26646
0.33542
0.3605
0.37931
0.3605
0.32915
0.30408
0.15361
-0.0031348
-0.047022
0.0094044
0.17868
0.26019
0.40439
0.36677
0.37304
0.23511
0.25392
0.34169
0.45455
0.49843
0.40439
0.23511
0.1348
0.24765
0.42947
0.61755
0.75549
0.73041
0.57994
0.47962
0.42947
0.41066
0.40439
0.35423
0.32915
0.1348
0.1348
0.2163
0.39812
0.61755
0.77429
0.74922
0.5674
0.4232
0.31034
0.279
0.29154
0.31034
0.3605
0.31034
0.23511
0.0721
-0.097179
-0.18495
-0.26019
-0.279
-0.18495
0.053292
0.18495
0.29154
0.279
0.29781
0.25392
0.12853
-0.028213
-0.10972
-0.18495
-0.14107
0.0031348
0.12226
0.31034
0.44828
0.49843
0.47962
0.42947
0.32288
0.26646
0.25392
0.32288
0.32288
0.28527
0.26646
0.25392
0.20376
0.021944
0.034483
0.047022
0.065831
0.20376
0.39185
0.53605
0.66144
0.59875
0.51097
0.3605
0.24765
0.15361
0.040752
0.0031348
0.0721
0.12853
0.12226
0.17868
0.16614
0.090909
0.040752
0.0031348
0.11599
0.26019
0.46708
0.54859
0.68025
0.74295
0.77429
0.73668
0.60502
0.5674
0.45455
0.39812
0.32288
0.32288
0.3605
0.46082
0.59248
0.69906
0.73041
0.74922
0.65517
0.46082
0.23511
0.047022
-0.065831
-0.084639
0.028213
0.17868
0.17868
0.279
0.22884
0.26646
0.22884
0.20376
0.16614
0.15361
0.090909
0.065831
0.0094044
-0.021944
0.021944
0.20376
0.25392
0.28527
0.24765
0.19122
0.0721
-0.090909
-0.16614
-0.24138
-0.14107
0.021944
0.20376
0.31661
0.47335
0.60502
0.73668
0.78683
0.76803
0.65517
0.36677
0.090909
-0.090909
-0.14107
-0.097179
0.059561
0.28527
0.48589
0.68025
0.66144
0.51724
0.41693
0.33542
0.28527
0.18495
0.17241
0.10972
0.0721
0.040752
0.10972
0.26019
0.51724
0.68652
0.69906
0.52351
0.29154
0.1348
0.015674
0.034483
0.10972
0.14107
0.12853
0.090909
0.10345
0.18495
0.30408
0.3605
0.279
0.090909
-0.084639
-0.19122
-0.23511
-0.17241
-0.040752
0.097179
0.22884
0.279
0.32288
0.22257
0.17868
0.065831
-0.097179
-0.25392
-0.34796
-0.26019
-0.17868
0.047022
0.28527
0.52978
0.59875
0.56113
0.47335
0.32288
0.1348
-0.028213
-0.15361
-0.25392
-0.12853
-0.10972
-0.16614
-0.24765
-0.39812
-0.4232
-0.38558
-0.23511
-0.14107
-0.17241
-0.279
-0.26019
-0.31034
-0.29781
-0.34169
-0.37931
-0.43574
-0.47335
-0.43574
-0.41066
-0.32288
-0.1348
0.11599
0.32915
0.46082
0.47962
0.37931
0.19749
0.021944
-0.10972
-0.14107
-0.10972
0.0094044
0.07837
0.24765
0.37304
0.41066
0.25392
0.07837
0.0094044
0.021944
0.015674
0.047022
0.021944
0.040752
0.028213
0.040752
0.059561
0.084639
0.12853
0.10345
-0.047022
-0.19749
-0.35423
-0.38558
-0.18495
0.15987
0.44828
0.5674
0.5047
0.26646
-0.0094044
-0.18495
-0.14107
0.065831
0.14734
0.10345
-0.065831
-0.2163
-0.22884
-0.15987
-0.14107
-0.19749
-0.2163
-0.29154
-0.25392
-0.22257
-0.21003
-0.17241
-0.10972
0.090909
0.17241
0.29154
0.29781
0.29781
0.16614
0.028213
0.040752
0.1348
0.27273
0.39185
0.47962
0.47335
0.39812
0.36677
0.3605
0.41066
0.4232
0.41693
0.3605
0.3605
0.39185
0.32915
0.22257
0.10345
-0.028213
-0.10972
-0.19122
-0.19749
-0.047022
0.0721
0.21003
0.29781
0.37931
0.40439
0.40439
0.30408
0.14734
0.14734
0.1348
0.26646
0.39185
0.52351
0.53605
0.35423
0.21003
0.0094044
-0.1348
-0.26646
-0.35423
-0.32915
-0.18495
0.065831
0.17868
0.21003
0.12853
0.090909
0.0031348
-0.097179
-0.2163
-0.26019
-0.279
-0.17241
0.040752
0.2163
0.37304
0.4232
0.31661
0.14734
-0.053292
-0.22884
-0.46708
-0.63636
-0.65517
-0.57994
-0.52978
-0.49216
-0.48589
-0.52978
-0.59248
-0.68652
-0.78683
-0.88715
-0.97492
-1
-0.98119
-0.82445
-0.68025
-0.65517
-0.74922
-0.76176
-0.7116
-0.54859
-0.4232
-0.31661
-0.32288
-0.42947
-0.46708
-0.53605
-0.52978
-0.5674
-0.52978
-0.59248
-0.74922
-0.72414
-0.72414
-0.59875
-0.51097
-0.47962
-0.47335
-0.47962
-0.44828
-0.44828
-0.39812
-0.30408
-0.16614
-0.053292
-0.021944
-0.059561
-0.084639
-0.10972
-0.10345
-0.015674
-0.084639
-0.10972
-0.15361
-0.15987
-0.12226
-0.11599
-0.12226
-0.2163
-0.15987
-0.084639
0.021944
0.053292
-0.047022
-0.047022
-0.12226
-0.097179
0.0031348
0.047022
0.053292
0.097179
0.07837
0.034483
0.040752
-0.040752
-0.11599
-0.31661
-0.41066
-0.4232
-0.37931
-0.22257
-0.040752
0.084639
0.1348
0.19122
0.14734
0.053292
-0.059561
-0.11599
-0.15987
-0.26019
-0.23511
-0.22884
-0.16614
-0.14107
-0.065831
-0.040752
0.040752
0.015674
-0.12226
-0.4232
-0.60502
-0.62382
-0.5047
-0.34796
-0.17868
-0.18495
-0.16614
-0.20376
-0.10972
-0.065831
-0.059561
-0.0721
-0.10972
-0.12226
-0.19122
-0.15361
-0.090909
0.040752
0.17241
0.090909
0.059561
-0.0094044
0.028213
-0.047022
-0.034483
-0.097179
-0.034483
-0.065831
-0.065831
-0.10345
-0.19749
-0.29781
-0.34169
-0.31661
-0.34796
-0.279
-0.23511
-0.20376
-0.0721
0.12853
0.30408
0.31034
0.31661
0.25392
0.29781
0.26019
0.23511
0.14107
0.015674
-0.021944
-0.059561
-0.047022
0.053292
0.14734
0.10972
0.015674
-0.034483
-0.22884
-0.30408
-0.46082
-0.53605
-0.5674
-0.45455
-0.22257
0.040752
0.20376
0.27273
0.21003
-0.028213
-0.279
-0.47335
-0.4232
-0.31661
-0.12226
0.028213
0.18495
0.34796
0.52351
0.61129
0.54232
0.39185
0.33542
0.22884
0.17241
0.12226
0.15361
0.19122
0.29154
0.35423
0.42947
0.42947
0.38558
0.34796
0.28527
0.37931
0.31661
0.16614
0.065831
0.097179
0.12226
0.1348
0.10972
0.059561
0.034483
-0.040752
-0.0031348
0.065831
0.11599
0.22257
0.15361
0.090909
0.0031348
-0.059561
-0.034483
-0.021944
0.07837
0.0721
0.034483
0.065831
0.18495
0.32915
0.43574
0.45455
0.40439
0.28527
0.18495
0.17241
0.19122
0.31034
0.56113
0.73668
0.92476
0.9373
0.96865
0.7931
0.62382
0.46082
0.39185
0.34169
0.29781
0.26019
0.40439
0.6489
0.88088
0.98119
0.98119
0.89969
0.7931
0.60502
0.44828
0.37304
0.29154
0.14107
0.053292
0.0031348
0.084639
0.22257
0.32288
0.44201
0.51097
0.68652
0.79937
0.7931
0.66771
0.47335
0.28527
0.11599
0.12226
0.22884
0.37931
0.52351
0.66771
0.7116
0.59248
0.46082
0.34169
0.279
0.23511
0.22884
0.053292
-0.11599
-0.31034
-0.38558
-0.34169
-0.24138
-0.059561
0.0721
0.19749
0.23511
0.15987
0.0031348
-0.065831
-0.0031348
0.0031348
0.059561
0.090909
0.084639
0.07837
0.0031348
-0.0094044
-0.17868
-0.33542
-0.43574
-0.46082
-0.46082
-0.44201
-0.45455
-0.49216
-0.35423
-0.2163
-0.084639
-0.053292
0.0031348
-0.028213
-0.11599
-0.22257
-0.24765
-0.12853
-0.0721
-0.090909
-0.22257
-0.46708
-0.5674
-0.54232
-0.34169
-0.10972
0.053292
0.14734
0.10972
0.053292
0.090909
0.12853
0.16614
0.15987
0.021944
-0.07837
-0.20376
-0.090909
0.028213
0.19122
0.26019
0.20376
0.028213
-0.16614
-0.28527
-0.36677
-0.41693
-0.38558
-0.24765
-0.15361
-0.090909
-0.10972
-0.15361
-0.1348
-0.047022
0.059561
0.18495
0.34169
0.47335
0.46708
0.3605
0.27273
0.17868
0.12853
0.12853
0.053292
0.028213
0.059561
0.15361
0.31034
0.37304
0.34796
0.33542
0.26019
0.32915
0.36677
0.45455
0.44828
0.47335
0.47335
0.41066
0.39812
0.34169
0.27273
0.24138
0.28527
0.31034
0.34169
0.26019
0.25392
0.17868
0.26019
0.34169
0.32915
0.23511
0.065831
0.07837
0.090909
0.20376
0.32915
0.36677
0.31661
0.24765
0.19122
0.17241
0.22884
0.34796
0.38558
0.33542
0.21003
0.028213
-0.047022
-0.090909
0.015674
0.0721
0.059561
0.12853
0.23511
0.34169
0.41693
0.32915
0.15361
0.040752
0.028213
0.16614
0.26646
0.31661
0.34169
0.40439
0.37304
0.38558
0.37304
0.37304
0.39812
0.49843
0.6489
0.69279
0.68025
0.54232
0.41693
0.36677
0.37931
0.39185
0.35423
0.36677
0.31661
0.26646
0.21003
0.22884
0.29781
0.33542
0.44828
0.41066
0.40439
0.33542
0.25392
0.10345
-0.084639
-0.10345
-0.11599
-0.097179
0.034483
0.21003
0.29154
0.32915
0.32915
0.32288
0.30408
0.26019
0.22257
0.25392
0.32288
0.36677
0.36677
0.279
0.279
0.32288
0.39185
0.48589
0.61129
0.66771
0.55486
0.31034
0.097179
-0.047022
-0.0721
-0.021944
0.1348
0.31661
0.46082
0.45455
0.31034
0.16614
0.10345
0.0721
0.10345
0.27273
0.46082
0.61755
0.76176
0.79937
0.68025
0.37931
0.053292
-0.27273
-0.37304
-0.33542
-0.1348
0.047022
0.17241
0.31034
0.36677
0.29781
0.20376
0.15987
0.14107
0.12226
0.11599
0.07837
-0.059561
-0.25392
-0.29781
-0.279
-0.15361
-0.034483
0.015674
0.021944
-0.0031348
0.0031348
0.0031348
0.12853
0.27273
0.24138
0.14107
-0.0031348
-0.090909
-0.14734
-0.12853
-0.040752
0.11599
0.32288
0.51097
0.70533
0.69279
0.57367
0.39812
0.34169
0.27273
0.29154
0.22257
0.059561
-0.065831
-0.097179
-0.084639
-0.0094044
0.10972
0.15361
0.14107
0.18495
0.21003
0.22884
0.07837
-0.059561
-0.21003
-0.27273
-0.26646
-0.19122
-0.14734
-0.090909
-0.053292
-0.065831
-0.22257
-0.40439
-0.52351
-0.61129
-0.67398
-0.65517
-0.63636
-0.53605
-0.47335
-0.40439
-0.37304
-0.29154
-0.17868
-0.10345
-0.10345
-0.18495
-0.22257
-0.41066
-0.44201
-0.41693
-0.39185
-0.38558
-0.44201
-0.45455
-0.44828
-0.40439
-0.38558
-0.38558
-0.48589
-0.59875
-0.67398
-0.68652
-0.60502
-0.43574
-0.33542
-0.34169
-0.38558
-0.44201
-0.52351
-0.55486
-0.47962
-0.33542
-0.17868
-0.053292
-0.084639
-0.1348
-0.14734
-0.059561
-0.015674
0.034483
0.065831
0.090909
0.10972
0.14734
0.17241
0.15987
0.11599
0.12226
0.14734
0.11599
0.12226
0.10972
0.17868
0.2163
0.24138
0.17868
0.065831
0.059561
0.065831
0.11599
0.14734
0.15987
0.1348
0.021944
-0.14734
-0.19122
-0.18495
-0.0721
-0.0094044
0.015674
-0.065831
-0.16614
-0.25392
-0.29154
-0.2163
-0.040752
0.20376
0.35423
0.43574
0.37931
0.14107
-0.1348
-0.36677
-0.48589
-0.46708
-0.3605
-0.26646
-0.22257
-0.21003
-0.15987
-0.18495
-0.25392
-0.30408
-0.38558
-0.5047
-0.56113
-0.56113
-0.4232
-0.27273
-0.053292
0.034483
-0.028213
-0.07837
-0.065831
-0.0721
-0.090909
-0.090909
-0.12226
-0.14107
-0.12226
-0.059561
-0.021944
0.053292
0.12853
0.10972
0.028213
-0.07837
-0.07837
-0.0721
-0.053292
-0.015674
-0.034483
-0.034483
0.015674
0.12853
0.15361
0.10972
0.1348
0.07837
0.047022
0.028213
0.053292
0.028213
0.047022
-0.0031348
-0.040752
-0.07837
-0.12853
-0.15361
-0.18495
-0.19749
-0.15361
-0.12226
-0.14734
-0.053292
0.040752
0.065831
0.015674
-0.065831
-0.17868
-0.32288
-0.41693
-0.49843
-0.54232
-0.49216
-0.41693
-0.279
-0.21003
-0.14734
-0.19122
-0.36677
-0.51724
-0.56113
-0.51724
-0.46708
-0.33542
-0.36677
-0.37931
-0.34796
-0.27273
-0.15361
0.047022
0.27273
0.41066
0.44828
0.41693
0.3605
0.31034
0.22257
0.20376
0.14734
0.10345
0.1348
0.17868
0.21003
0.23511
0.28527
0.32288
0.29154
0.27273
0.31034
0.3605
0.37304
0.34796
0.26646
0.25392
0.279
0.40439
0.4232
0.44828
0.49216
0.46082
0.34796
0.30408
0.29781
0.25392
0.27273
0.26646
0.24138
0.2163
0.22257
0.29154
0.279
0.32288
0.31661
0.28527
0.17241
0.10972
-0.0721
-0.15987
-0.27273
-0.14107
-0.028213
0.11599
0.22884
0.26019
0.24765
0.18495
0.14734
0.10345
0.059561
0.0721
0.0721
0.10345
0.15987
0.26019
0.35423
0.31034
0.24765
0.16614
0.19122
0.29154
0.42947
0.46082
0.46082
0.39185
0.34796
0.2163
0.10972
-0.0094044
-0.19749
-0.24765
-0.14734
0.065831
0.30408
0.37304
0.37304
0.24765
0.12853
0.065831
-0.028213
-0.0721
-0.047022
0.040752
0.1348
0.27273
0.34169
0.37931
0.39812
0.42947
0.45455
0.38558
0.33542
0.28527
0.2163
0.059561
-0.0094044
0.065831
0.24138
0.40439
0.47335
0.51097
0.52978
0.6489
0.65517
0.57994
0.44828
0.31034
0.14107
0.15987
0.19122
0.29154
0.279
0.23511
0.17868
0.028213
-0.11599
-0.16614
-0.14734
-0.028213
0.090909
0.19122
0.18495
0.1348
0.090909
0.0031348
-0.10972
-0.26646
-0.30408
-0.21003
0.040752
0.29781
0.37931
0.17241
-0.097179
-0.31661
-0.40439
-0.34169
-0.22884
-0.084639
-0.047022
0.0094044
-0.028213
-0.015674
-0.015674
-0.021944
-0.11599
-0.26646
-0.30408
-0.2163
-0.0031348
0.22257
0.44828
0.53605
0.44828
0.38558
0.29781
0.25392
0.26019
0.20376
0.19749
0.21003
0.29781
0.32288
0.24765
0.12853
0.034483
0.090909
0.15361
0.26019
0.279
0.22257
0.17241
0.20376
0.18495
0.17241
0.19122
0.090909
0.034483
-0.0094044
0.059561
0.059561
0.12853
0.12226
0.11599
0.11599
0.07837
0.015674
-0.14107
-0.27273
-0.29781
-0.26019
-0.19749
-0.0094044
0.17241
0.21003
0.1348
-0.07837
-0.22884
-0.34169
-0.36677
-0.39185
-0.35423
-0.22257
-0.047022
0.084639
0.090909
0.090909
0.1348
0.097179
0.14734
0.17241
0.17241
0.15361
0.25392
0.29781
0.29154
0.32288
0.35423
0.46708
0.56113
0.63636
0.67398
0.57367
0.41693
0.28527
0.20376
0.12853
0.15987
0.12226
0.24765
0.32288
0.43574
0.38558
0.22257
0.0721
-0.0094044
-0.028213
-0.015674
0.07837
0.17241
0.29154
0.39812
0.46708
0.42947
0.47962
0.54859
0.51724
0.48589
0.43574
0.39812
0.41693
0.42947
0.54232
0.64263
0.69906
0.71787
0.70533
0.60502
0.49216
0.32915
0.17868
0.14734
0.26646
0.41066
0.49216
0.53605
0.54859
0.55486
0.59875
0.68025
0.78056
0.77429
0.73041
0.57994
0.32915
0.14734
0.034483
0.047022
0.14734
0.279
0.33542
0.279
0.19749
0.14107
0.07837
0.07837
0.34169
0.60502
0.84953
0.8558
0.68652
0.47962
0.30408
0.20376
0.14107
0.11599
0.17241
0.37304
0.56113
0.74295
0.80564
0.66771
0.49216
0.31661
0.279
0.31034
0.47962
0.62382
0.65517
0.54859
0.41693
0.4232
0.51097
0.69906
0.8558
0.89342
0.83072
0.7116
0.66144
0.62382
0.67398
0.80564
0.86834
0.83699
0.75549
0.63009
0.47962
0.36677
0.4232
0.52351
0.57367
0.61129
0.63636
0.73041
0.78056
0.87461
0.81818
0.68025
0.46082
0.24765
0.053292
-0.047022
-0.028213
0.040752
0.19122
0.42947
0.5047
0.58621
0.59875
0.68025
0.66144
0.58621
0.53605
0.45455
0.40439
0.32915
0.34796
0.41066
0.49216
0.59248
0.63009
0.61755
0.59875
0.5674
0.46082
0.34169
0.27273
0.16614
0.028213
-0.015674
0.084639
0.25392
0.48589
0.61755
0.6489
0.61129
0.55486
0.53605
0.3605
0.19749
0.040752
-0.10972
-0.12226
-0.10345
-0.015674
0.0094044
0.090909
0.14107
0.279
0.36677
0.51097
0.5674
0.46708
0.25392
0.028213
-0.10972
-0.17241
-0.059561
0.0094044
0.1348
0.24138
0.36677
0.37931
0.32288
0.32915
0.24765
0.22884
0.14734
0.047022
-0.0721
-0.24765
-0.32915
-0.41066
-0.46082
-0.5047
-0.43574
-0.25392
-0.040752
0.17868
0.25392
0.15987
-0.021944
-0.097179
-0.28527
-0.33542
-0.40439
-0.43574
-0.43574
-0.38558
-0.34796
-0.43574
-0.53605
-0.61755
-0.6489
-0.63636
-0.59875
-0.51724
-0.49216
-0.47962
-0.5047
-0.53605
-0.5674
-0.58621
-0.47962
-0.39185
-0.29781
-0.31034
-0.4232
-0.59875
-0.65517
-0.62382
-0.54232
-0.51724
-0.49216
-0.55486
-0.63009
-0.62382
-0.63636
-0.63636
-0.57994
-0.46708
-0.31034
-0.2163
-0.10972
-0.17868
-0.26646
-0.39812
-0.39185
-0.37304
-0.27273
-0.18495
-0.097179
-0.097179
-0.21003
-0.19749
-0.19122
-0.12853
-0.034483
-0.034483
-0.11599
-0.14107
-0.021944
0.084639
0.15361
0.18495
0.15361
0.12853
0.015674
-0.047022
-0.22257
-0.24765
-0.22257
-0.17241
-0.065831
-0.040752
0.11599
0.25392
0.45455
0.58621
0.60502
0.48589
0.31034
0.065831
-0.21003
-0.35423
-0.37304
-0.22257
-0.090909
0.10972
0.24138
0.29781
0.34169
0.3605
0.34796
0.2163
0.17868
0.10345
0.015674
-0.047022
-0.12853
-0.17241
-0.21003
-0.2163
-0.15361
-0.084639
0.034483
0.10345
0.14734
0.18495
0.27273
0.27273
0.19749
0.11599
0.084639
0.021944
-0.047022
-0.17868
-0.28527
-0.3605
-0.39185
-0.39185
-0.39185
-0.24138
-0.053292
0.034483
0.059561
0.034483
0.097179
0.12853
0.10345
0.14107
0.15987
0.10345
-0.0094044
-0.15361
-0.21003
-0.17868
-0.034483
0.034483
0.07837
0.034483
0.021944
-0.015674
-0.0094044
0.090909
0.10972
0.040752
-0.10345
-0.1348
-0.1348
0.021944
0.1348
0.20376
0.097179
0.021944
-0.034483
-0.053292
0.015674
0.10345
0.14734
0.20376
0.16614
0.11599
0.021944
-0.015674
-0.047022
-0.12226
-0.17868
-0.1348
-0.097179
-0.065831
-0.065831
-0.040752
0.047022
0.11599
0.279
0.31034
0.30408
0.24765
0.17241
0.12226
0.12853
0.14734
0.1348
0.040752
0.034483
0.015674
-0.047022
-0.097179
-0.084639
-0.10345
-0.065831
0.047022
0.22884
0.36677
0.44201
0.47962
0.49216
0.40439
0.37931
0.29781
0.17868
0.047022
-0.040752
0.0094044
0.10972
0.26019
0.42947
0.55486
0.68652
0.67398
0.57367
0.27273
-0.015674
-0.27273
-0.49216
-0.51097
-0.46082
-0.25392
-0.0031348
0.24138
0.48589
0.59875
0.63009
0.54232
0.36677
0.12853
-0.040752
-0.20376
-0.36677
-0.46708
-0.44828
-0.31661
-0.12226
0.15987
0.33542
0.43574
0.47335
0.44201
0.29781
0.19749
0.1348
0.021944
-0.12226
-0.31034
-0.31661
-0.22257
-0.10345
0.065831
0.053292
-0.040752
-0.17868
-0.30408
-0.36677
-0.37931
-0.19749
-0.0721
0.084639
0.20376
0.30408
0.31661
0.31034
0.21003
0.028213
-0.26019
-0.3605
-0.41693
-0.37304
-0.29154
-0.26019
-0.26019
-0.34169
-0.34796
-0.33542
-0.279
-0.16614
-0.015674
0.015674
-0.19122
-0.34796
-0.58621
-0.68025
-0.69906
-0.65517
-0.66144
-0.66771
-0.59248
-0.52978
-0.41066
-0.31034
-0.25392
-0.34796
-0.51724
-0.65517
-0.81191
-0.87461
-0.76176
-0.44828
-0.17868
-0.0721
-0.10345
-0.10972
-0.059561
0.034483
0.0031348
-0.14734
-0.26019
-0.32915
-0.3605
-0.43574
-0.46708
-0.43574
-0.39185
-0.3605
-0.3605
-0.39185
-0.4232
-0.45455
-0.31034
-0.29154
-0.24138
-0.19122
-0.18495
-0.11599
-0.090909
-0.021944
0.047022
0.14734
0.19122
0.12853
0.084639
0.14107
0.21003
0.26019
0.20376
0.24138
0.27273
0.31034
0.37931
0.35423
0.26019
0.18495
0.22257
0.29781
0.34169
0.41066
0.42947
0.44828
0.53605
0.49843
0.42947
0.28527
0.279
0.32288
0.40439
0.51724
0.56113
0.60502
0.57367
0.58621
0.61755
0.63009
0.66771
0.68652
0.61129
0.54232
0.47335
0.39185
0.34796
0.29781
0.28527
0.25392
0.36677
0.48589
0.55486
0.41066
0.26019
0.15361
0.047022
0.10345
0.17241
0.31034
0.34796
0.3605
0.34169
0.26019
0.24765
0.26646
0.27273
0.27273
0.26019
0.22884
0.29781
0.32288
0.41693
0.41066
0.37931
0.35423
0.24138
0.15987
0.040752
0.040752
0.053292
-0.0721
-0.065831
-0.028213
0.0721
0.18495
0.29781
0.40439
0.34796
0.44201
0.44201
0.42947
0.38558
0.26019
0.12226
0.040752
0.15987
0.2163
0.32288
0.33542
0.39812
0.32915
0.34796
0.3605
0.40439
0.34796
0.279
0.29781
0.39185
0.53605
0.66144
0.74295
0.69279
0.54232
0.39812
0.25392
0.20376
0.22884
0.36677
0.5674
0.76176
0.94357
0.95611
1
1
0.94984
0.81818
0.73041
0.66144
0.58621
0.57994
0.59248
0.73041
0.84326
0.89342
0.9185
0.89342
0.88088
0.84953
0.81818
0.69279
0.6489
0.52351
0.41693
0.47335
0.46082
0.41066
0.19749
0.028213
-0.12226
-0.10972
0.040752
0.30408
0.54232
0.52978
0.46708
0.36677
0.25392
0.16614
0.090909
0.047022
-0.034483
0.021944
-0.034483
-0.053292
-0.021944
0.0721
0.11599
0.28527
0.34796
0.49216
0.51724
0.48589
0.41066
0.22884
0.12226
0.097179
0.12853
0.18495
0.31034
0.39185
0.4232
0.44828
0.5047
0.55486
0.54859
0.39185
0.27273
0.0031348
-0.22257
-0.4232
-0.41693
-0.27273
0.0094044
0.24765
0.31034
0.31661
0.27273
0.17241
0.015674
-0.16614
-0.33542
-0.46708
-0.51097
-0.42947
-0.34796
-0.31661
-0.22884
-0.26646
-0.26019
-0.29781
-0.29154
-0.30408
-0.22884
-0.15361
-0.12853
-0.12226
-0.16614
-0.15361
-0.15361
-0.29781
-0.34796
-0.33542
-0.27273
-0.1348
0.0031348
0.14734
0.26019
0.26019
0.14107
-0.0031348
-0.059561
-0.097179
-0.084639
0.053292
0.19749
0.33542
0.33542
0.31661
0.26019
0.10345
-0.0031348
-0.1348
-0.14734
-0.21003
-0.20376
-0.22884
-0.24138
-0.26019
-0.22884
-0.1348
-0.065831
0.0031348
-0.0094044
-0.12226
-0.24138
-0.26019
-0.279
-0.26019
-0.18495
-0.14107
-0.0721
-0.040752
-0.021944
-0.084639
-0.20376
-0.25392
-0.28527
-0.31661
-0.23511
-0.084639
0.084639
0.23511
0.38558
0.44201
0.47962
0.39185
0.29781
0.18495
0.015674
0.0094044
-0.10345
-0.19122
-0.37304
-0.44201
-0.54859
-0.48589
-0.32288
-0.15987
-0.097179
-0.21003
-0.36677
-0.47962
-0.52351
-0.39812
-0.32915
-0.29154
-0.34796
-0.38558
-0.46708
-0.39812
-0.279
-0.19122
-0.15361
-0.23511
-0.2163
-0.18495
-0.0721
0.0031348
0.07837
0.14107
0.12226
0.10345
-0.12226
-0.28527
-0.41693
-0.47335
-0.41066
-0.19122
0.047022
0.14107
0.090909
-0.015674
-0.059561
-0.12226
-0.12853
-0.23511
-0.35423
-0.33542
-0.24138
-0.065831
0.10972
0.2163
0.1348
-0.059561
-0.279
-0.24138
-0.15361
-0.097179
-0.0721
-0.12853
-0.10972
-0.065831
0.034483
0.07837
0.090909
0.040752
-0.10972
-0.30408
-0.40439
-0.41066
-0.41693
-0.42947
-0.47962
-0.5047
-0.46082
-0.39185
-0.25392
-0.1348
0.0721
0.1348
0.17241
0.059561
-0.0031348
-0.084639
-0.19749
-0.44828
-0.55486
-0.63009
-0.57367
-0.39812
-0.18495
-0.021944
0.0721
0.097179
-0.047022
-0.20376
-0.29781
-0.37931
-0.37931
-0.41693
-0.32288
-0.21003
-0.12226
-0.090909
-0.11599
-0.25392
-0.32915
-0.41066
-0.40439
-0.43574
-0.31034
-0.23511
-0.18495
-0.21003
-0.22257
-0.3605
-0.43574
-0.37931
-0.24765
-0.097179
-0.0094044
0.034483
0.015674
0.040752
0.0721
0.07837
0.065831
-0.0094044
-0.16614
-0.39812
-0.63009
-0.61129
-0.54859
-0.11599
