-0.2431
-0.37133
-0.52093
-0.626
-0.59751
-0.46037
-0.28584
-0.14159
-0.043633
0.011576
0.057881
0.10419
0.12912
0.1309
0.070347
-0.0097952
-0.13802
-0.10597
0.082814
0.40873
0.66162
0.75957
0.68833
0.52093
0.29653
0.048976
-0.11843
-0.30187
-0.4301
-0.59038
-0.626
-0.5423
-0.39804
-0.2431
-0.14693
-0.070347
-0.0097952
0.0187
0.052538
0.0561
0.031167
0.011576
-0.045414
0.025824
0.20036
0.42654
0.60641
0.65984
0.59394
0.44435
0.24132
-0.054319
-0.21638
-0.38023
-0.45325
-0.45325
-0.55476
-0.56545
-0.47818
-0.34105
-0.18789
-0.081033
0.0044524
0.052538
0.07569
0.084595
0.091719
0.0561
0.0044524
-0.10775
-0.16296
-0.091719
0.15583
0.44791
0.62778
0.64203
0.51736
0.32858
0.029386
-0.11843
-0.3179
-0.43188
-0.5797
-0.64559
-0.58504
-0.43544
-0.2894
-0.17186
-0.12199
-0.061443
-0.047195
-0.0097952
0.0097952
0.022262
-0.020481
-0.098842
-0.18433
-0.11131
0.11309
0.439
0.65984
0.72217
0.64381
0.50846
0.24488
0.054319
-0.20036
-0.41051
-0.54942
-0.67587
-0.64381
-0.52449
-0.35886
-0.22707
-0.1309
-0.059662
-0.015138
0.015138
0.0044524
-0.057881
-0.13624
-0.073909
0.12199
0.43366
0.6919
0.77026
0.6919
0.53874
0.34996
0.23954
-0.03829
-0.15761
-0.42297
-0.54942
-0.64559
-0.62244
-0.50846
-0.35886
-0.18967
-0.059662
0.050757
0.12734
0.16296
0.1772
0.1683
0.15227
0.12199
0.084595
0.059662
0.1683
0.39982
0.64559
0.77026
0.72573
0.58148
0.36598
0.040071
-0.14515
-0.31968
-0.39448
-0.48887
-0.53695
-0.49777
-0.37133
-0.25557
-0.14871
-0.070347
-0.022262
0.016919
0.024043
-0.025824
-0.10419
-0.10775
-0.0080142
0.21104
0.46394
0.60107
0.60819
0.52805
0.35352
0.25557
0.031167
-0.097061
-0.31612
-0.51915
-0.63491
-0.69724
-0.63669
-0.4764
-0.31612
-0.15583
-0.040071
0.040071
0.082814
0.1024
0.10419
0.10775
0.0561
-0.00089047
-0.1024
-0.070347
0.12378
0.4301
0.66696
0.75957
0.70258
0.55476
0.3927
0.09528
-0.084595
-0.3553
-0.48709
-0.64737
-0.67943
-0.57079
-0.42119
-0.28762
-0.17542
-0.11309
-0.068566
-0.043633
-0.032947
-0.07569
-0.11843
-0.16118
-0.097061
0.11665
0.41407
0.65272
0.74533
0.69368
0.53517
0.38736
0.26269
0.043633
-0.1309
-0.42297
-0.62244
-0.71861
-0.66518
-0.52983
-0.37133
-0.22173
-0.079252
0.022262
0.079252
0.07569
0.063224
0.041852
-0.0080142
-0.057881
-0.12734
-0.040071
0.19501
0.51202
0.73108
0.80232
0.70436
0.51024
0.39448
0.086376
-0.047195
-0.38557
-0.60107
-0.72752
-0.74889
-0.63669
-0.48353
-0.35174
-0.22529
-0.12912
-0.079252
-0.052538
-0.054319
-0.061443
-0.081033
-0.10953
-0.14337
-0.068566
0.16474
0.4764
0.7382
0.84506
0.77916
0.60107
0.51558
0.252
0.16118
-0.17898
-0.45147
-0.63669
-0.7008
-0.61354
-0.48353
-0.32502
-0.17364
-0.041852
0.0187
0.032947
0.011576
0.0062333
-0.036509
-0.063224
-0.12734
-0.073909
0.12912
0.44435
0.73464
0.86643
0.83437
0.66518
0.52627
0.35708
0.18255
-0.07569
-0.39804
-0.62956
-0.75423
-0.69902
-0.57257
-0.4301
-0.27694
-0.15939
-0.068566
-0.047195
-0.045414
-0.065004
-0.091719
-0.1309
-0.18433
-0.13446
0.054319
0.3642
0.65806
0.81834
0.80766
0.68121
0.50668
0.40338
0.15227
-0.015138
-0.35352
-0.59216
-0.71861
-0.71327
-0.59216
-0.44969
-0.29297
-0.15761
-0.059662
-0.013357
-0.020481
-0.031167
-0.059662
-0.097061
-0.16118
-0.16652
-0.050757
0.23241
0.56367
0.78807
0.82903
0.73464
0.5423
0.48709
0.19323
0.10597
-0.27516
-0.53161
-0.7008
-0.72573
-0.61175
-0.48353
-0.35352
-0.20214
-0.089938
-0.027605
-0.0080142
-0.032947
-0.048976
-0.066785
-0.088157
-0.059662
0.12912
0.4675
0.79341
0.92342
0.78272
0.5512
0.23598
0.03829
-0.21104
-0.42832
-0.58504
-0.66696
-0.60641
-0.46928
-0.31077
-0.15583
-0.022262
0.1024
0.17364
0.20392
0.20036
0.22529
0.2805
0.2894
0.20392
0.0935
0.10597
0.30187
0.58504
0.77382
0.78094
0.5423
0.14337
-0.14693
-0.29831
-0.31077
-0.35352
-0.46572
-0.51202
-0.47462
-0.36598
-0.26981
-0.16652
-0.079252
-0.016919
0.0080142
0.0062333
0.016919
-0.013357
-0.068566
-0.17008
-0.20214
-0.084595
0.20036
0.51736
0.71683
0.73464
0.60997
0.48531
0.28228
0.10419
-0.19145
-0.50668
-0.72395
-0.84506
-0.80944
-0.68121
-0.52805
-0.36064
-0.21282
-0.1309
-0.10419
-0.11131
-0.11665
-0.13446
-0.15939
-0.21817
-0.2146
-0.061443
0.2431
0.5886
0.78807
0.81834
0.69368
0.53161
0.42119
0.18433
0.0026714
-0.33393
-0.56367
-0.71149
-0.7008
-0.60107
-0.44791
-0.30009
-0.15583
-0.059662
-0.020481
-0.020481
-0.036509
-0.061443
-0.0935
-0.14693
-0.18077
-0.098842
0.15227
0.47818
0.74354
0.82725
0.75067
0.57792
0.5138
0.23241
0.12734
-0.24132
-0.48887
-0.67231
-0.70436
-0.60463
-0.46215
-0.33037
-0.17186
-0.068566
-0.025824
-0.025824
-0.09528
-0.14515
-0.18077
-0.091719
0.11843
0.41407
0.64203
0.71861
0.66162
0.48175
0.33571
0.20926
0.077471
-0.10597
-0.40516
-0.59751
-0.72573
-0.67943
-0.54586
-0.39982
-0.24132
-0.073909
0.0561
0.13624
0.15583
0.11309
0.10775
0.089938
0.070347
0.00089047
-0.0062333
0.097061
0.34639
0.61354
0.75957
0.74711
0.60641
0.34817
0.0561
-0.12021
-0.27337
-0.34283
-0.45503
-0.47284
-0.41229
-0.29831
-0.1683
-0.070347
0.011576
0.073909
0.079252
0.029386
-0.073909
-0.16118
-0.16474
0.020481
0.29297
0.56011
0.6919
0.68655
0.57435
0.40695
0.33393
0.10953
0.068566
-0.23241
-0.48531
-0.66518
-0.75957
-0.65806
-0.53517
-0.34283
-0.1772
-0.032947
0.057881
0.088157
0.098842
0.070347
0.057881
-0.00089047
-0.066785
-0.088157
0.0097952
0.26091
0.56545
0.78272
0.83437
0.71327
0.57614
0.3553
0.18077
-0.072128
-0.37489
-0.58504
-0.71861
-0.7008
-0.57435
-0.42654
-0.26091
-0.1309
-0.052538
-0.027605
-0.034728
-0.063224
-0.07569
-0.11131
-0.15227
-0.18967
-0.11843
0.12556
0.45503
0.7293
0.84684
0.79163
0.59751
0.50846
0.20036
0.1024
-0.2805
-0.53339
-0.73108
-0.78807
-0.68655
-0.53161
-0.36064
-0.20036
-0.091719
-0.036509
-0.032947
-0.045414
-0.065004
-0.0935
-0.12556
-0.18433
-0.15761
0.020481
0.33037
0.64381
0.81656
0.79875
0.64737
0.52271
0.33215
0.18611
-0.0935
-0.40873
-0.6545
-0.78451
-0.72217
-0.57079
-0.41051
-0.252
-0.11843
-0.050757
-0.029386
-0.045414
-0.066785
-0.086376
-0.10597
-0.15761
-0.1683
-0.073909
0.19145
0.52805
0.77738
0.86999
0.78985
0.6171
0.53874
0.26091
0.14871
-0.21638
-0.49243
-0.68477
-0.7382
-0.63669
-0.4764
-0.30187
-0.14515
-0.043633
-0.011576
-0.0187
-0.045414
-0.068566
-0.11131
-0.13446
-0.19145
-0.15049
0.036509
0.35708
0.67587
0.84862
0.85218
0.71149
0.57614
0.39092
0.22351
-0.050757
-0.38379
-0.64915
-0.79163
-0.74711
-0.60819
-0.45325
-0.2894
-0.14871
-0.068566
-0.050757
-0.065004
-0.10775
-0.14871
-0.20214
-0.24488
-0.13802
0.11665
0.45147
0.69012
0.76135
0.6545
0.47106
0.41051
0.18077
0.11309
-0.21817
-0.46928
-0.65806
-0.70971
-0.59929
-0.46037
-0.30365
-0.1398
-0.0062333
0.061443
0.079252
0.015138
-0.0561
-0.13268
-0.17364
-0.09528
0.12378
0.42476
0.68477
0.79163
0.74533
0.60285
0.45503
0.35886
0.16118
0.0062333
-0.32858
-0.55476
-0.69012
-0.67231
-0.53695
-0.39092
-0.22529
-0.072128
0.03829
0.088157
0.0935
0.057881
0.031167
-0.0097952
-0.059662
-0.14515
-0.15227
-0.040071
0.23419
0.55833
0.78094
0.83972
0.75423
0.6171
0.46394
0.25022
0.036509
-0.32146
-0.57257
-0.76313
-0.75601
-0.62778
-0.47462
-0.29653
-0.15583
-0.068566
-0.043633
-0.065004
-0.11131
-0.11665
-0.11487
-0.040071
0.079252
0.30899
0.56189
0.70614
0.62422
0.44078
0.17542
0.0097952
-0.21282
-0.43188
-0.58326
-0.65628
-0.61175
-0.49065
-0.33927
-0.18967
-0.034728
0.091719
0.18789
0.2431
0.23241
0.2057
0.20748
0.22885
0.19858
0.14337
0.088157
0.11309
0.31077
0.54942
0.79697
0.84684
0.67943
0.30899
0.022262
-0.12734
-0.12734
-0.19323
-0.3642
-0.49243
-0.49599
-0.40695
-0.30365
-0.18967
-0.068566
0.015138
0.084595
0.091719
0.079252
0.0080142
-0.052538
-0.09528
-0.024043
0.19145
0.42476
0.58148
0.60107
0.48709
0.38379
0.22529
0.048976
-0.14159
-0.42119
-0.59394
-0.70971
-0.70258
-0.58682
-0.44256
-0.27516
-0.12556
-0.0080142
0.054319
0.077471
0.048976
0.032947
0.011576
-0.031167
-0.072128
-0.12912
-0.11309
0.061443
0.3553
0.65628
0.8041
0.80053
0.66874
0.58326
0.34996
0.20214
-0.13446
-0.41941
-0.6634
-0.79163
-0.73998
-0.60997
-0.44435
-0.28406
-0.15227
-0.11487
-0.10597
-0.14515
-0.17364
-0.2057
-0.20214
-0.19145
-0.061443
0.16474
0.48175
0.72039
0.74711
0.62778
0.40695
0.17364
-0.022262
-0.33037
-0.51736
-0.6634
-0.66518
-0.55298
-0.41229
-0.25022
-0.079252
0.059662
0.14693
0.2146
0.2057
0.18611
0.19679
0.25557
0.36242
0.43188
0.47462
0.54408
0.64025
0.70258
0.47284
0.13802
-0.10419
-0.25735
-0.33037
-0.42476
-0.51202
-0.50312
-0.37667
-0.22529
-0.1024
0.020481
0.089938
0.16652
0.26269
0.28584
0.2894
0.30721
0.33927
0.33215
0.22351
-0.0062333
-0.17898
-0.13446
0.14337
0.50312
0.73464
0.72395
0.47106
0.20926
-0.0044524
-0.052538
-0.050757
-0.17364
-0.3268
-0.51558
-0.55476
-0.50134
-0.40873
-0.29475
-0.17186
-0.10419
-0.072128
-0.11131
-0.15939
-0.21282
-0.252
-0.21638
-0.059662
0.24132
0.53339
0.70971
0.7008
0.55654
0.45503
0.27872
0.16652
-0.070347
-0.36955
-0.58326
-0.72752
-0.69902
-0.57257
-0.40873
-0.23063
-0.073909
0.041852
0.09528
0.10597
0.084595
0.059662
0.052538
0.0187
-0.043633
-0.13446
-0.14693
0.0026714
0.31256
0.64025
0.83259
0.87533
0.76313
0.64915
0.48175
0.31612
0.043633
-0.28228
-0.56723
-0.75423
-0.74176
-0.61532
-0.43544
-0.26447
-0.13624
-0.065004
-0.073909
-0.088157
-0.11487
-0.1024
-0.12199
-0.14159
-0.19679
-0.1772
-0.0044524
0.29297
0.61532
0.80944
0.83793
0.73286
0.56901
0.52805
0.2805
0.22885
-0.16652
-0.47996
-0.71861
-0.79341
-0.67587
-0.50846
-0.31612
-0.15405
-0.043633
-0.0187
-0.032947
-0.077471
-0.082814
-0.10775
-0.1309
-0.19323
-0.18611
-0.065004
0.21282
0.53874
0.76313
0.82369
0.76313
0.60107
0.52805
0.35174
0.28406
-0.063224
-0.39092
-0.7008
-0.83793
-0.77026
-0.626
-0.44078
-0.26981
-0.1398
-0.077471
-0.086376
-0.11843
-0.13268
-0.14515
-0.16652
-0.21282
-0.22351
-0.13624
0.1024
0.44256
0.68833
0.82012
0.77026
0.63669
0.48709
0.43722
0.22885
0.082814
-0.32502
-0.61354
-0.8041
-0.80588
-0.67053
-0.4764
-0.27694
-0.11131
-0.03829
-0.070347
-0.14693
-0.18077
-0.15049
-0.041852
0.14337
0.36598
0.51024
0.50846
0.31612
0.18611
0.097061
0.081033
-0.020481
-0.27159
-0.50668
-0.66518
-0.67587
-0.56189
-0.41051
-0.25557
-0.097061
0.043633
0.17898
0.27516
0.32858
0.34283
0.34639
0.34996
0.34817
0.30899
0.2894
0.31612
0.35886
0.27872
0.17364
-0.0026714
-0.18433
-0.36064
-0.53161
-0.58326
-0.48709
-0.35174
-0.20926
-0.09528
-0.00089047
0.0935
0.16652
0.24132
0.27694
0.30365
0.31077
0.36064
0.37133
0.35886
0.32502
0.31434
0.43366
0.51024
0.37845
0.1772
-0.12912
-0.32324
-0.45503
-0.54052
-0.5423
-0.44969
-0.32502
-0.21282
-0.11665
-0.066785
-0.0062333
0.0561
0.13268
0.16652
0.18255
0.18433
0.19323
0.14871
0.061443
-0.068566
-0.15939
-0.13446
0.00089047
0.22173
0.34461
0.27159
0.18433
0.084595
0.036509
-0.12556
-0.35174
-0.51736
-0.51558
-0.40695
-0.29831
-0.1772
-0.072128
-0.015138
0.022262
0.047195
0.088157
0.15583
0.22707
0.1683
0.073909
-0.086376
-0.14159
-0.10597
0.066785
0.30365
0.50134
0.56901
0.51915
0.36242
0.19323
0.12556
0.0187
0.063224
-0.082814
-0.27516
-0.51202
-0.66162
-0.6634
-0.58148
-0.41051
-0.25735
-0.1398
-0.13446
-0.17542
-0.23241
-0.25022
-0.22351
-0.11665
0.070347
0.32146
0.57435
0.70436
0.63669
0.49777
0.39626
0.23241
0.13802
-0.22707
-0.51736
-0.7382
-0.78985
-0.68477
-0.5512
-0.39092
-0.20036
-0.013357
0.084595
0.12734
0.050757
0.016919
0.063224
0.22351
0.44078
0.62066
0.69368
0.65806
0.49599
0.34639
0.061443
-0.10953
-0.34639
-0.51558
-0.61532
-0.67943
-0.62422
-0.5138
-0.36242
-0.22173
-0.10775
-0.015138
0.063224
0.15049
0.20392
0.21104
0.19501
0.16652
0.14159
0.10062
0.066785
0.09528
0.26091
0.49065
0.56545
0.35352
0.073909
-0.11487
-0.20748
-0.31077
-0.50312
-0.63847
-0.59573
-0.44435
-0.2894
-0.1398
-0.032947
0.054319
0.12021
0.19501
0.29831
0.37489
0.39982
0.37311
0.28406
0.19323
0.17364
0.20926
0.33571
0.32858
0.13624
-0.13268
-0.25913
-0.27516
-0.26625
-0.35352
-0.50312
-0.46215
-0.40516
-0.27516
-0.19323
-0.10775
-0.020481
0.079252
0.14693
0.17364
0.16652
0.15405
0.15583
0.1398
0.065004
-0.057881
-0.19858
-0.28406
-0.26803
-0.07569
0.23598
0.54586
0.70793
0.65093
0.46928
0.252
0.088157
0.032947
-0.065004
-0.24132
-0.47284
-0.6171
-0.59216
-0.45503
-0.29475
-0.1683
-0.0935
-0.054319
-0.047195
0.0062333
0.10953
0.18789
0.19323
0.068566
-0.12378
-0.24844
-0.19501
0.031167
0.37133
0.64203
0.76313
0.75601
0.62956
0.45503
0.34461
0.1024
-0.0044524
-0.29297
-0.51915
-0.70793
-0.77026
-0.67409
-0.51024
-0.29297
-0.13624
-0.063224
-0.079252
-0.11309
-0.14159
-0.13446
-0.11665
-0.072128
0.0097952
0.12378
0.24666
0.41585
0.6171
0.77916
0.86109
0.80944
0.6545
0.46037
0.38914
0.17186
0.0935
-0.26091
-0.54942
-0.7756
-0.86287
-0.77382
-0.64025
-0.44613
-0.27516
-0.16118
-0.14515
-0.17186
-0.21104
-0.20748
-0.20214
-0.16652
-0.14337
-0.070347
0.063224
0.27337
0.52093
0.70258
0.78985
0.76313
0.64737
0.4764
0.43544
0.22173
0.16118
-0.21995
-0.53517
-0.77916
-0.86287
-0.76313
-0.61175
-0.40873
-0.21817
-0.10419
-0.077471
-0.11487
-0.15049
-0.14337
-0.11487
-0.059662
-0.0097952
0.065004
0.16118
0.33215
0.5512
0.74711
0.85752
0.84506
0.73286
0.55298
0.50134
0.29831
0.23063
-0.13446
-0.45859
-0.73286
-0.8415
-0.78094
-0.64381
-0.44613
-0.25378
-0.10419
-0.059662
-0.073909
-0.11665
-0.13446
-0.15583
-0.15049
-0.16118
-0.07569
0.12912
0.439
0.70971
0.82369
0.80053
0.65806
0.51024
0.48175
0.28406
0.2146
-0.18255
-0.47462
-0.71505
-0.78807
-0.70971
-0.57079
-0.39092
-0.18611
-0.025824
0.031167
0.015138
-0.027605
-0.066785
-0.072128
-0.084595
-0.079252
-0.070347
0.0062333
0.17898
0.42476
0.6634
0.79519
0.813
0.73286
0.57079
0.49243
0.37845
0.252
-0.024043
-0.42119
-0.70971
-0.87355
-0.86287
-0.73464
-0.56545
-0.34461
-0.17898
-0.10597
-0.12556
-0.1683
-0.18611
-0.1398
-0.059662
0.054319
0.24488
0.46037
0.65272
0.6634
0.56011
0.40695
0.22529
0.10062
-0.19323
-0.45325
-0.65093
-0.69368
-0.59394
-0.45325
-0.29831
-0.17542
-0.063224
0.036509
0.12734
0.19501
0.24488
0.27516
0.29653
0.30721
0.26981
0.20926
0.11131
0.045414
0.14693
0.51558
0.72217
0.79519
0.57257
0.22351
-0.0561
-0.35352
-0.54764
-0.55654
-0.46928
-0.34105
-0.2146
-0.09528
0.0062333
0.082814
0.12199
0.16296
0.24844
0.36242
0.46037
0.45859
0.30899
0.091719
-0.054319
-0.17186
-0.20036
-0.18967
-0.057881
0.19501
0.42832
0.55654
0.5886
0.49243
0.38736
0.29297
0.19679
0.14693
-0.066785
-0.33037
-0.59929
-0.73998
-0.71683
-0.60463
-0.43722
-0.26981
-0.1772
-0.17008
-0.18433
-0.18967
-0.16118
-0.12912
-0.1024
-0.089938
-0.057881
0.057881
0.31256
0.5886
0.77738
0.82369
0.7293
0.54764
0.43366
0.38379
0.23063
0.031167
-0.37133
-0.67765
-0.87355
-0.88068
-0.78451
-0.63669
-0.43722
-0.23419
-0.12556
-0.082814
-0.10953
-0.1309
-0.097061
-0.034728
0.054319
0.097061
0.11131
0.15583
0.30543
0.53161
0.73642
0.80944
0.77382
0.62778
0.44256
0.38023
0.1683
0.12199
-0.2431
-0.5423
-0.75779
-0.82903
-0.74711
-0.61888
-0.44256
-0.24666
-0.10419
-0.054319
-0.063224
-0.084595
-0.070347
-0.048976
-0.015138
0.015138
0.036509
0.084595
0.2431
0.45859
0.68833
0.82369
0.81656
0.71505
0.52449
0.44969
0.30187
0.20926
-0.11843
-0.48531
-0.76135
-0.90027
-0.86287
-0.75245
-0.59929
-0.39804
-0.21995
-0.10062
-0.072128
-0.09528
-0.12378
-0.11487
-0.10775
-0.073909
-0.077471
-0.041852
0.063224
0.26625
0.51024
0.69902
0.77382
0.73642
0.60463
0.44613
0.43544
0.23063
0.1683
-0.24844
-0.58326
-0.83793
-0.90917
-0.80944
-0.67587
-0.49599
-0.32324
-0.18611
-0.12199
-0.097061
-0.10597
-0.081033
-0.045414
0.0561
0.19323
0.44256
0.65984
0.78094
0.6919
0.56901
0.37133
0.24132
0.011576
-0.27516
-0.51736
-0.67765
-0.67053
-0.56367
-0.42654
-0.29475
-0.16652
-0.0561
0.031167
0.10597
0.13802
0.15761
0.17008
0.19501
0.18433
0.14337
0.072128
-0.016919
-0.022262
0.1683
0.5886
0.73108
0.79341
0.42654
0.066785
-0.27694
-0.57257
-0.67409
-0.62422
-0.51202
-0.3642
-0.20926
-0.065004
0.031167
0.1024
0.16296
0.29831
0.40873
0.50846
0.5049
0.42119
0.2894
0.15583
0.0097952
-0.086376
-0.13446
-0.070347
0.13802
0.39092
0.54764
0.57079
0.47106
0.36064
0.24844
0.20926
0.020481
-0.20392
-0.44435
-0.57257
-0.56011
-0.49065
-0.39092
-0.25913
-0.12199
-0.011576
0.065004
0.10953
0.13624
0.15405
0.13268
0.097061
0.061443
0.089938
0.23776
0.47284
0.67053
0.7382
0.67053
0.48531
0.27694
-0.073909
-0.38557
-0.68477
-0.77916
-0.73642
-0.62244
-0.48353
-0.3553
-0.23954
-0.11843
-0.022262
0.061443
0.11309
0.15583
0.20214
0.25378
0.29118
0.30009
0.3268
0.3553
0.39448
0.43188
0.29831
0.2057
-0.045414
-0.28406
-0.50312
-0.65093
-0.64737
-0.54586
-0.41407
-0.29118
-0.17542
-0.088157
-0.024043
0.043633
0.088157
0.14159
0.16296
0.18611
0.19501
0.18255
0.13446
0.034728
-0.070347
-0.15405
-0.045414
0.26269
0.5512
0.70436
0.68477
0.46037
0.18611
-0.18433
-0.48887
-0.62422
-0.59751
-0.48887
-0.37133
-0.23241
-0.11309
0.0044524
0.14515
0.29831
0.4016
0.42832
0.38201
0.30365
0.20392
0.09528
-0.040071
-0.16296
-0.27694
-0.35708
-0.35886
-0.22351
0.054319
0.36064
0.58682
0.69902
0.67409
0.56723
0.44078
0.39804
0.2805
0.13624
-0.1683
-0.49421
-0.73998
-0.80766
-0.76313
-0.64915
-0.48531
-0.3268
-0.19858
-0.12378
-0.09528
-0.1024
-0.10953
-0.1398
-0.14693
-0.1683
-0.14337
-0.061443
0.14871
0.44435
0.71327
0.84328
0.80232
0.61532
0.44078
0.44613
0.2894
0.20036
-0.21104
-0.59394
-0.83615
-0.90205
-0.82191
-0.7008
-0.55476
-0.37667
-0.22885
-0.13624
-0.0561
-0.045414
-0.015138
0.00089047
-0.013357
-0.045414
-0.11665
-0.15761
-0.11487
0.040071
0.29653
0.5512
0.71149
0.74533
0.66696
0.5138
0.40695
0.40338
0.29297
0.070347
-0.33037
-0.66874
-0.87533
-0.89492
-0.80944
-0.6919
-0.52449
-0.36064
-0.23419
-0.16474
-0.12734
-0.10419
-0.059662
0.043633
0.17364
0.23241
0.21995
0.18967
0.24132
0.43188
0.66518
0.81656
0.86821
0.78629
0.58326
0.32502
0.098842
-0.13624
-0.2057
-0.37133
-0.49065
-0.5797
-0.5797
-0.48709
-0.37489
-0.26091
-0.17008
-0.088157
-0.029386
0.029386
0.072128
0.0935
0.065004
0.00089047
-0.0935
-0.1683
-0.16474
-0.040071
0.20036
0.47462
0.68299
0.77204
0.73464
0.60463
0.44613
0.43722
0.27694
0.23063
-0.14871
-0.5138
-0.77738
-0.88958
-0.8504
-0.77204
-0.63134
-0.47818
-0.32858
-0.23063
-0.14871
-0.11487
-0.043633
0.088157
0.25022
0.40516
0.49421
0.57257
0.72217
0.83793
0.73642
0.44791
0.070347
-0.19323
-0.28584
-0.36242
-0.38736
-0.45681
-0.47106
-0.40695
-0.2805
-0.13624
-0.041852
0.022262
0.072128
0.10775
0.14515
0.1683
0.17898
0.20036
0.18789
0.15049
0.070347
-0.013357
-0.077471
-0.013357
0.30543
0.64559
0.83437
0.80588
0.46572
0.098842
-0.29297
-0.56901
-0.67587
-0.63669
-0.5423
-0.39626
-0.25913
-0.14159
-0.041852
0.041852
0.098842
0.16296
0.26269
0.41229
0.54764
0.59394
0.44613
0.23776
0.098842
-0.020481
-0.047195
-0.0044524
0.16118
0.37845
0.51558
0.4675
0.35352
0.21995
0.1683
0.12912
-0.047195
-0.25913
-0.46215
-0.54408
-0.50134
-0.42654
-0.3553
-0.26447
-0.17542
-0.10953
-0.065004
-0.065004
-0.024043
0.0080142
0.00089047
-0.015138
-0.050757
-0.013357
0.13446
0.33215
0.49599
0.55476
0.45147
0.32858
0.10419
-0.16652
-0.46572
-0.7008
-0.76848
-0.68299
-0.53695
-0.39092
-0.26447
-0.1398
-0.032947
0.052538
0.10597
0.1398
0.15227
0.20036
0.21817
0.23063
0.19501
0.12556
0.034728
-0.047195
-0.041852
0.12199
0.4675
0.7293
0.76313
0.65272
0.38023
0.10775
-0.18433
-0.45859
-0.57079
-0.52627
-0.41407
-0.30899
-0.2146
-0.13446
-0.07569
-0.00089047
0.065004
0.10953
0.14337
0.17364
0.18077
0.18611
0.10419
0.020481
-0.11309
-0.20036
-0.18077
-0.0062333
0.2431
0.4764
0.57435
0.52271
0.37667
0.26625
0.22529
0.23954
0.14515
-0.024043
-0.31077
-0.53161
-0.64737
-0.64737
-0.57435
-0.42832
-0.25557
-0.081033
0.0097952
0.065004
0.15049
0.23776
0.28584
0.27694
0.22351
0.15405
0.16474
0.27337
0.47284
0.61888
0.55654
0.33393
0.12021
0.013357
-0.082814
-0.26091
-0.50134
-0.64559
-0.64203
-0.53695
-0.39092
-0.25557
-0.15049
-0.054319
0.013357
0.045414
0.072128
0.0935
0.11131
0.16118
0.1772
0.17008
0.14515
0.17008
0.22173
0.31256
0.43544
0.43366
0.42119
0.20926
-0.1024
-0.43544
-0.69546
-0.79519
-0.72039
-0.59394
-0.44613
-0.29297
-0.15761
-0.057881
0.036509
0.0935
0.15583
0.18255
0.20926
0.23063
0.22529
0.18433
0.10775
0.0044524
-0.10953
-0.19501
-0.18789
-0.013357
0.20392
0.49421
0.75245
0.92342
0.98931
0.75067
0.36776
-0.10953
-0.46037
-0.62066
-0.62244
-0.56367
-0.46572
-0.38379
-0.25735
-0.082814
0.10419
0.23241
0.24666
0.20926
0.16652
0.14337
0.089938
0.0097952
-0.086376
-0.16296
-0.23419
-0.23776
-0.14515
0.061443
0.31434
0.51915
0.57435
0.52093
0.39804
0.24488
0.15939
0.12378
0.15049
0.036509
-0.17542
-0.44256
-0.70258
-0.81478
-0.78272
-0.70793
-0.56011
-0.42119
-0.31434
-0.21817
-0.1683
-0.13268
-0.12021
-0.11309
-0.098842
-0.11487
-0.13802
-0.10953
0.011576
0.23419
0.46215
0.60819
0.63134
0.61532
0.59216
0.45325
0.23241
-0.18967
-0.57257
-0.87355
-1
-0.95726
-0.8415
-0.67587
-0.49955
-0.33571
-0.22351
-0.14515
-0.091719
-0.027605
0.029386
0.065004
0.048976
-0.0080142
-0.091719
-0.18255
-0.22707
-0.18967
-0.027605
0.23598
0.50846
0.71505
0.79875
0.75245
0.60107
0.4764
0.26803
0.16118
-0.13802
-0.45325
-0.69368
-0.81656
-0.78629
-0.68121
-0.54942
-0.38736
-0.23954
-0.12556
-0.045414
0.0026714
0.022262
0.024043
0.034728
0.013357
-0.034728
-0.10419
-0.15227
-0.091719
0.057881
0.31077
0.53874
0.7008
0.72217
0.65806
0.52093
0.39448
0.42654
0.29475
0.15939
-0.21817
-0.60285
-0.8415
-0.92164
-0.85931
-0.77204
-0.62422
-0.46928
-0.30721
-0.19858
-0.10419
-0.043633
0.016919
0.070347
0.10419
0.1398
0.18077
0.29297
0.47284
0.6171
0.6919
0.63491
0.51202
0.34461
0.034728
-0.2894
-0.58682
-0.69368
-0.64381
-0.51024
-0.37489
-0.22351
-0.089938
0.016919
0.10597
0.15583
0.2146
0.2431
0.27694
0.29118
0.28584
0.2431
0.12912
0.0187
-0.072128
-0.068566
0.073909
0.35174
0.66518
0.86999
0.91451
0.84328
0.71861
0.47462
0.097061
-0.29297
-0.55298
-0.63847
-0.60107
-0.5049
-0.38914
-0.28584
-0.18433
-0.0935
-0.016919
0.057881
0.11309
0.15049
0.19679
0.20392
0.15049
0.077471
0.0062333
-0.047195
-0.0561
0.013357
0.18433
0.44256
0.64025
0.69368
0.60463
0.4675
0.42476
0.34817
0.23776
-0.031167
-0.30365
-0.50312
-0.57614
-0.55476
-0.49065
-0.37133
-0.25735
-0.13624
-0.036509
0.034728
0.091719
0.13268
0.13446
0.1309
0.07569
0.016919
-0.020481
-0.016919
0.1024
0.28584
0.52271
0.6634
0.68833
0.6545
0.5138
0.4016
0.065004
-0.26981
-0.61888
-0.813
-0.83259
-0.74533
-0.59394
-0.44791
-0.30009
-0.19145
-0.079252
0.0062333
0.061443
0.11665
0.18255
0.22707
0.252
0.23419
0.20926
0.22351
0.29297
0.42654
0.5423
0.64559
0.5886
0.49599
0.252
-0.079252
-0.42119
-0.68655
-0.76313
-0.68833
-0.55298
-0.42832
-0.29475
-0.18611
-0.098842
-0.034728
0.016919
0.054319
0.091719
0.12912
0.15049
0.14693
0.10775
0.032947
-0.057881
-0.14515
-0.18967
-0.12556
0.11309
0.44791
0.71327
0.76492
0.58682
0.45147
0.28762
0.252
0.011576
-0.27694
-0.54408
-0.68477
-0.70258
-0.62956
-0.50668
-0.3553
-0.21638
-0.097061
-0.022262
0.016919
0.031167
0.050757
0.070347
0.073909
0.040071
-0.0187
-0.084595
-0.11309
-0.047195
0.1309
0.36955
0.5886
0.69012
0.63134
0.53874
0.49421
0.39092
0.27516
-0.088157
-0.49599
-0.8041
-0.94835
-0.93232
-0.83615
-0.67587
-0.49955
-0.3268
-0.21282
-0.13268
-0.072128
-0.0026714
0.089938
0.13268
0.15583
0.16474
0.18077
0.27516
0.36955
0.44613
0.46037
0.51558
0.50846
0.49777
0.33215
-0.00089047
-0.36955
-0.66162
-0.78985
-0.72752
-0.60997
-0.46037
-0.31612
-0.17898
-0.070347
0.025824
0.088157
0.14693
0.18611
0.21282
0.22707
0.21817
0.17008
0.07569
-0.043633
-0.17542
-0.22885
-0.14159
0.09528
0.41051
0.62778
0.67053
0.5797
0.4301
0.30543
0.28406
0.3179
0.37489
0.21282
-0.088157
-0.41585
-0.6634
-0.7382
-0.70971
-0.61532
-0.47996
-0.32858
-0.20214
-0.10062
-0.032947
0.0080142
0.03829
0.068566
0.073909
0.059662
0.036509
0.088157
0.20392
0.39626
0.5886
0.71505
0.69368
0.58682
0.36598
0.050757
-0.30543
-0.5886
-0.73998
-0.70436
-0.60285
-0.46572
-0.31434
-0.18077
-0.081033
0.0044524
0.061443
0.1309
0.17008
0.20748
0.2057
0.18611
0.1309
0.057881
-0.031167
-0.12021
-0.17542
-0.16296
-0.047195
0.17364
0.42476
0.61175
0.65272
0.5797
0.45681
0.31612
0.26981
0.31256
0.34461
0.20214
-0.1024
-0.44791
-0.68833
-0.76848
-0.74354
-0.65093
-0.52093
-0.37667
-0.26269
-0.15049
-0.091719
-0.016919
0.043633
0.10419
0.11309
0.070347
0.0044524
-0.027605
0.034728
0.19501
0.42654
0.61354
0.71683
0.77204
0.77382
0.72039
0.52805
0.16296
-0.2805
-0.63134
-0.82547
-0.83615
-0.73108
-0.59216
-0.4301
-0.29831
-0.17008
-0.086376
-0.013357
0.048976
0.12556
0.16652
0.17364
0.13802
0.077471
0.025824
-0.0062333
0.057881
0.21282
0.44078
0.65093
0.74354
0.73642
0.68121
0.54942
0.38557
0.059662
-0.29118
-0.5797
-0.72217
-0.69546
-0.60107
-0.45681
-0.31256
-0.17898
-0.061443
0.020481
0.082814
0.13268
0.17898
0.21817
0.24488
0.2431
0.20036
0.14515
0.086376
0.034728
0.031167
0.10419
0.2805
0.51024
0.77916
0.96082
1
0.86821
0.49777
0.048976
-0.4301
-0.77738
-0.9252
-0.89314
-0.78985
-0.63847
-0.48709
-0.3553
-0.23598
-0.15405
-0.079252
-0.029386
0.03829
0.11131
0.15761
0.14159
0.050757
-0.065004
-0.1772
-0.23598
-0.22351
-0.088157
0.15761
0.43722
0.6545
0.74176
0.69368
0.54942
0.33571
0.21817
0.18967
0.19858
0.072128
-0.1772
-0.44791
-0.61888
-0.67231
-0.63669
-0.55654
-0.43188
-0.31434
-0.20748
-0.12378
-0.031167
0.016919
0.03829
0.032947
0.0080142
0.0062333
0.043633
0.17186
0.37489
0.58682
0.70971
0.72217
0.68655
0.5797
0.4301
0.11843
-0.26803
-0.59216
-0.76135
-0.74533
-0.63847
-0.49777
-0.34461
-0.21638
-0.0935
-0.0062333
0.052538
0.11131
0.14515
0.18967
0.2146
0.21282
0.19501
0.14693
0.091719
0.024043
-0.024043
-0.032947
0.043633
0.2146
0.45503
0.63847
0.70436
0.65093
0.60641
0.59038
0.49243
0.20036
-0.18255
-0.51202
-0.67587
-0.6919
-0.64915
-0.55833
-0.439
-0.3179
-0.20036
-0.12199
-0.059662
-0.0097952
0.036509
0.089938
0.11665
0.09528
0.027605
-0.066785
-0.15405
-0.20036
-0.18077
-0.082814
0.11309
0.35174
0.55833
0.67943
0.71683
0.65272
0.48887
0.30543
0.23419
0.14693
0.034728
-0.23776
-0.54052
-0.73464
-0.78094
-0.71861
-0.60819
-0.47996
-0.34283
-0.22707
-0.10953
-0.03829
0.011576
0.034728
0.032947
0.025824
0.020481
0.03829
0.1309
0.31256
0.52627
0.67053
0.68477
0.67409
0.5886
0.50668
0.25557
-0.089938
-0.47106
-0.73108
-0.82191
-0.75245
-0.63847
-0.49243
-0.34461
-0.23063
-0.12912
-0.065004
-0.0097952
0.043633
0.082814
0.097061
0.097061
0.077471
0.052538
0.0062333
-0.043633
-0.10419
-0.13624
-0.1024
0.00089047
0.19679
0.43544
0.60107
0.64203
0.55833
0.51736
0.52627
0.43366
0.17898
-0.21817
-0.55298
-0.73998
-0.7756
-0.72573
-0.60285
-0.44791
-0.29653
-0.1772
-0.09528
-0.025824
0.029386
0.073909
0.12199
0.15227
0.1398
0.07569
-0.013357
-0.089938
-0.13446
-0.12021
-0.03829
0.12912
0.35174
0.54052
0.64559
0.65093
0.57792
0.45859
0.34817
0.38736
0.31434
0.19145
-0.16296
-0.56011
-0.81122
-0.89314
-0.84328
-0.74889
-0.6171
-0.46394
-0.33215
-0.19858
-0.089938
0.013357
0.068566
0.11665
0.1309
0.15049
0.1683
0.21638
0.34283
0.52449
0.6919
0.77026
0.75957
0.65628
0.56189
0.34817
0.068566
-0.31077
-0.60463
-0.73464
-0.67053
-0.54052
-0.39982
-0.24666
-0.12556
-0.029386
0.057881
0.10597
0.16474
0.19679
0.22173
0.22529
0.21282
0.17898
0.11309
0.043633
-0.040071
-0.1024
-0.13268
-0.089938
0.029386
0.23063
0.44613
0.60997
0.6634
0.60997
0.49599
0.31968
0.27337
0.30187
0.31434
0.15049
-0.17186
-0.49065
-0.66696
-0.7008
-0.65272
-0.56189
-0.44791
-0.32502
-0.20926
-0.084595
0.0080142
0.089938
0.19323
0.3179
0.41229
0.45325
0.4301
0.49065
0.59929
0.72573
0.78451
0.66518
0.45503
0.23063
0.063224
-0.0062333
-0.034728
-0.089938
-0.19679
-0.27516
-0.30009
-0.24132
-0.12199
-0.031167
0.03829
0.066785
0.086376
0.11131
0.12378
0.1398
0.13802
0.11487
0.072128
0.0187
-0.043633
-0.1024
-0.17008
-0.21995
-0.23776
-0.17542
-0.048976
0.15227
0.33927
0.46928
0.50134
0.45681
0.36598
0.25378
0.24132
0.23776
0.18077
-0.11131
-0.50846
-0.83793
-0.97329
-0.97507
-0.90383
-0.80053
-0.67765
-0.54052
-0.40873
-0.27516
-0.16296
-0.059662
0.034728
0.18611
0.34461
0.44256
0.41763
0.36242
0.36064
0.45681
0.56189
0.57614
0.50668
0.36242
0.18967
0.12021
0.097061
0.086376
-0.0187
-0.20214
-0.3268
-0.36598
-0.30543
-0.22885
-0.14515
-0.086376
-0.047195
0.0044524
0.034728
0.084595
0.11665
0.1398
0.12199
0.0935
0.03829
-0.03829
-0.098842
-0.15939
-0.17364
-0.11843
0.047195
0.26625
0.4675
0.56901
0.56545
0.47818
0.33927
0.29475
0.30187
0.252
-0.022262
-0.42476
-0.78629
-0.96972
-1
-0.92698
-0.80944
-0.67409
-0.52805
-0.41585
-0.30721
-0.20392
-0.12199
-0.03829
0.015138
0.043633
0.041852
0.034728
0.027605
0.088157
0.23063
0.43544
0.60997
0.64915
0.63134
0.54942
0.45147
0.20214
-0.14515
-0.51558
-0.78272
-0.85752
-0.77738
-0.63847
-0.47818
-0.3179
-0.20214
-0.10419
-0.040071
0.029386
0.072128
0.11487
0.12734
0.15227
0.13268
0.11309
0.082814
0.022262
-0.03829
-0.09528
-0.12199
-0.070347
0.065004
0.2894
0.53874
0.70436
0.77738
0.83259
0.76135
0.56189
0.17008
-0.26803
-0.59216
-0.74176
-0.73642
-0.66518
-0.50668
-0.32146
-0.081033
0.1398
0.26803
0.28762
0.28406
0.28228
0.29653
0.26447
0.21104
0.18077
0.10419
0.0026714
-0.16296
-0.23419
-0.19679
-0.011576
0.26625
0.49599
0.62066
0.6171
0.52983
0.41407
0.25913
0.20214
0.19679
0.15583
0.043633
-0.23063
-0.49955
-0.70971
-0.81122
-0.813
-0.72395
-0.59038
-0.44613
-0.31968
-0.22173
-0.13624
-0.072128
-0.025824
-0.015138
-0.041852
-0.10953
-0.15405
-0.16296
-0.081033
0.084595
0.30899
0.53161
0.63847
0.62956
0.57792
0.56723
0.46394
0.31968
-0.041852
-0.43366
-0.7293
-0.87711
-0.86821
-0.75245
-0.60819
-0.43544
-0.2894
-0.16652
-0.072128
0.0080142
0.079252
0.14337
0.1772
0.18967
0.16474
0.11843
0.057881
-0.011576
-0.09528
-0.15405
-0.14693
-0.040071
0.20748
0.52093
0.71683
0.74711
0.70436
0.5886
0.46572
0.16118
-0.21817
-0.53874
-0.69012
-0.69546
-0.6171
-0.50846
-0.38023
-0.24844
-0.14337
-0.036509
0.024043
0.065004
0.10775
0.14871
0.18433
0.18433
0.13268
0.040071
-0.061443
-0.13624
-0.17008
-0.18967
-0.14337
-0.054319
0.11131
0.31077
0.46394
0.53517
0.50846
0.44435
0.31434
0.21104
0.2431
0.19145
0.12556
-0.1683
-0.5423
-0.78094
-0.89314
-0.87533
-0.80588
-0.69546
-0.57079
-0.4301
-0.29831
-0.17364
-0.091719
-0.0044524
0.15227
0.31612
0.40338
0.34283
0.24488
0.12378
0.054319
0.0097952
0.047195
0.19858
0.35708
0.439
0.45147
0.4016
0.35174
0.38914
0.33393
0.19145
-0.086376
-0.3927
-0.57257
-0.62066
-0.60463
-0.54586
-0.46037
-0.37133
-0.26803
-0.16296
-0.043633
0.050757
0.12378
0.13802
0.11131
0.082814
0.020481
-0.050757
-0.13802
-0.21817
-0.25557
-0.21104
-0.048976
0.19145
0.40338
0.51736
0.52983
0.4675
0.35886
0.22529
0.22351
0.22707
0.22351
-0.029386
-0.37845
-0.68121
-0.8415
-0.85218
-0.78629
-0.67231
-0.5423
-0.40338
-0.24666
-0.082814
0.031167
0.11665
0.27337
0.42476
0.53339
0.46928
0.34639
0.18077
0.086376
0.041852
0.063224
0.22173
0.41407
0.54408
0.5797
0.52449
0.47462
0.46572
0.4764
0.42297
0.17008
-0.10953
-0.36776
-0.4675
-0.4675
-0.41763
-0.35174
-0.26269
-0.18077
-0.089938
0.00089047
0.084595
0.16296
0.20036
0.21282
0.17542
0.1309
0.068566
0.0187
-0.048976
-0.11131
-0.1398
-0.10597
0.0044524
0.1683
0.3553
0.49421
0.56545
0.55654
0.49065
0.38023
0.26625
0.31968
0.28406
0.2146
-0.081033
-0.48175
-0.72752
-0.8415
-0.82369
-0.75067
-0.65272
-0.53517
-0.39626
-0.27337
-0.14693
-0.03829
0.052538
0.24666
0.42119
0.5049
0.439
0.3268
0.19679
0.13802
0.10062
0.11843
0.24666
0.41407
0.52093
0.56189
0.52983
0.49421
0.53517
0.49599
0.33215
0.048976
-0.24488
-0.4301
-0.4675
-0.45681
-0.41941
-0.34283
-0.26625
-0.18789
-0.10419
-0.024043
0.045414
0.0935
0.1398
0.14515
0.13446
0.081033
0.015138
-0.052538
-0.12021
-0.17364
-0.18967
-0.14337
-0.025824
0.16296
0.33927
0.45681
0.47996
0.43366
0.34817
0.22707
0.17364
0.22173
0.18789
0.024043
-0.30899
-0.65984
-0.85931
-0.91986
-0.90027
-0.80944
-0.69546
-0.55476
-0.40695
-0.26803
-0.14159
-0.054319
0.13268
0.30721
0.42654
0.39448
0.25378
0.10419
0.0097952
-0.047195
-0.068566
0.015138
0.20036
0.37311
0.47106
0.48531
0.44078
0.43366
0.46394
0.42119
0.20392
-0.084595
-0.35174
-0.47818
-0.49599
-0.45681
-0.39804
-0.31256
-0.23954
-0.16652
-0.07569
0.0026714
0.079252
0.12378
0.15049
0.15761
0.12378
0.052538
-0.025824
-0.097061
-0.15761
-0.18433
-0.14159
-0.031167
0.15761
0.35174
0.49777
0.54764
0.51736
0.44791
0.32324
0.22885
0.28228
0.25022
0.18255
-0.12021
-0.49421
-0.73286
-0.8504
-0.8415
-0.76313
-0.64737
-0.52449
-0.37311
-0.25557
-0.11487
-0.020481
0.11487
0.29297
0.46394
0.51024
0.39092
0.26625
0.11309
0.041852
-0.025824
-0.020481
0.10953
0.30009
0.46037
0.53874
0.53161
0.49065
0.47818
0.47462
0.38557
0.1309
-0.16652
-0.43722
-0.5512
-0.57792
-0.55476
-0.49777
-0.41229
-0.30721
-0.21995
-0.12021
-0.03829
0.032947
0.088157
0.097061
0.097061
0.063224
0.024043
-0.016919
-0.091719
-0.15583
-0.2057
-0.22529
-0.16474
-0.050757
0.15405
0.30899
0.42654
0.45503
0.40695
0.33215
0.20748
0.1683
0.23598
0.2146
0.0561
-0.27516
-0.61175
-0.81478
-0.86465
-0.84328
-0.74176
-0.63134
-0.49777
-0.33927
-0.21282
-0.09528
-0.0187
0.19323
0.37845
0.51202
0.48531
0.34639
0.19145
0.088157
0.020481
-0.015138
0.0561
0.23063
0.43188
0.56011
0.59929
0.54942
0.51024
0.53695
0.4675
0.33571
0.043633
-0.25378
-0.44435
-0.51024
-0.49421
-0.44078
-0.34996
-0.28406
-0.20392
-0.12734
-0.0187
0.043633
0.10775
0.11665
0.12556
0.10775
0.054319
-0.0026714
-0.0561
-0.12734
-0.17008
-0.21282
-0.17542
-0.079252
0.098842
0.27872
0.42832
0.49421
0.47996
0.41407
0.30899
0.21282
0.252
0.2431
0.21995
-0.047195
-0.39626
-0.66696
-0.79875
-0.81656
-0.76135
-0.65272
-0.53874
-0.39092
-0.27337
-0.12912
-0.045414
0.11487
0.31968
0.49065
0.5423
0.41585
0.2805
0.13624
0.065004
-0.0026714
-0.0062333
0.10419
0.29297
0.48887
0.58148
0.59929
0.54764
0.51736
0.53695
0.47996
0.34639
0.054319
-0.22351
-0.40338
-0.46572
-0.44256
-0.38201
-0.29831
-0.2057
-0.12912
-0.045414
0.047195
0.12912
0.1772
0.21104
0.22351
0.21638
0.17186
0.11131
0.03829
-0.032947
-0.09528
-0.15227
-0.1309
-0.050757
0.10953
0.30365
0.45681
0.52449
0.51558
0.43544
0.33215
0.2146
0.22529
0.252
0.23598
-0.013357
-0.35708
-0.64737
-0.80766
-0.83793
-0.78985
-0.69012
-0.5797
-0.45681
-0.3268
-0.20214
-0.091719
0.013357
0.2146
0.39626
0.49243
0.41585
0.27337
0.11665
0.027605
-0.057881
-0.0935
0.00089047
0.20214
0.40338
0.52449
0.54942
0.50134
0.45325
0.47462
0.44078
0.35352
0.079252
-0.21104
-0.42654
-0.5049
-0.48887
-0.43366
-0.35886
-0.26269
-0.18611
-0.097061
-0.016919
0.057881
0.11309
0.1398
0.14515
0.12021
0.079252
0.0187
-0.03829
-0.10597
-0.16652
-0.20748
-0.20748
-0.14693
-0.020481
0.15227
0.32858
0.44969
0.48531
0.45681
0.37667
0.26625
0.20036
0.27516
0.25378
0.17186
-0.11131
-0.45503
-0.67587
-0.77026
-0.76848
-0.69902
-0.61354
-0.50312
-0.38379
-0.24666
-0.10953
-0.0044524
0.14871
0.33037
0.47284
0.4764
0.34996
0.19145
0.070347
-0.0097952
-0.07569
-0.052538
0.084595
0.29475
0.48175
0.59038
0.59573
0.53517
0.51202
0.51202
0.45681
0.3179
0.016919
-0.30009
-0.52449
-0.64203
-0.60285
-0.53161
-0.43188
-0.32502
-0.23954
-0.1309
-0.025824
0.063224
0.11487
0.14871
0.15227
0.1309
0.077471
0.0026714
-0.081033
-0.14871
-0.22529
-0.25557
-0.23776
-0.13268
0.041852
0.24666
0.40338
0.4764
0.46394
0.39092
0.2894
0.17186
0.1772
0.21282
0.20926
0.0187
-0.2805
-0.57614
-0.73998
-0.78807
-0.74176
-0.64559
-0.54052
-0.42297
-0.30365
-0.15583
-0.0044524
0.10419
0.18967
0.31256
0.43188
0.49599
0.44613
0.32858
0.17186
0.059662
-0.072128
-0.10419
-0.031167
0.12912
0.30899
0.45681
0.54764
0.58148
0.5512
0.47462
0.41763
0.37667
0.29475
0.21638
-0.03829
-0.29297
-0.51915
-0.65628
-0.6545
-0.58326
-0.47106
-0.35174
-0.23241
-0.11309
-0.0097952
0.065004
0.13624
0.20036
0.24132
0.22885
0.18077
0.11487
0.057881
0.00089047
-0.047195
-0.043633
0.043633
0.23776
0.44791
0.63134
0.71683
0.62956
0.41585
0.2146
0.13268
0.09528
-0.016919
-0.2431
-0.4301
-0.47996
-0.41585
-0.30009
-0.18433
-0.086376
-0.0080142
0.057881
0.11843
0.17186
0.21104
0.2431
0.252
0.22707
0.17186
0.089938
0.0097952
-0.052538
-0.11131
-0.14515
-0.13268
-0.068566
0.079252
0.26447
0.4301
0.52449
0.53695
0.4764
0.38736
0.26803
0.20926
0.26269
0.22173
0.15583
-0.46037
