0.14924
-0.024191
-0.34053
-0.56457
-0.63007
-0.50502
-0.26386
-0.059918
0.031634
0.047265
0.045776
0.06885
0.10979
0.16263
0.21474
0.26758
0.31448
0.34872
0.3703
0.37923
0.3837
0.37998
0.37477
0.36956
0.36658
0.36137
0.3502
0.34202
0.33085
0.31597
0.30182
0.28545
0.24153
0.21325
0.19687
0.10086
-0.057685
-0.3569
-0.57276
-0.64719
-0.54298
-0.31522
-0.1083
-0.012281
0.013026
0.017492
0.042799
0.088202
0.14105
0.19613
0.25121
0.29959
0.33904
0.3636
0.377
0.37253
0.34872
0.29364
0.21399
0.13137
0.044287
-0.033867
-0.11128
-0.1738
-0.20506
-0.16189
-0.023446
0.068106
0.12988
0.14998
0.068106
0.037588
-0.13212
-0.30033
-0.41347
-0.43134
-0.33309
-0.19539
-0.071083
0.050242
0.14998
0.2259
0.28024
0.31597
0.34202
0.3636
0.3904
0.41645
0.4358
0.44846
0.45664
0.45218
0.44399
0.43208
0.41868
0.40603
0.39412
0.38072
0.36732
0.35095
0.33755
0.29587
0.26833
0.25568
0.16785
0.0040938
-0.29438
-0.53033
-0.62188
-0.62188
-0.52661
-0.28694
-0.067361
0.050986
0.085225
0.086714
0.098623
0.12914
0.16933
0.21325
0.25791
0.3048
0.34946
0.38593
0.41198
0.42092
0.41496
0.39263
0.36137
0.30108
0.20729
0.099367
-0.010793
-0.10755
-0.19985
-0.27354
-0.29885
-0.21325
-0.10234
-0.11946
-0.13286
-0.28768
-0.35914
-0.40677
-0.3971
-0.28991
-0.14775
-0.021213
0.085969
0.1671
0.22441
0.26535
0.29215
0.30703
0.3182
0.32862
0.3383
0.34053
0.31597
0.24823
0.18273
0.10904
0.049498
-0.010048
-0.062151
-0.094157
-0.093413
-0.066617
0.0026051
0.10532
0.14403
0.15594
0.066617
0.029401
-0.076293
-0.24302
-0.3703
-0.42017
-0.33755
-0.19315
-0.064384
0.050986
0.14924
0.21995
0.27205
0.31299
0.33904
0.35914
0.37998
0.40156
0.42464
0.44771
0.46483
0.47302
0.47674
0.476
0.47227
0.46334
0.45515
0.44697
0.4291
0.41273
0.39263
0.37253
0.35095
0.30703
0.29438
0.27949
0.20953
0.048753
-0.24451
-0.476
-0.56085
-0.46706
-0.23632
-0.026424
0.091924
0.11946
0.12244
0.12765
0.16636
0.21771
0.27949
0.33904
0.3904
0.42985
0.45962
0.47972
0.48865
0.49237
0.48939
0.47897
0.45515
0.43208
0.40231
0.36658
0.30108
0.1939
0.045032
-0.11351
-0.2326
-0.42464
-0.48344
-0.48195
-0.40826
-0.30778
-0.25791
-0.18571
-0.090435
-0.0093041
0.062895
0.13063
0.18869
0.23409
0.26461
0.28545
0.30033
0.31299
0.32713
0.34127
0.35541
0.3636
0.35318
0.30852
0.22367
0.12691
0.030145
-0.049498
-0.11798
-0.17306
-0.19687
-0.13361
0.033867
0.16412
0.2847
0.3569
0.35467
0.35244
0.21995
-0.020469
-0.25344
-0.42464
-0.4492
-0.34499
-0.20655
-0.062895
0.061407
0.16636
0.24377
0.29959
0.33681
0.36658
0.39338
0.42092
0.44473
0.46483
0.47897
0.4879
0.4946
0.50056
0.49907
0.49684
0.48865
0.48046
0.46409
0.44994
0.43357
0.41794
0.4038
0.39263
0.36286
0.32862
0.36807
0.28619
0.17752
-0.082248
-0.33383
-0.4626
-0.4224
-0.22962
-0.0093041
0.12765
0.16933
0.147
0.10681
0.077038
0.080015
0.1083
0.14328
0.1805
0.21623
0.24823
0.27875
0.30257
0.31894
0.32862
0.33532
0.34648
0.34946
0.34872
0.34351
0.33457
0.32341
0.31224
0.30331
0.27949
0.24898
0.2914
0.20357
0.12021
-0.10681
-0.36063
-0.50056
-0.49014
-0.3115
-0.079271
0.088947
0.16189
0.17157
0.14849
0.12616
0.1217
0.14179
0.17827
0.22293
0.26089
0.29215
0.31597
0.34127
0.36063
0.3703
0.37179
0.36956
0.36956
0.36956
0.37253
0.37179
0.35616
0.33904
0.3182
0.2981
0.25419
0.22814
0.26386
0.19315
0.099367
-0.13658
-0.38891
-0.53033
-0.51396
-0.34797
-0.12616
0.030145
0.10309
0.10532
0.076293
0.045776
0.039077
0.058429
0.10011
0.147
0.1872
0.22665
0.26014
0.28843
0.31076
0.32341
0.33309
0.32862
0.32043
0.31001
0.30257
0.29215
0.26758
0.19836
0.087458
-0.064384
-0.2006
-0.26982
-0.41571
-0.39412
-0.32862
-0.23781
-0.14477
-0.13807
-0.091924
0.010048
0.10904
0.1872
0.25121
0.29438
0.31299
0.32266
0.32862
0.3383
0.3502
0.36435
0.37849
0.39338
0.40231
0.40528
0.40677
0.40007
0.39189
0.38147
0.36956
0.3569
0.34127
0.32341
0.30778
0.28768
0.26535
0.23483
0.28917
0.25121
0.2192
0.042054
-0.22665
-0.42017
-0.48865
-0.37998
-0.1604
0.036844
0.14477
0.16487
0.13435
0.082248
0.043543
0.042799
0.067361
0.10086
0.13584
0.17231
0.20357
0.22665
0.24302
0.24749
0.24228
0.22962
0.21846
0.20432
0.17157
0.094157
0.0040938
-0.097879
-0.17231
-0.22814
-0.26684
-0.27726
-0.16189
0.09118
0.31671
0.56159
0.6792
0.70599
0.66505
0.41124
0.085969
-0.21474
-0.39189
-0.40677
-0.34127
-0.24674
-0.13286
-0.017492
0.076293
0.14254
0.18794
0.22144
0.24674
0.27056
0.29587
0.32118
0.34053
0.34425
0.32341
0.26758
0.13733
-0.01377
-0.18794
-0.31969
-0.44473
-0.53554
-0.45515
-0.28768
-0.060662
0.073316
0.016003
-0.10532
-0.23781
-0.28396
-0.17752
-0.0093041
0.115
0.19613
0.2393
0.28247
0.3249
0.35169
0.3703
0.38593
0.40082
0.41496
0.42538
0.43134
0.43282
0.42985
0.42166
0.41198
0.4038
0.39486
0.38593
0.37998
0.37402
0.36807
0.36211
0.3569
0.34946
0.33978
0.3316
0.32192
0.31299
0.30406
0.29736
0.28917
0.28173
0.27726
0.27131
0.26461
0.25642
0.25195
0.246
0.24079
0.19017
0.22665
0.24451
0.30182
0.22739
-0.01898
-0.27726
-0.4492
-0.43952
-0.2914
-0.10309
0.0048381
0.034611
0.035355
0.043543
0.082248
0.12467
0.1604
0.17678
0.17082
0.16263
0.12467
0.06364
-0.054708
-0.16487
-0.28619
-0.44027
-0.57052
-0.71195
-0.72981
-0.59881
-0.30033
-0.037588
0.085225
0.048753
-0.039077
-0.07406
-0.038333
0.016003
0.0063268
-0.021958
-0.083737
-0.088947
-0.030889
0.043543
0.13733
0.27949
0.39412
0.47823
0.49237
0.47227
0.45515
0.44622
0.4291
0.40677
0.3904
0.37626
0.35169
0.29736
0.21697
0.115
0.01377
-0.07406
-0.15594
-0.22367
-0.25642
-0.26833
-0.20357
0.010793
0.27131
0.5415
0.65166
0.47451
0.18199
-0.16412
-0.40156
-0.47153
-0.46036
-0.39784
-0.28917
-0.16561
-0.040566
0.057685
0.12616
0.17082
0.20804
0.2393
0.27652
0.31299
0.34351
0.35318
0.28694
0.24898
0.18348
0.13286
0.0011165
-0.27056
-0.51023
-0.66208
-0.56308
-0.33234
-0.030145
0.23856
0.42687
0.51619
0.52214
0.47302
0.41719
0.38147
0.34202
0.28098
0.19092
0.11723
0.084481
0.09118
0.094157
0.074805
0.090435
0.12393
0.1738
0.1604
0.029401
-0.12914
-0.32862
-0.47525
-0.44846
-0.32713
-0.15742
-0.040566
0.039077
0.026424
-0.062895
-0.18199
-0.26312
-0.19315
-0.062895
-0.00037216
0.042799
0.098623
0.18645
0.30108
0.38742
0.44101
0.47525
0.49981
0.5147
0.52363
0.52363
0.51991
0.51619
0.51544
0.51396
0.51321
0.51172
0.50502
0.49907
0.49311
0.48642
0.47972
0.47153
0.46706
0.46334
0.46334
0.46334
0.45367
0.4358
0.41943
0.40082
0.36509
0.33755
0.35988
0.26089
0.15742
-0.13807
-0.36658
-0.50205
-0.44473
-0.26089
-0.065873
0.045032
0.091924
0.11128
0.12542
0.14849
0.17752
0.2006
0.21623
0.2259
0.23186
0.23335
0.23186
0.2259
0.21325
0.18348
0.1537
0.147
0.1604
0.19092
0.21102
0.21771
0.21474
0.21548
0.22069
0.23409
0.24898
0.25568
0.24153
0.16636
0.076293
-0.028656
-0.11053
-0.17306
-0.22441
-0.24972
-0.17975
0.069594
0.38444
0.55787
0.55415
0.23632
-0.10979
-0.37923
-0.47748
-0.38742
-0.24302
-0.11053
-0.00037216
0.082248
0.14254
0.19092
0.2192
0.24451
0.26758
0.28843
0.30406
0.32192
0.33457
0.34127
0.33309
0.30927
0.27503
0.22739
0.1537
0.013026
-0.14552
-0.1872
-0.20134
-0.20581
-0.29959
-0.39412
-0.37551
-0.29885
-0.20729
-0.12765
-0.040566
0.055452
0.14552
0.22665
0.27726
0.30555
0.32936
0.35169
0.37105
0.38817
0.40231
0.41198
0.41868
0.42464
0.42538
0.42017
0.41198
0.40231
0.39338
0.38593
0.37923
0.36956
0.35765
0.34648
0.3383
0.33085
0.3249
0.32118
0.31671
0.31076
0.30406
0.29885
0.29289
0.28843
0.28396
0.27652
0.26535
0.25493
0.246
0.22367
0.24377
0.31969
0.32192
0.24972
-0.019725
-0.28991
-0.49014
-0.49609
-0.37774
-0.22516
-0.12691
-0.082248
-0.059918
-0.042799
-0.018236
0.012281
0.036844
0.039821
0.027912
0.019725
0.021213
0.037588
0.045032
0.033122
0.0026051
-0.04131
-0.095646
-0.16115
-0.27205
-0.39933
-0.48418
-0.51917
-0.46111
-0.31001
-0.010793
0.27875
0.49386
0.60625
0.59955
0.53926
0.22665
-0.1738
-0.52363
-0.71269
-0.72013
-0.70748
-0.65389
-0.55341
-0.41719
-0.25195
-0.11723
-0.030145
0.033122
0.10383
0.19017
0.28545
0.36881
0.42464
0.45218
0.46185
0.46334
0.45367
0.43208
0.38817
0.33309
0.26535
0.058429
-0.21771
-0.42761
-0.57722
-0.57127
-0.44027
-0.40752
-0.31076
-0.28396
-0.30703
-0.25493
-0.14031
-0.025679
0.11649
0.23111
0.32118
0.39859
0.4425
0.47079
0.4946
0.5147
0.53108
0.54373
0.55341
0.55862
0.56234
0.56085
0.55787
0.55489
0.55266
0.54968
0.54447
0.53852
0.53182
0.52438
0.51768
0.51396
0.50875
0.50428
0.50205
0.49684
0.49014
0.48195
0.476
0.46781
0.46185
0.45739
0.45069
0.44176
0.43059
0.41571
0.39784
0.3837
0.37105
0.3502
0.38817
0.35467
0.32564
0.11053
-0.17157
-0.38295
-0.44622
-0.35765
-0.2006
-0.09639
-0.086714
-0.1217
-0.14924
-0.14552
-0.17901
-0.24972
-0.34946
-0.39486
-0.35616
-0.26461
-0.16487
-0.089691
-0.033122
-0.0085597
0.0040938
-0.033867
-0.19836
-0.44473
-0.66208
-0.78042
-0.72758
-0.50949
-0.18943
0.15073
0.3971
0.5013
0.5013
0.30033
0.058429
-0.15594
-0.20729
-0.13137
-0.0078154
0.10607
0.23037
0.2981
0.35839
0.42761
0.49014
0.53852
0.51991
0.52214
0.48939
0.44399
0.35616
0.030145
-0.27131
-0.55564
-0.64272
-0.56606
-0.2661
-0.045776
0.1083
0.049498
-0.14031
-0.24898
-0.26907
-0.20357
-0.09639
0.027912
0.15073
0.27726
0.3971
0.48344
0.53405
0.56159
0.57574
0.59211
0.60774
0.62039
0.62784
0.63379
0.63528
0.63379
0.62933
0.62486
0.61742
0.60849
0.60179
0.5936
0.58616
0.57797
0.56978
0.5601
0.54968
0.54224
0.53108
0.51768
0.50354
0.49088
0.47972
0.47079
0.46334
0.45664
0.44846
0.43878
0.42836
0.41347
0.39561
0.37626
0.36211
0.33532
0.29885
0.35467
0.26758
0.19836
-0.098623
-0.36881
-0.54224
-0.50205
-0.3502
-0.18348
-0.097879
-0.1016
-0.13658
-0.1537
-0.1284
-0.14775
-0.20357
-0.2847
-0.30629
-0.24525
-0.15147
-0.054708
0.0093041
0.047265
0.06364
0.087458
0.12467
0.15594
0.15221
0.17975
0.14031
0.069594
-0.16785
-0.476
-0.70897
-0.76405
-0.67547
-0.42017
-0.20953
-0.04131
-0.010048
-0.091924
-0.13137
-0.085969
0.022702
0.11872
0.21474
0.26833
0.33383
0.3971
0.43952
0.46409
0.48418
0.49907
0.50577
0.50875
0.50949
0.50577
0.49684
0.48716
0.47823
0.46781
0.46111
0.45515
0.44771
0.43803
0.42836
0.41868
0.41049
0.40603
0.40305
0.39933
0.39189
0.38668
0.37774
0.36732
0.35467
0.34202
0.32862
0.31299
0.30033
0.28694
0.27056
0.25344
0.23781
0.22069
0.15891
0.14849
0.14105
0.10011
-0.0361
-0.26833
-0.42166
-0.44548
-0.32118
-0.14924
0.0033495
0.070339
0.050242
0.0026051
-0.012281
-0.06364
-0.17975
-0.3502
-0.46483
-0.42836
-0.29661
-0.14254
-0.0093041
0.070339
0.045032
-0.0055824
-0.10458
-0.22814
-0.48195
-0.66803
-0.79978
-0.70971
-0.3971
-0.010048
0.33681
0.57425
0.58541
0.50949
0.43952
0.30331
0.044287
-0.22739
-0.49014
-0.55043
-0.45441
-0.19315
0.045032
0.28024
0.40454
0.32192
0.17678
0.04652
-0.0018608
0.01898
-0.16785
-0.39412
-0.61146
-0.59732
-0.40603
-0.15073
0.21474
0.48418
0.65091
0.65687
0.6256
0.61593
0.59806
0.55936
0.5348
0.52661
0.52214
0.52289
0.52066
0.51991
0.52066
0.52066
0.51917
0.51693
0.5147
0.51098
0.50651
0.49907
0.48865
0.47748
0.43357
0.43803
0.45664
0.36584
0.09118
-0.26758
-0.53629
-0.60551
-0.476
-0.30108
-0.12914
0.0048381
0.062151
0.06364
0.054708
0.055452
0.090435
0.069594
-0.062151
-0.19464
-0.24749
-0.14552
0.013026
0.23335
0.37105
0.40007
0.36732
0.2594
0.06364
-0.11649
-0.36584
-0.43803
-0.38221
-0.30331
-0.2393
-0.15594
-0.059918
0.06364
0.17603
0.25865
0.1604
0.056941
-0.051731
-0.0026051
0.094901
0.19092
0.3182
0.3904
0.46706
0.48493
0.52289
0.6137
0.72386
0.79903
0.83476
0.82881
0.7968
0.76554
0.71492
0.65761
0.60774
0.56755
0.52363
0.44994
0.35095
0.26163
0.20581
0.19613
0.19464
0.19464
0.20804
0.23781
0.26312
0.25716
0.26982
0.31299
0.35169
0.19836
-0.17901
-0.63082
-0.90919
-0.85486
-0.61891
-0.40677
-0.27131
-0.23186
-0.22144
-0.17082
-0.094157
-0.010048
0.088947
0.17157
0.23186
0.26758
0.27726
0.23409
0.16636
0.12021
0.071827
-0.062895
-0.34276
-0.5601
-0.67473
-0.56978
-0.33904
-0.056941
0.23111
0.44325
0.51023
0.43952
0.32266
0.22293
0.24004
0.34127
0.45143
0.5281
0.57276
0.55415
0.48121
0.41273
0.33978
0.10309
-0.17454
-0.49609
-0.65836
-0.65314
-0.41124
-0.053964
0.3048
0.55117
0.53703
0.48121
0.43431
0.1939
-0.061407
-0.29215
-0.31671
-0.24302
-0.099367
0.016747
0.14552
0.25195
0.33309
0.40752
0.46409
0.49163
0.46781
0.42836
0.37179
0.26684
-0.053964
-0.39784
-0.67622
-0.7313
-0.52289
-0.21176
0.0033495
0.1738
0.24451
0.3502
0.49758
0.57648
0.6003
0.60774
0.60997
0.60849
0.60774
0.60923
0.60625
0.60253
0.59658
0.58988
0.57722
0.56755
0.55862
0.55266
0.54671
0.53703
0.52587
0.51396
0.50726
0.50502
0.50205
0.49833
0.49311
0.48865
0.48046
0.47227
0.46111
0.44771
0.43282
0.41645
0.36509
0.35988
0.37551
0.2259
0.0026051
-0.34574
-0.48939
-0.44622
-0.3048
-0.1872
-0.087458
-0.027168
-0.020469
-0.039077
-0.074805
-0.09639
-0.078526
-0.035355
0.017492
0.062151
0.078526
0.066617
0.050986
0.04652
0.048753
0.0361
0.0055824
-0.026424
-0.045032
-0.030145
0.016747
0.09118
0.16933
0.23335
0.27875
0.3115
0.33681
0.36137
0.38147
0.39412
0.40156
0.40826
0.40975
0.40826
0.40454
0.40305
0.39635
0.38742
0.37402
0.35914
0.34276
0.32415
0.28098
0.23856
0.29736
0.22069
0.10383
-0.14849
-0.30406
-0.32192
-0.20134
-0.059174
0.065128
0.13658
0.13882
0.11053
0.064384
0.018236
-0.0026051
-0.019725
-0.083737
-0.16412
-0.23856
-0.24004
-0.16412
-0.044287
0.077038
0.11798
0.073316
-0.020469
-0.10607
-0.11277
-0.061407
0.027168
0.11649
0.18645
0.2326
0.2594
0.27428
0.28322
0.28917
0.29364
0.30331
0.31745
0.33383
0.34425
0.35541
0.36435
0.3703
0.37402
0.37477
0.36807
0.35988
0.34872
0.33309
0.28322
0.34946
0.377
0.3048
0.086714
-0.22367
-0.34499
-0.28694
-0.13584
0.012281
0.13435
0.18348
0.17157
0.13733
0.089691
0.057685
0.0040938
-0.12691
-0.28917
-0.42389
-0.44994
-0.37998
-0.23409
-0.077782
0.067361
0.14254
0.16487
0.15519
0.12988
0.00037216
-0.26014
-0.50502
-0.6256
-0.59583
-0.4492
-0.21474
-0.086714
0.023446
0.018236
0.054708
0.17827
0.30778
0.39933
0.46706
0.49758
0.49163
0.48121
0.47079
0.46111
0.45143
0.43729
0.41645
0.39114
0.35839
0.31894
0.2847
0.27279
0.29438
0.33383
0.36584
0.38742
0.40082
0.40826
0.41124
0.41273
0.41198
0.40454
0.39486
0.38668
0.37849
0.36807
0.35616
0.34351
0.32787
0.31522
0.30257
0.28619
0.27056
0.24972
0.18422
0.2125
0.17008
0.097134
-0.10755
-0.33978
-0.45367
-0.38965
-0.27428
-0.147
-0.055452
-0.016747
-0.045776
-0.10086
-0.14849
-0.18869
-0.27354
-0.37923
-0.50651
-0.54745
-0.48418
-0.35393
-0.18943
-0.033122
0.084481
0.097134
0.083737
0.018236
-0.073316
-0.28247
-0.43729
-0.55862
-0.53777
-0.46185
-0.22665
-0.015259
0.25716
0.45962
0.52735
0.55936
0.54745
0.4559
0.27056
0.06364
-0.098623
-0.094901
0.016747
0.12691
0.23186
0.26982
0.32118
0.34946
0.39114
0.44176
0.51917
0.57871
0.61742
0.62188
0.60997
0.60328
0.59509
0.57499
0.55192
0.53629
0.52587
0.51917
0.51023
0.50428
0.49907
0.4946
0.48865
0.48195
0.47525
0.46557
0.45367
0.44325
0.43059
0.41347
0.39561
0.37923
0.35839
0.29512
0.31745
0.30033
0.16561
-0.059918
-0.36286
-0.47004
-0.40603
-0.27949
-0.15519
-0.071827
-0.031634
-0.060662
-0.12765
-0.20581
-0.24228
-0.26163
-0.37179
-0.50279
-0.63305
-0.62188
-0.50354
-0.31597
-0.13733
0.021213
0.082248
0.11798
0.09639
0.024935
-0.17827
-0.35541
-0.52438
-0.53852
-0.47079
-0.22069
0.012281
0.28098
0.47079
0.50949
0.55043
0.53108
0.36584
0.11425
-0.115
-0.23409
-0.1604
-0.04131
0.11202
0.21399
0.32639
0.38965
0.44325
0.49014
0.52959
0.56829
0.58988
0.60402
0.60402
0.6003
0.59583
0.58839
0.58095
0.57052
0.56159
0.55415
0.54522
0.5348
0.52363
0.51396
0.50428
0.49535
0.48865
0.47972
0.46855
0.45515
0.44027
0.42315
0.40752
0.39114
0.37402
0.35467
0.33011
0.26907
0.30629
0.2847
0.13882
-0.10309
-0.41571
-0.52289
-0.45143
-0.32639
-0.20357
-0.11574
-0.080759
-0.11649
-0.18273
-0.24153
-0.26237
-0.27279
-0.37179
-0.50502
-0.63528
-0.63454
-0.51768
-0.32415
-0.14552
-0.010793
0.033122
0.047265
0.032378
-0.04652
-0.26014
-0.43431
-0.5482
-0.5214
-0.43282
-0.17901
0.04652
0.29885
0.41347
0.44697
0.44473
0.34574
0.12467
-0.10011
-0.27279
-0.29066
-0.18869
-0.056197
0.083737
0.19836
0.29736
0.35914
0.40975
0.44697
0.47079
0.49014
0.50651
0.51693
0.51693
0.51321
0.50949
0.50577
0.50726
0.508
0.50875
0.508
0.51098
0.51396
0.5147
0.51396
0.51023
0.50428
0.49609
0.48939
0.48195
0.47376
0.46706
0.46036
0.45367
0.4425
0.42687
0.40528
0.38147
0.36137
0.32639
0.26684
0.31969
0.28991
0.17901
-0.048009
-0.29587
-0.39635
-0.32639
-0.21176
-0.10532
-0.032378
-0.045776
-0.13063
-0.20581
-0.28322
-0.35839
-0.43729
-0.56457
-0.63751
-0.61742
-0.50949
-0.33234
-0.1604
-0.021958
0.062151
0.10086
0.085969
-0.018236
-0.2914
-0.48418
-0.60923
-0.55266
-0.4626
-0.22888
0.014514
0.26833
0.48418
0.54224
0.607
0.62039
0.50354
0.25419
-0.017492
-0.24972
-0.28694
-0.22293
-0.1083
0.054708
0.17901
0.24972
0.26907
0.25865
0.12021
-0.14179
-0.42538
-0.61593
-0.57425
-0.39784
-0.17157
-0.017492
0.091924
0.12467
0.21697
0.34127
0.4224
0.40677
0.1805
-0.042054
-0.1939
-0.12095
0.060662
0.25344
0.40975
0.46781
0.4626
0.43952
0.46111
0.51693
0.55117
0.5601
0.57425
0.58764
0.59062
0.58616
0.5802
0.57871
0.57425
0.56606
0.55936
0.55564
0.55192
0.5415
0.52959
0.51172
0.49311
0.48121
0.47674
0.46185
0.55341
0.60179
0.47525
0.11128
-0.33904
-0.57052
-0.54745
-0.39635
-0.24302
-0.15966
-0.11649
-0.12765
-0.15594
-0.17231
-0.16859
-0.12691
-0.07406
-0.054708
-0.10309
-0.17231
-0.21176
-0.17306
-0.062895
0.060662
0.1671
0.24451
0.29661
0.33234
0.36137
0.39412
0.42092
0.44101
0.45143
0.45813
0.45888
0.45962
0.45962
0.45367
0.4358
0.41794
0.40677
0.41273
0.43059
0.45218
0.46632
0.47079
0.4693
0.46781
0.46185
0.45739
0.45218
0.4425
0.42389
0.39784
0.37105
0.34648
0.31224
0.2393
0.31224
0.35318
0.28768
0.12914
-0.10234
-0.16561
-0.082992
0.037588
0.12616
0.17454
0.15221
0.080759
-0.028656
-0.13137
-0.21623
-0.29736
-0.38593
-0.46706
-0.49907
-0.46706
-0.35839
-0.22144
-0.077782
0.0070711
0.066617
0.050986
-0.01377
-0.16189
-0.39635
-0.53182
-0.57722
-0.49088
-0.36807
-0.16263
0.040566
0.21176
0.30927
0.33978
0.38147
0.44101
0.44994
0.45143
0.44846
0.40677
0.31224
0.21176
0.15147
0.19166
0.29736
0.3904
0.45664
0.49535
0.51321
0.51098
0.50056
0.47897
0.4425
0.39933
0.36584
0.34872
0.34797
0.3569
0.3703
0.3837
0.40156
0.41347
0.41719
0.40975
0.40082
0.38519
0.36063
0.32341
0.28396
0.26014
0.26014
0.28024
0.29661
0.29661
0.27652
0.23483
0.19464
0.16785
0.16338
0.16189
0.14626
0.092668
-0.01377
-0.051731
0.038333
0.081504
0.080015
-0.062895
-0.15221
-0.10309
-0.01377
0.049498
0.089691
0.080759
0.030889
-0.058429
-0.11798
-0.17454
-0.22516
-0.32639
-0.45739
-0.55341
-0.56755
-0.476
-0.3383
-0.19539
-0.10309
-0.034611
-0.043543
-0.1083
-0.24377
-0.46036
-0.56606
-0.61667
-0.52661
-0.4038
-0.14775
0.15519
0.40082
0.52884
0.51172
0.46111
0.40082
0.3383
0.26014
0.13286
0.01377
-0.042799
0.020469
0.16561
0.3115
0.42761
0.50726
0.56308
0.5936
0.60179
0.59285
0.57797
0.57052
0.57276
0.57797
0.57946
0.57499
0.56829
0.56159
0.55415
0.54596
0.53926
0.53331
0.52512
0.51991
0.51321
0.50875
0.5013
0.49386
0.48567
0.47451
0.46334
0.45218
0.44027
0.42538
0.41124
0.39635
0.37998
0.36211
0.34053
0.31597
0.27801
0.21474
0.24749
0.28098
0.23037
0.034611
-0.23037
-0.35393
-0.29587
-0.14775
-0.040566
0.025679
0.016003
-0.1016
-0.21176
-0.32713
-0.41422
-0.49014
-0.57052
-0.61593
-0.60253
-0.51023
-0.36435
-0.2006
-0.082992
-0.01898
-0.021958
-0.088202
-0.22144
-0.45515
-0.61072
-0.67771
-0.61518
-0.51247
-0.377
-0.10532
0.13063
0.24004
0.20953
0.13063
0.18794
0.30852
0.41198
0.48939
0.50726
0.48716
0.45739
0.43059
0.41794
0.41645
0.41943
0.41943
0.41124
0.39189
0.35988
0.32341
0.30108
0.30331
0.32341
0.34574
0.35839
0.3636
0.36658
0.37179
0.37551
0.37923
0.38519
0.39189
0.38965
0.37849
0.3636
0.3569
0.34723
0.31969
0.26684
0.19166
0.12765
0.080759
0.066617
0.056941
0.050986
0.045776
0.0055824
-0.030889
-0.018236
0.070339
0.095646
-0.085969
-0.29215
-0.3569
-0.23781
-0.033122
0.077038
0.11351
0.1217
0.090435
0.048009
-0.011537
-0.079271
-0.11202
-0.15817
-0.25419
-0.43729
-0.65761
-0.76926
-0.7447
-0.56234
-0.35393
-0.17454
-0.050986
0.024191
0.066617
0.068106
-0.019725
-0.22665
-0.4291
-0.52289
-0.50056
-0.39412
-0.24972
0.015259
0.29959
0.36732
0.1738
-0.13435
-0.30703
-0.2326
-0.035355
0.21176
0.41868
0.55936
0.62039
0.63528
0.62784
0.60179
0.56457
0.5415
0.54075
0.55117
0.55043
0.52959
0.49311
0.45888
0.44176
0.43878
0.43506
0.41273
0.37626
0.34053
0.32118
0.33085
0.35839
0.38891
0.41496
0.43655
0.45218
0.46111
0.46334
0.46036
0.4492
0.43059
0.41049
0.39338
0.38519
0.38593
0.39338
0.39189
0.38295
0.36584
0.33978
0.30108
0.24228
0.3048
0.37253
0.33755
0.19315
-0.073316
-0.17603
-0.12244
-0.00037216
0.09639
0.15221
0.14105
0.042799
-0.044287
-0.13956
-0.21102
-0.29661
-0.42389
-0.53777
-0.59211
-0.54522
-0.41496
-0.26237
-0.13137
-0.056197
-0.042799
-0.056197
-0.095646
-0.13733
-0.25195
-0.42836
-0.53629
-0.52661
-0.41049
-0.2006
-0.010048
0.22069
0.22218
-0.024935
-0.30331
-0.47525
-0.39784
-0.17157
0.026424
0.25047
0.4425
0.54298
0.60849
0.64719
0.66431
0.62709
0.5281
0.39933
0.29661
0.27279
0.3316
0.41347
0.47823
0.51544
0.53629
0.54671
0.54671
0.54298
0.53405
0.52735
0.52214
0.52363
0.52587
0.52438
0.52214
0.51917
0.51172
0.50354
0.49684
0.49163
0.48567
0.48121
0.47972
0.476
0.47376
0.47227
0.4693
0.46185
0.4492
0.43357
0.41198
0.38593
0.34797
0.29289
0.25642
0.35393
0.40156
0.27428
0.024935
-0.23335
-0.2914
-0.17082
-0.027912
0.072572
0.12467
0.092668
-0.0011165
-0.11202
-0.20357
-0.32118
-0.4559
-0.60179
-0.73279
-0.79084
-0.78117
-0.69111
-0.53108
-0.35839
-0.20655
-0.11351
-0.036844
-0.020469
-0.043543
-0.14403
-0.36658
-0.57127
-0.63528
-0.53033
-0.26089
-0.047265
0.10979
0.12393
-0.14403
-0.37626
-0.53182
-0.49833
-0.30108
-0.09118
0.18943
0.43506
0.56085
0.57648
0.55936
0.54373
0.52066
0.5013
0.48269
0.47004
0.47227
0.47897
0.49088
0.50428
0.51768
0.52661
0.53033
0.53256
0.53331
0.53629
0.54001
0.54001
0.53629
0.53182
0.52587
0.51991
0.5147
0.51172
0.50726
0.50279
0.49684
0.49163
0.48418
0.476
0.47079
0.46632
0.45962
0.45292
0.44399
0.43357
0.42017
0.39933
0.3703
0.33234
0.28024
0.20581
0.13807
0.16263
0.26907
0.25344
0.1016
-0.17454
-0.29289
-0.23409
-0.087458
0.037588
0.11351
0.11872
0.014514
-0.10532
-0.25419
-0.36286
-0.43134
-0.50651
-0.57276
-0.60104
-0.56606
-0.46855
-0.33681
-0.20432
-0.10458
-0.076293
-0.14254
-0.21995
-0.28768
-0.29736
-0.36509
-0.53852
-0.70376
-0.72683
-0.61667
-0.41496
-0.25642
-0.10532
0.039077
-0.075549
-0.36509
-0.61295
-0.69929
-0.5214
-0.16785
0.16263
0.51247
0.75363
0.81466
0.75437
0.73502
0.68068
0.65314
0.50875
0.11277
-0.26014
-0.52363
-0.56829
-0.47004
-0.31597
0.06885
0.32564
0.43282
0.11053
-0.23409
-0.4358
-0.4626
-0.38221
-0.31969
-0.2006
-0.035355
0.14552
0.27428
0.34946
0.3971
0.43134
0.476
0.51619
0.54671
0.56308
0.57201
0.5802
0.58541
0.58839
0.5869
0.58764
0.5869
0.5802
0.58541
0.59955
0.59211
0.42092
0.1016
-0.27949
-0.639
-0.86156
-1
-0.98809
-0.54671
0.059918
0.70674
1
0.77224
0.39635
-0.021958
-0.25568
-0.33085
-0.3316
-0.25642
-0.14924
-0.060662
0.011537
0.062151
0.12765
0.20729
0.30182
0.39114
0.42761
0.33457
0.19017
0.074805
0.073316
0.18571
0.31894
0.41198
0.46111
0.48418
0.50056
0.51098
0.51396
0.49014
0.43059
0.34797
0.27726
0.24823
0.25716
0.28694
0.31969
0.34946
0.35839
0.32415
0.33681
0.33532
0.36658
0.12467
-0.24302
-0.74991
-0.8489
-0.56159
-0.084481
0.38742
0.5802
0.56606
0.39114
0.18199
0.053219
-0.0070711
-0.0011165
0.050986
0.115
0.1604
0.19539
0.22293
0.24302
0.24525
0.23186
0.21102
0.20506
0.20432
0.23037
0.27279
0.30629
0.23707
-0.09639
-0.40975
-0.55936
-0.52289
-0.40305
-0.25419
-0.13658
0.076293
0.2006
0.19985
0.19687
0.22441
0.28843
0.37105
0.43803
0.47748
0.49981
0.49684
0.49535
0.48716
0.49907
0.49014
0.25865
-0.060662
-0.41943
-0.60849
-0.67696
-0.6792
-0.53256
-0.24079
0.098623
0.377
0.43357
0.32118
0.15742
-0.047265
-0.15073
-0.12616
-0.019725
0.11351
0.22218
0.28694
0.32415
0.37253
0.4291
0.47972
0.51172
0.53256
0.54745
0.55266
0.55862
0.56755
0.57797
0.58913
0.59509
0.59509
0.58839
0.58243
0.57797
0.57425
0.56904
0.56606
0.56308
0.55713
0.55266
0.54894
0.54447
0.53852
0.53256
0.52512
0.51768
0.51098
0.50651
0.5013
0.49088
0.47674
0.45367
0.41719
0.36881
0.30033
0.21697
0.15445
0.2914
0.41347
0.41422
0.25121
-0.042054
-0.147
-0.07406
0.065873
0.16487
0.20878
0.17454
0.09118
-0.014514
-0.16189
-0.29512
-0.40454
-0.50577
-0.56829
-0.59434
-0.57276
-0.48865
-0.36658
-0.23781
-0.13509
-0.10383
-0.14179
-0.19092
-0.22962
-0.21995
-0.23409
-0.32043
-0.45664
-0.58392
-0.61295
-0.51842
-0.38965
-0.28991
-0.33904
-0.33234
-0.35095
-0.27652
-0.19762
-0.13286
-0.065873
-0.024935
0.048009
0.14179
0.22962
0.30406
0.35393
0.3837
0.41719
0.45367
0.48195
0.49758
0.5147
0.52587
0.53331
0.53554
0.53182
0.52438
0.51396
0.50577
0.49758
0.48642
0.47451
0.45515
0.43357
0.41124
0.3904
0.37626
0.42389
0.61444
0.77373
0.73576
0.26237
-0.19166
-0.64421
-0.65538
-0.48195
-0.18943
0.048753
0.18199
0.2006
0.15891
0.11425
0.074805
0.050986
0.039821
0.018236
-0.013026
-0.018236
0.01377
0.077782
0.14477
0.19762
0.23632
0.26089
0.26833
0.25716
0.23781
0.22144
0.22441
0.24302
0.27279
0.29885
0.31671
0.33085
0.34127
0.34797
0.34276
0.32266
0.26684
0.18348
0.11425
0.078526
0.085969
0.115
0.14105
0.14924
0.12616
0.11649
0.32266
0.50428
0.54894
0.33978
-0.0361
-0.19464
-0.14477
0.016003
0.1537
0.2326
0.23707
0.1738
0.084481
0.010048
-0.033867
-0.055452
-0.095646
-0.21548
-0.40156
-0.58169
-0.67771
-0.65463
-0.53554
-0.36435
-0.17231
0.031634
0.16263
0.22069
0.26461
0.31448
0.35988
0.22739
-0.15817
-0.57052
-0.82434
-0.86453
-0.74693
-0.53926
-0.12988
0.19836
0.40082
0.34946
0.20506
0.099367
0.029401
0.010048
0.059918
0.11723
0.16859
0.19464
0.2259
0.2847
0.35393
0.41124
0.45218
0.47972
0.49758
0.50875
0.51544
0.52363
0.52959
0.5348
0.53777
0.53554
0.53405
0.53331
0.53331
0.52884
0.52066
0.5147
0.50651
0.49609
0.48716
0.47451
0.44548
0.41719
0.46111
0.5214
0.42836
0.10086
-0.26833
-0.48493
-0.38817
-0.15668
0.082248
0.20953
0.24004
0.22814
0.2006
0.17752
0.15966
0.077782
-0.17454
-0.56829
-0.88165
-0.96055
-0.84518
-0.65538
-0.40677
-0.042054
0.21697
0.36956
0.38295
0.32713
0.14254
-0.15891
-0.44473
-0.54745
-0.42613
-0.25047
-0.023446
0.19836
0.3502
0.39338
0.35765
0.33904
0.35988
0.39635
0.42315
0.44101
0.45441
0.46632
0.47302
0.47376
0.46483
0.44994
0.43208
0.42017
0.41719
0.41273
0.39784
0.36211
0.29215
0.20804
0.1537
0.15147
0.19836
0.25493
0.30629
0.3569
0.38593
0.377
0.44548
0.50726
0.52661
0.12542
-0.32639
-0.86974
-0.81243
-0.42389
0.12021
0.41347
0.46781
0.38668
0.26535
0.17008
0.11574
0.10383
0.12244
0.15221
0.16933
0.16785
0.15519
0.13361
0.12616
0.14105
0.17529
0.21474
0.2393
0.25716
0.27131
0.2847
0.2981
0.31299
0.32862
0.34648
0.36807
0.38444
0.38817
0.39263
0.4038
0.4224
0.43952
0.44548
0.44622
0.44473
0.44473
0.44548
0.44399
0.43729
0.42836
0.41868
0.40528
0.39263
0.38295
0.37328
0.36286
0.35244
0.34425
0.33085
0.31522
0.29364
0.26386
0.22144
0.15594
0.075549
0.024935
0.10458
0.32936
0.48865
0.35541
0.040566
-0.20208
-0.21995
-0.033867
0.13882
0.26163
0.30703
0.27354
0.16561
0.029401
-0.12021
-0.28024
-0.41422
-0.52884
-0.58913
-0.59285
-0.54968
-0.47079
-0.37402
-0.28917
-0.22293
-0.1738
-0.13435
-0.10011
-0.070339
-0.039821
-0.0033495
0.039821
0.088947
0.13361
0.16636
0.19166
0.21325
0.23111
0.24823
0.26312
0.27131
0.27652
0.28098
0.28694
0.29066
0.29587
0.29885
0.30033
0.2981
0.29736
0.29736
0.29364
0.28917
0.2847
0.27801
0.26833
0.25195
0.23335
0.20506
0.16115
0.09118
0.025679
-0.01377
0.14179
0.40231
0.52363
0.33606
-0.058429
-0.29438
-0.26758
-0.045032
0.16785
0.31076
0.36807
0.29959
0.19613
0.065128
-0.084481
-0.21995
-0.35095
-0.42092
-0.4425
-0.42092
-0.34425
-0.22665
-0.11128
-0.0361
-0.021213
-0.065128
-0.12244
-0.15445
-0.14105
-0.094157
-0.044287
-0.0048381
0.027168
0.053219
0.083737
0.1217
0.15445
0.17752
0.18348
0.18199
0.18348
0.19687
0.22367
0.25121
0.27205
0.28991
0.30555
0.31597
0.3249
0.33383
0.34053
0.34574
0.35095
0.35541
0.35467
0.35393
0.35169
0.34574
0.33234
0.31299
0.28024
0.23483
0.16859
0.11798
0.09639
0.26684
0.55787
0.70897
0.47376
0.029401
-0.30555
-0.33011
-0.13435
0.115
0.27726
0.3636
0.30331
0.19166
0.048009
-0.10309
-0.26014
-0.39412
-0.45962
-0.45292
-0.38891
-0.27577
-0.14403
-0.026424
0.04131
0.045032
0.0033495
-0.039077
-0.054708
-0.024191
0.032378
0.10011
0.16189
0.21548
0.25642
0.28768
0.31299
0.33309
0.34872
0.35765
0.36286
0.36658
0.36509
0.36435
0.36286
0.36137
0.35765
0.35467
0.35095
0.34499
0.34127
0.33904
0.33681
0.33383
0.33085
0.32564
0.3182
0.31299
0.30852
0.30257
0.28843
0.26907
0.24377
0.20357
0.14031
0.058429
0.0078154
0.049498
0.32787
0.60179
0.53777
0.26833
-0.17231
-0.32118
-0.20357
0.035355
0.22516
0.33681
0.3249
0.2259
0.095646
-0.033867
-0.15221
-0.26982
-0.34872
-0.377
-0.34723
-0.27205
-0.16636
-0.065873
-0.00037216
0.00037216
-0.053964
-0.12319
-0.16785
-0.15519
-0.097134
-0.018236
0.062151
0.13286
0.19241
0.2393
0.27428
0.30033
0.31745
0.32862
0.33755
0.34499
0.34723
0.34946
0.3502
0.34797
0.34351
0.34202
0.34053
0.33904
0.33904
0.34053
0.34351
0.34425
0.34648
0.34351
0.33681
0.32862
0.32341
0.31969
0.31448
0.30182
0.28024
0.246
0.1939
0.11649
0.033122
-0.010793
0.13807
0.45813
0.65612
0.47823
0.07406
-0.27131
-0.31597
-0.1284
0.11723
0.29587
0.38817
0.32936
0.19613
0.048009
-0.066617
-0.15891
-0.23483
-0.26386
-0.26237
-0.21697
-0.14105
-0.065128
-0.021213
-0.035355
-0.115
-0.22144
-0.31224
-0.34425
-0.31894
-0.24823
-0.15742
-0.058429
0.030889
0.10309
0.15742
0.19985
0.22962
0.24972
0.2661
0.27652
0.28545
0.29289
0.30033
0.30406
0.30629
0.30852
0.30852
0.30629
0.3048
0.30703
0.30629
0.30629
0.30778
0.30778
0.30629
0.30182
0.29885
0.29289
0.28396
0.27205
0.2527
0.22665
0.18869
0.1284
0.044287
0.0011165
0.058429
0.34797
0.65091
0.62784
0.35244
-0.15891
-0.35467
-0.28098
-0.036844
0.19836
0.35765
0.37923
0.28768
0.13361
-0.010793
-0.12467
-0.22962
-0.28173
-0.28024
-0.23037
-0.14179
-0.050242
0.018236
0.030145
-0.011537
-0.094157
-0.17678
-0.22665
-0.23186
-0.19762
-0.13212
-0.047265
0.039077
0.11128
0.16636
0.20729
0.23409
0.25195
0.26535
0.27354
0.27726
0.27801
0.28024
0.28247
0.28545
0.29066
0.29289
0.29289
0.29364
0.29587
0.29885
0.29959
0.30257
0.30555
0.30778
0.30852
0.30629
0.30182
0.29661
0.28843
0.27205
0.24823
0.21176
0.16115
0.080759
0.00037216
-0.034611
0.115
0.46781
0.70525
0.53852
0.14105
-0.29587
-0.38891
-0.23856
0.024191
0.23409
0.36732
0.34202
0.22293
0.065128
-0.065128
-0.17678
-0.26014
-0.2847
-0.27428
-0.21548
-0.1284
-0.045032
0.0018608
-0.016003
-0.097879
-0.20655
-0.29438
-0.32713
-0.3115
-0.25344
-0.16859
-0.075549
0.0085597
0.078526
0.13509
0.17678
0.20804
0.23558
0.25568
0.26758
0.27354
0.27726
0.27726
0.28247
0.28694
0.28917
0.28917
0.28917
0.29215
0.29438
0.29959
0.30629
0.31299
0.31597
0.31969
0.32118
0.31894
0.31597
0.3115
0.29885
0.27652
0.24823
0.21102
0.15594
0.075549
-0.0011165
-0.019725
0.20357
0.55117
0.75288
0.51693
0.061407
-0.30406
-0.34723
-0.16785
0.10234
0.30182
0.42464
0.38147
0.25716
0.093413
-0.033867
-0.16561
-0.24749
-0.27577
-0.246
-0.16487
-0.067361
0.017492
0.056941
0.027912
-0.06364
-0.17082
-0.25121
-0.28545
-0.26907
-0.21399
-0.13584
-0.055452
0.021213
0.089691
0.14254
0.18645
0.21995
0.24451
0.26089
0.27428
0.28619
0.29587
0.30703
0.31745
0.32639
0.33309
0.33681
0.34127
0.34351
0.34797
0.35393
0.35839
0.35988
0.35988
0.35765
0.35467
0.3502
0.34499
0.33755
0.32564
0.31224
0.29587
0.27205
0.23856
0.19687
0.12765
0.030889
-0.043543
-0.019725
0.28247
0.64049
0.73428
0.45292
-0.06885
-0.33085
-0.29438
-0.080759
0.16785
0.34723
0.42538
0.36658
0.22293
0.060662
-0.073316
-0.18645
-0.24674
-0.25642
-0.21995
-0.14179
-0.050242
0.01377
0.018236
-0.047265
-0.16338
-0.27428
-0.34127
-0.35244
-0.32043
-0.25865
-0.18273
-0.10234
-0.025679
0.042799
0.097134
0.13956
0.17454
0.20432
0.22441
0.24004
0.25344
0.2661
0.27503
0.28322
0.28917
0.2914
0.29512
0.29736
0.29959
0.2981
0.30033
0.30033
0.29959
0.30108
0.30331
0.3048
0.3048
0.3048
0.30406
0.29885
0.2914
0.28024
0.26237
0.22962
0.18496
0.10755
0.010793
-0.043543
0.054708
0.42389
0.74395
0.6978
0.34053
-0.1939
-0.38891
-0.29587
-0.042799
0.19985
0.39189
0.43431
0.35393
0.18273
0.025679
-0.11574
-0.22069
-0.26163
-0.26014
-0.20878
-0.12244
-0.030145
0.024935
0.01898
-0.052475
-0.16338
-0.26758
-0.32936
-0.33011
-0.28396
-0.20581
-0.11946
-0.036844
0.035355
0.097134
0.14105
0.17752
0.20581
0.2326
0.25568
0.27279
0.28843
0.29959
0.30703
0.31299
0.32043
0.3249
0.32936
0.33383
0.33681
0.33681
0.33532
0.33383
0.33234
0.32936
0.32713
0.3249
0.32043
0.31671
0.31522
0.31076
0.3048
0.29587
0.28098
0.2527
0.21102
0.14849
0.059918
-0.032378
-0.030145
0.24451
0.63156
0.82136
0.56085
0.045776
-0.30331
-0.32415
-0.14031
0.10979
0.30555
0.42092
0.39189
0.2527
0.065873
-0.071827
-0.18869
-0.24451
-0.2594
-0.2393
-0.16785
-0.076293
-0.0063268
0.0026051
-0.053219
-0.1537
-0.25642
-0.32118
-0.3383
-0.3115
-0.25642
-0.18496
-0.11351
-0.050986
0.0033495
0.050986
0.09639
0.13733
0.17529
0.20283
0.22441
0.24004
0.25493
0.26758
0.27652
0.28545
0.29066
0.29512
0.29736
0.30033
0.30108
0.30108
0.30406
0.30778
0.30852
0.30778
0.30406
0.29959
0.29512
0.29289
0.28768
0.27875
0.2661
0.24972
0.23037
0.20432
0.16412
0.1016
0.010793
-0.056941
-0.015259
0.31745
0.6792
0.75661
0.42538
-0.15445
-0.45515
-0.42613
-0.20506
0.059918
0.26237
0.36063
0.31969
0.17231
-0.0078154
-0.16263
-0.28098
-0.3316
-0.33457
-0.28843
-0.19985
-0.097134
-0.027912
-0.014514
-0.066617
-0.16412
-0.26386
-0.32862
-0.34723
-0.32118
-0.26386
-0.18645
-0.10607
-0.032378
0.034611
0.09118
0.13807
0.17752
0.2125
0.24153
0.26535
0.2847
0.29959
0.3115
0.32266
0.33532
0.34351
0.3502
0.35318
0.35318
0.3502
0.34574
0.34202
0.33681
0.33383
0.33234
0.33011
0.32713
0.32341
0.32118
0.31597
0.3115
0.30406
0.29066
0.27056
0.24004
0.19241
0.12021
0.027168
-0.019725
0.076293
0.47748
0.80796
0.77298
0.37105
-0.19241
-0.42166
-0.33904
-0.099367
0.13733
0.32192
0.38891
0.32266
0.17529
0.0040938
-0.13956
-0.24898
-0.29587
-0.30927
-0.27205
-0.18943
-0.092668
-0.025679
-0.01898
-0.082248
-0.18273
-0.27131
-0.32043
-0.31597
-0.26907
-0.18869
-0.097879
-0.012281
0.064384
0.12765
0.18571
0.22962
0.26312
0.28694
0.30108
0.31076
0.31671
0.31969
0.32341
0.32787
0.33234
0.33755
0.34499
0.35318
0.35839
0.36509
0.36956
0.37402
0.377
0.37998
0.38072
0.37923
0.377
0.37477
0.37328
0.37105
0.3703
0.36584
0.35541
0.34127
0.32266
0.2914
0.24674
0.17678
0.084481
0.027168
0.10979
0.51396
0.83848
0.80871
0.40603
-0.16636
-0.40528
-0.32713
-0.090435
0.15891
0.34351
0.41645
0.33532
0.16338
-0.012281
-0.15445
-0.24749
-0.28247
-0.28247
-0.23781
-0.1537
-0.057685
0.0033495
-0.00037216
-0.066617
-0.16561
-0.25121
-0.30108
-0.30406
-0.26535
-0.20432
-0.13212
-0.061407
0.0033495
0.060662
0.11277
0.15966
0.2006
0.23483
0.26237
0.28322
0.29885
0.31224
0.32341
0.3316
0.33904
0.34797
0.35467
0.35839
0.36211
0.36286
0.36435
0.36732
0.37179
0.37402
0.37179
0.36956
0.36807
0.3636
0.35839
0.35318
0.34723
0.33978
0.33085
0.25642
