-0.15058
-0.18233
-0.19949
-0.22094
-0.23295
-0.26555
-0.30502
-0.39425
-0.42257
-0.31875
-0.13514
0.16345
0.41656
0.60789
0.71
0.72029
0.66109
0.56843
0.43715
0.28786
0.14543
0.015015
-0.087087
-0.16946
-0.23209
-0.26898
-0.28958
-0.31188
-0.34792
-0.42857
-0.51351
-0.55127
-0.52896
-0.39854
-0.21064
0.022737
0.25354
0.42514
0.51266
0.52724
0.48434
0.41055
0.30588
0.19176
0.071643
-0.039039
-0.14886
-0.22094
-0.28357
-0.31875
-0.34535
-0.3565
-0.37452
-0.42428
-0.5015
-0.58816
-0.62677
-0.48091
-0.22608
0.099099
0.34706
0.49378
0.57786
0.61133
0.58215
0.50236
0.40455
0.28958
0.19434
0.084513
-0.000429
-0.081081
-0.1523
-0.21064
-0.24753
-0.26727
-0.29387
-0.37194
-0.48692
-0.571
-0.60275
-0.47319
-0.29987
-0.079365
0.12055
0.28529
0.41742
0.48692
0.46632
0.39168
0.28271
0.17031
0.073359
-0.018447
-0.087945
-0.14372
-0.18318
-0.21836
-0.25526
-0.29387
-0.35907
-0.43115
-0.43544
-0.43544
-0.39168
-0.29901
-0.17546
0.026169
0.21407
0.37881
0.47834
0.49979
0.4586
0.38138
0.29472
0.19605
0.094809
0.007293
-0.076791
-0.14028
-0.19348
-0.23552
-0.28443
-0.3565
-0.45345
-0.50493
-0.51952
-0.46461
-0.37538
-0.24582
-0.038181
0.1746
0.35049
0.42943
0.43973
0.38567
0.32132
0.23123
0.14457
0.051051
-0.028743
-0.1094
-0.1686
-0.22523
-0.26813
-0.30502
-0.33162
-0.3831
-0.4689
-0.52467
-0.57272
-0.54354
-0.37881
-0.12827
0.16259
0.3668
0.45002
0.4689
0.46203
0.46203
0.42686
0.3565
0.26126
0.14972
0.037323
-0.075933
-0.17203
-0.24925
-0.30588
-0.34449
-0.3668
-0.38567
-0.43801
-0.49893
-0.56156
-0.61733
-0.58816
-0.38052
-0.11111
0.21321
0.41484
0.49378
0.52638
0.5118
0.45174
0.35478
0.24153
0.1257
0.006435
-0.096525
-0.18318
-0.24324
-0.28529
-0.30931
-0.32046
-0.33848
-0.33934
-0.34449
-0.36508
-0.45946
-0.54698
-0.49721
-0.31703
-0.008151
0.25611
0.42514
0.50922
0.5178
0.47319
0.3891
0.27842
0.16345
0.049335
-0.053625
-0.12999
-0.19091
-0.21836
-0.24067
-0.27671
-0.3239
-0.40112
-0.48777
-0.57443
-0.59159
-0.43458
-0.18233
0.12484
0.3299
0.44316
0.47662
0.45088
0.37881
0.28014
0.17203
0.066495
-0.023595
-0.10253
-0.16774
-0.21836
-0.23724
-0.25011
-0.27327
-0.31017
-0.37194
-0.44745
-0.51008
-0.55556
-0.39597
-0.14972
0.17632
0.40455
0.50408
0.51866
0.4852
0.40712
0.30674
0.19434
0.084513
-0.017589
-0.099099
-0.16002
-0.19434
-0.21407
-0.23895
-0.281
-0.36165
-0.4526
-0.52553
-0.57443
-0.52724
-0.35307
-0.099957
0.18404
0.36594
0.45174
0.46203
0.42342
0.35393
0.26384
0.16431
0.072501
-0.009009
-0.075933
-0.1257
-0.15916
-0.17804
-0.20206
-0.22523
-0.26384
-0.33505
-0.41313
-0.49121
-0.54869
-0.55127
-0.34277
-0.096525
0.21493
0.3994
0.46718
0.48692
0.46203
0.40455
0.32561
0.2381
0.14114
0.054483
-0.026169
-0.083655
-0.12827
-0.15315
-0.16688
-0.2012
-0.26384
-0.36851
-0.46375
-0.51609
-0.55212
-0.57443
-0.52209
-0.32647
-0.066495
0.18747
0.30931
0.36851
0.38653
0.36937
0.32132
0.24839
0.17289
0.099957
0.031317
-0.027027
-0.067353
-0.096525
-0.1154
-0.13342
-0.1686
-0.20721
-0.28271
-0.33419
-0.37194
-0.39768
-0.45174
-0.47748
-0.32218
-0.12398
0.17117
0.35736
0.47919
0.54526
0.55041
0.5015
0.41484
0.31017
0.19949
0.10682
0.029601
-0.032175
-0.087945
-0.14629
-0.20292
-0.25182
-0.30845
-0.3728
-0.4586
-0.54869
-0.59417
-0.56499
-0.42514
-0.17031
0.082797
0.32561
0.46032
0.54783
0.58644
0.56328
0.49721
0.40112
0.29901
0.19091
0.087945
-0.010725
-0.095667
-0.16602
-0.22523
-0.27242
-0.31017
-0.34878
-0.3831
-0.43029
-0.45088
-0.43801
-0.42857
-0.41055
-0.3402
-0.21064
-0.003861
0.18576
0.31875
0.41227
0.4689
0.47233
0.43887
0.36937
0.27671
0.17975
0.079365
-0.008151
-0.080223
-0.13857
-0.18318
-0.22523
-0.2604
-0.29644
-0.35393
-0.44144
-0.50579
-0.53582
-0.47834
-0.31789
-0.099099
0.18061
0.43458
0.60103
0.66452
0.62334
0.5281
0.40455
0.27327
0.14715
0.036465
-0.060489
-0.14372
-0.20807
-0.26212
-0.29901
-0.32819
-0.35822
-0.38739
-0.38739
-0.35393
-0.33934
-0.3891
-0.48177
-0.56499
-0.37709
-0.11626
0.2441
0.47405
0.59159
0.64994
0.64736
0.57958
0.46976
0.34449
0.2175
0.099099
-0.001287
-0.076791
-0.13342
-0.17632
-0.2115
-0.24067
-0.27156
-0.30073
-0.35907
-0.40884
-0.47061
-0.50408
-0.47748
-0.27756
-0.034749
0.27585
0.45689
0.5547
0.58816
0.56757
0.49979
0.40798
0.29472
0.17203
0.053625
-0.047619
-0.12913
-0.20034
-0.26126
-0.32218
-0.36251
-0.38825
-0.40197
-0.42857
-0.46118
-0.50665
-0.54354
-0.5281
-0.37623
-0.14972
0.12141
0.33248
0.45689
0.49635
0.45603
0.36336
0.24839
0.11969
0.008151
-0.091377
-0.17375
-0.2381
-0.28958
-0.32561
-0.36079
-0.37452
-0.38481
-0.39597
-0.41828
-0.42857
-0.44745
-0.5384
-0.58902
-0.46804
-0.19176
0.17889
0.44916
0.57615
0.62849
0.62505
0.56156
0.44831
0.30502
0.17203
0.048477
-0.051909
-0.1257
-0.18061
-0.2175
-0.24668
-0.26469
-0.281
-0.29987
-0.33419
-0.39339
-0.45345
-0.55041
-0.51866
-0.38052
-0.10339
0.18919
0.41656
0.55556
0.61733
0.62162
0.54783
0.43887
0.31789
0.18662
0.063921
-0.040755
-0.12227
-0.17718
-0.22179
-0.25354
-0.30759
-0.34106
-0.40112
-0.47576
-0.61304
-0.73659
-0.72372
-0.50579
-0.15916
0.1686
0.426
0.56757
0.64221
0.6242
0.54011
0.41913
0.2973
0.1746
0.057915
-0.048477
-0.12312
-0.19777
-0.24067
-0.27156
-0.28185
-0.29558
-0.33162
-0.36422
-0.43372
-0.57529
-0.74517
-0.83097
-0.67053
-0.32046
0.11798
0.41913
0.59331
0.66452
0.67482
0.62591
0.52209
0.39082
0.2604
0.11798
-0.001287
-0.10082
-0.17031
-0.22523
-0.25354
-0.27156
-0.29043
-0.31446
-0.36079
-0.4586
-0.60875
-0.77263
-0.81639
-0.65337
-0.30674
0.1257
0.40712
0.57186
0.63106
0.65165
0.60103
0.48692
0.34535
0.19091
0.046761
-0.052767
-0.14372
-0.2012
-0.24496
-0.26641
-0.28014
-0.27928
-0.281
-0.29387
-0.30416
-0.34106
-0.39082
-0.50922
-0.71343
-0.88417
-0.87731
-0.5444
-0.11969
0.28529
0.49979
0.60017
0.64736
0.63535
0.56928
0.46289
0.34277
0.22265
0.099957
-0.001287
-0.085371
-0.14972
-0.1849
-0.20721
-0.21064
-0.21493
-0.23209
-0.26555
-0.35822
-0.55298
-0.82497
-0.92021
-0.66023
-0.17718
0.29816
0.58387
0.6731
0.71514
0.6894
0.6036
0.4749
0.34535
0.20807
0.081081
-0.024453
-0.12227
-0.18233
-0.22523
-0.26126
-0.27756
-0.30502
-0.31017
-0.36165
-0.46032
-0.62763
-0.80609
-0.92364
-0.73402
-0.41399
0.042471
0.37795
0.57014
0.64736
0.66795
0.61562
0.52982
0.40197
0.27242
0.13771
0.014157
-0.084513
-0.16002
-0.22523
-0.27242
-0.31532
-0.33591
-0.34106
-0.33762
-0.33248
-0.34706
-0.36765
-0.44144
-0.59846
-0.69284
-0.69627
-0.5178
-0.23037
0.027027
0.20463
0.2973
0.33333
0.36079
0.37366
0.34706
0.28185
0.19949
0.10682
0.012441
-0.056199
-0.11111
-0.15487
-0.18919
-0.21579
-0.23295
-0.24067
-0.23895
-0.22952
-0.24239
-0.27928
-0.39768
-0.61218
-0.79751
-0.8284
-0.63278
-0.24496
0.10253
0.43029
0.65423
0.80781
0.86186
0.84213
0.76491
0.64479
0.49121
0.32733
0.16688
0.025311
-0.073359
-0.16088
-0.21922
-0.25697
-0.27327
-0.3033
-0.36422
-0.49292
-0.6568
-0.76577
-0.73402
-0.5813
-0.25268
0.033033
0.32132
0.5384
0.67482
0.74861
0.74775
0.67911
0.57615
0.43458
0.281
0.1257
-0.007293
-0.12999
-0.23123
-0.32046
-0.3994
-0.47319
-0.52467
-0.56242
-0.58215
-0.56671
-0.51094
-0.3994
-0.27928
-0.14715
-0.033891
0.042471
0.073359
0.046761
-0.024453
-0.093093
-0.12484
-0.12913
-0.13085
-0.1317
-0.11798
-0.081081
-0.039897
-0.007293
-0.000429
-0.009867
-0.033891
-0.057915
-0.089661
-0.11454
-0.14028
-0.17203
-0.18404
-0.18318
-0.15487
-0.18404
-0.23638
-0.30502
-0.27756
-0.20721
-0.057915
0.11111
0.27585
0.42085
0.48348
0.4749
0.42428
0.35907
0.28014
0.18833
0.084513
-0.008151
-0.093093
-0.16602
-0.22265
-0.26727
-0.29816
-0.31617
-0.31274
-0.34792
-0.43544
-0.60789
-0.70142
-0.70227
-0.46375
-0.14286
0.22351
0.49378
0.66538
0.73745
0.70656
0.63449
0.53239
0.41656
0.28357
0.13771
0.014157
-0.099099
-0.16517
-0.21665
-0.24582
-0.29816
-0.36508
-0.44916
-0.54955
-0.57786
-0.59417
-0.48949
-0.31703
-0.063921
0.20892
0.42771
0.56757
0.62248
0.60103
0.52295
0.41913
0.29472
0.17975
0.060489
-0.046761
-0.14372
-0.21579
-0.27242
-0.36508
-0.49721
-0.64736
-0.74689
-0.74603
-0.6894
-0.55041
-0.36165
-0.11283
0.15144
0.35736
0.47061
0.49635
0.44659
0.3728
0.27242
0.17718
0.076791
0.003003
-0.058773
-0.097383
-0.12827
-0.14457
-0.14801
-0.16088
-0.22265
-0.36765
-0.60103
-0.80352
-0.82583
-0.67053
-0.26727
0.10167
0.432
0.60961
0.67224
0.64479
0.58044
0.50322
0.39683
0.28786
0.17375
0.058773
-0.033033
-0.10768
-0.15487
-0.18318
-0.20721
-0.23381
-0.281
-0.35822
-0.43887
-0.50579
-0.54354
-0.56242
-0.57786
-0.54783
-0.47662
-0.25697
0.000429
0.28357
0.47233
0.57272
0.59245
0.56585
0.50236
0.39854
0.28786
0.16259
0.054483
-0.047619
-0.12656
-0.18404
-0.22351
-0.24668
-0.25268
-0.25182
-0.22866
-0.22094
-0.18318
-0.1583
-0.142
-0.16002
-0.22179
-0.3668
-0.62248
-0.79751
-0.79151
-0.48692
-0.089661
0.28614
0.50837
0.61991
0.63106
0.5813
0.49807
0.40541
0.2973
0.17889
0.068211
-0.036465
-0.11883
-0.19176
-0.23466
-0.25697
-0.2707
-0.2707
-0.27671
-0.27413
-0.27156
-0.27413
-0.27842
-0.28958
-0.33934
-0.51008
-0.78035
-0.98799
-0.88503
-0.45517
0.1094
0.55556
0.7529
0.79751
0.74861
0.65594
0.52724
0.40283
0.27842
0.17031
0.071643
-0.023595
-0.10854
-0.17889
-0.22523
-0.25526
-0.26727
-0.28185
-0.31274
-0.39511
-0.53153
-0.67053
-0.74003
-0.73659
-0.6036
-0.37366
-0.065637
0.2604
0.48777
0.5976
0.63192
0.61304
0.56843
0.49807
0.40112
0.29043
0.18061
0.078507
-0.017589
-0.10854
-0.18147
-0.24496
-0.29644
-0.32046
-0.33419
-0.32218
-0.30759
-0.27928
-0.25783
-0.25182
-0.25955
-0.28786
-0.31103
-0.33076
-0.29043
-0.24668
-0.25182
-0.27671
-0.27499
-0.14028
0.039897
0.23123
0.36937
0.49464
0.58559
0.59588
0.55641
0.47919
0.39511
0.28786
0.1746
0.063063
-0.027885
-0.090519
-0.13685
-0.17117
-0.18147
-0.20635
-0.2012
-0.23123
-0.25354
-0.27585
-0.32647
-0.40026
-0.58215
-0.6242
-0.54354
-0.22694
0.20978
0.56156
0.79065
0.87902
0.85671
0.78378
0.66881
0.55127
0.41913
0.28958
0.1686
0.063063
-0.022737
-0.087945
-0.13514
-0.1523
-0.16688
-0.17975
-0.1849
-0.25697
-0.37623
-0.59417
-0.79065
-0.84899
-0.73316
-0.33419
0.15573
0.63707
0.94166
1
0.92106
0.78464
0.6465
0.50236
0.36851
0.22265
0.091377
-0.038181
-0.13771
-0.20034
-0.24839
-0.27585
-0.30674
-0.33848
-0.3565
-0.37709
-0.36937
-0.35822
-0.36937
-0.37023
-0.41227
-0.42943
-0.42428
-0.43544
-0.432
-0.36079
-0.1583
0.1154
0.35822
0.47919
0.50408
0.4955
0.46632
0.41656
0.34106
0.24925
0.14286
0.054483
-0.027885
-0.086229
-0.13428
-0.17375
-0.20549
-0.23466
-0.2441
-0.25354
-0.25697
-0.26298
-0.27242
-0.28357
-0.29816
-0.30588
-0.32561
-0.41055
-0.57615
-0.80523
-0.83183
-0.50408
-0.14715
0.29301
0.45946
0.57443
0.62248
0.59245
0.50236
0.40369
0.29558
0.17718
0.064779
-0.042471
-0.13514
-0.20807
-0.26384
-0.29472
-0.3239
-0.32647
-0.34277
-0.3462
-0.3462
-0.34878
-0.35564
-0.35393
-0.37967
-0.49893
-0.78035
-1
-0.82411
-0.37967
0.19176
0.52381
0.62505
0.63363
0.61733
0.54269
0.43801
0.32304
0.20807
0.10167
-0.013299
-0.10167
-0.16688
-0.22437
-0.25097
-0.26984
-0.27327
-0.27842
-0.29043
-0.33162
-0.42257
-0.5547
-0.68168
-0.76834
-0.78293
-0.5607
-0.2441
0.20721
0.5384
0.68168
0.69369
0.64565
0.5873
0.51008
0.37967
0.24582
0.10682
-0.009009
-0.1094
-0.1746
-0.22866
-0.25783
-0.27242
-0.27499
-0.27413
-0.27585
-0.27327
-0.27842
-0.28529
-0.30674
-0.35564
-0.48091
-0.63964
-0.79322
-0.91592
-0.82325
-0.47834
-0.028743
0.41656
0.63449
0.71514
0.73745
0.70914
0.62849
0.51351
0.38052
0.23895
0.11969
0.009009
-0.083655
-0.1583
-0.20892
-0.23895
-0.2544
-0.24839
-0.24582
-0.2441
-0.26384
-0.31103
-0.36079
-0.44573
-0.56928
-0.72716
-0.82754
-0.72372
-0.31274
0.12227
0.51523
0.67568
0.72115
0.70914
0.65165
0.54183
0.41913
0.29301
0.17203
0.054483
-0.045045
-0.11798
-0.18061
-0.22008
-0.2441
-0.2544
-0.24753
-0.24582
-0.23466
-0.21493
-0.20378
-0.22179
-0.32475
-0.52467
-0.69798
-0.83355
-0.66452
-0.28014
0.22179
0.59245
0.73659
0.71171
0.65337
0.58473
0.47405
0.35993
0.23638
0.12141
0.001287
-0.093951
-0.17289
-0.23638
-0.26469
-0.29215
-0.29644
-0.29644
-0.287
-0.28185
-0.281
-0.30416
-0.36765
-0.4955
-0.68254
-0.83612
-0.92707
-0.72115
-0.31703
0.18919
0.57615
0.75461
0.75204
0.69798
0.60618
0.48949
0.3565
0.21922
0.087945
-0.013299
-0.10511
-0.15401
-0.19434
-0.21579
-0.23638
-0.26212
-0.287
-0.30759
-0.32904
-0.35049
-0.40026
-0.54269
-0.70227
-0.81982
-0.82754
-0.62248
-0.32132
0.083655
0.43458
0.65165
0.70571
0.67053
0.59588
0.52724
0.43629
0.3299
0.20292
0.089661
-0.023595
-0.10425
-0.16259
-0.19949
-0.22866
-0.25611
-0.26555
-0.29387
-0.31446
-0.35221
-0.39597
-0.42257
-0.41999
-0.40455
-0.40455
-0.42085
-0.46118
-0.40626
-0.31532
-0.20034
-0.066495
0.039039
0.20549
0.34363
0.4423
0.48863
0.48348
0.45345
0.37709
0.29215
0.19777
0.10253
0.038181
-0.035607
-0.088803
-0.14801
-0.1849
-0.21321
-0.22437
-0.21493
-0.21407
-0.19176
-0.18061
-0.23466
-0.37795
-0.58215
-0.7263
-0.73316
-0.60875
-0.30245
0.007293
0.35135
0.59245
0.72887
0.78378
0.75633
0.67224
0.56242
0.44487
0.32218
0.20635
0.10768
0.027885
-0.039897
-0.081081
-0.10682
-0.11969
-0.1257
-0.14286
-0.1523
-0.16431
-0.15916
-0.16002
-0.20892
-0.36765
-0.61819
-0.77006
-0.71343
-0.41484
-0.022737
0.33162
0.59588
0.75118
0.79065
0.73145
0.63192
0.53496
0.41484
0.29901
0.17632
0.057915
-0.031317
-0.11883
-0.17289
-0.2278
-0.25526
-0.26469
-0.26727
-0.25011
-0.22265
-0.17975
-0.16259
-0.23895
-0.40455
-0.66881
-0.83698
-0.81639
-0.59245
-0.13685
0.27327
0.58387
0.73831
0.75976
0.73488
0.67825
0.60618
0.49893
0.3728
0.22952
0.087087
-0.042471
-0.12656
-0.18576
-0.21407
-0.2278
-0.2381
-0.25354
-0.25268
-0.25611
-0.25182
-0.22952
-0.21665
-0.19691
-0.17546
-0.19091
-0.2604
-0.40112
-0.61647
-0.72973
-0.64565
-0.39597
-0.023595
0.26126
0.47319
0.59846
0.66881
0.66109
0.60103
0.50493
0.38996
0.26727
0.15659
0.040755
-0.043329
-0.1154
-0.16345
-0.20807
-0.24153
-0.28014
-0.28357
-0.29901
-0.29129
-0.28529
-0.30759
-0.32475
-0.37452
-0.40541
-0.44831
-0.48692
-0.54698
-0.64565
-0.69884
-0.73659
-0.55298
-0.2012
0.1849
0.49206
0.59846
0.6139
0.60704
0.55985
0.45002
0.32904
0.18833
0.064779
-0.053625
-0.15058
-0.23037
-0.28872
-0.3239
-0.33934
-0.34706
-0.33848
-0.32304
-0.30674
-0.28014
-0.26555
-0.2604
-0.28271
-0.33419
-0.43629
-0.63707
-0.81725
-0.91248
-0.71171
-0.29816
0.20549
0.57872
0.74517
0.7958
0.75032
0.6834
0.55985
0.41913
0.281
0.1583
0.052767
-0.040755
-0.1154
-0.16774
-0.20807
-0.24925
-0.26384
-0.27756
-0.26555
-0.2544
-0.24839
-0.26212
-0.3299
-0.44831
-0.60704
-0.74174
-0.7752
-0.69541
-0.38825
0.016731
0.41313
0.67911
0.77349
0.76233
0.72372
0.64565
0.52553
0.39768
0.26212
0.15401
0.053625
-0.036465
-0.10511
-0.1523
-0.18747
-0.20807
-0.22523
-0.23981
-0.25011
-0.24067
-0.24496
-0.25354
-0.28271
-0.31532
-0.3462
-0.38996
-0.46375
-0.58816
-0.71514
-0.7263
-0.48863
-0.11969
0.25268
0.52124
0.62763
0.68855
0.67568
0.60875
0.51437
0.3891
0.27327
0.15144
0.052767
-0.027885
-0.087945
-0.1257
-0.14886
-0.1523
-0.15659
-0.16002
-0.14543
-0.14972
-0.14629
-0.15058
-0.142
-0.13857
-0.14886
-0.17718
-0.24582
-0.33677
-0.43801
-0.60017
-0.7263
-0.77177
-0.5547
-0.099099
0.33505
0.63278
0.74088
0.74346
0.716
0.6465
0.52553
0.40712
0.27756
0.17889
0.063921
-0.015873
-0.092235
-0.1317
-0.16431
-0.1849
-0.18576
-0.2115
-0.22008
-0.25268
-0.27585
-0.29472
-0.30588
-0.34277
-0.43029
-0.56585
-0.69884
-0.82411
-0.83784
-0.63621
-0.23724
0.23381
0.58988
0.75375
0.77692
0.73316
0.64393
0.53239
0.41999
0.29987
0.17546
0.078507
-0.024453
-0.094809
-0.14286
-0.15659
-0.16259
-0.16431
-0.17546
-0.19005
-0.20378
-0.23552
-0.30416
-0.40026
-0.4955
-0.59331
-0.62591
-0.59502
-0.44487
-0.20034
0.081081
0.30588
0.45517
0.49979
0.49035
0.44058
0.34449
0.23037
0.12827
0.042471
-0.035607
-0.10682
-0.15144
-0.17975
-0.18576
-0.17889
-0.18061
-0.16173
-0.15315
-0.14457
-0.15144
-0.17804
-0.19863
-0.22179
-0.22866
-0.28443
-0.42085
-0.58988
-0.73917
-0.75719
-0.58387
-0.33419
0.019305
0.27242
0.44745
0.54269
0.55641
0.52295
0.44831
0.36851
0.26298
0.15401
0.069927
0.010725
-0.028743
-0.060489
-0.092235
-0.10596
-0.12656
-0.11197
-0.10854
-0.10596
-0.13085
-0.17632
-0.27413
-0.39597
-0.53153
-0.61647
-0.66195
-0.66538
-0.58902
-0.40798
-0.075933
0.28271
0.5547
0.69369
0.71343
0.66109
0.58301
0.4749
0.36508
0.24239
0.11883
0.019305
-0.061347
-0.1094
-0.14286
-0.14372
-0.15144
-0.142
-0.14629
-0.13599
-0.15573
-0.18404
-0.22694
-0.29558
-0.37023
-0.45689
-0.52467
-0.55556
-0.53067
-0.48692
-0.45345
-0.33505
-0.094809
0.20892
0.4689
0.57615
0.58301
0.54269
0.46203
0.36765
0.24067
0.13256
0.043329
-0.037323
-0.089661
-0.12827
-0.16002
-0.1686
-0.18404
-0.19262
-0.21064
-0.2441
-0.28185
-0.31532
-0.33419
-0.37452
-0.40283
-0.43372
-0.44745
-0.47576
-0.54698
-0.61304
-0.62763
-0.40884
-0.075075
0.30845
0.53153
0.62248
0.61304
0.56499
0.49378
0.41141
0.32475
0.22179
0.15058
0.075075
0.027027
-0.033891
-0.097383
-0.14543
-0.1952
-0.24753
-0.29301
-0.33333
-0.35135
-0.36594
-0.3994
-0.43973
-0.53325
-0.62248
-0.6894
-0.62248
-0.41484
-0.10511
0.22437
0.44745
0.55041
0.55127
0.49464
0.41313
0.32733
0.24153
0.17117
0.11454
0.075933
0.023595
-0.031317
-0.11798
-0.22265
-0.32904
-0.39683
-0.42857
-0.42771
-0.41999
-0.40197
-0.38996
-0.34449
-0.287
-0.18919
-0.045903
0.082797
0.20892
0.28529
0.31961
0.32132
0.287
0.22952
0.14543
0.046761
-0.042471
-0.11197
-0.13599
-0.13428
-0.10854
-0.11111
-0.10854
-0.13256
-0.11197
-0.073359
-0.036465
-0.003861
-0.003861
-0.024453
-0.060489
-0.095667
-0.10511
-0.066495
-0.000429
0.054483
0.065637
0.026169
-0.039039
-0.12141
-0.14972
-0.14114
-0.12827
-0.12055
-0.14629
-0.12741
-0.11283
-0.080223
-0.068211
-0.048477
-0.016731
-0.011583
-0.009867
-0.042471
-0.074217
-0.087945
-0.093093
-0.080223
-0.074217
-0.12312
-0.17718
-0.19262
-0.17375
-0.12312
-0.082797
-0.072501
-0.008151
0.051051
0.12312
0.16431
0.16517
0.18318
0.17804
0.16431
0.13943
0.094809
0.074217
0.054483
0.034749
0.017589
0.011583
0.008151
0.010725
-0.025311
-0.066495
-0.16431
-0.27842
-0.40369
-0.52124
-0.55384
-0.54011
-0.41313
-0.24582
-0.003003
0.18919
0.31446
0.35135
0.36594
0.33162
0.3033
0.24324
0.19091
0.12398
0.051909
-0.005577
-0.046761
-0.066495
-0.066495
-0.065637
-0.066495
-0.069927
-0.085371
-0.13428
-0.23466
-0.36422
-0.49292
-0.6036
-0.62334
-0.55298
-0.34277
-0.084513
0.21665
0.43801
0.5873
0.63192
0.60875
0.54612
0.45088
0.36336
0.28271
0.19434
0.13256
0.069927
0.030459
-0.003003
-0.041613
-0.062205
-0.081081
-0.086229
-0.082797
-0.10082
-0.12827
-0.16173
-0.20549
-0.25697
-0.29987
-0.38052
-0.44402
-0.48863
-0.46976
-0.41742
-0.31446
-0.22351
-0.11369
0.096525
0.30674
0.5015
0.57872
0.56757
0.51523
0.42771
0.33419
0.22694
0.14801
0.091377
0.040755
-0.019305
-0.050193
-0.10082
-0.1317
-0.16431
-0.2012
-0.23209
-0.2707
-0.2973
-0.32561
-0.35049
-0.37109
-0.37623
-0.3831
-0.38739
-0.43029
-0.48177
-0.48863
-0.35478
-0.10854
0.19176
0.41999
0.52724
0.53239
0.48348
0.39511
0.28185
0.15487
0.055341
-0.003861
-0.046761
-0.075075
-0.11712
-0.14543
-0.17718
-0.2012
-0.2544
-0.30073
-0.33677
-0.3402
-0.32647
-0.30073
-0.28614
-0.31446
-0.37709
-0.46375
-0.5118
-0.44316
-0.27671
-0.002145
0.25097
0.44745
0.55641
0.59502
0.5813
0.50322
0.41141
0.27842
0.19605
0.10768
0.049335
0.016731
-0.011583
-0.029601
-0.057915
-0.14028
-0.20635
-0.28014
-0.36079
-0.39511
-0.40712
-0.3831
-0.3728
-0.38481
-0.37623
-0.32819
-0.15659
0.075933
0.32046
0.43887
0.4586
0.43973
0.43115
0.38653
0.28014
0.11283
-0.037323
-0.11283
-0.14715
-0.12484
-0.11883
-0.095667
-0.094809
-0.098241
-0.12227
-0.15916
-0.22952
-0.27671
-0.33162
-0.38138
-0.39082
-0.36165
-0.32561
-0.31017
-0.29558
-0.20721
0.004719
0.23638
0.46375
0.55127
0.53411
0.48005
0.38996
0.29558
0.21836
0.14886
0.087087
0.033033
0.000429
-0.018447
-0.039897
-0.055341
-0.093951
-0.094809
-0.12827
-0.12827
-0.18147
-0.24067
-0.31017
-0.42171
-0.50493
-0.57615
-0.55899
-0.50837
-0.37795
-0.17889
0.13599
0.40626
0.59245
0.62677
0.57701
0.50064
0.41999
0.33333
0.24153
0.16602
0.1154
0.053625
0.019305
-0.025311
-0.030459
-0.029601
-0.030459
-0.045045
-0.069927
-0.094809
-0.090519
-0.085371
-0.11626
-0.21922
-0.34964
-0.56156
-0.66795
-0.65508
-0.53153
-0.25611
0.057057
0.34706
0.56156
0.62248
0.60532
0.54612
0.47319
0.37538
0.30502
0.20292
0.1257
0.051051
0.005577
-0.042471
-0.081939
-0.10511
-0.12055
-0.10425
-0.1094
-0.090519
-0.11283
-0.14715
-0.19691
-0.26555
-0.32904
-0.37452
-0.44573
-0.48606
-0.45345
-0.34706
-0.19605
-0.014157
0.19005
0.32647
0.426
0.41484
0.36851
0.32218
0.2441
0.20378
0.14543
0.10339
0.033033
-0.003003
-0.039039
-0.027027
-0.033033
-0.051051
-0.056199
-0.086229
-0.075933
-0.081939
-0.063063
-0.038181
-0.068211
-0.12398
-0.22608
-0.33848
-0.50922
-0.66023
-0.72287
-0.65766
-0.44316
-0.20292
0.074217
0.287
0.43801
0.51523
0.51437
0.50665
0.46289
0.3891
0.2973
0.19605
0.13085
0.059631
0.023595
-0.010725
-0.028743
-0.031317
-0.062205
-0.063063
-0.081939
-0.081081
-0.081081
-0.11969
-0.17289
-0.24582
-0.33419
-0.4097
-0.50408
-0.54869
-0.53668
-0.46547
-0.35307
-0.2604
-0.13342
0.082797
0.29901
0.46289
0.50493
0.4689
0.42943
0.36336
0.28786
0.23895
0.15487
0.092235
0.021879
-0.010725
-0.045045
-0.065637
-0.077649
-0.10339
-0.11369
-0.13599
-0.14715
-0.16088
-0.19348
-0.28014
-0.39854
-0.52896
-0.64393
-0.64994
-0.58215
-0.43372
-0.20635
0.016731
0.27671
0.47919
0.60017
0.60961
0.54783
0.4586
0.36937
0.27842
0.19348
0.090519
0.018447
-0.051051
-0.062205
-0.087945
-0.10511
-0.093093
-0.10339
-0.088803
-0.099957
-0.12398
-0.17117
-0.26813
-0.35049
-0.45517
-0.52038
-0.57357
-0.50579
-0.40197
-0.17203
0.005577
0.12913
0.28014
0.34964
0.42514
0.43715
0.43029
0.3891
0.35049
0.25697
0.18747
0.11626
0.063063
0.012441
-0.018447
-0.066495
-0.091377
-0.1094
-0.11883
-0.11369
-0.12398
-0.12999
-0.12484
-0.15487
-0.19605
-0.28872
-0.39339
-0.49979
-0.59159
-0.67739
-0.62677
-0.5178
-0.27242
-0.063063
0.18404
0.34964
0.46718
0.49292
0.47662
0.4586
0.39254
0.30931
0.22179
0.13428
0.069927
-0.009009
-0.055341
-0.095667
-0.12741
-0.14114
-0.14886
-0.14286
-0.15144
-0.14886
-0.20206
-0.26898
-0.33677
-0.43029
-0.47405
-0.57186
-0.57272
-0.5015
-0.37881
-0.18233
-0.027885
0.14286
0.28958
0.37709
0.41999
0.41227
0.38138
0.33248
0.24925
0.13943
0.044187
-0.031317
-0.099099
-0.11712
-0.13599
-0.13857
-0.14028
-0.1257
-0.13685
-0.13857
-0.12741
-0.142
-0.11798
-0.12227
-0.11283
-0.15659
-0.26126
-0.43286
-0.62934
-0.78121
-0.77006
-0.6405
-0.36765
-0.051051
0.26212
0.46203
0.59674
0.61133
0.57615
0.5178
0.44316
0.33419
0.25354
0.1523
0.054483
-0.032175
-0.11626
-0.1746
-0.18404
-0.18919
-0.20463
-0.20635
-0.21236
-0.22523
-0.2544
-0.29129
-0.35221
-0.42342
-0.51437
-0.60017
-0.63363
-0.56499
-0.41656
-0.24668
-0.055341
0.1583
0.34792
0.52896
0.57958
0.57958
0.4955
0.3831
0.26984
0.13342
0.016731
-0.097383
-0.17632
-0.19434
-0.17718
-0.13599
-0.097383
-0.10854
-0.11626
-0.14114
-0.20721
-0.26212
-0.36165
-0.42771
-0.51437
-0.56156
-0.52982
-0.41484
-0.24239
-0.081081
0.066495
0.18833
0.2973
0.36765
0.39254
0.34964
0.30502
0.23552
0.1746
0.092235
0.009867
-0.057057
-0.12312
-0.17804
-0.21493
-0.22523
-0.21836
-0.18833
-0.15315
-0.12656
-0.1094
-0.1523
-0.21407
-0.29472
-0.4097
-0.48177
-0.57014
-0.59331
-0.51695
-0.3831
-0.18833
-0.016731
0.094809
0.18147
0.25611
0.3239
0.35221
0.3462
0.28014
0.19863
0.11626
0.068211
0.022737
-0.001287
-0.040755
-0.079365
-0.086229
-0.10253
-0.090519
-0.092235
-0.091377
-0.093951
-0.075933
-0.094809
-0.13514
-0.2175
-0.31789
-0.39168
-0.48434
-0.52638
-0.46976
-0.36336
-0.15144
0.002145
0.14801
0.27842
0.35135
0.36336
0.33076
0.27499
0.23638
0.17632
0.13256
0.075933
0.042471
0.029601
-0.038181
-0.063921
-0.095667
-0.093951
-0.082797
-0.072501
-0.045045
-0.027885
-0.027027
-0.096525
-0.19348
-0.33076
-0.43887
-0.54354
-0.57443
-0.50579
-0.41656
-0.26813
-0.18919
-0.11454
-0.044187
0.073359
0.19005
0.33848
0.41399
0.45946
0.42771
0.37109
0.27671
0.18833
0.11798
0.055341
0.003003
-0.035607
-0.075075
-0.1094
-0.12312
-0.14028
-0.14372
-0.16345
-0.2115
-0.26727
-0.35393
-0.44831
-0.55727
-0.6139
-0.54612
-0.44402
-0.26469
-0.13514
-0.023595
0.10339
0.24496
0.36079
0.4423
0.44831
0.43029
0.40369
0.35393
0.27928
0.18662
0.078507
-0.020163
-0.093951
-0.13685
-0.14972
-0.16345
-0.15659
-0.17203
-0.19434
-0.24239
-0.29129
-0.32218
-0.35135
-0.38052
-0.39597
-0.3668
-0.32904
-0.24925
-0.2175
-0.17889
-0.18919
-0.11111
0.036465
0.19605
0.39511
0.50064
0.51094
0.48949
0.40541
0.29987
0.16431
0.025311
-0.092235
-0.17804
-0.19949
-0.16774
-0.11626
-0.069069
-0.056199
-0.10511
-0.1746
-0.26469
-0.31789
-0.37795
-0.3728
-0.3891
-0.37452
-0.36508
-0.3891
-0.40798
-0.43286
-0.40884
-0.26727
-0.032175
0.23895
0.42771
0.51266
0.5281
0.45946
0.39854
0.29129
0.18404
0.098241
0.032175
-0.004719
-0.005577
-0.061347
-0.085371
-0.16173
-0.21665
-0.26126
-0.29129
-0.31532
-0.32304
-0.33248
-0.35135
-0.37194
-0.39082
-0.40026
-0.39425
-0.34277
-0.20378
-0.036465
0.17975
0.33762
0.46632
0.49979
0.5118
0.45002
0.37194
0.26813
0.19949
0.076791
0.023595
-0.052767
-0.087945
-0.13514
-0.1952
-0.24324
-0.30416
-0.37623
-0.40455
-0.41313
-0.38996
-0.36079
-0.32475
-0.29987
-0.27156
-0.2441
-0.17975
-0.085371
0.052767
0.19863
0.3239
0.41055
0.4526
0.45345
0.39168
0.32132
0.20807
0.10511
0.002145
-0.096525
-0.16774
-0.2012
-0.22179
-0.23295
-0.27928
-0.30245
-0.28872
-0.32132
-0.30416
-0.29472
-0.2441
-0.142
-0.096525
-0.051051
-0.045045
-0.031317
-0.000429
0.057057
0.18147
0.27242
0.34363
0.34792
0.32904
0.2707
0.18404
0.10253
0.024453
-0.028743
-0.064779
-0.092235
-0.11798
-0.15744
-0.19005
-0.23981
-0.23895
-0.25955
-0.27242
-0.27327
-0.26813
-0.2115
-0.12398
-0.065637
0.003861
0.051909
0.081939
0.093093
0.087945
0.12656
0.14715
0.16259
0.13685
0.15659
0.20206
0.21407
0.21922
0.1686
0.10425
0.036465
-0.039039
-0.067353
-0.066495
-0.048477
-0.065637
-0.044187
-0.076791
-0.087945
-0.075075
-0.078507
-0.052767
-0.075075
-0.17632
-0.27499
-0.35907
-0.40283
-0.33762
-0.22523
-0.034749
0.13514
0.26469
0.33934
0.38996
0.39768
0.41227
0.38996
0.36079
0.26212
0.15916
0.014157
-0.084513
-0.099099
-0.085371
-0.045903
-0.019305
0.036465
0.027027
0.033033
0.009867
0.011583
0.018447
0.027027
0.013299
0.001287
-0.032175
-0.10253
-0.18233
-0.2707
-0.33762
-0.43629
-0.44144
-0.41828
-0.24324
-0.081939
0.10339
0.23209
0.34191
0.38052
0.41913
0.41742
0.3994
0.35049
0.287
0.19777
0.12656
0.042471
-0.007293
-0.031317
-0.045045
-0.050193
-0.059631
-0.061347
-0.063063
-0.057057
-0.099957
-0.14543
-0.16602
-0.17546
-0.19091
-0.24668
-0.32904
-0.41742
-0.53153
-0.61476
-0.57357
-0.45174
-0.23209
-0.003003
0.16345
0.30674
0.41055
0.49893
0.57615
0.59931
0.58215
0.49721
0.39254
0.29043
0.18318
0.072501
-0.016731
-0.093093
-0.14114
-0.16173
-0.13857
-0.12484
-0.10167
-0.084513
-0.076791
-0.092235
-0.13771
-0.20978
-0.31103
-0.41913
-0.51952
-0.57786
-0.5547
-0.44659
-0.34191
-0.2441
-0.1686
-0.021879
0.17889
0.33591
0.45517
0.48692
0.47405
0.4423
0.39597
0.32475
0.25955
0.16688
0.061347
-0.024453
-0.087087
-0.10768
-0.11111
-0.10511
-0.091377
-0.12913
-0.20378
-0.3033
-0.38567
-0.48863
-0.55384
-0.59073
-0.55212
-0.49121
-0.41399
-0.31617
-0.23123
-0.13256
-0.003003
0.13514
0.30759
0.4157
0.50493
0.50408
0.47662
0.39425
0.29472
0.17718
0.040755
-0.057915
-0.13514
-0.15744
-0.19691
-0.18747
-0.19348
-0.1849
-0.19691
-0.22351
-0.25955
-0.28872
-0.35478
-0.41656
-0.48863
-0.56671
-0.56928
-0.50322
-0.3994
-0.23466
-0.12227
0.003861
0.12055
0.22523
0.26984
0.30845
0.2973
0.28786
0.2707
0.2278
0.1746
0.093093
0.051909
0.026169
0.016731
-0.025311
-0.046761
-0.10167
-0.12741
-0.12741
-0.12999
-0.093093
-0.096525
-0.13771
-0.20635
-0.2973
-0.37366
-0.42771
-0.4749
-0.42686
-0.34363
-0.18318
-0.078507
0.069927
0.16431
0.25011
0.29644
0.35822
0.37967
0.40026
0.36594
0.28443
0.1686
0.037323
-0.040755
-0.12484
-0.12227
-0.1257
-0.10854
-0.076791
-0.063921
-0.011583
0.007293
0.000429
-0.043329
-0.10511
-0.18576
-0.2707
-0.37967
-0.47405
-0.58559
-0.63449
-0.59931
-0.44316
-0.24239
-0.042471
0.13599
0.28271
0.35221
0.39339
0.42257
0.44144
0.46804
0.45774
0.39768
0.29644
0.17031
0.056199
-0.047619
-0.1154
-0.19691
-0.21236
-0.23466
-0.20206
-0.16431
-0.10339
-0.085371
-0.080223
-0.098241
-0.12055
-0.20807
-0.33333
-0.43286
-0.55212
-0.59073
-0.54354
-0.43029
-0.26984
-0.13085
0.015015
0.15487
0.29558
0.35393
0.37023
0.3299
0.33848
0.33762
0.3136
0.21836
0.091377
-0.008151
-0.088803
-0.12999
-0.12741
-0.10596
-0.064779
-0.030459
-0.021021
-0.027027
-0.051909
-0.13342
-0.18919
-0.25869
-0.30416
-0.34964
-0.40541
-0.44916
-0.4749
-0.43372
-0.39768
-0.34449
-0.3402
-0.34706
-0.30674
-0.21579
-0.070785
0.093093
0.21321
0.287
0.34191
0.34449
0.3402
0.30588
0.21407
0.12398
0.042471
-0.013299
-0.043329
-0.062205
-0.067353
-0.057915
-0.027027
0.007293
-0.005577
-0.069927
-0.18576
-0.29816
-0.44745
-0.54183
-0.60618
-0.59588
-0.49206
-0.38567
-0.24839
-0.16088
-0.065637
0.037323
0.12999
0.24067
0.33419
0.40541
0.44144
0.45002
0.41828
0.34363
0.18747
0.057915
-0.063063
-0.11798
-0.12827
-0.1523
-0.14886
-0.13857
-0.10425
-0.11969
-0.16259
-0.2381
-0.3239
-0.39768
-0.43629
-0.4749
-0.42171
-0.35307
-0.26641
-0.17804
-0.11798
-0.040755
0.004719
0.064779
0.13342
0.22523
0.29558
0.32218
0.30502
0.26641
0.20463
0.10511
0.039039
-0.037323
-0.057915
-0.035607
-0.034749
-0.015873
-0.027027
-0.002145
-0.002145
-0.004719
-0.057915
-0.14629
-0.24582
-0.37452
-0.46718
-0.54183
-0.52295
-0.41913
-0.32218
-0.20034
-0.13857
-0.079365
-0.032175
0.015873
0.093093
0.16774
0.21665
0.24239
0.21407
0.21493
0.17632
0.1746
0.16259
0.142
0.089661
0.037323
-0.055341
-0.092235
-0.14886
-0.16345
-0.16345
-0.16688
-0.16002
-0.16517
-0.17289
-0.17117
-0.15916
-0.14286
-0.11798
-0.11197
-0.13771
-0.16002
-0.16774
-0.19949
-0.25526
-0.27413
-0.31703
-0.27499
-0.2115
-0.11454
-0.083655
-0.039039
-0.023595
0.061347
0.142
0.20292
0.22351
0.23638
0.23466
0.25354
0.25526
0.24582
0.19348
0.16259
0.1154
0.077649
-0.012441
-0.079365
-0.16774
-0.17804
-0.17889
-0.1849
-0.20463
-0.23466
-0.28014
-0.29987
-0.31532
-0.37194
-0.39683
-0.42428
-0.37452
-0.24582
-0.16002
0.009867
0.13771
0.30159
0.46118
0.49721
0.54011
0.48949
0.44316
0.37795
0.35564
0.3033
0.26384
0.19262
0.13256
0.070785
-0.010725
-0.13085
-0.22265
-0.30759
-0.36079
-0.3891
-0.37109
-0.33162
-0.28185
-0.26126
-0.26126
-0.26898
-0.22608
-0.2115
-0.15916
-0.1094
-0.10854
-0.033033
0.015015
0.1094
0.16345
0.21407
0.22866
0.24839
0.2441
0.21836
0.20378
0.18576
0.1523
0.051051
-0.032175
-0.087945
-0.069927
-0.032175
0.008151
-0.029601
-0.11111
-0.22265
-0.31017
-0.39511
-0.43801
-0.40112
-0.32561
-0.20978
-0.081939
0.040755
0.16774
0.30759
0.3565
0.4097
0.37967
0.35993
0.29301
0.23895
0.1849
0.17031
0.13857
0.12141
0.079365
0.070785
0.032175
0.000429
-0.009867
-0.044187
-0.039039
-0.044187
-0.042471
-0.027885
-0.047619
-0.093951
-0.15144
-0.24753
-0.33333
-0.42171
-0.45517
-0.41484
-0.35307
-0.22437
-0.14886
-0.027027
0.076791
0.15659
0.25611
0.35736
0.43458
0.50922
0.46547
0.38825
0.27842
0.15401
0.073359
-0.006435
-0.027885
-0.021879
-0.040755
-0.039897
-0.070785
-0.079365
-0.059631
-0.056199
-0.030459
-0.044187
-0.078507
-0.13857
-0.22523
-0.28357
-0.36079
-0.44402
-0.432
-0.40798
-0.3136
-0.20206
-0.061347
0.075075
0.23381
0.35221
0.3831
0.41828
0.38396
0.33848
0.26298
0.18318
0.10425
0.018447
-0.073359
-0.12656
-0.15144
-0.14286
-0.090519
-0.022737
0.038181
0.077649
0.067353
0.056199
0.045045
0.009009
-0.073359
-0.16602
-0.29987
-0.37452
-0.4749
-0.53239
-0.51094
-0.46118
-0.38996
-0.31017
-0.2278
-0.066495
0.095667
0.24753
0.35564
0.38138
0.38138
0.33934
0.25783
0.19005
0.1583
0.099957
0.079365
0.070785
0.032175
0.017589
-0.010725
0.006435
0.039039
0.068211
0.054483
-0.004719
-0.091377
-0.22351
-0.3462
-0.47233
-0.5444
-0.55384
-0.50236
-0.42342
-0.33162
-0.25697
-0.21064
-0.1523
-0.069927
0.063921
0.15744
0.27413
0.29215
0.30845
0.27585
0.26727
0.20635
0.13857
0.073359
0.049335
0.056199
0.065637
0.041613
-0.018447
-0.087945
-0.15573
-0.19262
-0.22437
-0.25869
-0.29816
-0.3565
-0.41742
-0.46032
-0.48091
-0.42257
-0.31875
-0.18404
-0.10854
-0.011583
0.069069
0.18576
0.28786
0.33419
0.3565
0.27156
0.19777
0.13599
0.10854
0.12398
0.10682
0.075933
0.000429
-0.080223
-0.16688
-0.18747
-0.22094
-0.23895
-0.22179
-0.19434
-0.095667
-0.021021
0.046761
0.057915
0.019305
-0.053625
-0.21064
-0.32046
-0.4423
-0.52553
-0.48263
-0.3728
-0.18233
0.002145
0.14286
0.23037
0.2973
0.33505
0.37452
0.37795
0.3402
0.30416
0.23724
0.18404
0.12484
0.063921
0.037323
0.015015
-0.018447
-0.012441
0.003861
0.015015
0.054483
0.033033
0.011583
-0.039897
-0.088803
-0.15744
-0.21407
-0.26384
-0.33333
-0.37967
-0.3891
-0.31789
-0.23638
-0.16173
-0.10854
-0.045903
0.020163
0.13428
0.1952
0.21321
0.23638
0.21407
0.21665
0.19005
0.18662
0.15744
0.16774
0.1523
0.10596
0.071643
0.035607
0.008151
-0.036465
-0.056199
-0.073359
-0.070785
-0.072501
-0.081939
-0.070785
-0.056199
-0.067353
-0.11626
-0.18919
-0.27413
-0.40112
-0.51952
-0.62677
-0.6036
-0.4852
-0.27413
-0.031317
0.14801
0.29558
0.35478
0.38567
0.38825
0.39768
0.3565
0.31446
0.24496
0.17375
0.1154
0.071643
0.042471
-0.017589
-0.021021
-0.008151
-0.031317
-0.063921
-0.12656
-0.16774
-0.20378
-0.22008
-0.27756
-0.30759
-0.35478
-0.42686
-0.47748
-0.54612
-0.51523
-0.41055
-0.28872
-0.12827
-0.027885
0.10253
0.20978
0.28185
0.30416
0.30159
0.26641
0.22608
0.16002
0.068211
0.001287
-0.039897
-0.040755
-0.048477
-0.032175
-0.055341
-0.045045
-0.040755
-0.014157
0.017589
0.040755
0.046761
0.030459
-0.001287
-0.093093
-0.17804
-0.28357
-0.37023
-0.43029
-0.51952
-0.60189
-0.63621
-0.5976
-0.50408
-0.34191
-0.16173
0.011583
0.18833
0.28357
0.37452
0.4097
0.42085
0.36937
0.35478
0.28872
0.25097
0.22437
0.17718
0.12741
0.066495
-0.014157
-0.089661
-0.18833
-0.24496
-0.27242
-0.24753
-0.20463
-0.18662
-0.19777
-0.25611
-0.33248
-0.42085
-0.48177
-0.50236
-0.46375
-0.37881
-0.29301
-0.15487
-0.051909
0.11025
0.21579
0.31188
0.34106
0.37623
0.36937
0.34535
0.29644
0.281
0.2012
0.12312
0.071643
-0.058773
-0.12827
-0.20807
-0.20549
-0.15659
-0.14715
-0.15487
-0.15058
-0.11883
-0.12913
-0.13342
-0.13943
-0.063063
-0.035607
-0.016731
-0.081081
-0.14028
-0.20635
-0.281
-0.37109
-0.45774
-0.47061
-0.44316
-0.37795
-0.29043
-0.18318
-0.069069
0.054483
0.13085
0.17718
0.21321
0.23037
0.25955
0.29644
0.2707
0.2115
0.11283
0.033891
-0.029601
-0.072501
-0.085371
-0.099957
-0.088803
-0.087945
-0.10596
-0.15916
-0.1686
-0.21064
-0.19691
-0.19176
-0.22094
-0.2604
-0.31961
-0.40112
-0.47919
-0.57186
-0.58988
-0.56156
-0.46547
-0.31532
-0.15487
0.028743
0.19005
0.3239
0.4097
0.46118
0.48863
0.47662
0.4157
0.30073
0.18318
0.011583
-0.056199
-0.11883
-0.076791
-0.048477
-0.035607
-0.022737
-0.016731
-0.016731
0.007293
0.009009
0.001287
-0.020163
-0.045903
-0.071643
-0.10596
-0.19605
-0.26727
-0.35736
-0.45345
-0.5444
-0.60618
-0.57272
-0.47748
-0.32733
-0.19777
-0.047619
0.12741
0.22437
0.34106
0.32647
0.30502
0.29301
0.24753
0.25354
0.27671
0.2441
0.24153
0.18747
0.15058
0.069927
0.021021
-0.065637
-0.11712
-0.23638
-0.27671
-0.33248
-0.32904
-0.26212
-0.21321
-0.14028
-0.14372
-0.18318
-0.28271
-0.35993
-0.4157
-0.44573
-0.37623
-0.27242
-0.18404
-0.050193
0.045903
0.18147
0.26727
0.34792
0.37623
0.37538
0.34878
0.27242
0.19605
0.12741
0.062205
0.007293
-0.047619
-0.087945
-0.13342
-0.18919
-0.22437
-0.2278
-0.17632
-0.10253
-0.023595
0.046761
0.077649
0.065637
0.016731
-0.005577
-0.019305
-0.004719
0.019305
0.012441
-0.041613
-0.17632
-0.33248
-0.49721
-0.59502
-0.5813
-0.50751
-0.34706
-0.21236
-0.038181
0.14629
0.32904
0.39254
0.42342
0.36765
0.27585
0.20034
0.086229
0.029601
0.006435
0.001287
0.003861
0.002145
0.000429
-0.009009
0.007293
0.033891
0.046761
0.042471
-0.005577
-0.047619
-0.098241
-0.1317
-0.14972
-0.19091
-0.25783
-0.35822
-0.49206
-0.58559
-0.62334
-0.61047
-0.52295
-0.36937
-0.22608
-0.008151
0.11626
0.27671
0.37194
0.43887
0.42257
0.40626
0.3891
0.37538
0.34191
0.29644
0.2175
0.13256
0.024453
-0.074217
-0.16688
-0.25611
-0.30759
-0.32475
-0.30931
-0.23895
-0.17289
-0.13685
-0.11626
-0.12398
-0.10253
-0.085371
-0.059631
-0.11454
-0.16259
-0.25611
-0.31961
-0.38739
-0.43544
-0.39511
-0.31789
-0.15144
-0.009009
0.1257
0.25783
0.31789
0.34792
0.3668
0.30759
0.25268
0.16088
0.039897
-0.045903
-0.097383
-0.11883
-0.10768
-0.081081
-0.049335
-0.006435
0.063921
0.052767
0.034749
0.57272
