-0.044872
-0.025641
0.019231
0.057692
0.012821
0.044872
0.032051
0.089744
0.22436
0.23718
0.16026
0.032051
-0.057692
-0.10256
-0.10256
-0.057692
0.012821
0.076923
0.21154
0.28846
0.21795
0.076923
-0.044872
-0.057692
-0.0064103
0.12821
0.23077
0.26282
0.21154
0.14103
0.019231
-0.096154
-0.076923
-0.038462
0.032051
0.089744
0.15385
0.17949
0.14744
0.17949
0.17308
0.20513
0.17949
0.19231
0.19231
0.14103
0.11538
0.044872
0.025641
0.064103
0.14103
0.14103
0.089744
0.076923
0.16026
0.22436
0.25641
0.25641
0.19231
0.17308
0.083333
-0.064103
-0.21154
-0.24359
-0.15385
-0.025641
0.032051
0.12821
0.14744
0.16026
0.19231
0.25
0.25
0.27564
0.24359
0.17308
0.064103
-0.012821
-0.012821
-0.057692
-0.070513
-0.096154
-0.11538
-0.10897
0.0064103
0.23077
0.44231
0.62821
0.69872
0.65385
0.50641
0.40385
0.37821
0.35897
0.39103
0.46154
0.53846
0.53846
0.55128
0.55128
0.44231
0.28205
0.1859
0.17949
0.20513
0.23077
0.27564
0.28846
0.28846
0.29487
0.30128
0.36538
0.42949
0.57692
0.59615
0.50641
0.33333
0.22436
0.11538
0.044872
0.038462
0.070513
0.044872
0.044872
0.12821
0.096154
0.14103
0.15385
0.14744
0.14103
0.17308
0.32692
0.38462
0.40385
0.28846
0.14103
-0.0064103
-0.096154
-0.10256
-0.076923
0.012821
0.17308
0.35256
0.48077
0.53846
0.53205
0.39744
0.25
0.19231
0.23718
0.30769
0.4359
0.44872
0.40385
0.37821
0.39744
0.46154
0.42949
0.45513
0.46795
0.49359
0.48718
0.42949
0.33974
0.23077
0.28846
0.37821
0.44231
0.47436
0.44872
0.4359
0.37179
0.46154
0.53846
0.59615
0.62179
0.64744
0.65385
0.62821
0.5641
0.5
0.45513
0.50641
0.5641
0.51923
0.44231
0.34615
0.27564
0.21154
0.12821
0.10897
0.076923
0.044872
0.0064103
-0.044872
-0.083333
-0.038462
0.032051
0.051282
0.12179
0.17949
0.1859
0.10897
-0.019231
-0.070513
-0.083333
0.025641
0.089744
0.025641
-0.19872
-0.38462
-0.40385
-0.25641
-0.025641
0.16026
0.23718
0.15385
0.051282
-0.051282
-0.14103
-0.19231
-0.15385
-0.083333
-0.038462
-0.019231
-0.044872
-0.064103
-0.064103
-0.057692
-0.044872
-0.089744
-0.12179
-0.23718
-0.32051
-0.32692
-0.23077
-0.064103
0.051282
0.11538
0.10897
0.044872
0.064103
0.096154
0.083333
0.025641
-0.044872
-0.044872
-0.012821
0.051282
0.12179
0.10256
0.12821
0.10897
0.025641
-0.12821
-0.25
-0.23077
-0.19231
-0.057692
0.051282
0.12179
0.12179
0.070513
0.076923
0.089744
0.16026
0.22436
0.25641
0.21154
0.1859
0.17949
0.064103
-0.057692
-0.16667
-0.1859
-0.15385
-0.032051
0.096154
0.10897
0.083333
0.096154
0.057692
0.051282
0.10897
0.21795
0.32692
0.39103
0.35256
0.17949
-0.076923
-0.29487
-0.44872
-0.50641
-0.47436
-0.33974
-0.1859
-0.076923
0.089744
0.12179
0.057692
-0.083333
-0.16667
-0.26923
-0.29487
-0.23718
-0.22436
-0.20513
-0.1859
-0.070513
0.057692
0.15385
0.17308
0.070513
-0.044872
-0.14103
-0.15385
-0.21795
-0.23718
-0.17949
-0.10897
-0.025641
-0.051282
-0.12179
-0.30128
-0.41026
-0.41667
-0.33333
-0.23077
-0.10256
-0.025641
-0.076923
-0.21154
-0.30769
-0.35256
-0.36538
-0.36538
-0.30769
-0.30128
-0.27564
-0.33974
-0.52564
-0.80128
-0.92949
-0.87179
-0.67949
-0.41026
-0.16667
-0.012821
0.012821
0.0064103
-0.089744
-0.17308
-0.15385
-0.051282
0.051282
-0.0064103
-0.032051
-0.025641
0.044872
0.14744
0.14103
0.089744
-0.0064103
-0.038462
-0.064103
-0.13462
-0.23077
-0.3141
-0.34615
-0.30128
-0.15385
-0.057692
-0.044872
-0.051282
0.0064103
0.038462
0.12179
0.20513
0.20513
0.14103
0.025641
-0.064103
-0.16026
-0.16026
-0.10897
-0.051282
-0.032051
-0.025641
0.044872
0.10897
0.21154
0.35256
0.46795
0.48077
0.47436
0.44231
0.33974
0.28846
0.22436
0.19231
0.17949
0.12821
0.076923
0.019231
0.0064103
0.012821
0.012821
-0.019231
0.012821
0.012821
0.019231
-0.012821
-0.0064103
0
0.012821
0.083333
0.17949
0.25
0.30769
0.35256
0.33333
0.22436
0.19872
0.12179
0.089744
0.057692
0.14744
0.17949
0.22436
0.26923
0.22436
0.17949
0.14744
0.17308
0.17308
0.14744
0.16026
0.17308
0.1859
0.21795
0.29487
0.37821
0.46154
0.51282
0.51923
0.44231
0.34615
0.27564
0.21154
0.14103
0.16026
0.20513
0.25641
0.25
0.17949
0.089744
0.10256
0.14744
0.13462
0.051282
-0.038462
0.0064103
-0.019231
-0.0064103
-0.025641
-0.038462
-0.057692
-0.032051
0.012821
0.038462
0.16667
0.30128
0.39744
0.41026
0.35897
0.19872
-0.051282
-0.27564
-0.34615
-0.28205
-0.14744
0.070513
0.17949
0.25641
0.26282
0.28846
0.28846
0.24359
0.23718
0.14744
-0.044872
-0.22436
-0.21795
-0.10256
0.057692
0.12179
0.076923
0.038462
0.025641
0.070513
0.089744
0.12179
0.16026
0.21154
0.17949
0.13462
0.15385
0.10256
0.15385
0.28205
0.35897
0.38462
0.28205
0.21154
0.10897
0.064103
0.044872
0.064103
0.083333
0.10256
0.12821
0.11538
0.14103
0.21154
0.25
0.28846
0.28205
0.34615
0.29487
0.27564
0.1859
0.14103
0.10256
0.17308
0.23718
0.23718
0.23718
0.26282
0.32051
0.29487
0.25
0.17308
0.051282
-0.032051
-0.051282
-0.032051
-0.089744
-0.12179
-0.21154
-0.32692
-0.41667
-0.44231
-0.41026
-0.34615
-0.17949
-0.11538
-0.044872
-0.0064103
0.064103
0.064103
0.044872
-0.019231
-0.10897
-0.21154
-0.23077
-0.12179
-0.083333
-0.051282
0.032051
0.11538
0.24359
0.32051
0.34615
0.23718
0.10897
0
-0.038462
-0.012821
0.051282
0.10897
0.064103
0.044872
0.019231
-0.019231
-0.044872
-0.0064103
0.11538
0.12179
0.12179
0.070513
0.044872
-0.044872
-0.10256
-0.11538
-0.14103
-0.10256
-0.025641
0.064103
0.10897
0.13462
0.096154
0.057692
0.019231
0.038462
0.070513
0.15385
0.28205
0.35897
0.39103
0.35897
0.28846
0.19231
0.070513
0.032051
-0.089744
-0.19872
-0.32051
-0.30128
-0.1859
-0.10897
0.019231
-0.032051
-0.096154
-0.21154
-0.28205
-0.37179
-0.39103
-0.33333
-0.28846
-0.25641
-0.26923
-0.27564
-0.37179
-0.4359
-0.46154
-0.44231
-0.42308
-0.37821
-0.32692
-0.32692
-0.38462
-0.47436
-0.57051
-0.60897
-0.55128
-0.45513
-0.36538
-0.25641
-0.10897
-0.070513
-0.11538
-0.20513
-0.28205
-0.33333
-0.33333
-0.30128
-0.28846
-0.28846
-0.25
-0.19231
-0.21795
-0.23718
-0.28205
-0.26923
-0.25
-0.19231
-0.1859
-0.16026
-0.12179
-0.038462
-0.019231
-0.019231
0.012821
0.019231
0.025641
0.019231
-0.0064103
0.0064103
-0.032051
-0.019231
-0.032051
-0.083333
-0.12179
-0.057692
0.044872
0.14744
0.21795
0.19872
0.11538
0.019231
-0.032051
-0.057692
-0.019231
0.0064103
0.038462
0.096154
0.16667
0.30128
0.26282
0.17949
0.076923
0.044872
0
-0.070513
-0.13462
-0.17949
-0.076923
0.13462
0.33974
0.46795
0.46154
0.35256
0.17949
0.044872
0.012821
0.038462
0.057692
0.070513
0.096154
0.089744
0.11538
0.17949
0.26923
0.27564
0.25
0.16026
0.051282
-0.057692
-0.089744
-0.070513
-0.032051
0.070513
0.10256
0.10897
0.10256
0.1859
0.29487
0.39103
0.5
0.5
0.39744
0.26282
0.14103
0.044872
-0.012821
-0.051282
-0.16026
-0.25
-0.3141
-0.27564
-0.20513
-0.10256
0.057692
0.16026
0.14103
-0.019231
-0.15385
-0.25
-0.19872
-0.10897
-0.083333
-0.16026
-0.27564
-0.33333
-0.37179
-0.33974
-0.30128
-0.30769
-0.37821
-0.4359
-0.41026
-0.39103
-0.28205
-0.25
-0.27564
-0.40385
-0.49359
-0.48077
-0.44872
-0.41667
-0.41026
-0.48077
-0.57051
-0.54487
-0.39744
-0.21154
-0.038462
-0.0064103
-0.12179
-0.29487
-0.37179
-0.39744
-0.4359
-0.42949
-0.39103
-0.32051
-0.33333
-0.28846
-0.26923
-0.21795
-0.11538
0.051282
0.27564
0.34615
0.35897
0.25641
0.12179
0.025641
-0.019231
-0.019231
0.019231
0.089744
0.10897
0.083333
0.019231
-0.012821
-0.025641
-0.057692
-0.057692
-0.096154
-0.089744
-0.012821
0.17949
0.30128
0.38462
0.46154
0.50641
0.57051
0.58333
0.60897
0.5641
0.55128
0.5
0.3141
0.083333
-0.12179
-0.27564
-0.40385
-0.48077
-0.46154
-0.33333
-0.16667
0.064103
0.24359
0.28846
0.26923
0.21154
0.22436
0.23718
0.26282
0.24359
0.17949
0.16026
0.21795
0.28205
0.26923
0.19872
0.12821
0.076923
0.096154
0.16026
0.16667
0.12821
0.16026
0.17949
0.25641
0.28205
0.23718
0.13462
-0.051282
-0.12821
-0.17308
-0.096154
0
0.11538
0.28846
0.38462
0.47436
0.39744
0.26282
0.15385
0.14103
0.14103
0.089744
0.070513
0.019231
0.012821
0.083333
0.22436
0.25641
0.1859
0.12179
0.057692
0.038462
0.057692
0.096154
0.064103
0.083333
0.070513
0.064103
-0.044872
-0.10897
-0.14744
-0.25641
-0.28846
-0.29487
-0.26282
-0.25
-0.23718
-0.15385
-0.089744
-0.070513
-0.051282
-0.096154
-0.16026
-0.17949
-0.19872
-0.20513
-0.12179
-0.038462
0.012821
-0.019231
-0.038462
-0.032051
0.0064103
0.13462
0.25641
0.29487
0.25641
0.26282
0.22436
0.17308
0.13462
0.20513
0.28205
0.33974
0.42949
0.50641
0.64103
0.78846
0.92949
1
1
0.99359
0.96154
0.9359
0.91667
0.90385
0.78846
0.70513
0.71795
0.80128
0.82051
0.76282
0.69872
0.61538
0.58974
0.57051
0.46154
0.35256
0.32692
0.32051
0.23077
0.11538
0.10256
0.21154
0.33974
0.4359
0.47436
0.4359
0.40385
0.35897
0.28846
0.23718
0.28205
0.34615
0.37179
0.38462
0.37821
0.34615
0.27564
0.25641
0.26923
0.25641
0.23077
0.16026
0.064103
-0.032051
-0.0064103
0.012821
0.096154
0.11538
0.11538
0.14744
0.14103
0.11538
0.057692
-0.038462
-0.064103
-0.038462
0.064103
0.19231
0.37179
0.47436
0.53205
0.48077
0.42308
0.30128
0.15385
0.025641
-0.14103
-0.33333
-0.44872
-0.38462
-0.27564
-0.076923
0.14103
0.37821
0.53205
0.53205
0.41026
0.16026
-0.076923
-0.19231
-0.23077
-0.16667
-0.083333
0.064103
0.12821
0.14103
0.044872
-0.019231
-0.032051
0.064103
0.19231
0.21154
0.23077
0.19231
0.10256
-0.051282
-0.1859
-0.25641
-0.29487
-0.28205
-0.26923
-0.23718
-0.21154
-0.10897
-0.070513
-0.064103
-0.12179
-0.15385
-0.096154
-0.10256
-0.064103
-0.076923
-0.12179
-0.14744
-0.12179
-0.089744
-0.044872
-0.025641
-0.10256
-0.14744
-0.15385
-0.032051
0.064103
0.11538
0.13462
0.076923
0.032051
-0.038462
-0.064103
-0.051282
-0.012821
0.064103
0.057692
0.051282
-0.032051
-0.025641
-0.012821
0.051282
0.076923
0.076923
0.051282
0.012821
-0.0064103
-0.13462
-0.16667
-0.11538
-0.044872
-0.051282
-0.089744
-0.064103
-0.025641
0.076923
0.17308
0.1859
0.10256
-0.032051
-0.14103
-0.21795
-0.22436
-0.17308
-0.10897
-0.10256
-0.10897
-0.12179
-0.12821
-0.057692
0.025641
0.11538
0.17308
0.23077
0.19231
0.089744
-0.019231
-0.089744
-0.14744
-0.24359
-0.26923
-0.28205
-0.29487
-0.3141
-0.33974
-0.32051
-0.28205
-0.22436
-0.20513
-0.17949
-0.13462
-0.032051
-0.019231
-0.10256
-0.16026
-0.23718
-0.27564
-0.25641
-0.14103
-0.057692
-0.032051
0.0064103
-0.089744
-0.25
-0.4359
-0.59615
-0.66026
-0.53846
-0.27564
-0.0064103
0.15385
0.21154
0.23077
0.1859
0.16026
0.19231
0.21154
0.19872
0.14103
0.057692
-0.064103
-0.038462
0.032051
0.051282
-0.012821
-0.10897
-0.089744
-0.051282
0.083333
0.17308
0.20513
0.16026
0.083333
0.10256
0.076923
0.044872
-0.012821
-0.083333
-0.11538
-0.089744
-0.10256
-0.12179
-0.13462
-0.096154
-0.096154
-0.12179
-0.089744
-0.096154
-0.096154
-0.11538
-0.15385
-0.23718
-0.34615
-0.35897
-0.29487
-0.14103
0
0.11538
0.17949
0.1859
0.1859
0.089744
0.0064103
-0.083333
-0.076923
-0.096154
-0.12179
-0.14744
-0.16667
-0.11538
-0.064103
-0.032051
-0.12179
-0.23077
-0.32692
-0.41026
-0.46154
-0.41667
-0.26282
-0.14103
0.044872
0.17308
0.27564
0.30769
0.30769
0.30769
0.28846
0.30128
0.27564
0.21795
0.10256
0.025641
-0.038462
-0.070513
0.0064103
0.14744
0.30769
0.41026
0.44872
0.41667
0.28205
0.10897
0.012821
-0.051282
-0.096154
-0.051282
-0.044872
-0.044872
-0.032051
0.044872
0.089744
0.10256
0.16667
0.1859
0.16026
0.057692
-0.044872
-0.20513
-0.32051
-0.37179
-0.44231
-0.44231
-0.41026
-0.30769
-0.23077
-0.19231
-0.14744
-0.11538
-0.10897
-0.089744
-0.083333
-0.14744
-0.21154
-0.24359
-0.29487
-0.39744
-0.51282
-0.63462
-0.8141
-0.88462
-0.85897
-0.69231
-0.54487
-0.37179
-0.21154
-0.17949
-0.21795
-0.25641
-0.28846
-0.28205
-0.20513
-0.17308
-0.16667
-0.15385
-0.12179
-0.10897
-0.076923
-0.089744
-0.10256
-0.10256
-0.16667
-0.20513
-0.23718
-0.3141
-0.35897
-0.4359
-0.51282
-0.46154
-0.34615
-0.26923
-0.30769
-0.32692
-0.37821
-0.35897
-0.28846
-0.12179
-0.0064103
0.032051
-0.038462
-0.15385
-0.19231
-0.1859
-0.14103
-0.13462
-0.15385
-0.11538
-0.057692
0.064103
0.14103
0.16667
0.025641
-0.14103
-0.23077
-0.24359
-0.17949
-0.064103
0.064103
0.12821
0.1859
0.15385
0.064103
-0.019231
-0.11538
-0.10256
-0.14103
-0.17949
-0.16667
-0.13462
-0.089744
-0.025641
0.057692
0.038462
0.019231
-0.057692
-0.12179
-0.14744
-0.17949
-0.12179
-0.070513
0.057692
0.17949
0.22436
0.23718
0.25
0.21795
0.15385
0.096154
0.064103
0.089744
0.057692
0.057692
0.070513
0.11538
0.21154
0.27564
0.28205
0.1859
0.19231
0.1859
0.26282
0.29487
0.32051
0.21795
0.064103
-0.012821
-0.057692
-0.025641
0.032051
0.12179
0.17308
0.20513
0.28205
0.28846
0.24359
0.11538
0
-0.038462
-0.019231
0.12179
0.27564
0.35256
0.40385
0.4359
0.41667
0.5
0.60897
0.66026
0.60897
0.46795
0.34615
0.21795
0.21154
0.25
0.36538
0.41026
0.44231
0.46154
0.47436
0.58974
0.72436
0.77564
0.73718
0.67308
0.59615
0.50641
0.41026
0.42308
0.49359
0.50641
0.50641
0.44231
0.34615
0.35256
0.40385
0.48077
0.51923
0.5641
0.54487
0.51923
0.50641
0.5641
0.58974
0.5641
0.52564
0.44231
0.37821
0.32692
0.32692
0.28846
0.25
0.23077
0.21795
0.21795
0.23077
0.26923
0.3141
0.36538
0.48077
0.57051
0.5641
0.51923
0.48077
0.4359
0.41026
0.40385
0.33974
0.3141
0.32051
0.38462
0.36538
0.35897
0.30769
0.26923
0.20513
0.16667
0.16667
0.12179
0.14744
0.1859
0.25
0.26282
0.25641
0.30128
0.26923
0.26923
0.28205
0.28846
0.26923
0.23077
0.10897
-0.044872
-0.16026
-0.20513
-0.19872
-0.096154
0.089744
0.21795
0.23077
0.17949
0.14744
0.089744
0.038462
0.051282
0.038462
0.012821
-0.057692
-0.13462
-0.14744
-0.12179
-0.012821
0.038462
0.12179
0.15385
0.17308
0.16667
0.089744
0.057692
-0.032051
-0.064103
-0.064103
0.032051
0.083333
0.096154
0.044872
-0.070513
-0.17949
-0.21154
-0.16026
-0.16026
-0.12821
-0.038462
0.038462
0.10897
0.15385
0.16667
0.11538
0.11538
0.13462
0.14103
0.17949
0.23077
0.35897
0.38462
0.32692
0.17949
0
-0.17308
-0.1859
-0.064103
0.12821
0.3141
0.42308
0.45513
0.41667
0.42308
0.39744
0.34615
0.26923
0.23077
0.16667
0.025641
-0.089744
-0.17308
-0.20513
-0.16667
-0.057692
0
0.025641
0.083333
0.10897
0.12821
0.12821
0.10897
-0.012821
-0.16667
-0.26923
-0.35256
-0.33974
-0.33333
-0.30769
-0.32692
-0.37821
-0.29487
-0.25
-0.22436
-0.23718
-0.23077
-0.19872
-0.10897
-0.012821
0.0064103
-0.025641
-0.096154
-0.089744
-0.14103
-0.14103
-0.14103
-0.14744
-0.16667
-0.21795
-0.20513
-0.24359
-0.23718
-0.24359
-0.26923
-0.25641
-0.19231
-0.032051
0.057692
0.11538
0.11538
0.13462
0.12179
0.13462
0.17949
0.11538
0.083333
0.019231
0.032051
0.044872
0.076923
0.038462
-0.089744
-0.16667
-0.19231
-0.16667
-0.14744
-0.10256
-0.089744
-0.038462
0.019231
0.10256
0.10256
-0.032051
-0.11538
-0.21154
-0.26923
-0.25641
-0.23077
-0.20513
-0.23077
-0.19872
-0.19231
-0.1859
-0.21154
-0.22436
-0.23077
-0.1859
-0.057692
0.012821
0.044872
0.032051
0.012821
-0.11538
-0.23077
-0.27564
-0.32051
-0.3141
-0.33974
-0.28846
-0.30128
-0.27564
-0.28205
-0.25
-0.25
-0.23077
-0.23718
-0.30128
-0.30769
-0.27564
-0.25
-0.30769
-0.35897
-0.37821
-0.41667
-0.40385
-0.35897
-0.34615
-0.35256
-0.32051
-0.32051
-0.44231
-0.64103
-0.85897
-0.98718
-1
-0.85897
-0.61538
-0.39103
-0.23718
-0.21154
-0.25
-0.33333
-0.34615
-0.3141
-0.28205
-0.26923
-0.21795
-0.17949
-0.1859
-0.21154
-0.28846
-0.38462
-0.41026
-0.37179
-0.36538
-0.4359
-0.45513
-0.51923
-0.53205
-0.51923
-0.46154
-0.39103
-0.32051
-0.16667
-0.089744
-0.057692
-0.083333
-0.089744
-0.10897
-0.076923
-0.10256
-0.14103
-0.23077
-0.25
-0.23077
-0.23077
-0.21154
-0.17308
-0.11538
-0.10897
-0.070513
-0.032051
-0.025641
0.019231
0.10897
0.17308
0.22436
0.27564
0.32051
0.26282
0.23718
0.23077
0.28205
0.32051
0.40385
0.4359
0.40385
0.38462
0.36538
0.32692
0.23718
0.21154
0.19872
0.21154
0.21154
0.24359
0.30769
0.32051
0.35256
0.26923
0.22436
0.27564
0.37179
0.37821
0.29487
0.20513
0.076923
-0.083333
-0.24359
-0.32051
-0.34615
-0.3141
-0.19231
-0.10256
-0.057692
-0.0064103
0.032051
0.019231
-0.064103
-0.076923
-0.16667
-0.23718
-0.3141
-0.33974
-0.41026
-0.37821
-0.34615
-0.34615
-0.38462
-0.41667
-0.39744
-0.37821
-0.29487
-0.17308
-0.064103
0.019231
0.051282
0.14103
0.12821
0.12821
0.13462
0.13462
0.089744
0.044872
-0.025641
-0.14744
-0.1859
-0.11538
0.019231
0.14103
0.23718
0.25641
0.1859
0.038462
-0.064103
-0.076923
0.019231
0.13462
0.19231
0.16026
0.13462
0.10897
0.064103
-0.019231
-0.064103
-0.070513
-0.012821
0.10897
0.21154
0.21795
0.11538
0.064103
0.0064103
-0.0064103
0.070513
0.19872
0.27564
0.21154
0.14103
0.064103
0.012821
0.038462
0.096154
0.13462
0.1859
0.22436
0.17949
0.11538
0.083333
0.10897
0.083333
0.076923
0.14744
0.17308
0.17308
0.11538
0.11538
0.10897
0.13462
0.16667
0.12821
0.083333
0.019231
0.0064103
-0.070513
-0.051282
-0.025641
0.083333
0.13462
0.24359
0.36538
0.4359
0.46795
0.50641
0.51923
0.46795
0.42308
0.33333
0.25641
0.23077
0.22436
0.23718
0.21154
0.23077
0.23718
0.21795
0.24359
0.26923
0.30128
0.25641
0.28846
0.21795
0.15385
0.10897
0.057692
0.0064103
-0.038462
0.032051
0.038462
0.019231
0.064103
0.10897
0.16026
0.096154
0.064103
0
0.089744
0.14744
0.22436
0.25
0.25641
0.30128
0.30128
0.27564
0.27564
0.39103
0.50641
0.61538
0.73718
0.78205
0.77564
0.75
0.70513
0.59615
0.55128
0.5
0.50641
0.46795
0.44231
0.46154
0.39744
0.46154
0.55769
0.69231
0.75
0.74359
0.73718
0.69872
0.67308
0.60897
0.48077
0.37179
0.33974
0.33333
0.35897
0.38462
0.37179
0.34615
0.3141
0.3141
0.29487
0.27564
0.22436
0.21154
0.16026
0.064103
-0.019231
-0.096154
-0.19872
-0.30128
-0.30769
-0.25
-0.10897
0.089744
0.21795
0.28205
0.23718
0.23718
0.19872
0.21154
0.28846
0.34615
0.34615
0.35256
0.35897
0.33333
0.3141
0.28846
0.23718
0.19231
0.16026
0.12179
-0.0064103
-0.12821
-0.22436
-0.25641
-0.28205
-0.27564
-0.21154
-0.20513
-0.19231
-0.22436
-0.24359
-0.24359
-0.1859
-0.12179
-0.064103
0.070513
0.17949
0.25
0.20513
0.10897
0.032051
-0.089744
-0.12821
-0.089744
0.044872
0.096154
0.14103
0.12179
0.083333
0.076923
0.16026
0.19231
0.21154
0.28205
0.32051
0.30769
0.25641
0.21154
0.23077
0.25
0.28846
0.22436
0.14103
0.070513
-0.0064103
-0.057692
-0.14744
-0.1859
-0.23077
-0.23718
-0.25
-0.24359
-0.25
-0.23718
-0.14744
0.019231
0.10897
0.26282
0.32692
0.33333
0.30128
0.30128
0.34615
0.34615
0.32692
0.24359
0.13462
0.076923
0.096154
0.11538
0.13462
0.089744
0.089744
0.076923
0.14744
0.28205
0.37821
0.41667
0.48718
0.63462
0.72436
0.77564
0.83333
0.90385
0.94231
0.97436
0.90385
0.78205
0.62179
0.5
0.41667
0.36538
0.35256
0.33974
0.30769
0.24359
0.21154
0.17949
0.15385
0.14103
0.064103
0.012821
0.032051
0.12179
0.17949
0.16026
0.16667
0.089744
0.012821
-0.064103
-0.12821
-0.1859
-0.28205
-0.28205
-0.32051
-0.26923
-0.25
-0.17308
-0.14103
-0.12821
-0.12821
-0.14744
-0.16026
-0.16026
-0.12179
-0.21154
-0.3141
-0.39103
-0.37821
-0.27564
-0.14744
0
0.057692
0.076923
0.089744
0.051282
-0.025641
-0.10897
-0.14744
-0.1859
-0.14744
-0.064103
0.070513
0.12821
0.19872
0.19872
0.096154
-0.019231
-0.1859
-0.32692
-0.44231
-0.47436
-0.45513
-0.45513
-0.42949
-0.39744
-0.37179
-0.33333
-0.28205
-0.23077
-0.22436
-0.24359
-0.19872
-0.14103
-0.1859
-0.14744
-0.11538
-0.038462
0
0.14103
0.25641
0.33333
0.38462
0.32692
0.20513
0.076923
0.032051
0.044872
0.044872
0.057692
0.019231
-0.038462
-0.044872
0.012821
0.038462
0.070513
0.064103
0.025641
-0.025641
-0.064103
-0.070513
-0.16026
-0.16667
-0.11538
-0.019231
0.044872
0.057692
0.10897
0.096154
0.14744
0.16667
0.21154
0.19231
0.083333
0.044872
-0.038462
-0.064103
-0.019231
-0.012821
-0.051282
-0.025641
-0.0064103
-0.0064103
0.032051
0.038462
0.0064103
-0.13462
-0.21154
-0.28846
-0.35897
-0.35897
-0.28846
-0.16026
-0.083333
-0.0064103
0
-0.064103
-0.064103
-0.038462
0.012821
0.0064103
0.019231
-0.025641
-0.051282
-0.076923
-0.025641
0.038462
0.038462
0
-0.044872
-0.0064103
0.044872
0.076923
-0.025641
-0.10897
-0.10897
-0.057692
-0.096154
-0.16026
-0.19231
-0.21154
-0.17308
-0.12821
-0.10897
-0.083333
-0.019231
0.051282
0.025641
-0.019231
-0.012821
0.070513
0.21154
0.33974
0.45513
0.44231
0.40385
0.36538
0.35897
0.37179
0.36538
0.40385
0.35256
0.37179
0.4359
0.51923
0.54487
0.53205
0.37179
0.26282
0.1859
0.17949
0.15385
0.076923
0.083333
0.089744
0.070513
0.096154
0.17949
0.26282
0.29487
0.32051
0.26282
0.25
0.26282
0.34615
0.41026
0.38462
0.42308
0.35897
0.34615
0.35897
0.35256
0.32051
0.23718
0.25641
0.28205
0.27564
0.1859
0.13462
0.070513
0.070513
0.10897
0.12179
0.16026
0.17949
0.23718
0.28846
0.36538
0.51282
0.53846
0.4359
0.25641
0.096154
-0.032051
-0.032051
-0.0064103
0.064103
0.038462
0.076923
0.11538
0.089744
0.12179
0.15385
0.23718
0.26282
0.26923
0.26923
0.27564
0.34615
0.39744
0.40385
0.34615
0.33333
0.34615
0.32692
0.23077
0.16667
0.11538
0.012821
0
0.0064103
-0.019231
-0.10256
-0.19872
-0.23077
-0.15385
-0.012821
0
-0.12179
-0.33333
-0.51282
-0.55769
-0.52564
-0.34615
-0.21154
-0.13462
-0.14103
-0.14744
-0.21795
-0.28846
-0.25641
-0.26282
-0.30128
-0.35256
-0.32692
-0.29487
-0.26923
-0.23077
-0.26923
-0.38462
-0.46795
-0.45513
-0.41667
-0.3141
-0.17949
-0.10897
-0.14744
-0.28205
-0.45513
-0.65385
-0.76923
-0.82692
-0.77564
-0.69872
-0.49359
-0.33974
-0.27564
-0.26923
-0.26282
-0.23077
-0.21795
-0.21795
-0.21795
-0.30769
-0.3141
-0.28205
-0.24359
-0.28205
-0.35897
-0.39744
-0.37821
-0.23077
-0.032051
0.10897
0.14103
0.11538
-0.0064103
-0.15385
-0.22436
-0.27564
-0.3141
-0.40385
-0.42949
-0.4359
-0.44231
-0.45513
-0.37821
-0.28846
-0.16026
-0.044872
-0.044872
-0.13462
-0.23077
-0.23718
-0.15385
-0.032051
0.012821
-0.0064103
-0.14744
-0.23718
-0.21795
-0.1859
-0.15385
-0.13462
-0.17949
-0.20513
-0.20513
-0.13462
-0.17308
-0.26282
-0.36538
-0.44231
-0.44231
-0.39103
-0.28205
-0.23077
-0.12179
-0.070513
-0.012821
-0.051282
-0.11538
-0.070513
-0.076923
0.019231
0.096154
0.083333
-0.019231
-0.12179
-0.16667
-0.21154
-0.23077
-0.19231
-0.16667
-0.12179
-0.032051
0.089744
0.17949
0.21154
0.28846
0.38462
0.49359
0.53846
0.54487
0.5
0.5
0.52564
0.53205
0.50641
0.57051
0.58974
0.59615
0.55128
0.42308
0.23718
0.0064103
-0.16667
-0.22436
-0.27564
-0.15385
-0.044872
0.032051
-0.044872
-0.11538
-0.21154
-0.26923
-0.22436
-0.057692
0.070513
0.21795
0.34615
0.35256
0.32692
0.26923
0.25641
0.16667
0.057692
-0.038462
-0.10897
-0.14744
-0.14744
-0.12821
-0.17949
-0.23077
-0.28205
-0.28205
-0.28205
-0.19231
-0.032051
0.051282
0.096154
0.044872
-0.096154
-0.23718
-0.29487
-0.19872
-0.10897
-0.0064103
0.032051
-0.032051
-0.1859
-0.30769
-0.41026
-0.42308
-0.42949
-0.33333
-0.27564
-0.22436
-0.15385
-0.12179
-0.064103
-0.012821
0.083333
0.12179
0.12179
0.1859
0.20513
0.25
0.30128
0.33974
0.32051
0.21154
0.17308
0.15385
0.13462
0.15385
0.17949
0.20513
0.24359
0.30769
0.32051
0.32051
0.30128
0.36538
0.38462
0.40385
0.39744
0.33333
0.27564
0.21154
0.17308
0.1859
0.22436
0.28846
0.33333
0.33974
0.28846
0.21795
0.12821
0.16667
0.25
0.37179
0.37821
0.32692
0.19231
0.051282
0.019231
0.11538
0.25641
0.33333
0.38462
0.42308
0.39744
0.42308
0.48077
0.52564
0.49359
0.47436
0.4359
0.39103
0.37821
0.37179
0.32692
0.27564
0.29487
0.39744
0.46795
0.51282
0.5
0.46154
0.42308
0.37821
0.27564
0.17949
0.16026
0.28205
0.39744
0.48718
0.59615
0.64103
0.6859
0.69872
0.73077
0.72436
0.64744
0.58333
0.51282
0.48077
0.51923
0.63462
0.67949
0.73077
0.75
0.72436
0.64103
0.54487
0.51282
0.48077
0.49359
0.51923
0.49359
0.41667
0.34615
0.39103
0.46154
0.5641
0.62179
0.54487
0.38462
0.23718
0.19231
0.20513
0.29487
0.44872
0.60256
0.69231
0.76282
0.80769
0.80128
0.72436
0.69231
0.66667
0.67949
0.75
0.78846
0.78846
0.75
0.75
0.74359
0.72436
0.74359
0.76923
0.78205
0.78846
0.8141
0.80128
0.80128
0.85897
0.90385
0.89103
0.80769
0.71154
0.58974
0.50641
0.49359
0.47436
0.44872
0.44231
0.5
0.57051
0.67308
0.76282
0.73077
0.64103
0.55128
0.57692
0.59615
0.6859
0.75641
0.80128
0.75
0.66026
0.58333
0.48718
0.50641
0.58333
0.60256
0.55128
0.44231
0.35897
0.24359
0.19872
0.14744
0.12821
0.051282
0.025641
0.019231
0.0064103
-0.012821
0.0064103
-0.019231
-0.064103
-0.13462
-0.23077
-0.33974
-0.42949
-0.44872
-0.44231
-0.44872
-0.40385
-0.33333
-0.34615
-0.34615
-0.37821
-0.37179
-0.37179
-0.27564
-0.17949
-0.096154
-0.044872
-0.019231
-0.032051
-0.089744
-0.089744
-0.12821
-0.16667
-0.19231
-0.23077
-0.28205
-0.37821
-0.39103
-0.37821
-0.37821
-0.35897
-0.36538
-0.42949
-0.44231
-0.42949
-0.39744
-0.41667
-0.51282
-0.57692
-0.67308
-0.71154
-0.71154
-0.6859
-0.64744
-0.57692
-0.49359
-0.46154
-0.41667
-0.33974
-0.34615
-0.42949
-0.53205
-0.5641
-0.61538
-0.57692
-0.5
-0.37821
-0.32692
-0.29487
-0.32051
-0.46154
-0.61538
-0.77564
-0.82692
-0.77564
-0.55769
-0.37821
-0.32051
-0.30769
-0.30128
-0.37821
-0.40385
-0.33974
-0.27564
-0.22436
-0.29487
-0.37179
-0.4359
-0.47436
-0.41026
-0.33974
-0.26282
-0.25
-0.23718
-0.25641
-0.33333
-0.34615
-0.38462
-0.39744
-0.39103
-0.37821
-0.45513
-0.57051
-0.57051
-0.58974
-0.52564
-0.44231
-0.32692
-0.28205
-0.30128
-0.36538
-0.40385
-0.39744
-0.41026
-0.37179
-0.45513
-0.51282
-0.49359
-0.5
-0.53846
-0.58333
-0.53846
-0.45513
-0.3141
-0.17949
-0.070513
-0.12179
-0.16667
-0.19231
-0.19231
-0.17308
-0.13462
-0.083333
-0.038462
0.057692
0.17949
0.27564
0.36538
0.45513
0.51282
0.45513
0.45513
0.44231
0.4359
0.4359
0.42949
0.38462
0.3141
0.30769
0.32051
0.33333
0.33333
0.39103
0.37179
0.37179
0.36538
0.3141
0.25641
0.26282
0.3141
0.39744
0.48077
0.50641
0.49359
0.46795
0.45513
0.44231
0.46795
0.50641
0.51923
0.4359
0.37179
0.28846
0.19872
0.083333
-0.0064103
0.0064103
-0.012821
-0.032051
0.019231
0.10256
0.16667
0.16026
0.16026
0.083333
0.10256
0.16667
0.25
0.29487
0.30769
0.34615
0.33974
0.37821
0.35256
0.26282
0.12179
0.070513
0.083333
0.096154
0.17308
0.28205
0.33974
0.33333
0.27564
0.12179
0.032051
-0.051282
-0.038462
0.057692
0.15385
0.24359
0.25
0.21154
0.1859
0.25
0.29487
0.28205
0.34615
0.34615
0.34615
0.26282
0.21154
0.15385
0.083333
0.038462
-0.064103
-0.12821
-0.14103
-0.057692
0.0064103
0.076923
0.14744
0.20513
0.19872
0.16667
0.12821
0.12821
0.076923
0.083333
0.076923
0.0064103
-0.064103
-0.083333
-0.12821
-0.16026
-0.20513
-0.19872
-0.17308
-0.12821
-0.070513
-0.10897
-0.12821
-0.11538
-0.12821
-0.19872
-0.27564
-0.35897
-0.45513
-0.47436
-0.42949
-0.33974
-0.27564
-0.10256
0.012821
0.12821
0.14103
0.16667
0.14744
0.076923
0.051282
0.0064103
-0.025641
0.0064103
0.025641
0.064103
0.057692
0.089744
0.12821
0.11538
0.096154
0.14744
0.21795
0.23718
0.23077
0.12821
0.025641
-0.0064103
0.051282
0.12179
0.14103
0.21795
0.23718
0.23718
0.16026
0.12821
0.096154
0.10256
0.14103
0.13462
0.076923
-0.0064103
-0.025641
-0.057692
-0.019231
0.012821
-0.032051
-0.10897
-0.17949
-0.16667
-0.1859
-0.11538
-0.051282
-0.044872
-0.051282
-0.044872
0.076923
0.14103
0.1859
0.14744
0.044872
-0.14103
-0.20513
-0.17949
-0.19872
-0.21795
-0.26282
-0.19872
-0.12821
-0.0064103
0.038462
0.019231
0.038462
0.051282
0.0064103
-0.051282
-0.025641
0.0064103
0.057692
0.038462
0.025641
-0.019231
-0.14103
-0.23077
-0.25641
-0.20513
-0.070513
0.089744
0.14744
0.13462
0.14103
0.038462
-0.070513
-0.19872
-0.23077
-0.19231
-0.10897
0.096154
0.21154
0.24359
0.21154
0.20513
0.21154
0.23718
0.24359
0.21154
0.10897
-0.032051
-0.12821
-0.23718
-0.19872
-0.10256
-0.044872
0.025641
0.025641
0.10897
0.076923
0.057692
0.044872
0.064103
0.064103
0.083333
0.10256
-0.032051
-0.16667
-0.32692
-0.35897
-0.35897
-0.25
-0.096154
0.038462
0.12179
0.14103
0.14103
0.032051
-0.044872
-0.14103
-0.21795
-0.21154
-0.096154
-0.025641
-0.0064103
0.012821
0.089744
0.15385
0.23718
0.27564
0.25641
0.11538
-0.019231
-0.23718
-0.42308
-0.46154
-0.38462
-0.28205
-0.25
-0.16667
-0.16667
-0.15385
-0.16667
-0.17308
-0.19231
-0.23718
-0.21154
-0.23077
-0.28846
-0.35897
-0.36538
-0.39103
-0.37179
-0.30128
-0.21795
-0.20513
-0.20513
-0.17308
-0.21795
-0.16667
-0.12179
-0.11538
-0.20513
-0.32692
-0.36538
-0.33974
-0.19872
-0.044872
0.064103
0.070513
0
-0.089744
-0.15385
-0.17308
-0.10256
-0.025641
0.057692
0.16667
0.26282
0.28205
0.30769
0.37179
0.45513
0.48718
0.46154
0.36538
0.19231
0.083333
0.025641
-0.032051
-0.064103
-0.064103
-0.089744
-0.096154
-0.089744
-0.057692
0.012821
0.012821
0.096154
0.15385
0.19872
0.23718
0.25
0.21795
0.13462
0.051282
-0.038462
-0.10897
-0.089744
0.0064103
0.13462
0.23718
0.25
0.16026
0
-0.064103
-0.044872
-0.070513
-0.13462
-0.26282
-0.36538
-0.44872
-0.46795
-0.41026
-0.37821
-0.29487
-0.19872
-0.11538
-0.044872
0.032051
0.083333
-0.038462
-0.12179
-0.17949
-0.16026
-0.14103
-0.14744
-0.16667
-0.1859
-0.12821
-0.019231
0.070513
0.025641
0.025641
0.019231
0.051282
0.10897
0.089744
0.0064103
-0.16667
-0.26282
-0.30769
-0.33333
-0.30769
-0.22436
-0.12179
-0.044872
0.051282
0.070513
0.076923
0.032051
-0.038462
-0.076923
-0.12821
-0.076923
-0.064103
-0.10897
-0.12179
-0.10897
-0.16667
-0.26282
-0.29487
-0.33974
-0.29487
-0.26282
-0.19872
-0.23718
-0.23718
-0.21154
-0.16667
-0.17949
-0.19231
-0.23718
-0.30128
-0.32051
-0.30128
-0.30128
-0.33333
-0.37179
-0.32051
-0.26923
-0.21795
-0.15385
-0.10256
-0.083333
-0.032051
-0.0064103
-0.012821
0.044872
0.057692
0.10256
0.089744
0.12179
0.13462
0.10897
0.083333
0.032051
0.012821
-0.019231
-0.019231
0.019231
-0.044872
-0.083333
-0.089744
-0.051282
-0.070513
-0.064103
-0.096154
-0.051282
0
0.051282
0.051282
0.0064103
-0.025641
-0.057692
-0.10256
-0.057692
0.089744
0.19872
0.17308
0.12821
-0.012821
-0.13462
-0.19231
-0.14103
-0.025641
0.12179
0.26282
0.26923
0.23077
0.1859
0.19872
0.20513
0.20513
0.27564
0.28205
0.21154
0.032051
-0.038462
-0.12179
-0.10897
-0.070513
-0.11538
-0.19872
-0.23718
-0.16667
-0.16026
-0.12179
-0.11538
-0.12179
-0.064103
-0.038462
-0.025641
-0.057692
-0.064103
-0.019231
-0.0064103
-0.083333
-0.21154
-0.32051
-0.46154
-0.50641
-0.44231
-0.39103
-0.33333
-0.25
-0.12821
0.032051
0.15385
0.19231
0.19872
0.12821
0.19231
0.19231
0.14744
0.089744
0.089744
0.20513
0.27564
0.33333
0.21795
0.076923
0.019231
0.11538
0.22436
0.29487
0.33333
0.26282
0.21154
0.21154
0.28205
0.35256
0.42308
0.47436
0.50641
0.47436
0.46154
0.42949
0.35897
0.26282
0.21795
0.16667
0.12179
0.064103
0.070513
0.057692
0.076923
0.12821
0.064103
-0.038462
-0.14744
-0.17308
-0.16026
-0.057692
0.0064103
0.038462
-0.0064103
0.051282
0.13462
0.17308
0.14103
0.10897
0.038462
0.019231
-0.076923
-0.089744
-0.16667
-0.19231
-0.1859
-0.16667
-0.12821
0.0064103
0.10897
0.10897
0.076923
0.019231
-0.019231
-0.064103
-0.0064103
-0.019231
-0.089744
-0.21154
-0.28846
-0.29487
-0.30128
-0.22436
-0.19872
-0.16667
-0.1859
-0.21154
-0.25641
-0.28846
-0.1859
-0.10897
-0.019231
0.012821
-0.076923
-0.25641
-0.48077
-0.60897
-0.67949
-0.66026
-0.52564
-0.30769
-0.10897
-0.0064103
0.019231
-0.051282
-0.17308
-0.29487
-0.29487
-0.32051
-0.26923
-0.23077
-0.17949
-0.16026
-0.12179
-0.0064103
0.064103
0.19872
0.29487
0.32051
0.28846
0.21154
0.17308
0.089744
0.057692
0.051282
0.096154
0.089744
0.12179
0.12821
0.12179
0.051282
-0.070513
-0.22436
-0.34615
-0.35256
-0.34615
-0.32692
-0.26282
-0.14744
-0.012821
-0.025641
-0.096154
-0.17949
-0.22436
-0.16026
-0.089744
-0.044872
-0.057692
0.012821
0.038462
0.083333
0.012821
-0.051282
-0.14103
-0.20513
-0.17949
-0.14103
-0.070513
-0.0064103
0.051282
0.044872
0
-0.0064103
-0.083333
-0.12179
-0.19231
-0.23718
-0.35256
-0.47436
-0.48077
-0.42308
-0.33974
-0.33974
-0.30128
-0.32692
-0.23077
-0.10897
0.019231
0.12179
0.10897
0.10256
0.0064103
-0.025641
-0.064103
-0.032051
-0.070513
-0.032051
0.051282
0.10256
0.19231
0.23077
0.21154
0.064103
-0.044872
-0.083333
-0.070513
0.019231
0.10256
0.13462
0.051282
0.051282
0.076923
0.15385
0.23077
0.26282
0.25641
0.19231
0.16667
0.13462
0.11538
0.044872
0
-0.070513
-0.15385
-0.12821
-0.051282
0.076923
0.11538
0.076923
-0.032051
-0.10897
-0.025641
0.051282
0.096154
0.038462
0.032051
-0.012821
-0.038462
-0.019231
-0.038462
-0.076923
-0.10897
-0.10256
-0.17949
-0.16667
-0.17308
-0.1859
-0.19231
-0.1859
-0.019231
0.076923
0.19231
0.19231
0.064103
-0.15385
-0.29487
-0.27564
-0.20513
-0.070513
0.064103
0.15385
0.17949
0.16667
0.15385
0.083333
0.057692
-0.0064103
-0.019231
-0.070513
-0.089744
-0.089744
-0.096154
-0.038462
0.044872
0.12821
0.16667
0.22436
0.14744
0.057692
-0.012821
-0.012821
0.044872
0.044872
0.064103
0.012821
-0.064103
-0.13462
-0.096154
-0.064103
0.044872
0.19872
0.26282
0.21154
0.089744
0.032051
-0.025641
-0.032051
0.070513
0.12179
0.16026
0.12179
0.096154
0.0064103
-0.051282
-0.0064103
0.057692
0.17308
0.22436
0.19872
0.051282
-0.096154
-0.096154
-0.076923
-0.070513
0
-0.032051
-0.10256
-0.14744
-0.11538
-0.038462
-0.044872
-0.083333
-0.057692
-0.044872
0.012821
0.11538
0.21154
0.24359
0.28846
0.28846
0.25641
0.23077
0.16667
0.044872
-0.10256
-0.21795
-0.30769
-0.35897
-0.39744
-0.35897
-0.3141
-0.25641
-0.15385
-0.13462
-0.14103
-0.19872
-0.24359
-0.29487
-0.3141
-0.15385
0.025641
0.1859
0.26923
0.27564
0.21154
0.19231
0.21154
0.23718
0.28846
0.32692
0.40385
0.35256
0.24359
0.13462
-0.012821
-0.14744
-0.26282
-0.27564
-0.22436
-0.10256
0.038462
0.096154
0.10897
0.10897
0.12179
0.16667
0.23077
0.21795
0.19872
0.057692
-0.038462
-0.083333
-0.20513
-0.22436
-0.19231
-0.089744
0.038462
0.10897
0.16026
0.12179
0.10256
0.019231
0.032051
0.038462
0.10256
0.13462
0.10897
0.11538
0.11538
0.14103
0.11538
0.083333
0.070513
-0.012821
-0.096154
-0.12179
-0.17308
-0.16667
-0.14103
-0.17308
-0.20513
-0.24359
-0.25641
-0.29487
-0.33974
-0.30128
-0.27564
-0.23718
-0.23077
-0.1859
-0.20513
-0.21795
-0.22436
-0.25641
-0.28205
-0.25
-0.070513
0.076923
0.12179
0.076923
-0.038462
-0.14744
-0.14103
-0.089744
-0.076923
-0.076923
-0.10256
-0.14103
-0.17949
-0.16667
0
0.17949
0.25
0.26282
0.12821
0.032051
0.032051
0.14744
0.22436
0.29487
0.33974
0.34615
0.27564
0.24359
0.21154
0.17308
0.21154
0.29487
0.39103
0.41667
0.44231
0.46795
0.49359
0.53205
0.58974
0.65385
0.66026
0.65385
0.57051
0.46154
0.38462
0.41026
0.5
0.55769
0.61538
0.58974
0.52564
0.47436
0.48718
0.47436
0.49359
0.51282
0.50641
0.48077
0.42949
0.40385
0.30128
0.1859
0.16026
0.19231
0.24359
0.32692
0.35897
0.41026
0.41667
0.44872
0.44231
0.41667
0.39103
0.41026
0.35256
0.35256
0.35256
0.3141
0.22436
0.17308
0.23718
0.35256
0.51282
0.64103
0.71795
0.69231
0.62179
0.53205
0.35897
0.35897
0.34615
0.34615
0.28205
0.25641
0.25
0.23077
0.16026
0.14103
0.20513
0.26282
0.41667
0.58974
0.67949
0.75
0.65385
0.52564
0.26282
-0.14103
-0.25641
-0.32692
-0.10897
0.19231
0.35256
0.4359
0.65385
0.67949
0.59615
0.39103
0.17308
-0.019231
-0.19872
-0.15385
-0.13462
-0.083333
-0.083333
-0.038462
-0.012821
0.0064103
0.019231
0.012821
0.0064103
0.038462
0.11538
0.14103
0.13462
0.076923
-0.044872
-0.20513
-0.32692
-0.33974
-0.30128
-0.16667
0.0064103
0.21154
0.32051
0.32692
0.28205
0.14744
0.057692
0.025641
0.025641
0.032051
0.012821
0
-0.064103
-0.089744
-0.051282
0.051282
0.089744
0.070513
0.11538
0.14103
0.17308
0.21795
0.14744
0
-0.10897
-0.14744
-0.23718
-0.26923
-0.26923
-0.23718
-0.19231
-0.096154
-0.032051
-0.019231
-0.025641
-0.096154
-0.23077
-0.37821
-0.4359
-0.44872
-0.44872
-0.42949
-0.42949
-0.42949
-0.38462
-0.30128
-0.1859
-0.10897
-0.025641
0.051282
0.0064103
-0.083333
-0.044872
-0.012821
0.044872
0.032051
-0.025641
-0.16026
-0.19872
-0.15385
-0.070513
-0.051282
-0.070513
-0.070513
-0.096154
0.012821
0.14744
0.29487
0.35897
0.35256
0.3141
0.14744
-0.0064103
-0.051282
0.038462
0.076923
0.083333
0.057692
-0.019231
-0.083333
-0.076923
-0.089744
-0.038462
0.012821
0.070513
-0.012821
-0.076923
-0.15385
-0.1859
-0.21154
-0.14744
-0.10256
-0.057692
-0.096154
-0.083333
-0.064103
-0.064103
-0.064103
-0.16026
-0.29487
-0.42308
-0.42308
-0.37821
-0.23718
-0.051282
0.089744
0.13462
0.070513
-0.012821
-0.064103
-0.076923
-0.0064103
0.044872
0.038462
0.025641
0.038462
-0.012821
-0.0064103
0.051282
0.089744
0.070513
-0.025641
-0.10256
-0.21154
-0.26282
-0.27564
-0.3141
-0.37179
-0.40385
-0.36538
-0.33333
-0.26923
-0.19231
-0.13462
-0.12821
-0.16026
-0.20513
-0.21154
-0.15385
-0.025641
0.057692
0.076923
0.089744
0.11538
0.064103
0.019231
-0.032051
-0.076923
-0.14744
-0.14103
-0.083333
-0.012821
0.10897
0.23077
0.30769
0.29487
0.28205
0.25641
0.19872
0.19231
0.23077
0.37821
0.51282
0.64744
0.67949
0.66667
0.66026
0.70513
0.73718
0.71795
0.71795
0.63462
0.48718
0.35897
0.33333
0.37821
0.47436
0.60256
0.64103
0.58974
0.46154
0.35897
0.22436
0.13462
0.21154
