-0.35747
-0.42986
-0.47511
-0.47511
-0.56561
-0.69231
-0.78281
-0.79186
-0.73756
-0.68326
-0.54751
-0.41176
-0.31222
-0.26697
-0.28507
-0.31222
-0.39367
-0.31222
-0.33032
-0.25792
-0.17647
-0.12217
-0.17647
-0.28507
-0.24887
-0.21267
-0.20362
-0.23982
-0.27602
-0.28507
-0.29412
-0.28507
-0.30317
-0.37557
-0.38462
-0.29412
-0.26697
-0.15837
-0.16742
-0.23982
-0.34842
-0.38462
-0.24887
-0.10407
0.095023
0.23077
0.26697
0.25792
0.23982
0.27602
0.23982
0.21267
0.14932
0.085973
-0.013575
-0.095023
-0.058824
-0.14932
-0.21267
-0.25792
-0.23982
-0.27602
-0.28507
-0.30317
-0.33937
-0.27602
-0.14932
-0.013575
0.0045249
-0.013575
0.013575
0.067873
0.21267
0.33032
0.36652
0.25792
0.23077
0.23077
0.22172
0.19457
0.17647
0.095023
0.013575
-0.058824
-0.17647
-0.34842
-0.43891
-0.41176
-0.35747
-0.35747
-0.32127
-0.34842
-0.36652
-0.29412
-0.10407
0.040724
0.17647
0.30317
0.25792
0.14932
-0.040724
-0.19457
-0.33032
-0.28507
-0.14932
-0.013575
0.022624
0.013575
-0.058824
-0.16742
-0.21267
-0.19457
-0.21267
-0.23077
-0.22172
-0.14027
-0.20362
-0.14932
-0.15837
-0.14932
-0.21267
-0.32127
-0.46606
-0.68326
-0.86425
-0.93665
-0.8914
-0.86425
-0.66516
-0.42081
-0.11312
0.067873
0.15837
0.095023
-0.058824
-0.10407
-0.16742
-0.30317
-0.39367
-0.48416
-0.55656
-0.65611
-0.64706
-0.56561
-0.45701
-0.26697
-0.12217
-0.10407
-0.16742
-0.17647
-0.26697
-0.26697
-0.33032
-0.29412
-0.23077
-0.17647
-0.12217
-0.21267
-0.43891
-0.64706
-0.60181
-0.55656
-0.33032
-0.11312
0.076923
0.21267
0.27602
0.39367
0.41176
0.42986
0.33032
0.14932
-0.085973
-0.29412
-0.30317
-0.38462
-0.28507
-0.23982
-0.27602
-0.39367
-0.50226
-0.42986
-0.37557
-0.23982
-0.17647
-0.17647
-0.24887
-0.21267
-0.14027
-0.15837
-0.11312
-0.058824
0.0045249
-0.040724
-0.11312
-0.19457
-0.29412
-0.33032
-0.29412
-0.24887
-0.19457
-0.10407
-0.0045249
0.067873
0.10407
0.095023
0.095023
0.031674
0.058824
0.022624
0.013575
0.0045249
0.076923
0.10407
0.031674
0.022624
-0.031674
-0.031674
0.067873
0.15837
0.24887
0.25792
0.26697
0.11312
-0.11312
-0.33032
-0.46606
-0.52941
-0.49321
-0.37557
-0.29412
-0.38462
-0.48416
-0.51131
-0.40271
-0.14932
0.095023
0.23982
0.29412
0.35747
0.44796
0.34842
0.24887
0.23982
0.22172
0.13122
-0.040724
-0.15837
-0.23077
-0.14027
0.031674
0.19457
0.29412
0.34842
0.40271
0.40271
0.41176
0.47511
0.46606
0.39367
0.30317
0.23077
0.14027
0.0045249
-0.14932
-0.23982
-0.34842
-0.28507
-0.22172
-0.15837
-0.095023
-0.11312
-0.14027
-0.23077
-0.23077
-0.24887
-0.23982
-0.25792
-0.14932
-0.13122
-0.19457
-0.23077
-0.31222
-0.33937
-0.29412
-0.19457
-0.058824
0.022624
0.085973
0.049774
-0.022624
-0.0045249
0.12217
0.14027
0.15837
0.12217
0.031674
-0.085973
-0.20362
-0.23982
-0.33032
-0.42081
-0.44796
-0.43891
-0.37557
-0.32127
-0.20362
-0.21267
-0.20362
-0.17647
-0.15837
-0.24887
-0.25792
-0.24887
-0.22172
-0.12217
-0.040724
0.0045249
0.022624
0.076923
0.11312
0.076923
0.095023
0.13122
0.20362
0.18552
0.15837
0.14027
0.12217
0.085973
0.031674
0.022624
-0.013575
0.085973
0.14932
0.20362
0.18552
0.21267
0.23077
0.21267
0.30317
0.30317
0.29412
0.28507
0.32127
0.33937
0.36652
0.38462
0.36652
0.30317
0.23982
0.24887
0.25792
0.33937
0.50226
0.57466
0.57466
0.48416
0.41176
0.33032
0.23077
0.15837
-0.0045249
-0.18552
-0.35747
-0.44796
-0.46606
-0.35747
-0.23982
-0.15837
-0.10407
-0.049774
0.085973
0.13122
0.11312
0.076923
-0.076923
-0.18552
-0.27602
-0.16742
-0.058824
0.040724
0.095023
0.076923
-0.022624
-0.040724
0.022624
0.12217
0.16742
0.20362
0.16742
0.076923
0.049774
-0.013575
-0.013575
-0.022624
0.040724
0.13122
0.13122
0.20362
0.11312
0.076923
0.049774
0.18552
0.18552
0.049774
-0.067873
-0.21267
-0.27602
-0.23982
-0.10407
-0.031674
0.049774
0.16742
0.18552
0.14027
0.058824
0.058824
0.049774
0.14027
0.25792
0.34842
0.38462
0.36652
0.42081
0.39367
0.42986
0.42081
0.30317
0.067873
-0.14932
-0.27602
-0.36652
-0.29412
-0.22172
-0.067873
-0.031674
-0.013575
0.11312
0.085973
0.16742
0.23982
0.30317
0.30317
0.24887
0.16742
-0.022624
-0.13122
-0.067873
0.058824
0.17647
0.30317
0.33032
0.27602
0.12217
0.058824
0.013575
-0.031674
-0.049774
-0.10407
-0.095023
-0.11312
-0.10407
-0.12217
-0.14027
-0.076923
-0.085973
-0.12217
-0.26697
-0.26697
-0.19457
-0.085973
0.0045249
-0.013575
-0.16742
-0.24887
-0.17647
0.0045249
0.040724
0.049774
-0.14932
-0.32127
-0.39367
-0.26697
-0.20362
-0.14932
-0.095023
-0.095023
-0.067873
-0.022624
0.040724
0.067873
0.058824
0.049774
-0.013575
-0.085973
-0.10407
-0.076923
-0.14932
-0.23077
-0.35747
-0.42081
-0.41176
-0.32127
-0.14027
-0.13122
-0.095023
-0.076923
-0.049774
-0.076923
-0.013575
0.085973
0.16742
0.24887
0.28507
0.21267
0.022624
-0.095023
-0.18552
-0.23077
-0.23982
-0.23982
-0.18552
-0.21267
-0.16742
-0.17647
-0.22172
-0.30317
-0.28507
-0.23982
-0.19457
-0.013575
0.049774
0.049774
0.049774
0.049774
0.076923
0.0045249
-0.022624
-0.17647
-0.29412
-0.43891
-0.33032
-0.23077
-0.16742
-0.14932
-0.21267
-0.30317
-0.33937
-0.30317
-0.30317
-0.28507
-0.22172
-0.19457
-0.17647
-0.16742
-0.085973
-0.15837
-0.14027
-0.15837
-0.12217
-0.11312
-0.14932
-0.15837
-0.28507
-0.36652
-0.39367
-0.38462
-0.46606
-0.46606
-0.33937
-0.31222
-0.15837
-0.13122
-0.11312
-0.19457
-0.22172
-0.24887
-0.23982
-0.20362
-0.15837
-0.13122
-0.20362
-0.10407
-0.095023
-0.13122
-0.22172
-0.29412
-0.37557
-0.40271
-0.34842
-0.21267
-0.031674
0.10407
0.19457
0.14932
-0.013575
-0.085973
-0.14932
-0.14027
-0.085973
-0.040724
-0.18552
-0.29412
-0.33032
-0.31222
-0.23077
-0.095023
0.0045249
-0.040724
-0.13122
-0.16742
-0.21267
-0.23982
-0.33937
-0.32127
-0.32127
-0.30317
-0.20362
-0.14027
0.0045249
0.11312
0.27602
0.26697
0.23982
0.20362
0.14027
0.13122
0.085973
0.11312
0.085973
-0.0045249
-0.0045249
-0.076923
-0.13122
-0.14932
-0.14027
-0.21267
-0.27602
-0.27602
-0.23982
-0.24887
-0.27602
-0.32127
-0.42986
-0.42986
-0.35747
-0.27602
-0.27602
-0.24887
-0.13122
-0.031674
0.12217
0.33937
0.56561
0.61991
0.58371
0.42986
0.33937
0.33032
0.33032
0.28507
0.21267
0.13122
0.040724
-0.067873
-0.20362
-0.27602
-0.43891
-0.52036
-0.50226
-0.47511
-0.40271
-0.35747
-0.30317
-0.33937
-0.44796
-0.47511
-0.50226
-0.52036
-0.56561
-0.54751
-0.51131
-0.42081
-0.25792
-0.22172
-0.26697
-0.49321
-0.59276
-0.62896
-0.46606
-0.26697
-0.21267
-0.21267
-0.34842
-0.42986
-0.56561
-0.57466
-0.44796
-0.30317
-0.27602
-0.32127
-0.39367
-0.46606
-0.45701
-0.34842
-0.22172
-0.22172
-0.26697
-0.36652
-0.39367
-0.35747
-0.33032
-0.32127
-0.36652
-0.24887
-0.15837
-0.14932
-0.12217
-0.076923
-0.058824
-0.085973
-0.067873
-0.031674
0.049774
0.031674
-0.15837
-0.36652
-0.61086
-0.57466
-0.42986
-0.20362
-0.013575
0.17647
0.26697
0.29412
0.32127
0.23077
0.040724
-0.20362
-0.39367
-0.52941
-0.60181
-0.58371
-0.55656
-0.41176
-0.16742
0.16742
0.42986
0.68326
0.84615
0.8552
0.73756
0.47511
0.30317
0.031674
-0.14932
-0.33032
-0.40271
-0.50226
-0.53846
-0.46606
-0.41176
-0.21267
-0.0045249
0.13122
0.13122
0.085973
-0.031674
-0.22172
-0.33937
-0.27602
-0.14027
-0.095023
-0.14932
-0.25792
-0.36652
-0.35747
-0.33937
-0.28507
-0.31222
-0.28507
-0.26697
-0.23077
-0.21267
-0.14932
-0.040724
0.031674
0.23077
0.23077
0.12217
-0.058824
-0.095023
-0.040724
0.031674
0.12217
0.095023
0.049774
-0.022624
0.013575
-0.040724
-0.085973
-0.095023
-0.12217
-0.067873
-0.076923
-0.085973
-0.17647
-0.20362
-0.17647
-0.14027
-0.11312
-0.15837
-0.14932
-0.15837
-0.17647
-0.16742
-0.32127
-0.49321
-0.52036
-0.33937
-0.17647
-0.058824
-0.022624
0.0045249
0.0045249
-0.022624
-0.0045249
-0.095023
-0.15837
-0.18552
-0.16742
-0.14932
-0.10407
0.013575
0.13122
0.18552
0.23077
0.23077
0.24887
0.39367
0.51131
0.55656
0.54751
0.58371
0.67421
0.64706
0.68326
0.60181
0.50226
0.41176
0.38462
0.34842
0.31222
0.30317
0.19457
0.10407
0.0045249
-0.031674
-0.11312
-0.22172
-0.26697
-0.37557
-0.42081
-0.53846
-0.45701
-0.44796
-0.37557
-0.29412
-0.23982
-0.26697
-0.27602
-0.21267
-0.16742
-0.067873
-0.040724
-0.067873
-0.13122
-0.13122
-0.095023
-0.085973
-0.10407
-0.18552
-0.23982
-0.33032
-0.33032
-0.20362
-0.12217
-0.022624
0.067873
0.076923
-0.013575
-0.17647
-0.29412
-0.42081
-0.45701
-0.48416
-0.54751
-0.70136
-0.72851
-0.61991
-0.52036
-0.38462
-0.24887
-0.29412
-0.33937
-0.36652
-0.32127
-0.26697
-0.26697
-0.18552
-0.14932
-0.095023
-0.040724
-0.022624
-0.0045249
0.031674
0.14932
0.26697
0.39367
0.61086
0.78281
0.8371
0.80995
0.70136
0.52941
0.33032
0.26697
0.28507
0.37557
0.33937
0.26697
0.058824
-0.076923
-0.10407
-0.14027
-0.29412
-0.44796
-0.52036
-0.42081
-0.16742
0.095023
0.27602
0.25792
0.14932
0.058824
-0.076923
-0.14932
-0.22172
-0.24887
-0.30317
-0.33032
-0.27602
-0.30317
-0.37557
-0.42986
-0.50226
-0.63801
-0.71041
-0.73756
-0.77376
-0.69231
-0.58371
-0.49321
-0.49321
-0.46606
-0.52941
-0.55656
-0.56561
-0.52036
-0.33032
-0.28507
-0.085973
-0.049774
-0.040724
-0.13122
-0.12217
-0.11312
-0.10407
-0.12217
-0.19457
-0.30317
-0.45701
-0.44796
-0.42986
-0.35747
-0.23982
-0.23982
-0.28507
-0.28507
-0.27602
-0.23077
-0.17647
-0.067873
-0.049774
-0.058824
-0.17647
-0.18552
-0.28507
-0.29412
-0.17647
-0.058824
0.085973
0.16742
0.21267
0.14932
0.10407
0.14027
0.21267
0.27602
0.29412
0.28507
0.095023
-0.058824
-0.16742
-0.23982
-0.25792
-0.29412
-0.28507
-0.39367
-0.40271
-0.38462
-0.28507
-0.26697
-0.22172
-0.11312
-0.049774
0.031674
0.085973
0.040724
-0.022624
-0.085973
-0.095023
-0.20362
-0.30317
-0.32127
-0.28507
-0.21267
-0.058824
0.049774
0.10407
0.031674
-0.049774
-0.14932
-0.23077
-0.23077
-0.24887
-0.23982
-0.21267
-0.040724
0.20362
0.36652
0.47511
0.33937
0.15837
-0.0045249
0.022624
0.058824
0.095023
0.17647
0.095023
-0.058824
-0.23077
-0.30317
-0.36652
-0.28507
-0.20362
-0.14932
-0.16742
-0.27602
-0.30317
-0.28507
-0.21267
-0.095023
-0.040724
-0.13122
-0.20362
-0.29412
-0.43891
-0.53846
-0.56561
-0.54751
-0.49321
-0.40271
-0.26697
-0.25792
-0.23077
-0.28507
-0.34842
-0.37557
-0.32127
-0.17647
-0.022624
0.18552
0.34842
0.41176
0.32127
0.21267
0.031674
-0.076923
-0.16742
-0.18552
-0.22172
-0.34842
-0.30317
-0.29412
-0.27602
-0.30317
-0.32127
-0.33032
-0.28507
-0.16742
-0.067873
-0.049774
-0.13122
-0.17647
-0.28507
-0.30317
-0.23077
-0.21267
-0.18552
-0.14027
-0.11312
-0.095023
-0.067873
0.022624
0.067873
0.013575
-0.067873
-0.14932
-0.25792
-0.30317
-0.24887
-0.24887
-0.34842
-0.40271
-0.33937
-0.24887
-0.10407
-0.022624
-0.040724
-0.10407
-0.19457
-0.21267
-0.26697
-0.27602
-0.23982
-0.15837
-0.095023
-0.013575
0.0045249
-0.067873
-0.11312
-0.085973
-0.013575
-0.049774
-0.067873
-0.067873
-0.15837
-0.18552
-0.21267
-0.16742
-0.11312
-0.022624
-0.031674
-0.058824
-0.049774
0.067873
0.13122
0.058824
0.067873
-0.058824
-0.11312
-0.21267
-0.23077
-0.28507
-0.39367
-0.42081
-0.47511
-0.33937
-0.24887
-0.13122
-0.11312
-0.16742
-0.18552
-0.23982
-0.26697
-0.26697
-0.27602
-0.29412
-0.36652
-0.29412
-0.27602
-0.25792
-0.23982
-0.13122
-0.067873
-0.049774
-0.031674
-0.067873
-0.12217
-0.23077
-0.16742
-0.076923
0.10407
0.17647
0.15837
0.085973
0.085973
0.23077
0.27602
0.28507
0.24887
0.21267
0.16742
0.18552
0.14027
-0.058824
-0.18552
-0.24887
-0.17647
-0.14932
-0.11312
-0.10407
-0.13122
-0.085973
0.0045249
0.076923
0.058824
0.058824
0.11312
0.17647
0.23077
0.25792
0.20362
0.095023
0.11312
0.14932
0.15837
0.085973
0.058824
0.076923
0.095023
0.14932
0.11312
0.10407
0.067873
0.14027
0.12217
0.067873
0.040724
0.031674
-0.040724
-0.085973
-0.040724
-0.21267
-0.35747
-0.50226
-0.61991
-0.65611
-0.60181
-0.51131
-0.52941
-0.58371
-0.60181
-0.67421
-0.75566
-0.72851
-0.62896
-0.52941
-0.35747
-0.19457
-0.085973
-0.11312
-0.17647
-0.17647
-0.21267
-0.23982
-0.25792
-0.27602
-0.29412
-0.20362
-0.10407
-0.16742
-0.19457
-0.29412
-0.30317
-0.35747
-0.34842
-0.32127
-0.26697
-0.16742
-0.067873
0.040724
0.15837
0.26697
0.32127
0.26697
0.24887
0.23982
0.26697
0.18552
0.23982
0.19457
0.17647
0.095023
0.049774
0.058824
0.085973
0.20362
0.23077
0.16742
0.10407
0.13122
0.18552
0.20362
0.23077
0.20362
0.18552
0.20362
0.27602
0.24887
0.22172
0.21267
0.24887
0.29412
0.32127
0.37557
0.24887
0.14932
0.076923
-0.022624
-0.10407
-0.21267
-0.20362
-0.21267
-0.16742
-0.14932
-0.067873
0.013575
0.085973
0.040724
-0.11312
-0.15837
-0.21267
-0.13122
-0.10407
-0.013575
0.022624
-0.013575
-0.10407
-0.067873
0.0045249
0.031674
0.040724
0.0045249
-0.076923
-0.067873
-0.022624
-0.013575
-0.058824
-0.058824
-0.10407
-0.12217
-0.15837
-0.095023
-0.12217
-0.19457
-0.20362
-0.26697
-0.27602
-0.20362
-0.085973
0.067873
0.067873
-0.031674
-0.14932
-0.27602
-0.34842
-0.33032
-0.38462
-0.39367
-0.31222
-0.30317
-0.41176
-0.55656
-0.59276
-0.53846
-0.32127
-0.14027
-0.076923
-0.17647
-0.36652
-0.53846
-0.72851
-0.78281
-0.78281
-0.72851
-0.73756
-0.69231
-0.62896
-0.61086
-0.55656
-0.49321
-0.42081
-0.40271
-0.45701
-0.52036
-0.60181
-0.63801
-0.55656
-0.44796
-0.32127
-0.19457
-0.058824
-0.13122
-0.23077
-0.30317
-0.27602
-0.18552
-0.049774
-0.022624
-0.067873
-0.15837
-0.22172
-0.31222
-0.38462
-0.33937
-0.34842
-0.38462
-0.50226
-0.61991
-0.66516
-0.72851
-0.66516
-0.60181
-0.39367
-0.14932
0.13122
0.19457
0.085973
-0.013575
-0.14027
-0.27602
-0.23982
-0.16742
-0.095023
-0.10407
-0.17647
-0.30317
-0.35747
-0.35747
-0.18552
0.013575
0.17647
0.29412
0.26697
0.21267
0.13122
0.14027
0.095023
0.21267
0.26697
0.25792
0.14027
-0.031674
-0.10407
-0.25792
-0.40271
-0.45701
-0.42081
-0.33032
-0.14932
0.031674
0.13122
0.23982
0.35747
0.34842
0.21267
0.049774
-0.22172
-0.48416
-0.70136
-0.76471
-0.65611
-0.47511
-0.24887
-0.049774
0.067873
0.16742
0.19457
0.13122
0.0045249
-0.022624
-0.049774
-0.076923
-0.11312
-0.11312
-0.16742
-0.20362
-0.13122
-0.067873
-0.013575
0.0045249
0.076923
0.067873
0.031674
0.022624
-0.067873
-0.16742
-0.23982
-0.20362
-0.19457
-0.20362
-0.23077
-0.28507
-0.34842
-0.31222
-0.19457
-0.14932
-0.10407
-0.085973
-0.11312
-0.15837
-0.18552
-0.12217
0.058824
0.36652
0.69231
0.97285
1
0.95475
0.819
0.58371
0.39367
0.23982
0.095023
-0.049774
-0.11312
-0.14932
-0.20362
-0.19457
-0.22172
-0.18552
-0.29412
-0.31222
-0.33032
-0.42081
-0.46606
-0.46606
-0.40271
-0.41176
-0.36652
-0.36652
-0.36652
-0.17647
0.040724
0.31222
0.43891
0.61086
0.61991
0.53846
0.38462
0.24887
0.14932
0.040724
0.058824
0.013575
-0.013575
-0.076923
-0.11312
-0.14027
-0.14027
0.10407
0.28507
0.38462
0.41176
0.40271
0.37557
0.38462
0.37557
0.30317
0.18552
0.058824
0.013575
-0.095023
-0.049774
-0.0045249
0.022624
0.040724
0.076923
0.17647
0.22172
0.15837
0.12217
0.058824
0.049774
0.076923
0.095023
0.058824
0.17647
0.32127
0.55656
0.67421
0.76471
0.79186
0.69231
0.65611
0.62896
0.54751
0.42081
0.42986
0.45701
0.50226
0.52941
0.52036
0.41176
0.14027
-0.076923
-0.29412
-0.41176
-0.50226
-0.45701
-0.41176
-0.42986
-0.30317
-0.29412
-0.16742
-0.040724
0.12217
0.21267
0.23077
0.25792
0.23077
0.12217
-0.049774
-0.10407
-0.15837
-0.022624
0.13122
0.26697
0.32127
0.29412
0.32127
0.18552
0.085973
-0.013575
-0.058824
-0.022624
0.058824
0.23982
0.23077
0.16742
0.040724
-0.14027
-0.30317
-0.49321
-0.49321
-0.52941
-0.52036
-0.53846
-0.57466
-0.63801
-0.63801
-0.52036
-0.33937
-0.049774
0.17647
0.18552
-0.0045249
-0.17647
-0.26697
-0.29412
-0.24887
-0.18552
-0.067873
0.013575
0.10407
0.058824
-0.031674
-0.12217
-0.10407
-0.031674
-0.031674
0.022624
0.013575
-0.0045249
-0.049774
-0.12217
-0.25792
-0.39367
-0.35747
-0.30317
-0.19457
-0.049774
0.058824
0.13122
0.076923
0.095023
0.049774
0.0045249
-0.076923
-0.23982
-0.44796
-0.52036
-0.45701
-0.34842
-0.23982
-0.23077
-0.14932
-0.17647
-0.23077
-0.23982
-0.26697
-0.19457
-0.10407
0.040724
0.085973
0.19457
0.19457
0.18552
0.067873
-0.10407
-0.14932
-0.26697
-0.23077
-0.18552
-0.21267
-0.27602
-0.25792
-0.13122
-0.0045249
0.11312
0.18552
0.20362
0.076923
0.013575
-0.085973
-0.085973
-0.058824
0.040724
0.022624
-0.11312
-0.18552
-0.29412
-0.23982
-0.095023
0.058824
0.11312
-0.013575
-0.058824
-0.12217
-0.16742
-0.14027
-0.095023
-0.14027
-0.30317
-0.33032
-0.35747
-0.37557
-0.41176
-0.41176
-0.41176
-0.41176
-0.39367
-0.39367
-0.37557
-0.28507
-0.10407
-0.022624
0.031674
0.095023
0.031674
-0.049774
-0.14932
-0.13122
-0.16742
-0.10407
0.022624
0.16742
0.23982
0.23982
0.28507
0.25792
0.27602
0.22172
0.067873
-0.076923
-0.076923
0.013575
0.040724
0.040724
0.022624
-0.031674
-0.22172
-0.33032
-0.34842
-0.29412
-0.13122
-0.0045249
0.13122
0.15837
0.14027
0.076923
-0.0045249
0.067873
0.17647
0.29412
0.25792
0.24887
0.14932
0.095023
0.013575
0.013575
-0.0045249
-0.067873
-0.031674
-0.058824
-0.067873
-0.040724
0.013575
0.11312
0.21267
0.28507
0.20362
0.040724
-0.13122
-0.12217
-0.13122
-0.12217
-0.085973
-0.049774
-0.022624
0.0045249
0.13122
0.23077
0.39367
0.49321
0.37557
0.19457
0.085973
0.15837
0.12217
0.022624
-0.13122
-0.21267
-0.32127
-0.41176
-0.42081
-0.46606
-0.41176
-0.33937
-0.25792
-0.23982
-0.20362
-0.095023
0.0045249
0.15837
0.31222
0.33032
0.19457
0.040724
-0.16742
-0.36652
-0.43891
-0.35747
-0.22172
-0.14932
-0.031674
-0.031674
-0.15837
-0.25792
-0.33032
-0.41176
-0.52036
-0.57466
-0.64706
-0.71946
-0.65611
-0.52941
-0.40271
-0.34842
-0.32127
-0.23982
-0.15837
-0.12217
-0.095023
-0.23077
-0.33937
-0.35747
-0.34842
-0.24887
-0.17647
-0.067873
0.040724
0.076923
0.11312
0.14027
0.085973
0.085973
0.18552
0.26697
0.33032
0.37557
0.33937
0.24887
0.085973
0.040724
-0.058824
-0.067873
-0.085973
-0.16742
-0.21267
-0.29412
-0.27602
-0.27602
-0.17647
-0.013575
0.12217
0.16742
0.15837
0.085973
-0.013575
-0.067873
-0.067873
-0.067873
-0.14027
-0.095023
-0.049774
-0.040724
-0.049774
-0.076923
-0.067873
-0.049774
0.076923
0.14932
0.22172
0.22172
0.23077
0.21267
0.20362
0.31222
0.33032
0.28507
0.15837
0.067873
0.0045249
-0.049774
0.040724
0.10407
0.076923
0.12217
0.19457
0.21267
0.23077
0.25792
0.27602
0.32127
0.35747
0.40271
0.30317
0.22172
0.14027
0.049774
0.0045249
-0.013575
0.067873
-0.031674
-0.067873
-0.10407
-0.13122
-0.29412
-0.45701
-0.44796
-0.40271
-0.25792
-0.15837
-0.11312
-0.21267
-0.25792
-0.23982
-0.30317
-0.39367
-0.46606
-0.55656
-0.71946
-0.8371
-0.93665
-1
-0.99095
-0.9095
-0.84615
-0.8914
-0.82805
-0.71946
-0.67421
-0.61086
-0.53846
-0.45701
-0.36652
-0.26697
-0.24887
-0.31222
-0.41176
-0.41176
-0.35747
-0.28507
-0.18552
-0.22172
-0.31222
-0.40271
-0.36652
-0.28507
-0.23077
-0.13122
-0.13122
-0.23982
-0.26697
-0.23982
-0.21267
-0.15837
-0.031674
0.085973
0.13122
0.095023
0.058824
-0.067873
-0.18552
-0.29412
-0.36652
-0.35747
-0.23077
-0.067873
-0.049774
-0.031674
0.022624
0.14027
0.17647
0.14932
0.15837
0.040724
0.013575
0.040724
0.013575
-0.067873
-0.067873
-0.040724
0.013575
0.076923
0.13122
0.14932
0.095023
0.022624
-0.085973
-0.12217
-0.067873
-0.013575
-0.031674
-0.17647
-0.20362
-0.22172
-0.19457
-0.13122
-0.031674
0.0045249
-0.058824
-0.11312
-0.17647
-0.19457
-0.18552
-0.20362
-0.21267
-0.23077
-0.15837
-0.20362
-0.29412
-0.32127
-0.27602
-0.23077
-0.25792
-0.28507
-0.33032
-0.33937
-0.31222
-0.18552
-0.14932
-0.076923
-0.049774
-0.058824
-0.040724
-0.013575
0.058824
0.031674
0.040724
0.14027
0.16742
0.13122
0.049774
0.095023
0.14932
0.21267
0.17647
0.049774
-0.14027
-0.29412
-0.33032
-0.42986
-0.39367
-0.30317
-0.23982
-0.26697
-0.38462
-0.47511
-0.62896
-0.70136
-0.72851
-0.75566
-0.80995
-0.8009
-0.73756
-0.71946
-0.64706
-0.57466
-0.49321
-0.39367
-0.23077
-0.22172
-0.21267
-0.27602
-0.33032
-0.32127
-0.32127
-0.19457
-0.16742
-0.17647
-0.14932
-0.040724
-0.040724
0.013575
0.0045249
-0.040724
-0.16742
-0.25792
-0.19457
-0.15837
-0.16742
-0.20362
-0.27602
-0.26697
-0.20362
-0.095023
-0.15837
-0.26697
-0.31222
-0.35747
-0.36652
-0.42986
-0.37557
-0.42986
-0.42081
-0.32127
-0.21267
-0.17647
-0.17647
-0.12217
-0.16742
-0.18552
-0.24887
-0.32127
-0.34842
-0.32127
-0.23077
-0.19457
-0.13122
-0.12217
-0.13122
-0.24887
-0.36652
-0.42081
-0.45701
-0.35747
-0.23982
-0.17647
-0.13122
-0.076923
-0.040724
0.022624
0.049774
0.095023
0.14027
0.095023
0.14027
0.049774
-0.085973
-0.16742
-0.076923
0.040724
0.095023
0.13122
-0.013575
-0.076923
-0.10407
0.013575
0.022624
0.0045249
-0.058824
-0.14027
-0.14027
-0.18552
-0.16742
-0.21267
-0.20362
-0.058824
0.14932
0.29412
0.31222
0.29412
0.14932
0.076923
0.076923
0.058824
-0.013575
-0.16742
-0.17647
-0.23077
-0.13122
-0.031674
-0.0045249
-0.031674
-0.076923
-0.040724
-0.11312
-0.11312
-0.095023
0.0045249
0.076923
0.15837
0.22172
0.21267
0.17647
0.17647
0.14932
0.14027
0.21267
0.22172
0.17647
0.16742
0.15837
0.15837
0.058824
0.022624
-0.14932
-0.39367
-0.62896
-0.65611
-0.56561
-0.48416
-0.33032
-0.21267
-0.085973
0.11312
0.28507
0.37557
0.28507
0.22172
0.095023
0.13122
0.23077
0.36652
0.28507
0.12217
-0.0045249
-0.031674
0.0045249
0.20362
0.45701
0.65611
0.76471
0.76471
0.63801
0.47511
0.38462
0.45701
0.47511
0.53846
0.53846
0.43891
0.32127
0.18552
0.23077
0.24887
0.37557
0.49321
0.52941
0.41176
0.26697
0.16742
0.040724
0.022624
-0.013575
-0.095023
-0.16742
-0.13122
0.013575
0.085973
0.12217
0.067873
-0.0045249
-0.049774
0.0045249
0.085973
0.049774
-0.11312
-0.28507
-0.36652
-0.42081
-0.28507
-0.21267
-0.22172
-0.23077
-0.14027
-0.049774
0.013575
0.18552
0.23982
0.23982
0.23982
0.30317
0.33032
0.30317
0.32127
0.33937
0.36652
0.33937
0.27602
0.085973
-0.11312
-0.15837
-0.17647
-0.12217
-0.049774
0.040724
0.040724
0.095023
0.13122
0.12217
0.085973
-0.013575
-0.067873
-0.14932
-0.14027
-0.10407
-0.11312
-0.14932
-0.12217
-0.022624
-0.076923
-0.10407
-0.067873
0.067873
0.095023
0.058824
0.013575
-0.049774
-0.10407
0.0045249
0.13122
0.20362
0.28507
0.28507
0.23077
0.14027
0.049774
-0.14027
-0.30317
-0.40271
-0.48416
-0.53846
-0.56561
-0.53846
-0.41176
-0.32127
-0.11312
-0.022624
0.013575
0.085973
0.21267
0.30317
0.29412
0.19457
0.031674
-0.11312
-0.067873
0.058824
0.16742
0.14932
0.15837
0.14932
0.14027
0.13122
0.14027
0.013575
-0.031674
-0.067873
-0.11312
-0.26697
-0.44796
-0.44796
-0.39367
-0.27602
-0.20362
-0.20362
-0.24887
-0.27602
-0.17647
-0.16742
-0.18552
-0.17647
-0.18552
-0.23077
-0.25792
-0.15837
-0.058824
0.040724
0.23077
0.37557
0.44796
0.49321
0.46606
0.29412
0.11312
-0.049774
-0.13122
-0.23982
-0.31222
-0.44796
-0.58371
-0.65611
-0.55656
-0.39367
-0.25792
-0.095023
0.0045249
0.049774
0.076923
0.11312
0.085973
-0.022624
-0.058824
-0.14027
-0.20362
-0.24887
-0.17647
-0.049774
0.013575
0.12217
0.12217
0.040724
-0.076923
-0.15837
-0.20362
-0.17647
-0.11312
-0.095023
-0.14932
-0.28507
-0.33032
-0.36652
-0.34842
-0.18552
-0.076923
-0.031674
-0.040724
-0.022624
-0.067873
0.058824
0.19457
0.32127
0.34842
0.26697
0.25792
0.19457
0.14932
0.076923
-0.076923
-0.20362
-0.26697
-0.33937
-0.46606
-0.54751
-0.46606
-0.34842
-0.23077
-0.17647
-0.17647
-0.20362
-0.21267
-0.15837
-0.11312
-0.15837
-0.14027
-0.12217
-0.17647
-0.18552
-0.095023
0.049774
0.16742
0.26697
0.20362
0.085973
-0.013575
-0.031674
-0.040724
-0.085973
-0.058824
-0.058824
-0.085973
-0.10407
-0.095023
-0.15837
-0.19457
-0.15837
-0.20362
-0.30317
-0.44796
-0.50226
-0.56561
-0.46606
-0.30317
-0.20362
-0.23077
-0.49321
-0.66516
-0.78281
-0.68326
-0.51131
-0.37557
-0.33937
-0.33937
-0.29412
-0.24887
-0.22172
-0.14932
-0.14027
-0.20362
-0.24887
-0.34842
-0.48416
-0.55656
-0.50226
-0.45701
-0.49321
-0.57466
-0.61086
-0.62896
-0.52941
-0.42986
-0.35747
-0.36652
-0.35747
-0.35747
-0.33937
-0.27602
-0.26697
-0.23982
-0.33032
-0.31222
-0.33937
-0.33032
-0.25792
-0.11312
0.013575
0.058824
-0.013575
-0.085973
-0.12217
-0.085973
0.049774
0.085973
0.085973
0.14932
0.20362
0.23077
0.27602
0.26697
0.14027
-0.076923
-0.18552
-0.27602
-0.32127
-0.32127
-0.20362
-0.17647
-0.19457
-0.23982
-0.30317
-0.34842
-0.45701
-0.44796
-0.54751
-0.47511
-0.34842
-0.18552
-0.14027
-0.11312
-0.085973
-0.067873
-0.085973
-0.049774
0.049774
0.24887
0.42081
0.49321
0.36652
0.16742
-0.0045249
-0.095023
-0.15837
-0.14932
-0.067873
-0.13122
-0.19457
-0.25792
-0.31222
-0.42081
-0.41176
-0.42986
-0.52941
-0.54751
-0.47511
-0.40271
-0.33937
-0.33937
-0.32127
-0.25792
-0.16742
-0.013575
0.040724
0.013575
0.085973
0.10407
0.10407
0.095023
0.14932
0.14932
0.085973
-0.013575
-0.13122
-0.14932
-0.14932
0.0045249
0.058824
0.10407
0.12217
0.11312
0.058824
-0.0045249
0.0045249
-0.049774
-0.085973
-0.095023
-0.10407
-0.095023
-0.067873
0.0045249
-0.022624
-0.095023
-0.23077
-0.38462
-0.47511
-0.52036
-0.43891
-0.47511
-0.46606
-0.41176
-0.46606
-0.54751
-0.61991
-0.57466
-0.46606
-0.35747
-0.21267
-0.18552
-0.32127
-0.44796
-0.56561
-0.58371
-0.49321
-0.28507
-0.12217
-0.022624
0.040724
0.022624
-0.12217
-0.085973
-0.0045249
0.14027
0.19457
0.30317
0.24887
0.15837
0.058824
0.076923
0.14027
0.22172
0.33032
0.40271
0.38462
0.38462
0.41176
0.39367
0.31222
0.26697
0.21267
0.17647
0.16742
0.14932
0.040724
-0.049774
-0.10407
-0.11312
-0.16742
-0.27602
-0.28507
-0.32127
-0.33032
-0.33937
-0.38462
-0.43891
-0.51131
-0.42081
-0.37557
-0.17647
-0.14027
-0.067873
-0.049774
0.0045249
0.14027
0.17647
0.23982
0.25792
0.18552
0.0045249
-0.076923
-0.11312
-0.095023
0.022624
0.067873
0.095023
0.031674
0.0045249
0.031674
0.049774
0.14027
0.24887
0.35747
0.32127
0.34842
0.29412
0.25792
0.19457
0.18552
0.19457
0.13122
0.11312
0.049774
-0.0045249
0.0045249
0.067873
0.095023
0.095023
0.14027
0.085973
0.031674
-0.067873
-0.12217
-0.17647
-0.19457
-0.13122
-0.10407
-0.049774
0.013575
0.13122
0.18552
0.19457
0.17647
0.085973
-0.067873
-0.14027
-0.085973
-0.076923
-0.040724
0.013575
0.049774
0.040724
0.067873
0.076923
-0.022624
-0.10407
-0.18552
-0.33032
-0.43891
-0.54751
-0.56561
-0.57466
-0.50226
-0.39367
-0.38462
-0.43891
-0.43891
-0.40271
-0.42986
-0.39367
-0.38462
-0.34842
-0.36652
-0.34842
-0.40271
-0.44796
-0.42081
-0.39367
-0.39367
-0.42081
-0.39367
-0.36652
-0.30317
-0.22172
-0.12217
-0.067873
-0.058824
0.0045249
0.013575
-0.0045249
-0.076923
-0.067873
-0.013575
0.031674
0.21267
0.29412
0.25792
0.14027
0.013575
-0.085973
-0.12217
-0.12217
-0.12217
-0.10407
-0.067873
-0.040724
-0.040724
0.049774
0.10407
0.10407
0.049774
-0.031674
-0.031674
-0.12217
-0.20362
-0.19457
-0.14027
-0.095023
-0.085973
-0.031674
-0.12217
-0.14027
-0.095023
-0.040724
0.031674
0.085973
0.076923
-0.013575
-0.076923
-0.085973
-0.067873
-0.095023
-0.067873
-0.12217
-0.20362
-0.25792
-0.23982
-0.10407
0.022624
0.11312
0.085973
-0.013575
-0.085973
-0.049774
-0.031674
-0.076923
-0.17647
-0.40271
-0.58371
-0.62896
-0.45701
-0.13122
0.058824
0.17647
0.058824
-0.16742
-0.28507
-0.27602
-0.20362
-0.14027
-0.076923
-0.13122
-0.23982
-0.28507
-0.28507
-0.31222
-0.25792
-0.022624
0.23077
0.41176
0.43891
0.40271
0.29412
0.23077
0.23077
0.17647
0.013575
-0.17647
-0.37557
-0.54751
-0.56561
-0.48416
-0.34842
-0.25792
-0.17647
-0.10407
-0.076923
-0.013575
0.022624
0.076923
0.0045249
-0.11312
-0.14932
-0.25792
-0.26697
-0.24887
-0.23982
-0.19457
-0.040724
0.11312
0.12217
-0.040724
-0.24887
-0.48416
-0.60181
-0.51131
-0.42986
-0.39367
-0.42081
-0.42986
-0.34842
-0.27602
-0.14932
-0.14027
-0.12217
-0.067873
0.067873
0.20362
0.25792
0.30317
0.24887
0.12217
0.085973
0.14932
0.22172
0.26697
0.29412
0.26697
0.21267
0.13122
0.11312
0.040724
0.031674
-0.022624
-0.10407
-0.30317
-0.48416
-0.55656
-0.63801
-0.63801
-0.53846
-0.46606
-0.34842
-0.31222
-0.23982
-0.25792
-0.18552
-0.12217
-0.058824
-0.12217
-0.16742
-0.15837
-0.095023
-0.10407
-0.14932
-0.20362
-0.28507
-0.26697
-0.24887
-0.33032
-0.39367
-0.37557
-0.24887
-0.16742
-0.058824
-0.031674
-0.14027
-0.19457
-0.24887
-0.25792
-0.28507
-0.24887
-0.23077
-0.24887
-0.23077
-0.23077
-0.26697
-0.37557
-0.33032
-0.33032
-0.23077
-0.16742
-0.058824
0.0045249
0.095023
0.19457
0.16742
0.076923
-0.049774
-0.095023
-0.095023
-0.067873
-0.040724
-0.013575
-0.022624
-0.013575
0.022624
0.076923
0.16742
0.18552
0.14932
0.058824
-0.0045249
0.058824
0.11312
0.23982
0.38462
0.52036
0.58371
0.60181
0.56561
0.42081
0.32127
0.26697
0.25792
0.15837
0.14027
0.15837
0.23077
0.33032
0.40271
0.29412
0.058824
-0.067873
-0.15837
-0.23077
-0.25792
-0.23982
-0.23982
-0.22172
-0.15837
-0.11312
-0.058824
0.0045249
0.022624
0.022624
-0.076923
-0.12217
-0.21267
-0.30317
-0.39367
-0.43891
-0.42081
-0.38462
-0.25792
-0.26697
-0.31222
-0.41176
-0.40271
-0.39367
-0.40271
-0.35747
-0.48416
-0.62896
-0.71946
-0.68326
-0.58371
-0.47511
-0.32127
-0.26697
-0.26697
-0.30317
-0.23982
-0.23077
-0.20362
-0.12217
-0.031674
0.031674
0.067873
0.18552
0.16742
0.12217
0.12217
0.085973
0.058824
0.040724
0.10407
0.12217
0.23077
0.30317
0.28507
0.20362
0.031674
-0.13122
-0.35747
-0.48416
-0.48416
-0.44796
-0.42986
-0.40271
-0.38462
-0.44796
-0.45701
-0.41176
-0.27602
-0.23077
-0.18552
-0.22172
-0.29412
-0.29412
-0.23982
-0.13122
-0.10407
-0.058824
-0.10407
-0.16742
-0.24887
-0.30317
-0.36652
-0.44796
-0.42081
-0.41176
-0.41176
-0.45701
-0.41176
-0.36652
-0.32127
-0.22172
-0.14027
-0.13122
-0.16742
-0.16742
-0.19457
-0.085973
0.013575
0.067873
0.013575
-0.10407
-0.13122
-0.23077
-0.32127
-0.37557
-0.36652
-0.33937
-0.23982
-0.13122
-0.16742
-0.20362
-0.22172
-0.20362
-0.17647
-0.095023
0.013575
-0.022624
-0.10407
-0.18552
-0.21267
-0.18552
-0.076923
-0.040724
-0.14932
-0.23077
-0.23982
-0.16742
-0.14027
-0.067873
-0.076923
-0.18552
-0.32127
-0.44796
-0.48416
-0.48416
-0.33032
-0.21267
-0.14932
-0.14027
-0.18552
-0.25792
-0.40271
-0.42986
-0.45701
-0.49321
-0.47511
-0.45701
-0.47511
-0.58371
-0.64706
-0.71041
-0.65611
-0.58371
-0.42081
-0.39367
-0.39367
-0.30317
-0.21267
-0.14932
-0.16742
-0.12217
-0.15837
-0.12217
-0.095023
-0.12217
-0.14932
-0.14932
-0.0045249
0.013575
0.076923
0.13122
0.12217
0.076923
0.022624
0.085973
0.14027
0.23982
0.25792
0.13122
-0.022624
-0.085973
-0.0045249
0.049774
0.14932
0.23077
0.22172
0.11312
-0.0045249
-0.085973
-0.19457
-0.24887
-0.27602
-0.17647
-0.13122
-0.040724
0.040724
0.058824
0.013575
-0.058824
-0.12217
-0.14932
-0.0045249
0.040724
0.013575
-0.076923
-0.085973
0.0045249
0.12217
0.23077
0.17647
0.040724
-0.095023
-0.10407
-0.058824
0.013575
0.13122
0.13122
0.013575
-0.085973
-0.10407
-0.095023
-0.12217
-0.12217
-0.095023
-0.067873
-0.013575
0.049774
0.0045249
0.013575
0.022624
-0.022624
-0.058824
-0.11312
-0.013575
-0.13122
-0.17647
-0.22172
-0.21267
-0.14027
-0.049774
0.13122
0.16742
0.17647
0.15837
0.11312
-0.022624
-0.10407
-0.17647
-0.24887
-0.22172
-0.13122
-0.031674
-0.049774
0.0045249
-0.013575
-0.049774
-0.0045249
0.12217
0.28507
0.35747
0.42081
0.42081
0.36652
0.29412
0.23077
0.20362
0.16742
0.24887
0.31222
0.30317
0.24887
0.18552
0.085973
-0.0045249
-0.022624
-0.049774
-0.058824
-0.18552
-0.25792
-0.25792
-0.20362
-0.16742
-0.22172
-0.30317
-0.23077
-0.12217
-0.031674
-0.049774
-0.040724
-0.058824
-0.022624
0.058824
0.18552
0.20362
0.14027
0.12217
0.076923
0.076923
0.040724
0.058824
0.0045249
-0.040724
-0.085973
-0.19457
-0.31222
-0.32127
-0.17647
-0.067873
-0.0045249
-0.040724
-0.031674
-0.076923
0.022624
0.13122
0.13122
0.10407
0.085973
0.022624
0.0045249
-0.022624
-0.049774
-0.13122
-0.15837
-0.14027
-0.20362
-0.30317
-0.32127
-0.28507
-0.30317
-0.37557
-0.44796
-0.56561
-0.62896
-0.51131
-0.44796
-0.39367
-0.41176
-0.36652
-0.29412
-0.24887
-0.14027
-0.12217
-0.14027
-0.15837
-0.16742
-0.14027
-0.095023
-0.0045249
0.10407
0.076923
0.0045249
0.022624
0.058824
0.18552
0.31222
0.36652
0.33937
0.22172
0.031674
-0.17647
-0.24887
-0.17647
-0.13122
-0.13122
-0.14027
-0.085973
-0.085973
-0.13122
-0.22172
-0.25792
-0.23077
-0.10407
0.14027
0.17647
0.21267
0.11312
-0.022624
-0.19457
-0.28507
-0.30317
-0.31222
-0.27602
-0.23982
-0.17647
-0.22172
-0.17647
-0.14932
-0.17647
-0.11312
-0.049774
0.14932
0.25792
0.35747
0.36652
0.27602
0.16742
0.13122
0.15837
0.21267
0.39367
0.47511
0.48416
0.33937
0.20362
0.058824
-0.040724
-0.067873
-0.095023
-0.17647
-0.27602
-0.34842
-0.44796
-0.49321
-0.43891
-0.39367
-0.37557
-0.35747
-0.30317
-0.34842
-0.32127
-0.16742
-0.067873
-0.0045249
0.0045249
0.0045249
-0.031674
-0.040724
0.013575
-0.0045249
-0.076923
-0.21267
-0.28507
-0.42986
-0.51131
-0.54751
-0.54751
-0.52941
-0.52941
-0.45701
-0.39367
-0.27602
-0.14027
-0.022624
0.0045249
0.095023
0.14027
0.085973
0.049774
-0.058824
-0.095023
-0.12217
-0.049774
-0.049774
-0.12217
-0.18552
-0.20362
-0.14027
-0.17647
-0.16742
-0.17647
-0.16742
-0.15837
-0.23077
-0.28507
-0.45701
-0.47511
-0.56561
-0.70136
-0.8009
-0.82805
-0.86425
-0.91855
-1
-0.99095
-0.9095
-0.69231
-0.47511
-0.31222
-0.21267
-0.10407
-0.013575
-0.013575
-0.049774
-0.095023
-0.16742
-0.21267
-0.21267
-0.16742
-0.17647
-0.18552
-0.15837
-0.14932
-0.058824
-0.022624
0.049774
0.095023
0.18552
0.27602
0.20362
0.095023
0.058824
0.040724
0.058824
0.049774
-0.0045249
-0.13122
-0.17647
-0.13122
-0.067873
-0.095023
-0.12217
-0.11312
-0.076923
-0.049774
-0.022624
0.049774
0.013575
0.013575
-0.0045249
0.0045249
0.049774
0.15837
0.21267
0.15837
0.23077
0.14027
0.022624
-0.10407
-0.14932
-0.085973
-0.058824
0.022624
-0.040724
-0.10407
-0.15837
-0.14027
-0.022624
0.0045249
0.095023
0.11312
0.067873
0.085973
0.18552
0.23077
0.25792
0.25792
0.15837
0.040724
-0.085973
-0.013575
0.040724
0.11312
0.14027
0.095023
-0.022624
-0.12217
-0.18552
-0.21267
-0.10407
0.0045249
0.022624
-0.076923
-0.26697
-0.38462
-0.42986
-0.35747
-0.31222
-0.33032
-0.42081
-0.52036
-0.50226
-0.44796
-0.33937
-0.26697
-0.17647
-0.17647
-0.067873
0.022624
0.031674
0.031674
0.0045249
-0.067873
-0.20362
-0.25792
-0.23982
-0.14932
-0.0045249
0.14027
0.23982
0.23982
0.22172
0.15837
0.085973
0.058824
0.076923
0.13122
0.076923
0.076923
-0.040724
-0.049774
0.049774
0.23982
0.37557
0.31222
0.25792
0.17647
0.10407
0.095023
0.14027
0.14027
0.16742
0.16742
0.14932
0.058824
-0.022624
0.022624
0.049774
0.17647
0.25792
0.19457
0.076923
-0.022624
-0.013575
-0.031674
-0.013575
0.022624
0.11312
0.19457
0.25792
0.27602
0.12217
0.085973
0.022624
0.013575
-0.0045249
-0.013575
-0.013575
-0.040724
-0.013575
0.13122
0.31222
0.39367
0.45701
0.52036
0.52941
0.55656
0.53846
0.47511
0.37557
0.39367
0.36652
0.28507
0.15837
0.031674
-0.031674
-0.085973
-0.031674
-0.049774
-0.085973
-0.14932
-0.14027
-0.10407
-0.076923
0.049774
0.085973
0.040724
-0.022624
-0.058824
-0.076923
-0.095023
-0.049774
0.0045249
-0.0045249
-0.040724
0.0045249
0.0045249
0.067873
0.27602
0.35747
0.40271
0.31222
0.25792
0.049774
-0.058824
-0.11312
-0.085973
-0.022624
-0.040724
-0.022624
-0.15837
-0.14027
-0.067873
-0.040724
-0.18552
-0.31222
-0.40271
-0.50226
-0.49321
-0.45701
-0.42986
-0.43891
-0.44796
-0.40271
-0.34842
-0.25792
-0.23077
-0.25792
-0.38462
-0.43891
-0.46606
-0.52941
-0.56561
-0.59276
-0.61086
-0.62896
-0.56561
-0.53846
-0.50226
-0.51131
-0.49321
-0.47511
-0.51131
-0.52941
-0.56561
-0.59276
-0.51131
-0.33937
-0.16742
-0.013575
0.16742
0.23982
0.23077
0.14027
0.12217
0.10407
0.14932
0.24887
0.27602
0.30317
0.31222
0.43891
0.52941
0.60181
0.57466
0.45701
0.25792
0.058824
0.076923
0.049774
0.14027
0.11312
0.013575
-0.17647
-0.33937
-0.29412
-0.25792
-0.067873
0.12217
0.30317
0.32127
0.22172
0.058824
-0.15837
-0.26697
-0.25792
-0.19457
-0.14932
-0.058824
-0.058824
-0.17647
-0.16742
-0.16742
-0.11312
-0.13122
-0.17647
-0.20362
-0.33032
-0.43891
-0.45701
-0.42986
-0.43891
-0.37557
-0.33937
-0.34842
-0.33032
-0.21267
-0.049774
-0.0045249
0.058824
-0.022624
-0.049774
0.0045249
0.13122
0.23982
0.17647
0.16742
0.14027
0.067873
0.0045249
-0.013575
-0.076923
-0.076923
-0.058824
-0.076923
-0.14932
-0.21267
-0.15837
-0.10407
-0.031674
0.031674
0.0045249
-0.049774
-0.14027
-0.040724
-0.040724
-0.022624
-0.013575
-0.095023
-0.18552
-0.22172
-0.15837
-0.14027
0.013575
0.067873
0.17647
0.19457
0.27602
0.31222
0.23982
0.21267
0.20362
0.18552
0.13122
0.15837
0.17647
0.20362
0.18552
0.076923
-0.076923
-0.24887
-0.27602
-0.27602
-0.19457
-0.13122
-0.031674
-0.013575
-0.085973
-0.14027
-0.19457
-0.17647
-0.14027
-0.085973
0.013575
-0.040724
-0.0045249
-0.076923
-0.14932
-0.22172
-0.21267
-0.22172
-0.21267
-0.17647
-0.25792
-0.27602
-0.35747
-0.24887
-0.19457
-0.14932
-0.085973
-0.0045249
0.022624
-0.0045249
0.058824
0.095023
0.18552
0.34842
0.36652
0.31222
0.22172
0.14932
0.076923
0.040724
0.013575
-0.022624
-0.13122
-0.20362
-0.20362
-0.23077
-0.17647
-0.031674
0.11312
0.16742
0.085973
-0.022624
-0.14027
-0.10407
0.013575
0.076923
0.0045249
-0.022624
-0.040724
0.022624
0.067873
0.076923
0.0045249
-0.12217
-0.13122
-0.14932
-0.19457
-0.28507
-0.38462
-0.40271
-0.40271
-0.28507
-0.24887
-0.31222
-0.33937
-0.33937
-0.33032
-0.28507
-0.19457
-0.17647
-0.17647
-0.20362
-0.16742
-0.24887
-0.36652
-0.43891
-0.50226
-0.54751
-0.59276
-0.51131
-0.47511
-0.33032
-0.14932
-0.031674
0.013575
0.022624
0.049774
-0.013575
0.0045249
0.058824
0.12217
0.15837
0.095023
0.076923
-0.040724
-0.10407
-0.17647
-0.23982
-0.30317
-0.39367
-0.42986
-0.47511
-0.49321
-0.38462
-0.34842
-0.34842
-0.38462
-0.43891
-0.50226
-0.47511
-0.30317
-0.095023
0.058824
0.17647
0.15837
0.058824
0.0045249
0.049774
0.085973
0.067873
0.040724
-0.11312
-0.23982
-0.30317
-0.25792
-0.18552
-0.17647
-0.11312
-0.19457
-0.34842
-0.53846
-0.61086
-0.70136
-0.71041
-0.60181
-0.52941
-0.47511
-0.46606
-0.36652
-0.27602
-0.13122
0.058824
0.17647
0.20362
0.14027
0.031674
-0.16742
-0.22172
-0.17647
-0.040724
0.076923
0.14027
0.16742
0.14932
0.18552
0.23982
0.24887
0.18552
0.15837
0.19457
0.18552
0.14932
0.049774
-0.040724
-0.067873
-0.076923
-0.040724
-0.13122
-0.12217
-0.067873
0.067873
0.067873
-0.0045249
-0.11312
0.058824
