0.47077
0.46462
0.36
0.095385
-0.16308
-0.31692
-0.36
-0.25538
-0.11385
-0.0030769
0.046154
-0.015385
-0.015385
-0.0092308
0.12
0.23692
0.2
-0.052308
-0.32923
-0.49538
-0.49538
-0.31077
-0.046154
0.13846
0.18154
0.20615
0.11385
0.070769
0.021538
0.033846
0.052308
0.15077
0.25538
0.33538
0.34154
0.24308
0.10769
-0.070769
-0.15077
-0.12
-0.015385
0.12615
0.25538
0.34769
0.25538
0.16308
0.10769
0.10154
0.10154
0.076923
0.027692
-0.12615
-0.23077
-0.23077
-0.18154
-0.15692
-0.13231
-0.083077
-0.10154
-0.12615
-0.16923
-0.22462
-0.17538
-0.027692
0.14462
0.21846
0.21846
0.20615
0.17538
0.095385
0.058462
-0.0092308
-0.11385
-0.15692
-0.10769
-0.04
-0.04
0.015385
0.076923
0.10769
0.12615
0.046154
-0.070769
-0.21231
-0.30462
-0.30462
-0.33538
-0.27385
-0.11385
0.10769
0.22462
0.29231
0.32923
0.31692
0.26154
0.19385
0.14462
0.058462
-0.033846
-0.083077
-0.12615
-0.076923
0.04
0.27385
0.37846
0.43385
0.37846
0.19385
-0.027692
-0.12615
-0.021538
0.12
0.32308
0.39692
0.40923
0.32923
0.22462
0.10769
-0.095385
-0.17538
-0.15692
-0.064615
0.046154
0.021538
-0.046154
-0.24923
-0.39077
-0.54462
-0.59385
-0.57538
-0.34154
-0.12615
-0.021538
-0.027692
-0.033846
0.027692
0.13231
0.31077
0.39077
0.39692
0.40923
0.44615
0.47692
0.39077
0.31692
0.17538
0.095385
0.083077
0.11385
0.10769
0.095385
0.16923
0.23692
0.22462
0.04
-0.15692
-0.26154
-0.15692
0.12
0.30462
0.29846
0.13846
-0.058462
-0.23077
-0.24923
-0.19385
-0.2
-0.28
-0.42154
-0.53231
-0.66769
-0.69846
-0.61231
-0.50154
-0.34769
-0.14462
0.064615
0.10769
0.13231
0.10769
0.12
0.076923
0.04
-0.064615
-0.18769
-0.23692
-0.25538
-0.26154
-0.28
-0.29846
-0.32923
-0.36
-0.28615
-0.12
0.015385
0.027692
-0.0030769
-0.015385
0.052308
0.10769
0.11385
0.0092308
-0.12
-0.10154
-0.027692
0.0030769
-0.033846
-0.064615
-0.10154
-0.15692
-0.16923
-0.2
-0.21231
-0.16923
-0.10154
-0.027692
0.046154
0.070769
-0.046154
-0.23692
-0.37231
-0.29846
-0.13231
0.15077
0.39692
0.45846
0.29846
0.095385
-0.021538
-0.04
0.04
0.095385
0.04
-0.16923
-0.32308
-0.38462
-0.37231
-0.29846
-0.24923
-0.23077
-0.23692
-0.15077
-0.058462
-0.0030769
0.052308
0.12
0.16923
0.083077
-0.04
-0.23692
-0.31692
-0.22462
-0.033846
0.058462
-0.033846
-0.16308
-0.25538
-0.19385
0.052308
0.31077
0.44
0.36615
0.27385
0.10154
-0.021538
-0.076923
-0.11385
-0.21846
-0.35385
-0.36
-0.28615
-0.13231
0.0030769
0.16308
0.23692
0.19385
0.15692
0.095385
0.064615
0.058462
0.058462
-0.089231
-0.20615
-0.2
-0.0030769
0.30462
0.59385
0.72923
0.63077
0.47692
0.38462
0.37231
0.39692
0.40308
0.29846
-0.0030769
-0.27385
-0.37231
-0.20615
0.089231
0.29231
0.26154
0.027692
-0.19385
-0.25538
-0.15692
-0.0030769
0.2
0.29846
0.29231
0.28
0.29231
0.32308
0.32308
0.29231
0.20615
0.089231
0.027692
0.076923
0.19385
0.34154
0.53231
0.51385
0.32923
0.089231
-0.021538
0.033846
0.15692
0.25538
0.20615
0.10769
0.046154
-0.0092308
-0.14462
-0.31077
-0.37231
-0.29846
-0.095385
0.13231
0.26154
0.10769
-0.064615
-0.083077
0.16923
0.44
0.52
0.42154
0.19385
0.095385
0.12
0.13846
0.064615
-0.046154
-0.11385
-0.13231
-0.058462
-0.0092308
-0.04
-0.16308
-0.23692
-0.23692
-0.19385
-0.095385
-0.046154
-0.064615
-0.095385
-0.015385
0.095385
0.15692
0.11385
0.0030769
-0.095385
-0.064615
0.17538
0.44615
0.51385
0.35385
0.052308
-0.18769
-0.26154
-0.052308
0.15077
0.23077
0.12615
-0.021538
-0.19385
-0.29231
-0.21846
-0.11385
0.0092308
0.04
0.027692
-0.070769
-0.12
-0.089231
0.033846
0.16308
0.23692
0.24923
0.19385
0.21846
0.32923
0.39077
0.34769
0.26154
0.18769
0.13846
0.16308
0.21231
0.28
0.32923
0.34769
0.29846
0.15077
-0.015385
-0.10154
-0.11385
-0.12615
-0.13231
-0.13231
-0.13846
-0.0030769
0.20615
0.42154
0.42769
0.25538
-0.064615
-0.32923
-0.32923
-0.070769
0.18769
0.24308
0.11385
-0.18154
-0.39077
-0.38462
-0.10154
0.16923
0.23692
0.16923
-0.10154
-0.29231
-0.34154
-0.13846
0.19385
0.36
0.32923
0.12
-0.095385
-0.16308
-0.070769
0.033846
0.12615
0.18769
0.13231
0.021538
-0.058462
-0.033846
-0.015385
-0.015385
-0.095385
-0.24923
-0.39077
-0.42154
-0.32308
-0.20615
-0.058462
0.083077
0.20615
0.29846
0.31077
0.29231
0.076923
-0.089231
-0.16923
-0.064615
0.16308
0.35385
0.42154
0.34154
0.21231
0.18154
0.17538
0.18769
0.15692
0.070769
-0.12615
-0.33538
-0.38462
-0.30462
-0.16923
-0.015385
-0.058462
-0.18154
-0.30462
-0.31077
-0.24308
-0.13231
0.076923
0.21846
0.23692
0.14462
0.021538
-0.046154
0.052308
0.26769
0.38462
0.22462
-0.14462
-0.47692
-0.67385
-0.55692
-0.25538
0.033846
0.21846
0.31077
0.34769
0.27385
0.19385
0.076923
-0.04
-0.11385
-0.089231
0.015385
0.04
-0.0030769
-0.10769
-0.21846
-0.30462
-0.29846
-0.13846
0.0030769
0.23077
0.40923
0.53231
0.47077
0.36615
0.23692
0.15692
0.20615
0.26154
0.28615
0.28615
0.37231
0.40923
0.31077
0.058462
-0.15077
-0.28
-0.35385
-0.26154
-0.20615
-0.083077
0.046154
0.13846
0.23692
0.23692
0.28615
0.28615
0.28615
0.30462
0.36
0.39692
0.29846
0.15692
-0.0030769
-0.12615
-0.095385
-0.070769
-0.11385
-0.27385
-0.37231
-0.40308
-0.37231
-0.27385
-0.15692
-0.058462
0.0092308
-0.033846
-0.16923
-0.29846
-0.28615
-0.13231
-0.10154
-0.16923
-0.28615
-0.32923
-0.25538
-0.076923
0.083077
0.11385
0.089231
0.052308
0.021538
0.015385
0.052308
0.16923
0.18154
0.10769
-0.064615
-0.28
-0.45846
-0.48923
-0.39077
-0.23077
-0.021538
0.064615
0.0092308
-0.15692
-0.22462
-0.19385
-0.12615
-0.04
0.04
0.15077
0.26154
0.43385
0.47692
0.34154
0.058462
-0.20615
-0.36
-0.41538
-0.34154
-0.29846
-0.28615
-0.23077
-0.11385
-0.0092308
0.095385
0.13846
0.089231
0.021538
-0.033846
-0.027692
-0.10154
-0.17538
-0.28615
-0.37846
-0.41538
-0.32308
-0.083077
0.10769
0.21231
0.21846
0.15692
0.12
0.10769
0.17538
0.15077
0.070769
-0.064615
-0.21231
-0.28615
-0.21231
-0.04
0.076923
0.12
0.033846
-0.089231
-0.31077
-0.43385
-0.45846
-0.30462
-0.064615
0.14462
0.14462
-0.027692
-0.16308
-0.25538
-0.16923
0.076923
0.34769
0.40923
0.13231
-0.29231
-0.64923
-0.71077
-0.47692
-0.083077
0.095385
0.021538
-0.16308
-0.33538
-0.35385
-0.25538
-0.12615
-0.033846
0.033846
0.095385
0.095385
0.11385
0.14462
0.16923
0.10769
0.021538
-0.04
-0.083077
-0.095385
-0.046154
0.058462
0.058462
0.04
-0.0092308
-0.046154
-0.052308
0.033846
0.14462
0.12615
0.089231
-0.027692
-0.12
-0.17538
-0.095385
0.04
0.070769
0.021538
-0.021538
0.021538
0.13231
0.25538
0.35385
0.32923
0.17538
-0.027692
-0.18154
-0.21846
-0.089231
0.021538
0.04
0.0092308
-0.0092308
-0.046154
-0.083077
-0.0030769
0.10154
0.20615
0.24923
0.2
0.033846
-0.16308
-0.20615
-0.15077
0.015385
0.15077
0.14462
0.04
-0.076923
-0.033846
0.0092308
0.04
0.0030769
0.0092308
0.058462
0.16308
0.29231
0.35385
0.38462
0.47692
0.57538
0.58769
0.51385
0.39692
0.21231
0.064615
0.015385
0.19385
0.39077
0.64923
0.80308
0.82154
0.76615
0.77846
0.87692
0.88308
0.77846
0.58154
0.38462
0.20615
0.11385
0.095385
0.052308
0.064615
0.021538
-0.089231
-0.24923
-0.28615
-0.2
0.04
0.37231
0.64308
0.76615
0.71692
0.64923
0.50769
0.34769
0.19385
0.14462
0.18154
0.21846
0.23692
0.13846
0.015385
0.0030769
0.095385
0.18154
0.17538
0.13846
0.10154
0.16308
0.28615
0.41538
0.34769
0.18769
0.021538
-0.15077
-0.30462
-0.40308
-0.39692
-0.37231
-0.30462
-0.32308
-0.41538
-0.50154
-0.42154
-0.15077
0.076923
0.18769
0.12
-0.027692
-0.16308
-0.23692
-0.28
-0.36
-0.42154
-0.36615
-0.22462
-0.095385
-0.04
-0.052308
-0.13846
-0.12
-0.04
0.12
0.23077
0.30462
0.27385
0.22462
0.19385
0.10769
-0.095385
-0.36
-0.46462
-0.46462
-0.33538
-0.20615
-0.058462
0.015385
-0.04
-0.10769
-0.21846
-0.31692
-0.32923
-0.23692
-0.15692
-0.18154
-0.20615
-0.26769
-0.31692
-0.29231
-0.25538
-0.23077
-0.21231
-0.20615
-0.26769
-0.28615
-0.26154
-0.13846
-0.033846
0.10769
0.25538
0.34154
0.30462
0.26769
0.31077
0.32923
0.39692
0.38462
0.23077
-0.0092308
-0.24923
-0.36615
-0.32923
-0.18769
-0.033846
0.0030769
-0.083077
-0.16923
-0.10154
-0.0030769
0.21231
0.39692
0.44615
0.33538
0.24308
0.14462
0.10769
0.13231
0.23077
0.26769
0.23077
0.22462
0.2
0.20615
0.26769
0.32923
0.34154
0.24308
0.28
0.25538
0.34154
0.42769
0.47077
0.40923
0.28615
0.18769
0.12
0.089231
0.11385
0.027692
-0.2
-0.43385
-0.47077
-0.28615
-0.027692
0.070769
0.070769
-0.089231
-0.17538
-0.15077
-0.027692
0.21846
0.49538
0.63077
0.51385
0.31077
0.15077
0.052308
-0.033846
-0.13231
-0.23077
-0.40308
-0.42154
-0.26154
0.0030769
0.23692
0.39077
0.42154
0.31077
0.16308
0.052308
-0.015385
0.0092308
0.15077
0.31692
0.34154
0.31077
0.25538
0.24923
0.27385
0.36
0.44615
0.46462
0.44
0.33538
0.18769
0.070769
0.046154
0.015385
0.04
0.13846
0.30462
0.43385
0.40308
0.32923
0.19385
0.058462
-0.021538
-0.064615
-0.14462
-0.22462
-0.20615
-0.10154
0.052308
0.13846
0.15692
0.0092308
-0.052308
-0.0030769
0.13231
0.18154
0.10154
-0.10154
-0.28
-0.29231
-0.11385
0.11385
0.22462
0.28
0.24308
0.10769
0.015385
-0.04
-0.0030769
0.058462
0.15692
0.23692
0.22462
0.16923
0.04
-0.13231
-0.29231
-0.32308
-0.26769
-0.23077
-0.12615
0.027692
0.17538
0.20615
0.28
0.32923
0.39692
0.45846
0.45846
0.39692
0.29846
0.27385
0.24923
0.19385
0.13231
0.16308
0.20615
0.27385
0.29846
0.23077
0.14462
0.14462
0.23077
0.35385
0.40308
0.37846
0.18769
-0.083077
-0.25538
-0.25538
-0.10154
0.13231
0.32923
0.34769
0.11385
-0.18769
-0.38462
-0.43385
-0.26769
-0.027692
0.11385
0.13846
0.089231
0.0030769
-0.089231
-0.095385
-0.0030769
0.064615
0.064615
0.070769
0.095385
0.058462
0.027692
-0.015385
-0.046154
-0.17538
-0.28
-0.44615
-0.64923
-0.73538
-0.74154
-0.69846
-0.69231
-0.6
-0.48923
-0.34154
-0.15692
0.027692
0.20615
0.32308
0.41538
0.29846
0.10154
-0.04
-0.064615
-0.0092308
0.021538
-0.052308
-0.28615
-0.56923
-0.82154
-0.93846
-0.96308
-0.82769
-0.53231
-0.24923
-0.033846
0.046154
0.076923
-0.027692
-0.076923
-0.0030769
0.058462
0.12
0.015385
-0.13231
-0.27385
-0.29846
-0.13846
0.033846
0.13846
0.12615
0.095385
0.0092308
0.0092308
0.033846
0.052308
-0.027692
-0.15077
-0.31077
-0.47692
-0.56308
-0.58769
-0.54462
-0.47692
-0.31077
-0.15077
-0.064615
-0.027692
0.033846
0.14462
0.12615
0.083077
-0.076923
-0.24923
-0.36615
-0.36
-0.31077
-0.34154
-0.32923
-0.37846
-0.41538
-0.31692
-0.052308
0.29231
0.58154
0.72308
0.63692
0.52
0.44615
0.41538
0.31077
0.16308
0.089231
0.021538
-0.052308
-0.18154
-0.39077
-0.66769
-0.80923
-0.67385
-0.41538
-0.21846
-0.10769
-0.04
-0.015385
0.095385
0.2
0.22462
0.21231
0.26154
0.36615
0.38462
0.40308
0.40923
0.39077
0.31692
0.29231
0.32923
0.41538
0.51385
0.57538
0.56308
0.50154
0.44615
0.35385
0.31077
0.31077
0.39077
0.43385
0.37231
0.31077
0.21846
0.17538
0.17538
0.18154
0.20615
0.17538
0.16308
0.095385
0.021538
0.027692
0.095385
0.14462
0.15692
0.23077
0.17538
0.095385
0.058462
0.14462
0.23692
0.33538
0.46462
0.56308
0.60615
0.47692
0.34154
0.15692
0.083077
0.095385
0.064615
0.0030769
-0.070769
-0.083077
-0.070769
-0.04
-0.021538
0.0030769
0.04
0.18769
0.36615
0.36
0.25538
0.052308
-0.083077
-0.14462
-0.070769
0.076923
0.12615
0.16923
0.10769
-0.033846
-0.31692
-0.49538
-0.55692
-0.36615
-0.033846
0.26769
0.39077
0.32923
0.16923
-0.033846
-0.23077
-0.25538
-0.12
0.0092308
0.095385
0.18769
0.25538
0.24923
0.19385
0.0030769
-0.29231
-0.56923
-0.56308
-0.34769
0.027692
0.37231
0.62462
0.60615
0.43385
0.20615
-0.0030769
-0.12615
-0.14462
-0.10769
-0.10769
-0.11385
-0.16308
-0.24923
-0.32923
-0.36
-0.31692
-0.39692
-0.43385
-0.37231
-0.16308
0.095385
0.33538
0.47077
0.40923
0.29231
0.17538
0.089231
0.0030769
0.058462
0.17538
0.24308
0.29231
0.35385
0.39692
0.39077
0.33538
0.10154
-0.24923
-0.54462
-0.63692
-0.52615
-0.31692
-0.076923
0.027692
0.052308
0.015385
-0.015385
-0.0030769
0.021538
0.15692
0.30462
0.40923
0.43385
0.34769
0.23692
0.11385
0.064615
-0.083077
-0.37846
-0.72308
-0.88308
-0.75385
-0.36615
0.089231
0.34769
0.39692
0.36
0.37846
0.38462
0.48923
0.53231
0.41538
0.12
-0.16308
-0.30462
-0.34769
-0.29231
-0.26769
-0.28
-0.34769
-0.44615
-0.43385
-0.41538
-0.29846
-0.17538
-0.083077
-0.021538
0.095385
0.27385
0.36
0.40308
0.40308
0.28
0.021538
-0.24923
-0.48308
-0.55077
-0.44
-0.28615
-0.20615
-0.28
-0.42769
-0.60615
-0.66769
-0.50154
-0.13846
0.24308
0.45846
0.55077
0.46462
0.36615
0.33538
0.40308
0.44
0.39692
0.34154
0.18154
0.027692
-0.070769
-0.095385
-0.10769
-0.10154
-0.058462
-0.070769
-0.11385
-0.14462
-0.052308
0.10154
0.21231
0.22462
0.13846
0.033846
0.033846
0.15692
0.22462
0.29231
0.32308
0.29846
0.18769
0.046154
-0.11385
-0.31692
-0.44615
-0.50154
-0.45846
-0.37846
-0.23692
-0.089231
0.04
0.14462
0.25538
0.29231
0.25538
0.23692
0.12615
-0.064615
-0.24308
-0.34154
-0.35385
-0.32308
-0.19385
-0.12
-0.11385
-0.15692
-0.12615
-0.015385
0.12
0.24308
0.18154
-0.021538
-0.24923
-0.31692
-0.24923
-0.10154
0.076923
0.18769
0.16308
0.21231
0.25538
0.35385
0.41538
0.45846
0.28615
-0.021538
-0.31077
-0.45846
-0.50769
-0.41538
-0.29231
-0.23077
-0.21846
-0.15077
0.064615
0.33538
0.66154
0.82769
0.76615
0.53231
0.32308
0.22462
0.18154
0.19385
0.30462
0.41538
0.47077
0.48308
0.42769
0.31692
0.21231
0.10154
-0.0092308
-0.16308
-0.31077
-0.48923
-0.61846
-0.56308
-0.32308
-0.052308
0.13846
0.29231
0.42154
0.50769
0.46462
0.32308
0.076923
-0.15077
-0.19385
-0.16308
-0.13231
-0.13846
-0.16923
-0.24308
-0.28615
-0.16308
-0.027692
0.089231
0.21231
0.36
0.47692
0.50154
0.44
0.26769
0.14462
0.11385
0.23077
0.34154
0.44
0.48308
0.39692
0.26154
0.12615
0.083077
0.052308
0.021538
-0.095385
-0.29846
-0.47692
-0.47692
-0.28615
-0.04
0.23077
0.37846
0.47692
0.57538
0.72308
0.80923
0.63692
0.36
0.14462
0.058462
0.046154
0.15077
0.21846
0.25538
0.32308
0.42769
0.40923
0.29231
0.15077
0.021538
-0.0092308
0.058462
0.13231
0.18769
0.12
0.089231
-0.033846
-0.13231
-0.16308
-0.027692
0.16923
0.29846
0.36615
0.27385
0.15077
0.070769
0.10154
0.16308
0.20615
0.25538
0.18154
0.10769
0.12
0.21231
0.32923
0.36
0.22462
-0.033846
-0.32308
-0.49538
-0.39077
-0.20615
0.027692
0.17538
0.22462
0.21231
0.16923
0.15692
0.027692
-0.15077
-0.37846
-0.50154
-0.56308
-0.49538
-0.41538
-0.34769
-0.14462
0.2
0.52
0.66769
0.68615
0.63077
0.45846
0.31692
0.12615
-0.046154
-0.12
0.015385
0.23692
0.36615
0.30462
0.13231
0.015385
0.04
0.16308
0.24308
0.22462
0.16923
0.076923
-0.12615
-0.35385
-0.43385
-0.36615
-0.21846
-0.10154
0.0030769
-0.027692
-0.046154
0.04
0.14462
0.34154
0.48923
0.59385
0.50769
0.34154
0.19385
0.16308
0.29231
0.45231
0.58769
0.55077
0.40308
0.29846
0.25538
0.34154
0.42769
0.40308
0.18154
0.0030769
-0.058462
-0.095385
-0.16923
-0.31077
-0.37231
-0.37846
-0.20615
0.0030769
0.2
0.28
0.22462
0.13846
-0.0030769
-0.052308
0.058462
0.23692
0.39077
0.40923
0.21231
-0.11385
-0.33538
-0.33538
-0.17538
-0.0030769
0.17538
0.19385
0.19385
0.26769
0.45231
0.62462
0.66154
0.63077
0.50769
0.32308
0.28615
0.34769
0.37846
0.27385
0.14462
0.052308
0.089231
0.10154
0.18154
0.19385
0.18154
0.11385
-0.0030769
-0.089231
-0.033846
0.18154
0.35385
0.41538
0.29846
0.070769
-0.027692
-0.0092308
0.15077
0.2
0.14462
-0.0030769
-0.13846
-0.24923
-0.26154
-0.17538
-0.083077
0.058462
0.20615
0.25538
0.20615
0.076923
-0.10769
-0.26769
-0.29846
-0.16308
-0.04
0.015385
0.027692
-0.015385
-0.046154
0.027692
0.18769
0.26769
0.20615
0.10154
0.027692
-0.015385
-0.052308
-0.064615
-0.15077
-0.26154
-0.27385
-0.28615
-0.32308
-0.37846
-0.36
-0.25538
-0.083077
0.11385
0.16308
0.015385
-0.10769
-0.16308
-0.18769
-0.11385
0.0030769
-0.033846
-0.19385
-0.44615
-0.53846
-0.44615
-0.13846
0.22462
0.47077
0.49538
0.37846
0.27385
0.19385
0.18769
0.19385
0.13231
0.04
-0.058462
-0.15077
-0.26769
-0.23692
-0.058462
0.15077
0.30462
0.35385
0.28615
0.23692
0.2
0.26154
0.27385
0.17538
0.021538
-0.14462
-0.33538
-0.48308
-0.50769
-0.48923
-0.45231
-0.32308
-0.27385
-0.23077
-0.22462
-0.21231
-0.22462
-0.22462
-0.13231
-0.083077
-0.058462
-0.10769
-0.21231
-0.31692
-0.36615
-0.29846
-0.14462
0.021538
0.14462
0.22462
0.2
0.13231
0.089231
0.052308
0.021538
0.015385
0.095385
0.10154
0.11385
0.058462
-0.095385
-0.31077
-0.48308
-0.47077
-0.40308
-0.23077
-0.089231
-0.015385
0.04
0.10769
0.24308
0.24308
0.2
0.076923
-0.046154
-0.083077
-0.0092308
0.064615
0.0092308
-0.14462
-0.34154
-0.44615
-0.40308
-0.2
0.027692
0.064615
-0.04
-0.18154
-0.28
-0.24923
-0.070769
0.070769
0.13231
0.13846
0.13231
0.10154
0.058462
0.076923
0.015385
-0.13231
-0.28615
-0.38462
-0.42154
-0.39077
-0.28615
-0.24923
-0.21846
-0.20615
-0.14462
-0.10154
-0.083077
-0.0092308
0.046154
0.13231
0.24923
0.36
0.35385
0.26769
0.083077
-0.18769
-0.48923
-0.72308
-0.79077
-0.70462
-0.45231
-0.11385
0.04
0.027692
-0.058462
-0.058462
0.015385
0.18154
0.36
0.47077
0.44
0.30462
0.13846
-0.070769
-0.16308
-0.16923
-0.20615
-0.26769
-0.29846
-0.32923
-0.36615
-0.32923
-0.26769
-0.19385
-0.13846
-0.033846
0.033846
0.10769
0.16308
0.21231
0.25538
0.21231
0.18154
0.10769
0.0030769
-0.04
-0.033846
-0.027692
-0.058462
-0.0092308
0.0092308
0.021538
-0.0030769
0.0030769
0.046154
0.15077
0.27385
0.31692
0.24308
0.16923
0.12
0.052308
0.0030769
-0.083077
-0.16923
-0.28615
-0.29231
-0.18769
-0.089231
-0.033846
-0.0030769
-0.0092308
-0.027692
-0.076923
-0.17538
-0.28615
-0.24923
-0.089231
0.064615
0.15692
0.18769
0.16923
0.058462
-0.052308
-0.11385
-0.16923
-0.19385
-0.15692
-0.12
-0.070769
-0.027692
0.064615
0.12615
0.14462
0.095385
0.0092308
-0.064615
-0.021538
0.095385
0.10154
-0.021538
-0.15077
-0.36615
-0.56308
-0.67385
-0.58154
-0.39692
-0.2
-0.027692
-0.0092308
-0.052308
-0.12615
-0.14462
-0.20615
-0.28
-0.26154
-0.24923
-0.25538
-0.28615
-0.28
-0.39077
-0.41538
-0.44
-0.39692
-0.32308
-0.23692
-0.083077
0.021538
0.17538
0.26769
0.26769
0.21846
0.20615
0.31077
0.35385
0.44615
0.53231
0.57538
0.55692
0.45231
0.31077
0.13231
0.027692
0.0092308
0.089231
0.20615
0.36615
0.49538
0.52615
0.56308
0.60615
0.62462
0.60615
0.52615
0.36
0.20615
0.13231
0.23692
0.40923
0.6
0.85846
0.97538
0.95077
0.79692
0.61846
0.54462
0.53846
0.59385
0.50769
0.36615
0.26769
0.29846
0.39077
0.46462
0.56923
0.58769
0.50769
0.34154
0.21231
0.15692
0.15077
0.2
0.17538
0.14462
0.18769
0.27385
0.29846
0.28
0.26769
0.18154
0.13231
0.13846
0.19385
0.16923
0.095385
0.0092308
-0.064615
-0.10769
-0.052308
0.046154
0.12615
0.31692
0.51385
0.63077
0.55692
0.32923
0.052308
-0.16923
-0.21231
-0.16923
-0.21231
-0.29231
-0.29231
-0.19385
0.04
0.24923
0.47692
0.55077
0.42154
0.21846
-0.11385
-0.37846
-0.58769
-0.69846
-0.69231
-0.56308
-0.29231
-0.12
-0.083077
-0.13846
-0.083077
0.021538
0.052308
0.052308
-0.14462
-0.26154
-0.23692
-0.10769
-0.089231
-0.18154
-0.2
-0.10769
0.13231
0.36615
0.45846
0.34154
0.24923
0.16308
0.076923
-0.076923
-0.22462
-0.23692
-0.18769
-0.052308
0.14462
0.22462
0.14462
-0.015385
-0.13231
-0.21846
-0.17538
-0.10769
-0.058462
-0.033846
0.033846
0.076923
0.10769
0.15692
0.18154
0.21846
0.21846
0.26769
0.27385
0.20615
0.10769
0.076923
0.095385
0.12
0.17538
0.13846
0.046154
-0.13846
-0.31692
-0.42154
-0.45846
-0.34154
-0.18769
-0.046154
0.04
0.089231
-0.033846
-0.18154
-0.23692
-0.25538
-0.24308
-0.21846
-0.18154
-0.18154
-0.13231
-0.027692
0.12
0.21846
0.26154
0.23692
0.070769
-0.0092308
0.04
0.15077
0.23077
0.2
0.12
0.027692
0.095385
0.23077
0.28615
0.22462
0.11385
0.064615
-0.015385
-0.052308
-0.058462
-0.070769
-0.11385
-0.10154
-0.13231
-0.21231
-0.26769
-0.21846
-0.083077
0.083077
0.21846
0.26154
0.26769
0.29231
0.41538
0.58154
0.63692
0.63692
0.43385
0.21846
0.083077
0.16923
0.27385
0.30462
0.29231
0.17538
0.13231
0.17538
0.35385
0.43385
0.39692
0.32308
0.11385
-0.11385
-0.22462
-0.16308
-0.089231
-0.052308
-0.076923
-0.15077
-0.26154
-0.25538
-0.17538
-0.052308
0.10154
0.21846
0.16308
-0.0030769
-0.14462
-0.10154
-0.070769
-0.021538
-0.052308
-0.13231
-0.17538
-0.12
0.089231
0.21231
0.23692
0.10154
-0.0092308
-0.04
0.033846
0.19385
0.22462
0.18769
0.12
0.058462
0.0092308
0.083077
0.15692
0.18154
0.076923
-0.16923
-0.41538
-0.53231
-0.40308
-0.24308
-0.19385
-0.22462
-0.31692
-0.36
-0.37846
-0.27385
-0.21846
-0.18154
-0.12615
-0.070769
-0.033846
0.015385
0.083077
0.10769
0.076923
0.058462
0.064615
0.033846
-0.052308
-0.095385
-0.070769
0.04
0.14462
0.24308
0.18769
0.10154
0.0030769
-0.089231
-0.19385
-0.24923
-0.20615
-0.14462
-0.027692
0.0030769
-0.089231
-0.17538
-0.24923
-0.2
-0.17538
-0.12
-0.052308
-0.046154
-0.10769
-0.12
-0.10769
-0.12615
-0.10769
-0.070769
-0.12
-0.21846
-0.32308
-0.40923
-0.44
-0.40923
-0.34154
-0.24308
-0.14462
0.058462
0.14462
0.12615
0.089231
0.076923
0.064615
0.0030769
-0.095385
-0.23077
-0.30462
-0.28615
-0.18769
-0.16923
-0.25538
-0.33538
-0.41538
-0.40923
-0.32923
-0.18154
-0.12
-0.16923
-0.21231
-0.21846
-0.095385
0.027692
0.064615
-0.070769
-0.20615
-0.23077
-0.19385
-0.16308
-0.17538
-0.17538
-0.29231
-0.38462
-0.46462
-0.48923
-0.42154
-0.27385
-0.064615
-0.046154
-0.04
-0.064615
0.0092308
0.095385
0.15077
0.070769
-0.083077
-0.12
-0.0092308
0.13846
0.076923
-0.046154
-0.20615
-0.27385
-0.23077
-0.18769
-0.15077
-0.2
-0.10769
0.046154
0.21846
0.29846
0.23077
0.046154
-0.095385
-0.015385
0.10769
0.17538
0.11385
-0.04
-0.095385
-0.046154
0.20615
0.37846
0.45231
0.33538
0.12615
-0.13231
-0.29846
-0.28615
-0.16923
0.021538
0.23692
0.46462
0.53231
0.43385
0.28615
0.17538
0.18154
0.28
0.38462
0.33538
0.25538
0.2
0.20615
0.24923
0.29231
0.35385
0.30462
0.24308
0.22462
0.21846
0.29231
0.32923
0.29231
0.12
-0.046154
-0.070769
0.033846
0.2
0.33538
0.32308
0.13846
-0.083077
-0.23692
-0.25538
-0.15077
0.083077
0.28
0.34769
0.30462
0.26769
0.25538
0.21846
0.26154
0.23692
0.19385
0.12
0.046154
-0.033846
-0.089231
0.04
0.18769
0.36615
0.43385
0.34769
0.095385
-0.13846
-0.18154
-0.064615
0.10154
0.19385
0.21231
0.089231
-0.064615
-0.21846
-0.35385
-0.46462
-0.47692
-0.33538
-0.13231
0.13231
0.28615
0.13846
-0.16923
-0.44615
-0.49538
-0.43385
-0.29846
-0.18769
-0.15692
-0.17538
-0.095385
0.10154
0.21846
0.21231
0.052308
-0.23692
-0.45846
-0.49538
-0.28
0.015385
0.25538
0.39692
0.37846
0.36
0.42769
0.49538
0.51385
0.45846
0.36615
0.19385
0.033846
0.027692
0.12615
0.32923
0.46462
0.44615
0.21846
-0.095385
-0.25538
-0.2
0.015385
0.24923
0.37231
0.30462
0.2
0.20615
0.19385
0.10154
-0.052308
-0.18769
-0.29231
-0.24308
-0.095385
0.095385
0.28
0.48308
0.69846
0.71692
0.51385
0.2
-0.095385
-0.21846
-0.14462
-0.015385
-0.046154
-0.10154
-0.089231
0.076923
0.24308
0.37846
0.32923
0.19385
0.095385
0.076923
0.0092308
-0.10154
-0.20615
-0.23077
-0.18154
-0.095385
-0.033846
-0.083077
-0.21846
-0.21231
-0.15077
-0.076923
-0.089231
-0.083077
0.046154
0.30462
0.66154
0.83385
0.73538
0.48923
0.23692
0.095385
0.12615
0.34154
0.44615
0.38462
0.23692
0.11385
0.076923
0.083077
0.15077
0.25538
0.37846
0.53231
0.67385
0.61846
0.49538
0.35385
0.27385
0.31077
0.37846
0.42769
0.39077
0.40308
0.50154
0.58154
0.55692
0.36615
0.2
0.064615
0.13846
0.32308
0.43385
0.43385
0.42154
0.39692
0.36615
0.40923
0.51385
0.67385
0.76
0.84
0.81538
0.56308
0.23692
-0.04
-0.11385
0.0030769
0.19385
0.35385
0.40923
0.44615
0.43385
0.37231
0.18769
0.064615
-0.083077
-0.089231
0.058462
0.24923
0.25538
0.04
-0.26769
-0.42769
-0.37231
-0.2
0.027692
0.10769
0.083077
0.13231
0.095385
0.12
0.14462
0.15692
0.12615
0.095385
0.095385
0.070769
-0.04
-0.2
-0.38462
-0.58769
-0.68
-0.65538
-0.50769
-0.39692
-0.27385
-0.15077
-0.064615
0.021538
0.033846
-0.027692
-0.13231
-0.064615
0.076923
0.12615
0.033846
-0.12
-0.25538
-0.29231
-0.18769
-0.04
-0.0030769
0.10769
0.20615
0.27385
0.26154
0.22462
0.12615
0.089231
0.083077
0.14462
0.11385
-0.089231
-0.29231
-0.42769
-0.39077
-0.19385
0.033846
0.12615
0.046154
-0.04
-0.11385
-0.16923
-0.19385
-0.21846
-0.25538
-0.2
-0.095385
0.021538
0.052308
0.027692
-0.0030769
-0.083077
-0.15692
-0.070769
0.10769
0.31692
0.44615
0.42769
0.18769
-0.0092308
-0.046154
0.033846
0.070769
0.052308
-0.070769
-0.22462
-0.23692
-0.16923
-0.13846
-0.20615
-0.32923
-0.39692
-0.40923
-0.23692
0.058462
0.31077
0.43385
0.40308
0.27385
0.15692
0.13231
0.22462
0.34769
0.40923
0.42769
0.31692
0.083077
-0.070769
-0.0030769
0.21231
0.44615
0.59385
0.61846
0.61231
0.63692
0.64308
0.56923
0.35385
0.15077
-0.052308
-0.17538
-0.15692
0.046154
0.23692
0.39077
0.42769
0.32308
0.13231
-0.021538
-0.089231
-0.14462
-0.13231
-0.10769
-0.070769
-0.095385
-0.16308
-0.24923
-0.42154
-0.50154
-0.53231
-0.48308
-0.39077
-0.24923
-0.015385
0.19385
0.34154
0.24923
-0.0030769
-0.28
-0.35385
-0.22462
-0.12615
-0.070769
-0.10769
-0.18154
-0.25538
-0.25538
-0.21846
-0.12615
0.070769
0.27385
0.38462
0.36615
0.37231
0.32923
0.26769
0.17538
0.070769
0.0092308
-0.04
0.015385
0.052308
0.12
0.21846
0.28615
0.20615
0.046154
-0.095385
-0.13846
-0.10154
-0.052308
0.0092308
-0.064615
-0.18769
-0.27385
-0.34769
-0.36615
-0.30462
-0.23692
-0.26154
-0.36615
-0.47692
-0.52
-0.48923
-0.33538
-0.10769
0.083077
0.28
0.35385
0.26769
0.064615
-0.16923
-0.36
-0.52615
-0.50769
-0.39077
-0.23077
-0.089231
0.046154
0.18154
0.12
0.058462
0.076923
0.14462
0.24923
0.33538
0.29846
0.16923
0.027692
-0.10769
-0.23077
-0.38462
-0.43385
-0.41538
-0.32308
-0.23077
-0.11385
-0.04
0.070769
0.19385
0.23692
0.23077
0.21231
0.23077
0.22462
0.15077
0.13846
0.083077
0.04
-0.0092308
-0.021538
-0.04
-0.0092308
0.13231
0.32923
0.46462
0.47692
0.37231
0.089231
-0.2
-0.37846
-0.46462
-0.44
-0.28615
-0.11385
-0.015385
0.021538
-0.021538
-0.089231
-0.14462
-0.13846
-0.027692
0.076923
0.19385
0.13231
-0.046154
-0.28615
-0.40923
-0.29846
-0.076923
0.32308
0.74154
0.92615
0.83385
0.62462
0.52615
0.50769
0.62462
0.67385
0.6
0.43385
0.33538
0.31692
0.34154
0.34769
0.28
0.12615
-0.089231
-0.15077
-0.18154
-0.21231
-0.29846
-0.36615
-0.34769
-0.24308
-0.033846
0.0092308
-0.16923
-0.37846
-0.46462
-0.42154
-0.24923
-0.04
0.046154
-0.0030769
-0.16923
-0.29231
-0.36615
-0.31077
-0.18769
-0.089231
-0.083077
-0.15692
-0.24923
-0.30462
-0.22462
-0.015385
0.095385
0.0092308
-0.20615
-0.36
-0.42769
-0.28615
-0.089231
-0.0030769
-0.11385
-0.24308
-0.26769
-0.24923
-0.16308
-0.16923
-0.28
-0.44
-0.52
-0.45846
-0.30462
-0.12
-0.015385
-0.033846
-0.16308
-0.22462
-0.26154
-0.16923
0.015385
0.26154
0.37231
0.31077
0.24923
0.21846
0.23077
0.32308
0.41538
0.40923
0.29846
0.22462
0.19385
0.21846
0.26769
0.34154
0.31692
0.17538
0.021538
-0.13846
-0.28615
-0.36
-0.33538
-0.28
-0.19385
-0.095385
-0.04
-0.064615
-0.10154
-0.14462
-0.28615
-0.40923
-0.44
-0.40308
-0.27385
-0.15077
-0.04
-0.0092308
0.04
0.076923
0.083077
0.015385
-0.083077
-0.12615
-0.18154
-0.11385
0.027692
0.18154
0.24923
0.24923
0.21846
0.13231
0.058462
0.04
0.04
0.058462
0.083077
0.046154
-0.058462
-0.083077
0.015385
0.19385
0.34769
0.45846
0.45846
0.37231
0.28615
0.29846
0.36
0.40308
0.44
0.38462
0.31692
0.29231
0.39077
0.44
0.38462
0.26769
0.10769
-0.033846
-0.13231
-0.076923
-0.027692
0.027692
0.058462
0.052308
-0.0092308
-0.015385
0.021538
0.046154
0.13846
0.23692
0.29846
0.29846
0.28
0.34154
0.34154
0.39077
0.32308
0.26154
0.2
0.22462
0.29231
0.21231
0.13846
0.064615
0.015385
-0.0092308
0.046154
0.13846
0.16308
0.16308
0.11385
0.070769
0.083077
0.20615
0.30462
0.31692
0.29846
0.31077
0.33538
0.29231
0.30462
0.23692
0.19385
0.15692
0.10154
0.064615
-0.058462
-0.12
-0.24923
-0.37231
-0.32308
-0.12615
0.033846
0.095385
0.089231
0.027692
-0.027692
-0.083077
-0.13846
-0.26769
-0.36615
-0.36615
-0.32308
-0.29846
-0.24923
-0.15077
-0.046154
0.064615
0.19385
0.21846
0.14462
0.027692
-0.058462
-0.10769
-0.052308
0.052308
0.083077
0.089231
-0.0030769
0.0092308
-0.046154
-0.021538
-0.021538
-0.027692
-0.15692
-0.30462
-0.43385
-0.49538
-0.36615
-0.13231
0.10154
0.20615
0.24923
0.18769
0.14462
0.052308
-0.0092308
-0.058462
-0.10154
-0.04
0.0030769
0.021538
0.083077
0.12
0.046154
-0.083077
-0.083077
-0.0092308
0.13231
0.21846
0.20615
0.12615
-0.0030769
-0.13846
-0.26769
-0.32308
-0.31692
-0.16308
-0.027692
0.16923
0.34154
0.40923
0.28615
0.12
0.027692
0.04
0.2
0.37231
0.44615
0.38462
0.36
0.39692
0.39692
0.34154
0.24308
0.19385
0.17538
0.22462
0.29846
0.27385
0.28615
0.28615
0.28
0.21846
0.16923
0.10769
-0.0030769
-0.0092308
0.064615
0.20615
0.28
0.30462
0.28
0.25538
0.26154
0.24308
0.095385
-0.15692
-0.36615
-0.41538
-0.23077
0.046154
0.37231
0.52615
0.50154
0.48923
0.45846
0.49538
0.52615
0.49538
0.33538
0.0030769
-0.23692
-0.34769
-0.19385
0.21231
0.66769
0.85231
0.76615
0.58769
0.45231
0.45231
0.53231
0.61231
0.42154
0.25538
0.14462
0.058462
-0.10769
-0.31077
-0.47692
-0.53231
-0.37846
-0.12615
0.083077
0.13846
0.076923
-0.070769
-0.17538
-0.089231
0.12
0.28615
0.28615
0.13846
0.10154
0.10154
0.23077
0.35385
0.39692
0.34154
0.32308
0.29846
0.18154
0.021538
-0.13846
-0.24308
-0.25538
-0.16923
-0.15692
-0.16308
-0.15692
-0.10154
-0.0092308
-0.015385
0.0030769
-0.14462
-0.32923
-0.42769
-0.30462
0.0092308
0.30462
0.54462
0.54462
0.38462
0.20615
0.033846
-0.095385
-0.095385
0.058462
0.23692
0.27385
0.13231
-0.04
-0.21231
-0.17538
-0.058462
-0.021538
-0.10769
-0.18769
-0.19385
-0.20615
-0.16308
-0.16923
-0.23077
-0.30462
-0.32923
-0.19385
-0.10154
0.0092308
0.027692
-0.046154
-0.18154
-0.24923
-0.18154
-0.083077
0.070769
0.12615
0.13846
0.12615
0.095385
0.052308
-0.070769
-0.14462
-0.16923
-0.19385
-0.22462
-0.18154
-0.15692
-0.11385
-0.021538
0.10154
0.14462
-0.0092308
-0.24308
-0.47077
-0.54462
-0.40923
-0.15077
-0.0030769
0.04
-0.015385
-0.089231
-0.18154
-0.24923
-0.26769
-0.26154
-0.2
-0.15692
-0.18769
-0.23692
-0.12615
0.089231
0.23077
0.24923
0.11385
-0.083077
-0.28615
-0.40308
-0.35385
-0.33538
-0.28
-0.29231
-0.36
-0.40923
-0.36615
-0.22462
-0.13231
-0.027692
0.021538
0.015385
-0.11385
-0.16308
-0.23077
-0.35385
-0.47077
-0.54462
-0.50154
-0.36615
-0.17538
-0.064615
-0.070769
-0.12
-0.10154
0.015385
0.095385
0.11385
-0.0030769
-0.2
-0.27385
-0.13846
0.10154
0.28
0.44615
0.48308
0.47692
0.48308
0.53231
0.53846
0.50154
0.43385
0.32308
0.2
0.095385
0.064615
0.015385
-0.052308
-0.083077
-0.14462
-0.095385
0.046154
0.21846
0.25538
0.18769
0.04
-0.083077
-0.10154
0.052308
0.31692
0.47077
0.57538
0.63692
0.69231
0.66769
0.65538
0.52
0.24308
-0.0092308
-0.19385
-0.14462
0.021538
0.30462
0.45846
0.43385
0.33538
0.30462
0.37231
0.37846
0.36615
0.31077
0.16923
0.12615
0.13231
0.28615
0.37846
0.52615
0.54462
0.63077
0.74154
0.87077
0.90769
0.76615
0.6
0.32308
-0.021538
-0.26769
-0.41538
-0.42154
-0.29846
-0.0092308
0.26769
0.46462
0.52615
0.48923
0.39077
0.28615
0.24308
0.10154
-0.10154
-0.24308
-0.21846
-0.064615
0.18769
0.40923
0.46462
0.42154
0.34769
0.34769
0.29231
0.28
0.24923
0.24308
0.21231
0.21846
0.26154
0.19385
0.22462
0.24923
0.24923
0.24308
0.2
0.12
-0.083077
-0.21846
-0.28615
-0.31692
-0.35385
-0.32923
-0.22462
-0.095385
0.04
0.13231
0.13231
0.083077
0.0092308
-0.04
-0.083077
-0.13231
-0.18769
-0.28615
-0.37846
-0.30462
-0.24923
-0.27385
-0.34154
-0.32308
-0.21231
-0.064615
0.04
-0.0092308
-0.15692
-0.26154
-0.27385
-0.2
-0.12615
-0.033846
-0.064615
-0.12615
-0.10154
0.046154
0.24308
0.38462
0.36615
0.2
-0.021538
-0.18769
-0.14462
-0.11385
-0.021538
0.0030769
-0.015385
0.033846
0.11385
0.24308
0.21846
0.24923
0.33538
0.40923
0.40923
0.30462
0.11385
-0.20615
-0.50154
-0.71077
-0.78462
-0.70462
-0.36615
-0.0092308
0.13231
0.070769
-0.13846
-0.26769
-0.28
-0.19385
-0.21231
-0.38462
-0.66769
-0.87077
-1
-0.93846
-0.66769
-0.33538
-0.095385
-0.0092308
-0.052308
-0.12615
-0.14462
-0.11385
-0.15692
-0.29846
-0.48308
-0.56308
-0.59385
-0.47077
-0.2
0.089231
0.29846
0.44
0.55692
0.61231
0.58769
0.49538
0.33538
0.16923
0.083077
0.046154
-0.064615
-0.18769
-0.30462
-0.34154
-0.25538
-0.052308
0.15077
0.25538
0.34769
0.39692
0.32923
0.12615
-0.04
-0.10154
-0.12
-0.076923
0.015385
0.20615
0.34769
0.44
0.39692
0.30462
0.22462
0.16308
0.021538
-0.19385
-0.37846
-0.50154
-0.56308
-0.53846
-0.44615
-0.23077
-0.046154
0.13231
0.14462
0.064615
-0.021538
0.021538
0.083077
0.095385
0.046154
-0.15077
-0.33538
-0.31692
-0.033846
0.39692
0.76
1
0.98154
0.82769
0.64923
0.55692
0.46462
0.45231
0.37231
0.18769
-0.083077
-0.18769
-0.027692
0.25538
0.51385
0.55692
0.37846
0.16923
0.13231
0.21231
0.14462
0.015385
-0.20615
-0.39077
-0.50769
-0.53846
-0.47077
-0.29846
0.0030769
0.30462
0.45846
0.50154
0.50154
0.50154
0.39692
0.29231
0.23692
0.15077
0.0030769
-0.13231
-0.28
-0.28615
-0.15692
0.089231
0.24923
0.27385
0.20615
0.076923
-0.046154
-0.076923
-0.015385
0.015385
0.015385
0.15692
0.23692
0.32923
0.31077
0.27385
0.19385
0.12
0.11385
0.13846
0.18154
0.25538
0.36
0.38462
0.37846
0.36615
0.32308
0.29231
0.21231
0.18154
0.11385
0.10154
0.2
0.26769
0.31077
0.26154
0.16923
0.0030769
-0.021538
0.058462
0.13846
0.16923
0.18769
0.27385
0.25538
0.19385
0.064615
-0.052308
-0.0030769
0.21231
0.42154
0.39692
0.2
-0.015385
-0.11385
-0.04
0.13231
0.23077
0.16923
0.064615
0.046154
0.046154
0.064615
0.027692
-0.076923
-0.2
-0.26154
-0.23692
-0.26769
-0.37846
-0.42769
-0.48923
-0.45231
-0.36
-0.16923
-0.046154
0.046154
0.089231
0.10769
0.10769
0.033846
-0.058462
-0.13846
-0.16308
-0.058462
-0.0092308
0.0092308
-0.027692
-0.052308
-0.16308
-0.21846
-0.19385
-0.13846
-0.095385
-0.046154
-0.052308
-0.15077
-0.27385
-0.28
-0.15692
0.052308
0.12615
-0.0092308
-0.34154
-0.53846
-0.43385
-0.18769
-0.015385
-0.052308
-0.21231
-0.37231
-0.31077
-0.04
0.23077
0.29231
0.21846
0.052308
-0.021538
-0.0030769
0.083077
0.089231
0.021538
0.070769
0.15077
0.24923
0.26769
0.23692
0.095385
-0.10769
-0.22462
-0.30462
-0.20615
-0.046154
0.12
0.12615
0.04
-0.015385
-0.021538
0.0092308
0.076923
0.046154
-0.11385
-0.31692
-0.39692
-0.36615
-0.26154
-0.14462
-0.052308
-0.046154
-0.10154
-0.16308
-0.22462
-0.19385
-0.04
0.10769
0.10769
0.052308
-0.0092308
-0.0092308
0.021538
0.14462
0.34154
0.35385
0.23692
0.052308
-0.076923
-0.10154
-0.015385
0.10154
0.10154
0.070769
0.083077
0.064615
0.046154
-0.015385
-0.16308
-0.34154
-0.45231
-0.41538
-0.32923
-0.24308
-0.089231
0.076923
0.27385
0.45231
0.54462
0.48308
0.37231
0.36
0.34769
0.30462
0.14462
0.0092308
-0.076923
-0.070769
0.070769
0.24923
0.33538
0.26154
0.076923
-0.13846
-0.24308
-0.2
-0.13231
-0.13231
-0.2
-0.20615
-0.21846
-0.15077
-0.10154
-0.10154
-0.070769
0.033846
0.13846
0.12
0.0092308
-0.11385
-0.13846
-0.070769
0.046154
0.15077
0.095385
0.052308
0.021538
0.046154
0.046154
0.076923
0.095385
0.021538
-0.070769
-0.20615
-0.33538
-0.42154
-0.33538
-0.19385
-0.046154
0.027692
0.058462
0.046154
-0.0092308
0.058462
0.13231
0.15692
0.20615
0.23692
0.25538
0.22462
0.25538
0.17538
0.16923
0.15692
0.13231
0.089231
0.083077
0.19385
0.25538
0.19385
0.11385
0.027692
-0.052308
-0.14462
-0.12615
-0.052308
0.021538
0.04
0.027692
-0.033846
0.033846
0.16308
0.2
0.095385
-0.064615
-0.22462
-0.36615
-0.39692
-0.34769
-0.26769
-0.18154
-0.095385
0.052308
0.18769
0.39692
0.56923
0.66154
0.62462
0.55077
0.40308
0.21846
0.13231
0.10769
0.076923
0.070769
0.10154
0.17538
0.2
0.2
0.21846
0.29846
0.44
0.55077
0.45846
0.23692
0.033846
-0.015385
0.058462
0.12
0.2
0.13846
0.15077
0.23077
0.39692
0.50154
0.42154
0.24923
-0.033846
-0.25538
-0.31692
-0.18154
0.015385
0.15692
0.24308
0.16923
0.089231
0.10154
0.25538
0.47077
0.58154
0.43385
0.14462
-0.15077
-0.28615
-0.26769
-0.35385
-0.44615
-0.50154
-0.47692
-0.36
-0.089231
0.28615
0.52615
0.6
0.52615
0.36
0.21846
0.12615
0.10154
0.015385
-0.089231
-0.29231
-0.48308
-0.58154
-0.44
-0.15692
0.021538
0.10154
0.083077
0.04
0.04
0.04
-0.052308
-0.21846
-0.34154
-0.37231
-0.31077
-0.22462
-0.052308
0.046154
0.052308
-0.10154
-0.27385
-0.34769
-0.25538
0.076923
0.34154
0.41538
0.28
0.033846
-0.2
-0.29231
-0.14462
0.10769
0.34769
0.37846
0.21231
-0.04
-0.15077
-0.070769
0.10154
0.55077
