-0.09589
-0.16314
-0.2254
-0.27273
-0.28518
-0.27771
-0.23537
-0.18306
-0.10834
-0.023661
0.061021
0.18804
0.32005
0.47696
0.59651
0.67123
0.67123
0.60399
0.50187
0.40971
0.36737
0.38232
0.42466
0.42217
0.31507
0.14072
-0.05604
-0.19552
-0.27771
-0.29514
-0.29514
-0.25031
-0.21544
-0.17808
-0.1457
-0.10585
-0.073474
-0.058531
-0.058531
-0.048568
-0.01868
0.036115
0.11333
0.18804
0.23786
0.2802
0.35243
0.46451
0.63387
0.74097
0.74346
0.63387
0.48194
0.33001
0.21544
0.11333
0.043587
-0.0087173
-0.058531
-0.10087
-0.1457
-0.19801
-0.2528
-0.30511
-0.34247
-0.37983
-0.37983
-0.34496
-0.29016
-0.22291
-0.15318
-0.10087
-0.080946
-0.0934
-0.11831
-0.11083
-0.028643
0.05604
0.063512
0.053549
0.063512
0.17061
0.2802
0.28767
0.23537
0.15318
0.10336
0.09589
0.10834
0.11083
0.12827
0.15567
0.16812
0.18306
0.18057
0.18306
0.17061
0.15318
0.14072
0.1208
0.09589
0.070984
0.053549
0.023661
0.01868
-0.0087173
-0.051059
-0.038605
0.028643
0.14321
0.31009
0.467
0.63636
0.72603
0.68618
0.54172
0.34994
0.1731
0.043587
-0.048568
-0.048568
-0.11083
-0.14321
-0.13325
-0.090909
-0.033624
0.023661
0.068493
0.0934
0.10834
0.12329
0.14072
0.15816
0.15816
0.15068
0.12578
0.073474
-0.016189
-0.13076
-0.20548
-0.19303
-0.11083
-0.083437
-0.10834
-0.1208
-0.075965
0.046077
0.09589
0.068493
-0.048568
-0.16563
-0.23288
-0.25529
-0.24782
-0.23039
-0.16812
-0.080946
0.011208
0.068493
0.10336
0.098381
0.085928
0.063512
0.028643
0.011208
0.01868
0.038605
0.053549
0.053549
0.043587
-0.028643
-0.11083
-0.21793
-0.22042
-0.10585
0.088418
0.27771
0.35741
0.44707
0.5467
0.67621
0.67372
0.55417
0.34994
0.18306
0.098381
0.073474
0.070984
0.070984
0.10087
0.14321
0.18804
0.21295
0.21544
0.18804
0.15567
0.14072
0.13574
0.14819
0.17061
0.21544
0.24533
0.24782
0.21793
0.1208
0.085928
0.15816
0.30511
0.44209
0.50187
0.52179
0.59651
0.69116
0.76339
0.75093
0.65629
0.52179
0.41469
0.34745
0.31507
0.30012
0.30012
0.27771
0.24533
0.1731
0.061021
-0.048568
-0.15567
-0.24035
-0.3076
-0.32503
-0.33001
-0.2802
-0.17808
0.0087173
0.23537
0.38232
0.45704
0.467
0.50934
0.58655
0.64134
0.64134
0.5467
0.41719
0.29016
0.2005
0.13325
0.090909
0.043587
-0.021171
-0.068493
-0.10834
-0.13823
-0.16065
-0.1731
-0.1731
-0.16314
-0.16563
-0.16563
-0.17061
-0.2005
-0.27522
-0.33001
-0.31756
-0.15068
0.085928
0.25778
0.34994
0.34994
0.40971
0.47198
0.55915
0.56164
0.46451
0.30012
0.13574
0.028643
-0.01868
-0.046077
-0.066002
-0.088418
-0.11582
-0.14072
-0.1731
-0.19303
-0.19552
-0.20548
-0.21295
-0.20548
-0.16563
-0.066002
0.066002
0.19552
0.29265
0.34496
0.39228
0.36488
0.27771
0.13823
-0.0012453
-0.10834
-0.18555
-0.19801
-0.16065
-0.088418
-0.026152
0.026152
0.063512
0.061021
0.043587
0.0062267
-0.016189
-0.038605
-0.063512
-0.10087
-0.13574
-0.14072
-0.15567
-0.18057
-0.22291
-0.2528
-0.2005
-0.036115
0.18804
0.40473
0.55666
0.65878
0.74346
0.74595
0.69863
0.56912
0.45704
0.35243
0.27273
0.2254
0.19801
0.15567
0.10087
0.038605
-0.016189
-0.061021
-0.061021
-0.066002
-0.046077
-0.023661
0.016189
0.09589
0.23786
0.41469
0.55666
0.62142
0.62391
0.62391
0.62391
0.63885
0.60648
0.52927
0.42466
0.33998
0.26775
0.21295
0.17808
0.15816
0.12578
0.070984
0.028643
-0.003736
-0.043587
-0.066002
-0.088418
-0.098381
-0.11582
-0.12329
-0.12578
-0.12578
-0.15816
-0.24533
-0.24533
-0.11333
0.15567
0.45205
0.62391
0.66625
0.61395
0.50685
0.42964
0.41968
0.41469
0.37983
0.2528
0.09589
-0.061021
-0.17061
-0.23537
-0.27522
-0.29265
-0.29265
-0.28269
-0.29265
-0.33499
-0.34994
-0.3599
-0.36737
-0.33748
-0.27024
-0.12578
0.080946
0.29016
0.46202
0.54919
0.52677
0.45953
0.42715
0.45455
0.54172
0.55168
0.47945
0.31258
0.15068
0.021171
-0.070984
-0.11582
-0.13823
-0.15068
-0.15816
-0.16314
-0.17559
-0.18804
-0.18804
-0.17808
-0.16065
-0.14072
-0.15567
-0.21793
-0.2802
-0.2528
-0.078456
0.2254
0.52927
0.74595
0.79577
0.74595
0.68618
0.66376
0.67372
0.67621
0.58157
0.40722
0.19054
-0.0087173
-0.17808
-0.31009
-0.38481
-0.4396
-0.42715
-0.38481
-0.32503
-0.27522
-0.20548
-0.14321
-0.068493
0.058531
0.26276
0.52428
0.75093
0.88294
0.89041
0.8132
0.70859
0.64882
0.66376
0.67621
0.63138
0.48194
0.29265
0.10834
-0.041096
-0.13574
-0.19552
-0.20797
-0.19552
-0.16812
-0.13574
-0.10336
-0.098381
-0.11831
-0.15068
-0.2005
-0.26027
-0.31507
-0.30262
-0.17061
0.073474
0.36239
0.57659
0.66874
0.61644
0.48941
0.4122
0.36239
0.37983
0.35492
0.24782
0.048568
-0.15567
-0.3325
-0.45704
-0.52179
-0.55417
-0.56413
-0.54919
-0.52179
-0.50934
-0.49191
-0.47447
-0.42964
-0.38232
-0.25031
-0.073474
0.15816
0.40224
0.599
0.73848
0.75841
0.69863
0.64882
0.62391
0.67372
0.64882
0.5193
0.32503
0.11083
-0.073474
-0.20548
-0.3076
-0.35243
-0.36239
-0.34496
-0.29763
-0.23039
-0.15318
-0.075965
-0.0062267
0.038605
0.036115
0.003736
-0.033624
0.011208
0.1731
0.44458
0.72852
0.92279
0.96513
0.87547
0.74346
0.6264
0.57908
0.52428
0.43711
0.30012
0.13574
-0.013699
-0.14819
-0.21544
-0.25529
-0.27771
-0.29763
-0.30262
-0.28269
-0.24035
-0.18555
-0.13325
-0.078456
0.0087173
0.13325
0.26526
0.37983
0.44458
0.43462
0.34994
0.21544
0.12578
0.10336
0.15318
0.19303
0.14072
0.026152
-0.0934
-0.16563
-0.2005
-0.22042
-0.23288
-0.23537
-0.23288
-0.21046
-0.18057
-0.15567
-0.13325
-0.11582
-0.10336
-0.12827
-0.16065
-0.18804
-0.16314
-0.033624
0.21046
0.51432
0.77584
0.93026
0.91034
0.78331
0.65878
0.58157
0.52428
0.45953
0.33748
0.18057
-0.0062267
-0.16563
-0.29016
-0.35243
-0.40722
-0.4396
-0.45953
-0.45205
-0.40473
-0.32503
-0.21295
-0.083437
0.0934
0.3076
0.52927
0.71357
0.82565
0.83064
0.74346
0.62142
0.52179
0.46949
0.34994
0.2005
0.011208
-0.16563
-0.27771
-0.34994
-0.38481
-0.39228
-0.36737
-0.32752
-0.25778
-0.17808
-0.10585
-0.051059
-0.013699
0.003736
0.003736
-0.011208
-0.063512
-0.13076
-0.18306
-0.15068
-0.0087173
0.20299
0.36488
0.40473
0.3325
0.26027
0.23786
0.25031
0.24533
0.21295
0.16563
0.1208
0.068493
0.043587
0.038605
0.031133
0.021171
0.0062267
-0.016189
-0.063512
-0.11083
-0.13823
-0.16314
-0.16314
-0.14819
-0.10834
-0.036115
0.075965
0.1731
0.21046
0.16812
0.10087
0.075965
0.11831
0.16812
0.16314
0.11582
0.05604
0.026152
0.033624
0.036115
0.05604
0.048568
0.021171
0.0062267
-0.0087173
-0.026152
-0.038605
-0.058531
-0.088418
-0.098381
-0.10834
-0.11333
-0.13325
-0.14819
-0.14819
-0.070984
0.10834
0.33748
0.56912
0.68369
0.64633
0.53923
0.45455
0.46451
0.50685
0.51432
0.45205
0.33001
0.19552
0.098381
0.043587
0.028643
0.036115
0.053549
0.085928
0.11333
0.11582
0.10336
0.0934
0.083437
0.080946
0.11582
0.2005
0.3599
0.4944
0.56912
0.52179
0.40722
0.33001
0.32503
0.36986
0.37733
0.31258
0.21793
0.12578
0.061021
0.026152
0.016189
0.053549
0.10087
0.1457
0.17808
0.1731
0.14321
0.058531
-0.075965
-0.22291
-0.35741
-0.42466
-0.4396
-0.38481
-0.2279
-0.0062267
0.25778
0.42715
0.48692
0.42715
0.31009
0.16812
0.048568
-0.048568
-0.083437
-0.080946
-0.046077
-0.0012453
0.038605
0.085928
0.09589
0.088418
0.058531
0.038605
0.003736
-0.031133
-0.048568
-0.028643
0.021171
0.10585
0.17808
0.26526
0.31009
0.3325
0.34247
0.35243
0.31507
0.24284
0.14072
0.053549
-0.0012453
-0.0062267
0.023661
0.048568
0.075965
0.080946
0.0934
0.12329
0.17061
0.2254
0.27522
0.30511
0.31258
0.30511
0.29514
0.28518
0.24533
0.1731
0.11333
0.078456
0.073474
0.11083
0.13076
0.083437
-0.0012453
-0.085928
-0.16812
-0.22291
-0.25778
-0.26526
-0.26775
-0.26526
-0.25778
-0.24284
-0.19303
-0.11083
0.0062267
0.11582
0.20299
0.24035
0.24533
0.19801
0.21295
0.26775
0.33998
0.36239
0.29514
0.16812
0.031133
-0.080946
-0.18306
-0.23786
-0.26027
-0.27024
-0.25778
-0.23288
-0.19801
-0.15567
-0.11582
-0.080946
-0.046077
-0.026152
-0.0012453
0.0062267
0.033624
0.073474
0.11083
0.13574
0.1208
0.051059
-0.10087
-0.21793
-0.20299
-0.05604
0.098381
0.17061
0.19552
0.27771
0.39228
0.47696
0.42964
0.33499
0.20797
0.12578
0.09589
0.10585
0.12329
0.14819
0.15068
0.15068
0.13076
0.11582
0.10087
0.075965
0.031133
-0.043587
-0.090909
-0.15318
-0.16314
-0.1457
-0.051059
0.088418
0.22291
0.29763
0.25529
0.18057
0.18804
0.25529
0.35741
0.38481
0.30262
0.18555
0.070984
0.0062267
-0.028643
-0.038605
-0.046077
-0.053549
-0.043587
-0.051059
-0.068493
-0.13076
-0.19303
-0.2528
-0.29265
-0.31009
-0.34745
-0.37235
-0.33001
-0.20548
-0.003736
0.22042
0.40722
0.5193
0.56164
0.50934
0.50187
0.59651
0.70112
0.80822
0.79577
0.66874
0.50436
0.3599
0.24284
0.16563
0.090909
0.028643
-0.048568
-0.0934
-0.13823
-0.17808
-0.21046
-0.23537
-0.24035
-0.2279
-0.20299
-0.17559
-0.18057
-0.1731
-0.1731
-0.1208
-0.048568
0.068493
0.18057
0.28767
0.33499
0.3076
0.2802
0.32503
0.45455
0.61893
0.69116
0.61395
0.45704
0.28767
0.15068
0.066002
-0.0012453
-0.033624
-0.058531
-0.061021
-0.073474
-0.11333
-0.13823
-0.13574
-0.090909
-0.0087173
0.12329
0.28518
0.43711
0.55168
0.60648
0.599
0.53674
0.48194
0.49191
0.5467
0.61395
0.61893
0.55168
0.42715
0.27522
0.10336
-0.036115
-0.13325
-0.20299
-0.24035
-0.25778
-0.23786
-0.23537
-0.24284
-0.27522
-0.31756
-0.36986
-0.37733
-0.34994
-0.23537
-0.053549
0.19303
0.44458
0.60399
0.65131
0.58157
0.52179
0.47696
0.48194
0.46949
0.43462
0.39477
0.34247
0.27024
0.14819
0.021171
-0.10585
-0.22291
-0.28767
-0.30262
-0.3076
-0.3076
-0.29763
-0.27273
-0.21295
-0.10585
0.036115
0.18555
0.29514
0.35492
0.34994
0.3076
0.23039
0.20548
0.2254
0.29514
0.34247
0.30511
0.22042
0.075965
-0.043587
-0.19054
-0.27273
-0.30511
-0.31507
-0.31009
-0.31507
-0.30012
-0.2802
-0.2254
-0.13574
-0.0087173
0.15816
0.30511
0.40473
0.41719
0.3599
0.3325
0.35243
0.42217
0.467
0.42964
0.32752
0.19801
0.12827
0.0934
0.0934
0.098381
0.090909
0.041096
-0.016189
-0.070984
-0.11083
-0.16314
-0.21046
-0.23537
-0.25529
-0.25529
-0.25031
-0.23786
-0.23039
-0.23039
-0.25031
-0.30262
-0.29265
-0.17061
0.011208
0.23537
0.39228
0.48941
0.53176
0.58655
0.65878
0.76588
0.81818
0.79826
0.69863
0.56912
0.43711
0.31507
0.19054
0.053549
-0.066002
-0.15567
-0.18306
-0.18555
-0.15567
-0.12329
-0.090909
-0.053549
-0.023661
0.003736
0.0012453
-0.021171
-0.046077
-0.011208
0.15068
0.3599
0.55168
0.62142
0.58157
0.53674
0.53425
0.5741
0.59402
0.47945
0.31507
0.10834
-0.048568
-0.16065
-0.22042
-0.25529
-0.28269
-0.27771
-0.27273
-0.29016
-0.32254
-0.34496
-0.35243
-0.3325
-0.29016
-0.19801
-0.031133
0.18555
0.39975
0.52179
0.55915
0.51681
0.4396
0.39726
0.39228
0.44458
0.48941
0.44707
0.36737
0.23537
0.1208
0.033624
-0.01868
-0.046077
-0.061021
-0.041096
0.003736
0.068493
0.10336
0.11831
0.066002
-0.0087173
-0.058531
-0.041096
0.058531
0.22291
0.36488
0.45953
0.46949
0.4396
0.43711
0.48692
0.56663
0.63387
0.58157
0.47447
0.32005
0.17559
0.043587
-0.053549
-0.11582
-0.16065
-0.16314
-0.1457
-0.12578
-0.1208
-0.12827
-0.16065
-0.22291
-0.27273
-0.30511
-0.31258
-0.27771
-0.18804
0.011208
0.2254
0.39726
0.44707
0.40971
0.37983
0.40473
0.44209
0.47447
0.40473
0.26775
0.085928
-0.080946
-0.19801
-0.26526
-0.2802
-0.26276
-0.20797
-0.1457
-0.10585
-0.090909
-0.09589
-0.11083
-0.13325
-0.14321
-0.14819
-0.12329
-0.058531
0.031133
0.1731
0.31258
0.42217
0.45953
0.4122
0.33499
0.30511
0.34247
0.43213
0.52927
0.51681
0.4122
0.24284
0.10087
-0.021171
-0.0934
-0.12827
-0.13823
-0.12578
-0.09589
-0.075965
-0.05604
-0.046077
-0.033624
-0.038605
-0.041096
-0.003736
0.09589
0.23039
0.40473
0.52428
0.56413
0.53425
0.46202
0.38979
0.36737
0.37733
0.4122
0.35741
0.25031
0.1208
0.021171
-0.041096
-0.080946
-0.10834
-0.13325
-0.12578
-0.083437
-0.036115
0.003736
0.031133
0.036115
0.026152
0.003736
-0.003736
0.0062267
0.088418
0.23039
0.40473
0.54421
0.62889
0.64633
0.60648
0.55666
0.55915
0.55915
0.58157
0.47945
0.31258
0.10585
-0.033624
-0.080946
-0.066002
-0.046077
-0.053549
-0.066002
-0.083437
-0.075965
-0.080946
-0.09589
-0.11582
-0.14321
-0.1457
-0.13325
-0.070984
0.036115
0.18555
0.30262
0.33499
0.29763
0.21046
0.098381
0.038605
0.041096
0.10585
0.19552
0.16812
0.05604
-0.083437
-0.18057
-0.19054
-0.18804
-0.15068
-0.14072
-0.13076
-0.11333
-0.11582
-0.11582
-0.12827
-0.12827
-0.1208
-0.075965
0.0087173
0.15567
0.31507
0.48194
0.60897
0.66127
0.63885
0.53674
0.39477
0.32503
0.30511
0.35492
0.3873
0.32752
0.20548
0.070984
-0.021171
-0.063512
-0.058531
-0.070984
-0.075965
-0.066002
-0.048568
-0.021171
0.026152
0.063512
0.080946
0.070984
0.090909
0.15318
0.26526
0.42715
0.58655
0.69614
0.69365
0.58157
0.47198
0.38481
0.37235
0.37983
0.31258
0.17808
0.013699
-0.11333
-0.18057
-0.18057
-0.17808
-0.16065
-0.13076
-0.098381
-0.073474
-0.075965
-0.083437
-0.090909
-0.070984
-0.023661
0.043587
0.12827
0.25529
0.40971
0.55915
0.62142
0.57908
0.47945
0.38232
0.31507
0.27522
0.20299
0.075965
-0.083437
-0.19054
-0.23537
-0.21046
-0.16812
-0.11582
-0.068493
-0.021171
0.01868
0.046077
0.063512
0.0934
0.10834
0.1208
0.13076
0.14321
0.18555
0.23039
0.32005
0.46949
0.58157
0.63636
0.55666
0.44956
0.36488
0.32254
0.32503
0.25031
0.12578
-0.023661
-0.1457
-0.22042
-0.24284
-0.23537
-0.21046
-0.14819
-0.073474
-0.003736
0.043587
0.066002
0.063512
0.053549
0.063512
0.061021
0.078456
0.068493
0.058531
0.053549
0.073474
0.13574
0.22042
0.24782
0.20548
0.10336
-0.031133
-0.11582
-0.05604
0.080946
0.24035
0.26775
0.15318
-0.021171
-0.16314
-0.23288
-0.24035
-0.21793
-0.19054
-0.13574
-0.090909
-0.036115
0.016189
0.041096
0.10336
0.1457
0.19054
0.21046
0.21793
0.21793
0.18804
0.14321
0.12329
0.13325
0.13574
0.15068
0.21793
0.33998
0.47945
0.52428
0.48941
0.39975
0.32752
0.28767
0.25778
0.23039
0.21793
0.21544
0.21544
0.18555
0.11333
0.016189
-0.070984
-0.13076
-0.15567
-0.16812
-0.18306
-0.20299
-0.2279
-0.25529
-0.27024
-0.27024
-0.25031
-0.17808
-0.068493
0.023661
0.041096
-0.0012453
0.075965
0.20548
0.40971
0.51681
0.47696
0.36737
0.25778
0.20299
0.17061
0.1208
0.078456
0.01868
-0.016189
-0.063512
-0.11083
-0.14321
-0.18306
-0.21544
-0.25778
-0.29265
-0.31507
-0.34247
-0.38979
-0.45704
-0.49689
-0.49938
-0.40971
-0.23288
-0.046077
0.073474
0.13823
0.2254
0.33748
0.46202
0.46451
0.39228
0.27522
0.21046
0.18057
0.1457
0.090909
0.031133
-0.021171
-0.075965
-0.12329
-0.17061
-0.20797
-0.23537
-0.25529
-0.26526
-0.26027
-0.25031
-0.24284
-0.24035
-0.24533
-0.2279
-0.19801
-0.09589
0.070984
0.23786
0.36737
0.37733
0.3873
0.44956
0.59651
0.75093
0.80324
0.7061
0.54172
0.38232
0.2528
0.15567
0.073474
0.0087173
-0.046077
-0.070984
-0.085928
-0.10087
-0.10834
-0.11333
-0.10585
-0.053549
0.031133
0.15068
0.25529
0.31756
0.35741
0.36986
0.35741
0.37235
0.40722
0.45704
0.48443
0.4122
0.28269
0.13325
0.023661
-0.033624
-0.061021
-0.058531
-0.066002
-0.051059
-0.028643
0.01868
0.061021
0.1208
0.18057
0.30012
0.45704
0.599
0.70112
0.72354
0.69863
0.66127
0.64633
0.61146
0.53674
0.38232
0.19303
0.011208
-0.11333
-0.15816
-0.15567
-0.14321
-0.13823
-0.1208
-0.088418
-0.048568
0.0012453
0.028643
0.036115
0.051059
0.075965
0.10585
0.11333
0.13325
0.14819
0.19054
0.2254
0.25529
0.24284
0.24035
0.26027
0.28767
0.30262
0.25778
0.19054
0.13076
0.10834
0.13823
0.20299
0.27771
0.34994
0.40971
0.4396
0.44707
0.42217
0.36737
0.28767
0.20797
0.12329
0.051059
-0.0087173
-0.053549
-0.080946
-0.090909
-0.09589
-0.068493
-0.053549
-0.0087173
0.073474
0.18804
0.35492
0.53176
0.62889
0.62391
0.54421
0.43711
0.37484
0.32005
0.27522
0.19801
0.10336
0.013699
-0.098381
-0.20299
-0.29016
-0.33499
-0.35492
-0.31507
-0.25529
-0.16563
-0.098381
-0.023661
0.073474
0.19054
0.30511
0.39228
0.39726
0.33998
0.26526
0.22291
0.21046
0.20299
0.14819
0.090909
0.016189
-0.073474
-0.15567
-0.2254
-0.26526
-0.28767
-0.28269
-0.25529
-0.17808
-0.058531
0.083437
0.2279
0.34994
0.39726
0.38979
0.35243
0.33748
0.32254
0.28269
0.21046
0.15068
0.068493
-0.013699
-0.10834
-0.19054
-0.24035
-0.27024
-0.26526
-0.24782
-0.20797
-0.14819
-0.098381
-0.011208
0.098381
0.2254
0.32254
0.35243
0.29265
0.20548
0.12329
0.10585
0.15068
0.19801
0.24284
0.25529
0.24782
0.20299
0.13076
0.073474
0.023661
0.003736
0.003736
0.043587
0.098381
0.21046
0.3325
0.46202
0.53425
0.57659
0.57161
0.53923
0.50187
0.3873
0.23288
0.068493
-0.033624
-0.085928
-0.083437
-0.061021
-0.048568
0.011208
0.070984
0.13076
0.15816
0.17559
0.15567
0.15318
0.15068
0.16314
0.18306
0.19054
0.19303
0.18555
0.16812
0.13325
0.11831
0.14072
0.21295
0.31009
0.33499
0.34994
0.35741
0.42466
0.49689
0.48692
0.44209
0.36737
0.32254
0.29514
0.29016
0.26276
0.21046
0.16812
0.088418
0.021171
-0.048568
-0.10585
-0.13325
-0.16314
-0.18306
-0.2254
-0.29265
-0.38232
-0.47447
-0.55168
-0.61395
-0.64134
-0.64384
-0.65629
-0.69116
-0.73599
-0.76837
-0.69116
-0.48941
-0.19303
0.028643
0.16314
0.30511
0.47945
0.66874
0.73848
0.65878
0.49938
0.33748
0.22042
0.15567
0.13076
0.10087
0.070984
0.011208
-0.053549
-0.12827
-0.20299
-0.24284
-0.25529
-0.23786
-0.21295
-0.18555
-0.16065
-0.15567
-0.15816
-0.19552
-0.25031
-0.27522
-0.21295
-0.0062267
0.28518
0.54172
0.66625
0.71606
0.77086
0.88792
0.99253
0.95268
0.79826
0.59402
0.42964
0.29763
0.19303
0.085928
-0.041096
-0.16065
-0.25031
-0.32254
-0.33748
-0.34496
-0.29763
-0.24284
-0.1731
-0.088418
-0.003736
0.088418
0.20797
0.3599
0.50436
0.58406
0.60897
0.54919
0.4122
0.30012
0.23537
0.27024
0.32005
0.30012
0.17808
0.026152
-0.083437
-0.1208
-0.12827
-0.11582
-0.11333
-0.083437
-0.043587
0.01868
0.10585
0.20797
0.33499
0.45704
0.55915
0.63138
0.6787
0.69365
0.66376
0.61644
0.50436
0.4122
0.32254
0.29016
0.2802
0.2279
0.12827
0.0087173
-0.10336
-0.13574
-0.11083
-0.066002
-0.021171
0.033624
0.09589
0.14819
0.18306
0.22291
0.27024
0.34994
0.46949
0.60897
0.75093
0.82814
0.82814
0.72852
0.60149
0.49191
0.44209
0.41968
0.35741
0.21295
0.023661
-0.14072
-0.24284
-0.27024
-0.2802
-0.29016
-0.27771
-0.26276
-0.24284
-0.2279
-0.21295
-0.21046
-0.20797
-0.2005
-0.2005
-0.20548
-0.18804
-0.13574
-0.073474
0.01868
0.078456
0.1208
0.1457
0.13325
0.11582
0.15567
0.23537
0.3599
0.42715
0.37733
0.27024
0.18057
0.12329
0.13325
0.13823
0.1457
0.14321
0.13076
0.09589
0.046077
0.011208
0.0087173
-0.0062267
-0.033624
-0.070984
-0.12578
-0.18555
-0.21295
-0.16065
-0.043587
0.10336
0.21046
0.28518
0.31009
0.31009
0.26276
0.25529
0.29265
0.40224
0.4944
0.46451
0.3325
0.19303
0.10585
0.078456
0.068493
0.043587
0.013699
0.0087173
0.031133
0.043587
0.01868
-0.053549
-0.13823
-0.2279
-0.29265
-0.32752
-0.36239
-0.38232
-0.40224
-0.42715
-0.45953
-0.50685
-0.55666
-0.65878
-0.72603
-0.70112
-0.50685
-0.19552
0.090909
0.2528
0.2254
0.10585
0.016189
0.033624
0.13076
0.22291
0.29265
0.30511
0.31258
0.32005
0.32752
0.31756
0.29763
0.27522
0.24782
0.23039
0.21295
0.19303
0.15318
0.10087
0.028643
-0.048568
-0.13823
-0.24035
-0.32503
-0.34247
-0.24782
-0.080946
0.12578
0.21793
0.30262
0.3873
0.54172
0.69365
0.75093
0.70361
0.62391
0.57659
0.54919
0.51432
0.46202
0.38979
0.31507
0.21793
0.10336
-0.026152
-0.13823
-0.22042
-0.27771
-0.31009
-0.32254
-0.32254
-0.3325
-0.35492
-0.38979
-0.42964
-0.467
-0.51681
-0.52179
-0.48692
-0.32752
-0.11083
0.1731
0.4396
0.63138
0.69365
0.60648
0.48692
0.39228
0.34994
0.32005
0.27522
0.23039
0.18804
0.15068
0.10087
0.046077
0.003736
0.0012453
0.0087173
0.021171
0.038605
0.036115
0.053549
0.063512
0.098381
0.12827
0.1208
0.051059
-0.046077
-0.16563
-0.24782
-0.18804
-0.0087173
0.18057
0.32254
0.40722
0.50685
0.61893
0.66127
0.5741
0.39726
0.2005
0.066002
-0.028643
-0.098381
-0.14819
-0.18804
-0.20299
-0.19054
-0.15068
-0.11831
-0.10087
-0.10834
-0.12827
-0.17061
-0.19801
-0.20797
-0.18555
-0.12329
-0.033624
0.10087
0.25529
0.39726
0.48692
0.47447
0.46949
0.50685
0.62391
0.74346
0.74097
0.60399
0.39726
0.2279
0.13325
0.078456
0.05604
0.036115
0.033624
0.023661
0.0012453
-0.023661
-0.046077
-0.036115
0.0087173
0.066002
0.14819
0.23537
0.32503
0.40224
0.47198
0.54421
0.57659
0.599
0.57659
0.51432
0.46202
0.4122
0.43711
0.46949
0.43711
0.32752
0.18306
0.070984
-0.003736
-0.013699
-0.016189
-0.011208
-0.011208
-0.031133
-0.080946
-0.13076
-0.16563
-0.17808
-0.18306
-0.18555
-0.17808
-0.18057
-0.17559
-0.18306
-0.20548
-0.25031
-0.31258
-0.38232
-0.40971
-0.34496
-0.18555
-0.0012453
0.11831
0.09589
0.0087173
0.023661
0.21793
0.50685
0.71108
0.70112
0.57908
0.42715
0.30262
0.24284
0.2005
0.18306
0.18057
0.18057
0.18555
0.17061
0.13574
0.10087
0.063512
0.026152
0.0087173
-0.011208
-0.026152
-0.053549
-0.0934
-0.13823
-0.22291
-0.29514
-0.32254
-0.23288
-0.026152
0.21544
0.45953
0.65131
0.80324
0.84558
0.75093
0.55168
0.35492
0.18306
0.063512
-0.036115
-0.13076
-0.19552
-0.23537
-0.24035
-0.24782
-0.25778
-0.25778
-0.24284
-0.20299
-0.14321
-0.083437
-0.051059
-0.043587
-0.075965
-0.13574
-0.20548
-0.26276
-0.2802
-0.25031
-0.10336
0.11831
0.34496
0.48443
0.42964
0.35741
0.32503
0.39975
0.46949
0.46451
0.33001
0.19552
0.075965
0.0062267
-0.026152
-0.028643
0.0012453
0.043587
0.10087
0.12827
0.13823
0.16563
0.21295
0.27771
0.33499
0.37235
0.36986
0.33998
0.28269
0.22042
0.14819
0.10087
0.038605
-0.036115
-0.098381
-0.021171
0.10336
0.26775
0.40224
0.5193
0.61146
0.62391
0.52179
0.39228
0.30262
0.27024
0.27522
0.24533
0.18804
0.13325
0.083437
0.036115
-0.003736
-0.036115
-0.058531
-0.061021
-0.075965
-0.10585
-0.15318
-0.19303
-0.23288
-0.26526
-0.29763
-0.32752
-0.35243
-0.42715
-0.53425
-0.61893
-0.53923
-0.25031
0.17061
0.5467
0.74097
0.75093
0.63885
0.5193
0.42715
0.41469
0.41719
0.40224
0.39477
0.36239
0.33499
0.27771
0.22042
0.1731
0.11831
0.075965
0.031133
-0.0087173
-0.048568
-0.098381
-0.16065
-0.25529
-0.34994
-0.39975
-0.38481
-0.30511
-0.15567
0.0087173
0.11333
0.1731
0.25031
0.38481
0.4944
0.48941
0.35243
0.18804
0.080946
0.068493
0.085928
0.12329
0.15567
0.1731
0.16812
0.13823
0.085928
0.028643
-0.028643
-0.078456
-0.11831
-0.14321
-0.15318
-0.17061
-0.2279
-0.31507
-0.41719
-0.46949
-0.49689
-0.38481
-0.24533
-0.058531
0.14072
0.34994
0.49191
0.53176
0.47696
0.39228
0.36737
0.38232
0.41968
0.45205
0.44458
0.41719
0.36488
0.2802
0.18804
0.10336
0.05604
0.01868
-0.003736
-0.041096
-0.088418
-0.13823
-0.19303
-0.23786
-0.27273
-0.27771
-0.26027
-0.23288
-0.20548
-0.18057
-0.16563
-0.16314
-0.1457
-0.19552
-0.26775
-0.26276
-0.14321
0.041096
0.26276
0.44458
0.58157
0.67123
0.6538
0.58406
0.50934
0.44956
0.36488
0.27024
0.17061
0.11582
0.10336
0.080946
0.075965
0.063512
0.066002
0.058531
0.033624
-0.01868
-0.10087
-0.15816
-0.19552
-0.24284
-0.2802
-0.29514
-0.2802
-0.18555
-0.028643
0.2279
0.5193
0.77584
0.91034
0.87547
0.69863
0.48692
0.3325
0.2279
0.18306
0.13076
0.073474
0.016189
-0.026152
-0.036115
-0.028643
-0.051059
-0.075965
-0.13325
-0.16812
-0.2005
-0.21046
-0.20548
-0.16314
-0.085928
0.0062267
0.16314
0.33998
0.49938
0.62391
0.70859
0.81071
0.89788
0.89788
0.79328
0.62391
0.46451
0.34994
0.27771
0.19552
0.11831
0.051059
-0.0012453
-0.046077
-0.11582
-0.19552
-0.26027
-0.3076
-0.31507
-0.30262
-0.29514
-0.27273
-0.24035
-0.20548
-0.19552
-0.22291
-0.28767
-0.35492
-0.38481
-0.30262
-0.11831
0.090909
0.22291
0.33499
0.46202
0.64384
0.7609
0.73599
0.61146
0.467
0.3599
0.26775
0.18057
0.12578
0.10585
0.10834
0.14072
0.12578
0.088418
0.033624
-0.021171
-0.028643
-0.01868
0.0087173
0.021171
0.01868
-0.0087173
-0.078456
-0.15567
-0.21793
-0.23288
-0.15816
0.051059
0.2802
0.50934
0.68369
0.79078
0.87298
0.8406
0.71108
0.5467
0.41968
0.32005
0.25778
0.19552
0.13823
0.078456
0.031133
-0.026152
-0.073474
-0.098381
-0.10834
-0.11083
-0.10834
-0.090909
-0.063512
-0.036115
-0.01868
-0.033624
-0.088418
-0.19054
-0.27273
-0.31258
-0.25031
-0.12827
0.013699
0.098381
0.18057
0.31258
0.50685
0.65878
0.66625
0.55417
0.43711
0.36986
0.3599
0.36239
0.34247
0.3076
0.26775
0.2254
0.19054
0.14321
0.11831
0.085928
0.070984
0.05604
0.036115
0.028643
0.023661
0.021171
0.013699
-0.003736
-0.028643
-0.066002
-0.12578
-0.19054
-0.25031
-0.29016
-0.27273
-0.14072
0.11083
0.45205
0.73848
0.88294
0.91283
0.89041
0.8929
0.84807
0.77584
0.6264
0.4122
0.18057
-0.043587
-0.21295
-0.31507
-0.37484
-0.40224
-0.41469
-0.42964
-0.43213
-0.42466
-0.40722
-0.38232
-0.36239
-0.33001
-0.27522
-0.18306
-0.053549
0.090909
0.24284
0.36239
0.43462
0.44209
0.4122
0.33748
0.31258
0.35741
0.49191
0.62142
0.63636
0.49689
0.26027
0.041096
-0.12827
-0.22291
-0.27273
-0.30511
-0.29514
-0.26526
-0.21793
-0.16065
-0.09589
-0.028643
0.028643
0.083437
0.12329
0.16563
0.18804
0.16812
0.11582
0.051059
0.01868
0.066002
0.20299
0.36488
0.44458
0.47198
0.50685
0.55915
0.59402
0.52428
0.36737
0.21544
0.1208
0.10336
0.13325
0.16065
0.16314
0.16065
0.13076
0.068493
-0.033624
-0.1457
-0.23537
-0.29514
-0.33001
-0.36239
-0.40473
-0.42715
-0.42964
-0.40224
-0.38232
-0.36488
-0.37484
-0.42715
-0.48443
-0.44458
-0.29016
-0.053549
0.19054
0.31507
0.34994
0.30511
0.23039
0.17559
0.15318
0.15816
0.16314
0.14819
0.10087
0.046077
-0.011208
-0.046077
-0.05604
-0.058531
-0.036115
-0.021171
0.0012453
0.0012453
0.0012453
0.0062267
0.028643
0.058531
0.083437
0.14819
0.18555
0.27273
0.40971
0.59651
0.79826
0.94022
0.95517
0.85554
0.67123
0.48692
0.36986
0.32752
0.32503
0.30012
0.2279
0.15068
0.058531
-0.0087173
-0.063512
-0.066002
-0.043587
-0.01868
0.011208
0.026152
0.051059
0.051059
0.068493
0.063512
0.031133
-0.0012453
-0.046077
-0.085928
-0.15068
-0.20299
-0.26276
-0.2279
-0.061021
0.22042
0.51681
0.67372
0.70112
0.58157
0.42964
0.29763
0.23537
0.22042
0.20797
0.19303
0.16563
0.14819
0.13325
0.12329
0.13325
0.13076
0.15318
0.17808
0.18555
0.19054
0.2005
0.19303
0.19054
0.17559
0.13823
0.070984
-0.036115
-0.18804
-0.34247
-0.33499
-0.12578
0.21046
0.50436
0.63387
0.62142
0.53176
0.44956
0.3873
0.37235
0.37733
0.38979
0.39726
0.38979
0.3599
0.31258
0.23537
0.13325
0.033624
-0.05604
-0.10585
-0.11582
-0.10585
-0.070984
-0.078456
-0.10087
-0.15567
-0.21046
-0.26027
-0.29514
-0.30511
-0.32005
-0.34496
-0.38481
-0.4396
-0.51681
-0.5741
-0.6264
-0.61893
-0.50436
-0.34496
-0.10834
0.085928
0.22291
0.25529
0.29763
0.4122
0.61395
0.76339
0.79826
0.7061
0.53923
0.40722
0.31507
0.26526
0.23288
0.21046
0.18804
0.16314
0.13574
0.085928
0.016189
-0.088418
-0.20548
-0.3076
-0.37235
-0.38979
-0.38481
-0.37733
-0.39228
-0.41469
-0.44209
-0.44956
-0.45455
-0.42715
-0.3325
-0.2005
-0.011208
0.15068
0.30511
0.48443
0.67123
0.80324
0.82565
0.73599
0.59153
0.46451
0.34496
0.27024
0.2279
0.19303
0.18057
0.16563
0.13076
0.085928
0.058531
0.041096
0.041096
0.051059
0.048568
0.033624
0.011208
-0.011208
-0.028643
-0.068493
-0.090909
-0.11333
-0.10834
-0.10336
-0.11831
-0.16065
-0.14321
0.021171
0.29763
0.61893
0.81071
0.84309
0.75342
0.61395
0.49191
0.39726
0.33499
0.30012
0.28269
0.26276
0.25778
0.24284
0.23039
0.21544
0.20299
0.20299
0.18804
0.16812
0.14072
0.12329
0.11582
0.11083
0.098381
0.088418
0.088418
0.10087
0.15318
0.2279
0.34994
0.44458
0.47447
0.4396
0.36986
0.3325
0.32005
0.38232
0.43711
0.40224
0.2802
0.09589
-0.043587
-0.11333
-0.1208
-0.0934
-0.066002
-0.016189
0.048568
0.11831
0.18057
0.22291
0.2279
0.21295
0.16314
0.12329
0.088418
0.066002
0.063512
0.046077
0.021171
-0.05604
-0.1731
-0.33499
-0.467
-0.5193
-0.42964
-0.21793
0.0087173
0.17061
0.32752
0.50934
0.75093
0.92279
0.98007
0.89788
0.76339
0.62391
0.50934
0.40971
0.32005
0.24035
0.18306
0.1457
0.10336
0.063512
0.013699
-0.038605
-0.0934
-0.13823
-0.16314
-0.18306
-0.2005
-0.22291
-0.25529
-0.27024
-0.21046
-0.083437
0.10336
0.2802
0.3873
0.45205
0.50187
0.60897
0.70112
0.71357
0.63387
0.48443
0.33499
0.16065
0.021171
-0.10336
-0.18306
-0.2279
-0.23039
-0.21793
-0.22042
-0.20797
-0.19801
-0.16812
-0.14072
-0.1208
-0.10087
-0.073474
-0.036115
-0.0087173
-0.013699
-0.063512
-0.15816
-0.27273
-0.34496
-0.34994
-0.24782
-0.061021
0.10087
0.21793
0.30012
0.41469
0.56912
0.65629
0.61395
0.467
0.31507
0.20797
0.1731
0.17061
0.16065
0.12329
0.10336
0.080946
0.070984
0.0934
0.10585
0.13823
0.15816
0.15567
0.15068
0.12827
0.10087
0.075965
0.043587
0.023661
0.021171
0.003736
0.003736
-0.026152
-0.051059
-0.085928
-0.1457
-0.18555
-0.21295
-0.20797
-0.19054
-0.19303
-0.24284
-0.32503
-0.44209
-0.53923
-0.54919
-0.44956
-0.23039
-0.021171
0.15318
0.25778
0.3873
0.5467
0.72105
0.79328
0.7609
0.62391
0.44458
0.28767
0.14819
0.068493
0.01868
-0.01868
-0.053549
-0.090909
-0.1208
-0.13325
-0.11083
-0.061021
-0.028643
-0.003736
-0.0087173
-0.011208
-0.0087173
0.038605
0.12329
0.2254
0.32254
0.40224
0.44956
0.45455
0.45704
0.51432
0.62142
0.74844
0.82316
0.78829
0.64882
0.45205
0.27771
0.15318
0.10834
0.088418
0.090909
0.10336
0.12578
0.13076
0.12329
0.11083
0.09589
0.073474
0.026152
-0.026152
-0.10834
-0.17808
-0.23786
-0.27273
-0.23537
-0.15068
-0.048568
0.043587
0.17061
0.34496
0.52428
0.6264
0.5741
0.41968
0.20299
0.036115
-0.061021
-0.043587
-0.0087173
0.043587
0.098381
0.13325
0.13574
0.11582
0.083437
0.036115
0.0062267
-0.028643
-0.043587
-0.038605
-0.036115
-0.028643
-0.031133
-0.038605
-0.053549
-0.083437
-0.13574
-0.21295
-0.32503
-0.48194
-0.58655
-0.51183
-0.24035
0.12578
0.46451
0.63387
0.7061
0.62391
0.5193
0.40722
0.33998
0.30262
0.25529
0.23537
0.20548
0.19552
0.16065
0.10087
0.046077
-0.011208
-0.028643
-0.043587
-0.036115
-0.048568
-0.080946
-0.10336
-0.10834
-0.090909
-0.053549
-0.013699
0.013699
0.031133
0.041096
0.031133
0.013699
-0.066002
-0.1457
-0.2254
-0.13823
0.09589
0.4396
0.71856
0.8132
0.80573
0.67372
0.52677
0.39975
0.32503
0.29763
0.27024
0.24533
0.18306
0.10834
-0.003736
-0.11831
-0.21295
-0.26276
-0.25778
-0.21793
-0.16812
-0.13574
-0.14072
-0.18555
-0.23288
-0.28269
-0.3325
-0.38232
-0.42466
-0.42964
-0.41469
-0.3599
-0.28269
-0.19552
-0.075965
0.013699
0.090909
0.12827
0.15567
0.18804
0.27273
0.42217
0.60399
0.73101
0.73848
0.63138
0.46202
0.28518
0.15567
0.073474
0.038605
0.013699
0.021171
0.021171
0.01868
-0.0012453
0.0012453
0.0062267
0.01868
0.053549
0.0934
0.14321
0.19054
0.2254
0.21295
0.16812
0.09589
0.051059
0.068493
0.19801
0.39228
0.57659
0.68867
0.71357
0.73599
0.80324
0.90535
0.95766
0.89041
0.73101
0.52179
0.37484
0.26027
0.22291
0.20299
0.16563
0.11333
0.048568
-0.028643
-0.12578
-0.18306
-0.22042
-0.2279
-0.24284
-0.27273
-0.3076
-0.32503
-0.30511
-0.27273
-0.25778
-0.26775
-0.29265
-0.33001
-0.37983
-0.3599
-0.27522
-0.0934
0.15318
0.44956
0.73101
0.91034
0.98007
0.87298
0.65131
0.42217
0.2254
0.11333
0.048568
0.021171
0.0087173
0.026152
0.061021
0.11083
0.15816
0.2005
0.23039
0.23039
0.21046
0.1731
0.14321
0.12329
0.12827
0.13076
0.13823
0.1208
0.0934
0.075965
0.003736
-0.10087
-0.21544
-0.25031
-0.11083
0.13076
0.40971
0.56164
0.62142
0.61146
0.599
0.57161
0.58157
0.56413
0.51681
0.44707
0.34994
0.25529
0.15318
0.073474
-0.011208
-0.09589
-0.17559
-0.2528
-0.33499
-0.38481
-0.40473
-0.40473
-0.38979
-0.37733
-0.36488
-0.34496
-0.34745
-0.36986
-0.35243
-0.29514
-0.10336
0.18306
0.51432
0.78082
0.93026
0.90037
0.80324
0.63885
0.53674
0.47447
0.42715
0.37983
0.31258
0.25031
0.18057
0.13076
0.068493
0.021171
-0.01868
-0.048568
-0.051059
-0.046077
-0.023661
-0.013699
0.026152
0.043587
0.078456
0.11083
0.15567
0.21793
0.24533
0.26027
0.21544
0.1208
-0.041096
-0.17559
-0.21295
-0.1208
0.051059
0.27522
0.45953
0.56663
0.58904
0.55168
0.49689
0.44209
0.40971
0.40224
0.43462
0.46202
0.49938
0.44707
0.33499
0.1731
0.013699
-0.10087
-0.16812
-0.23288
-0.28518
-0.31009
-0.3076
-0.28269
-0.25778
-0.2279
-0.21295
-0.21046
-0.20797
-0.19303
-0.1731
-0.15318
-0.13574
-0.13574
-0.14072
-0.15318
-0.17061
-0.21544
-0.27771
-0.37484
-0.4944
-0.64882
-0.79577
-0.84309
-0.7858
-0.58904
-0.38232
-0.16065
0.038605
0.27273
0.50187
0.65131
0.69863
0.65878
0.56663
0.49191
0.41719
0.3599
0.28767
0.22042
0.15816
0.11083
0.058531
0.026152
0.0062267
-0.01868
-0.041096
-0.068493
-0.083437
-0.075965
-0.061021
-0.046077
-0.036115
-0.036115
-0.070984
-0.12329
-0.1731
-0.19801
-0.11582
0.066002
0.30511
0.5193
0.61146
0.58406
0.5741
0.60149
0.71606
0.82814
0.84807
0.78082
0.6538
0.53674
0.42217
0.32254
0.20548
0.098381
0.0062267
-0.043587
-0.070984
-0.098381
-0.11831
-0.12329
-0.1208
-0.10834
-0.088418
-0.061021
-0.041096
-0.043587
-0.068493
-0.10087
-0.13574
-0.14321
-0.15318
-0.14819
-0.1457
-0.17061
-0.23039
-0.34496
-0.47198
-0.56663
-0.5741
-0.47945
-0.32254
-0.14072
0.0087173
0.12827
0.15318
0.18306
0.21544
0.34247
0.48941
0.55168
0.52428
0.38481
0.24782
0.11831
0.073474
0.075965
0.09589
0.10336
0.085928
0.063512
0.033624
0.046077
0.070984
0.12329
0.18306
0.25529
0.30511
0.33998
0.37235
0.37235
0.34496
0.27522
0.17559
0.080946
0.01868
0.013699
0.083437
0.23786
0.41469
0.61893
0.77584
0.89539
0.96762
1
0.94271
0.83562
0.72105
0.60897
0.53176
0.48194
0.4396
0.39477
0.35741
0.33001
0.31009
0.31009
0.28269
0.22291
0.12578
0.028643
-0.048568
-0.080946
-0.043587
0.036115
0.11582
0.1731
0.2279
0.27771
0.31756
0.34496
0.35243
0.42217
0.53425
0.69614
0.83313
0.89788
0.9203
0.84558
0.6538
0.39975
0.16563
-0.003736
-0.11831
-0.22291
-0.32503
-0.42217
-0.49938
-0.52927
-0.52927
-0.48941
-0.43711
-0.36239
-0.28269
-0.20797
-0.16314
-0.17559
-0.21295
-0.26027
-0.27522
-0.31507
-0.34496
-0.37484
-0.40722
-0.42964
-0.467
-0.48194
-0.51681
-0.52428
-0.53176
-0.56912
-0.63636
-0.74097
-0.8406
-0.97509
-1
-0.88792
-0.67123
-0.42964
-0.25778
-0.19801
-0.051059
0.13325
0.42217
0.65878
0.77584
0.79078
0.72354
0.62142
0.52428
0.43462
0.35243
0.24782
0.14819
0.09589
0.09589
0.13823
0.19303
0.24533
0.26526
0.27522
0.2528
0.20797
0.14321
0.058531
-0.023661
-0.0934
-0.13076
-0.11582
-0.058531
0.01868
0.10336
0.16314
0.2005
0.27024
0.36488
0.4944
0.61893
0.6812
0.65131
0.5467
0.42217
0.35243
0.34247
0.36488
0.36488
0.31756
0.26526
0.24035
0.25529
0.29514
0.32752
0.34496
0.32254
0.30262
0.26775
0.23288
0.19054
0.14819
0.11083
0.046077
0.011208
-0.003736
0.031133
0.090909
0.1457
0.16563
0.13823
0.078456
0.003736
-0.068493
-0.13076
-0.033624
0.12827
0.2802
0.34994
0.31258
0.29265
0.32752
0.41968
0.52179
0.64384
0.7061
0.71856
0.63636
0.50436
0.30511
0.070984
-0.13823
-0.26775
-0.28518
-0.24533
-0.19801
-0.15567
-0.13574
-0.13823
-0.16812
-0.19552
-0.20797
-0.2005
-0.18057
-0.17559
-0.18804
-0.20299
-0.2279
-0.29016
-0.36986
-0.45455
-0.51681
-0.5467
-0.45953
-0.27273
-0.051059
0.11083
0.20548
0.28767
0.40971
0.52927
0.60648
0.62142
0.5467
0.4396
0.32254
0.26775
0.25529
0.29016
0.32005
0.36986
0.40722
0.42964
0.42715
0.40722
0.37235
0.30511
0.21295
0.11831
0.05604
0.013699
0.0087173
0.021171
0.01868
0.0012453
-0.028643
-0.061021
-0.10585
-0.14321
-0.14321
-0.098381
-0.016189
0.13076
0.28518
0.48194
0.61893
0.66376
0.60897
0.53674
0.47945
0.46202
0.47447
0.50685
0.52179
0.52677
0.48941
0.44209
0.39726
0.37733
0.35243
0.30262
0.2005
0.058531
-0.098381
-0.24782
-0.33998
-0.39228
-0.40473
-0.39228
-0.37733
-0.35492
-0.34496
-0.33499
-0.32254
-0.30012
-0.26526
-0.24782
-0.23288
-0.26775
-0.30262
-0.34247
-0.38232
-0.3325
-0.20797
-0.013699
0.14819
0.19801
0.22291
0.30012
0.40224
0.52179
0.5741
0.56164
0.49938
0.40971
0.32005
0.24035
0.18555
0.16065
0.12827
0.1208
0.1208
0.10336
0.05604
-0.033624
-0.14819
-0.2528
-0.30262
-0.28518
-0.21793
-0.13823
-0.036115
0.063512
0.12329
0.17061
0.20548
0.23288
0.25529
0.26526
0.24284
0.15068
0.073474
0.0934
0.23288
0.44956
0.65878
0.72354
0.72354
0.60648
0.48941
0.40473
0.40473
0.44956
0.50436
0.52927
0.53425
0.53923
0.53425
0.55417
0.58157
0.599
0.59402
0.55168
0.47696
0.37235
0.23288
0.073474
-0.0934
-0.22291
-0.29514
-0.31756
-0.32005
-0.31009
-0.30262
-0.32752
-0.37983
-0.44707
-0.42964
-0.29016
-0.026152
0.25529
0.45704
0.55915
0.56164
0.50187
0.41469
0.32005
0.25529
0.21046
0.15816
0.1208
0.078456
0.048568
0.023661
0.016189
0.013699
0.003736
-0.011208
-0.041096
-0.09589
-0.16314
-0.2279
-0.29763
-0.32503
-0.34496
-0.34745
-0.35741
-0.36737
-0.33499
-0.27522
-0.18804
-0.13325
-0.14321
-0.2005
-0.24533
-0.2005
-0.0087173
0.27024
0.51432
0.63138
0.62142
0.57161
0.53425
0.51183
0.51183
0.50436
0.49689
0.48692
0.47198
0.599
