-0.32415
-0.3459
-0.33865
-0.33865
-0.24728
-0.10225
0.02103
0.042785
-0.035533
-0.27049
-0.5562
-0.78245
-0.81871
-0.73169
-0.40102
-0.041334
0.42277
0.81001
0.97099
0.85787
0.58231
0.27194
0.013778
-0.13996
-0.22988
-0.30674
-0.3314
-0.3343
-0.343
-0.35025
-0.29949
-0.18347
-0.02103
0.058738
0.019579
-0.15156
-0.48223
-0.73169
-0.85497
-0.7926
-0.55185
-0.22698
0.22988
0.66352
0.91298
0.91733
0.69253
0.39811
0.1095
-0.087745
-0.20232
-0.28934
-0.32705
-0.3401
-0.35025
-0.36041
-0.3343
-0.22553
-0.079043
0.038434
0.026831
-0.11675
-0.39231
-0.67948
-0.85352
-0.7984
-0.67223
-0.3372
0.063089
0.49384
0.81581
0.89703
0.73024
0.43872
0.1327
-0.090645
-0.20957
-0.29079
-0.35025
-0.36186
-0.39086
-0.40247
-0.38941
-0.30239
-0.30239
-0.13851
-0.016679
0.016679
-0.084844
-0.3372
-0.64467
-0.86077
-0.84917
-0.7723
-0.43727
-0.071791
0.3488
0.74329
0.87527
0.78245
0.53154
0.22698
-0.026831
-0.17621
-0.27049
-0.3285
-0.35025
-0.36331
-0.38071
-0.38071
-0.3169
-0.17041
-0.010877
0.041334
-0.019579
-0.26033
-0.5649
-0.82161
-0.84336
-0.7781
-0.45903
-0.14141
0.29224
0.69688
0.87962
0.83611
0.61856
0.30529
0.035533
-0.15011
-0.24438
-0.32125
-0.343
-0.34735
-0.35896
-0.36476
-0.32415
-0.19797
-0.035533
0.048586
0.016679
-0.16461
-0.50254
-0.77955
-0.92168
-0.95359
-0.5504
-0.099347
0.48223
0.87817
0.88542
0.62872
0.3256
0.087745
-0.055838
-0.16026
-0.24003
-0.26759
-0.27629
-0.29079
-0.29079
-0.26323
-0.17912
-0.039884
0.045685
0.036983
-0.086294
-0.33865
-0.62872
-0.80856
-0.74329
-0.63162
-0.314
0.019579
0.43147
0.83031
1
0.92458
0.66062
0.35606
0.094996
-0.048586
-0.15301
-0.21972
-0.25888
-0.27049
-0.30384
-0.28209
-0.20667
-0.050036
0.06599
0.077592
-0.015228
-0.30094
-0.61276
-0.81001
-0.73604
-0.60261
-0.27194
0.058738
0.43437
0.73604
0.71719
0.50544
0.26613
0.10225
0.025381
-0.063089
-0.11385
-0.14866
-0.17476
-0.19072
-0.18202
-0.124
-0.0050761
0.099347
0.10515
0.013778
-0.23423
-0.54025
-0.7636
-0.72879
-0.57941
-0.34445
-0.12545
0.22988
0.63742
0.91733
0.95939
0.7665
0.48368
0.20087
-0.0036258
-0.12255
-0.20377
-0.24728
-0.25888
-0.26613
-0.26759
-0.21682
-0.096447
0.045685
0.093546
0.050036
-0.17621
-0.52574
-0.76795
-0.7955
-0.62727
-0.37926
-0.11385
0.24003
0.63162
0.83756
0.76505
0.52139
0.24148
0.06454
-0.058738
-0.15446
-0.21247
-0.24438
-0.24873
-0.25018
-0.23278
-0.18492
-0.077592
0.025381
0.036983
-0.057288
-0.3401
-0.63887
-0.84772
-0.74764
-0.59246
-0.34155
-0.10515
0.23278
0.64612
0.88542
0.87527
0.65772
0.38361
0.1008
-0.087745
-0.19797
-0.30239
-0.33285
-0.34445
-0.33575
-0.32705
-0.27194
-0.16171
-0.02248
0.0036258
-0.070341
-0.3372
-0.67078
-0.87962
-0.79115
-0.63307
-0.3488
-0.1269
0.19507
0.58811
0.83901
0.83031
0.64902
0.37636
0.092096
-0.10225
-0.22988
-0.32705
-0.37056
-0.38216
-0.35751
-0.343
-0.30094
-0.20377
-0.073241
-0.0094271
-0.047136
-0.28644
-0.63307
-0.86947
-0.84046
-0.68673
-0.42857
-0.19507
0.13561
0.52574
0.7868
0.81726
0.65482
0.38071
0.077592
-0.15446
-0.29369
-0.39666
-0.47063
-0.49674
-0.49529
-0.47933
-0.43727
-0.3488
-0.20667
-0.1066
-0.1037
-0.27774
-0.62001
-0.89558
-1
-0.85932
-0.63742
-0.35315
0.0036258
0.37926
0.67658
0.7723
0.65917
0.41697
0.1298
-0.11385
-0.26178
-0.35606
-0.43292
-0.44453
-0.43582
-0.41117
-0.37056
-0.29514
-0.15591
-0.041334
-0.010877
-0.1327
-0.44453
-0.75635
-0.92458
-0.81291
-0.65917
-0.36041
-0.058738
0.29514
0.63742
0.7607
0.70268
0.47933
0.18202
-0.080493
-0.26468
-0.37491
-0.47208
-0.50399
-0.50834
-0.48803
-0.47208
-0.39956
-0.27484
-0.1327
-0.063089
-0.12255
-0.39956
-0.73749
-0.94779
-0.89268
-0.7607
-0.43292
-0.1269
0.21392
0.5765
0.73459
0.73894
0.5591
0.29369
0.00072516
-0.21537
-0.30529
-0.33575
-0.33865
-0.35606
-0.36621
-0.30094
-0.17912
-0.057288
-0.010877
-0.083394
-0.28644
-0.61276
-0.85497
-0.87092
-0.73604
-0.52139
-0.30674
-0.025381
0.28644
0.57215
0.68528
0.64032
0.45178
0.18637
-0.051487
-0.23423
-0.3488
-0.39666
-0.42277
-0.43002
-0.42132
-0.36476
-0.24003
-0.094996
-0.0050761
-0.035533
-0.22263
-0.5649
-0.84046
-0.91008
-0.77955
-0.54605
-0.29079
0.0021755
0.3459
0.63307
0.74764
0.68963
0.47933
0.19507
-0.051487
-0.20957
-0.3227
-0.37781
-0.38941
-0.38506
-0.37781
-0.35751
-0.27049
-0.12545
0.0021755
0.0094271
-0.14576
-0.47353
-0.75635
-0.83031
-0.72444
-0.52284
-0.30094
-0.0021755
0.35025
0.65917
0.79405
0.74329
0.52284
0.23278
-0.02393
-0.20377
-0.30529
-0.38941
-0.39666
-0.39521
-0.36766
-0.3372
-0.25018
-0.12255
0.0065265
0.045685
-0.057288
-0.3517
-0.67078
-0.86367
-0.7839
-0.62437
-0.3314
-0.045685
0.26759
0.61566
0.7752
0.76215
0.57505
0.30239
0.026831
-0.16606
-0.26759
-0.36911
-0.38361
-0.37491
-0.34735
-0.3285
-0.26178
-0.14866
0.0036258
0.070341
0.02393
-0.22263
-0.58666
-0.7984
-0.7781
-0.63742
-0.30819
-0.010877
0.37201
0.74184
0.82306
0.66497
0.40392
0.14286
-0.015228
-0.13561
-0.19362
-0.23858
-0.26178
-0.27484
-0.27919
-0.23423
-0.1095
0.016679
0.06454
0.02248
-0.21247
-0.5388
-0.78535
-0.80276
-0.63017
-0.41552
-0.19797
0.083394
0.43727
0.70413
0.78245
0.72154
0.49529
0.19942
-0.026831
-0.19072
-0.29949
-0.32705
-0.35025
-0.3459
-0.35315
-0.28789
-0.16461
-0.029732
0.080493
0.054387
-0.16026
-0.49094
-0.75489
-0.80276
-0.64322
-0.39086
-0.16026
0.13706
0.44743
0.61711
0.5359
0.37056
0.16751
0.041334
-0.058738
-0.15156
-0.18782
-0.23713
-0.23858
-0.25018
-0.21247
-0.12835
0.0021755
0.089195
0.094996
-0.06744
-0.37346
-0.66352
-0.7781
-0.63307
-0.46338
-0.22263
0.0021755
0.27919
0.61856
0.7723
0.77955
0.60551
0.3285
0.061639
-0.14141
-0.26613
-0.33865
-0.3546
-0.3546
-0.3517
-0.32705
-0.25018
-0.10805
0.034083
0.057288
-0.052937
-0.35315
-0.66788
-0.83901
-0.73169
-0.55475
-0.29369
-0.063089
0.19362
0.5504
0.71864
0.75925
0.61421
0.35606
0.081943
-0.12255
-0.24438
-0.3285
-0.3517
-0.37491
-0.35025
-0.34155
-0.28644
-0.15736
-0.015228
0.054387
0.0094271
-0.21537
-0.5678
-0.79405
-0.76795
-0.60986
-0.34155
-0.12255
0.1327
0.47498
0.69108
0.7694
0.66352
0.42567
0.14431
-0.092096
-0.25018
-0.36041
-0.41117
-0.42132
-0.39956
-0.38796
-0.3488
-0.25308
-0.1008
0.018129
0.042785
-0.094996
-0.42712
-0.71139
-0.82161
-0.69398
-0.48078
-0.24003
0.018129
0.31545
0.59971
0.72879
0.69978
0.51269
0.23568
-0.019579
-0.20522
-0.31109
-0.39231
-0.40102
-0.40827
-0.37491
-0.35606
-0.28499
-0.16316
-0.012328
0.063089
0.013778
-0.23568
-0.5736
-0.78825
-0.73894
-0.59101
-0.30819
-0.081943
0.16896
0.50109
0.67803
0.74184
0.62146
0.37346
0.099347
-0.12835
-0.26613
-0.35606
-0.39956
-0.41697
-0.39521
-0.37636
-0.3314
-0.23568
-0.092096
0.026831
0.052937
-0.096447
-0.42422
-0.71284
-0.82306
-0.69688
-0.48223
-0.21682
0.039884
0.36186
0.61711
0.72879
0.65192
0.41987
0.14141
-0.1066
-0.23278
-0.31109
-0.33575
-0.34445
-0.32995
-0.35896
-0.30964
-0.20232
-0.058738
0.047136
0.034083
-0.1153
-0.44598
-0.72154
-0.82016
-0.74909
-0.48949
-0.18057
0.18492
0.60696
0.80856
0.75489
0.53009
0.23133
-0.0021755
-0.14576
-0.23713
-0.30674
-0.3372
-0.34155
-0.32705
-0.30674
-0.24873
-0.1298
0.010877
0.087745
0.044235
-0.16751
-0.50979
-0.75054
-0.73604
-0.58376
-0.3314
-0.11965
0.13561
0.46048
0.65772
0.72444
0.65482
0.44743
0.17766
-0.06599
-0.23278
-0.3343
-0.39231
-0.38216
-0.38651
-0.35751
-0.32415
-0.22408
-0.06599
0.070341
0.12255
0.02248
-0.25743
-0.59101
-0.7694
-0.69108
-0.50109
-0.21392
0.02103
0.28789
0.58521
0.73459
0.69543
0.51124
0.21102
-0.02248
-0.13561
-0.15736
-0.16316
-0.20522
-0.25453
-0.20522
-0.11385
0.019579
0.077592
0.041334
-0.1066
-0.40827
-0.67658
-0.77085
-0.62146
-0.43872
-0.24583
-0.13851
0.054387
0.3488
0.50979
0.60551
0.59536
0.43582
0.20377
-0.052937
-0.24293
-0.34735
-0.40827
-0.41697
-0.42422
-0.39811
-0.32705
-0.18927
-0.018129
0.10225
0.093546
-0.060189
-0.40392
-0.68238
-0.76795
-0.63017
-0.38071
-0.14286
0.086294
0.34735
0.5765
0.68528
0.62872
0.40537
0.13125
-0.071791
-0.20522
-0.26323
-0.27774
-0.29369
-0.3198
-0.3401
-0.29949
-0.18202
-0.012328
0.094996
0.081943
-0.079043
-0.38941
-0.66352
-0.73314
-0.60986
-0.37926
-0.14431
0.06454
0.32995
0.55475
0.64902
0.66933
0.54315
0.30529
0.028281
-0.18202
-0.30819
-0.38216
-0.40972
-0.40972
-0.38506
-0.37346
-0.3227
-0.19652
-0.034083
0.10805
0.093546
-0.081943
-0.42712
-0.69688
-0.74474
-0.63017
-0.38071
-0.14721
0.080493
0.36041
0.57215
0.67078
0.61566
0.42132
0.16461
-0.086294
-0.21102
-0.25453
-0.24003
-0.25888
-0.27919
-0.26759
-0.17621
-0.028281
0.096447
0.080493
-0.0094271
-0.28064
-0.56925
-0.73749
-0.64612
-0.45613
-0.25018
-0.077592
0.10805
0.39086
0.57215
0.67513
0.63162
0.41262
0.1182
-0.081943
-0.18637
-0.20232
-0.21972
-0.22408
-0.21392
-0.11675
0.02103
0.097897
0.096447
-0.018129
-0.25888
-0.55765
-0.74764
-0.68528
-0.47208
-0.29949
-0.15736
-0.028281
0.17331
0.39666
0.49239
0.55475
0.48949
0.3314
0.10515
-0.13125
-0.29369
-0.37636
-0.43292
-0.42857
-0.39956
-0.37201
-0.29224
-0.17621
0.012328
0.1124
0.10515
-0.093546
-0.44307
-0.71719
-0.7839
-0.60986
-0.36476
-0.10225
0.074692
0.3401
0.5736
0.66497
0.60116
0.38361
0.13125
-0.054387
-0.18637
-0.22698
-0.22698
-0.24003
-0.23858
-0.28064
-0.22117
-0.10225
0.051487
0.13851
0.1037
-0.057288
-0.38941
-0.63887
-0.70703
-0.55185
-0.33865
-0.081943
0.077592
0.3198
0.53009
0.63017
0.64902
0.55185
0.3285
0.079043
-0.12835
-0.28789
-0.34735
-0.39811
-0.38506
-0.37346
-0.3459
-0.30384
-0.20812
-0.038434
0.079043
0.14286
-0.010877
-0.31835
-0.61566
-0.75489
-0.61856
-0.41407
-0.124
0.06744
0.3285
0.51704
0.62727
0.64757
0.53735
0.3401
0.083394
-0.15011
-0.29079
-0.37346
-0.43002
-0.43292
-0.40392
-0.38361
-0.3314
-0.26323
-0.12255
0.016679
0.11095
0.051487
-0.19072
-0.52574
-0.71139
-0.64177
-0.43727
-0.14721
0.057288
0.25163
0.49964
0.60841
0.65917
0.57215
0.37636
0.1211
-0.12835
-0.29224
-0.38651
-0.42277
-0.43582
-0.42857
-0.38941
-0.36766
-0.29514
-0.15736
-0.0065265
0.077592
0.052937
-0.16606
-0.51559
-0.73459
-0.74764
-0.5504
-0.27629
-0.036983
0.16171
0.41987
0.5649
0.63017
0.59971
0.44162
0.20232
-0.042785
-0.22988
-0.32125
-0.37636
-0.39086
-0.37636
-0.34155
-0.29079
-0.20957
-0.099347
0.058738
0.18927
0.21972
0.068891
-0.24148
-0.48368
-0.5417
-0.38796
-0.16171
0.057288
0.26904
0.5475
0.7694
0.76505
0.58231
0.31255
0.12255
0.032632
0.0079768
-0.035533
-0.090645
-0.14141
-0.14576
-0.074692
0.026831
0.093546
0.074692
-0.02248
-0.24148
-0.52429
-0.68818
-0.56055
-0.31109
-0.15011
-0.032632
0.055838
0.29369
0.53445
0.63452
0.5475
0.37781
0.18927
0.080493
0.041334
0.0021755
-0.052937
-0.051487
-0.0065265
0.096447
0.15881
0.1211
0.0065265
-0.20812
-0.50109
-0.71864
-0.68238
-0.40392
-0.12545
-0.06744
-0.034083
0.036983
0.28064
0.48513
0.54315
0.53735
0.40247
0.22843
0.052937
-0.02103
-0.063089
-0.070341
-0.032632
0.036983
0.1269
0.15591
0.093546
-0.048586
-0.29079
-0.59391
-0.73749
-0.58376
-0.25163
-0.092096
-0.068891
-0.090645
0.010877
0.23278
0.343
0.37346
0.39086
0.38361
0.28354
0.077592
-0.15301
-0.30384
-0.32995
-0.29804
-0.23278
-0.14721
-0.026831
0.1066
0.13125
0.032632
-0.22553
-0.5649
-0.73314
-0.5678
-0.37201
-0.20957
-0.17186
-0.12835
0.063089
0.23278
0.3401
0.41407
0.39666
0.28644
0.087745
-0.13996
-0.3372
-0.47208
-0.52719
-0.52864
-0.50109
-0.45758
-0.40972
-0.36186
-0.24293
-0.10515
-0.019579
-0.068891
-0.29514
-0.63162
-0.73749
-0.63597
-0.37346
-0.1008
0.079043
0.27049
0.47353
0.57941
0.60841
0.51704
0.3169
0.080493
-0.16751
-0.29079
-0.343
-0.32125
-0.32125
-0.36476
-0.36621
-0.27774
-0.1269
-0.012328
-0.0036258
-0.16171
-0.49674
-0.70993
-0.73894
-0.47933
-0.25598
-0.071791
0.013778
0.18782
0.36766
0.46338
0.41407
0.24873
0.041334
-0.11385
-0.19362
-0.21392
-0.27049
-0.34735
-0.36331
-0.31835
-0.19217
-0.096447
-0.080493
-0.19072
-0.38941
-0.69833
-0.89848
-0.85497
-0.56925
-0.33285
-0.23858
-0.18057
-0.073241
0.19507
0.3285
0.36911
0.30529
0.15446
-0.079043
-0.24873
-0.3314
-0.34445
-0.36621
-0.41407
-0.39521
-0.30239
-0.17331
-0.097897
-0.1182
-0.25598
-0.50834
-0.81291
-0.97244
-0.82451
-0.53735
-0.35025
-0.24583
-0.20232
-0.031182
0.18347
0.27049
0.28354
0.17331
-0.02248
-0.21827
-0.3459
-0.38216
-0.38071
-0.39376
-0.36186
-0.28644
-0.16606
-0.061639
-0.061639
-0.16026
-0.34735
-0.64032
-0.85787
-0.85352
-0.58231
-0.3488
-0.27194
-0.22843
-0.16751
0.042785
0.18637
0.21972
0.24728
0.22117
0.14866
-0.025381
-0.23568
-0.42132
-0.51704
-0.5765
-0.58521
-0.58666
-0.56635
-0.54895
-0.47208
-0.3169
-0.12545
-0.029732
-0.06599
-0.28934
-0.64612
-0.83176
-0.77955
-0.5446
-0.30384
-0.086294
0.048586
0.27194
0.40247
0.43437
0.45033
0.38796
0.24148
0.018129
-0.22553
-0.39666
-0.49094
-0.53154
-0.5504
-0.54605
-0.52719
-0.49384
-0.42422
-0.28644
-0.1298
-0.012328
-0.0094271
-0.15881
-0.47498
-0.68383
-0.69978
-0.49819
-0.28789
-0.054387
0.071791
0.28934
0.45323
0.49819
0.53445
0.48513
0.3256
0.099347
-0.14721
-0.3227
-0.40682
-0.44888
-0.48078
-0.49239
-0.46628
-0.43147
-0.35751
-0.24148
-0.087745
0.026831
0.036983
-0.1095
-0.41552
-0.64467
-0.68528
-0.49529
-0.29659
-0.068891
0.06454
0.26468
0.44453
0.50109
0.53735
0.49529
0.34735
0.124
-0.11965
-0.30674
-0.39086
-0.44017
-0.45758
-0.46193
-0.44017
-0.40102
-0.33575
-0.21392
-0.057288
0.06454
0.099347
-0.039884
-0.33575
-0.58086
-0.63742
-0.44307
-0.23858
-0.010877
0.1211
0.3198
0.49964
0.55765
0.57215
0.53445
0.40537
0.19217
-0.052937
-0.23423
-0.3372
-0.38361
-0.41697
-0.42567
-0.40972
-0.37636
-0.3198
-0.20812
-0.054387
0.080493
0.1008
-0.02393
-0.3169
-0.58231
-0.66352
-0.49819
-0.28934
-0.02393
0.14721
0.36331
0.55765
0.62001
0.61711
0.51124
0.30094
0.054387
-0.16896
-0.30674
-0.38216
-0.42277
-0.41987
-0.40827
-0.37926
-0.36621
-0.27774
-0.12545
0.044235
0.12545
0.073241
-0.1298
-0.44453
-0.60261
-0.54025
-0.3488
-0.14431
0.042785
0.16171
0.37926
0.49094
0.5359
0.5388
0.45613
0.26468
0.02103
-0.18347
-0.33285
-0.40537
-0.44598
-0.46773
-0.45903
-0.42712
-0.40537
-0.3198
-0.18492
-0.016679
0.079043
0.045685
-0.16316
-0.48949
-0.65627
-0.61276
-0.40682
-0.18057
0.044235
0.19507
0.45323
0.56635
0.59971
0.50109
0.3372
0.1066
-0.063089
-0.1298
-0.1327
-0.15591
-0.21537
-0.24148
-0.19942
-0.087745
0.038434
0.084844
0.026831
-0.1153
-0.39811
-0.61276
-0.65772
-0.43002
-0.19942
-0.1066
-0.047136
0.057288
0.28934
0.44307
0.47353
0.48949
0.47353
0.36476
0.16461
-0.060189
-0.21392
-0.25163
-0.24873
-0.21537
-0.13416
-0.0094271
0.11095
0.14431
0.061639
-0.1037
-0.39376
-0.63307
-0.69688
-0.48368
-0.25018
-0.1182
-0.025381
0.051487
0.24148
0.33865
0.32415
0.29659
0.29079
0.25453
0.14141
-0.047136
-0.24438
-0.40247
-0.46628
-0.48223
-0.47933
-0.45178
-0.40102
-0.3459
-0.24148
-0.083394
0.060189
0.124
0.034083
-0.24438
-0.53154
-0.61711
-0.48949
-0.19507
0.094996
0.26468
0.41842
0.48803
0.47208
0.44743
0.44888
0.38506
0.21537
-0.0036258
-0.21827
-0.37201
-0.42857
-0.46918
-0.47788
-0.45758
-0.41262
-0.39231
-0.3169
-0.18057
-0.018129
0.061639
0.035533
-0.15736
-0.48803
-0.64902
-0.58086
-0.37056
-0.089195
0.1095
0.27049
0.48658
0.52864
0.5417
0.53299
0.46918
0.3169
0.10805
-0.124
-0.30094
-0.38651
-0.42712
-0.45033
-0.43727
-0.41407
-0.39086
-0.32705
-0.23133
-0.06599
0.079043
0.1269
0.084844
-0.035533
-0.1153
-0.17621
-0.21537
-0.11965
-0.0079768
0.19942
0.36041
0.42132
0.42712
0.44017
0.41552
0.29659
0.15156
-0.099347
-0.26613
-0.3517
-0.40102
-0.43292
-0.43437
-0.41552
-0.36186
-0.343
-0.26468
-0.13125
0.013778
0.039884
-0.034083
-0.26904
-0.52864
-0.60986
-0.49529
-0.28644
-0.097897
0.050036
0.20522
0.42712
0.46773
0.48513
0.45468
0.40247
0.25743
0.032632
-0.19362
-0.31835
-0.39521
-0.44017
-0.46773
-0.47353
-0.43437
-0.41117
-0.36041
-0.25888
-0.13125
0.0050761
0.052937
0.016679
-0.029732
-0.070341
-0.17041
-0.21392
-0.16896
-0.0079768
0.22553
0.40247
0.46483
0.49819
0.41407
0.3169
0.1008
-0.089195
-0.18927
-0.22553
-0.20522
-0.24728
-0.29224
-0.30384
-0.21537
-0.093546
0.016679
0.028281
-0.068891
-0.25743
-0.51849
-0.66642
-0.58376
-0.3314
-0.17476
-0.11095
-0.050036
0.1124
0.35025
0.43147
0.43437
0.44307
0.39231
0.22117
0.0065265
-0.21682
-0.29804
-0.30384
-0.29949
-0.26178
-0.17912
-0.048586
0.06454
0.070341
-0.018129
-0.18492
-0.45323
-0.65047
-0.66062
-0.44017
-0.21682
-0.1095
-0.031182
0.058738
0.27919
0.39231
0.41842
0.38651
0.37491
0.29514
0.14286
-0.050036
-0.25453
-0.43582
-0.50544
-0.50834
-0.45903
-0.38651
-0.35751
-0.27484
-0.1269
0.051487
0.12255
0.057288
-0.15011
-0.44743
-0.63887
-0.61856
-0.42132
-0.20957
0.012328
0.15156
0.35751
0.48658
0.50399
0.50689
0.46048
0.34445
0.13416
-0.080493
-0.21247
-0.24438
-0.23423
-0.27194
-0.3285
-0.3169
-0.22698
-0.083394
-0.00072516
-0.028281
-0.13706
-0.3546
-0.59101
-0.67658
-0.53299
-0.29659
-0.15301
-0.041334
0.06454
0.29949
0.45903
0.46773
0.34155
0.18202
0.042785
-0.041334
-0.055838
-0.089195
-0.16026
-0.23568
-0.23858
-0.17766
-0.073241
0.0065265
-0.0050761
-0.1095
-0.28354
-0.54605
-0.71719
-0.70558
-0.45323
-0.21972
-0.16461
-0.15591
-0.087745
0.124
0.30529
0.33865
0.31545
0.31545
0.24003
0.10515
-0.10225
-0.30674
-0.37781
-0.36621
-0.31545
-0.28209
-0.20667
-0.097897
0.029732
0.061639
-0.02393
-0.18347
-0.43727
-0.65917
-0.71574
-0.51849
-0.29224
-0.15301
-0.06744
0.029732
0.22408
0.34155
0.33285
0.29369
0.27049
0.23423
0.15591
-0.0065265
-0.20667
-0.37346
-0.46338
-0.49094
-0.49094
-0.47208
-0.43582
-0.38941
-0.35315
-0.25888
-0.11965
0.028281
0.047136
-0.06744
-0.31835
-0.59971
-0.66352
-0.52429
-0.31835
-0.06454
0.083394
0.25018
0.42277
0.44888
0.44017
0.44888
0.41552
0.31545
0.11385
-0.10515
-0.25888
-0.3517
-0.39521
-0.43002
-0.42857
-0.42277
-0.40827
-0.40972
-0.3198
-0.17912
-0.02393
0.035533
-0.044235
-0.25018
-0.5388
-0.60986
-0.49819
-0.30239
-0.090645
0.039884
0.20232
0.39956
0.46773
0.45468
0.45468
0.41842
0.32415
0.12545
-0.094996
-0.27194
-0.37926
-0.41697
-0.44307
-0.44162
-0.41407
-0.39376
-0.36766
-0.31545
-0.18927
-0.038434
0.010877
-0.038434
-0.22843
-0.50979
-0.62146
-0.5504
-0.36911
-0.19652
-0.045685
0.1066
0.3198
0.42132
0.42422
0.41842
0.39521
0.3227
0.14721
-0.061639
-0.24873
-0.35606
-0.40247
-0.42567
-0.43727
-0.43582
-0.41117
-0.39956
-0.3343
-0.20667
-0.039884
0.060189
0.034083
-0.13561
-0.42277
-0.58811
-0.55185
-0.36041
-0.17766
-0.0065265
0.11385
0.3314
0.46048
0.45903
0.44162
0.41842
0.36476
0.22553
0.018129
-0.17621
-0.30674
-0.36911
-0.39521
-0.40392
-0.39231
-0.36476
-0.343
-0.30239
-0.20522
-0.052937
0.045685
0.048586
-0.092096
-0.35025
-0.5707
-0.58666
-0.43002
-0.25163
-0.054387
0.06599
0.26904
0.45468
0.49819
0.50834
0.46918
0.37491
0.20812
-0.012328
-0.16461
-0.24438
-0.24438
-0.26178
-0.31109
-0.32125
-0.25598
-0.11675
0.013778
0.047136
-0.0036258
-0.14576
-0.37056
-0.5475
-0.53445
-0.36331
-0.21682
-0.16461
-0.11095
0.050036
0.3227
0.45468
0.42712
0.43002
0.40392
0.36186
0.20377
-0.034083
-0.23568
-0.32125
-0.29224
-0.25018
-0.19652
-0.096447
0.032632
0.14576
0.15736
0.054387
-0.124
-0.38071
-0.5765
-0.62437
-0.42277
-0.21972
-0.10225
-0.015228
0.089195
0.30529
0.40682
0.40972
0.37781
0.3517
0.32125
0.20667
0.06454
-0.11965
-0.3285
-0.41117
-0.44743
-0.41117
-0.38071
-0.37491
-0.3256
-0.16896
0.0065265
0.1095
0.080493
-0.06599
-0.3401
-0.56055
-0.60841
-0.48223
-0.28064
-0.06744
0.080493
0.27484
0.44307
0.47498
0.44888
0.37346
0.29079
0.080493
-0.073241
-0.19072
-0.20087
-0.25163
-0.27194
-0.3256
-0.29514
-0.21537
-0.063089
0.038434
0.035533
-0.076142
-0.29804
-0.56345
-0.70413
-0.60841
-0.39811
-0.24438
-0.16896
-0.086294
0.089195
0.30674
0.35896
0.343
0.3314
0.32125
0.30964
0.18057
-0.012328
-0.23278
-0.37201
-0.41262
-0.38361
-0.343
-0.27484
-0.13851
0.016679
0.15591
0.16171
0.070341
-0.14286
-0.40247
-0.5765
-0.56635
-0.36911
-0.18782
-0.081943
-0.0079768
0.16171
0.36476
0.40102
0.36911
0.3198
0.3256
0.29659
0.22553
0.038434
-0.16461
-0.3343
-0.42277
-0.42422
-0.39376
-0.33865
-0.31109
-0.30964
-0.21102
-0.081943
0.050036
0.055838
-0.044235
-0.27194
-0.52719
-0.65627
-0.55765
-0.36041
-0.16606
-0.00072516
0.14431
0.35896
0.47498
0.46918
0.47353
0.35751
0.25308
0.058738
-0.1008
-0.19652
-0.20667
-0.22843
-0.25598
-0.32415
-0.33285
-0.24438
-0.1037
0.035533
0.047136
-0.018129
-0.18347
-0.41262
-0.57215
-0.50109
-0.31835
-0.14576
-0.089195
-0.060189
0.10805
0.37926
0.52139
0.44162
0.31835
0.15011
0.044235
0.0050761
0.019579
0.0050761
-0.042785
-0.13851
-0.15881
-0.11385
-0.0094271
0.070341
0.10805
0.019579
-0.12545
-0.3459
-0.5649
-0.64177
-0.46628
-0.20957
-0.1153
-0.16316
-0.15446
0.02393
0.27339
0.36186
0.3256
0.28934
0.28934
0.27484
0.19217
0.034083
-0.15736
-0.32125
-0.41842
-0.46048
-0.44162
-0.40247
-0.36186
-0.27629
-0.15736
0.0036258
0.074692
0.018129
-0.14141
-0.40682
-0.63162
-0.65627
-0.47208
-0.27919
-0.14286
-0.045685
0.1095
0.32995
0.41552
0.38216
0.34445
0.34155
0.30674
0.19362
0.015228
-0.18927
-0.3343
-0.42857
-0.46193
-0.47353
-0.45323
-0.43292
-0.40392
-0.38506
-0.30964
-0.16751
-0.016679
0.018129
-0.055838
-0.25743
-0.5446
-0.64322
-0.54605
-0.36911
-0.20087
-0.057288
0.099347
0.33575
0.43872
0.43727
0.41262
0.41697
0.37781
0.23858
0.034083
-0.17912
-0.343
-0.45903
-0.51269
-0.51269
-0.49094
-0.48949
-0.48513
-0.39666
-0.23858
-0.089195
-0.054387
-0.13851
-0.31109
-0.57941
-0.72009
-0.65047
-0.46918
-0.32705
-0.20522
-0.093546
0.14866
0.32415
0.33865
0.29804
0.29079
0.28499
0.20957
0.044235
-0.14866
-0.30819
-0.37346
-0.40682
-0.41407
-0.41552
-0.41987
-0.43292
-0.46338
-0.41987
-0.29079
-0.1153
-0.028281
-0.071791
-0.25308
-0.53009
-0.69978
-0.65772
-0.48368
-0.314
-0.14141
-0.02103
0.21102
0.37346
0.38651
0.3488
0.3401
0.3372
0.25598
0.081943
-0.1124
-0.28499
-0.36911
-0.42567
-0.44598
-0.45033
-0.42857
-0.39666
-0.38651
-0.35751
-0.24873
-0.099347
-0.0094271
-0.045685
-0.19797
-0.45903
-0.64032
-0.63597
-0.46193
-0.30819
-0.12255
0.0021755
0.26178
0.46338
0.52139
0.51269
0.43437
0.3401
0.14431
-0.035533
-0.14721
-0.17476
-0.19362
-0.23133
-0.29079
-0.29369
-0.22117
-0.081943
0.015228
0.036983
-0.055838
-0.22988
-0.46918
-0.64902
-0.64467
-0.44888
-0.26468
-0.22843
-0.17186
-0.047136
0.22263
0.39231
0.35751
0.314
0.28934
0.28064
0.21247
0.06599
-0.099347
-0.26613
-0.3459
-0.41842
-0.41552
-0.40827
-0.39666
-0.36476
-0.25163
-0.092096
0.052937
0.028281
-0.093546
-0.34735
-0.59536
-0.73169
-0.63887
-0.46483
-0.27049
-0.11965
0.029732
0.26323
0.38216
0.36186
0.34155
0.3198
0.35315
0.31255
0.17766
-0.018129
-0.20957
-0.3459
-0.44307
-0.47643
-0.48513
-0.44743
-0.42422
-0.37491
-0.24003
-0.054387
0.1037
0.1095
-0.034083
-0.25888
-0.5417
-0.62872
-0.5417
-0.38506
-0.19362
-0.0021755
0.16026
0.39086
0.47933
0.44598
0.44453
0.42277
0.37781
0.20667
-0.010877
-0.17912
-0.26613
-0.26613
-0.26759
-0.25598
-0.343
-0.31109
-0.24148
-0.096447
0.047136
0.031182
-0.052937
-0.26613
-0.52864
-0.66207
-0.59536
-0.38361
-0.23713
-0.13561
-0.00072516
0.22843
0.46918
0.51124
0.46918
0.3401
0.23858
0.084844
-0.050036
-0.1153
-0.13416
-0.16316
-0.19362
-0.27194
-0.24293
-0.17766
-0.036983
0.052937
0.06454
-0.077592
-0.25018
-0.50979
-0.68673
-0.68963
-0.50399
-0.31109
-0.27049
-0.21102
-0.097897
0.15156
0.31109
0.31545
0.26033
0.22263
0.26033
0.23858
0.15591
-0.0050761
-0.18927
-0.343
-0.39811
-0.39376
-0.38216
-0.38361
-0.40827
-0.35606
-0.20812
-0.051487
0.039884
-0.032632
-0.19507
-0.46773
-0.70123
-0.72734
-0.58666
-0.39811
-0.24583
-0.1124
0.068891
0.29659
0.36621
0.3372
0.30529
0.31109
0.26613
0.13851
-0.050036
-0.24293
-0.37201
-0.41262
-0.39086
-0.3488
-0.3459
-0.40102
-0.42567
-0.36621
-0.21972
-0.070341
-0.047136
-0.14286
-0.343
-0.59971
-0.73459
-0.65482
-0.47498
-0.30094
-0.13416
0.028281
0.28209
0.44888
0.44307
0.40827
0.28499
0.18492
0.044235
-0.058738
-0.092096
-0.1095
-0.14431
-0.20087
-0.27919
-0.26904
-0.20087
-0.071791
0.026831
0.055838
-0.048586
-0.22553
-0.47933
-0.65047
-0.65627
-0.46773
-0.28354
-0.21392
-0.15301
-0.034083
0.20957
0.38361
0.42857
0.42277
0.40102
0.3488
0.22553
0.052937
-0.1153
-0.24728
-0.3198
-0.36766
-0.40537
-0.38941
-0.38361
-0.38506
-0.40827
-0.38071
-0.24873
-0.063089
0.055838
0.019579
-0.14576
-0.42567
-0.65482
-0.68963
-0.5446
-0.3459
-0.11675
0.048586
0.27049
0.45468
0.48949
0.47643
0.44162
0.41407
0.29079
0.090645
-0.12835
-0.24438
-0.27339
-0.25453
-0.26904
-0.29804
-0.26178
-0.15736
-0.013778
0.096447
0.10225
-0.018129
-0.19652
-0.44598
-0.61276
-0.58956
-0.42857
-0.26759
-0.16461
-0.06599
0.1124
0.32415
0.39521
0.3488
0.30239
0.29079
0.30674
0.26613
0.15156
-0.02393
-0.19507
-0.31835
-0.38796
-0.42712
-0.43582
-0.43147
-0.42132
-0.42712
-0.44017
-0.37636
-0.22408
-0.041334
0.032632
-0.050036
-0.27194
-0.56635
-0.73314
-0.65482
-0.48368
-0.21682
0.019579
0.22408
0.43292
0.49674
0.47063
0.44453
0.45613
0.45178
0.35025
0.17912
-0.015228
-0.19362
-0.31835
-0.41117
-0.43147
-0.42712
-0.40827
-0.40682
-0.3488
-0.20087
-0.0050761
0.13561
0.11675
-0.02103
-0.27339
-0.5359
-0.63452
-0.5388
-0.37636
-0.17041
0.0050761
0.20812
0.42422
0.49384
0.47208
0.44598
0.45033
0.41842
0.30674
0.124
-0.077592
-0.19942
-0.23423
-0.21682
-0.20957
-0.25888
-0.30529
-0.26613
-0.1298
0.029732
0.1327
0.080493
-0.063089
-0.30819
-0.54605
-0.64032
-0.5359
-0.36766
-0.21682
-0.058738
0.1037
0.343
0.45323
0.43292
0.40827
0.39086
0.41117
0.37926
0.26033
0.080493
-0.1037
-0.25743
-0.36041
-0.39956
-0.41407
-0.42567
-0.43727
-0.37781
-0.23423
-0.050036
0.087745
0.06599
-0.092096
-0.3459
-0.63307
-0.781
-0.70703
-0.5446
-0.33865
-0.1269
0.058738
0.28789
0.39666
0.38361
0.37636
0.38361
0.39811
0.32125
0.18202
-0.0065265
-0.16461
-0.27194
-0.32705
-0.36476
-0.39521
-0.38941
-0.39231
-0.41117
-0.43437
-0.37056
-0.21102
-0.034083
0.052937
-0.018129
-0.20087
-0.46773
-0.66642
-0.63162
-0.49674
-0.28064
-0.050036
0.12545
0.3401
0.46628
0.47933
0.46048
0.45903
0.43582
0.32125
0.12545
-0.039884
-0.13125
-0.14431
-0.14141
-0.19362
-0.24728
-0.24148
-0.15156
0.0036258
0.13996
0.18347
0.079043
-0.090645
-0.36621
-0.54605
-0.56635
-0.39376
-0.22843
-0.12255
-0.0079768
0.15881
0.40392
0.51704
0.48368
0.43582
0.39956
0.41697
0.40972
0.3401
0.19652
0.028281
-0.11385
-0.21392
-0.28499
-0.31255
-0.31109
-0.3169
-0.33285
-0.28934
-0.15736
0.045685
0.19797
0.19507
0.029732
-0.22263
-0.51994
-0.66207
-0.57505
-0.40537
-0.21682
-0.031182
0.14721
0.38506
0.49239
0.46918
0.43147
0.42857
0.45903
0.41407
0.29659
0.1095
-0.06599
-0.18637
-0.24873
-0.28934
-0.30384
-0.30384
-0.30529
-0.3169
-0.3372
-0.30239
-0.18347
-0.00072516
0.1153
0.074692
-0.10515
-0.39231
-0.63307
-0.64757
-0.50689
-0.30094
-0.1037
0.06599
0.29514
0.48803
0.52574
0.50834
0.49384
0.50544
0.41842
0.23858
0.028281
-0.1066
-0.13706
-0.14431
-0.17186
-0.24728
-0.28354
-0.24003
-0.1124
0.031182
0.1124
0.073241
-0.099347
-0.34155
-0.60551
-0.73314
-0.61856
-0.41117
-0.27774
-0.21247
-0.1124
0.10225
0.34735
0.40102
0.33865
0.26759
0.27919
0.30964
0.30819
0.20667
0.045685
-0.11965
-0.23713
-0.32125
-0.36911
-0.38941
-0.38216
-0.39956
-0.42857
-0.39666
-0.27049
-0.06744
0.092096
0.099347
-0.06744
-0.3314
-0.63017
-0.76505
-0.64177
-0.44307
-0.27339
-0.090645
0.084844
0.343
0.46773
0.42857
0.36911
0.36186
0.38361
0.3459
0.22408
0.045685
-0.12255
-0.24148
-0.30674
-0.34155
-0.36621
-0.36186
-0.35896
-0.37201
-0.38796
-0.39231
-0.29804
-0.12545
0.012328
0.016679
-0.1327
-0.38651
-0.62001
-0.65917
-0.47353
-0.26759
-0.1008
0.060189
0.25453
0.51849
0.61421
0.60551
0.562
0.58376
0.54315
0.40392
0.21392
0.050036
0.00072516
-0.0065265
-0.026831
-0.090645
-0.13996
-0.12255
-0.026831
0.1066
0.21392
0.22553
0.086294
-0.1211
-0.42567
-0.58956
-0.5533
-0.30384
-0.11675
-0.11385
-0.092096
0.047136
0.35606
0.53299
0.49239
0.38796
0.33285
0.35025
0.35606
0.30964
0.16171
-0.0050761
-0.14141
-0.23713
-0.27774
-0.29804
-0.30384
-0.30094
-0.30239
-0.31835
-0.3285
-0.26468
-0.1182
0.039884
0.1037
-0.018129
-0.26033
-0.59246
-0.78535
-0.69253
-0.45903
-0.27049
-0.10805
0.031182
0.28209
0.50254
0.55475
0.5359
0.54895
0.50834
0.38216
0.16316
-0.055838
-0.18492
-0.23278
-0.25598
-0.30819
-0.35896
-0.35896
-0.28064
-0.14431
-0.0079768
0.086294
0.047136
-0.10805
-0.3517
-0.61856
-0.74184
-0.62727
-0.37926
-0.26033
-0.26033
-0.22263
-0.012328
0.28209
0.39231
0.31255
0.19942
0.19217
0.21682
0.22553
0.16171
0.018129
-0.14576
-0.26323
-0.34735
-0.39521
-0.42132
-0.42567
-0.40682
-0.41842
-0.44017
-0.47208
-0.41987
-0.27049
-0.11385
-0.058738
-0.17766
-0.42567
-0.75054
-0.91153
-0.7723
-0.54605
-0.37056
-0.22263
-0.052937
0.22408
0.41697
0.41552
0.35315
0.36766
0.40972
0.37491
0.27049
0.077592
-0.1298
-0.28789
-0.37781
-0.41842
-0.40392
-0.41552
-0.42132
-0.35896
-0.21972
-0.06454
0.052937
0.063089
-0.073241
-0.29369
-0.58811
-0.7607
-0.71719
-0.49094
-0.31835
-0.26904
-0.17186
0.029732
0.31835
0.42857
0.35315
0.27049
0.26759
0.29079
0.25598
0.15301
-0.012328
-0.18347
-0.26613
-0.35896
-0.37056
-0.32705
-0.314
-0.33865
-0.39231
-0.41987
-0.33285
-0.20667
-0.042785
-0.02103
-0.15446
-0.40247
-0.71284
-0.85497
-0.75344
-0.52429
-0.36041
-0.27629
-0.14286
0.1211
0.36476
0.41117
0.37201
0.314
0.29949
0.23858
0.083394
-0.048586
-0.17766
-0.20377
-0.19072
-0.24148
-0.30529
-0.35896
-0.31255
-0.22408
-0.077592
0.0050761
0.0094271
-0.14286
-0.38361
-0.68093
-0.82596
-0.78535
-0.51559
-0.34155
-0.32415
-0.26323
-0.073241
0.22408
0.38361
0.33865
0.23278
0.19942
0.21392
0.23713
0.20522
0.097897
-0.050036
-0.20232
-0.30384
-0.38361
-0.40682
-0.39376
-0.38796
-0.41407
-0.37491
-0.28934
-0.11675
0.044235
0.083394
-0.029732
-0.28064
-0.59826
-0.7926
-0.77085
-0.52864
-0.3256
-0.22263
-0.11675
0.058738
0.3285
0.46483
0.45323
0.40392
0.41697
0.39666
0.29514
0.12545
-0.050036
-0.20377
-0.28209
-0.3401
-0.36331
-0.36766
-0.35025
-0.3372
-0.3546
-0.38361
-0.35315
-0.24438
-0.074692
0.036983
0.010877
-0.18347
-0.47498
-0.7607
-0.85352
-0.65772
-0.44307
-0.30964
-0.16751
-0.0050761
0.27484
0.39811
0.37781
0.30819
0.34735
0.35025
0.26904
0.13416
-0.051487
-0.20667
-0.26323
-0.27194
-0.24003
-0.26033
-0.32415
-0.36331
-0.33285
-0.19507
-0.052937
0.038434
0.0050761
-0.18202
-0.43872
-0.71429
-0.82886
-0.68093
-0.45178
-0.3372
-0.28789
-0.20522
0.057288
0.32995
0.39231
0.314
0.19072
0.19652
0.19942
0.20957
0.14431
0.0021755
-0.15881
-0.29369
-0.40247
-0.43872
-0.44598
-0.42422
-0.40827
-0.35896
-0.26323
-0.1182
0.0050761
0.035533
-0.092096
-0.31835
-0.64032
-0.84482
-0.86367
-0.62727
-0.44017
-0.343
-0.23278
-0.044235
0.26323
0.39521
0.3546
0.24293
0.22263
0.25018
0.24003
0.17621
0.029732
-0.14576
-0.27049
-0.36621
-0.40682
-0.43002
-0.42422
-0.42567
-0.40827
-0.43582
-0.47063
-0.47063
-0.37346
-0.20812
-0.071791
-0.06599
-0.22988
-0.51704
-0.81001
-0.93764
-0.76795
-0.5533
-0.36476
-0.17766
0.019579
0.28644
0.40537
0.37346
0.30384
0.3401
0.37781
0.36621
0.25163
0.080493
-0.10225
-0.24148
-0.35751
-0.41842
-0.47788
-0.51849
-0.51269
-0.5591
-0.55765
-0.50399
-0.36621
-0.17912
-0.06454
-0.076142
-0.24148
-0.51124
-0.80276
-0.93619
-0.78825
-0.55185
-0.38506
-0.21972
-0.055838
0.18202
0.36911
0.38506
0.33575
0.3169
0.30819
0.26323
0.14431
-0.035533
-0.20957
-0.3198
-0.37781
-0.41262
-0.41987
-0.42422
-0.41697
-0.42277
-0.45468
-0.47933
-0.43727
-0.28934
-0.11385
-0.0065265
-0.050036
-0.23858
-0.53735
-0.7839
-0.84627
-0.65192
-0.44307
-0.24003
-0.055838
0.18492
0.41552
0.49964
0.46193
0.43582
0.45468
0.44453
0.36186
0.18927
0.0079768
-0.13996
-0.24293
-0.3227
-0.38071
-0.41407
-0.42422
-0.44017
-0.44307
-0.42422
-0.32125
-0.15011
0.025381
0.10515
0.029732
-0.18057
-0.48368
-0.72154
-0.77955
-0.59101
-0.39811
-0.24583
-0.089195
0.1211
0.37636
0.47498
0.41262
0.314
0.28064
0.28499
0.29224
0.27339
0.15591
0.0079768
-0.1327
-0.23713
-0.26759
-0.28064
-0.28499
-0.28644
-0.29514
-0.3227
-0.35606
-0.35315
-0.26178
-0.099347
0.058738
0.092096
-0.038434
-0.30239
-0.62437
-0.7897
-0.66497
-0.47063
-0.25743
-0.055838
0.15446
0.41842
0.55765
0.51414
0.43002
0.43147
0.43292
0.45178
0.38506
0.25888
0.1037
-0.025381
-0.13706
-0.19652
-0.27194
-0.30384
-0.31835
-0.32705
-0.343
-0.30094
-0.17476
-0.012328
0.1327
0.16171
0.018129
-0.22263
-0.5591
-0.75344
-0.72734
-0.51849
-0.3285
-0.18347
-0.016679
0.23133
0.47353
0.51849
0.43292
0.33865
0.3169
0.343
0.32125
0.24728
0.11965
-0.034083
-0.14431
-0.23133
-0.26613
-0.28644
-0.29659
-0.30094
-0.3169
-0.35751
-0.40537
-0.38796
-0.26613
-0.087745
0.044235
0.034083
-0.13996
-0.44453
-0.72734
-0.83176
-0.65627
-0.44598
-0.23713
-0.035533
0.18782
0.43727
0.51994
0.49384
0.42132
0.43437
0.43872
0.41117
0.29659
0.14141
-0.02103
-0.13706
-0.23568
-0.30384
-0.3459
-0.35896
-0.37201
-0.37926
-0.38361
-0.31545
-0.17331
0.0036258
0.13561
0.13851
-0.015228
-0.28209
-0.60261
-0.76505
-0.68818
-0.50109
-0.30964
-0.1037
0.1124
0.38361
0.5591
0.55185
0.47063
0.43872
0.41117
0.38071
0.28644
0.1298
-0.010877
-0.13416
-0.19652
-0.22553
-0.25453
-0.25018
-0.25453
-0.25598
-0.29224
-0.33575
-0.34445
-0.26323
-0.097897
0.06744
0.12835
0.031182
-0.19507
-0.52139
-0.73024
-0.69688
-0.52284
-0.32995
-0.1066
0.093546
0.35025
0.5562
0.5475
0.47933
0.43147
0.43872
0.43002
0.41407
0.28644
0.13416
-0.010877
-0.1124
-0.19797
-0.26759
-0.30384
-0.3343
-0.36041
-0.38941
-0.39811
-0.3314
-0.19072
-0.013778
0.092096
0.055838
-0.1153
-0.41117
-0.69833
-0.83756
-0.70123
-0.49239
-0.29949
-0.10225
0.090645
0.35896
0.49819
0.47643
0.37781
0.30964
0.29949
0.30384
0.27774
0.22553
0.084844
-0.047136
-0.16751
-0.25163
-0.26904
-0.27919
-0.26613
-0.27629
-0.29514
-0.34735
-0.39811
-0.35896
-0.24873
-0.058738
0.060189
0.081943
-0.1037
-0.38361
-0.69253
-0.82306
-0.67513
-0.49094
-0.26178
-0.068891
0.18202
0.45033
0.54315
0.52719
0.43582
0.43872
0.45758
0.43292
0.35315
0.19217
0.028281
-0.089195
-0.15736
-0.23423
-0.31255
-0.3343
-0.35025
-0.36476
-0.38216
-0.35751
-0.25598
-0.1037
0.073241
0.1095
0.0065265
-0.21247
-0.5446
-0.7781
-0.83611
-0.64177
-0.45758
-0.21537
-0.02248
0.23423
0.45178
0.50979
0.43727
0.39231
0.3546
0.35025
0.28499
0.16461
0.02393
-0.1095
-0.20957
-0.26904
-0.28644
-0.27774
-0.29369
-0.29514
-0.28499
-0.3227
-0.37056
-0.40102
-0.3314
-0.16896
-0.00072516
0.10515
0.025381
-0.17912
-0.49964
-0.75489
-0.77375
-0.60696
-0.40537
-0.17912
0.045685
0.31109
0.51124
0.51849
0.44017
0.39376
0.39231
0.41117
0.39086
0.30529
0.17476
-0.0021755
-0.097897
-0.19362
-0.25888
-0.29949
-0.3227
-0.343
-0.36476
-0.39086
-0.36331
-0.25308
-0.058738
0.099347
0.15011
0.047136
-0.18927
-0.50979
-0.74619
-0.78535
-0.59681
-0.39521
-0.17331
0.029732
0.28499
0.52864
0.56055
0.48513
0.39086
0.3459
0.36476
0.36186
0.28644
0.17621
0.02103
-0.083394
-0.17912
-0.21827
-0.24728
-0.26033
-0.26613
-0.27339
-0.31545
-0.36911
-0.40827
-0.36766
-0.21247
-0.039884
0.077592
0.036983
-0.14431
-0.46193
-0.74764
-0.85787
-0.70413
-0.49529
-0.26033
-0.02393
0.23568
0.46193
0.51994
0.47643
0.40972
0.41987
0.42712
0.38941
0.28644
0.13561
-0.010877
-0.11675
-0.19942
-0.26468
-0.30674
-0.3227
-0.32125
-0.33285
-0.35606
-0.34155
-0.24293
-0.074692
0.092096
0.17041
0.10225
-0.1066
-0.41407
-0.69398
-0.79695
-0.63887
-0.44743
-0.25163
-0.055838
0.18347
0.45468
0.5446
0.49674
0.36621
0.29224
0.29224
0.29949
0.27774
0.22263
0.093546
-0.031182
-0.1269
-0.17912
-0.19072
-0.19217
-0.19797
-0.19652
-0.20377
-0.24583
-0.29369
-0.30239
-0.19942
-0.029732
0.124
0.17331
0.051487
-0.21827
-0.56345
-0.78825
-0.74764
-0.55185
-0.32415
-0.089195
0.13851
0.42857
0.61421
0.60406
0.50834
0.45903
0.45903
0.47353
0.44598
0.3343
0.18782
0.054387
-0.038434
-0.10805
-0.15736
-0.19652
-0.20232
-0.21682
-0.24293
-0.29514
-0.30674
-0.21392
-0.032632
0.1269
0.20377
0.13125
-0.093546
-0.40102
-0.68383
-0.77955
-0.58231
-0.36766
-0.20957
-0.041334
0.17331
0.47933
0.62582
0.59391
0.47208
0.44307
0.44888
0.43002
0.36186
0.22988
0.073241
-0.042785
-0.12255
-0.16461
-0.18202
-0.18057
-0.17766
-0.17186
-0.19797
-0.24583
-0.28934
-0.25743
-0.12255
0.041334
0.15591
0.13416
-0.038434
-0.34155
-0.65627
-0.80276
-0.64902
-0.43292
-0.25018
-0.06599
0.14866
0.47208
0.64757
0.62001
0.48658
0.41842
0.40537
0.42422
0.42132
0.35315
0.21537
0.063089
-0.060189
-0.1153
-0.16026
-0.17331
-0.17912
-0.20522
-0.19652
-0.27629
-0.3256
-0.36041
-0.29659
-0.13561
0.036983
0.1182
0.063089
-0.14576
-0.48368
-0.78825
-0.89123
-0.67803
-0.45468
-0.29079
-0.1182
0.12255
0.42422
0.5504
0.49239
0.3488
0.30384
0.29949
0.33285
0.28789
0.20087
0.058738
-0.079043
-0.19072
-0.26323
-0.28789
-0.29659
-0.30529
-0.32705
-0.3459
-0.29949
-0.18057
-0.013778
0.10515
0.12835
-0.0036258
-0.26178
-0.20377
