0.15785
0.39766
0.45012
0.34052
0.07822
-0.082904
-0.12412
-0.099766
-0.036066
0.07541
0.15504
0.15316
0.11663
0.090398
0.083841
0.071663
0.044496
0.026698
0.039813
0.070726
0.069789
0.12319
0.076347
0.091335
0.065105
-0.038876
-0.19813
-0.27963
-0.2281
-0.063232
-0.17471
-0.024824
0.028571
0.094145
0.10726
0.070726
0.093208
0.25995
0.32178
0.29368
0.17002
0.048244
-0.085714
-0.10445
-0.053864
0.0070258
0.063232
0.04637
0.019204
-0.0042155
0.026698
-0.066042
0.15129
0.11101
0.16066
-0.013583
-0.07541
-0.14941
-0.055738
-0.053864
-0.031382
-0.012646
0.070726
0.081967
0.12412
0.060422
0.01452
0.025761
0.012646
0.057611
0.080094
0.081967
-0.035129
0.087588
0.063232
0.063232
0.16253
0.0088993
0.0098361
-0.01171
0.039813
0.07541
0.096019
0.1644
0.21124
0.21218
0.13255
0.04918
-0.26745
-0.36956
-0.50351
-0.39391
-0.26651
0.00046838
0.098829
0.21874
0.031382
-0.032319
-0.25152
-0.31335
-0.24309
-0.057611
0.14286
0.19344
0.15785
0.1082
0.047307
-0.0023419
-0.037939
-0.022951
-0.018267
-0.13817
-0.26183
-0.30304
-0.28337
-0.14379
-0.15129
0.056674
-0.04356
-0.15316
-0.19813
-0.22904
-0.14941
-0.04918
-0.086651
-0.13817
-0.23185
-0.3171
-0.21405
-0.19157
0.15129
0.31803
0.48852
0.43888
0.23934
0.07541
-0.045433
0.012646
0.086651
0.11663
0.24684
0.17471
0.20843
0.12506
-0.00046838
-0.13817
-0.16534
-0.093208
0.054801
0.2
0.27775
0.11288
0.13443
-0.17096
-0.40609
-0.61311
-0.59906
-0.32646
0.077283
0.43326
0.65246
0.56253
0.37143
0.069789
-0.0070258
-0.16909
0.013583
0.19906
0.29461
0.32084
0.3096
0.33115
0.35831
0.23841
0.35738
0.29742
0.33021
0.080094
-0.17002
-0.20937
-0.1719
0.061358
0.16815
0.13068
0.20656
0.10913
0.04637
0.015457
0.084778
0.10164
0.081967
-0.0098361
-0.07541
-0.12131
-0.17002
-0.25152
-0.19532
-0.23466
-0.24496
-0.24496
-0.22717
-0.16628
-0.12881
-0.052927
-0.034192
0.10539
0.1007
0.2281
0.16253
0.14567
0.082904
0.069789
0.050117
-0.013583
-0.050117
-0.022014
-0.11475
-0.051054
-0.18501
-0.24122
-0.25621
-0.21405
-0.085714
-0.088525
0.022951
0.18501
0.28806
0.31429
0.16815
0.092272
-0.08103
-0.13068
-0.11194
-0.060422
0.039813
0.10726
0.15785
0.19906
0.2356
0.26651
0.27494
0.26838
0.26464
0.25714
0.22904
0.17752
0.098829
0.037002
-0.0070258
-0.1822
-0.27119
-0.39297
-0.31897
-0.20656
-0.10539
-0.063232
-0.081967
-0.1082
-0.19532
-0.14941
0.047307
0.27026
0.40141
0.28712
0.059485
-0.1082
-0.21967
-0.28899
-0.31335
-0.22529
-0.2356
-0.10913
-0.083841
-0.044496
-0.24871
-0.52693
-0.60562
-0.46417
-0.23091
-0.079157
0.2815
0.31616
0.31241
0.11194
0.039813
-0.04356
-0.038876
0.020141
0.19813
0.35831
0.46136
0.3171
0.10539
-0.12131
-0.16909
-0.40141
-0.33958
-0.39297
-0.28525
-0.17845
-0.1541
-0.13068
-0.23653
-0.097892
-0.15035
-0.11288
-0.36487
-0.42951
-0.45948
-0.29555
-0.11194
-0.006089
0.021077
0.0070258
0.019204
0.070726
0.20187
0.31335
0.3171
0.20656
0.086651
0.066042
0.069789
0.084778
0.051991
0.14192
0.10726
0.14848
-0.098829
-0.20749
-0.31616
-0.25621
-0.17283
-0.084778
-0.01733
0.038876
0.006089
-0.020141
-0.1082
-0.21874
-0.29742
-0.22717
0.0042155
0.34333
0.6178
0.70023
0.77892
0.66276
0.39204
0.095082
-0.14473
-0.20375
-0.040749
0.21405
0.37143
0.43888
0.27307
0.2356
0.16815
0.082904
-0.00046838
-0.12974
-0.2637
-0.42951
-0.43044
-0.44918
-0.39766
-0.49977
-0.51663
-0.66089
-0.52412
-0.52881
-0.37705
-0.23747
0.0726
0.38923
0.59344
0.62248
0.5082
0.35363
0.20843
0.082904
-0.0098361
-0.048244
-0.062295
-0.048244
-0.080094
-0.083841
-0.18033
-0.34988
-0.5466
-0.77143
-0.7452
-0.48852
-0.22248
-0.022014
0.034192
0.15129
0.077283
-0.14192
-0.33021
-0.44356
-0.33302
-0.19063
-0.030445
-0.045433
0.01733
-0.050117
-0.10726
-0.23279
-0.2356
-0.24871
-0.17939
-0.096019
-0.01733
-0.022951
0.15035
0.086651
0.14098
-0.10164
-0.22904
-0.363
-0.38454
-0.33489
-0.35269
-0.3808
-0.25995
-0.15785
-0.14754
-0.17939
-0.1466
-0.1007
-0.012646
0.066042
0.1363
0.17845
0.12037
0.048244
0.039813
0.11756
0.17471
0.13536
0.10164
0.063232
0.060422
0.022951
-0.027635
-0.042623
0.0070258
0.063232
0.056674
0.058548
0.013583
0.020141
0.026698
-0.21311
-0.27681
-0.33302
-0.20749
-0.1363
-0.18126
-0.18126
-0.19157
-0.058548
0.14379
0.2356
0.28993
0.28337
0.29836
0.29274
0.29836
0.30117
0.29836
0.30585
0.32084
0.32553
0.32927
0.21686
0.21874
0.089461
0.099766
-0.067916
-0.19344
-0.24496
-0.14567
0.037002
0.19063
0.25714
0.34145
0.43888
0.40234
0.18407
0.059485
-0.077283
-0.076347
-0.056674
0.097892
0.22998
0.34333
0.32084
0.22717
0.17377
0.091335
0.031382
0.006089
0.028571
0.071663
0.1082
0.12131
0.11194
0.084778
0.050117
0.024824
0.013583
0.013583
0.027635
0.051991
0.077283
0.10258
0.099766
0.055738
-0.0079625
-0.080094
-0.13068
-0.16347
-0.1822
-0.20375
-0.2281
-0.24684
-0.25808
-0.26276
-0.26089
-0.25995
-0.24778
-0.2459
-0.25246
-0.26932
-0.27681
-0.26089
-0.22717
-0.20187
-0.20281
-0.24403
-0.29555
-0.33396
-0.34707
-0.33302
-0.29836
-0.25059
-0.21218
-0.19813
-0.20187
-0.21967
-0.24215
-0.27307
-0.30867
-0.33489
-0.35363
-0.35925
-0.34988
-0.3171
-0.28056
-0.25246
-0.23747
-0.22904
-0.21499
-0.18314
-0.14286
-0.07541
0.17471
0.45293
0.85667
1
0.90539
0.7096
0.28244
-0.0051522
-0.37424
-0.61593
-0.60281
-0.40984
-0.30492
-0.28337
-0.25527
-0.33302
-0.2637
-0.3274
-0.16347
-0.086651
0.07541
0.12693
0.12506
0.11756
0.12881
0.13443
0.13911
0.15597
0.15691
0.092272
0.19157
0.11475
0.21874
0.026698
-0.13068
-0.11569
-0.0079625
0.14567
0.18407
0.22904
0.29649
0.30867
0.20937
0.21593
0.16159
0.2
0.14941
0.096019
0.11756
0.029508
0.10164
0.11007
-0.058548
-0.17096
-0.17939
-0.060422
0.030445
0.07541
0.27494
0.40047
0.43232
0.34239
0.26464
0.27026
0.33396
0.35363
0.40609
0.24403
0.42108
0.37799
0.24215
0.20281
-0.0032787
-0.077283
-0.14941
0.040749
0.19063
0.3274
0.25246
0.274
0.16066
0.23279
-0.037002
-0.04356
0.01452
0.22717
0.28056
0.24309
0.126
0.07541
0.034192
-0.01452
-0.24965
-0.21967
-0.094145
0.13536
0.2178
0.34801
0.5007
0.51007
0.61967
0.51475
0.27307
0.19532
-0.051991
-0.13349
-0.20562
-0.15785
-0.18876
-0.033255
0.0023419
0.16066
0.27963
0.12881
-0.0098361
-0.12881
-0.056674
0.053864
0.12506
0.12693
0.22998
0.29836
0.31335
-0.039813
-0.20843
-0.3452
-0.27119
-0.14473
-0.099766
0.035129
0.1541
0.21124
0.12131
-0.023888
-0.021077
0.053864
0.16534
0.17002
0.2637
0.23934
0.25714
0.10632
0.019204
-0.067916
-0.18689
-0.22717
-0.15129
-0.019204
0.16534
0.24028
0.18033
0.23091
0.16815
0.099766
0.019204
-0.32084
-0.39766
-0.45855
-0.33583
-0.2637
-0.1822
0.066979
0.38454
0.50539
0.58033
0.25621
0.0079625
-0.12131
-0.096956
0.0051522
0.00046838
0.0051522
-0.17377
-0.11475
-0.23466
-0.34239
-0.3377
-0.6281
-0.63279
-0.72178
-0.55504
-0.30773
-0.062295
0.066042
0.20562
0.11007
0.15129
-0.10913
-0.41733
-0.57658
-0.44637
-0.064169
0.32459
0.5185
0.56815
0.61311
0.4548
0.14286
-0.10445
-0.46511
-0.55504
-0.58595
-0.47166
-0.38923
-0.1822
-0.22717
-0.0098361
-0.11101
-0.047307
-0.29274
-0.45105
-0.4548
-0.28618
-0.022014
0.14379
0.2281
0.21405
0.25527
0.2534
0.037939
-0.095082
-0.37237
-0.33396
-0.17939
0.17564
0.60843
0.84262
0.837
0.66651
0.54848
0.45667
0.30304
0.32927
0.15597
0.053864
-0.044496
-0.0726
0.033255
-0.0014052
0.27026
0.12037
0.32927
0.23466
0.04637
-0.022951
-0.048244
0.087588
0.17845
0.23841
0.24496
0.28337
0.26089
0.25621
0.18689
-0.04918
-0.24028
-0.41639
-0.34239
-0.22717
-0.1082
-0.096956
-0.18033
-0.018267
0.01171
0.14473
-0.085714
-0.20281
-0.28244
-0.29649
-0.24684
-0.18689
-0.18407
-0.32178
-0.12225
0.045433
0.36581
0.54192
0.63747
0.57283
0.40328
0.16815
-0.039813
-0.13817
-0.12506
-0.07822
-0.01452
-0.01452
-0.019204
-0.051991
-0.14098
-0.20281
-0.51756
-0.54941
-0.40328
0.067916
0.43981
0.67775
0.48103
0.55129
0.48197
0.53536
0.21124
-0.055738
-0.30398
-0.19251
0.074473
0.3808
0.50913
0.49227
0.24871
0.1363
-0.19438
-0.49602
-0.62342
-0.62998
-0.42295
-0.2356
-0.073536
-0.032319
0.2103
0.34988
0.50539
0.48384
0.30117
0.097892
-0.019204
-0.04637
-0.00046838
0.023888
0.029508
-0.0032787
-0.052927
-0.11382
-0.17564
-0.21686
-0.23091
-0.2103
-0.17002
-0.12974
-0.1082
-0.10726
-0.12131
-0.1363
-0.14848
-0.15316
-0.16721
-0.18314
-0.2
-0.2103
-0.22248
-0.25714
-0.363
-0.22155
-0.041686
0.17939
0.2993
0.19438
0.10351
-0.1082
-0.22436
-0.38173
-0.45012
-0.48103
-0.43794
-0.37611
-0.30211
-0.20562
-0.10913
-0.020141
0.059485
0.12881
0.17939
0.17939
0.13536
0.057611
-0.026698
-0.080094
-0.10726
-0.11194
-0.10539
-0.097892
-0.079157
-0.061358
-0.061358
-0.060422
-0.067916
-0.08103
-0.098829
-0.13349
-0.17096
-0.20562
-0.22248
-0.20843
-0.13817
-0.0051522
0.21311
0.39859
0.55129
0.5007
0.27213
-0.036066
-0.2
-0.23466
-0.14473
-0.16159
-0.24122
-0.28806
-0.37986
-0.40515
-0.44731
-0.44637
-0.40328
-0.36862
-0.31335
-0.32178
-0.15878
-0.14379
-0.04356
-0.24215
-0.2534
-0.23185
-0.10539
-0.01452
-0.0032787
-0.00046838
0.055738
0.14473
0.2103
0.16066
0.13443
0.062295
0.15597
0.18407
0.18033
0.051054
0.044496
-0.0079625
-0.079157
0.1007
-0.091335
-0.096956
-0.27588
-0.41171
-0.39578
-0.21686
0.030445
0.17939
0.13443
0.37892
0.46136
0.42201
0.35082
0.068852
-0.16534
-0.27869
-0.20843
0.028571
0.26932
0.74333
0.74426
0.83607
0.35363
0.024824
-0.26557
-0.30585
-0.23091
-0.13536
-0.041686
0.067916
0.059485
0.086651
-0.12881
-0.33208
-0.4726
-0.49508
-0.41639
-0.25059
-0.11663
-0.15691
-0.14379
-0.2534
-0.22717
-0.42108
-0.41639
-0.36112
-0.21874
0.051054
0.060422
0.0014052
0.092272
0.13817
0.27588
0.24028
0.32553
0.30211
0.3555
0.25995
0.17658
-0.047307
0.052927
0.096019
0.26183
0.28993
0.33115
0.34801
0.26557
0.16159
0.045433
0.0051522
-0.034192
0.01733
-0.030445
0.1082
-0.10258
-0.11382
-0.20843
-0.24778
-0.19063
-0.20281
-0.24309
0.0098361
-0.035129
-0.08103
-0.057611
-0.31803
-0.36487
-0.36206
-0.15316
0.01171
0.12412
0.091335
0.12787
0.126
0.22155
-0.0032787
-0.12131
-0.20937
-0.1363
-0.063232
0.0079625
0.054801
0.059485
-0.036066
-0.035129
-0.070726
-0.045433
-0.21124
-0.33021
-0.34707
-0.26276
-0.14754
-0.073536
-0.0079625
0.066042
0.084778
0.095082
0.12693
0.024824
0.041686
0.057611
0.15504
0.28806
0.40422
0.37892
0.47073
0.27026
0.21405
-0.0051522
-0.15597
-0.35363
-0.3452
-0.30304
-0.2534
-0.18595
-0.13443
-0.13255
-0.060422
-0.00046838
0.083841
0.041686
0.0088993
0.01452
0.052927
0.10164
0.11382
0.126
0.14192
-0.040749
0.058548
-0.11475
0.0079625
-0.31241
-0.34988
-0.3377
-0.073536
0.2637
0.36206
0.77049
0.64309
0.53443
0.22998
-0.01171
-0.1466
-0.25527
-0.28993
-0.30867
-0.23091
-0.19251
0.0088993
0.12974
0.38361
0.46136
0.34426
0.23841
0.12693
0.16721
0.15785
0.19438
0.26464
0.29555
0.28618
0.23279
0.25059
0.028571
-0.038876
-0.12506
-0.10164
-0.0726
-0.041686
-0.22623
-0.035129
-0.1082
-0.11663
-0.27963
-0.42951
-0.52506
-0.46136
-0.27963
-0.068852
0.17377
0.41171
0.58876
0.57377
0.51569
0.086651
-0.15785
-0.32178
-0.30304
-0.20375
-0.094145
-0.029508
0.0098361
0.030445
0.074473
0.10164
0.11944
0.1082
0.1007
0.10632
0.11288
0.12037
0.14098
0.1719
0.16815
0.10726
0.023888
-0.056674
-0.096956
-0.11288
-0.11194
-0.10445
-0.090398
-0.065105
-0.035129
-0.0079625
-0.0042155
-0.030445
-0.033255
0.031382
0.20749
0.4726
0.66183
0.80328
0.66089
0.3377
-0.010773
-0.22436
-0.19719
-0.19157
-0.22155
-0.28899
-0.33021
-0.35363
-0.30492
-0.32646
-0.30398
-0.29649
-0.27026
-0.21967
-0.17564
-0.13911
-0.10913
-0.084778
-0.048244
-0.0070258
0.022951
0.035129
0.029508
0.015457
-0.0032787
-0.029508
-0.052927
-0.073536
-0.07541
-0.059485
-0.051991
-0.063232
-0.095082
-0.13817
-0.17845
-0.20375
-0.20656
-0.18314
-0.15316
-0.126
0.00046838
0.26838
0.55597
0.81546
0.75176
0.50632
0.14005
-0.10539
-0.22529
-0.27775
-0.3171
-0.40515
-0.32272
-0.15504
0.059485
0.21311
0.21874
0.1541
0.067916
-0.0023419
-0.032319
-0.01171
-0.13911
0.006089
0.015457
-0.25902
-0.3555
-0.48197
-0.43607
-0.1363
0.097892
0.22529
0.36581
0.43138
0.30867
0.20375
-0.0070258
-0.027635
0.0014052
0.15316
0.26932
0.34052
0.32459
0.16909
0.28712
0.10913
0.12319
-0.16628
-0.23747
-0.274
-0.1541
-0.063232
0.00046838
-0.01733
0.032319
0.085714
-0.0098361
-0.26183
-0.3555
-0.44075
-0.36487
-0.2103
0.085714
0.3555
0.60749
0.61124
0.59625
0.16534
-0.083841
-0.30117
-0.31429
-0.29368
-0.19344
-0.20281
-0.00046838
0.18689
0.35363
0.43138
0.33583
0.14848
0.012646
-0.018267
0.0088993
0.044496
0.037939
0.099766
-0.030445
0.034192
-0.16347
-0.18033
-0.36112
-0.34333
-0.29555
-0.11663
-0.08103
0.064169
0.01452
-0.11944
-0.092272
-0.33958
-0.52319
-0.64778
-0.50913
-0.24028
0.073536
0.32646
0.42576
0.4445
0.50726
0.43044
0.25995
0.14848
0.084778
0.14379
0.18501
0.1719
0.18314
0.11007
0.14941
0.056674
0.21499
0.0051522
0.0088993
-0.0023419
0.089461
0.16628
0.13911
0.065105
0.094145
-0.012646
-0.050117
-0.077283
-0.33864
-0.29087
-0.37892
-0.25714
-0.20468
-0.099766
-0.16347
0.12506
0.064169
0.3911
0.19719
0.23185
0.1644
0.27026
0.34614
0.32365
0.24778
0.15129
0.1541
0.1466
0.21311
0.22998
0.16628
0.11475
0.15129
0.25902
0.35363
0.41358
0.43888
0.43607
0.21499
0.24965
0.030445
0.038876
-0.26932
-0.37892
-0.40141
-0.28806
-0.10539
0.04918
0.25246
0.13443
0.32272
0.13443
-0.056674
-0.16066
-0.14379
-0.083841
-0.091335
-0.13911
-0.13536
-0.22342
-0.10913
-0.085714
-0.13162
-0.13443
-0.25433
-0.25995
-0.21405
-0.091335
-0.0014052
0.026698
-0.11475
0.029508
-0.01171
0.025761
-0.11663
-0.22717
-0.25808
-0.22529
-0.16066
-0.17096
-0.17939
-0.33208
-0.27307
-0.33583
-0.26745
-0.52412
-0.52881
-0.674
-0.5007
-0.31616
-0.022014
0.24403
0.42201
0.47166
0.44075
0.2459
0.036066
-0.085714
-0.083841
0.021077
0.07541
0.08103
0.066042
0.10445
0.041686
0.33864
0.2815
0.46417
0.28899
0.12881
-0.033255
-0.12881
-0.11194
-0.061358
0.010773
0.022014
0.087588
0.006089
0.039813
-0.22061
-0.46042
-0.61967
-0.63372
-0.4267
-0.13443
0.17845
0.24028
0.28993
0.053864
0.066042
-0.10539
-0.059485
-0.13255
-0.12881
-0.17939
-0.16534
-0.13817
-0.10539
-0.051054
0.0070258
0.048244
0.052927
0.041686
0.024824
-0.0098361
0.0014052
-0.037002
-0.045433
-0.091335
-0.12787
-0.18689
-0.30023
-0.46979
-0.60094
-0.57471
-0.47728
-0.37799
-0.29649
-0.28431
-0.31241
-0.098829
0.13536
0.2918
0.1644
-0.054801
-0.16253
-0.17283
-0.13162
0.021077
0.047307
0.15129
0.126
0.044496
-0.048244
-0.071663
-0.12693
-0.31241
-0.53068
-0.40422
-0.18314
0.14754
0.46698
0.52881
0.67307
0.56721
0.48759
0.2281
0.077283
-0.0088993
0.061358
0.21686
0.3096
0.31803
0.22342
0.14848
0.1007
0.091335
-0.053864
-0.12787
-0.42389
-0.62342
-0.78454
-0.80609
-0.70679
-0.61124
-0.40515
-0.26276
-0.14754
-0.16721
-0.10726
-0.24028
-0.00046838
-0.07541
0.01452
-0.040749
-0.022951
0.069789
0.27494
0.43981
0.51944
0.3808
0.43232
0.26745
0.1541
0.053864
0.0088993
0.032319
0.11288
0.20468
0.25152
0.28806
0.22155
0.3555
0.274
0.36862
0.20656
0.054801
-0.17939
-0.29836
-0.41077
-0.42201
-0.39204
-0.3452
-0.29649
-0.13817
-0.28525
-0.034192
-0.28712
-0.17658
-0.45948
-0.61874
-0.74052
-0.5082
-0.16159
0.1466
0.25808
0.40422
0.32365
0.21499
0.17845
0.068852
0.021077
-0.0023419
0.048244
0.095082
0.14192
0.15972
0.18501
0.2281
0.088525
0.22717
0.019204
0.15504
-0.19344
-0.25527
-0.29555
-0.1466
0.10164
0.28993
0.46417
0.60094
0.63091
0.54473
0.3733
0.023888
-0.2178
-0.2637
-0.19719
-0.07541
-0.034192
-0.054801
-0.0023419
-0.019204
-0.022014
0.091335
0.010773
-0.048244
-0.11663
-0.10913
-0.050117
-0.01733
0.01452
0.073536
0.15035
0.1541
0.19063
0.15504
0.16066
0.10539
-0.024824
-0.092272
-0.093208
-0.040749
0.00046838
0.030445
-0.11288
0.10351
-0.01733
0.01452
-0.30585
-0.46042
-0.58314
-0.41358
-0.15222
0.071663
0.14286
0.4267
0.20281
0.12693
-0.19813
-0.29274
-0.28618
-0.19344
-0.095082
0.021077
0.16628
0.28337
0.24403
0.33489
0.23185
0.26651
0.037939
-0.10258
-0.18501
-0.092272
0.055738
0.12974
0.18501
0.053864
0.21967
-0.04918
0.026698
-0.21218
-0.42108
-0.50913
-0.53255
-0.39485
-0.14941
0.14941
0.39859
0.43513
0.35644
0.077283
-0.090398
-0.2815
-0.34707
-0.41358
-0.36768
-0.23747
-0.11194
-0.022014
0.079157
0.07822
0.14848
0.36487
0.39391
0.22436
0.088525
0.034192
0.11475
0.17002
0.14379
0.11101
-0.029508
0.006089
-0.063232
-0.084778
-0.24028
-0.39204
-0.41733
-0.34052
-0.19063
-0.10351
-0.07822
-0.051991
-0.1644
-0.11663
-0.27213
-0.13349
-0.3733
-0.33677
-0.37143
-0.19719
-0.037939
0.063232
0.055738
0.32084
0.21405
0.34052
0.23279
0.13911
0.14379
0.10632
0.096019
0.023888
0.0042155
0.063232
0.12225
0.18126
0.18876
0.3377
0.22342
0.19251
0.097892
0.010773
0.031382
0.11569
0.27307
0.39766
0.50351
0.46792
0.17564
0.18876
-0.074473
-0.36768
-0.3911
-0.38923
-0.15972
-0.015457
0.069789
0.12225
0.01171
0.030445
0.01171
-0.051054
-0.1644
-0.43326
-0.41827
-0.40984
-0.30117
-0.32834
-0.3808
-0.36393
-0.25246
-0.13536
-0.050117
-0.036066
0.04918
0.0023419
-0.04637
-0.11569
-0.4548
-0.55691
-0.56066
-0.31335
-0.010773
0.1082
0.077283
0.29274
0.35925
0.4623
0.25433
0.10632
-0.064169
0.051991
0.17939
0.27588
0.24122
0.21124
0.15785
0.095082
0.079157
-0.041686
0.037939
-0.01733
-0.026698
-0.010773
0.013583
0.044496
0.07541
0.12974
0.19063
0.11756
0.14098
-0.0098361
-0.099766
-0.2459
-0.44356
-0.47447
-0.41358
-0.26183
-0.035129
0.22623
0.53068
0.63934
0.80234
0.59438
0.40703
-0.10258
-0.31148
-0.39766
-0.29836
-0.22998
-0.20749
-0.13724
-0.11288
-0.045433
0.051991
0.13068
0.39204
0.29555
0.30867
0.17377
0.056674
-0.056674
-0.10913
-0.086651
-0.081967
-0.088525
0.0070258
-0.052927
-0.066042
-0.14286
-0.14848
-0.33021
-0.37986
-0.37986
-0.21499
0.038876
0.19063
0.24778
0.40609
0.40984
0.25246
-0.069789
-0.20375
-0.27213
-0.16628
-0.040749
0.026698
0.10726
0.18126
0.13724
0.083841
0.045433
0.087588
0.21218
0.18033
0.27681
0.3274
0.28618
0.22155
0.063232
0.01171
0.026698
0.084778
-0.19344
-0.04637
-0.33021
-0.53911
-0.85667
-0.96909
-0.76019
-0.28244
0.26183
0.54473
0.57377
0.29368
0.28337
0.10913
0.14941
0.048244
0.015457
0.026698
0.085714
0.16721
0.22342
0.2356
0.2178
0.18407
-0.012646
0.026698
-0.060422
-0.055738
-0.16159
-0.29742
-0.3171
-0.25527
-0.15222
-0.12506
-0.10351
-0.26183
-0.01733
-0.097892
-0.088525
-0.22155
-0.34895
-0.33677
-0.22155
0.095082
0.33115
0.52974
0.41639
0.3377
0.10445
-0.022951
-0.19625
-0.2637
-0.33021
-0.21967
-0.071663
0.04918
0.13255
0.18876
0.24215
0.16628
0.29461
0.28525
0.36862
0.29274
0.13443
0.058548
0.062295
0.14473
0.1466
0.099766
0.085714
-0.087588
0.080094
-0.0726
0.11194
-0.092272
-0.2459
-0.27681
-0.24871
-0.04637
0.065105
0.17845
0.32834
0.19813
0.23279
0.0042155
-0.17752
-0.27681
-0.22529
-0.10164
-0.0088993
0.066042
0.10258
0.13911
0.19625
0.094145
-0.006089
-0.13443
-0.20937
-0.27307
-0.34239
-0.24965
-0.089461
0.18689
0.37892
0.49321
0.43513
0.41171
0.26183
0.096019
-0.19532
-0.33115
-0.36206
-0.18782
0.038876
0.12881
0.19906
0.21686
0.19344
0.26557
0.21686
0.30679
0.27213
0.16534
0.041686
0.00046838
-0.053864
-0.0726
-0.10632
-0.050117
-0.094145
0.050117
0.0023419
0.04356
-0.0023419
-0.065105
-0.13536
-0.2534
-0.50445
-0.79297
-0.79297
-0.60562
-0.087588
0.17002
0.34895
0.2918
0.15972
0.012646
-0.0032787
0.028571
0.065105
0.094145
0.12412
0.16815
0.20749
0.2281
0.2178
0.14567
0.029508
-0.12319
-0.27681
-0.32646
-0.2103
-0.18314
-0.25995
-0.29836
-0.22436
0.11194
0.46604
0.53911
0.76674
0.66651
0.38173
0.085714
-0.1822
-0.3274
-0.33958
-0.2637
-0.19906
-0.13349
-0.07541
0.055738
0.12037
0.17283
0.16815
0.13817
0.13911
0.15222
0.17283
0.18689
0.19625
0.18689
0.16159
0.11007
0.056674
0.019204
0.0014052
-0.0023419
0.0042155
0.00046838
-0.0088993
-0.034192
-0.07541
-0.11663
-0.15691
-0.19625
-0.24496
-0.28431
-0.30773
-0.31616
-0.32272
-0.3274
-0.33958
-0.34988
-0.36393
-0.37892
-0.3808
-0.33021
-0.15035
0.1719
0.6178
0.95316
1
0.76019
0.36487
0.076347
-0.22998
-0.47354
-0.59063
-0.67588
-0.48478
-0.34426
-0.19625
-0.15691
-0.092272
-0.086651
-0.1185
-0.21499
-0.27307
-0.45199
-0.16534
-0.18033
0.12037
0.091335
0.099766
0.15035
0.17845
0.17939
0.17658
0.086651
0.17096
0.15597
0.17658
-0.0051522
-0.1082
-0.10726
0.061358
0.10632
0.22342
0.18033
0.11756
-0.062295
-0.037939
-0.3733
-0.20937
-0.36393
-0.37705
-0.35457
-0.23653
-0.10913
0.0023419
0.1007
0.23466
0.30773
0.38923
0.35269
0.30304
0.23091
0.126
0.034192
-0.030445
-0.057611
-0.051991
-0.04356
-0.041686
-0.04637
-0.053864
-0.062295
-0.07541
-0.090398
-0.10258
-0.11007
-0.10539
-0.093208
-0.07541
-0.053864
-0.036066
-0.022014
-0.01171
-0.013583
-0.019204
-0.037939
-0.050117
-0.07541
-0.10539
-0.13255
-0.14286
-0.11663
-0.034192
0.15972
0.40047
0.70117
0.89508
0.75738
0.28525
-0.11569
-0.46885
-0.50913
-0.50726
-0.4726
-0.27775
-0.11475
-0.085714
-0.16534
-0.23372
-0.21967
-0.15597
-0.039813
0.036066
-0.021077
0.22529
0.10445
0.21311
0.12319
-0.064169
-0.01171
0.13349
0.33021
0.37799
0.49602
0.2637
0.21405
-0.023888
-0.10351
-0.086651
-0.10445
-0.058548
-0.10632
-0.080094
-0.040749
0.087588
0.16253
0.17002
0.15878
-0.20937
-0.28712
-0.3377
-0.1822
-0.0726
-0.01171
0.025761
-0.037939
0.045433
0.066979
0.1007
-0.019204
-0.15597
-0.24778
-0.27588
-0.29087
-0.32272
-0.32272
-0.2815
-0.42576
-0.22529
-0.31054
-0.096956
-0.24778
-0.26557
-0.22342
-0.083841
0.10445
0.23091
0.20843
0.437
0.32272
0.26651
0.056674
0.067916
0.089461
0.2356
0.29649
0.23091
0.16909
0.13911
0.13443
0.059485
-0.0079625
0.081967
0.16066
0.16534
0.27775
0.21874
0.18595
0.080094
-0.064169
-0.12225
-0.10445
-0.025761
-0.08103
0.012646
-0.18782
0.1007
-0.037002
-0.14192
-0.32084
-0.32272
-0.096956
0.22061
0.46885
0.46323
0.4904
0.2178
0.080094
-0.39485
-0.43232
-0.4445
-0.21686
-0.053864
-0.01171
0.015457
-0.11101
0.021077
-0.041686
-0.01452
-0.04356
-0.15129
-0.039813
0.035129
0.070726
0.036066
-0.041686
-0.074473
-0.096019
-0.19438
-0.029508
-0.026698
-0.018267
-0.16628
-0.4192
-0.42482
-0.37237
-0.25059
-0.10913
0.052927
0.052927
0.28056
0.13443
0.34895
0.27681
0.34239
0.3171
0.26838
0.26557
0.27775
0.29461
0.28712
0.26557
0.18314
0.061358
-0.036066
-0.22248
-0.41358
-0.1541
-0.24215
-0.28244
-0.26557
-0.068852
0.28525
0.48384
0.47541
0.40141
0.037002
0.032319
-0.18501
-0.29461
-0.38173
-0.37986
-0.2993
-0.19532
-0.086651
-0.016393
0.0098361
0.099766
0.040749
-0.010773
-0.19063
-0.28806
-0.2459
-0.11663
-0.021077
0.016393
0.01171
0.006089
-0.0032787
-0.11569
-0.073536
-0.095082
-0.074473
-0.22061
-0.28899
-0.28712
-0.2356
-0.16628
-0.097892
0.022014
0.16066
0.14941
0.38548
0.21967
-0.01452
-0.15785
-0.11007
0.12412
0.36019
0.46417
0.47166
0.3377
-0.0079625
-0.11194
-0.32459
-0.28431
-0.35082
-0.1822
-0.11194
-0.076347
-0.04918
-0.041686
0.037939
0.045433
0.093208
0.11101
0.20281
0.22342
0.1185
0.10726
0.16066
0.24684
0.26183
0.19063
0.12319
0.07822
0.051991
0.037002
-0.056674
-0.074473
-0.13443
-0.15222
-0.29274
-0.34614
-0.32553
-0.095082
0.13162
0.29368
0.32272
0.38829
0.46417
0.096019
-0.22248
-0.33396
-0.363
-0.22717
-0.14473
-0.1082
-0.01733
0.010773
-0.25152
-0.01171
-0.1007
-0.080094
-0.10258
-0.059485
0.051054
0.1644
0.19157
0.24684
0.13162
0.32084
0.26932
0.30679
0.2459
0.1719
0.14567
0.15035
0.20562
0.20094
0.14192
0.13724
0.024824
0.15504
0.036066
0.095082
-0.012646
-0.031382
0.14005
0.31335
0.46323
0.25808
-0.095082
-0.2178
-0.28431
-0.20468
-0.13349
-0.13255
-0.030445
-0.048244
-0.039813
-0.126
-0.13162
-0.050117
0.016393
0.11663
0.11007
0.16347
0.090398
0.028571
-0.1363
-0.23934
-0.23091
-0.15504
-0.084778
-0.07541
-0.04918
-0.2103
-0.015457
-0.2178
-0.060422
-0.36112
-0.43888
-0.48009
-0.30398
-0.0014052
0.20375
0.23091
0.45667
0.28993
0.035129
-0.18033
-0.19532
-0.13349
-0.036066
-0.032319
-0.11007
-0.11756
-0.0726
-0.12412
-0.057611
-0.11663
0.07822
-0.029508
-0.022014
-0.086651
-0.035129
0.061358
0.13817
0.19344
0.26276
0.21405
0.38454
0.21311
0.25902
-0.0070258
-0.20281
-0.22904
-0.045433
0.29555
0.52131
0.57845
0.5541
0.42014
0.34801
0.15316
-0.04356
-0.051054
-0.21311
-0.15222
-0.098829
-0.035129
-0.0051522
-0.015457
-0.020141
-0.019204
-0.022014
-0.065105
-0.18595
-0.24122
-0.27681
-0.32646
-0.48103
-0.55878
-0.52787
-0.38735
-0.23747
-0.11944
0.051991
0.33489
0.44075
0.44075
0.080094
-0.17283
-0.30398
-0.19157
-0.048244
0.018267
-0.01171
-0.098829
-0.39204
-0.2993
-0.28337
-0.33115
-0.29836
-0.39578
-0.3274
-0.2178
-0.096956
-0.019204
0.018267
0.1082
0.096956
0.11007
0.07822
-0.07541
-0.23091
-0.35738
-0.32459
-0.17283
0.01452
0.15035
0.27588
0.42951
0.38642
0.38454
0.29274
0.077283
-0.077283
-0.13817
-0.081967
0.10539
0.25527
0.33115
0.32084
0.25059
0.126
-0.0079625
0.066979
0.027635
-0.12131
-0.18782
-0.26464
-0.20656
-0.15878
-0.13068
-0.052927
0.027635
0.071663
0.10726
0.1466
0.10539
0.07822
0.056674
0.059485
0.099766
0.10258
0.080094
0.057611
0.047307
0.045433
0.04918
0.044496
0.053864
0.10164
0.23841
0.37049
0.38361
0.27588
0.01171
-0.2281
-0.34333
-0.32272
-0.39297
-0.34333
-0.35082
-0.15691
-0.012646
0.1897
0.17752
0.28056
0.28056
0.31991
0.1719
-0.094145
-0.3911
-0.53911
-0.48009
-0.3452
-0.066042
-0.04356
0.15129
0.11007
0.035129
-0.16066
-0.30585
-0.26557
-0.077283
0.14754
0.26745
0.34145
0.22529
0.2637
0.1082
0.0014052
-0.17752
-0.34426
-0.41077
-0.28337
-0.016393
0.22342
0.33864
0.32553
0.039813
0.0726
0.01452
0.01733
0.022014
0.006089
0.022951
0.15785
0.20937
0.22342
0.16815
0.08103
0.30585
0.24028
0.35363
0.21405
0.027635
-0.094145
-0.17283
-0.1082
-0.015457
0.028571
0.074473
0.13443
0.16534
0.20656
0.13162
0.19438
0.16347
0.21593
0.274
0.26464
0.3808
0.30585
0.084778
-0.15035
-0.40047
-0.46323
-0.48103
-0.43044
-0.33115
-0.20656
-0.071663
0.035129
0.099766
0.11944
0.10351
0.12131
0.14286
0.10445
0.065105
-0.024824
-0.059485
-0.058548
-0.11194
-0.087588
-0.04637
-0.0051522
-0.037002
-0.11569
-0.28899
-0.34988
-0.45855
-0.63747
-0.87354
-0.87728
-0.68899
-0.19532
0.18595
0.3808
0.36768
0.17845
-0.027635
-0.070726
-0.029508
0.032319
0.033255
-0.010773
-0.031382
-0.012646
0.028571
0.073536
0.10726
0.096019
-0.0023419
-0.12131
-0.19157
-0.21967
-0.10445
-0.16534
-0.29742
-0.4089
-0.30773
-0.016393
0.28431
0.4267
0.48384
0.25527
0.15878
-0.070726
-0.27494
-0.29649
-0.28525
-0.11475
0.039813
0.17096
0.25433
0.14567
0.1897
0.17845
0.18876
0.0088993
-0.2103
-0.33208
-0.29274
-0.21311
-0.20468
-0.20656
-0.17564
-0.11382
-0.18876
-0.054801
-0.092272
-0.126
-0.095082
-0.26932
-0.30117
-0.32178
-0.29742
-0.23091
-0.10913
-0.058548
0.38548
0.54473
0.56628
0.33396
0.041686
-0.1644
-0.098829
0.096019
0.23841
0.26651
0.23841
-0.006089
0.04356
-0.11944
0.07541
-0.060422
0.052927
0.052927
0.12787
0.12412
0.04918
0.01733
-0.071663
0.21593
0.2637
0.36393
0.23747
0.037002
-0.22061
-0.27494
-0.16909
0.068852
0.27963
0.40984
0.44918
0.25714
0.23091
-0.15597
-0.21686
-0.51382
-0.53162
-0.45855
-0.33208
-0.13911
-0.028571
0.10726
0.28806
0.37424
0.38642
0.49977
0.29087
0.033255
-0.16159
-0.25621
-0.15691
-0.064169
0.01452
0.060422
0.016393
-0.12506
-0.097892
-0.16721
0.0051522
-0.076347
-0.12974
-0.11007
-0.077283
0.022951
0.051054
0.032319
0.062295
0.070726
0.13255
0.1363
0.14098
0.10913
0.058548
0.01452
-0.020141
-0.044496
-0.060422
-0.068852
-0.074473
-0.067916
-0.073536
-0.089461
-0.13817
-0.20562
-0.27494
-0.2918
-0.23841
-0.13817
-0.054801
-0.030445
-0.053864
-0.091335
-0.126
-0.14848
-0.11944
-0.16066
-0.15878
-0.21218
-0.40328
-0.58501
-0.58876
-0.46698
-0.12225
0.16534
0.32459
0.22904
0.0014052
-0.21593
-0.28244
-0.16721
-0.062295
-0.018267
-0.07541
-0.1007
-0.028571
0.07541
0.16253
0.20094
0.1466
0.12693
-0.030445
0.04918
-0.006089
0.15972
0.3171
0.35925
0.43513
0.40515
0.30773
0.10539
-0.023888
0.12319
0.21124
0.37424
0.30211
0.053864
-0.11194
-0.17939
-0.089461
0.029508
0.13162
0.15504
0.19625
0.15597
0.085714
0.050117
-0.12693
-0.1719
-0.23747
-0.14567
-0.12412
-0.15129
-0.23747
-0.12319
0.076347
0.086651
0.11101
-0.044496
-0.1007
-0.14286
-0.054801
-0.032319
-0.021077
0.051054
0.16159
0.26838
0.22061
0.1644
0.085714
0.066979
0.092272
0.11101
0.11101
0.11475
0.096019
0.0726
0.081967
0.11382
0.20281
0.24215
0.19906
-0.13068
-0.34895
-0.46604
-0.5719
-0.54192
-0.6
-0.51382
-0.31054
-0.12693
0.025761
0.12131
0.10164
0.074473
0.020141
-0.013583
-0.10726
-0.19719
-0.3171
-0.33489
-0.27869
-0.25808
-0.091335
-0.0070258
0.14941
0.028571
-0.081967
-0.32834
-0.52412
-0.76019
-0.82201
-0.56066
-0.12225
0.4267
0.77799
0.67681
0.57564
0.16347
-0.12037
-0.1541
-0.080094
0.11101
0.21499
0.24965
0.25808
0.28244
0.32084
0.36019
0.30023
0.2918
0.25995
0.16253
0.095082
0.016393
0.15785
0.34707
0.47541
0.4904
0.34426
0.14567
-0.0726
-0.12881
-0.076347
-0.006089
0.076347
0.13817
0.13443
0.10351
0.073536
0.037002
0.012646
-0.037002
-0.10164
-0.15035
-0.20281
-0.23841
-0.29368
-0.26838
-0.27494
-0.095082
-0.0070258
0.00046838
-0.14286
-0.27869
-0.41639
-0.59813
-0.74239
-0.95691
-0.88946
-0.71429
-0.32553
0.07822
0.24309
0.24965
0.029508
-0.13255
-0.17283
-0.12693
-0.079157
-0.039813
0.048244
0.1897
0.17377
0.32834
0.16347
0.31335
0.18876
0.22155
0.22155
0.22436
0.26557
0.33677
0.4445
0.46511
0.59438
0.3911
0.55785
0.5541
0.5185
0.36206
0.12412
-0.071663
-0.1644
-0.076347
-0.07541
-0.01733
-0.21405
-0.12506
-0.20281
-0.16909
-0.086651
0.025761
0.12974
0.11756
-0.01733
-0.1822
-0.31522
-0.37049
-0.38173
-0.28993
-0.28899
-0.019204
-0.030445
0.031382
-0.073536
-0.18407
-0.2178
-0.31054
-0.37424
-0.61593
-0.674
-0.64028
-0.43232
-0.17096
0.19813
0.41546
0.34426
0.18314
0.022014
-0.01733
0.006089
0.066979
0.11288
0.17939
0.24496
0.29274
0.30211
0.30117
0.30023
0.25433
0.15222
0.015457
-0.074473
0.0088993
0.15785
0.29742
0.14754
-0.031382
-0.10726
-0.0098361
0.126
0.17658
0.11194
0.18876
0.073536
0.19438
0.0070258
-0.11382
-0.30117
-0.37424
-0.33677
-0.27213
-0.21405
-0.24122
-0.25714
-0.17283
-0.12881
-0.20281
-0.41358
-0.57096
-0.55691
-0.47166
-0.42951
-0.3733
-0.30867
-0.19813
-0.17845
-0.00046838
-0.0098361
0.050117
-0.0079625
-0.096956
-0.21124
-0.18689
-0.10351
0.10632
0.27588
0.36862
0.34333
0.20656
0.0088993
-0.15691
-0.18782
-0.12037
-0.026698
0.11944
0.18595
0.2103
0.19532
0.12881
0.13068
0.17564
0.13724
0.30304
0.31148
0.4904
0.36487
0.20468
0.030445
-0.026698
0.087588
0.20281
0.28806
0.26745
0.22436
0.19906
0.26089
0.17658
-0.01733
-0.093208
-0.067916
0.080094
0.20094
0.25714
0.32646
0.36674
0.34333
0.19344
0.1541
0.12412
0.11194
-0.019204
-0.088525
-0.087588
-0.012646
0.041686
0.057611
0.061358
0.056674
0.021077
-0.019204
-0.25527
-0.21499
-0.27026
-0.22623
-0.2993
-0.38829
-0.39953
-0.31148
-0.19344
-0.077283
0.12787
0.32553
0.34426
0.51288
0.31803
-0.066979
-0.28337
-0.38548
-0.27026
-0.11288
-0.079157
0.053864
0.083841
0.089461
0.18595
0.16066
-0.064169
-0.18876
-0.31991
-0.2637
-0.16909
-0.073536
0.094145
0.076347
0.36862
0.47073
0.47541
0.40515
0.12131
-0.055738
-0.029508
0.18595
0.37049
0.37424
0.34988
0.099766
-0.08103
-0.019204
-0.12787
-0.28899
-0.38735
-0.36112
-0.24496
-0.079157
-0.031382
-0.016393
0.013583
0.035129
0.023888
-0.01171
-0.0070258
0.0079625
-0.037002
-0.04918
-0.096956
-0.13911
-0.16721
-0.21499
-0.22248
-0.20187
-0.16628
-0.12412
-0.080094
0.084778
0.20375
0.31241
0.20187
0.033255
-0.25433
-0.57283
-0.926
-1
-0.73583
-0.32927
0.16721
0.52225
0.5541
0.25246
-0.066979
-0.14192
-0.1541
0.035129
0.071663
0.14286
0.1719
0.16534
0.16159
0.17377
0.2
0.18595
0.25527
0.25433
0.2815
0.21686
0.19532
0.22436
0.29087
0.3452
0.4192
0.52131
0.57002
0.58126
0.36019
0.32084
-0.089461
-0.24215
-0.36674
-0.34895
-0.22529
-0.15972
-0.11475
-0.11944
-0.099766
-0.13068
-0.081967
-0.090398
-0.057611
-0.034192
0.0032787
0.026698
0.021077
-0.01452
-0.053864
-0.064169
-0.058548
-0.091335
-0.11475
-0.13162
-0.006089
0.062295
0.0088993
-0.061358
-0.22998
-0.32084
-0.45199
-0.5007
-0.59251
-0.42576
-0.41546
-0.21686
-0.32553
-0.13068
0.055738
0.0032787
-0.0726
-0.13724
-0.04637
0.065105
0.16721
0.20562
0.35363
0.40609
0.49883
0.55785
0.44075
0.35831
0.20749
0.13443
0.076347
-0.0032787
-0.026698
-0.091335
0.04637
0.14567
0.19813
0.037002
-0.12974
-0.20468
-0.074473
0.0726
0.087588
0.077283
0.015457
-0.2356
-0.091335
-0.2103
-0.26183
-0.31335
-0.29742
-0.24496
-0.20094
-0.18501
-0.14098
-0.022951
0.022014
0.17471
0.15972
0.15316
0.0042155
-0.23466
-0.39204
-0.44824
-0.38735
-0.28337
-0.17939
-0.082904
-0.01733
0.087588
-0.022014
0.1466
-0.027635
0.053864
-0.24403
-0.28618
-0.22529
0.088525
0.48571
0.60281
0.66183
0.4904
0.31522
0.22248
0.055738
0.020141
-0.061358
-0.068852
-0.080094
-0.052927
-0.013583
0.035129
0.082904
0.16253
0.30867
0.44731
0.60281
0.674
0.64965
0.51288
0.38923
0.26745
0.23747
0.19625
0.083841
-0.037002
-0.15972
-0.31335
-0.3171
-0.29087
-0.28993
-0.49696
-0.66745
-0.63091
-0.33583
0.019204
0.2281
0.46136
0.23653
0.048244
-0.21405
-0.56347
-0.78548
-0.76768
-0.57752
-0.42108
-0.19625
-0.067916
0.074473
0.16815
0.091335
0.034192
-0.12037
-0.13536
-0.038876
0.0726
0.16815
0.19813
0.20749
0.24215
0.27681
0.31148
0.22342
0.18501
0.11288
0.087588
0.039813
-0.056674
-0.10539
-0.064169
0.010773
0.084778
0.12693
0.1644
0.19906
0.22904
0.082904
0.14473
0.066979
-0.028571
-0.051991
-0.070726
-0.0070258
0.0726
0.074473
0.079157
0.026698
0.19906
0.10632
-0.068852
-0.18126
-0.28618
-0.30492
-0.22904
-0.18501
-0.16159
-0.11756
-0.025761
-0.11569
0.1007
-0.037002
0.07822
0.026698
-0.04637
-0.033255
0.051054
0.17658
0.21874
0.19532
0.22623
0.17658
0.27119
-0.054801
0.019204
-0.15785
-0.37986
-0.52037
-0.52131
-0.274
0.058548
0.31429
0.40234
0.1719
0.14567
-0.11101
-0.1466
-0.15504
-0.25902
-0.29555
-0.27963
-0.22248
-0.21967
-0.23934
-0.21499
-0.13255
-0.10913
-0.064169
0.062295
0.045433
0.099766
0.079157
-0.042623
-0.13255
-0.13068
-0.033255
0.10351
0.18407
0.39391
0.31522
0.2178
0.22436
0.13443
0.0042155
0.0079625
0.040749
0.13911
0.20937
0.19532
0.18595
0.23653
0.14379
0.27775
0.17564
0.27307
0.22061
0.050117
-0.053864
-0.074473
-0.01452
0.021077
0.0014052
-0.0014052
0.034192
0.071663
0.027635
0.084778
0.044496
0.096019
0.01171
-0.14379
-0.28525
-0.3274
-0.29742
-0.24965
-0.2178
-0.16721
-0.073536
-0.13443
0.0088993
0.00046838
-0.062295
-0.21593
-0.3377
-0.31897
-0.13536
0.061358
0.11194
0.126
-0.0088993
-0.24778
-0.21499
-0.1897
-0.061358
0.0079625
-0.012646
-0.039813
-0.025761
0.01452
0.082904
0.090398
0.13162
0.11475
0.13911
0.1719
0.23747
0.22155
0.10445
0.041686
0.10164
0.25059
0.39016
0.42295
0.42014
0.40984
0.21124
0.2993
0.18876
0.126
0.0051522
-0.098829
-0.089461
-0.067916
-0.04637
-0.045433
-0.052927
0.0014052
-0.12225
0.062295
0.0726
-0.022951
-0.013583
-0.037002
-0.062295
-0.031382
-0.065105
-0.19438
-0.23372
-0.24309
-0.047307
-0.039813
0.086651
0.0079625
-0.052927
-0.13817
-0.1644
-0.16534
-0.14286
-0.12787
-0.094145
0.056674
0.13443
0.5007
0.4829
0.44918
0.29836
0.022951
-0.097892
-0.13443
-0.019204
0.1007
0.15597
0.1719
0.16909
0.17096
0.016393
0.067916
-0.10539
-0.13255
-0.27494
-0.42857
-0.47354
-0.42951
-0.3274
-0.25902
-0.23279
-0.1644
-0.27775
-0.042623
-0.027635
-0.15035
-0.27775
-0.48665
-0.59063
-0.56909
-0.36206
-0.19157
-0.0014052
-0.053864
0.11382
0.010773
0.016393
-0.021077
-0.14005
-0.090398
0.0042155
0.16909
0.18314
0.099766
0.01171
-0.04637
0.027635
0.2534
0.47354
0.46604
0.34895
0.089461
0.030445
0.052927
0.1363
0.16347
0.11475
0.10258
0.11194
0.1466
0.19063
-0.13724
-0.16253
-0.30023
-0.40047
-0.4548
-0.55878
-0.42857
-0.032319
0.38267
0.58595
0.49602
0.14098
0.15035
-0.044496
-0.0023419
-0.0042155
-0.066979
-0.07822
-0.037939
0.065105
0.07822
0.053864
0.04637
0.066042
0.10258
0.13068
0.12319
0.066979
0.016393
0.00046838
0.063232
0.1644
0.21499
0.1185
-0.15316
-0.35082
-0.60843
-0.63466
-0.60468
-0.52412
-0.27963
0.013583
0.23279
0.18876
0.055738
0.016393
0.12225
0.14567
0.042623
-0.10258
-0.24871
-0.31897
-0.30867
-0.20468
-0.086651
0.093208
0.20468
0.24965
0.26651
0.27963
0.19625
0.11663
0.090398
0.066979
0.068852
0.052927
0.16721
0.363
0.55504
0.61593
0.54848
0.27963
-0.022014
-0.32834
-0.36393
-0.3733
-0.39578
-0.5363
-0.65808
-0.62529
-0.37424
-0.070726
0.16159
0.32272
0.39578
0.24684
0.29368
0.15785
-0.15316
-0.39204
-0.49883
-0.44543
-0.32553
-0.21967
-0.25246
-0.077283
-0.013583
0.061358
0.069789
0.14005
0.20843
0.29555
0.29742
0.25059
0.21967
0.20281
0.19251
0.15316
0.13536
0.13255
0.15878
0.19438
0.21593
0.22529
0.22155
0.19906
0.16066
0.11663
0.084778
0.069789
0.089461
0.11475
0.093208
-0.095082
-0.25714
-0.37611
-0.38454
-0.57564
-0.68337
-0.7096
-0.53536
-0.32365
-0.1466
-0.15504
0.015457
0.045433
0.025761
-0.11382
-0.29368
-0.45855
-0.46417
-0.44075
-0.28712
-0.14286
0.0088993
0.0042155
0.067916
0.0726
0.11569
-0.065105
-0.14473
-0.11101
-0.025761
0.099766
