-0.29551
-0.66469
-0.79678
-0.67485
-0.43946
-0.23116
-0.085521
0.031329
0.1431
0.2464
0.33785
0.38865
0.41236
0.39712
0.36325
0.33108
0.30229
0.27011
0.25826
0.2735
0.29721
0.36664
0.44793
0.51736
0.52752
0.45301
0.34462
0.21931
0.13971
0.092295
0.077053
0.070279
0.066892
0.063506
0.043184
0.021169
-0.0093141
-0.038103
-0.065199
-0.097375
-0.12278
-0.14649
-0.17189
-0.19898
-0.23116
-0.27688
-0.31583
-0.35309
-0.38357
-0.40051
-0.38865
-0.3514
-0.27519
-0.15326
-0.011008
0.15495
0.26164
0.26842
0.099069
-0.20068
-0.52413
-0.6884
-0.67993
-0.53091
-0.34293
-0.18205
-0.048264
0.073666
0.1956
0.31414
0.38357
0.41067
0.35986
0.30567
0.23624
0.20745
0.18374
0.18882
0.18882
0.21592
0.25318
0.30906
0.38357
0.46147
0.47502
0.41744
0.29721
0.18036
0.099069
0.070279
0.07536
0.085521
0.08044
0.060119
0.029636
-0.014395
-0.060119
-0.097375
-0.14479
-0.17697
-0.1939
-0.21592
-0.24471
-0.27011
-0.2989
-0.33277
-0.36664
-0.40559
-0.44285
-0.46655
-0.46655
-0.4293
-0.35648
-0.23793
-0.092295
0.066892
0.20237
0.25656
0.14987
-0.11939
-0.45639
-0.66808
-0.70025
-0.5834
-0.39543
-0.24471
-0.10415
0.014395
0.11431
0.17358
0.19052
0.18713
0.16173
0.12108
0.087214
0.070279
0.061812
0.071973
0.095682
0.13294
0.18882
0.26334
0.34801
0.37172
0.31922
0.18036
0.00084674
-0.13124
-0.18713
-0.15157
-0.087214
-0.024555
0.014395
0.027942
0.027942
0.011008
-0.011008
-0.03641
-0.048264
-0.065199
-0.090601
-0.12278
-0.14818
-0.16342
-0.18544
-0.20745
-0.221
-0.23963
-0.26164
-0.28704
-0.31245
-0.33616
-0.34632
-0.35817
-0.36664
-0.37511
-0.37511
-0.3768
-0.38696
-0.38865
-0.39373
-0.39543
-0.40051
-0.39712
-0.39204
-0.38696
-0.37849
-0.36494
-0.35309
-0.34801
-0.34293
-0.34124
-0.33616
-0.32261
-0.30567
-0.29382
-0.26164
-0.19052
-0.10415
0.011008
0.11262
0.19898
0.30737
0.35817
0.23116
-0.12108
-0.56816
-0.83912
-0.83743
-0.65961
-0.44285
-0.26164
-0.10076
0.034716
0.15326
0.2464
0.31922
0.37341
0.43607
0.51736
0.60711
0.663
0.67316
0.60203
0.5055
0.41067
0.34632
0.31245
0.32261
0.3514
0.38527
0.44793
0.51736
0.59695
0.63421
0.59356
0.46825
0.28874
0.14818
0.083827
0.095682
0.13633
0.17697
0.19729
0.20914
0.24301
0.2735
0.3243
0.3768
0.44793
0.47333
0.42591
0.28704
0.11092
-0.034716
-0.10076
-0.070279
-0.00084674
0.087214
0.15495
0.221
0.27858
0.34632
0.39035
0.38019
0.29721
0.16681
0.056732
-0.024555
-0.053345
-0.043184
-0.031329
-0.026249
-0.033023
-0.048264
-0.07536
-0.11262
-0.1431
-0.17866
-0.20406
-0.22608
-0.24301
-0.26334
-0.27858
-0.29382
-0.32091
-0.35478
-0.39373
-0.43607
-0.47163
-0.48857
-0.47333
-0.40559
-0.29382
-0.13971
-0.0025402
0.116
0.16511
0.078747
-0.17866
-0.5597
-0.83065
-0.89839
-0.76969
-0.55631
-0.35309
-0.17528
-0.034716
0.077053
0.14649
0.19052
0.20237
0.19898
0.17697
0.14987
0.13463
0.12108
0.10923
0.12955
0.1685
0.22947
0.31414
0.37849
0.37172
0.2718
0.085521
-0.11092
-0.23624
-0.25995
-0.1939
-0.078747
0.038103
0.13633
0.221
0.27011
0.32769
0.3768
0.39204
0.33954
0.23963
0.12955
0.039797
-0.0025402
-0.0042337
0.012701
0.021169
0.039797
0.073666
0.116
0.15834
0.20406
0.25487
0.2989
0.28535
0.18036
-0.0042337
-0.18205
-0.26672
-0.2464
-0.16342
-0.061812
0.022862
0.092295
0.16003
0.22439
0.28366
0.32091
0.34293
0.30229
0.21592
0.099069
-0.0059272
-0.063506
-0.071973
-0.039797
-0.022862
-0.016088
-0.029636
-0.043184
-0.068586
-0.090601
-0.1177
-0.15665
-0.19052
-0.22947
-0.24809
-0.2718
-0.29721
-0.32769
-0.36325
-0.4039
-0.4276
-0.42591
-0.41575
-0.37172
-0.29551
-0.17697
-0.065199
0.049958
0.13463
0.13802
0.03641
-0.20745
-0.49026
-0.66808
-0.67655
-0.54445
-0.38696
-0.24301
-0.12108
-0.0093141
0.065199
0.11431
0.13633
0.12447
0.092295
0.053345
0.033023
0.022862
0.039797
0.07536
0.12108
0.18374
0.26164
0.32769
0.33446
0.24301
0.051651
-0.16681
-0.30229
-0.31583
-0.23285
-0.11431
-0.021169
0.043184
0.073666
0.090601
0.10415
0.097375
0.087214
0.061812
0.031329
-0.0093141
-0.048264
-0.08044
-0.12278
-0.15495
-0.18882
-0.21592
-0.24979
-0.28027
-0.30398
-0.32599
-0.34632
-0.36664
-0.38527
-0.39881
-0.40559
-0.40051
-0.41067
-0.41406
-0.42252
-0.4293
-0.43776
-0.43776
-0.4276
-0.41406
-0.39373
-0.3768
-0.36156
-0.35648
-0.35478
-0.35817
-0.35309
-0.34632
-0.33277
-0.32769
-0.32599
-0.31414
-0.25148
-0.16173
-0.043184
0.083827
0.17528
0.24979
0.3243
0.28704
0.092295
-0.28874
-0.67485
-0.85775
-0.8188
-0.62235
-0.40728
-0.221
-0.044877
0.11939
0.25826
0.38019
0.47163
0.53937
0.59018
0.64268
0.73243
0.7917
0.82388
0.78493
0.68671
0.56139
0.43438
0.34462
0.31414
0.35986
0.42083
0.50212
0.56308
0.61389
0.61558
0.54107
0.42083
0.29213
0.1956
0.15834
0.18036
0.22269
0.25148
0.26503
0.26164
0.2464
0.221
0.19221
0.16173
0.1177
0.082134
0.056732
0.053345
0.083827
0.12278
0.17866
0.21761
0.27688
0.28366
0.18544
-0.038103
-0.28874
-0.43946
-0.42591
-0.29043
-0.12447
-0.0042337
0.078747
0.12278
0.1431
0.14141
0.14141
0.13802
0.12955
0.11262
0.10246
0.082134
0.068586
0.046571
0.03641
0.0093141
-0.027942
-0.065199
-0.11431
-0.14649
-0.17189
-0.18882
-0.20406
-0.21253
-0.21084
-0.22269
-0.24301
-0.28027
-0.30567
-0.33616
-0.3514
-0.36494
-0.37003
-0.36494
-0.36156
-0.34632
-0.35309
-0.34293
-0.33954
-0.34124
-0.34462
-0.3514
-0.35817
-0.36325
-0.37172
-0.38357
-0.39373
-0.40898
-0.41067
-0.4022
-0.38527
-0.37511
-0.35986
-0.35309
-0.34801
-0.33616
-0.32938
-0.32091
-0.31075
-0.29551
-0.28366
-0.28027
-0.27011
-0.25826
-0.25487
-0.24979
-0.23793
-0.22439
-0.20406
-0.18713
-0.17189
-0.16342
-0.15495
-0.1431
-0.14141
-0.14479
-0.13633
-0.14141
-0.14141
-0.1431
-0.13124
-0.12447
-0.11092
-0.10415
-0.095682
-0.10076
-0.10246
-0.097375
-0.10076
-0.090601
-0.083827
-0.077053
-0.044877
0.033023
0.17528
0.3243
0.44793
0.53429
0.62235
0.59356
0.31414
-0.10584
-0.52583
-0.65961
-0.54953
-0.33446
-0.15157
0.026249
0.19729
0.35817
0.49704
0.60542
0.69348
0.77138
0.8171
0.82896
0.80694
0.77646
0.73751
0.69517
0.65453
0.6359
0.64268
0.68332
0.74598
0.80525
0.80186
0.73412
0.59695
0.4547
0.34801
0.31922
0.34801
0.40051
0.46147
0.51397
0.57155
0.60881
0.65114
0.66469
0.60542
0.46486
0.29213
0.16173
0.116
0.14649
0.21253
0.2718
0.34801
0.40559
0.43607
0.45978
0.46994
0.4818
0.44454
0.33954
0.18713
0.038103
-0.038103
-0.031329
0.034716
0.13124
0.20237
0.26334
0.30567
0.33446
0.35648
0.33108
0.24301
0.13633
0.044877
-0.0025402
-0.012701
0.011008
0.024555
0.029636
0.022862
0.021169
0.0042337
-0.012701
-0.03641
-0.068586
-0.11431
-0.16511
-0.20914
-0.24979
-0.28027
-0.28874
-0.28027
-0.23116
-0.1431
-0.039797
0.060119
0.13802
0.14987
0.051651
-0.1685
-0.4547
-0.64606
-0.69009
-0.57663
-0.38188
-0.21253
-0.070279
0.031329
0.116
0.17019
0.19221
0.17528
0.13294
0.077053
0.04149
0.024555
0.016088
0.053345
0.11431
0.18544
0.25656
0.31583
0.33277
0.2718
0.1431
-0.00084674
-0.10584
-0.13802
-0.11262
-0.066892
-0.012701
0.0042337
0.0025402
-0.0059272
-0.038103
-0.07536
-0.11092
-0.15326
-0.17866
-0.20406
-0.22608
-0.26334
-0.30229
-0.34462
-0.39881
-0.44115
-0.4547
-0.43946
-0.36494
-0.23455
-0.10754
0.0093141
0.092295
0.10923
0.016088
-0.22608
-0.5597
-0.80356
-0.87468
-0.77646
-0.60034
-0.43946
-0.29043
-0.15665
-0.048264
0.029636
0.088908
0.12447
0.12786
0.10415
0.083827
0.055038
0.039797
0.022862
0.043184
0.090601
0.16681
0.25826
0.31753
0.30906
0.21761
0.044877
-0.15157
-0.2735
-0.28874
-0.21931
-0.11092
-0.033023
0.017782
0.03641
0.048264
0.048264
0.039797
0.012701
-0.012701
-0.049958
-0.090601
-0.13124
-0.16003
-0.18544
-0.20914
-0.23793
-0.28196
-0.33108
-0.36325
-0.37172
-0.33954
-0.25656
-0.13802
-0.039797
0.051651
0.11092
0.12278
-0.0025402
-0.30737
-0.67655
-0.88315
-0.88315
-0.7155
-0.51228
-0.37511
-0.2464
-0.13463
-0.034716
0.033023
0.07536
0.099069
0.10584
0.10246
0.087214
0.061812
0.034716
0.0076207
-0.016088
-0.049958
-0.077053
-0.10246
-0.13124
-0.18036
-0.22608
-0.23963
-0.23285
-0.15665
-0.04149
0.063506
0.14818
0.21253
0.24132
0.18205
-0.049958
-0.4276
-0.75106
-0.88992
-0.78662
-0.5834
-0.39373
-0.25318
-0.13294
-0.027942
0.055038
0.12616
0.16342
0.17358
0.17528
0.17697
0.17528
0.16003
0.14987
0.12278
0.10076
0.061812
0.034716
0.00084674
-0.031329
-0.055038
-0.078747
-0.10246
-0.12786
-0.14479
-0.17189
-0.20745
-0.23793
-0.26672
-0.26672
-0.23793
-0.14649
-0.029636
0.070279
0.13802
0.20068
0.22608
0.16003
-0.10584
-0.52921
-0.86452
-0.97798
-0.84759
-0.63421
-0.43946
-0.28366
-0.16003
-0.029636
0.07536
0.17358
0.23963
0.28027
0.30567
0.30059
0.29213
0.2735
0.24809
0.21592
0.19221
0.17189
0.14479
0.1177
0.092295
0.066892
0.034716
0.0093141
-0.031329
-0.066892
-0.10754
-0.13802
-0.16681
-0.19052
-0.19898
-0.1956
-0.19729
-0.21084
-0.21253
-0.21592
-0.1685
-0.049958
0.092295
0.20745
0.29551
0.36494
0.35986
0.19052
-0.21592
-0.6613
-0.91533
-0.88992
-0.67993
-0.46486
-0.30229
-0.15157
-0.0093141
0.12786
0.26164
0.39035
0.47502
0.54784
0.6105
0.65622
0.67824
0.68332
0.66977
0.64606
0.61897
0.57324
0.52752
0.47333
0.43438
0.42422
0.44962
0.48518
0.54445
0.60203
0.62405
0.59356
0.46994
0.28366
0.1177
0.019475
0.0076207
0.056732
0.11939
0.17697
0.22608
0.29721
0.38527
0.46655
0.53599
0.56986
0.55631
0.48518
0.33954
0.14479
-0.039797
-0.14649
-0.13463
-0.046571
0.056732
0.12616
0.18882
0.2718
0.33108
0.38357
0.41067
0.43776
0.44962
0.41236
0.2989
0.17528
0.073666
0.012701
0.00084674
0.031329
0.066892
0.11092
0.16003
0.23624
0.27858
0.31583
0.33446
0.3514
0.33616
0.25318
0.116
-0.033023
-0.14479
-0.17528
-0.13633
-0.070279
-0.024555
-0.0076207
-0.014395
-0.022862
-0.027942
-0.033023
-0.055038
-0.08044
-0.099069
-0.116
-0.1431
-0.17358
-0.20406
-0.2464
-0.27858
-0.30229
-0.33108
-0.3514
-0.37511
-0.39543
-0.41914
-0.43438
-0.43946
-0.43946
-0.43776
-0.43268
-0.43268
-0.43438
-0.42591
-0.41067
-0.4039
-0.39543
-0.37849
-0.36325
-0.3514
-0.3514
-0.34801
-0.34293
-0.32769
-0.30906
-0.29213
-0.27858
-0.24301
-0.19221
-0.10076
0.024555
0.15157
0.2464
0.30229
0.31075
0.20914
-0.13463
-0.60711
-0.92887
-0.97968
-0.76122
-0.51058
-0.29721
-0.10584
0.088908
0.25826
0.39373
0.47333
0.51566
0.52244
0.5055
0.48349
0.45809
0.43099
0.4039
0.38865
0.37003
0.33954
0.30229
0.25995
0.22777
0.19221
0.17189
0.14649
0.12447
0.10246
0.077053
0.048264
-0.00084674
-0.034716
-0.082134
-0.12447
-0.14818
-0.16511
-0.17528
-0.18713
-0.20576
-0.21084
-0.22269
-0.23116
-0.23624
-0.24301
-0.24979
-0.25826
-0.27688
-0.29382
-0.30059
-0.29551
-0.28366
-0.26503
-0.24301
-0.21931
-0.18036
-0.13294
-0.061812
0.063506
0.19052
0.31753
0.39204
0.41406
0.33785
0.066892
-0.40898
-0.77646
-0.87976
-0.68163
-0.41067
-0.21084
-0.060119
0.095682
0.25656
0.39035
0.49365
0.55292
0.57832
0.58679
0.57324
0.54615
0.52075
0.49196
0.44793
0.45131
0.46486
0.49365
0.53768
0.54784
0.52921
0.45301
0.31753
0.13294
-0.031329
-0.093988
-0.031329
0.10076
0.22947
0.34801
0.41575
0.46486
0.5055
0.5597
0.57832
0.53937
0.44285
0.33108
0.23793
0.19052
0.18374
0.21931
0.30059
0.37511
0.43946
0.47841
0.49026
0.48518
0.40728
0.25995
0.10415
-0.0025402
-0.033023
0.012701
0.071973
0.10754
0.12786
0.11092
0.087214
0.046571
0.012701
-0.022862
-0.065199
-0.099069
-0.12955
-0.14649
-0.17528
-0.19729
-0.22439
-0.26164
-0.29043
-0.31075
-0.32769
-0.33616
-0.33954
-0.33785
-0.33954
-0.34632
-0.36325
-0.38188
-0.40728
-0.41406
-0.43268
-0.44454
-0.4547
-0.46486
-0.47671
-0.49026
-0.4818
-0.47841
-0.46317
-0.45639
-0.43099
-0.40898
-0.38357
-0.34462
-0.29721
-0.2464
-0.14818
-0.022862
0.10246
0.21253
0.2718
0.21761
-0.017782
-0.4547
-0.83573
-1
-0.89162
-0.64606
-0.43607
-0.26672
-0.093988
0.066892
0.20914
0.32091
0.40728
0.45639
0.47333
0.45978
0.43268
0.38865
0.36156
0.34801
0.36156
0.39543
0.43776
0.49873
0.49704
0.44962
0.33108
0.17019
0.0076207
-0.092295
-0.10584
-0.044877
0.046571
0.10754
0.14479
0.16342
0.17866
0.17697
0.15665
0.13633
0.10584
0.077053
0.038103
0.0042337
-0.04149
-0.08044
-0.12955
-0.15326
-0.17358
-0.18544
-0.20406
-0.23116
-0.26503
-0.30229
-0.32261
-0.33785
-0.34632
-0.3497
-0.36664
-0.39035
-0.40559
-0.41575
-0.42252
-0.42591
-0.43099
-0.43099
-0.42422
-0.42422
-0.40898
-0.4039
-0.3768
-0.35478
-0.3243
-0.28366
-0.23793
-0.16003
-0.044877
0.070279
0.18544
0.25148
0.26334
0.17189
-0.11939
-0.57324
-0.8713
-0.91702
-0.71211
-0.47333
-0.31245
-0.17189
-0.021169
0.14479
0.2989
0.42422
0.49026
0.51228
0.51736
0.49534
0.47333
0.45301
0.43438
0.43099
0.45131
0.48688
0.52583
0.58002
0.56816
0.51058
0.36325
0.19221
0.019475
-0.085521
-0.097375
-0.029636
0.058425
0.12278
0.16511
0.18205
0.1939
0.19052
0.1939
0.18544
0.17019
0.14479
0.097375
0.055038
0.024555
0.00084674
-0.016088
-0.03641
-0.048264
-0.066892
-0.097375
-0.14479
-0.17866
-0.221
-0.24979
-0.2718
-0.29043
-0.31414
-0.33954
-0.3497
-0.36833
-0.38188
-0.39881
-0.42252
-0.43946
-0.44285
-0.4293
-0.42591
-0.41914
-0.41575
-0.40559
-0.39712
-0.37849
-0.34462
-0.30567
-0.26164
-0.17528
-0.049958
0.088908
0.22439
0.29721
0.31075
0.2464
0.026249
-0.38527
-0.76122
-0.91871
-0.80525
-0.52921
-0.30737
-0.13294
0.0093141
0.16511
0.30737
0.40898
0.46317
0.49365
0.52583
0.54445
0.54953
0.56647
0.59187
0.62235
0.65453
0.69856
0.7155
0.68671
0.61727
0.4818
0.34124
0.19898
0.10415
0.082134
0.11262
0.16681
0.21423
0.24471
0.25656
0.25656
0.23285
0.21253
0.18713
0.15495
0.11939
0.068586
0.04149
-0.0059272
-0.034716
-0.070279
-0.10076
-0.13124
-0.15665
-0.18713
-0.21931
-0.2464
-0.26334
-0.26672
-0.28366
-0.29551
-0.31922
-0.34462
-0.36664
-0.37511
-0.38019
-0.38357
-0.38357
-0.37511
-0.37849
-0.37172
-0.36156
-0.36156
-0.35478
-0.36156
-0.37003
-0.36494
-0.35986
-0.33446
-0.30906
-0.26672
-0.18713
-0.061812
0.078747
0.21253
0.29721
0.30737
0.22269
-0.021169
-0.43268
-0.76461
-0.87299
-0.73582
-0.48857
-0.28704
-0.10415
0.071973
0.23455
0.35817
0.45131
0.49534
0.51736
0.52752
0.52583
0.51228
0.49704
0.49534
0.50381
0.5072
0.51566
0.54784
0.5597
0.55123
0.47333
0.34462
0.1685
0.029636
-0.011008
0.033023
0.15665
0.2718
0.37172
0.43946
0.48349
0.51397
0.52413
0.52075
0.46317
0.35478
0.24471
0.17019
0.14141
0.17189
0.25487
0.34801
0.41914
0.44115
0.46486
0.46655
0.44793
0.38188
0.24979
0.1177
0.027942
0.0025402
0.033023
0.058425
0.087214
0.092295
0.095682
0.085521
0.073666
0.053345
0.034716
0.014395
-0.011008
-0.04149
-0.085521
-0.11092
-0.14479
-0.16511
-0.18374
-0.21253
-0.23793
-0.2718
-0.30906
-0.34293
-0.37172
-0.39204
-0.4039
-0.41914
-0.41914
-0.41575
-0.42252
-0.42591
-0.4276
-0.42422
-0.43438
-0.44115
-0.44115
-0.44115
-0.43946
-0.43607
-0.42591
-0.41914
-0.41067
-0.40728
-0.39204
-0.36494
-0.31922
-0.26503
-0.21084
-0.11939
-0.012701
0.11939
0.23116
0.30737
0.30059
0.18713
-0.085521
-0.51566
-0.8171
-0.895
-0.72904
-0.49196
-0.32769
-0.17528
-0.022862
0.12616
0.24471
0.33616
0.4039
0.43946
0.45639
0.43946
0.41914
0.39543
0.39712
0.41744
0.45301
0.49873
0.51566
0.51058
0.46317
0.40051
0.29551
0.16681
0.014395
-0.097375
-0.12108
-0.056732
0.060119
0.15834
0.25826
0.33108
0.38696
0.43438
0.45301
0.44454
0.38188
0.29043
0.20914
0.14987
0.12447
0.13971
0.20576
0.27519
0.33954
0.37172
0.40559
0.41236
0.39881
0.3243
0.18882
0.051651
-0.048264
-0.08044
-0.065199
-0.016088
0.026249
0.055038
0.063506
0.053345
0.039797
0.0076207
-0.011008
-0.044877
-0.087214
-0.13294
-0.17189
-0.19898
-0.22947
-0.25656
-0.28704
-0.30906
-0.33277
-0.34801
-0.37511
-0.39373
-0.40898
-0.4276
-0.44285
-0.46486
-0.46655
-0.47502
-0.45978
-0.45131
-0.44962
-0.4547
-0.46317
-0.46825
-0.47671
-0.4801
-0.47333
-0.46825
-0.47333
-0.46994
-0.46317
-0.45809
-0.45301
-0.43607
-0.42083
-0.40728
-0.39204
-0.37511
-0.34293
-0.2989
-0.24471
-0.19052
-0.097375
0.026249
0.17189
0.27858
0.31753
0.29043
0.15495
-0.16003
-0.55123
-0.7917
-0.80864
-0.62235
-0.40728
-0.2464
-0.085521
0.08044
0.22439
0.32769
0.40728
0.46147
0.4818
0.47671
0.46825
0.46147
0.47841
0.49704
0.52413
0.53429
0.55631
0.55631
0.5326
0.44962
0.32599
0.17019
0.011008
-0.078747
-0.073666
0.012701
0.1431
0.2464
0.34293
0.39543
0.42083
0.43946
0.43268
0.41575
0.37511
0.30906
0.23455
0.17189
0.12786
0.12786
0.18036
0.25826
0.34462
0.37849
0.41914
0.41575
0.39373
0.31414
0.18713
0.065199
-0.053345
-0.11262
-0.10584
-0.063506
-0.019475
0.021169
0.038103
0.038103
0.016088
-0.0076207
-0.038103
-0.077053
-0.10923
-0.1431
-0.17189
-0.20237
-0.22439
-0.24471
-0.26842
-0.28196
-0.2989
-0.32599
-0.35478
-0.37849
-0.40559
-0.42591
-0.44115
-0.45978
-0.47502
-0.49365
-0.50042
-0.51397
-0.52075
-0.51566
-0.50889
-0.49873
-0.49704
-0.49534
-0.5072
-0.50889
-0.51058
-0.50212
-0.49196
-0.4801
-0.46825
-0.46994
-0.46825
-0.46317
-0.45301
-0.44454
-0.43607
-0.43268
-0.43268
-0.40898
-0.3768
-0.32599
-0.26334
-0.17019
-0.034716
0.11431
0.24132
0.31583
0.32091
0.22777
-0.00084674
-0.38357
-0.70025
-0.82218
-0.71041
-0.48518
-0.31245
-0.15326
-0.00084674
0.14818
0.27858
0.37003
0.43776
0.47671
0.51905
0.56139
0.60203
0.6359
0.64437
0.65622
0.6376
0.62066
0.54445
0.4276
0.2735
0.15326
0.088908
0.11092
0.17189
0.22777
0.24809
0.24979
0.24809
0.24132
0.23455
0.21592
0.19221
0.15665
0.12447
0.10076
0.071973
0.049958
0.026249
-0.0059272
-0.031329
-0.071973
-0.10754
-0.14479
-0.15495
-0.14818
-0.093988
-0.021169
0.073666
0.15326
0.17189
0.13463
0.048264
-0.10246
-0.33785
-0.56478
-0.67655
-0.63082
-0.45978
-0.29721
-0.17358
-0.071973
0.053345
0.17019
0.26164
0.32769
0.35986
0.36156
0.33954
0.31075
0.27858
0.25148
0.22777
0.21761
0.20745
0.19221
0.21253
0.25487
0.31414
0.37341
0.41067
0.39543
0.32599
0.19221
0.017782
-0.1431
-0.25148
-0.28874
-0.26164
-0.16681
-0.019475
0.12278
0.23624
0.29043
0.32261
0.31075
0.2989
0.25995
0.18882
0.10584
0.021169
-0.024555
-0.051651
-0.043184
-0.016088
-0.0025402
-0.011008
-0.038103
-0.055038
-0.070279
-0.087214
-0.10076
-0.12616
-0.14987
-0.17189
-0.1939
-0.221
-0.24809
-0.2718
-0.29213
-0.32261
-0.34632
-0.37172
-0.4022
-0.4276
-0.44454
-0.45978
-0.46825
-0.47333
-0.47841
-0.4801
-0.47502
-0.45978
-0.45301
-0.45301
-0.4547
-0.47163
-0.48688
-0.50212
-0.50212
-0.49365
-0.49196
-0.48349
-0.47841
-0.46486
-0.45301
-0.43946
-0.42591
-0.41406
-0.40728
-0.40559
-0.41914
-0.4276
-0.4276
-0.44115
-0.43776
-0.4276
-0.40728
-0.37003
-0.31583
-0.24809
-0.18544
-0.10415
0.039797
0.20745
0.37003
0.43607
0.44454
0.3514
0.15834
-0.14141
-0.44115
-0.56986
-0.53091
-0.3514
-0.20237
-0.061812
0.073666
0.1956
0.30059
0.41744
0.53599
0.64606
0.72227
0.74598
0.7409
0.7409
0.7409
0.7155
0.6359
0.51736
0.38188
0.28704
0.24301
0.28027
0.36325
0.47502
0.558
0.62574
0.61727
0.57324
0.5326
0.50889
0.46147
0.38865
0.25656
0.11939
0.04149
0.055038
0.12786
0.19898
0.24301
0.28535
0.37511
0.46317
0.52413
0.51736
0.46655
0.41067
0.36156
0.29551
0.19052
0.085521
-0.016088
-0.056732
-0.053345
-0.011008
0.049958
0.17189
0.27858
0.39035
0.42422
0.4022
0.33954
0.2464
0.13971
0.048264
-0.060119
-0.15157
-0.18544
-0.16003
-0.10584
-0.049958
-0.022862
-0.00084674
0.00084674
-0.0042337
-0.017782
-0.03641
-0.058425
-0.077053
-0.10584
-0.13802
-0.16681
-0.1939
-0.22608
-0.25318
-0.28535
-0.30567
-0.33277
-0.35986
-0.38696
-0.41406
-0.4276
-0.4276
-0.43946
-0.45639
-0.47333
-0.49026
-0.50889
-0.5072
-0.50381
-0.50212
-0.50381
-0.50381
-0.51228
-0.51566
-0.51397
-0.49534
-0.47671
-0.46994
-0.47163
-0.4801
-0.48349
-0.4818
-0.46994
-0.47163
-0.47502
-0.47841
-0.48688
-0.48518
-0.48518
-0.46486
-0.45301
-0.4276
-0.40728
-0.38357
-0.36833
-0.35817
-0.3514
-0.35309
-0.35309
-0.35986
-0.35986
-0.36494
-0.33954
-0.29721
-0.23285
-0.14987
0.012701
0.1956
0.38696
0.49534
0.51905
0.45639
0.30906
0.046571
-0.27858
-0.48349
-0.49365
-0.34293
-0.15326
-0.0025402
0.14987
0.31075
0.46147
0.60203
0.69517
0.75275
0.79678
0.8188
0.81202
0.77815
0.72904
0.67485
0.62235
0.6105
0.64437
0.70364
0.7138
0.69348
0.66638
0.65961
0.62743
0.55292
0.39712
0.2464
0.15665
0.13463
0.15326
0.18544
0.221
0.22777
0.25487
0.32261
0.41575
0.50042
0.52413
0.4818
0.40898
0.33785
0.2464
0.13633
0.0076207
-0.093988
-0.13294
-0.099069
0.011008
0.17189
0.31753
0.4276
0.45639
0.43607
0.39373
0.34801
0.28535
0.19898
0.095682
0.022862
-0.0093141
-0.011008
0.0042337
0.033023
0.046571
0.043184
0.031329
0.0059272
-0.024555
-0.055038
-0.07536
-0.099069
-0.13463
-0.16173
-0.19221
-0.21423
-0.24301
-0.27011
-0.30229
-0.33108
-0.34462
-0.36833
-0.38527
-0.4022
-0.40898
-0.42252
-0.44285
-0.46655
-0.48857
-0.50042
-0.51228
-0.51058
-0.51736
-0.50889
-0.50381
-0.50042
-0.5072
-0.50889
-0.51058
-0.51566
-0.51228
-0.50889
-0.49704
-0.49365
-0.48349
-0.46994
-0.47841
-0.48349
-0.48349
-0.46825
-0.44962
-0.41914
-0.4022
-0.39373
-0.39373
-0.38357
-0.37511
-0.36664
-0.35309
-0.33616
-0.31414
-0.23285
-0.071973
0.085521
0.24471
0.34124
0.39373
0.43438
0.45131
0.38527
0.1956
-0.10246
-0.34632
-0.41575
-0.32261
-0.15495
0.011008
0.15326
0.26842
0.37003
0.44454
0.51058
0.55292
0.57832
0.5851
0.60034
0.60542
0.60034
0.5851
0.62235
0.68671
0.75106
0.73751
0.67993
0.62405
0.58002
0.51397
0.4022
0.24132
0.11431
0.053345
0.049958
0.093988
0.14141
0.17697
0.18544
0.20237
0.21761
0.221
0.20576
0.16681
0.13463
0.099069
0.07536
0.051651
0.027942
-0.016088
-0.060119
-0.10246
-0.1431
-0.18205
-0.21761
-0.23285
-0.22777
-0.15157
-0.029636
0.095682
0.17358
0.17697
0.10246
-0.0076207
-0.1431
-0.30398
-0.43099
-0.4547
-0.38357
-0.24809
-0.1431
-0.073666
-0.026249
0.019475
0.060119
0.10415
0.14479
0.16342
0.19221
0.19221
0.18544
0.17866
0.19052
0.25318
0.31583
0.37511
0.37511
0.35817
0.32091
0.24301
0.099069
-0.07536
-0.23624
-0.32091
-0.32261
-0.24809
-0.13463
-0.056732
-0.011008
0.011008
0.019475
0.033023
0.053345
0.12616
0.23116
0.34124
0.39204
0.38527
0.32599
0.24471
0.13463
0.0042337
-0.12955
-0.23116
-0.2718
-0.2464
-0.13971
0.019475
0.17189
0.28874
0.34632
0.33446
0.27858
0.20745
0.12955
0.053345
-0.0076207
-0.048264
-0.063506
-0.066892
-0.053345
-0.060119
-0.073666
-0.092295
-0.11262
-0.13802
-0.16003
-0.18036
-0.1956
-0.22269
-0.25318
-0.28535
-0.32261
-0.35986
-0.38019
-0.41236
-0.43268
-0.45639
-0.46486
-0.4818
-0.49365
-0.5055
-0.51228
-0.52413
-0.5326
-0.52752
-0.53091
-0.52583
-0.51905
-0.51905
-0.52413
-0.52413
-0.52244
-0.52583
-0.52752
-0.52921
-0.52583
-0.52244
-0.5055
-0.48857
-0.47841
-0.46147
-0.44285
-0.4276
-0.41914
-0.40898
-0.39881
-0.38527
-0.37003
-0.35986
-0.35648
-0.35986
-0.35986
-0.3497
-0.35309
-0.34462
-0.33108
-0.31245
-0.29551
-0.28027
-0.28535
-0.28366
-0.28027
-0.26842
-0.25826
-0.26334
-0.26334
-0.26672
-0.26672
-0.26503
-0.26164
-0.26164
-0.27011
-0.2718
-0.28196
-0.28196
-0.27688
-0.26334
-0.25826
-0.25148
-0.24979
-0.24471
-0.24301
-0.23793
-0.22777
-0.21084
-0.14141
0.03641
0.26842
0.50889
0.68163
0.77815
0.78154
0.63082
0.31414
-0.070279
-0.30567
-0.32261
-0.15495
0.043184
0.22269
0.37172
0.50042
0.60542
0.69517
0.77138
0.82557
0.88823
0.96444
1
0.99323
0.94073
0.90008
0.84251
0.77985
0.69856
0.63251
0.59187
0.56647
0.54445
0.57155
0.61558
0.67485
0.67316
0.62913
0.59356
0.57663
0.54107
0.45809
0.31414
0.17358
0.092295
0.085521
0.11262
0.14818
0.16681
0.18544
0.19052
0.18544
0.17528
0.15834
0.12786
0.10076
0.085521
0.063506
0.053345
0.03641
0.016088
-0.0093141
-0.033023
-0.061812
-0.095682
-0.13802
-0.18374
-0.1956
-0.15834
-0.063506
0.071973
0.14818
0.18036
0.14649
0.048264
-0.065199
-0.22439
-0.39035
-0.48349
-0.48518
-0.37511
-0.25826
-0.18544
-0.12108
-0.065199
-0.0076207
0.048264
0.099069
0.13633
0.16173
0.20745
0.26334
0.34801
0.40898
0.42422
0.38527
0.32599
0.25826
0.17528
0.058425
-0.085521
-0.19052
-0.23285
-0.21761
-0.16173
-0.11092
-0.071973
-0.056732
-0.038103
-0.046571
-0.043184
-0.027942
-0.022862
-0.029636
-0.056732
-0.088908
-0.12616
-0.16511
-0.19898
-0.22947
-0.25826
-0.28874
-0.30906
-0.33446
-0.3514
-0.37511
-0.40559
-0.43776
-0.45301
-0.46486
-0.47502
-0.48518
-0.48688
-0.48518
-0.50042
-0.50212
-0.5055
-0.50042
-0.49365
-0.48518
-0.48518
-0.4818
-0.47333
-0.47163
-0.4801
-0.48518
-0.4801
-0.46147
-0.43776
-0.40898
-0.39035
-0.37849
-0.32261
-0.20237
-0.049958
0.10415
0.23285
0.30906
0.34801
0.34801
0.27688
0.088908
-0.20237
-0.46994
-0.56986
-0.4818
-0.28704
-0.10584
0.029636
0.14649
0.26164
0.3497
0.41406
0.45131
0.48518
0.53429
0.59526
0.663
0.69348
0.70025
0.67655
0.63251
0.55461
0.48688
0.44285
0.4039
0.36664
0.30229
0.25148
0.20914
0.18713
0.17866
0.18205
0.18205
0.1956
0.23793
0.31414
0.41236
0.50042
0.54445
0.52583
0.45809
0.32091
0.13971
-0.03641
-0.15326
-0.19898
-0.18374
-0.092295
0.03641
0.1956
0.33108
0.41406
0.46317
0.43946
0.39035
0.30737
0.22608
0.17019
0.11939
0.088908
0.070279
0.077053
0.088908
0.082134
0.056732
0.029636
-0.012701
-0.055038
-0.090601
-0.12108
-0.12278
-0.11939
-0.097375
-0.048264
0.053345
0.19052
0.31583
0.3514
0.27688
0.13294
-0.085521
-0.29382
-0.44623
-0.51058
-0.49704
-0.41067
-0.29382
-0.17528
-0.029636
0.10246
0.21592
0.26334
0.26842
0.24471
0.20914
0.16342
0.116
0.066892
0.034716
0.019475
0.012701
0.014395
0.019475
0.021169
0.022862
0.051651
0.11262
0.19729
0.25656
0.26672
0.21423
0.078747
-0.116
-0.30059
-0.42252
-0.45978
-0.41575
-0.34124
-0.26334
-0.20745
-0.15834
-0.13294
-0.11939
-0.10754
-0.097375
-0.088908
-0.097375
-0.116
-0.14987
-0.1939
-0.22947
-0.26672
-0.30398
-0.3497
-0.39543
-0.44623
-0.49026
-0.51058
-0.5055
-0.50042
-0.49026
-0.47841
-0.47671
-0.48857
-0.51905
-0.54615
-0.57494
-0.58171
-0.5834
-0.57155
-0.56647
-0.54784
-0.52413
-0.51228
-0.49704
-0.4801
-0.47163
-0.47841
-0.49196
-0.51228
-0.53091
-0.52752
-0.51736
-0.49196
-0.46994
-0.4293
-0.38527
-0.36494
-0.34801
-0.33277
-0.31922
-0.31583
-0.30906
-0.30229
-0.2989
-0.29721
-0.29213
-0.27688
-0.2735
-0.26334
-0.2718
-0.27858
-0.28027
-0.2718
-0.26842
-0.27519
-0.28535
-0.29043
-0.29213
-0.27519
-0.24301
-0.221
-0.1939
-0.17189
-0.15665
-0.15665
-0.16511
-0.18036
-0.1939
-0.21084
-0.21423
-0.20914
-0.20745
-0.20068
-0.1956
-0.19221
-0.1685
-0.034716
0.14818
0.36664
0.53937
0.62913
0.69687
0.71719
0.64268
0.41067
0.082134
-0.15326
-0.20068
-0.085521
0.10415
0.25487
0.40051
0.52752
0.66469
0.77985
0.84759
0.90178
0.92549
0.92887
0.90686
0.85605
0.80356
0.76799
0.76291
0.80017
0.83573
0.80694
0.75953
0.71888
0.72396
0.71888
0.663
0.54953
0.42422
0.34124
0.30567
0.31753
0.39712
0.50042
0.59695
0.60034
0.54784
0.48518
0.43776
0.42083
0.36664
0.2718
0.15326
0.044877
-0.026249
-0.046571
-0.019475
0.034716
0.088908
0.13633
0.1685
0.18036
0.17358
0.15157
0.11939
0.078747
0.03641
-0.00084674
-0.04149
-0.10076
-0.16003
-0.21592
-0.25995
-0.28027
-0.29043
-0.29382
-0.31583
-0.3514
-0.39035
-0.43946
-0.48349
-0.49365
-0.46994
-0.37849
-0.24301
-0.07536
0.012701
0.063506
0.051651
-0.00084674
-0.1177
-0.32091
-0.53091
-0.65284
-0.6359
-0.51905
-0.38188
-0.27688
-0.19052
-0.12108
-0.043184
0.048264
0.17358
0.31583
0.40898
0.44793
0.4293
0.4039
0.36494
0.31753
0.24301
0.15834
0.082134
0.016088
-0.026249
-0.039797
-0.014395
0.0025402
0.016088
0.017782
0.011008
-0.0042337
-0.033023
-0.063506
-0.10584
-0.13802
-0.17866
-0.22439
-0.27011
-0.2989
-0.2989
-0.29382
-0.28535
-0.28874
-0.29382
-0.30906
-0.32938
-0.34801
-0.38865
-0.41236
-0.43946
-0.46825
-0.50212
-0.52413
-0.5326
-0.53768
-0.53091
-0.52413
-0.52413
-0.53091
-0.52244
-0.50381
-0.47841
-0.45131
-0.43607
-0.43268
-0.44115
-0.45639
-0.46825
-0.4801
-0.48349
-0.47333
-0.4547
-0.39204
-0.26672
-0.13463
0.0042337
0.10246
0.16003
0.23624
0.27519
0.21084
-0.04149
-0.44115
-0.76461
-0.84759
-0.68501
-0.44454
-0.23963
-0.10246
0.039797
0.18882
0.33277
0.43268
0.50381
0.55461
0.58171
0.59356
0.58679
0.58171
0.57663
0.58171
0.59187
0.59187
0.57832
0.57494
0.56816
0.55461
0.49365
0.46486
0.46486
0.46825
0.41575
0.29043
0.14479
0.078747
0.078747
0.1177
0.16511
0.18882
0.20068
0.1939
0.19729
0.20406
0.19898
0.18882
0.17528
0.15326
0.12786
0.095682
0.071973
0.053345
0.024555
0.021169
0.00084674
-0.011008
-0.026249
-0.046571
-0.071973
-0.10584
-0.13124
-0.15495
-0.18544
-0.20745
-0.22439
-0.24301
-0.26842
-0.28027
-0.29551
-0.29721
-0.30059
-0.2989
-0.29551
-0.29382
-0.28196
-0.2718
-0.25826
-0.25318
-0.2464
-0.25148
-0.23793
-0.21423
-0.20576
-0.19729
-0.19729
-0.19052
-0.1939
-0.19898
-0.20406
-0.21592
-0.22947
-0.2464
-0.25487
-0.2735
-0.27519
-0.26334
-0.24471
-0.23285
-0.21761
-0.20576
-0.18713
-0.17189
-0.15834
-0.14479
-0.12955
-0.095682
-0.07536
-0.065199
-0.056732
-0.046571
-0.033023
-0.034716
-0.029636
-0.03641
-0.046571
-0.066892
-0.077053
-0.083827
-0.097375
-0.093988
-0.087214
-0.07536
-0.060119
-0.034716
0.04149
0.18205
0.36156
0.5326
0.62913
0.71211
0.83743
0.89331
0.78323
0.42422
-0.04149
-0.32091
-0.33954
-0.15834
0.03641
0.18036
0.29721
0.39712
0.49534
0.59018
0.68501
0.76122
0.82896
0.88146
0.92549
0.93903
0.92379
0.89331
0.85436
0.83573
0.83065
0.80864
0.7917
0.76461
0.7392
0.6884
0.61558
0.5326
0.4547
0.39035
0.35648
0.35309
0.40898
0.45978
0.52752
0.54953
0.54107
0.57663
0.56478
0.51058
0.37003
0.17019
0.044877
-0.00084674
0.03641
0.083827
0.1177
0.13124
0.16173
0.17358
0.16681
0.14649
0.11092
0.078747
0.055038
0.029636
-0.0025402
-0.04149
-0.078747
-0.10923
-0.13971
-0.16342
-0.18205
-0.21084
-0.23455
-0.25487
-0.27688
-0.30567
-0.32938
-0.3497
-0.37511
-0.39035
-0.40559
-0.43438
-0.46317
-0.47502
-0.4276
-0.3243
-0.17189
-0.051651
0.049958
0.092295
0.070279
-0.039797
-0.29213
-0.54953
-0.68163
-0.65284
-0.51058
-0.37003
-0.24471
-0.13802
-0.014395
0.11431
0.23116
0.29551
0.3243
0.31922
0.30398
0.26672
0.221
0.18544
0.17528
0.18544
0.17528
0.15326
0.13971
0.1431
0.15157
0.13971
0.11939
0.088908
0.056732
0.017782
-0.019475
-0.061812
-0.10246
-0.15495
-0.21592
-0.28366
-0.33954
-0.35309
-0.34801
-0.32599
-0.30229
-0.31414
-0.32938
-0.34801
-0.35648
-0.35817
-0.36156
-0.35817
-0.36325
-0.36325
-0.37341
-0.3768
-0.38357
-0.3768
-0.38357
-0.4022
-0.44285
-0.47841
-0.49873
-0.50889
-0.49704
-0.48688
-0.49704
-0.52075
-0.53768
-0.52075
-0.48688
-0.44115
-0.40728
-0.38527
-0.38188
-0.36833
-0.35478
-0.33954
-0.32599
-0.30398
-0.30229
-0.30906
-0.31922
-0.33277
-0.34293
-0.34801
-0.34124
-0.33446
-0.33108
-0.31414
-0.29043
-0.25487
-0.22777
-0.21761
-0.22439
-0.23116
-0.221
-0.20406
-0.19221
-0.18544
-0.18205
-0.18544
-0.19052
-0.18036
-0.18205
-0.17189
-0.16342
-0.15326
-0.15834
-0.17358
-0.18374
-0.18713
-0.18544
-0.16342
-0.14141
-0.12786
-0.11431
-0.11262
-0.10923
-0.10584
-0.10754
-0.085521
-0.053345
0.053345
0.18713
0.34801
0.49704
0.60034
0.73751
0.85775
0.83235
0.57155
0.10923
-0.31753
-0.4547
-0.34293
-0.12786
0.049958
0.19052
0.31753
0.44623
0.56139
0.64437
0.69856
0.74767
0.80694
0.86113
0.89839
0.92041
0.91871
0.88992
0.85267
0.81202
0.78662
0.76291
0.71888
0.65792
0.5834
0.52921
0.51397
0.53768
0.558
0.56816
0.52752
0.48349
0.48857
0.5055
0.5055
0.45301
0.36833
0.29213
0.24809
0.24132
0.2718
0.28704
0.2989
0.2989
0.28535
0.25148
0.20914
0.16681
0.11262
0.068586
0.012701
-0.039797
-0.082134
-0.11262
-0.13802
-0.16342
-0.1939
-0.21761
-0.22947
-0.22777
-0.22269
-0.21761
-0.22947
-0.23793
-0.25487
-0.2735
-0.29721
-0.32599
-0.35986
-0.39035
-0.41575
-0.4022
-0.33277
-0.20237
-0.051651
0.092295
0.17866
0.17866
0.060119
-0.18713
-0.4801
-0.65284
-0.68332
-0.57494
-0.43099
-0.29043
-0.15495
-0.00084674
0.17019
0.31414
0.41236
0.44285
0.4293
0.40051
0.35309
0.29721
0.23116
0.18544
0.16173
0.15834
0.14141
0.13463
0.12955
0.116
0.099069
0.087214
0.087214
0.07536
0.066892
0.053345
0.039797
0.017782
-0.0076207
-0.046571
-0.097375
-0.14141
-0.18036
-0.21253
-0.24809
-0.28366
-0.31753
-0.36494
-0.39543
-0.42083
-0.43099
-0.43776
-0.43776
-0.44115
-0.45978
-0.46486
-0.46994
-0.45131
-0.42591
-0.39204
-0.37003
-0.35648
-0.35309
-0.34801
-0.3514
-0.36156
-0.37172
-0.39035
-0.40728
-0.41575
-0.41744
-0.40559
-0.40051
-0.38188
-0.35817
-0.34632
-0.34293
-0.3497
-0.36494
-0.36494
-0.35648
-0.33277
-0.31414
-0.29043
-0.2718
-0.25826
-0.24809
-0.23793
-0.23793
-0.25148
-0.26164
-0.26842
-0.27688
-0.28027
-0.2718
-0.26334
-0.25318
-0.23624
-0.21253
-0.19221
-0.17189
-0.16003
-0.16173
-0.16173
-0.17528
-0.18205
-0.17866
-0.15834
-0.14141
-0.116
-0.11939
-0.1177
-0.11431
-0.082134
0.012701
0.13294
0.2735
0.36664
0.43099
0.56478
0.67485
0.64945
0.3768
-0.043184
-0.37341
-0.42252
-0.28196
-0.078747
0.063506
0.18205
0.30229
0.4276
0.56308
0.67993
0.76122
0.7934
0.80356
0.80356
0.79848
0.78831
0.74428
0.69179
0.67146
0.69009
0.6884
0.66977
0.61219
0.57324
0.58002
0.58002
0.57494
0.52244
0.43946
0.36494
0.32599
0.35817
0.43438
0.51566
0.48349
0.43438
0.39373
0.39712
0.40728
0.36156
0.26334
0.15157
0.078747
0.053345
0.07536
0.10923
0.13802
0.15157
0.14818
0.14479
0.14479
0.13463
0.10754
0.088908
0.066892
0.044877
0.027942
0.011008
-0.0076207
-0.039797
-0.070279
-0.11092
-0.15665
-0.19898
-0.23963
-0.27858
-0.31414
-0.33785
-0.35648
-0.38188
-0.40898
-0.42591
-0.43438
-0.43268
-0.40898
-0.38696
-0.38019
-0.36833
-0.36494
-0.36156
-0.35648
-0.35817
-0.36664
-0.36833
-0.37511
-0.36325
-0.35986
-0.35986
-0.36494
-0.37172
-0.39373
-0.41236
-0.41406
-0.41406
-0.40728
-0.4039
-0.4039
-0.4022
-0.39035
-0.35648
-0.32769
-0.2989
-0.28196
-0.26842
-0.26672
-0.26503
-0.2718
-0.28535
-0.28874
-0.28535
-0.27519
-0.28196
-0.27519
-0.26334
-0.26672
-0.27011
-0.28366
-0.28535
-0.29382
-0.28535
-0.26334
-0.2464
-0.21761
-0.19729
-0.17189
-0.15495
-0.13802
-0.12786
-0.12786
-0.12786
-0.13463
-0.14479
-0.15665
-0.16003
-0.17697
-0.18544
-0.17358
-0.088908
0.026249
0.17866
0.30229
0.37511
0.48688
0.59695
0.5851
0.36494
-0.048264
-0.40559
-0.51397
-0.40051
-0.18882
-0.012701
0.11262
0.20914
0.31583
0.44115
0.54615
0.63082
0.67993
0.70195
0.72566
0.7409
0.7392
0.70533
0.66638
0.64945
0.64268
0.61558
0.59018
0.53091
0.51566
0.5326
0.54953
0.5597
0.54615
0.49365
0.42422
0.36325
0.35309
0.41406
0.47333
0.50381
0.46825
0.41575
0.4022
0.41406
0.41575
0.3514
0.24471
0.13633
0.073666
0.044877
0.063506
0.08044
0.088908
0.11939
0.13633
0.16173
0.15495
0.13633
0.10415
0.061812
0.016088
-0.017782
-0.065199
-0.097375
-0.14141
-0.19221
-0.23963
-0.28366
-0.30906
-0.32938
-0.34801
-0.35986
-0.37341
-0.39204
-0.4039
-0.40898
-0.40898
-0.4022
-0.38865
-0.38527
-0.39035
-0.39712
-0.40898
-0.42422
-0.4276
-0.42252
-0.42252
-0.42252
-0.43607
-0.44115
-0.45301
-0.45639
-0.45639
-0.4547
-0.44962
-0.43099
-0.42591
-0.42083
-0.4276
-0.4293
-0.42252
-0.41914
-0.39035
-0.35648
-0.33277
-0.31583
-0.31245
-0.30567
-0.32091
-0.32599
-0.33616
-0.34801
-0.36156
-0.37341
-0.38019
-0.39204
-0.37511
-0.38019
-0.38696
-0.39881
-0.39712
-0.39373
-0.38188
-0.31075
-0.18205
-0.021169
0.087214
0.14649
0.18374
0.23963
0.26842
0.1939
-0.038103
-0.33108
-0.5597
-0.62574
-0.55631
-0.40728
-0.27519
-0.17358
-0.10415
-0.031329
0.043184
0.12616
0.22608
0.30059
0.35478
0.39035
0.4039
0.41575
0.43268
0.49196
0.5597
0.60203
0.56986
0.49026
0.39035
0.31414
0.24979
0.17697
0.11939
0.10415
0.13294
0.17019
0.20068
0.21423
0.19221
0.1431
0.093988
0.046571
0.0093141
-0.0093141
-0.011008
-0.0093141
-0.016088
-0.024555
-0.044877
-0.073666
-0.093988
-0.11262
-0.13633
-0.16681
-0.19729
-0.23455
-0.26334
-0.28704
-0.30229
-0.31922
-0.34293
-0.36156
-0.38019
-0.39204
-0.39543
-0.38357
-0.38188
-0.3768
-0.37511
-0.37003
-0.37511
-0.38527
-0.39373
-0.41067
-0.42252
-0.43268
-0.44115
-0.44793
-0.46317
-0.46825
-0.47841
-0.46825
-0.45301
-0.45131
-0.46655
-0.49196
-0.49365
-0.4818
-0.44793
-0.41236
-0.36833
-0.32599
-0.28027
-0.2464
-0.23285
-0.23285
-0.22777
-0.21931
-0.21084
-0.20576
-0.20068
-0.20745
-0.21592
-0.21761
-0.221
-0.22269
-0.21592
-0.21592
-0.21592
-0.21253
-0.20576
-0.21253
-0.21761
-0.21253
-0.20068
-0.18036
-0.16173
-0.13971
-0.1177
-0.10246
-0.083827
-0.083827
-0.093988
-0.10415
-0.10923
-0.10584
-0.10246
-0.097375
-0.093988
-0.095682
-0.10076
-0.095682
-0.065199
0.051651
0.1939
0.40051
0.52583
0.59018
0.68501
0.73751
0.68163
0.45978
0.097375
-0.1956
-0.29043
-0.21084
-0.026249
0.15834
0.30059
0.4039
0.47163
0.54276
0.6359
0.72227
0.79509
0.8188
0.80864
0.77646
0.74936
0.71888
0.67146
0.66977
0.71211
0.77646
0.78493
0.7392
0.65622
0.60542
0.57324
0.56647
0.56139
0.53429
0.4818
0.41406
0.38527
0.42083
0.44793
0.44115
0.38527
0.35817
0.36325
0.38019
0.39035
0.36664
0.31583
0.26503
-0.44115
